Channel, ,Pass/Fail, ,Amplitude, ,Sorting Function Response, ,Mean, ,Variance
88, ,PASS, ,0.075702203989523, ,0.04574323832036253, ,0.005027597175159297, ,0.0007278375711455281
89, ,PASS, ,0.09835205883715001, ,0.058738694749766306, ,0.008494571948165962, ,0.0012011584821203182
90, ,PASS, ,0.10231925145475301, ,0.053231699532957415, ,0.014894858715560825, ,0.001134970787557643
91, ,PASS, ,0.084200680642982, ,0.05701375082467158, ,0.00843622997591577, ,0.0009926352284632771
92, ,PASS, ,0.102429891752739, ,0.06097766647308812, ,0.00882666559668417, ,0.0012983300990779942
93, ,PASS, ,0.10373822773570299, ,0.05909810539519067, ,0.008739730824446129, ,0.001276684313333878
94, ,PASS, ,0.07895489148429, ,0.05758214750916684, ,0.008120673190392697, ,0.0009381560359195573
95, ,PASS, ,0.10305995459360999, ,0.06114455950424791, ,0.008927629678813755, ,0.0013100854324057532
96, ,PASS, ,0.101780639864409, ,0.05809181750205087, ,0.008609598458667739, ,0.0012310875747234828
97, ,PASS, ,0.077587850607688, ,0.050403475893982946, ,-0.003891468841947097, ,0.0008127710639405751
98, ,PASS, ,0.10715204311306101, ,0.062473632076837975, ,0.009530226896620916, ,0.001392504677443333
99, ,PASS, ,0.103727915318643, ,0.05828837570296709, ,0.008856994808499335, ,0.0012593265873125834
100, ,PASS, ,0.08684757625984099, ,0.05761541928740127, ,0.008109342820073036, ,0.0010359803473473607
101, ,PASS, ,0.105089561120237, ,0.059590843645630165, ,0.009212321817672972, ,0.0013033373441396034
102, ,PASS, ,0.101055748371537, ,0.05680516042174784, ,0.008821229311903196, ,0.0011953596472700464
103, ,PASS, ,0.08737790337444701, ,0.05794847677014806, ,0.008237459257656059, ,0.0010483046032084367
104, ,PASS, ,0.10469425150075601, ,0.059677272221496984, ,0.009301964246373667, ,0.0013005532237642251
105, ,PASS, ,0.10109398519647798, ,0.057133858346846776, ,0.008702490202964739, ,0.0012031343221665265
106, ,PASS, ,0.085658719159907, ,0.059344469897202774, ,0.008227973188574078, ,0.0010511616496886348
107, ,PASS, ,0.10776939897120799, ,0.06141848254421968, ,0.009319989904672274, ,0.0013779870524461544
108, ,PASS, ,0.103744141619644, ,0.05783379923717431, ,0.00923425679579293, ,0.0012495394603872063
109, ,PASS, ,0.07900793695328599, ,0.05763578623202977, ,0.007877351599877876, ,0.000939713547685586
110, ,PASS, ,0.106423506606597, ,0.06126801119550668, ,0.009440624664837409, ,0.0013561685072702432
111, ,PASS, ,0.099860740091237, ,0.05722188616390327, ,0.008940509626113249, ,0.0011893315969838
112, ,PASS, ,0.07774964372853199, ,0.05744846549390922, ,0.008325322599547252, ,0.0009209713633717827
113, ,PASS, ,0.10246020260508298, ,0.05891086372658559, ,0.012130346584854181, ,0.0012553444120560675
114, ,PASS, ,0.100960380070322, ,0.05792653281860219, ,0.008890846589258065, ,0.0012168350564928697
115, ,PASS, ,0.08978514324379402, ,0.05867450954768786, ,0.008613918797164534, ,0.0010909030050947257
116, ,PASS, ,0.112539438101012, ,0.061114393965177066, ,0.009592448613474518, ,0.0014343192775486714
117, ,PASS, ,0.109315573220754, ,0.058708673866319644, ,0.008843013317137502, ,0.0013400035001220683
118, ,PASS, ,0.09261890377676299, ,0.06111899839293917, ,0.00949065695699375, ,0.0011710783746543016
119, ,PASS, ,0.102325019633262, ,0.05035502597845347, ,-0.004972285745895336, ,0.0010858337413200809
120, ,PASS, ,0.10857820201331099, ,0.05844382502083895, ,0.008345953880284111, ,0.0013251591640026752
121, ,PASS, ,0.101391448552165, ,0.05952334961821385, ,0.00921668187643189, ,0.0012519484407328418
122, ,PASS, ,0.11675964951086401, ,0.06020284206648929, ,0.00983320366238955, ,0.001464383537338935
123, ,PASS, ,0.116112866175121, ,0.06488062656696134, ,0.012076692012661991, ,0.0015702718766839115
124, ,PASS, ,0.098949265851354, ,0.05826296715388746, ,0.008774477914220685, ,0.001198564912177306
125, ,PASS, ,0.11148285970343502, ,0.06027851835696095, ,0.009044811026526201, ,0.0014027906682239364
126, ,PASS, ,0.121301986265139, ,0.057492379165490985, ,-0.004487124967517405, ,0.0014334321691407029
198, ,PASS, ,0.105366107457889, ,0.07509012368990796, ,0.009195133314351499, ,0.001714852125920454
199, ,PASS, ,0.08314192172820298, ,0.049359410223940206, ,0.006200830791746284, ,0.000894354168073688
200, ,PASS, ,0.050743195657574, ,0.027878602029213682, ,0.003698392168987472, ,0.0003163141248015414
201, ,PASS, ,0.04262578435052801, ,0.023241760981219384, ,0.0031207201231908998, ,0.00022232520412852132
202, ,PASS, ,0.043896113704904996, ,0.023822175498370266, ,0.0031661446272561898, ,0.0002349338048543856
203, ,PASS, ,0.045675803828277, ,0.024793357859395675, ,0.003342270483799272, ,0.0002534029009595218
204, ,PASS, ,0.069476151533268, ,0.0393651111373045, ,0.005058273263377226, ,0.0005966756369064721
205, ,PASS, ,0.080602333758653, ,0.04632203530297662, ,0.005844105588687234, ,0.0008011286949387805
206, ,PASS, ,0.06650784197374701, ,0.03757959108450045, ,0.004815669904184273, ,0.0005422753203168238
207, ,PASS, ,0.07485015600625, ,0.04348288205634249, ,0.005471990641249769, ,0.0007017554021571358
208, ,PASS, ,0.05540030157400298, ,0.03165757741216791, ,0.004096741701952124, ,0.00038291402786088747
209, ,PASS, ,0.05240327963573101, ,0.030051077850140332, ,0.0038771044573798364, ,0.0003446592565745184
210, ,PASS, ,0.048913025733506, ,0.02743564545803668, ,0.0035683220550433293, ,0.0002953037708267281
211, ,PASS, ,0.05655477044525899, ,0.032499612633794084, ,0.0041869806285120634, ,0.0004031648222667961
212, ,PASS, ,0.08117027031487001, ,0.04853881555980062, ,0.005983081566448321, ,0.0008472084243559438
213, ,PASS, ,0.068142313310258, ,0.03998947678698527, ,0.005009217940735567, ,0.0005889553851670388
214, ,PASS, ,0.059006284984611995, ,0.0341297646556185, ,0.0043342005054594875, ,0.0004371009195304032
215, ,PASS, ,0.072173927736172, ,0.04221106855194939, ,0.005236470565972197, ,0.0006531152445841871
216, ,PASS, ,0.05512236337016101, ,0.03241738024991764, ,0.0040918981721454325, ,0.0003885545848616309
217, ,PASS, ,0.07245470063700202, ,0.044314603306423506, ,0.005475431697887185, ,0.0006885576347274662
218, ,PASS, ,0.05784173196180799, ,0.034495221898132485, ,0.004381155238003155, ,0.0004331667591674346
219, ,PASS, ,0.05985922299413399, ,0.03575949199263032, ,0.004499848960255994, ,0.0004636166780769758
220, ,PASS, ,0.04790874927577099, ,0.028953610465955567, ,0.0036261334997469605, ,0.00030284324655170105
221, ,PASS, ,0.044264049876299005, ,0.02638290943357876, ,0.0033296463823204465, ,0.000255884256619812
222, ,PASS, ,0.044298516633929, ,0.02637317188025503, ,0.0033272431829629748, ,0.00025661437705890076
223, ,PASS, ,0.053356109097269996, ,0.03255192622567505, ,0.004082758963992845, ,0.00037850289054011264
224, ,PASS, ,0.08569148118366102, ,0.05531058104546841, ,0.006633478105436408, ,0.0010119469561982698
225, ,PASS, ,0.062695837487321, ,0.0385335303868135, ,0.004693960322211527, ,0.0005194955352606336
226, ,PASS, ,0.065647781686544, ,0.040586145144919455, ,0.005005687898639756, ,0.0005749462890337878
227, ,PASS, ,0.06352324681768, ,0.03950263698464107, ,0.004821169997652962, ,0.0005426632551088848
228, ,PASS, ,0.04630116155548901, ,0.02846270429247762, ,0.0035233157217491686, ,0.00028735831654709315
229, ,PASS, ,0.044839524357539004, ,0.02715749972907232, ,0.0034209849616303684, ,0.0002661424177956389
230, ,PASS, ,0.042820400454133004, ,0.02609970497855287, ,0.0032897308240144225, ,0.0002439957128206393
231, ,PASS, ,0.051360407784352004, ,0.03125372426627324, ,0.003868426691898436, ,0.00034797943410637243
232, ,PASS, ,0.053042964500617004, ,0.03272526835739513, ,0.0040386191855398285, ,0.000373858998802908
233, ,PASS, ,0.06042057260560801, ,0.03571316545564996, ,0.0044949019012219095, ,0.0004640152851883701
234, ,PASS, ,0.071048400977338, ,0.046412034668363876, ,0.005588802823301942, ,0.0007066570969795545
235, ,PASS, ,0.09046586445541799, ,0.06007624609825317, ,0.0071591065558942275, ,0.0011561635265810225
