Channel, ,Pass/Fail, ,Amplitude, ,Sorting Function Response, ,Mean, ,Variance, ,NPeaksRatio, ,PosIntegralRatio, ,ToT50, ,ToT99
24, ,PASS, ,0.07050787400000001, ,0.009503731503261252, ,0.02550951972235832, ,0.0006817926352101335, ,1.9166666666666667, ,0.721061446626093, ,0.4305422338319626, ,0.05016224158690639
25, ,PASS, ,0.07577690999999999, ,0.008467452671646171, ,0.024966706937819227, ,0.0006607768851810996, ,1.9166666666666667, ,0.6713445434199137, ,0.4128691251198955, ,0.0308156976388237
26, ,PASS, ,0.041686203000000005, ,0.004259753769593756, ,0.02707479076773944, ,0.00018409503774819544, ,1.8333333333333333, ,0.629372942193827, ,0.4368686353339728, ,0.02624436235995184
27, ,PASS, ,0.06987404100000003, ,0.010005085559627, ,0.024128418016762517, ,0.0007174840927658532, ,1.8333333333333333, ,0.7631414553866449, ,0.40876716801697927, ,0.05314177261688537
28, ,PASS, ,0.07416535699999996, ,0.00894931406121029, ,0.02587142964496602, ,0.0006727092759844873, ,1.8333333333333333, ,0.6856873463298523, ,0.43697067406787615, ,0.0311830370808759
29, ,PASS, ,0.04265481599999999, ,0.004720394111076163, ,0.026586812016285388, ,0.0002090404844189313, ,1.9166666666666667, ,0.6794474769900287, ,0.40625701516295587, ,0.0256321299565315
30, ,PASS, ,0.06977671600000002, ,0.009569734087387797, ,0.023788152402562397, ,0.0006815446566928769, ,1.8333333333333333, ,0.7334470813362904, ,0.40203261157935555, ,0.05097855145813351
31, ,PASS, ,0.07324648300000001, ,0.008533764413677702, ,0.025267017279859593, ,0.0006454340024546857, ,1.9166666666666667, ,0.6887977091135632, ,0.4188894104201955, ,0.030856513132385053
32, ,PASS, ,0.042813837999999986, ,0.004812815390449981, ,0.02818920271912818, ,0.00020827298525902474, ,1.8333333333333333, ,0.6903320052054688, ,0.4492969531234056, ,0.02740760392645048
33, ,PASS, ,0.07030561600000002, ,0.00999620648071813, ,0.023901749993514014, ,0.0007225719155829853, ,1.8333333333333333, ,0.7662373284649129, ,0.4038897165363972, ,0.061651803024428076
34, ,PASS, ,0.07256719800000001, ,0.008853296399229783, ,0.024734991435918046, ,0.0006632338386686813, ,1.8333333333333333, ,0.7077545940055754, ,0.41172629130017757, ,0.03077488214526234
35, ,PASS, ,0.042480881, ,0.005073143109237192, ,0.02647211730270811, ,0.00022454052434063646, ,2.0, ,0.7076447775485801, ,0.41323646456194774, ,0.026754556029468787
36, ,PASS, ,0.06713624900000001, ,0.009234955513570411, ,0.02459393904870064, ,0.0006369773937037777, ,1.8333333333333333, ,0.7426412776670447, ,0.4097467398624518, ,0.05324381135078876
37, ,PASS, ,0.07007715200000003, ,0.008181568502136392, ,0.026233152975714782, ,0.0005804518044031512, ,1.8333333333333333, ,0.6718995786971467, ,0.43652170363870124, ,0.02830554478480031
38, ,PASS, ,0.040641502, ,0.004349050086375135, ,0.027481031661598744, ,0.0001825460769803332, ,1.8333333333333333, ,0.6531483463026194, ,0.44209301850982635, ,0.024203587681884044
39, ,PASS, ,0.06702461700000002, ,0.00906576527762402, ,0.02497638475355564, ,0.0006252180889331934, ,1.8333333333333333, ,0.7395734821863766, ,0.4118487377808616, ,0.049794902144854186
40, ,PASS, ,0.06961679100000004, ,0.007730014555963929, ,0.02534917048845942, ,0.0005554361424213694, ,1.8333333333333333, ,0.6683866287556625, ,0.41529764698679617, ,0.028468806759045735
41, ,PASS, ,0.041207297000000004, ,0.004294089239277231, ,0.026473737397195975, ,0.00018392148756961107, ,1.8333333333333333, ,0.663766982257138, ,0.4045427644333789, ,0.025162751780575907
42, ,PASS, ,0.066558105, ,0.009279906596211371, ,0.023955257456450278, ,0.0006340119619834192, ,1.8333333333333333, ,0.7534645787311701, ,0.40229791228750433, ,0.05487643109324299
43, ,PASS, ,0.06904595900000002, ,0.007780588488558146, ,0.025017240734046247, ,0.0005562632337873651, ,1.75, ,0.6868283595315539, ,0.4075835187036999, ,0.02771372012816065
44, ,PASS, ,0.04226540399999999, ,0.0046818458592020225, ,0.026195117103732582, ,0.00020576237731282574, ,1.9166666666666667, ,0.683922668238497, ,0.40701210179384095, ,0.023917879226954552
45, ,PASS, ,0.065585348, ,0.008752131393930761, ,0.024389172773778903, ,0.0005903803717661663, ,1.8333333333333333, ,0.743499050190115, ,0.40366523132180976, ,0.05046835778861656
46, ,PASS, ,0.067686369, ,0.00704922614131856, ,0.02504498101575478, ,0.0004938264890047596, ,1.75, ,0.6564625112417793, ,0.40562437501275483, ,0.02601987714536438
47, ,PASS, ,0.04544861499999997, ,0.004452882324122063, ,0.026441290887736984, ,0.0002094460862529788, ,1.8333333333333333, ,0.6351361953769311, ,0.4088896144976633, ,0.026958633497275567
48, ,PASS, ,0.06554352100000001, ,0.008788241753776703, ,0.02441098909033571, ,0.0005925140919874428, ,1.8333333333333333, ,0.7400914586392868, ,0.40652231587110466, ,0.04887655353972368
49, ,PASS, ,0.065088639, ,0.0074542509461415765, ,0.025033563303748903, ,0.0005017862462674456, ,1.8333333333333333, ,0.6893008478844358, ,0.40942021591396094, ,0.02850962225260709
50, ,PASS, ,0.04321237299999999, ,0.004651976633430511, ,0.026337394920919983, ,0.0002090141243543974, ,1.9166666666666667, ,0.675139818875704, ,0.40491010387543114, ,0.02444848064325218
51, ,PASS, ,0.06022245579999999, ,0.008046744793666287, ,0.024801035595702126, ,0.000498360410740389, ,1.8333333333333333, ,0.742374761301717, ,0.4067672088324728, ,0.05171323034223791
52, ,PASS, ,0.05698832248, ,0.006144036677912914, ,0.025551162254586642, ,0.0003626549071178751, ,1.75, ,0.672729854258654, ,0.40654272361788535, ,0.026468847574539295
53, ,PASS, ,0.03520653200000002, ,0.0037583980138672602, ,0.02701954276463746, ,0.00013472789616027374, ,1.8333333333333333, ,0.669355832652728, ,0.408399828574927, ,0.04846839860411012
54, ,PASS, ,0.06032220225999999, ,0.007739827541051265, ,0.024659189021754655, ,0.0004787291328250466, ,1.75, ,0.7197627202409059, ,0.4016040488969613, ,0.04857043733801351
55, ,PASS, ,0.05652580464, ,0.0058968409299524184, ,0.02600363124726026, ,0.00034444821960908083, ,1.8333333333333333, ,0.6528642299423565, ,0.41209363074222977, ,0.02650966306810065
56, ,PASS, ,0.03479437800000003, ,0.0034098141678400454, ,0.026955952229138182, ,0.000123169066879276, ,1.8333333333333333, ,0.6367366263280423, ,0.405930491214465, ,0.0242444031754454
57, ,PASS, ,0.05294757430000001, ,0.009234226166487669, ,0.023663815942327707, ,0.0005009014621462144, ,2.0, ,0.8296441579440097, ,0.4013387481888125, ,0.09042672598518398
58, ,PASS, ,0.040631724, ,0.007342196964425142, ,0.025095007000000006, ,0.0003066017238368793, ,2.0, ,0.8438589216751368, ,0.40660394685822737, ,0.09501846901083652
59, ,PASS, ,0.03052145, ,0.005163400477714542, ,0.025490023061366093, ,0.00016174639108082811, ,1.9166666666666667, ,0.7829809708068003, ,0.4035427848411257, ,0.08787575763759924
198, ,PASS, ,0.021995781000000016, ,0.0024356952138703206, ,0.027491477650456116, ,5.6265897702069944e-05, ,1.9166666666666667, ,0.7650766882887701, ,0.41533846248035755, ,0.0014285422746474561
199, ,FAIL, ,0.018164869999999996, ,0.0018852940662653912, ,0.02786167596436807, ,3.569568351194532e-05, ,1.9166666666666667, ,0.6981922599352633, ,0.4351543846043958, ,0.0013673190343054223
200, ,PASS, ,0.033038045999999995, ,0.0038724667447594513, ,0.027353799479806533, ,0.00013011674684151398, ,2.0, ,0.7715082532871004, ,0.43272586273749514, ,0.014509907961062019
201, ,PASS, ,0.07641023, ,0.007813839000256777, ,0.025773627884369706, ,0.000642688578700397, ,1.9166666666666667, ,0.8065246405101184, ,0.43376665782330975, ,0.021407726372931164
202, ,PASS, ,0.08642003000000002, ,0.008550283879547906, ,0.025025385539733883, ,0.0007821741349778456, ,2.0, ,0.7952602336059043, ,0.42405257035570704, ,0.02850962225260709
203, ,FAIL, ,0.009185159999999994, ,0.0009433789754188636, ,0.02814448385930899, ,9.095985161819337e-06, ,1.9166666666666667, ,0.6626539504011482, ,0.41978735127854533, ,0.0008571253647884737
204, ,PASS, ,0.08008728000000002, ,0.007222364484690227, ,0.02533653476810677, ,0.0006205072256514111, ,1.8333333333333333, ,0.7812620959239419, ,0.42209342666476196, ,0.014407869227158629
205, ,PASS, ,0.07346461, ,0.006775577750393906, ,0.02610504477443317, ,0.0005241165254954922, ,1.9166666666666667, ,0.7837774003441402, ,0.43372584232974837, ,0.01548947980653456
206, ,PASS, ,0.06859719, ,0.006182035045110991, ,0.02609014065110916, ,0.00043911188368203716, ,1.9166666666666667, ,0.7835965061160657, ,0.4289096140895084, ,0.014162976265790495
207, ,PASS, ,0.07363372999999998, ,0.006426676615428555, ,0.026243427576233137, ,0.0004962422394972315, ,1.9166666666666667, ,0.7828040405702258, ,0.43588906348850026, ,0.021407726372931164
208, ,PASS, ,0.06879022400000001, ,0.006039605441419978, ,0.02596771494771535, ,0.0004302245694629488, ,1.9166666666666667, ,0.7667710496723058, ,0.42317503724413785, ,0.012101793840942022
209, ,PASS, ,0.06231194900000003, ,0.005566074217598327, ,0.026537581159282467, ,0.00035937125819926724, ,1.9166666666666667, ,0.7807551714718184, ,0.43070549580620804, ,0.015571110793657273
210, ,PASS, ,0.06714051500000001, ,0.005796385581968717, ,0.026033823905083568, ,0.000414331120147564, ,1.9166666666666667, ,0.7696767074830224, ,0.42458317177200466, ,0.012285463561968123
211, ,PASS, ,0.08120848, ,0.007000330336844365, ,0.02571571117199649, ,0.0005932746799654094, ,1.9166666666666667, ,0.787509973945471, ,0.4283381971796494, ,0.014285422746474562
212, ,PASS, ,0.10434904000000002, ,0.009148428238122062, ,0.02515645102867452, ,0.001019142755800977, ,1.9166666666666667, ,0.8003120607311783, ,0.430011632415665, ,0.017530254484602353
213, ,PASS, ,0.07483672000000001, ,0.007505725182448667, ,0.0249662566359462, ,0.0005987018387943587, ,1.9166666666666667, ,0.8003784217629057, ,0.4303789718577172, ,0.018162894634803372
214, ,FAIL, ,0.03655298000000001, ,0.0034190376936008913, ,0.027984357180669786, ,0.0001334145463964595, ,1.9166666666666667, ,0.7304751111432434, ,0.4574804595824575, ,0.0123058713087488
215, ,FAIL, ,0.026283236, ,0.002229995274388427, ,0.028211570764270118, ,6.166878636661478e-05, ,1.9166666666666667, ,0.6880990265719957, ,0.4650721413848697, ,0.0018571049570416931
216, ,FAIL, ,0.024270193700000026, ,0.002321398973099265, ,0.027431560138976754, ,5.845721409960083e-05, ,1.9166666666666667, ,0.7422387010215161, ,0.4147262300769372, ,0.0005714169098589825
