Channel, ,Pass/Fail, ,Amplitude, ,Sorting Function Response, ,Mean, ,Variance, ,NPeaksRatio, ,PosIntegralRatio, ,ToT50, ,ToT99
22, ,PASS, ,0.08294222000000002, ,0.009201996464219169, ,0.021586588888124734, ,0.0007783257542095963, ,1.75, ,0.5607299962996951, ,0.41490989979796333, ,0.022264851737719638
23, ,PASS, ,0.11449089000000001, ,0.012228698348667284, ,0.01905017676757413, ,0.0014272239640420134, ,1.75, ,0.5477543089620632, ,0.41401195893961346, ,0.021244464398685742
24, ,PASS, ,0.058805716459999983, ,0.009513378899445136, ,0.024577408567209646, ,0.00056603473492803, ,1.9166666666666667, ,0.7134164550503245, ,0.4492357298830636, ,0.10522234240117549
25, ,PASS, ,0.0855397, ,0.009111880399057859, ,0.021442008707536583, ,0.0007958652536248136, ,1.75, ,0.5482172724466573, ,0.4141956286606396, ,0.019530213669108794
26, ,PASS, ,0.11423397999999998, ,0.011466107205164543, ,0.018993643843282792, ,0.0013385652875390099, ,1.5833333333333333, ,0.5292191986825225, ,0.40568559825309686, ,0.01736699251035693
27, ,PASS, ,0.061068961800000016, ,0.00886247062920248, ,0.024256053077733108, ,0.0005492314043015616, ,1.75, ,0.6605663586777811, ,0.4430521826085182, ,0.053509112058937575
28, ,PASS, ,0.07895695599999998, ,0.008418343717364834, ,0.021940746218485335, ,0.0006783355681031396, ,1.75, ,0.5465561073194948, ,0.4151343850125508, ,0.019428174935205406
29, ,PASS, ,0.10778280999999992, ,0.010844522379358852, ,0.019433273684517458, ,0.0011951233505229759, ,1.5, ,0.5292647007609983, ,0.40376727005571317, ,0.01769351645884778
30, ,PASS, ,0.05525867477999997, ,0.007622521224902644, ,0.024294062561498745, ,0.0004280886590599774, ,1.75, ,0.6393687205653861, ,0.4406440684883982, ,0.041631803432583006
31, ,PASS, ,0.074657, ,0.007942559979053384, ,0.022336102388971654, ,0.0006052973970201039, ,1.75, ,0.545252359566524, ,0.4167465970082243, ,0.01846901083651354
32, ,PASS, ,0.10751976999999996, ,0.010848414135034717, ,0.019321098364376236, ,0.0011927777600071086, ,1.5, ,0.528907695851984, ,0.403522377094345, ,0.017244546029672864
33, ,PASS, ,0.05492351387999997, ,0.007265316455358477, ,0.02432868790677741, ,0.0004057812776441679, ,1.75, ,0.6216390113444641, ,0.43950123466868024, ,0.03197893920532234
34, ,PASS, ,0.06165766520000002, ,0.007335132140791637, ,0.02348484837964531, ,0.0004603899829549726, ,1.75, ,0.5842489719326043, ,0.42748107181486095, ,0.02604028489214506
35, ,PASS, ,0.09969120000000002, ,0.01051237789170752, ,0.020159093000927737, ,0.0010698834767404995, ,1.75, ,0.5424756022629705, ,0.4103997877594335, ,0.020122038325748454
36, ,PASS, ,0.044277467000000015, ,0.0065754606027191975, ,0.025476885316932308, ,0.00029576961390790995, ,1.9166666666666667, ,0.6716812072283108, ,0.44827656578437175, ,0.06546805167241485
37, ,PASS, ,0.062307411000000014, ,0.007281651197443005, ,0.023265164502153015, ,0.0004620505224128015, ,1.75, ,0.5767215158293328, ,0.4235423766861901, ,0.024366849656129466
38, ,PASS, ,0.09984298000000001, ,0.010475093291161518, ,0.02016647968704312, ,0.0010678617903944758, ,1.75, ,0.5411127572375786, ,0.40997122507703926, ,0.018713903797881674
39, ,PASS, ,0.04478374000000002, ,0.006306766907134, ,0.02517056371814861, ,0.0002871090343518942, ,1.75, ,0.6460315375986625, ,0.44403175445399073, ,0.04926430072855656
40, ,PASS, ,0.06619986800000001, ,0.0075391601540140355, ,0.02291062146072529, ,0.0005086694355050593, ,1.75, ,0.5675284779248148, ,0.42327707597804126, ,0.022203628497377604
41, ,PASS, ,0.10321016999999999, ,0.010814573404995417, ,0.019843590105812128, ,0.0011400872492636205, ,1.75, ,0.5416511079269176, ,0.41033856451909145, ,0.02016285381930981
42, ,PASS, ,0.045756705, ,0.0064499648904557515, ,0.024900964685496216, ,0.0003000685711715108, ,1.8333333333333333, ,0.6482504895750207, ,0.4459908981449358, ,0.049876533131976895
43, ,PASS, ,0.06360842250000001, ,0.007363419551592043, ,0.023160103431950366, ,0.0004771181157674564, ,1.75, ,0.5750061528960443, ,0.4250321422011796, ,0.02316279259606947
44, ,PASS, ,0.10026456000000003, ,0.010606276891905493, ,0.020108846550445095, ,0.0010851609165021534, ,1.75, ,0.5439178037929475, ,0.4117875145405196, ,0.018836350278565745
45, ,PASS, ,0.042519431, ,0.006221692838670552, ,0.02511173892753209, ,0.00026868209364321266, ,1.9166666666666667, ,0.664441057287001, ,0.4476847411277321, ,0.0635701312218118
46, ,PASS, ,0.067114537, ,0.007695784243147356, ,0.02288084174467868, ,0.0005260480026568981, ,1.75, ,0.570211921573719, ,0.4243586865574172, ,0.023509724291340992
47, ,PASS, ,0.10385982999999996, ,0.010963938255002342, ,0.019634860920835086, ,0.0011625983618903054, ,1.75, ,0.5430842086507535, ,0.4108691659353891, ,0.01846901083651354
48, ,PASS, ,0.0475344187, ,0.006682333129872072, ,0.024767900761535476, ,0.0003228215625181105, ,1.75, ,0.6470720867925697, ,0.4446235791106304, ,0.04628476969857758
49, ,PASS, ,0.06002857869999999, ,0.0071129124539162595, ,0.02348305272592396, ,0.00043473006991956345, ,1.75, ,0.5832455193405904, ,0.4280320809779392, ,0.027652496887818616
50, ,PASS, ,0.09525893000000002, ,0.010362699040927417, ,0.020432591513840945, ,0.0010057311206823991, ,1.75, ,0.5520344200720425, ,0.4162772188322687, ,0.021673027081079977
51, ,PASS, ,0.039555789999999987, ,0.005887150751510867, ,0.02528377282953409, ,0.00023648833605314812, ,1.9166666666666667, ,0.6745183276142422, ,0.44950103059121244, ,0.07095773555641721
52, ,PASS, ,0.061031053999999994, ,0.0071296159689077515, ,0.023226453536846187, ,0.0004432688674576348, ,1.6666666666666667, ,0.577023615550003, ,0.42331789147160265, ,0.02216281300381625
53, ,PASS, ,0.09563465000000003, ,0.010371223249374567, ,0.020422272665159894, ,0.0010102978494398453, ,1.75, ,0.5510412609642676, ,0.4168486357421277, ,0.02057100875492337
54, ,PASS, ,0.04111002499999997, ,0.0059890003948073756, ,0.025172977262606887, ,0.00025036609609216967, ,1.8333333333333333, ,0.6635583558107496, ,0.4459092671578131, ,0.06363135446215383
55, ,PASS, ,0.06409447300000001, ,0.0074361919164566345, ,0.023325549608620228, ,0.00048467790360310096, ,1.6666666666666667, ,0.5745444732551048, ,0.4293381767719026, ,0.024264810922226078
56, ,PASS, ,0.09849453000000002, ,0.010604081866322211, ,0.02011127167478133, ,0.0010656304749506727, ,1.75, ,0.549519817702001, ,0.41356298851043855, ,0.01957102916267015
57, ,PASS, ,0.04512695400000001, ,0.006549596229805557, ,0.024790051343584824, ,0.00030021824765988695, ,1.75, ,0.6621750932227762, ,0.4466643537886982, ,0.06830472847492908
58, ,PASS, ,0.059977508499999985, ,0.0071937849595968915, ,0.02357056380986102, ,0.0004390321042534733, ,1.75, ,0.5865581758242767, ,0.42782800351013245, ,0.026754556029468787
59, ,PASS, ,0.09515554, ,0.010324317313253884, ,0.020393106522531786, ,0.0010021847016994444, ,1.75, ,0.5513979130865406, ,0.4125426011714047, ,0.021183241158343708
60, ,PASS, ,0.04405898899999999, ,0.006542050841770838, ,0.025027183205628457, ,0.00029254004602478326, ,1.75, ,0.670548027581783, ,0.4466643537886982, ,0.0680190200199996
61, ,PASS, ,0.05698773561999998, ,0.0072421531097592974, ,0.023746596957388625, ,0.0004196534399356874, ,1.6666666666666667, ,0.6091402332435343, ,0.4310320197546989, ,0.03746862308932471
62, ,PASS, ,0.08964781999999996, ,0.010195753221297408, ,0.020910513660239587, ,0.0009301717504425626, ,1.75, ,0.5677744541605843, ,0.419175118875125, ,0.02342809330421828
63, ,PASS, ,0.04094017299999998, ,0.006574118966768536, ,0.025412848251015283, ,0.00027254005344216995, ,1.9166666666666667, ,0.7136489483407543, ,0.4533172792391992, ,0.08563090549172465
198, ,PASS, ,0.19980000000000006, ,0.045745664579442465, ,0.039736749887553297, ,0.009297611960148418, ,2.0, ,0.9543967004996452, ,0.44664394604191754, ,0.3937470663864003
199, ,PASS, ,0.19980000000000006, ,0.044391924666226705, ,0.037922874799289796, ,0.00917305620104902, ,2.0, ,0.9460001570398066, ,0.43778698393910326, ,0.3771759760004898
200, ,PASS, ,0.19980000000000006, ,0.04382579511518849, ,0.037055777382910535, ,0.009087096703177557, ,1.9166666666666667, ,0.9397012427673397, ,0.4335421726087223, ,0.3674618885328871
201, ,PASS, ,0.19980000000000006, ,0.04321979154692465, ,0.035920341946490866, ,0.00897544646427748, ,1.75, ,0.931253822486535, ,0.42809330421828123, ,0.35521724046448033
202, ,PASS, ,0.19980000000000006, ,0.04331756694151511, ,0.03563698259749799, ,0.008962142361624601, ,1.75, ,0.931984291680778, ,0.4260321217934328, ,0.3542988918593498
203, ,PASS, ,0.19980000000000006, ,0.043301925237371905, ,0.03613343691843022, ,0.008982913617043658, ,1.75, ,0.9316521984472201, ,0.42911369155731516, ,0.3563396665374176
204, ,PASS, ,0.19980000000000006, ,0.04318435822598749, ,0.03581281739882858, ,0.008972147384288502, ,1.75, ,0.9312218275505453, ,0.4275218873084223, ,0.354666231301402
205, ,PASS, ,0.19980000000000006, ,0.0431703334051926, ,0.03584094159384501, ,0.008984695908587494, ,1.75, ,0.9324115545044954, ,0.427603518295545, ,0.3558498806146813
206, ,PASS, ,0.19980000000000006, ,0.04307609151620145, ,0.035524565373767865, ,0.008957842003453809, ,1.75, ,0.9304857179152051, ,0.42607293728699414, ,0.35276831085079896
207, ,PASS, ,0.19980000000000006, ,0.04299190545404409, ,0.03458034878104527, ,0.008916398384526512, ,1.75, ,0.9285739670958189, ,0.4213383400338769, ,0.34721740372645454
208, ,PASS, ,0.19980000000000006, ,0.04296278330406113, ,0.035409226246403115, ,0.008943253013066976, ,1.75, ,0.9294698192359893, ,0.4254607048835738, ,0.3513193608293708
209, ,PASS, ,0.19980000000000006, ,0.04286961853936053, ,0.03323631041162423, ,0.008831934730603539, ,2.0, ,0.9237355792644566, ,0.41460378359625316, ,0.33734005428460645
210, ,PASS, ,0.19980000000000006, ,0.04290965665025076, ,0.03508122851941796, ,0.008922741817599349, ,1.75, ,0.9281667530303953, ,0.4238484928879003, ,0.3488704312156895
211, ,PASS, ,0.19980000000000006, ,0.042867496804041366, ,0.033236530841003226, ,0.008831350565468802, ,2.0, ,0.923700322156569, ,0.41460378359625316, ,0.33721760780392235
212, ,PASS, ,0.19980000000000006, ,0.04281924454116483, ,0.03472129465684372, ,0.00889584830108468, ,1.75, ,0.926376939968355, ,0.42207301891798127, ,0.34593171567927183
213, ,PASS, ,0.19980000000000006, ,0.042724177006956035, ,0.03418154937980856, ,0.00885239429580731, ,1.8333333333333333, ,0.9233631881783618, ,0.4194404195832738, ,0.34105426419868984
214, ,PASS, ,0.19980000000000006, ,0.04276536735839674, ,0.03444524982388113, ,0.00886540694082762, ,1.75, ,0.9241272833431511, ,0.42070569988367584, ,0.34272769943470544
215, ,PASS, ,0.19980000000000006, ,0.04271214012415358, ,0.034069445775800476, ,0.008840169428616365, ,1.8333333333333333, ,0.9225081309545656, ,0.4188690026734148, ,0.33976857615150713
216, ,PASS, ,0.19980000000000006, ,0.04272753278186982, ,0.034251032063427264, ,0.008849188928427964, ,1.8333333333333333, ,0.9228843231011373, ,0.419807759025326, ,0.3409726332115671
217, ,PASS, ,0.19980000000000006, ,0.04269565000682086, ,0.03228307367196586, ,0.008745457384928658, ,2.0, ,0.9177460137107631, ,0.40991000183669724, ,0.3284218689414502
218, ,PASS, ,0.19980000000000006, ,0.04265809121399497, ,0.03394858216199668, ,0.0088180282696171, ,1.8333333333333333, ,0.9206179948006793, ,0.41831799351033655, ,0.33778902471378136
219, ,PASS, ,0.19980000000000006, ,0.04268926316044408, ,0.03227092076814757, ,0.008744160338072307, ,2.0, ,0.9176280154015591, ,0.40986918634313585, ,0.32825860696720477
220, ,PASS, ,0.19980000000000006, ,0.042645212391570715, ,0.033737653077692276, ,0.008803992794617596, ,2.0, ,0.9196739710155049, ,0.4172976061713026, ,0.3361564049713271
221, ,PASS, ,0.19980000000000006, ,0.04267230323833106, ,0.03439666165588456, ,0.008791525859303217, ,1.9166666666666667, ,0.9170055703781226, ,0.42070569988367584, ,0.3367278218811861
222, ,PASS, ,0.19980000000000006, ,0.04248270035962159, ,0.03340083467806777, ,0.008745194361454921, ,2.0, ,0.9148449633455903, ,0.41568539417562905, ,0.3307075365808861
223, ,PASS, ,0.19980000000000006, ,0.042324240387354946, ,0.032902848464725194, ,0.008692893400859596, ,2.0, ,0.9109778089580007, ,0.4132568723087284, ,0.3254219301646905
224, ,PASS, ,0.19980000000000006, ,0.04269294451994164, ,0.034360297123323995, ,0.00878668312765829, ,1.9166666666666667, ,0.9167873451940863, ,0.4204608069223077, ,0.3362380359584498
225, ,PASS, ,0.19980000000000006, ,0.04244844394161838, ,0.03270052259178382, ,0.008715282251085477, ,2.0, ,0.9136147920276607, ,0.4121752617293525, ,0.32685047243933796
226, ,PASS, ,0.19980000000000006, ,0.042444935899156, ,0.032934379349401015, ,0.008720658020136524, ,2.0, ,0.9136179348790874, ,0.4133385032958511, ,0.3277484132976878
227, ,PASS, ,0.19980000000000006, ,0.042299497772057985, ,0.03240351798289829, ,0.00867390444013236, ,2.0, ,0.9102843010910414, ,0.41076712720148567, ,0.3229117773106671
228, ,PASS, ,0.19980000000000006, ,0.04231740273951756, ,0.0325926290777739, ,0.008684555236127963, ,2.0, ,0.9108627738518754, ,0.4117058835533969, ,0.32401379563682375
229, ,PASS, ,0.19980000000000006, ,0.042291503670868626, ,0.0334826232476888, ,0.008672499553595598, ,2.0, ,0.9076264144023464, ,0.4162772188322687, ,0.32513622170976103
230, ,PASS, ,0.19980000000000006, ,0.04208314622862823, ,0.032313101839146124, ,0.008623768683026393, ,2.0, ,0.905570600697068, ,0.41044060325299486, ,0.3186873737270668
231, ,PASS, ,0.19980000000000006, ,0.04195810347244156, ,0.0319784336462521, ,0.008591849600564536, ,2.0, ,0.9034977342793602, ,0.4087059447766372, ,0.31564661945674577
232, ,PASS, ,0.19980000000000006, ,0.04237290744196408, ,0.03240688241301196, ,0.008691152400174772, ,2.0, ,0.9120377022741005, ,0.41070590396114365, ,0.3242382808514112
233, ,PASS, ,0.19980000000000006, ,0.04279030692147216, ,0.03302295613477274, ,0.00880592346746598, ,2.0, ,0.9216575388445223, ,0.41360380400399993, ,0.33482990143058305
234, ,PASS, ,0.19980000000000006, ,0.043004177518951255, ,0.03390652733780941, ,0.008912586566983228, ,2.0, ,0.9298144290780452, ,0.4178894308279423, ,0.3453194832758515
