Channel, ,Pass/Fail, ,Amplitude, ,Sorting Function Response, ,Mean, ,Variance, ,NPeaksRatio, ,PosIntegralRatio, ,ToT50, ,ToT99
24, ,PASS, ,0.04125714000000001, ,0.006681040427082128, ,0.03897569146017429, ,0.0002808987172460477, ,1.8333333333333333, ,0.7861314048632332, ,0.6097018428195343, ,0.14809901838737985
25, ,PASS, ,0.09114721999999997, ,0.012220959143686863, ,0.03908934496875696, ,0.0011215657610509253, ,1.75, ,0.7257031905629271, ,0.5963551764249709, ,0.2221791392012408
26, ,PASS, ,0.09941910999999998, ,0.012834765479383035, ,0.03757663267181057, ,0.0012812859536041174, ,1.75, ,0.7370818641519618, ,0.609212056896798, ,0.2554845819473072
27, ,PASS, ,0.09379291999999997, ,0.013197878607749458, ,0.039556573234297045, ,0.0012519397334773827, ,1.8333333333333333, ,0.7640994562357868, ,0.6098446970469991, ,0.27262708924307666
28, ,PASS, ,0.04425442, ,0.007864387834104118, ,0.040343539711638544, ,0.000357089408841933, ,1.9166666666666667, ,0.854642510794474, ,0.6192934838064529, ,0.12505867227199444
29, ,PASS, ,0.05106714500000002, ,0.00789925564129879, ,0.03953627453113202, ,0.0004095390743401999, ,1.75, ,0.7578197876325496, ,0.5996816391502214, ,0.15424175016836392
30, ,PASS, ,0.09470569999999998, ,0.012384207270326058, ,0.03846026436913899, ,0.001180680970806553, ,1.75, ,0.7278074761558089, ,0.6027836166608844, ,0.23424011754862145
31, ,PASS, ,0.10233597999999998, ,0.012895258305087497, ,0.036991810125625794, ,0.0013272832024555875, ,1.6666666666666667, ,0.7347870065662793, ,0.6144976633129936, ,0.25838248199016345
32, ,PASS, ,0.09667569999999998, ,0.01322082467166174, ,0.039010166540727934, ,0.001291964506572425, ,1.75, ,0.7622248788019694, ,0.6136201302014245, ,0.2782596273545438
33, ,PASS, ,0.05065063000000004, ,0.00860897415057954, ,0.040633657656986594, ,0.00044630609968706936, ,1.8333333333333333, ,0.8166446903573148, ,0.6189669598579621, ,0.17697598008203913
34, ,PASS, ,0.049344450000000005, ,0.007647035263947739, ,0.039507205011326305, ,0.00038385974281391857, ,1.75, ,0.7588551587801994, ,0.604334605416216, ,0.16440480806514152
35, ,PASS, ,0.09685091999999998, ,0.01264787632427978, ,0.03828470351543825, ,0.0012336939411375298, ,1.75, ,0.7352661125940382, ,0.6087834942144038, ,0.2498316360890594
36, ,PASS, ,0.10516852999999997, ,0.013143261961710211, ,0.036623233253264616, ,0.0013908120464809703, ,1.6666666666666667, ,0.7396802570716384, ,0.6207016183343197, ,0.2698924511744658
37, ,PASS, ,0.09990926999999997, ,0.013484274467538464, ,0.03854373376987183, ,0.0013620106724245118, ,1.75, ,0.7666402648408208, ,0.6201710169180221, ,0.292504234607457
38, ,PASS, ,0.05520821900000003, ,0.009211864594491744, ,0.04067249323238302, ,0.0005202813122473968, ,1.8333333333333333, ,0.8042193036962815, ,0.6178241260382441, ,0.17687394134813575
39, ,PASS, ,0.04338538000000003, ,0.006855518113343724, ,0.03939410898328606, ,0.00030265156314707566, ,1.75, ,0.769908644057063, ,0.6071100589783882, ,0.15264994591947104
40, ,PASS, ,0.09574714999999996, ,0.012557172040206383, ,0.03817056127946123, ,0.0012109596897215964, ,1.75, ,0.7303885331443293, ,0.6040284892145058, ,0.23646456194771534
41, ,PASS, ,0.10366033999999996, ,0.012932059857793022, ,0.036819027679067966, ,0.0013482057736012045, ,1.6666666666666667, ,0.7348968271228418, ,0.617640456317218, ,0.26125997428623904
42, ,PASS, ,0.09866329999999997, ,0.013365015881895566, ,0.038647765269589594, ,0.0013325846802838802, ,1.75, ,0.7633622419768666, ,0.6171098549009204, ,0.28719822044448073
43, ,PASS, ,0.05401006600000001, ,0.009176367442965861, ,0.04055155311789556, ,0.0005068594848578213, ,1.8333333333333333, ,0.8127109759038464, ,0.6169874084202364, ,0.1606497826574968
44, ,PASS, ,0.04718208, ,0.007171139855263974, ,0.03913217555274383, ,0.0003433993438029562, ,1.75, ,0.7470755076378176, ,0.6001102018326157, ,0.11620171016918023
45, ,PASS, ,0.09574155999999998, ,0.012503367889780626, ,0.03819797933905818, ,0.001204950603075397, ,1.75, ,0.7289394338567823, ,0.6042325666823126, ,0.238260443664415
46, ,PASS, ,0.10330841999999996, ,0.012924019759861807, ,0.036820886390703036, ,0.0013418880671719098, ,1.6666666666666667, ,0.7339469984372765, ,0.6166404767249648, ,0.2599538784922757
47, ,PASS, ,0.09936292999999996, ,0.013401728811545048, ,0.03822021147531478, ,0.0013437804165622592, ,1.75, ,0.7610630861252559, ,0.6145180710597743, ,0.2828309626334156
48, ,PASS, ,0.057926413999999996, ,0.009528917630129186, ,0.04071376317218016, ,0.0005627379286670524, ,1.8333333333333333, ,0.7958995707095763, ,0.6120283259525315, ,0.1856084569702659
49, ,PASS, ,0.048941590000000014, ,0.007446410271411106, ,0.03955480231832004, ,0.0003701243257550746, ,1.75, ,0.7498066911500489, ,0.602559131446297, ,0.12748719413889512
50, ,PASS, ,0.09644058999999996, ,0.012568973972113954, ,0.03825227840394195, ,0.00122075557331956, ,1.75, ,0.7308832499297788, ,0.6083549315320096, ,0.24199506132527906
51, ,PASS, ,0.10452526999999998, ,0.013079492579891636, ,0.03660125178093426, ,0.0013754982528346473, ,1.6666666666666667, ,0.7368801131072449, ,0.6188036978837167, ,0.2645660292647089
52, ,PASS, ,0.09958157999999996, ,0.013408287117137162, ,0.03852655961740535, ,0.0013497523798590466, ,1.75, ,0.7629964327851755, ,0.6198853084630926, ,0.2886879859594702
53, ,PASS, ,0.05656346699999995, ,0.00957781992281715, ,0.040754172453623394, ,0.0005530977095537479, ,1.8333333333333333, ,0.8090033815509287, ,0.6134976837207404, ,0.20834268688394114
54, ,PASS, ,0.04639454000000002, ,0.007164725326317054, ,0.03924726134711537, ,0.0003379802302403958, ,1.8333333333333333, ,0.7606792679112327, ,0.6047631680986102, ,0.13799718373094427
55, ,PASS, ,0.09386643999999997, ,0.01233064615874624, ,0.03849782738179261, ,0.001165232573078076, ,1.75, ,0.7253396395820577, ,0.6006612109956939, ,0.22662802799942858
56, ,PASS, ,0.10167942999999996, ,0.012773398669799508, ,0.037135422669080216, ,0.0013062316243520424, ,1.6666666666666667, ,0.7320708671714861, ,0.613967061896696, ,0.2544437868614926
57, ,PASS, ,0.09701875999999998, ,0.0131730804411185, ,0.038690476537369636, ,0.0012905388067204694, ,1.75, ,0.7574995253203471, ,0.6116405787636987, ,0.2740760392645048
58, ,PASS, ,0.05241618399999999, ,0.009024462876112454, ,0.04050090322279138, ,0.0004833283410392937, ,1.8333333333333333, ,0.8195172426833374, ,0.6153139731842208, ,0.20624068896553133
59, ,PASS, ,0.04821301999999998, ,0.007204189438638462, ,0.03923383058774311, ,0.0003523794526978942, ,1.75, ,0.7441301492233645, ,0.5993755229485113, ,0.1282422807697802
60, ,PASS, ,0.09391909999999998, ,0.012266698094156155, ,0.03830324814088243, ,0.0011591730019964756, ,1.75, ,0.721683923137198, ,0.5985592130772841, ,0.22242403216260892
61, ,PASS, ,0.10125633999999997, ,0.01267213202957861, ,0.037143899132136074, ,0.0012903676682415569, ,1.6666666666666667, ,0.7289796192615765, ,0.6128038203301973, ,0.24968878186159466
62, ,PASS, ,0.09667270999999997, ,0.012987615844498474, ,0.03839671125336319, ,0.0012638262178289784, ,1.75, ,0.7498687296657951, ,0.6064774188281872, ,0.2604640721617926
63, ,PASS, ,0.052871094, ,0.008841910556104001, ,0.04030501885349279, ,0.0004768082708817356, ,1.8333333333333333, ,0.8011983275557861, ,0.6110079386134977, ,0.20138364523172997
64, ,PASS, ,0.048014100000000004, ,0.007282871435315912, ,0.039210446138038, ,0.0003551054434739182, ,1.75, ,0.7496963840237345, ,0.6020897532703414, ,0.136303340748148
65, ,PASS, ,0.09461621999999996, ,0.012474115795323882, ,0.038571500981218136, ,0.0011891205726037785, ,1.75, ,0.7302234773157403, ,0.6047223526050489, ,0.2376073957674333
66, ,PASS, ,0.10304811999999997, ,0.013031802522845588, ,0.036940000076260276, ,0.0013505530503720511, ,1.6666666666666667, ,0.7383189096376492, ,0.6163955837635967, ,0.2645048060243668
67, ,PASS, ,0.09750407999999997, ,0.013334974461088138, ,0.038605737822003425, ,0.0013135412726283232, ,1.75, ,0.7610006839799451, ,0.6126813738495133, ,0.28005550907124344
68, ,PASS, ,0.052146006999999994, ,0.00879992580030551, ,0.040160345658455956, ,0.0004683462689728209, ,1.8333333333333333, ,0.8038808662713326, ,0.6120487336993122, ,0.19860819166955776
69, ,PASS, ,0.04663060000000001, ,0.007043046363494855, ,0.03910630608763087, ,0.000333201423010307, ,1.75, ,0.7506712996284872, ,0.6003755025407644, ,0.1141813432378931
70, ,PASS, ,0.09321411999999997, ,0.01234826640091771, ,0.0386902395267519, ,0.00115954988806879, ,1.75, ,0.725190310698572, ,0.6019468990428767, ,0.22785249280626926
71, ,PASS, ,0.10134978999999998, ,0.012910905983634835, ,0.03717872479009673, ,0.0013161775765605937, ,1.6666666666666667, ,0.7362190218215805, ,0.6128038203301973, ,0.258219220015918
72, ,PASS, ,0.09553499999999997, ,0.013210828651611621, ,0.03895380289460602, ,0.0012739146158441518, ,1.75, ,0.7595693969960374, ,0.609089610416114, ,0.27428011673231156
73, ,PASS, ,0.05410590300000001, ,0.00898456163774382, ,0.040539293170343466, ,0.0004957305446560531, ,1.8333333333333333, ,0.8023660903369616, ,0.6109467153731557, ,0.18122079141242015
74, ,PASS, ,0.05064946699999999, ,0.0075281292086757205, ,0.03925151055651926, ,0.00038651894042755313, ,1.75, ,0.739514105726619, ,0.5963347686781902, ,0.12022203628497377
75, ,PASS, ,0.09300907999999997, ,0.01232526066539322, ,0.038706011736463125, ,0.0011543029311851763, ,1.75, ,0.7263132241292509, ,0.5997224546437828, ,0.22768923083202383
76, ,PASS, ,0.10077023999999998, ,0.01284650371815377, ,0.03704334557691026, ,0.0012988602877998263, ,1.75, ,0.732893067197934, ,0.6088243097079652, ,0.2515867023121977
77, ,PASS, ,0.09540794999999998, ,0.013083214627317867, ,0.038995250259252254, ,0.0012602235571180728, ,1.75, ,0.7562115605742903, ,0.6093140956307014, ,0.27044346033754413
78, ,PASS, ,0.058921126999999976, ,0.009647287124377258, ,0.04068531618273096, ,0.0005786561725071801, ,1.75, ,0.7901537893905274, ,0.6064774188281872, ,0.18428195342952183
79, ,PASS, ,0.047792619999999994, ,0.007358104972511646, ,0.03951222972123018, ,0.00035723055058474077, ,1.8333333333333333, ,0.7604468346222584, ,0.6041305279484093, ,0.12814024203587682
80, ,PASS, ,0.09178469999999997, ,0.012662147053015277, ,0.03908601141559784, ,0.0011719998697447061, ,1.75, ,0.7387299194040827, ,0.5988449215322136, ,0.2385461521193445
81, ,PASS, ,0.10080454999999997, ,0.013109357066629848, ,0.03758329291885573, ,0.0013314084892009537, ,1.75, ,0.7445872290414441, ,0.6152119344503173, ,0.27015775188261465
82, ,PASS, ,0.09329105999999998, ,0.01342395304752337, ,0.0395755896333487, ,0.0012671829163160943, ,1.8333333333333333, ,0.7687975894350296, ,0.6086814554805003, ,0.2830554478480031
83, ,PASS, ,0.05463273800000003, ,0.009005856750958595, ,0.04036019972184242, ,0.0005021991538365412, ,1.8333333333333333, ,0.8043317507277202, ,0.6132323830125915, ,0.16199669394502153
84, ,PASS, ,0.044775100000000005, ,0.006921691506976514, ,0.03931657770821004, ,0.0003151093999790953, ,1.8333333333333333, ,0.76702478873234, ,0.6055590702230567, ,0.1414052774433175
85, ,PASS, ,0.08914751999999997, ,0.01234248320099116, ,0.03936677981557335, ,0.0011090976721663567, ,1.75, ,0.728665586169617, ,0.5929470827125977, ,0.21497520458766148
86, ,PASS, ,0.09801934999999998, ,0.012886856427493569, ,0.03793178753439909, ,0.0012724979783336511, ,1.75, ,0.7401070987379407, ,0.6087222709740617, ,0.2576886185996204
87, ,PASS, ,0.08984961999999998, ,0.013084463289157305, ,0.04003591028952674, ,0.001188712312312898, ,1.75, ,0.7612541670190347, ,0.6008856962102814, ,0.26025999469398586
88, ,PASS, ,0.049831741999999984, ,0.008032837434470138, ,0.040079866863125244, ,0.0004087488957694517, ,1.8333333333333333, ,0.7981326151124438, ,0.6144976633129936, ,0.13446664353788698
89, ,PASS, ,0.04654995000000002, ,0.007089399723639731, ,0.03918620428072897, ,0.0003348721458782972, ,1.75, ,0.7574692606641811, ,0.6012122201587723, ,0.13820126119875104
90, ,PASS, ,0.08858486999999997, ,0.012128139396276291, ,0.03956819154337788, ,0.001082614061876271, ,1.75, ,0.7245309446707477, ,0.5924777045366421, ,0.20971000591824657
91, ,PASS, ,0.09748816999999996, ,0.01278378775221224, ,0.03785304160077365, ,0.0012529983201530503, ,1.75, ,0.7363887428505028, ,0.6054978469827147, ,0.2500153058100855
92, ,PASS, ,0.08965293999999997, ,0.01279442315142258, ,0.039891705908485536, ,0.0011584909602349448, ,1.75, ,0.7509721279392921, ,0.599008183506459, ,0.24313789514499703
93, ,PASS, ,0.049994653000000014, ,0.008020035252686013, ,0.04010671467031285, ,0.00040851710642536137, ,1.8333333333333333, ,0.7900901386659175, ,0.6095181730985082, ,0.15020101630578966
94, ,PASS, ,0.048973400000000014, ,0.007470260429464795, ,0.03934944711475276, ,0.0003713104417576916, ,1.75, ,0.7586613114058848, ,0.5998857166180283, ,0.1276708638599212
95, ,PASS, ,0.08961870999999996, ,0.0123872351257291, ,0.03940524098361747, ,0.0011190078843498266, ,1.75, ,0.731405036956941, ,0.594702148935736, ,0.22277096385788045
96, ,PASS, ,0.09720044999999997, ,0.013021799454659257, ,0.03806463920616272, ,0.0012748067912677745, ,1.75, ,0.745230808943263, ,0.6062121181200384, ,0.26179057570253667
97, ,PASS, ,0.09124992999999997, ,0.013255827699479406, ,0.03971312092708495, ,0.0012226228951035525, ,1.8333333333333333, ,0.7637547766724603, ,0.6023754617252709, ,0.2703210138568601
98, ,PASS, ,0.05496961600000001, ,0.00882932047597408, ,0.040486840437542096, ,0.0004942590234109696, ,1.75, ,0.7892615063830843, ,0.6075386216607824, ,0.1524866839452256
198, ,PASS, ,0.11587999999999996, ,0.024007180647848517, ,0.035332604044407245, ,0.0029111856536035595, ,2.0, ,0.9744374329051617, ,0.6427011693638905, ,0.6051509152874431
199, ,PASS, ,0.10356845999999997, ,0.01622723382251335, ,0.044043676078855516, ,0.0017497672630681553, ,1.9166666666666667, ,0.9738250601955352, ,0.6317218015958858, ,0.5968041468541458
200, ,PASS, ,0.11587999999999996, ,0.01653151683508177, ,0.043296679364502745, ,0.001979911475255424, ,1.8333333333333333, ,0.9406704044511401, ,0.6609048794922553, ,0.5997632701373441
201, ,PASS, ,0.09927243999999996, ,0.01371879162967454, ,0.04474586144405216, ,0.0014137367345943182, ,1.9166666666666667, ,0.9166404155395707, ,0.6326401502010163, ,0.18258811044672557
202, ,PASS, ,0.11158434999999997, ,0.015332520871564661, ,0.04436569453460132, ,0.001769603875770594, ,1.8333333333333333, ,0.9637599870272402, ,0.6387216587416583, ,0.5164588477786167
203, ,PASS, ,0.08883826, ,0.01245745908984184, ,0.0440386286604355, ,0.001149246716768263, ,1.9166666666666667, ,0.8937062156732035, ,0.6301708128405543, ,0.09205934572763821
204, ,PASS, ,0.10229078999999998, ,0.014221509298592084, ,0.044890070226934135, ,0.0015061521838583977, ,1.8333333333333333, ,0.9348084204155361, ,0.6348645946001102, ,0.28058611048754106
205, ,PASS, ,0.10277144999999999, ,0.015076227432438418, ,0.044765910938756336, ,0.0016025354299747652, ,1.9166666666666667, ,0.953030133389931, ,0.6347625558662068, ,0.40148160241627723
206, ,PASS, ,0.10331434999999996, ,0.014424963893785388, ,0.04477195702842798, ,0.0015425701976033936, ,1.8333333333333333, ,0.9398970369971333, ,0.6349666333340136, ,0.30932021795473563
207, ,PASS, ,0.10930673999999996, ,0.015662661868935803, ,0.044233069628987154, ,0.0017682557283056094, ,1.8333333333333333, ,0.9638153652147967, ,0.6385175812738516, ,0.5311116099671436
208, ,PASS, ,0.08578538000000001, ,0.0116139408207938, ,0.04371825028142283, ,0.0010346536598575967, ,1.9166666666666667, ,0.8854436890317471, ,0.6309871227117814, ,0.08530438154323382
209, ,PASS, ,0.08077637000000003, ,0.010486595216252162, ,0.04293426418154732, ,0.0008820585563119231, ,1.9166666666666667, ,0.8797813422066011, ,0.629681026917818, ,0.07577396379665721
210, ,PASS, ,0.076002824, ,0.010102230352832762, ,0.04264535661762005, ,0.0008002923847600216, ,1.9166666666666667, ,0.8790437323421646, ,0.6293136874757658, ,0.0659782453419318
211, ,PASS, ,0.08344991000000002, ,0.010906516305204545, ,0.04324014098691864, ,0.0009472894398877879, ,1.9166666666666667, ,0.8822218330302968, ,0.6300891818534315, ,0.0822636272729128
212, ,PASS, ,0.09175958000000002, ,0.01153010416985794, ,0.0438506807708006, ,0.0011002066450627318, ,1.8333333333333333, ,0.8747451764441698, ,0.6312320156731496, ,0.06152935654374401
213, ,PASS, ,0.10620812999999997, ,0.014459801330971576, ,0.04483891649170424, ,0.0015898194541980695, ,1.8333333333333333, ,0.9465097963856335, ,0.6364155833554417, ,0.35054386645170504
214, ,PASS, ,0.10240802999999998, ,0.013476435251675044, ,0.04484954635742128, ,0.0014303691682475918, ,1.8333333333333333, ,0.9185746202531433, ,0.6348033713597682, ,0.19779188179833065
215, ,PASS, ,0.11587999999999996, ,0.016758871751992834, ,0.04273881987694127, ,0.0020044782847407415, ,1.8333333333333333, ,0.9673785033093066, ,0.6415583355441725, ,0.5974163792575662
216, ,PASS, ,0.10331572999999997, ,0.013496952399254178, ,0.04488358831880982, ,0.0014448138949324043, ,1.8333333333333333, ,0.9218514184890524, ,0.6354972347503112, ,0.20928144323585232
217, ,PASS, ,0.10897065999999996, ,0.014817967969777707, ,0.044664855135609464, ,0.0016717701730829255, ,1.8333333333333333, ,0.956957825073279, ,0.636905369278178, ,0.4397257198832677
218, ,PASS, ,0.10813972999999999, ,0.014611597190860384, ,0.04468090221342421, ,0.0016381826100230008, ,1.8333333333333333, ,0.9530510981713881, ,0.635640088977776, ,0.398073508703904
219, ,PASS, ,0.10836401999999998, ,0.014445468600820735, ,0.04473436791453234, ,0.0016219059930262093, ,1.8333333333333333, ,0.9497880397495888, ,0.6365788453296871, ,0.3725230097344952
220, ,PASS, ,0.07074445600000005, ,0.008880923059646474, ,0.0419003290545091, ,0.0006619381240234023, ,1.9166666666666667, ,0.8575847412081247, ,0.625558662068121, ,0.048243913389522664
221, ,PASS, ,0.07449014799999998, ,0.009210477739994649, ,0.042303678841248145, ,0.0007210423138265229, ,1.9166666666666667, ,0.8624316396146693, ,0.6267014958878391, ,0.04771331197322504
222, ,PASS, ,0.06595174399999999, ,0.008112603496699037, ,0.0415117753211159, ,0.000562913639896648, ,1.9166666666666667, ,0.8604331915726193, ,0.62733413603804, ,0.04767249647966368
223, ,PASS, ,0.078556173, ,0.009978229950967199, ,0.042858381220995494, ,0.0008191902653917266, ,1.9166666666666667, ,0.876562430508374, ,0.6293749107161078, ,0.06103957062100773
224, ,PASS, ,0.11419204999999996, ,0.015687206002984785, ,0.04355061042346073, ,0.00186103800513128, ,1.8333333333333333, ,0.9717248448810567, ,0.6352319340421624, ,0.596600069386339
225, ,PASS, ,0.10132300999999998, ,0.013059687395699536, ,0.044656716643946034, ,0.0013783558665379277, ,1.9166666666666667, ,0.9101560852335752, ,0.6317013938491052, ,0.15938450235709475
226, ,PASS, ,0.10577509999999997, ,0.013324051335302454, ,0.044651178347176586, ,0.0014674117184016885, ,1.8333333333333333, ,0.9242858816506031, ,0.6333544213383401, ,0.22240362441582825
227, ,PASS, ,0.11587999999999996, ,0.018190150668107377, ,0.041060325504377444, ,0.002180509249655891, ,1.8333333333333333, ,0.9724407995005755, ,0.6372114854798882, ,0.5988041060386523
228, ,PASS, ,0.10960405999999995, ,0.014342474651698689, ,0.04466363899736739, ,0.0016351503404521358, ,1.9166666666666667, ,0.9554046532747622, ,0.6343339931838126, ,0.40072651578539215
229, ,PASS, ,0.10199304999999997, ,0.013276423205038813, ,0.04466380170159792, ,0.001414300116348112, ,1.9166666666666667, ,0.9206083463737496, ,0.6302932593212384, ,0.2047713311973225
230, ,PASS, ,0.08325744999999998, ,0.009813228871911212, ,0.04282961051549968, ,0.0008568188515135478, ,1.9166666666666667, ,0.8680271006067433, ,0.6289055325401522, ,0.05252954021346503
231, ,PASS, ,0.11587999999999996, ,0.017442663348099016, ,0.04169912832676882, ,0.0020951699649930026, ,1.9166666666666667, ,0.9733236432212145, ,0.6360074284198282, ,0.5988041060386523
232, ,PASS, ,0.10343844999999996, ,0.012409065885127985, ,0.04449207527866778, ,0.0013392196841424849, ,1.8333333333333333, ,0.8970124964281853, ,0.6319871023040347, ,0.12203832574845411
233, ,PASS, ,0.09576583, ,0.0115408826036115, ,0.044051905243770534, ,0.0011555113141362985, ,1.9166666666666667, ,0.8763698251148023, ,0.6300687741066509, ,0.05881512622191384
234, ,PASS, ,0.10222736999999997, ,0.012183195626013986, ,0.04445018570967939, ,0.0013018272633911051, ,1.9166666666666667, ,0.8908811921036871, ,0.6310483459521234, ,0.11412011999755108
235, ,PASS, ,0.10131557999999997, ,0.012048294816164084, ,0.04434055480561622, ,0.001276288817768981, ,1.9166666666666667, ,0.8839241914913992, ,0.6308034529907552, ,0.08059019203689721
236, ,PASS, ,0.09058187000000001, ,0.01058448408214179, ,0.04354691147323524, ,0.001008944996354552, ,1.9166666666666667, ,0.8588827658416466, ,0.627844329707557, ,0.04769290422644436
237, ,PASS, ,0.10268316999999999, ,0.012246256388284133, ,0.04464857863104835, ,0.0013145973817853234, ,1.9166666666666667, ,0.8981005813013613, ,0.6316605783555438, ,0.11195689883879921
238, ,PASS, ,0.09532161000000001, ,0.010452440386859415, ,0.04352040386910472, ,0.00104750026308575, ,1.9166666666666667, ,0.8631996675701362, ,0.6293340952225465, ,0.044917450664272156
239, ,PASS, ,0.10676189999999998, ,0.01295312753353068, ,0.04469507421501601, ,0.0014478537436661244, ,1.9166666666666667, ,0.9272099426928302, ,0.6317218015958858, ,0.2048529621844452
240, ,PASS, ,0.09315283000000005, ,0.009924817452994422, ,0.043361663721964865, ,0.0009767602260191866, ,1.8333333333333333, ,0.8637595901452252, ,0.6292524642354238, ,0.03922368931246301
241, ,PASS, ,0.11587999999999996, ,0.01598203961877296, ,0.04313771153241769, ,0.001931405801788912, ,1.8333333333333333, ,0.9744160928816137, ,0.6344768474112773, ,0.6003142793004225
242, ,PASS, ,0.11587999999999996, ,0.014518489260364824, ,0.04410930107569232, ,0.0017761183832461387, ,1.9166666666666667, ,0.9747245284132561, ,0.6311299769392461, ,0.5989265525193364
243, ,PASS, ,0.11587999999999996, ,0.021551664482987707, ,0.03743270064896633, ,0.002581183778900379, ,1.9166666666666667, ,0.9772280641464457, ,0.6342115467031285, ,0.6027428011673232
244, ,PASS, ,0.11587999999999996, ,0.016492237957952825, ,0.04243668889614496, ,0.0020065831529649954, ,1.8333333333333333, ,0.9753062389113883, ,0.6325789269606743, ,0.600151017326177
245, ,PASS, ,0.11587999999999996, ,0.019108346888581353, ,0.03984422280055508, ,0.00231055132626866, ,1.8333333333333333, ,0.9755287170234677, ,0.6331095283769719, ,0.6004979490214486
