Channel, ,Pass/Fail, ,Amplitude, ,Sorting Function Response, ,Mean, ,Variance, ,NPeaksRatio, ,PosIntegralRatio, ,ToT50, ,ToT99
92, ,PASS, ,0.051040258000000005, ,0.007104484867333429, ,0.03385091219301647, ,0.00037130580734867467, ,1.9166666666666667, ,0.7537537137309235, ,0.6186812514030325, ,0.154364196649048
93, ,PASS, ,0.05738261610200001, ,0.007613680494506672, ,0.03461780726707618, ,0.00044814318911432047, ,1.75, ,0.7305945954285299, ,0.6233138099222465, ,0.09138589008387583
94, ,PASS, ,0.05184305100000001, ,0.0068509714642092535, ,0.0339969839135936, ,0.00036420512916972503, ,1.8333333333333333, ,0.7343607583245174, ,0.6203138711454869, ,0.10024285218669007
95, ,PASS, ,0.035860592999999996, ,0.003935393883250383, ,0.0322334913105855, ,0.00014530262753738115, ,1.6666666666666667, ,0.658867039423077, ,0.6253545846003142, ,0.034244199097977594
96, ,PASS, ,0.013911180000000009, ,0.002261210264863651, ,0.030019274251545887, ,3.194255573094738e-05, ,1.75, ,0.8201690299162578, ,0.5840697128630028, ,0.07705965184383992
97, ,PASS, ,0.03515033900000001, ,0.005412121771583209, ,0.03231346122466888, ,0.00019407811288629608, ,1.75, ,0.7999406216436686, ,0.6026611701802004, ,0.16928225954572357
98, ,PASS, ,0.05102077500000001, ,0.007078893856549434, ,0.03405153496030693, ,0.0003702862636524724, ,1.8333333333333333, ,0.7529396414539029, ,0.6220893451154058, ,0.15281320789371647
99, ,PASS, ,0.050882080999999996, ,0.007483800360967314, ,0.034210677061284465, ,0.0003894872321971133, ,1.9166666666666667, ,0.7768820877555346, ,0.616436399257158, ,0.1856084569702659
100, ,PASS, ,0.044950161, ,0.006721863189592065, ,0.03332160804840718, ,0.0003087269600064123, ,1.8333333333333333, ,0.7855678294511648, ,0.610416113956858, ,0.17615967021081202
101, ,PASS, ,0.023536460000000026, ,0.0036802545651402866, ,0.03099102281728945, ,8.839288993324784e-05, ,1.75, ,0.8068851354661716, ,0.5982326891287932, ,0.19132262606885575
102, ,PASS, ,0.014759459999999988, ,0.0022955267019053806, ,0.030210519012877295, ,3.458350141222035e-05, ,1.75, ,0.8040159227859208, ,0.5937429848370441, ,0.1483235036019673
103, ,PASS, ,0.032764229999999984, ,0.005068070613752923, ,0.03211757037427807, ,0.00016953463498450616, ,1.8333333333333333, ,0.8028912874024113, ,0.6052529540213465, ,0.19950613252790758
104, ,PASS, ,0.043990562000000004, ,0.006665655540294254, ,0.03334322314483378, ,0.00029971458043385286, ,1.9166666666666667, ,0.7930688959316078, ,0.6130487132915655, ,0.20052651986694148
105, ,PASS, ,0.047194723, ,0.007074472080152837, ,0.03366226595293974, ,0.00034125056449453117, ,1.9166666666666667, ,0.7856895078550215, ,0.6151507112099753, ,0.16246607212097713
106, ,PASS, ,0.04163026500000002, ,0.006317889792011742, ,0.03314411186363544, ,0.00026865091602760484, ,1.8333333333333333, ,0.7921766377415609, ,0.6094977653517275, ,0.17464949694904186
107, ,PASS, ,0.024444709999999994, ,0.0037124303802917, ,0.031244295091120592, ,9.270696624740265e-05, ,1.6666666666666667, ,0.7944335611609177, ,0.6008652884635007, ,0.20928144323585232
108, ,PASS, ,0.010244920000000022, ,0.0016004166351250876, ,0.029565386262321178, ,1.6580051396721196e-05, ,1.8333333333333333, ,0.7864782505610548, ,0.5762943613395645, ,0.018632272810758965
109, ,PASS, ,0.024308920000000005, ,0.0038782104611080662, ,0.030947359888165552, ,9.561408231660419e-05, ,1.75, ,0.8118692971025449, ,0.5916205791718536, ,0.0793861349768372
110, ,PASS, ,0.03472863000000001, ,0.005456817307984434, ,0.032115046172935244, ,0.00019246867417404583, ,1.75, ,0.806314147319009, ,0.5989877757596783, ,0.12605865186424767
111, ,PASS, ,0.03792623800000003, ,0.005931477193595911, ,0.03247268045713353, ,0.0002285110708692982, ,1.75, ,0.8047752951360261, ,0.6007632497295974, ,0.13367074141344054
112, ,PASS, ,0.033227649999999984, ,0.005218298005773155, ,0.03176037566865982, ,0.00017592925732664108, ,1.75, ,0.8043418802449863, ,0.5945388869614906, ,0.12365053774412767
113, ,PASS, ,0.01791128, ,0.0028867021659770916, ,0.030303836971898535, ,5.243912967532209e-05, ,1.75, ,0.8188948429021681, ,0.586273749515316, ,0.10163057896777616
114, ,PASS, ,0.009679529999999999, ,0.001457549721712843, ,0.02930559687679843, ,1.429473845908011e-05, ,1.75, ,0.780256205953116, ,0.5818248607171282, ,0.053590743046060284
115, ,PASS, ,0.023530210000000003, ,0.003723427797255314, ,0.031139123211771196, ,8.896602018303451e-05, ,1.75, ,0.8089275753009098, ,0.5961510989571641, ,0.09091651190792024
116, ,PASS, ,0.03295030999999998, ,0.005155233646774903, ,0.031943633278300444, ,0.00017262774724868652, ,1.75, ,0.8057746999831722, ,0.601926491296096, ,0.1418542478724924
117, ,PASS, ,0.03564944400000001, ,0.005533262358898646, ,0.032175189059611024, ,0.00020044069403226308, ,1.75, ,0.8025986868489705, ,0.6031509561029367, ,0.13965021122017918
118, ,PASS, ,0.03169175, ,0.004946476564040528, ,0.03166059437297198, ,0.0001592303827905713, ,1.75, ,0.8018957395798989, ,0.5985796208240648, ,0.11916083345237852
119, ,PASS, ,0.01839341, ,0.002895585999409487, ,0.030444122363013, ,5.3980897546277286e-05, ,1.75, ,0.8025881242025574, ,0.5876410685496214, ,0.06867206791698129
