Channel, ,Pass/Fail, ,Amplitude, ,Sorting Function Response, ,Mean, ,Variance, ,NPeaksRatio, ,PosIntegralRatio, ,ToT50, ,ToT99
0, ,PASS, ,0.05468254599999999, ,0.00880518608646253, ,0.03646876638782882, ,0.0004858725065937766, ,1.8333333333333333, ,0.7622621225001637, ,0.4584804391747107, ,0.07001897920450603
1, ,PASS, ,0.053465460000000006, ,0.008535561979014804, ,0.03632569321585274, ,0.00046084358911064395, ,1.8333333333333333, ,0.7586214916724926, ,0.4563580335095202, ,0.07387604334605416
2, ,PASS, ,0.054091279999999985, ,0.008539941735254087, ,0.036307012249954085, ,0.000466352599746285, ,1.8333333333333333, ,0.7562029211933275, ,0.4566437419644497, ,0.0728148405134589
3, ,PASS, ,0.053829456000000026, ,0.008548144596709448, ,0.03615973750760189, ,0.0004645440650717373, ,1.8333333333333333, ,0.7571750487204193, ,0.4567457806983531, ,0.07438623701557111
4, ,PASS, ,0.05369523200000002, ,0.008593407207283164, ,0.03632926447999021, ,0.0004657342790994557, ,1.8333333333333333, ,0.76043843091276, ,0.4574804595824575, ,0.07716169057774332
5, ,PASS, ,0.05448133500000002, ,0.008623805515958293, ,0.03603710937511479, ,0.0004745587923851759, ,1.8333333333333333, ,0.7568665113576881, ,0.4573784208485541, ,0.06832513622170976
6, ,PASS, ,0.054077995999999975, ,0.008636734998528487, ,0.0365114877384135, ,0.0004714786537898833, ,1.8333333333333333, ,0.7586824583514259, ,0.4568070039386951, ,0.07330462643619517
7, ,PASS, ,0.05379666999999999, ,0.00861346208965226, ,0.03630196452460154, ,0.000467674823357672, ,1.8333333333333333, ,0.7613068500561835, ,0.45750086732923817, ,0.07469235321728128
8, ,PASS, ,0.054166940000000004, ,0.008628870200757522, ,0.03643316934327871, ,0.00047191398695086193, ,1.8333333333333333, ,0.759333817097628, ,0.4580110609987551, ,0.07203934613579314
9, ,PASS, ,0.054110516000000004, ,0.008648382325750485, ,0.03627362792514439, ,0.00047247199963984174, ,1.8333333333333333, ,0.7595258321290176, ,0.4573988285953348, ,0.07395767433317688
10, ,PASS, ,0.053881890000000016, ,0.008626147835589675, ,0.03634729074018898, ,0.00046921493795067896, ,1.8333333333333333, ,0.7609232166739989, ,0.4575620905695802, ,0.0769780208567172
11, ,PASS, ,0.05387430000000001, ,0.008618506494979503, ,0.036315305127038226, ,0.00046873086880423395, ,1.8333333333333333, ,0.7600399574496367, ,0.45762331380992227, ,0.0741209363074223
12, ,PASS, ,0.053715869999999985, ,0.00861708563721814, ,0.036416504003183615, ,0.00046722038301595745, ,1.8333333333333333, ,0.7616483913647413, ,0.4572763821146507, ,0.07434542152200975
13, ,PASS, ,0.053957750000000006, ,0.00866915280824639, ,0.036257095557437606, ,0.0004720654945093108, ,1.8333333333333333, ,0.7619114061150768, ,0.4574804595824575, ,0.0752229546335789
14, ,PASS, ,0.054530631999999996, ,0.008894289365438674, ,0.03658073951200996, ,0.0004890914230785341, ,1.8333333333333333, ,0.7690742387733057, ,0.4609293687883921, ,0.08183506459051856
15, ,PASS, ,0.054646688, ,0.008905321940692183, ,0.03660626022040367, ,0.0004908154111470756, ,1.8333333333333333, ,0.7692786738997057, ,0.4601334666639456, ,0.08148813289524703
16, ,PASS, ,0.07130683200000001, ,0.011516084454704065, ,0.03690085901244873, ,0.0008265512367903015, ,1.8333333333333333, ,0.7670398825971061, ,0.47027611681394255, ,0.10456929450419379
17, ,PASS, ,0.15890515000000002, ,0.02307105311693964, ,0.03863750399379604, ,0.003683254371551421, ,1.75, ,0.7205239413164715, ,0.48874512765045613, ,0.1449766331299361
18, ,PASS, ,0.05986990699999997, ,0.009582210042391027, ,0.03651085131260587, ,0.0005785420667012578, ,1.8333333333333333, ,0.7591897111477391, ,0.4607048835738046, ,0.07099855104997857
19, ,PASS, ,0.057282781000000046, ,0.009189478633079217, ,0.03629214392828718, ,0.0005308640165225455, ,1.8333333333333333, ,0.7593702114043203, ,0.4592355258055958, ,0.07297810248770434
20, ,PASS, ,0.05686344900000004, ,0.009138613435577118, ,0.03642824625128059, ,0.0005241410048500994, ,1.8333333333333333, ,0.7611001387880444, ,0.4597253117283321, ,0.06891696087834942
21, ,PASS, ,0.05703227500000002, ,0.00914433529282283, ,0.03641465834076856, ,0.0005258937667952252, ,1.8333333333333333, ,0.7609769387686396, ,0.45992938919613885, ,0.0769780208567172
22, ,PASS, ,0.057657744000000025, ,0.009242290969605042, ,0.03624156124044407, ,0.0005374230522950752, ,1.8333333333333333, ,0.761129818543781, ,0.4600518356768229, ,0.07528417787392094
23, ,PASS, ,0.057323953999999996, ,0.009206749613057764, ,0.036369979495581725, ,0.0005323961207036428, ,1.8333333333333333, ,0.7619453971848702, ,0.46050080610599786, ,0.07918205750903043
24, ,PASS, ,0.05690149500000004, ,0.009151891018470722, ,0.03634201105348871, ,0.0005254503491099556, ,1.8333333333333333, ,0.7630926228702416, ,0.4598885737025775, ,0.08077386175792331
25, ,PASS, ,0.05706654800000002, ,0.009137609090182837, ,0.036431424785494174, ,0.0005261284379369667, ,1.8333333333333333, ,0.7598733596311182, ,0.45937838003306053, ,0.07016183343197077
26, ,PASS, ,0.05730562200000002, ,0.009174281584802173, ,0.03650815828842269, ,0.0005307432881102158, ,1.8333333333333333, ,0.7616632541856436, ,0.45992938919613885, ,0.07840656313136467
27, ,PASS, ,0.056976231000000016, ,0.009188259972782177, ,0.0362849946114365, ,0.000528031376028134, ,1.8333333333333333, ,0.7627220214761884, ,0.4593375645394992, ,0.0796718434317667
28, ,PASS, ,0.057893599, ,0.009425813312103296, ,0.03661237584500317, ,0.0005498656092327026, ,1.8333333333333333, ,0.7685586173072129, ,0.4630925899471439, ,0.08589620619987347
29, ,PASS, ,0.05771827699999997, ,0.009436237507751721, ,0.036631792599151045, ,0.0005487731209298635, ,1.8333333333333333, ,0.7705567877989732, ,0.4631334054407053, ,0.0885492132813616
30, ,PASS, ,0.05711009800000004, ,0.009216053258374428, ,0.03634760430513663, ,0.0005307593435553632, ,1.8333333333333333, ,0.7639041402448649, ,0.460235505397849, ,0.07969225117854738
31, ,PASS, ,0.058120988, ,0.009524168734826243, ,0.03672746800846922, ,0.0005576442988137544, ,1.9166666666666667, ,0.7715764266157861, ,0.4643170547539846, ,0.09099814289504296
32, ,PASS, ,0.058294471999999986, ,0.009523250284910143, ,0.03670934633262587, ,0.0005594170446656522, ,1.9166666666666667, ,0.7704906423440577, ,0.46464357870247547, ,0.08471255688659415
33, ,PASS, ,0.05812601799999999, ,0.009539016003987608, ,0.036725614213036474, ,0.0005585875005974498, ,1.9166666666666667, ,0.773209659336049, ,0.46527621885267645, ,0.0934470725087243
34, ,PASS, ,0.057419588000000035, ,0.009247631262899503, ,0.03627978279251444, ,0.0005354559823491305, ,1.8333333333333333, ,0.7638165241676632, ,0.45994979694291954, ,0.07526377012714026
35, ,PASS, ,0.05773908700000002, ,0.00930404424376643, ,0.03625267637119651, ,0.000541893191400249, ,1.8333333333333333, ,0.7633713305024804, ,0.4601946899042877, ,0.07581477929021857
36, ,PASS, ,0.05782965100000001, ,0.009329210081846152, ,0.03628332190708353, ,0.0005441411299078655, ,1.8333333333333333, ,0.7628228538686852, ,0.4601538744107263, ,0.07499846941899145
37, ,PASS, ,0.057928911000000013, ,0.009391182494106044, ,0.03639783724293382, ,0.0005487268682694603, ,1.8333333333333333, ,0.7660348621547514, ,0.46074569906736595, ,0.08122283218709822
38, ,PASS, ,0.058549718000000014, ,0.009572924787475257, ,0.036687518326136204, ,0.0005648414242521846, ,1.9166666666666667, ,0.7719347695324806, ,0.46445990898144934, ,0.09177363727270872
39, ,PASS, ,0.05853400699999999, ,0.009576440553630938, ,0.03659382696755168, ,0.0005647938720318191, ,1.9166666666666667, ,0.771590870163556, ,0.4644395012346687, ,0.08842676680067754
40, ,PASS, ,0.05851480399999999, ,0.009444428839900716, ,0.03627004706040693, ,0.0005574238796765413, ,1.8333333333333333, ,0.7652709906277161, ,0.4609089610416114, ,0.08075345401114263
41, ,PASS, ,0.058300296000000015, ,0.009417664645047185, ,0.03620230561935471, ,0.0005538187699100186, ,1.8333333333333333, ,0.7651301147189655, ,0.46050080610599786, ,0.07952898920430196
42, ,PASS, ,0.05791237300000001, ,0.0093284487103559, ,0.036208781180751416, ,0.0005449509586798397, ,1.8333333333333333, ,0.7625883895065205, ,0.4601334666639456, ,0.07416175180098365
43, ,PASS, ,0.057538117, ,0.00924506418564605, ,0.03621391971355687, ,0.0005367543315091785, ,1.8333333333333333, ,0.7628605490128993, ,0.458970225097447, ,0.07712087508418196
44, ,PASS, ,0.05712730700000003, ,0.009157429811273383, ,0.03612070873704618, ,0.0005279880300490283, ,1.8333333333333333, ,0.7595216998688779, ,0.45921511805881515, ,0.074773984204404
45, ,PASS, ,0.05679979500000001, ,0.009079426871596233, ,0.03602871706805984, ,0.000520475057387723, ,1.8333333333333333, ,0.7596647532083014, ,0.4584804391747107, ,0.07369237362502806
46, ,PASS, ,0.05665587200000003, ,0.009050843750465968, ,0.036197002584498275, ,0.000517476808841338, ,1.8333333333333333, ,0.7587359077400627, ,0.45833758494724597, ,0.07314136446194976
47, ,PASS, ,0.05681610100000003, ,0.009055910244260189, ,0.03597914384963573, ,0.0005193825342578461, ,1.8333333333333333, ,0.7577575429849999, ,0.45782739127772903, ,0.0720801616293545
48, ,PASS, ,0.056688762000000004, ,0.00907062581552854, ,0.036081825680149386, ,0.0005188680374944188, ,1.8333333333333333, ,0.7594580813482061, ,0.4580722842390972, ,0.07010061019162875
49, ,PASS, ,0.056756735000000016, ,0.009061224143129525, ,0.03605511021762821, ,0.0005190541311942113, ,1.8333333333333333, ,0.7586247936342293, ,0.4577457602906063, ,0.07679435113569111
50, ,PASS, ,0.05786929500000003, ,0.009336898678457516, ,0.0359038704243995, ,0.0005451380711701466, ,1.8333333333333333, ,0.7648513119883144, ,0.4589498173506663, ,0.07891675680088162
51, ,PASS, ,0.05753273600000001, ,0.00922527298267031, ,0.03590762336719659, ,0.0005357698150037697, ,1.8333333333333333, ,0.762946041119701, ,0.4588477786167629, ,0.08046774555621314
52, ,PASS, ,0.057283939, ,0.009170469409582193, ,0.03585939153798902, ,0.0005301108384672327, ,1.8333333333333333, ,0.7608412662760277, ,0.45825595396012325, ,0.07424338278810637
53, ,PASS, ,0.05765340800000003, ,0.009246193258935931, ,0.03593969101630579, ,0.0005381707065624188, ,1.8333333333333333, ,0.7616854923190252, ,0.45864370114895614, ,0.07630456521295484
54, ,PASS, ,0.05774155000000002, ,0.009233349264603601, ,0.03599508505224384, ,0.0005378891806366887, ,1.8333333333333333, ,0.7586891207778954, ,0.4581130997326585, ,0.07052917287402298
55, ,PASS, ,0.05764011800000002, ,0.00924305210990528, ,0.03595102449490827, ,0.0005376016112546409, ,1.8333333333333333, ,0.7612971138656105, ,0.4580110609987551, ,0.07614130323870942
56, ,PASS, ,0.05764804600000001, ,0.009281361008806666, ,0.035984762522152616, ,0.0005398175922475825, ,1.8333333333333333, ,0.7619678391124014, ,0.45833758494724597, ,0.07173322993408297
57, ,PASS, ,0.05772421300000002, ,0.00928055106346459, ,0.03597525797573519, ,0.0005404254053282487, ,1.8333333333333333, ,0.7612557678686682, ,0.4579702455051938, ,0.07483520744474603
58, ,PASS, ,0.05822596100000001, ,0.009433509889848339, ,0.03610884796098039, ,0.0005542085654053582, ,1.8333333333333333, ,0.7677512679593645, ,0.4597661272218934, ,0.07773310748760229
59, ,PASS, ,0.057884725, ,0.009350972765414588, ,0.036010108347421486, ,0.0005460875325833348, ,1.8333333333333333, ,0.7641048081944313, ,0.45864370114895614, ,0.07338625742331789
60, ,PASS, ,0.05820877600000002, ,0.009355257772329066, ,0.03595503548131671, ,0.0005494468655891551, ,1.8333333333333333, ,0.7634656767427724, ,0.4592763412991572, ,0.07677394338891043
61, ,PASS, ,0.058204209999999985, ,0.00937934811167008, ,0.036099700735433976, ,0.0005508837485706156, ,1.8333333333333333, ,0.7630682254230895, ,0.45829676945368464, ,0.07608007999836738
62, ,PASS, ,0.057993309000000035, ,0.009330661463849622, ,0.03587028634580927, ,0.0005460490999561088, ,1.8333333333333333, ,0.7651664286715621, ,0.4592559335523765, ,0.07701883635027856
63, ,PASS, ,0.057883987000000005, ,0.009355572452633085, ,0.03590251526303545, ,0.0005464918790089166, ,1.8333333333333333, ,0.7673955152475852, ,0.45909267157813105, ,0.07516173139323687
64, ,PASS, ,0.05817162900000002, ,0.009359600838224662, ,0.03584029396959246, ,0.0005494434124113728, ,1.8333333333333333, ,0.7635195202710271, ,0.4589498173506663, ,0.07720250607130466
65, ,PASS, ,0.058236227000000015, ,0.009397967990326212, ,0.03599306275914778, ,0.0005522754723435007, ,1.8333333333333333, ,0.7642291440505704, ,0.45829676945368464, ,0.07783514622150568
66, ,PASS, ,0.058530896, ,0.009420477654998304, ,0.03579718632540152, ,0.0005564017415474368, ,1.8333333333333333, ,0.7628836901650614, ,0.4579702455051938, ,0.07165159894696027
67, ,PASS, ,0.05831251100000002, ,0.009426686481850176, ,0.03593080858111059, ,0.000554689363466685, ,1.8333333333333333, ,0.7662935753128418, ,0.45874573988285955, ,0.07908001877512703
68, ,PASS, ,0.05831674800000001, ,0.009424874588470357, ,0.03608378115273158, ,0.000554565599775324, ,1.8333333333333333, ,0.7650026271584632, ,0.4585008469214914, ,0.07191689965510908
69, ,PASS, ,0.05835674399999999, ,0.009378102908502989, ,0.036024779166874146, ,0.0005521156083395461, ,1.8333333333333333, ,0.7628967754502332, ,0.4580110609987551, ,0.07212097712291586
70, ,PASS, ,0.058450063, ,0.009407171339195029, ,0.036008322723107694, ,0.0005549107600750009, ,1.8333333333333333, ,0.7647203092958628, ,0.45823554621334256, ,0.07748821452623415
71, ,PASS, ,0.05848749799999997, ,0.009421836699661953, ,0.03614453755286627, ,0.000556148161989331, ,1.8333333333333333, ,0.7631438550267748, ,0.45799065325197447, ,0.07577396379665721
72, ,PASS, ,0.05852296099999999, ,0.00943038563762421, ,0.03593849283553397, ,0.0005568436116262531, ,1.8333333333333333, ,0.7634048304238819, ,0.45788861451807106, ,0.0765290504275423
73, ,PASS, ,0.05856236199999998, ,0.00942807754659525, ,0.03619409086014571, ,0.0005571953298651369, ,1.8333333333333333, ,0.763629371665531, ,0.45819473071978123, ,0.07452909124303586
74, ,PASS, ,0.05824012, ,0.00939967576723503, ,0.03594401350486725, ,0.000552429825223619, ,1.8333333333333333, ,0.7623937611058832, ,0.45790902226485175, ,0.07175363768086365
75, ,PASS, ,0.058721380000000004, ,0.00946568007207263, ,0.03601311550123467, ,0.0005612144357080557, ,1.8333333333333333, ,0.7638479843514702, ,0.4579498377584131, ,0.07736576804555009
76, ,PASS, ,0.058354305000000016, ,0.009432578034057094, ,0.03606461206695782, ,0.0005554956755470557, ,1.8333333333333333, ,0.7660490098576662, ,0.45790902226485175, ,0.07750862227301483
77, ,PASS, ,0.05828592300000001, ,0.009387307091644086, ,0.03601457555388666, ,0.000552287997456424, ,1.8333333333333333, ,0.7643690948692191, ,0.4581539152262199, ,0.07595763351768331
78, ,PASS, ,0.058082637000000006, ,0.009295335204564928, ,0.03597504220015918, ,0.0005449510954815212, ,1.8333333333333333, ,0.7611260055348833, ,0.45743964408889615, ,0.07254953980531009
79, ,PASS, ,0.05811356500000004, ,0.00950077301461513, ,0.03615207713348707, ,0.0005569614513161171, ,1.8333333333333333, ,0.7713213103502933, ,0.460174282157507, ,0.08301871390379788
80, ,PASS, ,0.058097154000000026, ,0.009451162384008194, ,0.0359755378630028, ,0.0005538965978512634, ,1.8333333333333333, ,0.7701440382425092, ,0.4597661272218934, ,0.08242688924715823
81, ,PASS, ,0.057745701000000024, ,0.00924114815367631, ,0.035699360203138714, ,0.0005388561945158277, ,1.8333333333333333, ,0.7612709785146371, ,0.4569090426725985, ,0.07740658353911145
82, ,PASS, ,0.057571368, ,0.009198161000985312, ,0.03582717763845636, ,0.0005348252554723853, ,1.8333333333333333, ,0.7598916565185398, ,0.4563784412563009, ,0.07508010040611417
83, ,PASS, ,0.05761758900000001, ,0.009227658817987788, ,0.0359576962352605, ,0.0005369574752001084, ,1.8333333333333333, ,0.7617013701906294, ,0.4566437419644497, ,0.07665149690822637
84, ,PASS, ,0.05793262200000002, ,0.009297614614167267, ,0.035880465529764705, ,0.0005437722248176868, ,1.8333333333333333, ,0.7600896797848183, ,0.4564192567498622, ,0.07081488132895247
85, ,PASS, ,0.05804551700000002, ,0.009348557959627963, ,0.03585889875410706, ,0.0005477501420522707, ,1.8333333333333333, ,0.7636380812945156, ,0.4568070039386951, ,0.07410052856064162
86, ,PASS, ,0.058421679, ,0.009424388313558466, ,0.03579718993604212, ,0.0005556885825740729, ,1.8333333333333333, ,0.7645553176183089, ,0.4573988285953348, ,0.07630456521295484
87, ,PASS, ,0.05903810599999999, ,0.009512430852738597, ,0.03585531838125753, ,0.0005669315128785628, ,1.8333333333333333, ,0.7639886121983804, ,0.4572967898614314, ,0.07369237362502806
88, ,PASS, ,0.05897211499999999, ,0.009579850369133712, ,0.03584678483841146, ,0.0005702585890940236, ,1.8333333333333333, ,0.7702271729060532, ,0.45835799269402666, ,0.09130425909675313
89, ,PASS, ,0.05907857699999998, ,0.00956441085561954, ,0.03581559911946695, ,0.000570238057511804, ,1.8333333333333333, ,0.7665617581005129, ,0.4579294300116324, ,0.07591681802412195
90, ,PASS, ,0.059547415, ,0.009659432885392177, ,0.03574144996079672, ,0.0005806274172261486, ,1.8333333333333333, ,0.768504964869451, ,0.4590518560845697, ,0.07773310748760229
91, ,PASS, ,0.07213695640000001, ,0.01179005654607765, ,0.03677522314216037, ,0.0008561752175009768, ,1.8333333333333333, ,0.7706204694801425, ,0.4666435378869819, ,0.09995714373176058
92, ,PASS, ,0.15682987, ,0.022227084749432025, ,0.03835061749596946, ,0.003502017517248232, ,1.75, ,0.710599002237416, ,0.48913287483928897, ,0.12979326952511172
93, ,PASS, ,0.067268991, ,0.010841134335295318, ,0.03573619990734883, ,0.0007352532795117149, ,1.8333333333333333, ,0.7622648576208148, ,0.4604395828656558, ,0.07648823493398094
94, ,PASS, ,0.064262871, ,0.010379386139348305, ,0.03577135828481052, ,0.0006726464574890733, ,1.8333333333333333, ,0.7641972551419974, ,0.45946001102018325, ,0.07850860186526805
95, ,PASS, ,0.063596721, ,0.010270927513526361, ,0.03583516265576213, ,0.0006587154148643494, ,1.8333333333333333, ,0.7641304541008662, ,0.459602865247648, ,0.07577396379665721
96, ,PASS, ,0.06327833300000002, ,0.010190635916141477, ,0.03599787128497378, ,0.0006504379556081109, ,1.8333333333333333, ,0.7634960782770733, ,0.4592355258055958, ,0.08073304626436195
97, ,PASS, ,0.063325262, ,0.01016699227137562, ,0.03572856199034714, ,0.0006494734301878939, ,1.8333333333333333, ,0.7625885411090316, ,0.45937838003306053, ,0.0743046060284484
98, ,PASS, ,0.063601035, ,0.01021588612381623, ,0.03577906083581968, ,0.000655561914332344, ,1.8333333333333333, ,0.762675456134269, ,0.4593987877798412, ,0.08067182302401991
99, ,PASS, ,0.06348045499999999, ,0.010213461209922456, ,0.035920737456643745, ,0.0006541734425588433, ,1.8333333333333333, ,0.7633062447026773, ,0.45950082651374463, ,0.08107997795963348
100, ,PASS, ,0.06292301099999999, ,0.010119016368624001, ,0.03567156301563234, ,0.0006422961807608329, ,1.8333333333333333, ,0.7635461503060105, ,0.45994979694291954, ,0.0782841166506806
101, ,PASS, ,0.06312531500000002, ,0.010149040091889555, ,0.03583348565661925, ,0.0006462918584329192, ,1.8333333333333333, ,0.7631360582244633, ,0.4592559335523765, ,0.07736576804555009
102, ,PASS, ,0.06335791300000002, ,0.010199485983471894, ,0.035927427719475116, ,0.0006519891229128512, ,1.8333333333333333, ,0.7639462148401602, ,0.46048039835921717, ,0.07836574763780331
103, ,PASS, ,0.06306874800000001, ,0.010195328466657784, ,0.03596773893553193, ,0.0006485645585264158, ,1.8333333333333333, ,0.7656610800361497, ,0.46041917511887515, ,0.08126364768065958
104, ,PASS, ,0.06352211399999999, ,0.010222684106329758, ,0.03578495183318708, ,0.0006550780531019871, ,1.8333333333333333, ,0.7628669842338061, ,0.4593987877798412, ,0.07530458562070162
105, ,PASS, ,0.063582295, ,0.010269499247308602, ,0.03589958458129426, ,0.0006585897690182171, ,1.8333333333333333, ,0.7640122732569249, ,0.4596844962347707, ,0.0769780208567172
106, ,PASS, ,0.063768216, ,0.010296279400615786, ,0.03592675399885717, ,0.0006621397179292172, ,1.8333333333333333, ,0.7639011534691146, ,0.45984775820901613, ,0.077182098324524
107, ,PASS, ,0.064247133, ,0.010342825292025933, ,0.035805041320197545, ,0.0006704046314380636, ,1.8333333333333333, ,0.7638054463863936, ,0.4596844962347707, ,0.07914124201546907
108, ,PASS, ,0.06429534600000002, ,0.010378302024201218, ,0.03612662378755536, ,0.0006728872050593682, ,1.8333333333333333, ,0.7653806069876394, ,0.46078651456092734, ,0.08107997795963348
109, ,PASS, ,0.064367151, ,0.010399363321635683, ,0.035909827512969124, ,0.0006751853948857811, ,1.8333333333333333, ,0.766011414720738, ,0.46123548499010225, ,0.08532478929001448
110, ,PASS, ,0.064004325, ,0.010372230030071893, ,0.03589661777284137, ,0.0006695094641045072, ,1.8333333333333333, ,0.7660717930821866, ,0.46066406808024324, ,0.08326360686516601
111, ,PASS, ,0.06391795199999997, ,0.010365882186124102, ,0.03590479683959511, ,0.000668011059765351, ,1.8333333333333333, ,0.7662744036415415, ,0.46048039835921717, ,0.08230444276647415
112, ,PASS, ,0.06381804900000002, ,0.010332167496546358, ,0.03591342774806637, ,0.0006647629704407344, ,1.8333333333333333, ,0.7645715825697104, ,0.46033754413175243, ,0.07765147650047959
113, ,PASS, ,0.063895771, ,0.01031663289708105, ,0.03595174914591539, ,0.0006648067050491873, ,1.8333333333333333, ,0.7643845313279279, ,0.4602559131446297, ,0.07924328074937247
114, ,PASS, ,0.06388786399999999, ,0.010312168773719464, ,0.035991332105712134, ,0.000664422762874092, ,1.8333333333333333, ,0.7659700596720241, ,0.4610722230158568, ,0.0827125977020877
115, ,PASS, ,0.06377268999999998, ,0.010299520281250826, ,0.03594481935989061, ,0.0006625475690304921, ,1.8333333333333333, ,0.7662721543044602, ,0.4607252913205853, ,0.08671251607110059
116, ,PASS, ,0.06368063499999999, ,0.010298301835592437, ,0.03586103936603335, ,0.0006613927219283357, ,1.8333333333333333, ,0.7651092357623797, ,0.4605824370931205, ,0.07930450398971449
117, ,PASS, ,0.06400009600000003, ,0.010275743913166163, ,0.03580625314279301, ,0.0006634343409639194, ,1.8333333333333333, ,0.7604851409133255, ,0.45990898144935816, ,0.066345584783984
118, ,PASS, ,0.06367735000000002, ,0.010278743164350769, ,0.03582787931213649, ,0.0006598726329036625, ,1.8333333333333333, ,0.7636246164842192, ,0.4597865349686741, ,0.07487602293830738
119, ,PASS, ,0.063428625, ,0.010232866689856552, ,0.03609930975676007, ,0.0006547714927541384, ,1.8333333333333333, ,0.7635751906277239, ,0.4597661272218934, ,0.07740658353911145
120, ,PASS, ,0.06317450999999999, ,0.01018116230200326, ,0.0360039542263015, ,0.0006487382342793523, ,1.8333333333333333, ,0.7625998522717546, ,0.4596844962347707, ,0.07528417787392094
121, ,PASS, ,0.063096215, ,0.010131287828907102, ,0.03594819495781719, ,0.0006447370456853399, ,1.8333333333333333, ,0.7621485002374768, ,0.45948041876696394, ,0.07756984551335687
122, ,PASS, ,0.06318657299999998, ,0.010152867571507981, ,0.03587437456092733, ,0.0006473353887648169, ,1.8333333333333333, ,0.7629897208039693, ,0.45958245750086735, ,0.07877390257341686
123, ,PASS, ,0.06286984199999998, ,0.010135361265443196, ,0.035785023728536154, ,0.0006427668032629333, ,1.8333333333333333, ,0.7618217164857132, ,0.4593987877798412, ,0.07783514622150568
124, ,PASS, ,0.062169830999999974, ,0.01005120753715002, ,0.03578945875980082, ,0.0006302450486759981, ,1.8333333333333333, ,0.7644618021728246, ,0.4598681659557968, ,0.07736576804555009
125, ,PASS, ,0.064156921, ,0.010450963009168287, ,0.035972365995530706, ,0.000675997448286563, ,1.8333333333333333, ,0.7691399689792546, ,0.4619293483806453, ,0.08440644068488398
126, ,PASS, ,0.063912163, ,0.010352906921123844, ,0.03588976201257117, ,0.0006671767731744464, ,1.8333333333333333, ,0.7653657022207759, ,0.4609089610416114, ,0.077814738474725
127, ,PASS, ,0.06340446099999998, ,0.010222615003926459, ,0.035793446847043935, ,0.0006536585908434791, ,1.8333333333333333, ,0.7646907279093554, ,0.46082733005448867, ,0.08046774555621314
128, ,PASS, ,0.063174367, ,0.010172561232808965, ,0.03628866617813922, ,0.0006483434708371754, ,1.8333333333333333, ,0.7640421363156013, ,0.4598069427154548, ,0.08030448358196772
129, ,PASS, ,0.06343901300000002, ,0.010245591564566692, ,0.036292162711781394, ,0.0006554633061793202, ,1.8333333333333333, ,0.7635539572653105, ,0.45994979694291954, ,0.07685557437603315
130, ,PASS, ,0.06403340399999999, ,0.010293043277799284, ,0.03606004774612763, ,0.0006649180108773575, ,1.8333333333333333, ,0.7616344094583847, ,0.45992938919613885, ,0.07156996795983755
131, ,PASS, ,0.06413584700000002, ,0.010327404363036379, ,0.03632829826736189, ,0.000668142165256781, ,1.8333333333333333, ,0.7634159943022318, ,0.46066406808024324, ,0.07510050815289483
132, ,PASS, ,0.06406518800000001, ,0.010372419101502458, ,0.036310925000653055, ,0.0006700477973986963, ,1.8333333333333333, ,0.7653995396089271, ,0.4609293687883921, ,0.08054937654333585
133, ,PASS, ,0.06522653900000003, ,0.01063453468905709, ,0.036154702582641175, ,0.0006991861785102676, ,1.8333333333333333, ,0.7698309199954975, ,0.4621946490887941, ,0.08599824493377686
134, ,PASS, ,0.06478505700000002, ,0.010512526777510666, ,0.03612397215469072, ,0.0006866570500576528, ,1.8333333333333333, ,0.766765245133953, ,0.4614599702046897, ,0.07918205750903043
135, ,PASS, ,0.064253639, ,0.010396758262821748, ,0.03619254373669925, ,0.000673690985038349, ,1.8333333333333333, ,0.765585017714311, ,0.46076610681414665, ,0.07779433072794432
136, ,PASS, ,0.06411248, ,0.010354937905774436, ,0.03621859687594131, ,0.0006696497085484852, ,1.8333333333333333, ,0.7644248517360921, ,0.4605620293463399, ,0.08246770474071957
137, ,PASS, ,0.06229656400000001, ,0.010108338661571094, ,0.036258208019081244, ,0.0006351119771227927, ,1.8333333333333333, ,0.7681155074177839, ,0.46178649415318057, ,0.08499826534152365
138, ,FAIL, ,0.00020583000000000407, ,7.22019623898075e-06, ,0.038002316035591094, ,1.9412575504066085e-09, ,1.0833333333333333, ,0.31015813488194377, ,0.3403604008081468, ,0.000755086630885084
139, ,PASS, ,0.062502033, ,0.010142395118186523, ,0.036441507850717335, ,0.0006392523967398324, ,1.8333333333333333, ,0.7666324912834831, ,0.461439562457909, ,0.08163098712271179
140, ,PASS, ,0.06447446300000002, ,0.010438480191288175, ,0.03615550509867146, ,0.0006788818659844102, ,1.8333333333333333, ,0.7647241631061034, ,0.4607252913205853, ,0.07518213914001755
141, ,PASS, ,0.064435142, ,0.010423437198683376, ,0.03599582623850534, ,0.00067720777952315, ,1.8333333333333333, ,0.7649597309899968, ,0.46048039835921717, ,0.07622293422583212
142, ,PASS, ,0.06460453600000002, ,0.010456707553326793, ,0.03614863843815433, ,0.0006812005520793595, ,1.8333333333333333, ,0.7659758276529954, ,0.4614803779514704, ,0.0810595702128528
143, ,PASS, ,0.064544507, ,0.010440907462740607, ,0.03623469454317259, ,0.0006796256998036885, ,1.8333333333333333, ,0.766472628879117, ,0.46066406808024324, ,0.07981469765923145
144, ,PASS, ,0.06483892100000002, ,0.010525815212017932, ,0.036231847295769476, ,0.0006881976958630921, ,1.8333333333333333, ,0.7679695619903192, ,0.4613579314707863, ,0.0776310687536989
145, ,PASS, ,0.06535768400000001, ,0.01069952243285754, ,0.03631649688994102, ,0.0007047859652212647, ,1.9166666666666667, ,0.7725590740568298, ,0.4643986857411073, ,0.09018183302381584
146, ,PASS, ,0.065344323, ,0.010681468695748465, ,0.03657530154496847, ,0.0007033166942095495, ,1.9166666666666667, ,0.7712202537441059, ,0.4637660455909063, ,0.08518193506254974
147, ,PASS, ,0.06393477999999997, ,0.010379380281199686, ,0.03616714078149426, ,0.0006690820989168619, ,1.8333333333333333, ,0.7670983126695792, ,0.4610926307626375, ,0.0812432399338789
148, ,PASS, ,0.063827606, ,0.010340280151235472, ,0.036215974300748965, ,0.0006655703563526577, ,1.8333333333333333, ,0.766664968921946, ,0.46035795187853307, ,0.08195751107120262
149, ,PASS, ,0.06385489, ,0.01031851501567117, ,0.036014817906063146, ,0.0006645864031212333, ,1.8333333333333333, ,0.7650199032219616, ,0.4596232729944287, ,0.0770800595906206
150, ,PASS, ,0.06358212199999999, ,0.010298528041116318, ,0.03615413323748495, ,0.0006605052030074928, ,1.8333333333333333, ,0.7663198507779937, ,0.4598681659557968, ,0.077814738474725
151, ,PASS, ,0.063532662, ,0.010252367919344252, ,0.03623231502436685, ,0.0006571433091521141, ,1.8333333333333333, ,0.7646928803270074, ,0.45907226383135036, ,0.08154935613558907
152, ,PASS, ,0.06352844800000002, ,0.010277786660722552, ,0.03611374969712863, ,0.0006587069064213893, ,1.8333333333333333, ,0.7648739739938395, ,0.45913348707169244, ,0.07861064059917144
153, ,PASS, ,0.06359290000000001, ,0.010286775438841525, ,0.03587825007369238, ,0.0006598515449564773, ,1.8333333333333333, ,0.7665875649057261, ,0.45982735046223544, ,0.08505948858186567
154, ,PASS, ,0.06348745100000003, ,0.010227960913834832, ,0.036196970991081816, ,0.0006550216160240204, ,1.8333333333333333, ,0.7637710891500661, ,0.458398808187588, ,0.07910042652190771
155, ,PASS, ,0.06343763899999999, ,0.010273203430150809, ,0.0361726540898349, ,0.000657431363444235, ,1.8333333333333333, ,0.7656979699338744, ,0.4593171567927185, ,0.07926368849615315
156, ,PASS, ,0.06392431000000001, ,0.010353157590588573, ,0.0361462855935185, ,0.0006675418868141527, ,1.8333333333333333, ,0.7659285051475511, ,0.45917430256525377, ,0.07930450398971449
157, ,PASS, ,0.06445603, ,0.010384592503956645, ,0.03602913781698333, ,0.0006753688289376533, ,1.8333333333333333, ,0.7638241599305611, ,0.4592967490459378, ,0.07616171098549009
158, ,PASS, ,0.06379713299999999, ,0.010304113231092591, ,0.03587036192691986, ,0.0006630213020455366, ,1.8333333333333333, ,0.7660757679414903, ,0.4593171567927185, ,0.07983510540601212
159, ,PASS, ,0.06350447000000002, ,0.010250774122528256, ,0.03611720562623212, ,0.0006568218538889847, ,1.8333333333333333, ,0.7647548439989436, ,0.45835799269402666, ,0.08018203710128365
160, ,PASS, ,0.06365441299999999, ,0.01022701523032866, ,0.036178648049794905, ,0.000657135202807817, ,1.8333333333333333, ,0.7626369083222186, ,0.45827636170690395, ,0.07671272014856839
161, ,PASS, ,0.063539901, ,0.0102461797254511, ,0.03585787300569376, ,0.0006568377303460343, ,1.8333333333333333, ,0.7647978877331202, ,0.4582151384665619, ,0.07705965184383992
162, ,PASS, ,0.06426786699999999, ,0.010345008259418106, ,0.035999685727719846, ,0.0006707246043934265, ,1.8333333333333333, ,0.7634667721462608, ,0.4594191955266219, ,0.07312095671516908
163, ,PASS, ,0.06358165500000003, ,0.010302174721905833, ,0.03601149121613845, ,0.0006608225362798235, ,1.8333333333333333, ,0.7655461201513883, ,0.45833758494724597, ,0.07922287300259179
164, ,PASS, ,0.064662697, ,0.010480280519121395, ,0.03602366592961368, ,0.000683501205105408, ,1.8333333333333333, ,0.766305955845266, ,0.45901104059100833, ,0.07901879553478501
165, ,PASS, ,0.065041632, ,0.010570445253607208, ,0.03617058987969634, ,0.0006933515982274722, ,1.8333333333333333, ,0.7692528195557562, ,0.45994979694291954, ,0.08471255688659415
166, ,PASS, ,0.08114351299999999, ,0.013085553369792531, ,0.03690890617698496, ,0.0010686793593000954, ,1.8333333333333333, ,0.7660964196944962, ,0.470439378788188, ,0.1129772861778331
167, ,PASS, ,0.16664725000000002, ,0.022981372447187072, ,0.03903972432991163, ,0.0038469538817705656, ,1.75, ,0.6999739443324791, ,0.49111242627701474, ,0.1181608538601253
168, ,PASS, ,0.06997154400000001, ,0.011426994060579902, ,0.03587694648856146, ,0.0008062930879424848, ,1.8333333333333333, ,0.7700269066827302, ,0.45966408848799006, ,0.0834676843329728
169, ,PASS, ,0.0722886656, ,0.011767258623514174, ,0.035868684506805984, ,0.0008576454294061832, ,1.8333333333333333, ,0.7687106743445099, ,0.4600518356768229, ,0.08397787800248975
170, ,PASS, ,0.07034210600000003, ,0.011476943783032626, ,0.03614923269163895, ,0.0008139962253480718, ,1.8333333333333333, ,0.7697093558571598, ,0.46037835962531376, ,0.08116160894675618
171, ,PASS, ,0.07030319100000001, ,0.011448255274384608, ,0.03592612773951552, ,0.0008116252185818352, ,1.8333333333333333, ,0.7698996894654847, ,0.45992938919613885, ,0.08320238362482399
172, ,PASS, ,0.07012602200000001, ,0.011432597703723247, ,0.035810823226219875, ,0.0008082977213354388, ,1.8333333333333333, ,0.7690613560407555, ,0.46003142793004226, ,0.07867186383951348
173, ,PASS, ,0.07000405100000001, ,0.011375849680709026, ,0.036055668230627946, ,0.0008031327253958533, ,1.8333333333333333, ,0.7701868934695776, ,0.4597661272218934, ,0.08340646109263077
174, ,PASS, ,0.069629827, ,0.011306001943482531, ,0.036027311905103984, ,0.0007937956565220659, ,1.8333333333333333, ,0.7680895927172481, ,0.4597253117283321, ,0.08403910124283177
175, ,PASS, ,0.069513478, ,0.011322633712119931, ,0.036194851492826675, ,0.0007938909749105221, ,1.8333333333333333, ,0.7690922243466496, ,0.4596844962347707, ,0.08279422868921042
176, ,PASS, ,0.06964456030000002, ,0.011345657966159916, ,0.035894593649905104, ,0.000796897381882025, ,1.8333333333333333, ,0.7688355998640398, ,0.45984775820901613, ,0.08052896879655518
177, ,PASS, ,0.07020115300000002, ,0.01149268307447787, ,0.0362142470234281, ,0.0008129966147319408, ,1.8333333333333333, ,0.772251131544734, ,0.4631129976939246, ,0.08414113997673517
178, ,PASS, ,0.07016208200000001, ,0.011513643502509007, ,0.03630148809307973, ,0.0008140558717090064, ,1.8333333333333333, ,0.7734468394749795, ,0.4630721822003633, ,0.08997775555600906
179, ,PASS, ,0.06864781399999999, ,0.011184735458408913, ,0.03589149742109345, ,0.0007741820093980143, ,1.8333333333333333, ,0.7682713203268092, ,0.4594396032734026, ,0.08120242444031754
180, ,PASS, ,0.068494626, ,0.011102330240919608, ,0.035922301334891125, ,0.0007670548126328089, ,1.8333333333333333, ,0.7678026055942436, ,0.45956204975408665, ,0.08018203710128365
181, ,PASS, ,0.06844325700000001, ,0.011071536714209827, ,0.03597721582986062, ,0.0007645429077658411, ,1.8333333333333333, ,0.7658278050025737, ,0.458909001857105, ,0.0811412011999755
182, ,PASS, ,0.06809481999999997, ,0.011012862673064457, ,0.03604192933287076, ,0.0007565042960349519, ,1.8333333333333333, ,0.7659171668667699, ,0.45948041876696394, ,0.07822289341033857
183, ,PASS, ,0.06788016700000002, ,0.01099788065361541, ,0.03585024432807494, ,0.0007531921174872917, ,1.8333333333333333, ,0.7664440476625672, ,0.4585620701618334, ,0.08138609416134365
184, ,PASS, ,0.067928677, ,0.01097599442155853, ,0.036026957596579666, ,0.000752228285835977, ,1.8333333333333333, ,0.7657665501791499, ,0.4592763412991572, ,0.07867186383951348
185, ,PASS, ,0.06772225399999998, ,0.010932091112381167, ,0.03609275024732149, ,0.000747075005436027, ,1.8333333333333333, ,0.7659954476900526, ,0.4594396032734026, ,0.0781004469296545
186, ,PASS, ,0.06738371000000001, ,0.010913434235251707, ,0.03583714351094876, ,0.0007419099069646394, ,1.8333333333333333, ,0.7670265700938039, ,0.45899063284422764, ,0.08224321952613212
187, ,PASS, ,0.067226324, ,0.010891920249254242, ,0.03588975228542275, ,0.0007386425180739153, ,1.8333333333333333, ,0.7647752704374465, ,0.4584192159343687, ,0.07661068141466501
188, ,PASS, ,0.067462916, ,0.010907317715707262, ,0.036072779479500425, ,0.0007422822952971638, ,1.8333333333333333, ,0.7646162921310711, ,0.45911307932491174, ,0.08079426950470399
189, ,PASS, ,0.06786940300000002, ,0.010951796586023483, ,0.03608288419954695, ,0.0007497716325525859, ,1.8333333333333333, ,0.7671807372157988, ,0.4605212138527785, ,0.08463092589947144
190, ,PASS, ,0.06753714800000002, ,0.010983673583961727, ,0.03609889969257771, ,0.0007480280437970221, ,1.8333333333333333, ,0.7690626665519373, ,0.46035795187853307, ,0.08324319911838533
191, ,PASS, ,0.06812146000000001, ,0.011054841160323424, ,0.03596799195512337, ,0.0007594860650929003, ,1.8333333333333333, ,0.7704863717781323, ,0.46131711597722497, ,0.08877369849594906
192, ,PASS, ,0.06841766999999999, ,0.011124283466212555, ,0.0360223191322422, ,0.0007672923436154202, ,1.8333333333333333, ,0.7677073118575387, ,0.4610109997755148, ,0.07954939695108264
193, ,PASS, ,0.06868786800000001, ,0.011142207199511858, ,0.03633316471578132, ,0.0007719144381750973, ,1.8333333333333333, ,0.7689518452963122, ,0.4613987469643477, ,0.08491663435440093
194, ,PASS, ,0.06859994100000001, ,0.011151774430716997, ,0.03608107238017592, ,0.000771231227059923, ,1.8333333333333333, ,0.7696349925666203, ,0.4616436399257158, ,0.08648803085651313
195, ,PASS, ,0.068533609, ,0.011146213265680082, ,0.036035215427685154, ,0.0007701480556097255, ,1.8333333333333333, ,0.7681035920872491, ,0.46152119344503173, ,0.08014122160772229
196, ,PASS, ,0.068899888, ,0.011231714114160646, ,0.03620772551035693, ,0.0007802301377952361, ,1.8333333333333333, ,0.7695544241216163, ,0.4613579314707863, ,0.08471255688659415
197, ,PASS, ,0.06919778600000001, ,0.011239914338856908, ,0.03597234014044611, ,0.0007844161606065246, ,1.8333333333333333, ,0.7695343898662528, ,0.4618477173935226, ,0.08536560478357584
198, ,PASS, ,0.06895467599999999, ,0.011226946042790143, ,0.036124049499867354, ,0.0007804356680440062, ,1.8333333333333333, ,0.768622928729997, ,0.4618069018999612, ,0.08173302585661517
199, ,PASS, ,0.06896520699999999, ,0.011188969102017688, ,0.03597539244478684, ,0.0007780363147480914, ,1.8333333333333333, ,0.7693943540567849, ,0.4613579314707863, ,0.08646762310973245
200, ,PASS, ,0.07000023100000001, ,0.01144363443158053, ,0.03625996820115916, ,0.0008073721037453881, ,1.8333333333333333, ,0.772174962476804, ,0.463215036427828, ,0.09307973306667211
201, ,PASS, ,0.06884896099999999, ,0.011212939479632525, ,0.03607511224642355, ,0.0007781921855423965, ,1.8333333333333333, ,0.7692904476845042, ,0.46131711597722497, ,0.08475337238015551
202, ,PASS, ,0.068368579, ,0.01114575858349712, ,0.036248127942348114, ,0.0007681918110616538, ,1.8333333333333333, ,0.7686631739721903, ,0.4614803779514704, ,0.08459011040591008
203, ,PASS, ,0.06843877800000002, ,0.011116905438568489, ,0.035980405005203976, ,0.0007672323342288921, ,1.8333333333333333, ,0.7688529755695289, ,0.46160282443215445, ,0.08146772514846636
204, ,PASS, ,0.06833060299999999, ,0.011142895398512919, ,0.03607886536109468, ,0.0007674925552741845, ,1.8333333333333333, ,0.7700120904409102, ,0.46162323217893514, ,0.08687577804534602
205, ,PASS, ,0.06850639900000001, ,0.011133735302138693, ,0.03623186747131691, ,0.0007687685510185781, ,1.8333333333333333, ,0.7688886761507507, ,0.461439562457909, ,0.08499826534152365
206, ,PASS, ,0.06817886700000002, ,0.011089347345393226, ,0.036264229848594925, ,0.0007621330904565383, ,1.8333333333333333, ,0.7663435406659139, ,0.46082733005448867, ,0.07867186383951348
207, ,PASS, ,0.06818328200000001, ,0.011061442166244807, ,0.03598741437964532, ,0.0007606775064205271, ,1.8333333333333333, ,0.7685103389099225, ,0.46166404767249647, ,0.08634517662904839
208, ,PASS, ,0.06881280900000003, ,0.011218544683714941, ,0.03638686080324891, ,0.0007782296421860075, ,1.8333333333333333, ,0.7685587006134972, ,0.4618885328870839, ,0.08440644068488398
209, ,PASS, ,0.06814295699999999, ,0.011086009678028468, ,0.03628021442262403, ,0.0007617223883766147, ,1.8333333333333333, ,0.7687567477741696, ,0.46123548499010225, ,0.08459011040591008
210, ,PASS, ,0.06748607700000003, ,0.010933022574313025, ,0.036159760636497215, ,0.0007438666765933162, ,1.8333333333333333, ,0.7665156974323324, ,0.461378339217567, ,0.07712087508418196
211, ,PASS, ,0.06705097700000001, ,0.010858650932823235, ,0.03634612645539887, ,0.00073424658573966, ,1.8333333333333333, ,0.7659387835141669, ,0.46029672863819104, ,0.08034529907552906
212, ,PASS, ,0.06709681500000005, ,0.010837553694394007, ,0.03610838937072713, ,0.0007333842608332565, ,1.8333333333333333, ,0.7653302862833272, ,0.4605416215995592, ,0.07648823493398094
213, ,PASS, ,0.06709829400000002, ,0.010806702492127887, ,0.036164520787800254, ,0.0007314689669134694, ,1.8333333333333333, ,0.7667410890878318, ,0.46074569906736595, ,0.081426909654905
214, ,PASS, ,0.06687260900000001, ,0.010942280710058492, ,0.03627837527058632, ,0.0007373646107467637, ,1.8333333333333333, ,0.7712918863766436, ,0.46354156037631883, ,0.0852227505561111
215, ,PASS, ,0.06695052700000002, ,0.010941154247938822, ,0.03642580683990123, ,0.0007382366428589134, ,1.8333333333333333, ,0.7716307559167928, ,0.46337829840207345, ,0.08787575763759924
216, ,PASS, ,0.066632354, ,0.010786129372501011, ,0.036105704222403626, ,0.0007247173107904197, ,1.8333333333333333, ,0.7650918611856105, ,0.4597457194751128, ,0.0787534948266362
217, ,PASS, ,0.06695050200000002, ,0.010835691630196945, ,0.03580512723526051, ,0.0007315860809662105, ,1.8333333333333333, ,0.765653215335289, ,0.4601946899042877, ,0.07775351523438297
218, ,PASS, ,0.06709165000000002, ,0.010835864251967916, ,0.03604848731976899, ,0.0007333095545219238, ,1.8333333333333333, ,0.7648591389785366, ,0.4597661272218934, ,0.08205954980510602
219, ,PASS, ,0.066734537, ,0.010857575809535303, ,0.03612377339972654, ,0.0007305994578367544, ,1.8333333333333333, ,0.7677385721051757, ,0.46031713638497174, ,0.07997795963347687
220, ,PASS, ,0.06717226700000002, ,0.010869037929159883, ,0.036175014231811596, ,0.000736312133074706, ,1.8333333333333333, ,0.7654379467987343, ,0.4604395828656558, ,0.07848819411848738
221, ,PASS, ,0.06755979999999998, ,0.010900995868491964, ,0.03607183488247179, ,0.0007427853265608198, ,1.8333333333333333, ,0.764739439912321, ,0.46039876737209445, ,0.07491683843186873
222, ,PASS, ,0.06744380600000001, ,0.010940042697408787, ,0.036161877181037125, ,0.000744011717362039, ,1.8333333333333333, ,0.7672779796208544, ,0.46041917511887515, ,0.08479418787371687
223, ,PASS, ,0.06751596000000003, ,0.010974632262038255, ,0.036013903875573974, ,0.0007468264406193007, ,1.8333333333333333, ,0.7672728123054301, ,0.4601538744107263, ,0.08016162935450297
224, ,PASS, ,0.06815810600000002, ,0.011067705802301125, ,0.03619902365396625, ,0.0007605758365400381, ,1.8333333333333333, ,0.7688035342946685, ,0.46178649415318057, ,0.08567172098528601
225, ,PASS, ,0.068260075, ,0.011088933054983366, ,0.036282675111385485, ,0.000763160287055031, ,1.8333333333333333, ,0.7669437365958168, ,0.4615620089385931, ,0.07703924409705924
226, ,PASS, ,0.06798100900000001, ,0.011062293088263567, ,0.036114709794045026, ,0.0007582174395610293, ,1.8333333333333333, ,0.7692937608965016, ,0.4619089406338646, ,0.08461051815269076
227, ,PASS, ,0.06770579200000003, ,0.011025495264516369, ,0.03623480897653109, ,0.0007525080866511519, ,1.8333333333333333, ,0.7690862738544897, ,0.46158241668537375, ,0.08520234280933042
228, ,PASS, ,0.06754632800000004, ,0.010995982094362049, ,0.03607774206518235, ,0.0007486790851187702, ,1.8333333333333333, ,0.7688415540982808, ,0.4613375237240056, ,0.08352890757331483
229, ,PASS, ,0.067378461, ,0.010968541187262494, ,0.03625177900677538, ,0.0007451403309052931, ,1.8333333333333333, ,0.7696844303555401, ,0.46076610681414665, ,0.08952878512683414
230, ,PASS, ,0.06745889099999998, ,0.010946646678113464, ,0.036101736021183245, ,0.000744588609043039, ,1.8333333333333333, ,0.7681828455902102, ,0.4614191547111283, ,0.08454929491234872
231, ,PASS, ,0.06706300200000001, ,0.010908898224080851, ,0.03621111707748822, ,0.0007376754577627756, ,1.8333333333333333, ,0.7679557320719858, ,0.46084773780126936, ,0.08169221036305381
232, ,PASS, ,0.06702908900000001, ,0.010919921930189232, ,0.036132429026979045, ,0.0007377992369464121, ,1.8333333333333333, ,0.7682360231047639, ,0.4609293687883921, ,0.08324319911838533
233, ,PASS, ,0.06714405300000002, ,0.010896421539744327, ,0.036240418748862274, ,0.0007377245444997023, ,1.8333333333333333, ,0.7672918022780153, ,0.4609905920287341, ,0.08085549274504603
234, ,PASS, ,0.06668816800000005, ,0.010855261804470828, ,0.03618057349637763, ,0.0007298209416962335, ,1.8333333333333333, ,0.7697273528614755, ,0.4610722230158568, ,0.07787596171506704
235, ,PASS, ,0.06706195000000001, ,0.010920448844995016, ,0.0362222513290341, ,0.0007384095915015964, ,1.8333333333333333, ,0.7699225041131103, ,0.4615416011918124, ,0.08936552315258872
236, ,PASS, ,0.06735749800000004, ,0.010932083847768056, ,0.03613055855239689, ,0.0007424758929899936, ,1.8333333333333333, ,0.7671120087361049, ,0.4602763208914104, ,0.08056978429011653
237, ,PASS, ,0.06739520900000004, ,0.010973653752057024, ,0.03615820085261526, ,0.0007455861951837851, ,1.8333333333333333, ,0.7696174824757555, ,0.46119466949654087, ,0.085039080835085
238, ,PASS, ,0.06756961500000001, ,0.010952890129818219, ,0.03615908800738761, ,0.0007462371898551754, ,1.8333333333333333, ,0.7673680363598625, ,0.46039876737209445, ,0.08344727658619212
239, ,PASS, ,0.067688036, ,0.01099812358903396, ,0.0361441941425277, ,0.0007505256673168516, ,1.8333333333333333, ,0.768323511243583, ,0.4606028448399012, ,0.08381461602824432
240, ,PASS, ,0.068368142, ,0.011098247008637247, ,0.03622322843754209, ,0.0007647735755241884, ,1.8333333333333333, ,0.7682744644359693, ,0.4605416215995592, ,0.08691659353890736
241, ,PASS, ,0.088421715, ,0.013978122605241042, ,0.0368645281352001, ,0.0012433122988234917, ,1.8333333333333333, ,0.7572288792920051, ,0.4726638231872819, ,0.1090998142895043
242, ,PASS, ,0.1998000000000002, ,0.028708749512326753, ,0.04093006847860249, ,0.005760218946726285, ,1.75, ,0.7045965405061547, ,0.49360217138425744, ,0.15634374808677373
243, ,PASS, ,0.11169808999999999, ,0.015779461381109024, ,0.03854093812385462, ,0.0017699625294597765, ,1.75, ,0.7061244954394894, ,0.49239811432419744, ,0.11799759188587988
244, ,PASS, ,0.10950414999999998, ,0.015450127258859924, ,0.03860944367637803, ,0.0016987240288458465, ,1.75, ,0.7054197384919921, ,0.4923368910838554, ,0.11773229117773107
245, ,PASS, ,0.10978114000000001, ,0.01540890297292947, ,0.038946715023128096, ,0.0016986392936971261, ,1.75, ,0.7028643329031498, ,0.49333687067610865, ,0.113997673516867
246, ,PASS, ,0.10980911999999997, ,0.015442356769971565, ,0.0387664131670619, ,0.0017027354918766678, ,1.75, ,0.7045541638494062, ,0.4930715699679598, ,0.12618109834493174
247, ,PASS, ,0.11002109999999996, ,0.015412203917374204, ,0.03858126162381176, ,0.0017028887591808211, ,1.6666666666666667, ,0.7025260904050776, ,0.49323483194220524, ,0.11803840737944124
248, ,PASS, ,0.11007895999999999, ,0.015466537110701029, ,0.03867900428066284, ,0.001709525989679727, ,1.6666666666666667, ,0.7040918186011125, ,0.49325523968898594, ,0.12379339197159242
249, ,PASS, ,0.11053794000000002, ,0.015471532230765285, ,0.03875726225064999, ,0.001717477358968488, ,1.6666666666666667, ,0.7023319147376177, ,0.4935817636374768, ,0.11985469684292158
250, ,PASS, ,0.10985400999999997, ,0.015454147339412236, ,0.03869488847630253, ,0.0017045909473386552, ,1.6666666666666667, ,0.7043921760616076, ,0.4935409481439154, ,0.1324870921001612
251, ,PASS, ,0.10980172, ,0.01540360283570371, ,0.03877332203603192, ,0.0016985557762261732, ,1.75, ,0.7029647664034716, ,0.49286749250015305, ,0.10852839737964531
252, ,PASS, ,0.10866585999999998, ,0.015282003828067051, ,0.038696865102111386, ,0.0016675844542346936, ,1.75, ,0.7037850074037902, ,0.4923572988306361, ,0.11136507418215955
253, ,PASS, ,0.10852179, ,0.015357254484949814, ,0.03847164407124345, ,0.001673508119501113, ,1.75, ,0.7076036781380225, ,0.49243892981775883, ,0.11891594049101038
254, ,PASS, ,0.10815896999999997, ,0.015367616922247791, ,0.038506215648248, ,0.0016691948288919092, ,1.75, ,0.7081488497063776, ,0.49168384318687375, ,0.11038550233668701
255, ,PASS, ,0.10768926999999998, ,0.015299487236838225, ,0.03834128165889268, ,0.0016542360571373776, ,1.75, ,0.7092519199640888, ,0.4919695516418032, ,0.11952817289443073
