Channel, ,Pass/Fail, ,Amplitude, ,Sorting Function Response, ,Mean, ,Variance, ,NPeaksRatio, ,PosIntegralRatio, ,ToT50, ,ToT99
14, ,PASS, ,0.014856180000000004, ,0.002444563187772041, ,0.034390651899961225, ,3.7263034467762105e-05, ,1.8333333333333333, ,0.8572559401824181, ,0.6442929736127834, ,0.06859043692985857
15, ,PASS, ,0.03213269000000003, ,0.005385635571833857, ,0.03681084168874105, ,0.0001773983507184431, ,2.0, ,0.8408696196396053, ,0.6424358686557418, ,0.0919777147405155
16, ,PASS, ,0.014243350000000002, ,0.0021335178090975218, ,0.03420701489643068, ,3.119533678432223e-05, ,1.8333333333333333, ,0.7965275356300426, ,0.6419664904797862, ,0.05863145650088774
17, ,PASS, ,0.011713379999999995, ,0.0016188004968805474, ,0.03387860767249648, ,1.946198789751861e-05, ,1.8333333333333333, ,0.7741143629734413, ,0.6430072855656007, ,0.05918246566396604
18, ,PASS, ,0.011578330000000001, ,0.0016046749418709737, ,0.03380116658211057, ,1.9062764857904827e-05, ,1.8333333333333333, ,0.7683733520871942, ,0.6392930756515173, ,0.06401910165098672
19, ,PASS, ,0.011109119999999997, ,0.0015446149535544539, ,0.033847472546478644, ,1.7625426224555018e-05, ,1.8333333333333333, ,0.7778658955766771, ,0.6432725862737495, ,0.0597742903206057
20, ,PASS, ,0.011573669999999987, ,0.001539399837283702, ,0.03379102821289361, ,1.828040008542272e-05, ,1.8333333333333333, ,0.7321283601854202, ,0.6415379277973919, ,0.035917634333993184
21, ,PASS, ,0.01126288999999999, ,0.0015420015439371953, ,0.03380553389073692, ,1.7830547534060873e-05, ,1.8333333333333333, ,0.7738524950043629, ,0.6432317707801881, ,0.04175424991326707
22, ,PASS, ,0.011613800000000007, ,0.001550645773733161, ,0.03399713032305463, ,1.851228717808787e-05, ,1.8333333333333333, ,0.7583466365164167, ,0.6430889165527234, ,0.04344809289606334
23, ,PASS, ,0.011224699999999987, ,0.0015669351453432513, ,0.03399791672904635, ,1.805615192930263e-05, ,1.8333333333333333, ,0.7816516469631676, ,0.6447419440419583, ,0.041631803432583006
24, ,FAIL, ,0.001895150000000012, ,7.288969748401881e-05, ,0.03253085150201016, ,1.461951349042916e-07, ,0.9166666666666666, ,0.3679541354341165, ,0.44321544458276363, ,0.01271402624436236
25, ,FAIL, ,0.00206327000000002, ,8.387084728330976e-05, ,0.032613804747454136, ,1.763544622615181e-07, ,1.0, ,0.34406046737844775, ,0.39740005306014164, ,0.005612130364686435
26, ,PASS, ,0.013982949999999994, ,0.002255575638566054, ,0.034303444065835395, ,3.231241135057182e-05, ,1.8333333333333333, ,0.8284158424899198, ,0.6443541968531254, ,0.1796085794167466
27, ,PASS, ,0.011055509999999998, ,0.0015678524405096379, ,0.033892201666088445, ,1.7760574651727742e-05, ,1.8333333333333333, ,0.7778004631315084, ,0.6415175200506112, ,0.07289647150058162
28, ,PASS, ,0.011248489999999993, ,0.001578551205302253, ,0.033860944176853536, ,1.8211901437023546e-05, ,1.8333333333333333, ,0.7720760768104548, ,0.6420685292136895, ,0.04961123242382808
29, ,PASS, ,0.010785059999999978, ,0.0015510438794675736, ,0.03399160906593743, ,1.7180602550018877e-05, ,1.8333333333333333, ,0.7829862480998181, ,0.642925654578478, ,0.07926368849615315
30, ,PASS, ,0.01119124999999999, ,0.0015291206527005144, ,0.03402427773780127, ,1.7574761259582672e-05, ,1.8333333333333333, ,0.7627673380041979, ,0.6430889165527234, ,0.03844819493479725
31, ,PASS, ,0.011150079999999986, ,0.001556939246273495, ,0.033846102702801986, ,1.7827645887417694e-05, ,1.8333333333333333, ,0.7737126468023001, ,0.6435174792351176, ,0.0530193261362013
32, ,PASS, ,0.011082559999999991, ,0.0015617915259040695, ,0.03394203735413563, ,1.7785846961920218e-05, ,1.8333333333333333, ,0.7864818551929091, ,0.644701128548397, ,0.08275341319564906
33, ,PASS, ,0.011381619999999992, ,0.0015587337765921663, ,0.03383260069182262, ,1.813807395510587e-05, ,2.0, ,0.7603019202899154, ,0.6388032897287811, ,0.07395767433317688
34, ,PASS, ,0.01133603, ,0.0015433619864763377, ,0.03396434739209404, ,1.7993858029685068e-05, ,1.9166666666666667, ,0.7543156667097063, ,0.6430889165527234, ,0.03146874553580539
35, ,PASS, ,0.01185669000000001, ,0.0016056987620056678, ,0.03375076173322993, ,1.9440844334116655e-05, ,1.8333333333333333, ,0.7457567520804603, ,0.6405583559519193, ,0.041223648496969446
36, ,PASS, ,0.011448039999999982, ,0.0015678227734568697, ,0.033956937672496475, ,1.846586918266e-05, ,1.9166666666666667, ,0.770019340739683, ,0.644068488398196, ,0.032611579355523355
37, ,PASS, ,0.011376419999999995, ,0.001626111693458414, ,0.03392888657721271, ,1.9020397096078195e-05, ,1.8333333333333333, ,0.7832199928216501, ,0.6432521785269688, ,0.034672761780371826
38, ,PASS, ,0.011629699999999996, ,0.0015671676032481272, ,0.03378607760188567, ,1.8724018922221546e-05, ,1.8333333333333333, ,0.7426682722750185, ,0.6421093447072509, ,0.02850962225260709
39, ,PASS, ,0.011663429999999992, ,0.0015999618437332248, ,0.033678669976939246, ,1.9144712406964836e-05, ,1.8333333333333333, ,0.7642917498178523, ,0.6415379277973919, ,0.027346380686108448
40, ,PASS, ,0.01148766000000001, ,0.0015853148582117306, ,0.033678732175465804, ,1.8719276494749898e-05, ,1.9166666666666667, ,0.7678824861949741, ,0.6410073263810943, ,0.04101957102916267
41, ,PASS, ,0.011682660000000004, ,0.0016164972001907517, ,0.033628619730005506, ,1.9393608049729855e-05, ,1.8333333333333333, ,0.7712429953030276, ,0.6430072855656007, ,0.040856309054917245
42, ,PASS, ,0.01178850000000001, ,0.0015936086941114621, ,0.03368483931266709, ,1.9334202580519896e-05, ,1.8333333333333333, ,0.7654649965686613, ,0.6498438807371278, ,0.08187588008407992
43, ,PASS, ,0.01202859999999999, ,0.0017286329123293112, ,0.03373881516458847, ,2.135107855862319e-05, ,1.8333333333333333, ,0.78664126957234, ,0.6425991306299872, ,0.04659088590028775
44, ,PASS, ,0.01183228, ,0.001641570458197312, ,0.03381891257280464, ,1.994707273138283e-05, ,1.8333333333333333, ,0.7686251251016748, ,0.6428440235913553, ,0.03199934695210302
45, ,PASS, ,0.011502739999999987, ,0.0016193555579296815, ,0.03388770474704598, ,1.9141013728249418e-05, ,1.8333333333333333, ,0.7896792479795945, ,0.6438235954368278, ,0.044509295728658596
46, ,PASS, ,0.011785239999999999, ,0.001626446906475722, ,0.0336976485363564, ,1.96590971245881e-05, ,1.8333333333333333, ,0.7652718969922391, ,0.6430072855656007, ,0.038305340707332505
47, ,PASS, ,0.011564679999999997, ,0.0016338831282680843, ,0.03366442943715434, ,1.938885394153432e-05, ,1.8333333333333333, ,0.7757887427206369, ,0.6418644517458827, ,0.038713495642946065
48, ,PASS, ,0.011197269999999995, ,0.001559770882942089, ,0.03387264892083835, ,1.790354438626653e-05, ,1.8333333333333333, ,0.7781057965231337, ,0.6438644109303892, ,0.04975408665129283
49, ,PASS, ,0.011734430000000011, ,0.0015798403963182973, ,0.03395150311707924, ,1.9024559513027533e-05, ,1.8333333333333333, ,0.7673832319954735, ,0.6427623926042325, ,0.038795126630068774
50, ,PASS, ,0.011949420000000006, ,0.0016122230345737253, ,0.033742623384624804, ,1.9698920614388664e-05, ,1.8333333333333333, ,0.7556009307928395, ,0.6406808024326034, ,0.0259994693985837
51, ,PASS, ,0.011906550000000002, ,0.0016772692609923875, ,0.033765606456194766, ,2.04939522042465e-05, ,1.8333333333333333, ,0.7828959242899007, ,0.6413746658231465, ,0.07516173139323687
52, ,PASS, ,0.011460579999999995, ,0.0016241455180757835, ,0.03355297782473827, ,1.9093767361948606e-05, ,1.8333333333333333, ,0.7840789786154098, ,0.6418644517458827, ,0.04677455562131385
53, ,PASS, ,0.011515900000000003, ,0.0016225839489735282, ,0.03392043815677231, ,1.9190059928718452e-05, ,1.8333333333333333, ,0.7867249156571278, ,0.6441501193853186, ,0.05195812330360605
54, ,PASS, ,0.011655939999999997, ,0.0016211173082177428, ,0.03368192520928144, ,1.940268552163794e-05, ,1.8333333333333333, ,0.7774246821250332, ,0.6414767045570499, ,0.040407338625742334
55, ,PASS, ,0.011920549999999988, ,0.0016792204021940853, ,0.03349039510112038, ,2.054816095645608e-05, ,1.8333333333333333, ,0.7729761139864466, ,0.6423134221750576, ,0.03457072304646844
56, ,PASS, ,0.011600069999999997, ,0.0015830101998486796, ,0.03394803821064876, ,1.8895539993276254e-05, ,1.8333333333333333, ,0.7743867887881056, ,0.6518846554151956, ,0.04112160976306606
57, ,PASS, ,0.011555989999999988, ,0.0016347016130208933, ,0.033503667977796366, ,1.9390687966585137e-05, ,1.8333333333333333, ,0.7783884377861747, ,0.6432521785269688, ,0.04185628864717047
58, ,PASS, ,0.011525979999999984, ,0.0016223930463836543, ,0.033943823987469646, ,1.9231947812894822e-05, ,1.8333333333333333, ,0.7893643279080923, ,0.6438848186771698, ,0.07899838778800433
59, ,PASS, ,0.011589499999999996, ,0.0016284743539521872, ,0.033522736242321584, ,1.9386058773178622e-05, ,1.8333333333333333, ,0.7736073106215224, ,0.6425991306299872, ,0.04110120201628538
60, ,PASS, ,0.01175536, ,0.001641155064190746, ,0.03360041968735332, ,1.9818695635051226e-05, ,1.9166666666666667, ,0.7796162629415719, ,0.6344360319177159, ,0.0433052386685986
61, ,PASS, ,0.011754199999999989, ,0.0016488774276789309, ,0.03366785782351381, ,1.987175192395226e-05, ,1.9166666666666667, ,0.7755030419002304, ,0.6433746250076529, ,0.08695740903246872
62, ,PASS, ,0.011609089999999992, ,0.001630603000055739, ,0.033739310905491725, ,1.9422043897120793e-05, ,1.9166666666666667, ,0.7763973227382551, ,0.6337625762739536, ,0.04667251688741046
63, ,PASS, ,0.01184095, ,0.0016196318561312604, ,0.03375090039080835, ,1.9693083597911823e-05, ,1.8333333333333333, ,0.759202689415913, ,0.6433134017673109, ,0.03314218077182098
64, ,PASS, ,0.011586759999999991, ,0.0016237107314187667, ,0.033801887511683434, ,1.9329859952727572e-05, ,1.8333333333333333, ,0.7679251719012616, ,0.6413542580763658, ,0.028550437746168444
65, ,PASS, ,0.01158761999999999, ,0.0016054596723980203, ,0.03371643053202995, ,1.9109884717811682e-05, ,1.8333333333333333, ,0.781743702454323, ,0.6445174588273709, ,0.04755004999897961
66, ,PASS, ,0.011639290000000017, ,0.0016289721909839737, ,0.03353206683190139, ,1.9464470591148984e-05, ,1.8333333333333333, ,0.7694077683976174, ,0.6420073059733474, ,0.050305095814371134
67, ,PASS, ,0.011595779999999986, ,0.0016610960791339873, ,0.0338213417842493, ,1.975268726552928e-05, ,1.8333333333333333, ,0.7799759501033166, ,0.6417624130119793, ,0.05375400502030571
68, ,PASS, ,0.011371589999999994, ,0.0015747827818940777, ,0.03366072362319136, ,1.8386502420545942e-05, ,1.8333333333333333, ,0.7752079363559811, ,0.6439664496642926, ,0.05816207832493214
69, ,PASS, ,0.011677959999999998, ,0.0016415305803565475, ,0.03357031034162568, ,1.967095566782452e-05, ,1.8333333333333333, ,0.7828484339118249, ,0.6434154405012142, ,0.05406012122201588
70, ,PASS, ,0.011688639999999997, ,0.0015924616054972898, ,0.03360017468419012, ,1.9122806444607793e-05, ,1.8333333333333333, ,0.7804058151841398, ,0.6441705271320993, ,0.05210097753107079
71, ,PASS, ,0.011589540000000006, ,0.0016043290416587301, ,0.033677836013550747, ,1.9077170067865048e-05, ,1.8333333333333333, ,0.7688968436511636, ,0.6431501397930655, ,0.07042713414011958
72, ,PASS, ,0.011676869999999999, ,0.0016313452355454863, ,0.033527960136527826, ,1.951812292402385e-05, ,1.9166666666666667, ,0.7627393753919548, ,0.6384767657802902, ,0.039591028754515215
73, ,PASS, ,0.012236070000000002, ,0.0016583049372811698, ,0.03366751459460011, ,2.0797305764970673e-05, ,1.8333333333333333, ,0.7533333300208287, ,0.6413542580763658, ,0.030550396930674885
74, ,PASS, ,0.01177466000000001, ,0.0016500298566247274, ,0.03377195534580927, ,1.993232691668458e-05, ,1.8333333333333333, ,0.768591960813757, ,0.6423338299218383, ,0.06599865308871247
75, ,PASS, ,0.01188956, ,0.001689382547976868, ,0.03366151533927879, ,2.0640958176025894e-05, ,1.9166666666666667, ,0.7780479398153392, ,0.634497255158058, ,0.04675414787453317
76, ,PASS, ,0.01170682, ,0.001619082120432942, ,0.033590370808554926, ,1.9449965993769326e-05, ,1.9166666666666667, ,0.7707115577067366, ,0.6412318115956818, ,0.05540703250954062
77, ,PASS, ,0.011872560000000008, ,0.0016424293200688288, ,0.033673522298932675, ,2.001957732182275e-05, ,1.8333333333333333, ,0.7744344526692796, ,0.6444766433338095, ,0.06348850023468909
78, ,PASS, ,0.013304909999999993, ,0.0019491228129306576, ,0.03390802285198261, ,2.664079751865285e-05, ,1.8333333333333333, ,0.8045718319741677, ,0.6441501193853186, ,0.08218199628579008
79, ,PASS, ,0.025090289999999973, ,0.004134659954736907, ,0.03576034115956817, ,0.00010644286166010313, ,1.8333333333333333, ,0.8408350836597338, ,0.6444766433338095, ,0.08052896879655518
112, ,PASS, ,0.009561490000000002, ,0.0011678571462589043, ,0.033437563335442136, ,1.1450442605422277e-05, ,1.9166666666666667, ,0.7058949134040969, ,0.6332319748576559, ,0.042060366114977245
113, ,PASS, ,0.008965710000000005, ,0.0011038299633316464, ,0.03345736896002122, ,1.016068004207754e-05, ,1.8333333333333333, ,0.7078246296173282, ,0.6439664496642926, ,0.014836431909552866
114, ,PASS, ,0.009519510000000002, ,0.0010548618083221584, ,0.033303463230342244, ,1.0306008308868861e-05, ,1.6666666666666667, ,0.668370915852593, ,0.65141527723924, ,0.0311830370808759
115, ,PASS, ,0.009441579999999991, ,0.0010909869928553897, ,0.033302199589804286, ,1.0540901635108818e-05, ,1.8333333333333333, ,0.6717916575336954, ,0.6422113834411542, ,0.025081120793453194
116, ,PASS, ,0.009476539999999981, ,0.0010857884281321559, ,0.03318272598171466, ,1.0547086262504907e-05, ,1.8333333333333333, ,0.672964407120513, ,0.6425787228832065, ,0.03416256811085488
117, ,PASS, ,0.009270589999999999, ,0.0010914372590909334, ,0.03335860066855779, ,1.0356744064301641e-05, ,1.8333333333333333, ,0.689272887070616, ,0.64298687781882, ,0.039652251994857245
118, ,PASS, ,0.009176310000000003, ,0.0010839133363611973, ,0.0333328265719067, ,1.017839692573245e-05, ,1.8333333333333333, ,0.6942571942629644, ,0.6425787228832065, ,0.060855900899981635
119, ,PASS, ,0.009228779999999989, ,0.001079562769209815, ,0.03319005914287464, ,1.0198725311983215e-05, ,1.8333333333333333, ,0.6911703861960241, ,0.6427215771106712, ,0.03169323075039285
120, ,PASS, ,0.00939327999999999, ,0.0011163592220176425, ,0.03330268526397421, ,1.0723370483744137e-05, ,1.75, ,0.6937125381117781, ,0.6397216383339116, ,0.024979082059549806
121, ,PASS, ,0.008974919999999987, ,0.0010872190761666842, ,0.03333683459011041, ,9.977716483919152e-06, ,1.75, ,0.7133992666469238, ,0.6442725658660028, ,0.042039958368196566
122, ,PASS, ,0.008902960000000001, ,0.0010960941651081068, ,0.03322981065794576, ,9.932588448444768e-06, ,1.8333333333333333, ,0.7007298339643688, ,0.6262321177118835, ,0.06901899961225282
123, ,PASS, ,0.009209329999999995, ,0.0010831075884754717, ,0.03325413923368911, ,1.0219033846197055e-05, ,1.9166666666666667, ,0.6869064641682021, ,0.6424970918960837, ,0.051407114140527746
124, ,PASS, ,0.008953219999999984, ,0.0010228823886476576, ,0.03308076436603335, ,9.37656946736616e-06, ,1.6666666666666667, ,0.6859976110521505, ,0.6437827799432665, ,0.021244464398685742
125, ,PASS, ,0.008940799999999992, ,0.0010590380678831882, ,0.03339871860329381, ,9.701710200753828e-06, ,1.8333333333333333, ,0.6997619582160075, ,0.6430276933123814, ,0.050284688067590455
126, ,PASS, ,0.008907100000000005, ,0.0010344343132462105, ,0.033275873196669456, ,9.43472352533265e-06, ,1.8333333333333333, ,0.7007673126540594, ,0.6431501397930655, ,0.03575437235974776
127, ,PASS, ,0.008889120000000014, ,0.001057004226423859, ,0.03316917758249832, ,9.638629926501847e-06, ,1.9166666666666667, ,0.6757912021494181, ,0.632783004428481, ,0.01944858268198608
128, ,PASS, ,0.008725130000000022, ,0.0010131835964119623, ,0.03334400982143222, ,9.052234041005596e-06, ,1.75, ,0.6794698101782236, ,0.6397828615742536, ,0.014448684720719985
129, ,PASS, ,0.008773360000000001, ,0.001044933774380836, ,0.033288608789820616, ,9.39959229893888e-06, ,1.8333333333333333, ,0.7027410498614364, ,0.6445174588273709, ,0.05620293463398706
130, ,PASS, ,0.009006109999999994, ,0.0010393946594639285, ,0.03325858642537908, ,9.59492177038622e-06, ,1.8333333333333333, ,0.682253190493606, ,0.6433338095140916, ,0.036713536458439625
131, ,PASS, ,0.008763970000000006, ,0.001009303831544401, ,0.03328361566172119, ,9.044921986856604e-06, ,1.6666666666666667, ,0.6818408758483022, ,0.6431705475398461, ,0.01965266014979286
132, ,PASS, ,0.008839410000000002, ,0.0010185547628819805, ,0.033230112109548786, ,9.22405193378329e-06, ,1.6666666666666667, ,0.6742480496492664, ,0.64298687781882, ,0.019999591845064387
133, ,PASS, ,0.00877174, ,0.0010138273426215654, ,0.03343448775535193, ,9.084646904798451e-06, ,1.75, ,0.6762363179680447, ,0.6438848186771698, ,0.04463174220934266
134, ,PASS, ,0.008477989999999994, ,0.0009998550906273995, ,0.03355693254709088, ,8.670798656508632e-06, ,1.8333333333333333, ,0.6882154861920716, ,0.6425991306299872, ,0.05059080426930063
135, ,PASS, ,0.008688470000000014, ,0.001016859912033739, ,0.03326248219158793, ,9.050986950576683e-06, ,1.8333333333333333, ,0.6757432757603802, ,0.6407828411665069, ,0.04281545274586233
136, ,PASS, ,0.008615249999999998, ,0.0010157114920700029, ,0.03334816708250852, ,8.942979346717114e-06, ,1.75, ,0.678873100496035, ,0.639946123548499, ,0.045733760535499275
137, ,PASS, ,0.008776430000000009, ,0.0010511990969042082, ,0.033344360725087244, ,9.436436141269043e-06, ,1.75, ,0.6841412537408372, ,0.641272627089243, ,0.0681006510071223
138, ,PASS, ,0.009024390000000004, ,0.0010392640058270598, ,0.03325238926491297, ,9.629726575865762e-06, ,1.8333333333333333, ,0.6771194596764162, ,0.6422521989347156, ,0.04546845982735046
139, ,PASS, ,0.008696730000000014, ,0.0009954165610438106, ,0.03324006166404768, ,8.857111294575835e-06, ,1.75, ,0.6677878011385553, ,0.6408848799004102, ,0.03455031529968776
140, ,PASS, ,0.008721569999999994, ,0.0009180045455995832, ,0.033393696506397834, ,8.22411180820526e-06, ,1.8333333333333333, ,0.6463635382661622, ,0.6414971123038306, ,0.009775310707944736
141, ,PASS, ,0.008356679999999995, ,0.000992835459016236, ,0.03337864195608253, ,8.499119511935192e-06, ,1.75, ,0.695132022692852, ,0.6442725658660028, ,0.03979510622232199
142, ,PASS, ,0.00868990000000001, ,0.001046050635014862, ,0.033251989748576564, ,9.331753040868156e-06, ,1.75, ,0.7020364441593642, ,0.6437011489561437, ,0.02524438276769862
143, ,PASS, ,0.008472819999999989, ,0.000993225556917881, ,0.033385307674537255, ,8.636549605424965e-06, ,1.8333333333333333, ,0.6812357694783323, ,0.6439868574110732, ,0.029530009591640986
176, ,PASS, ,0.008421060000000001, ,0.0009526507870810631, ,0.033365214178282074, ,8.243625349260177e-06, ,1.75, ,0.6732684871637504, ,0.6445174588273709, ,0.03159119201648946
177, ,PASS, ,0.008219819999999996, ,0.0009830266996783067, ,0.03348714393787882, ,8.277406051107777e-06, ,1.75, ,0.6911294506576788, ,0.6412318115956818, ,0.04471337319646538
178, ,PASS, ,0.008245969999999998, ,0.0009700430235693319, ,0.033247398249219406, ,8.174943675292605e-06, ,1.8333333333333333, ,0.6760139688921526, ,0.6412114038489011, ,0.022877084141139977
179, ,PASS, ,0.008430160000000006, ,0.0008777828220425137, ,0.033355130892838925, ,7.6255051467413655e-06, ,1.5833333333333333, ,0.5720309835837075, ,0.6412522193424623, ,0.030632027917797598
180, ,PASS, ,0.008486130000000012, ,0.000951055021241764, ,0.03313762253892778, ,8.26553181643663e-06, ,1.6666666666666667, ,0.6536958923555468, ,0.6415583355441725, ,0.038713495642946065
181, ,PASS, ,0.00828035999999999, ,0.0009416586799456985, ,0.033180950770596525, ,7.995170729889392e-06, ,1.8333333333333333, ,0.6687388749016515, ,0.6406195791922614, ,0.02561172220975082
182, ,PASS, ,0.008614649999999998, ,0.000980951183003265, ,0.033517053946450076, ,8.68847734766307e-06, ,1.8333333333333333, ,0.6590201924279296, ,0.6420277137201281, ,0.04273382175873962
183, ,PASS, ,0.008447109999999994, ,0.0009848482074405072, ,0.033105395353156056, ,8.521582803734899e-06, ,1.75, ,0.6847732859225172, ,0.6425174996428644, ,0.02422399542866472
184, ,PASS, ,0.008051280000000008, ,0.0009093211309415501, ,0.03320336719658783, ,7.481287474947753e-06, ,1.6666666666666667, ,0.6580866647173959, ,0.6424562764025225, ,0.05248872471990368
185, ,PASS, ,0.008015089999999996, ,0.0009031425368452672, ,0.033296719974082165, ,7.42284506941817e-06, ,1.8333333333333333, ,0.6611415496994821, ,0.6395583763596662, ,0.024897451072427093
186, ,PASS, ,0.008132150000000012, ,0.0009337248399833877, ,0.033396554992755255, ,7.768895238264489e-06, ,1.8333333333333333, ,0.6675802880737446, ,0.6319054713169119, ,0.04789698169425114
187, ,PASS, ,0.007934470000000002, ,0.0008914806030565282, ,0.03329909294136855, ,7.235518885279585e-06, ,1.75, ,0.635513590007793, ,0.6315381318748597, ,0.030734066651700986
188, ,PASS, ,0.008122789999999967, ,0.0009516241415353405, ,0.03338896873471971, ,7.912734507157712e-06, ,1.75, ,0.6569613772770863, ,0.6408032489132874, ,0.038366563947674535
189, ,PASS, ,0.008069699999999992, ,0.0009275457602637414, ,0.033216975656823335, ,7.682980258456177e-06, ,1.8333333333333333, ,0.681903226595681, ,0.631966694557254, ,0.01232627905552948
190, ,PASS, ,0.008600820000000009, ,0.0008892216032535308, ,0.03332298622579131, ,7.833522227731734e-06, ,1.75, ,0.6520507303277462, ,0.642925654578478, ,0.015938450235709476
191, ,PASS, ,0.008288710000000008, ,0.0009215104096018198, ,0.033249096062937494, ,7.829046653509248e-06, ,1.75, ,0.6674536412818934, ,0.6439256341707312, ,0.025121936287014552
192, ,PASS, ,0.008234220000000004, ,0.000914242542754002, ,0.0333327352468317, ,7.71264538660416e-06, ,1.8333333333333333, ,0.6642805171082724, ,0.6425583151364258, ,0.0067549641844044
193, ,PASS, ,0.00827052, ,0.0009335221771870039, ,0.03317359466337422, ,7.8916378887202e-06, ,1.6666666666666667, ,0.6585350098550721, ,0.6420073059733474, ,0.030040203261157937
194, ,PASS, ,0.007802379999999987, ,0.000879291245855205, ,0.033366957990245104, ,7.0304621863836065e-06, ,1.6666666666666667, ,0.6559755515035499, ,0.6423950531621804, ,0.024672965857839634
195, ,PASS, ,0.007913799999999988, ,0.0008982497236762931, ,0.03333848618905737, ,7.280244315858665e-06, ,1.75, ,0.6892662809559917, ,0.6418848594926634, ,0.04483581967714945
196, ,PASS, ,0.00803394000000001, ,0.0009201045709981612, ,0.03319649441929757, ,7.569392314499893e-06, ,1.8333333333333333, ,0.6865406400430697, ,0.6421501602008123, ,0.03357074345421522
197, ,PASS, ,0.007767839999999998, ,0.0009156221939445432, ,0.03339496473357687, ,7.288640864004085e-06, ,1.8333333333333333, ,0.6975760154714081, ,0.6431093242995041, ,0.04755004999897961
198, ,PASS, ,0.008353000000000006, ,0.0008886862893919455, ,0.03310206837554336, ,7.597027998813987e-06, ,1.75, ,0.6289348738433547, ,0.6390481826901492, ,0.02591783841146099
199, ,FAIL, ,0.00022106999999998989, ,2.7661231483940895e-06, ,0.032340084031958524, ,1.367126891779891e-09, ,0.25, ,0.29393395165748426, ,0.5267851676496398, ,0.0003265239484908471
200, ,PASS, ,0.007904569999999996, ,0.0008775004219657063, ,0.0333024982610559, ,7.113141231960341e-06, ,1.8333333333333333, ,0.6679606119762868, ,0.6431297320462848, ,0.03652986673741352
201, ,PASS, ,0.007975559999999993, ,0.0008814601169824609, ,0.03322806766882309, ,7.207273926410587e-06, ,1.75, ,0.6624182882198283, ,0.6426399461235485, ,0.02920348564315014
202, ,PASS, ,0.007687279999999998, ,0.000798666160200191, ,0.033323902253831555, ,6.315184591418841e-06, ,1.75, ,0.6220658460383425, ,0.6386400277545357, ,0.011999755107038632
203, ,PASS, ,0.007683310000000002, ,0.0008612527673596295, ,0.03332799995040918, ,6.78545190306398e-06, ,1.8333333333333333, ,0.6717698849821953, ,0.6432929940205302, ,0.04142772596477623
204, ,PASS, ,0.007887299999999993, ,0.0008438985963089075, ,0.033263060801004066, ,6.8370808111659745e-06, ,1.6666666666666667, ,0.6414844333666274, ,0.6433542172608723, ,0.020877124956633537
205, ,PASS, ,0.007563209999999994, ,0.0008574486077552909, ,0.03319378066365993, ,6.635133540009323e-06, ,1.8333333333333333, ,0.6658083847836797, ,0.642354237668619, ,0.05710087549233689
206, ,PASS, ,0.007299820000000016, ,0.0008541844459271284, ,0.03337261938184935, ,6.386311267102517e-06, ,1.8333333333333333, ,0.6938648453350602, ,0.6445990898144935, ,0.06534560519173079
207, ,PASS, ,0.007483819999999988, ,0.0007535305137590867, ,0.03327049621130181, ,5.751005830541748e-06, ,1.6666666666666667, ,0.5999722951517354, ,0.6425379073896451, ,0.03020346523540336
208, ,PASS, ,0.007387359999999996, ,0.0008399111287756012, ,0.03314257835207445, ,6.344879259099857e-06, ,1.6666666666666667, ,0.6553423747212922, ,0.6394155221322014, ,0.020611824248484723
209, ,PASS, ,0.0074621200000000165, ,0.000812213794206381, ,0.03306502335768658, ,6.2318418608969495e-06, ,1.75, ,0.6385039033266126, ,0.6402930552437706, ,0.023060753862166078
210, ,PASS, ,0.007794509999999991, ,0.0008479832042642293, ,0.03346268273545438, ,6.772681820462434e-06, ,1.75, ,0.6571198662269431, ,0.6429052468316974, ,0.03308095753147895
211, ,PASS, ,0.007541739999999991, ,0.0008680520902621801, ,0.033327272993000145, ,6.706375201590518e-06, ,1.8333333333333333, ,0.6696068216457004, ,0.6406603946858227, ,0.032611579355523355
212, ,PASS, ,0.007612679999999986, ,0.0008685418363883642, ,0.03327480016652722, ,6.759132923186258e-06, ,1.8333333333333333, ,0.6475541657137516, ,0.6422521989347156, ,0.02624436235995184
213, ,PASS, ,0.006096270000000022, ,0.0006001317457103796, ,0.03309825783616661, ,3.7431555919524313e-06, ,1.6666666666666667, ,0.6122817540451396, ,0.6391910369176139, ,0.028591253239729802
