Channel, ,Pass/Fail, ,Amplitude, ,Sorting Function Response, ,Mean, ,Variance, ,NPeaksRatio, ,PosIntegralRatio, ,ToT50, ,ToT99
0, ,PASS, ,0.05568658105999997, ,0.008369361914524243, ,0.031569169609110014, ,0.0004731240448361362, ,1.8333333333333333, ,0.7734502305074745, ,0.6088447174547458, ,0.13199730617742494
1, ,PASS, ,0.055416147629999975, ,0.008312701300720768, ,0.03135847869670006, ,0.00046660985656753727, ,1.9166666666666667, ,0.7752662789484859, ,0.604844799085733, ,0.14460929368788392
2, ,PASS, ,0.055511744499999974, ,0.008383243954498137, ,0.031882398574580105, ,0.0004722965259174697, ,1.8333333333333333, ,0.7758817589011454, ,0.6100283667680252, ,0.13599722454643784
3, ,PASS, ,0.05524142201999997, ,0.008347302969035521, ,0.031638819128323906, ,0.0004680437754899024, ,1.8333333333333333, ,0.7765774927088777, ,0.6092324646435787, ,0.14211954858064121
4, ,PASS, ,0.05553424390999997, ,0.008279583958385678, ,0.031744811509540616, ,0.0004661143823789945, ,1.9166666666666667, ,0.7696531689574811, ,0.6063957878410645, ,0.07787596171506704
5, ,PASS, ,0.05576270706999997, ,0.008335658179312647, ,0.03179522427019856, ,0.0004718465238562416, ,1.8333333333333333, ,0.7682201676755593, ,0.6085998244933777, ,0.10016122119956736
6, ,PASS, ,0.05521304789999998, ,0.008301645020525165, ,0.03176333013899716, ,0.0004652437234721975, ,1.8333333333333333, ,0.7749122948805063, ,0.6100691822615865, ,0.12840554274402563
7, ,PASS, ,0.05537999472999997, ,0.008297779219161566, ,0.03163950066868023, ,0.00046643416723153125, ,1.8333333333333333, ,0.7721334263846009, ,0.6098651047937798, ,0.10407950858145752
8, ,PASS, ,0.05525099907999999, ,0.00831083594525692, ,0.03169446965737433, ,0.0004661320122908653, ,1.8333333333333333, ,0.7758846935656019, ,0.6099263280341217, ,0.14483377890247137
9, ,PASS, ,0.05527532885999997, ,0.00826172213585376, ,0.03208437460470194, ,0.0004637139829616149, ,1.8333333333333333, ,0.77010204173995, ,0.6087630864676231, ,0.09683475847431686
10, ,PASS, ,0.055033237089999985, ,0.008275684220571643, ,0.0316602422655456, ,0.0004620686383288564, ,1.8333333333333333, ,0.7727745422374986, ,0.6078243301157119, ,0.14087467602701986
11, ,PASS, ,0.05504890074999996, ,0.008238656883123849, ,0.031653685925532124, ,0.00046054163009740857, ,1.8333333333333333, ,0.7713760789052168, ,0.6096814350727536, ,0.1207526377012714
12, ,PASS, ,0.05502456767999998, ,0.008229030039992553, ,0.031574914936593125, ,0.0004595413418063218, ,1.8333333333333333, ,0.7714004131479767, ,0.6088447174547458, ,0.1112222199546948
13, ,PASS, ,0.054932796469999975, ,0.008233978650579017, ,0.03132836551439766, ,0.00045869991159976607, ,1.9166666666666667, ,0.7716072964235754, ,0.60686516601702, ,0.11185486010489581
14, ,PASS, ,0.054771600279999964, ,0.008206244966032311, ,0.03138102092373625, ,0.0004562618189386777, ,1.8333333333333333, ,0.7719566595056913, ,0.6094569498581661, ,0.11926287218628191
15, ,PASS, ,0.05431276242999998, ,0.008182779644636607, ,0.03141904508654925, ,0.00045104280140791407, ,1.8333333333333333, ,0.7755409553322847, ,0.6088039019611845, ,0.14844595008265138
16, ,PASS, ,0.054184657399999996, ,0.008173867281942764, ,0.03155397802985653, ,0.0004494701629852935, ,1.8333333333333333, ,0.7752385485929558, ,0.6088039019611845, ,0.13946654149915308
17, ,PASS, ,0.05430290983999998, ,0.008152602633093716, ,0.03138827827921879, ,0.0004492350169136678, ,1.8333333333333333, ,0.7736850066592458, ,0.6088447174547458, ,0.128507581477929
18, ,PASS, ,0.05434108476999998, ,0.008189887699601167, ,0.03154367637509438, ,0.0004516818441983355, ,1.8333333333333333, ,0.7734411751937046, ,0.6097018428195343, ,0.1264055835595192
19, ,PASS, ,0.05439839395999997, ,0.008108485128084387, ,0.03168184197791882, ,0.0004466971623644898, ,1.9166666666666667, ,0.7677139444747306, ,0.6022326074978062, ,0.09475316830268771
20, ,PASS, ,0.054019670379999975, ,0.008121414236986363, ,0.031222279479112672, ,0.0004445799708229146, ,1.8333333333333333, ,0.773642814980665, ,0.6049468378196363, ,0.12054856023346462
21, ,PASS, ,0.054184459579999976, ,0.008168708700937763, ,0.03209700910303871, ,0.0004492212233990831, ,1.8333333333333333, ,0.7754496780364406, ,0.6084773780126936, ,0.14577253525438255
22, ,PASS, ,0.054243233709999984, ,0.008152531751875155, ,0.03134556238109426, ,0.00044879123343692, ,1.8333333333333333, ,0.7729317353063335, ,0.6085998244933777, ,0.12199751025489276
23, ,PASS, ,0.05439076655999998, ,0.00809787409820404, ,0.03152826795240913, ,0.00044698258281371294, ,1.8333333333333333, ,0.7700033780415061, ,0.6085386012530356, ,0.1196506193751148
24, ,PASS, ,0.05413873452999999, ,0.008128298909809512, ,0.03133035577726985, ,0.0004465487424491675, ,1.8333333333333333, ,0.7713552086906178, ,0.6081100385706414, ,0.12654843778698394
25, ,PASS, ,0.054115534069999985, ,0.008140466513267528, ,0.031641399249709184, ,0.0004469957250838642, ,1.75, ,0.7761816469580035, ,0.6112528315748659, ,0.14550723454623374
26, ,PASS, ,0.05404017779999998, ,0.008120397949309771, ,0.03129111957704944, ,0.0004444912496634596, ,1.8333333333333333, ,0.7737405560464391, ,0.6050080610599784, ,0.1285279892247097
27, ,PASS, ,0.05406276461999998, ,0.008106360413268383, ,0.03142878443905226, ,0.0004446285953507186, ,1.8333333333333333, ,0.7704474849411698, ,0.6079875920899573, ,0.12828309626334156
28, ,PASS, ,0.054208192219999986, ,0.008119146420111724, ,0.03117636559009, ,0.00044669145440218085, ,1.8333333333333333, ,0.7734037843197944, ,0.6092528723903594, ,0.13348707169241444
29, ,PASS, ,0.05415439063999999, ,0.008115054987555687, ,0.03132739042899124, ,0.0004457455349734363, ,1.75, ,0.7713834461383419, ,0.6075386216607824, ,0.13034427868819004
30, ,PASS, ,0.055352777049999975, ,0.008253263476165139, ,0.0308451043061162, ,0.000462622340197419, ,1.8333333333333333, ,0.7694282772608827, ,0.6054162159955919, ,0.11830370808759005
31, ,PASS, ,0.05390925208999998, ,0.008064283872132063, ,0.031275472614456845, ,0.0004408422396412793, ,1.8333333333333333, ,0.7736414001614743, ,0.6074365829268791, ,0.13081365686414562
32, ,PASS, ,0.05337512403999999, ,0.007980139788897528, ,0.031326450099487764, ,0.0004327525153726878, ,1.8333333333333333, ,0.7742672997793143, ,0.609783473806657, ,0.133262586477827
33, ,PASS, ,0.05335560308999998, ,0.007856185859972224, ,0.03183934260706924, ,0.00042545164138661366, ,1.75, ,0.7710912333809531, ,0.612824228076978, ,0.10126323952572397
34, ,PASS, ,0.052883768259999964, ,0.007984979677010331, ,0.03140026230723863, ,0.0004289748532528745, ,1.8333333333333333, ,0.777899000488436, ,0.6099671435276831, ,0.14595620497540868
35, ,PASS, ,0.05303727374999998, ,0.007942249040759413, ,0.03156520018538397, ,0.00042787460193200187, ,1.8333333333333333, ,0.7759049498639805, ,0.6101712209954899, ,0.1293442990959368
36, ,PASS, ,0.05331858572999998, ,0.007980454459309632, ,0.03145109067008836, ,0.00043208345365441627, ,1.8333333333333333, ,0.7733551366865189, ,0.6103752984632966, ,0.13152792800146937
37, ,PASS, ,0.053831058679999974, ,0.007985777054175221, ,0.03134169089049203, ,0.0004360908110149853, ,1.8333333333333333, ,0.7635215414796213, ,0.6082937082916675, ,0.05869267974122977
38, ,PASS, ,0.05468761724999998, ,0.008212487677373382, ,0.03136747225015816, ,0.00045445479243803655, ,1.8333333333333333, ,0.7701308949487936, ,0.6028040244076651, ,0.12734433991143038
39, ,PASS, ,0.05340541624999999, ,0.008003961335713102, ,0.031434723384114606, ,0.00043300921638880384, ,1.8333333333333333, ,0.7731125179459696, ,0.6049468378196363, ,0.12971163853798903
40, ,PASS, ,0.05299623071999998, ,0.007978154301212183, ,0.031193548600355094, ,0.0004291563218259155, ,1.8333333333333333, ,0.7739297476657757, ,0.6093140956307014, ,0.1478541254260117
41, ,PASS, ,0.052903492189999984, ,0.008014580940043302, ,0.031204401661476297, ,0.000430405856448805, ,1.8333333333333333, ,0.7753981648768675, ,0.6083957470255709, ,0.1437929838166568
42, ,PASS, ,0.05314944665999999, ,0.007970490546842533, ,0.030902137246239872, ,0.0004297702056357539, ,1.8333333333333333, ,0.773377891734346, ,0.608518193506255, ,0.13940531825881106
43, ,PASS, ,0.05323844354999997, ,0.007945839458808156, ,0.031096253759760006, ,0.0004294146202780719, ,1.8333333333333333, ,0.7729785843396149, ,0.6093957266178242, ,0.13483398297993918
44, ,PASS, ,0.05341914180999998, ,0.007949460297695906, ,0.03100434720305708, ,0.00043107630613551556, ,1.8333333333333333, ,0.7699440572187315, ,0.6096610273259729, ,0.10128364727250465
45, ,PASS, ,0.05288982149999999, ,0.008001524840022735, ,0.03120679578077998, ,0.0004296504755840329, ,1.8333333333333333, ,0.7726090673597302, ,0.6076814758882472, ,0.12087508418195547
46, ,PASS, ,0.053150658889999994, ,0.007959465118778835, ,0.031102406537478828, ,0.0004293688942807321, ,1.8333333333333333, ,0.7719461171248674, ,0.6079059611028347, ,0.13607885553356053
47, ,PASS, ,0.05303925423999997, ,0.007950824134615982, ,0.031406545383318704, ,0.0004278786009620839, ,1.8333333333333333, ,0.7733081648249338, ,0.6077222913818086, ,0.13044631742209342
48, ,PASS, ,0.05310460177999999, ,0.007962748295925921, ,0.031171540123038303, ,0.0004283652704998789, ,1.8333333333333333, ,0.772654005973959, ,0.6048652068325137, ,0.12554845819473073
49, ,PASS, ,0.05294460534999998, ,0.008011383476339763, ,0.03122187732840146, ,0.0004305601225985724, ,1.75, ,0.7752456673484591, ,0.6099671435276831, ,0.1334258484520724
50, ,PASS, ,0.05318668025999997, ,0.007975962512893299, ,0.031044187969061852, ,0.00043048913364574117, ,1.75, ,0.7736828301488267, ,0.6096406195791922, ,0.13507887594130732
51, ,PASS, ,0.05332343297999998, ,0.007974365126058468, ,0.03124378886685986, ,0.0004316534501528052, ,1.75, ,0.7721086269241666, ,0.6117834329911634, ,0.13034427868819004
52, ,PASS, ,0.05294726536999998, ,0.007968191866895515, ,0.03104651997218424, ,0.00042794490285625, ,1.8333333333333333, ,0.7720524829266169, ,0.6079059611028347, ,0.12758923287279852
53, ,PASS, ,0.053074330529999984, ,0.007930667635199779, ,0.03103396956800881, ,0.0004271013889630394, ,1.8333333333333333, ,0.7717272329789757, ,0.6082528927981061, ,0.11699761229362667
54, ,PASS, ,0.05320325563999999, ,0.007957143801424243, ,0.03095686672276076, ,0.000429540277148775, ,1.8333333333333333, ,0.7717531254024791, ,0.6076610681414665, ,0.12860962021183242
55, ,PASS, ,0.05331076865999998, ,0.007936803218646205, ,0.03144251912032407, ,0.0004293544311250355, ,1.8333333333333333, ,0.7699200320696152, ,0.6082937082916675, ,0.1044672557702904
56, ,PASS, ,0.05342009532999999, ,0.008003611044209762, ,0.031226011645925592, ,0.00043359882164289596, ,1.75, ,0.7736568717216923, ,0.6092528723903594, ,0.13544621538335952
57, ,PASS, ,0.05324333437999998, ,0.007945192123751298, ,0.031246474491826694, ,0.0004291891300556113, ,1.8333333333333333, ,0.7704890392355837, ,0.6078039223689312, ,0.12026285177853513
58, ,PASS, ,0.053240439749999965, ,0.007977897311876276, ,0.03129436532242199, ,0.000431063797596616, ,1.8333333333333333, ,0.7718690391698555, ,0.6083753392787903, ,0.13109936531907512
59, ,PASS, ,0.05332345756999999, ,0.00797232276347429, ,0.03109060337105365, ,0.00043138799210698883, ,1.8333333333333333, ,0.7731589369126579, ,0.6081100385706414, ,0.13636456398849003
60, ,PASS, ,0.05329299543999998, ,0.007995074045809888, ,0.031106566278280033, ,0.0004323826939247958, ,1.8333333333333333, ,0.7717899986593492, ,0.6089467561886492, ,0.11901797922491378
61, ,PASS, ,0.05358319685999999, ,0.008043536796727804, ,0.031129956746311298, ,0.0004370787648725548, ,1.8333333333333333, ,0.7719314329106327, ,0.6070896512316075, ,0.12801779555519274
62, ,PASS, ,0.053691648689999975, ,0.008044068987801198, ,0.031291784742005266, ,0.00043832458051822087, ,1.8333333333333333, ,0.769175557697122, ,0.6078039223689312, ,0.11524254607048835
63, ,PASS, ,0.053799903249999996, ,0.00801366270025679, ,0.031087293563682374, ,0.00043748175411977653, ,1.8333333333333333, ,0.772674370880014, ,0.6089059406950879, ,0.1373237280871819
64, ,PASS, ,0.05351275051999997, ,0.008050627620873583, ,0.03136723861613028, ,0.00043712508666997275, ,1.8333333333333333, ,0.7734719392098169, ,0.6083957470255709, ,0.13644619497561275
65, ,PASS, ,0.05485362641, ,0.008131650592555937, ,0.03111238287841064, ,0.0004514964008837416, ,1.8333333333333333, ,0.7629709093943696, ,0.6032121793432788, ,0.12663006877410665
66, ,PASS, ,0.05525019339999998, ,0.008135250313466706, ,0.030889694939735923, ,0.00045495413767646797, ,1.8333333333333333, ,0.7611425858582258, ,0.6045590906308035, ,0.11256913124221955
67, ,PASS, ,0.05515907998999998, ,0.008153664131856154, ,0.03089440129407563, ,0.00045519855513507, ,1.8333333333333333, ,0.7617507874735778, ,0.6045386828840228, ,0.11612007918205751
68, ,PASS, ,0.053713071199999976, ,0.008058795960287902, ,0.03112350160472235, ,0.00043896760774176253, ,1.9166666666666667, ,0.7746281595974147, ,0.6067835350298973, ,0.12452807085569682
69, ,PASS, ,0.053925796639999975, ,0.008073633240597877, ,0.031539529184628885, ,0.00044195587204988056, ,1.8333333333333333, ,0.7709352541585948, ,0.6083141160384482, ,0.126038244117467
70, ,PASS, ,0.05455678796999998, ,0.008094035569116939, ,0.03117682831562621, ,0.00044814433223858114, ,1.8333333333333333, ,0.772956072222876, ,0.6082528927981061, ,0.12885451317320054
71, ,PASS, ,0.077547941, ,0.011036795025136025, ,0.03241356690031734, ,0.0008627846398358189, ,1.75, ,0.7341988707685226, ,0.5965184383992164, ,0.10663047692904226
72, ,PASS, ,0.13142236000000002, ,0.017762468841439037, ,0.03470176650911207, ,0.002338799315115671, ,1.75, ,0.6966107418389328, ,0.5801514254811126, ,0.08407991673639313
73, ,PASS, ,0.05117691484999999, ,0.007685249465606351, ,0.031124540102161178, ,0.00039919690811901596, ,1.8333333333333333, ,0.7746248692906337, ,0.6103957062100773, ,0.13881349360217138
74, ,PASS, ,0.04870570352999999, ,0.007367610542578524, ,0.030814200744474607, ,0.0003638473656649815, ,1.8333333333333333, ,0.7759213081822036, ,0.6065590498153098, ,0.1262219138384931
75, ,PASS, ,0.048801550379999996, ,0.007331672988389389, ,0.03090579121334259, ,0.0003628973362375507, ,1.9166666666666667, ,0.7762318642877319, ,0.607497806167221, ,0.1276912716067019
76, ,PASS, ,0.04825847517000001, ,0.007278652219254026, ,0.030952703688230856, ,0.00035673123787388335, ,1.8333333333333333, ,0.7800872878189203, ,0.6113752780555499, ,0.1458337584947246
77, ,PASS, ,0.04817150234999999, ,0.007274455351721985, ,0.030839523776637217, ,0.000356117741759969, ,1.8333333333333333, ,0.7771023334637263, ,0.6108854921328136, ,0.12489541029774903
78, ,PASS, ,0.048210471959999994, ,0.007292665604654689, ,0.030581995744474604, ,0.0003566111043040701, ,1.8333333333333333, ,0.7817271256285546, ,0.6077631068753699, ,0.15442541988939001
79, ,PASS, ,0.048203730400000006, ,0.007275186794348953, ,0.0309664362302402, ,0.00035633530004455127, ,1.8333333333333333, ,0.7794111794621382, ,0.6111507928409624, ,0.1487112507908002
80, ,PASS, ,0.04870276871, ,0.007333985933684582, ,0.031061531688883905, ,0.000362755682780462, ,1.8333333333333333, ,0.7795398949676311, ,0.6113752780555499, ,0.1485071733229934
81, ,PASS, ,0.04845862383999999, ,0.007351463797167189, ,0.030769962273198507, ,0.0003612248372166846, ,1.8333333333333333, ,0.7792429611487379, ,0.6066406808024326, ,0.14891532825860695
82, ,PASS, ,0.048755570419999984, ,0.007317579450711359, ,0.031040511067978206, ,0.00036211726028009524, ,1.8333333333333333, ,0.7732350754867304, ,0.6099263280341217, ,0.1158547784739087
83, ,PASS, ,0.04841763154999999, ,0.007387405823821115, ,0.030777604971531196, ,0.00036318123817917844, ,1.8333333333333333, ,0.7790047589068173, ,0.6098242893002184, ,0.1316707822289341
84, ,PASS, ,0.04878270772, ,0.00737284250886841, ,0.030780566348135755, ,0.00036494918316210825, ,1.8333333333333333, ,0.7775045020345411, ,0.6083753392787903, ,0.1322217913920124
85, ,PASS, ,0.04876924824999999, ,0.007362172003182524, ,0.030852884274586236, ,0.00036464663236012405, ,1.8333333333333333, ,0.7751543597509937, ,0.6090283871757719, ,0.12616069059815105
86, ,PASS, ,0.04865495115999998, ,0.007323384122235797, ,0.030721394617313935, ,0.0003612479586839415, ,1.9166666666666667, ,0.7722130894170567, ,0.6078039223689312, ,0.1126099467357809
87, ,PASS, ,0.05021769753999998, ,0.007566875970970606, ,0.030661376399277566, ,0.00038520810985791205, ,1.8333333333333333, ,0.770926599954584, ,0.6071100589783882, ,0.12097712291585885
88, ,PASS, ,0.04927520964, ,0.007410038082183267, ,0.030729468940450196, ,0.00037015792078544445, ,1.9166666666666667, ,0.7748607957731788, ,0.607375359686537, ,0.14173180139180833
89, ,PASS, ,0.04925755095999999, ,0.007419523788876627, ,0.030758618305034593, ,0.00037095280334779933, ,1.8333333333333333, ,0.7741793758248487, ,0.6096610273259729, ,0.13165037448215341
90, ,PASS, ,0.049052398139999995, ,0.007409102361495416, ,0.030713027137507398, ,0.00036878300458442813, ,1.8333333333333333, ,0.7756740180573738, ,0.6087426787208424, ,0.1322421991387931
91, ,PASS, ,0.049137299119999985, ,0.007375291443631566, ,0.0309242730745495, ,0.00036773330297654346, ,1.8333333333333333, ,0.7750763491990506, ,0.6094365421113854, ,0.13795636823738291
92, ,PASS, ,0.049097465979999984, ,0.007369374268229576, ,0.03085086952625457, ,0.00036693642696956897, ,1.8333333333333333, ,0.7736111502339369, ,0.6077835146221505, ,0.12683414624191344
93, ,PASS, ,0.04910024399999999, ,0.0073699318111190015, ,0.03085645505824371, ,0.00036735990603489565, ,1.8333333333333333, ,0.7741152534346684, ,0.6094977653517275, ,0.13091569559804903
94, ,PASS, ,0.04935924320000001, ,0.007354483564440129, ,0.030705628523560746, ,0.00036811635433129525, ,1.8333333333333333, ,0.7702813067321355, ,0.6084365625191323, ,0.12507908001877513
95, ,PASS, ,0.05027235625, ,0.007543770233273764, ,0.03056809184839085, ,0.0003847744633201568, ,1.75, ,0.7705851580110485, ,0.6094977653517275, ,0.11673231158547785
96, ,PASS, ,0.04921648000000001, ,0.00740244345639475, ,0.030785530942654234, ,0.0003696200113993947, ,1.75, ,0.7731562279303739, ,0.6091712414032366, ,0.11932409542662395
97, ,PASS, ,0.04863336458, ,0.007361901342697629, ,0.03073866542501174, ,0.00036334277436563927, ,1.8333333333333333, ,0.77731603096809, ,0.6087426787208424, ,0.1563845635803351
98, ,PASS, ,0.048699817819999984, ,0.007305803860761635, ,0.030770204014387462, ,0.0003612804507819112, ,1.8333333333333333, ,0.7714248636228553, ,0.6093140956307014, ,0.07638619620007756
99, ,PASS, ,0.048156879470000004, ,0.007283720895035523, ,0.030779595972429137, ,0.0003557090354207476, ,1.9166666666666667, ,0.7749500399564876, ,0.6081712618109835, ,0.13344625619885309
100, ,PASS, ,0.04784332999000001, ,0.007202677161316322, ,0.030693284219403687, ,0.0003498880590998874, ,1.8333333333333333, ,0.7772808187113693, ,0.6103140752229547, ,0.12626272933205446
101, ,PASS, ,0.04797025772999999, ,0.0072165427156390015, ,0.030827953647925555, ,0.00035148924389972656, ,1.8333333333333333, ,0.775933194878927, ,0.6102528519826126, ,0.13291565478255546
102, ,PASS, ,0.04755518011000001, ,0.007184784336786076, ,0.03060653464680313, ,0.0003468712329980178, ,1.8333333333333333, ,0.7760794446584219, ,0.6100691822615865, ,0.13881349360217138
103, ,PASS, ,0.04861383238, ,0.007317246486500296, ,0.030359083551478545, ,0.00036073916376311337, ,1.75, ,0.7714477123631484, ,0.6072325054590723, ,0.12748719413889512
104, ,PASS, ,0.04866556041999999, ,0.007320121091668451, ,0.030380333786330895, ,0.0003610277216978692, ,1.8333333333333333, ,0.7701860795513678, ,0.6066202730556519, ,0.14246648027591274
105, ,PASS, ,0.04824267157, ,0.007298712643301321, ,0.03071971554445828, ,0.0003573329982542736, ,1.8333333333333333, ,0.7784547239834799, ,0.6094977653517275, ,0.14460929368788392
106, ,PASS, ,0.04889731288, ,0.007292566405934137, ,0.03110755258792678, ,0.0003620837457395491, ,1.75, ,0.770458909256841, ,0.612824228076978, ,0.08277382094242974
107, ,PASS, ,0.049432404619999995, ,0.007400928797562564, ,0.03078226709856942, ,0.0003712140688568357, ,1.8333333333333333, ,0.7724319744241327, ,0.6086202322401584, ,0.1101202016285382
108, ,PASS, ,0.05002713111999999, ,0.007581522773963459, ,0.030503049492418527, ,0.00038421576671234187, ,1.8333333333333333, ,0.7792403524409073, ,0.6035182955449889, ,0.14618069018999613
109, ,PASS, ,0.05234000492999998, ,0.007764701106304935, ,0.030788351364319098, ,0.00041152903272474397, ,1.8333333333333333, ,0.7600803835254469, ,0.6047019448582682, ,0.07983510540601212
