Channel, ,Pass/Fail, ,Amplitude, ,Sorting Function Response, ,Mean, ,Variance, ,NPeaksRatio, ,PosIntegralRatio, ,ToT50, ,ToT99
0, ,PASS, ,0.069206797, ,0.005246263526517654, ,0.03820253184343177, ,0.00037108811413312097, ,1.0833333333333333, ,0.497083783436015, ,0.4212158935531928, ,0.04301953021366911
1, ,PASS, ,0.06836099300000002, ,0.00506287058224362, ,0.03813056727025979, ,0.0003536264348322853, ,1.0833333333333333, ,0.48641582121815174, ,0.4188281871798535, ,0.039509397767392505
2, ,PASS, ,0.068501554, ,0.005064209949515937, ,0.03829826310993653, ,0.0003555742453644946, ,1.0833333333333333, ,0.49141532441987323, ,0.41950164282361585, ,0.04250933654415216
3, ,PASS, ,0.06882002100000001, ,0.005139815380646331, ,0.038363817900246934, ,0.00036182651145330976, ,1.0833333333333333, ,0.4881182496456687, ,0.4218281259566131, ,0.03983592171588335
4, ,PASS, ,0.06847283499999998, ,0.005067340792770336, ,0.038500688333707477, ,0.00035323206794940905, ,1.0833333333333333, ,0.49507149416915297, ,0.4284402359135528, ,0.04175424991326707
5, ,PASS, ,0.068566072, ,0.005135531481427156, ,0.03821360955286627, ,0.0003601074090709446, ,1.0833333333333333, ,0.4967773394547384, ,0.41823636252321383, ,0.042386890063468095
6, ,PASS, ,0.068502393, ,0.005135098767790107, ,0.03812933626007633, ,0.00036040049297952003, ,1.0833333333333333, ,0.4948213135733525, ,0.4206648843901145, ,0.04103997877594335
7, ,PASS, ,0.068676514, ,0.005092610596159853, ,0.03816901753392788, ,0.00035823335567238945, ,1.0833333333333333, ,0.49099807920168304, ,0.41988939001244874, ,0.04075427032101386
8, ,PASS, ,0.06828111499999999, ,0.005355456961259859, ,0.03759431566396604, ,0.00037606008242709006, ,1.1666666666666667, ,0.4964311208069728, ,0.41823636252321383, ,0.04259096753127487
9, ,PASS, ,0.06885241, ,0.005140116796192403, ,0.038249703574825, ,0.00036267251810616856, ,1.0833333333333333, ,0.49269186913109614, ,0.4229505520295504, ,0.041223648496969446
10, ,PASS, ,0.068725106, ,0.005148548645574414, ,0.03828585753821351, ,0.000362452678580624, ,1.0833333333333333, ,0.4934072042971974, ,0.4198281667721067, ,0.041264463990530804
11, ,PASS, ,0.068930802, ,0.0051752861839430755, ,0.038168068728189224, ,0.00036468492288039455, ,1.0833333333333333, ,0.4941977165613077, ,0.4221138344115426, ,0.04091753229525928
12, ,PASS, ,0.06862741899999998, ,0.005134269840433591, ,0.03823824150221424, ,0.0003609227622155258, ,1.0833333333333333, ,0.49319054859192873, ,0.42154241750168364, ,0.04008081467725148
13, ,PASS, ,0.06843165100000001, ,0.0051736050820707525, ,0.038108339929389196, ,0.0003624443857766675, ,1.0833333333333333, ,0.49780937630284733, ,0.41821595477643314, ,0.0427542295055203
14, ,PASS, ,0.06933651, ,0.005253576747425064, ,0.0383119749080631, ,0.00037312193366874585, ,1.0833333333333333, ,0.496861270016808, ,0.42309340625701514, ,0.04232566682312606
15, ,PASS, ,0.09129681700000006, ,0.007838836108388226, ,0.03649099097795964, ,0.0007342240552341313, ,1.5833333333333333, ,0.5656671050635723, ,0.40860390604273383, ,0.04308075345401114
16, ,PASS, ,0.14602726000000002, ,0.014439569873018214, ,0.03249109277763719, ,0.002165016445526079, ,1.75, ,0.6268266270516608, ,0.4046243954205016, ,0.03410134487051285
17, ,PASS, ,0.05162650999999999, ,0.003528891629149985, ,0.03901093410012041, ,0.00018641772313491686, ,1.0, ,0.46150184162024416, ,0.42819534295218464, ,0.03330544274606641
18, ,PASS, ,0.048362730000000013, ,0.003236400915271307, ,0.038947306416399666, ,0.00016127680948700593, ,0.9166666666666666, ,0.458106997757124, ,0.42088936960470197, ,0.03244831738127793
19, ,PASS, ,0.048306199999999994, ,0.0032791048108678513, ,0.03891309606477419, ,0.00016251730010909506, ,1.0, ,0.4625182564440431, ,0.42068529213689515, ,0.030958551866288445
20, ,FAIL, ,0.003928900000000013, ,5.5137707942347306e-05, ,0.03945543905165201, ,2.576931690292841e-07, ,0.3333333333333333, ,0.14341205257198317, ,0.4714393583804412, ,0.0024081141201199975
21, ,PASS, ,0.04710708000000004, ,0.0032119056708538327, ,0.038812891058141674, ,0.0001552179121014976, ,1.0, ,0.46645314371243246, ,0.4221750576518847, ,0.03314218077182098
22, ,PASS, ,0.04773999000000001, ,0.0032269748285860206, ,0.039008944523581154, ,0.00015870998393195662, ,0.9166666666666666, ,0.4647793257258229, ,0.42070569988367584, ,0.03448909205934573
23, ,PASS, ,0.04718566000000002, ,0.003168558367592258, ,0.03897370801534663, ,0.0001537771599290046, ,0.9166666666666666, ,0.4574479769137243, ,0.42078733087079856, ,0.03367278218811861
24, ,PASS, ,0.04745529000000004, ,0.0032220225023422097, ,0.038977439566335384, ,0.00015666690775441086, ,1.0, ,0.46046227015486013, ,0.4195424583171772, ,0.03448909205934573
25, ,PASS, ,0.04788262, ,0.003353572241328408, ,0.03910123398502072, ,0.00016242738763099445, ,0.9166666666666666, ,0.4765039154588882, ,0.41948123507683516, ,0.03157078426970878
26, ,PASS, ,0.04742196000000003, ,0.0031514255709709452, ,0.038874558198608196, ,0.00015458147982392377, ,1.0, ,0.4542724915224498, ,0.4242770555702945, ,0.03399930613660946
27, ,PASS, ,0.04746963000000004, ,0.0031816622194151692, ,0.038764769995918456, ,0.00015522459282091812, ,0.9166666666666666, ,0.45692207508951105, ,0.4204812146690884, ,0.03408093712373217
28, ,PASS, ,0.04730494000000002, ,0.0031872985585342634, ,0.03879422932327912, ,0.00015517320953265635, ,1.0833333333333333, ,0.46108434079564303, ,0.41817513928287176, ,0.03357074345421522
29, ,PASS, ,0.04734432000000001, ,0.0031657339195790184, ,0.03887108060366115, ,0.00015421463545538743, ,0.9166666666666666, ,0.4580650990321162, ,0.4195628660639579, ,0.03436664557866166
30, ,PASS, ,0.04722861000000004, ,0.00315628886222129, ,0.03902110825942328, ,0.0001533257537959112, ,0.9166666666666666, ,0.45803434052591163, ,0.418032285055407, ,0.032162608926348445
31, ,PASS, ,0.04713466000000002, ,0.0031382252613435455, ,0.03892563295463358, ,0.0001511824413336233, ,0.8333333333333334, ,0.4541326594660782, ,0.4184404399910206, ,0.03148915328258607
32, ,PASS, ,0.047086810000000014, ,0.003215032778947939, ,0.038978505350298974, ,0.0001562268440565084, ,1.0, ,0.46657665644078566, ,0.4258484520724067, ,0.0351625477031081
33, ,PASS, ,0.04709505000000003, ,0.0031439990326542493, ,0.038887945230913656, ,0.00015223850452675356, ,0.8333333333333334, ,0.45396079979795484, ,0.4189098181669762, ,0.033427889226750475
34, ,PASS, ,0.04731844000000003, ,0.0032081003572848286, ,0.03905824479826942, ,0.00015530997987181112, ,0.9166666666666666, ,0.4619434056083892, ,0.41782820758760025, ,0.03240750188771658
35, ,PASS, ,0.04732002000000003, ,0.0031855340086659927, ,0.03897934500153059, ,0.00015462450688315442, ,0.9166666666666666, ,0.46010205095991624, ,0.4241546090896104, ,0.03399930613660946
36, ,PASS, ,0.04748986000000001, ,0.003199376668322765, ,0.03917609234954389, ,0.00015581072966699543, ,0.9166666666666666, ,0.4556738518451049, ,0.4228893287892084, ,0.032958511050794885
37, ,PASS, ,0.04707914000000001, ,0.0031736962972160154, ,0.03896965076406604, ,0.000152808199096892, ,0.8333333333333334, ,0.4592774170592347, ,0.4189914491540989, ,0.03336666598640844
38, ,PASS, ,0.047115560000000035, ,0.003160723106779791, ,0.0389459236264566, ,0.00015292779672019348, ,0.8333333333333334, ,0.4549547235850193, ,0.42029754494806226, ,0.033856451909144714
39, ,PASS, ,0.04674000000000002, ,0.0031576639973634503, ,0.03908978878512683, ,0.00015184609909921215, ,1.0833333333333333, ,0.4567324672543435, ,0.4235015611926287, ,0.03406052937695149
40, ,PASS, ,0.04707590999999999, ,0.0031146819481677624, ,0.038534609635925796, ,0.00015125218977582306, ,0.9166666666666666, ,0.4543107175263384, ,0.41784861533438095, ,0.03436664557866166
41, ,PASS, ,0.04729123000000002, ,0.0031726698944618526, ,0.03872241652394849, ,0.00015421527625353738, ,0.9166666666666666, ,0.4542728456944601, ,0.4223179118793494, ,0.032529948368400646
42, ,PASS, ,0.0472263, ,0.0031434332673173524, ,0.03854919978673905, ,0.0001527813824682395, ,0.9166666666666666, ,0.45298828195925084, ,0.4193383808493704, ,0.03330544274606641
43, ,PASS, ,0.04729598000000001, ,0.003159260773252307, ,0.038644439241444055, ,0.0001536622980686761, ,0.9166666666666666, ,0.4540759250621481, ,0.4195424583171772, ,0.03457072304646844
44, ,PASS, ,0.04737008000000001, ,0.00317302230206784, ,0.038583591454460116, ,0.00015491283695952466, ,1.0, ,0.45673758011287785, ,0.4209914083386053, ,0.03481561600783657
45, ,PASS, ,0.04731853000000001, ,0.00316771272066528, ,0.03862285866492521, ,0.0001544670104907113, ,0.9166666666666666, ,0.4565870488506613, ,0.4205424379094304, ,0.03338707373318912
46, ,PASS, ,0.04734004000000002, ,0.003248325880730353, ,0.0392213459604906, ,0.00015550070729094268, ,0.9166666666666666, ,0.46687960505673065, ,0.43576661700781616, ,0.03450949980612641
47, ,PASS, ,0.04781644000000001, ,0.0032179804514108333, ,0.038475276687618624, ,0.00015806098540263076, ,0.9166666666666666, ,0.45848368289905456, ,0.42035876818840434, ,0.03314218077182098
48, ,PASS, ,0.047644330000000026, ,0.0032331461613451466, ,0.03871444312585458, ,0.00015789625437688355, ,0.9166666666666666, ,0.46238283503339195, ,0.4209097773514826, ,0.03355033570743454
49, ,PASS, ,0.048060140000000015, ,0.0032416999170497124, ,0.038507549483888084, ,0.0001598663687490053, ,0.9166666666666666, ,0.4582049773315197, ,0.42207301891798127, ,0.033407481479969796
50, ,PASS, ,0.047853670000000015, ,0.003379885022492147, ,0.03880573344237873, ,0.00016395476957534508, ,1.1666666666666667, ,0.47538279217198326, ,0.42199138793085855, ,0.03406052937695149
