Channel, ,Pass/Fail, ,Amplitude, ,Sorting Function Response, ,Mean, ,Variance, ,NPeaksRatio, ,PosIntegralRatio, ,ToT50, ,ToT99
0, ,PASS, ,0.04661354999999999, ,0.005919252406642227, ,0.036229812167506786, ,0.00028012961016154347, ,1.9166666666666667, ,0.6874921965075288, ,0.41282830962633416, ,0.06344768474112773
1, ,PASS, ,0.04432635000000002, ,0.00545178188389745, ,0.03635442609538581, ,0.0002455521252501684, ,1.8333333333333333, ,0.6782139847138152, ,0.41495071529152466, ,0.06159057978408604
2, ,PASS, ,0.04447489000000002, ,0.0055670217393687235, ,0.03678128926042326, ,0.0002514213102970365, ,1.8333333333333333, ,0.6795812844696747, ,0.4195424583171772, ,0.06675373971959755
3, ,PASS, ,0.04437570000000003, ,0.005573645181567163, ,0.03647850636395176, ,0.00025092255482929107, ,1.8333333333333333, ,0.6793810222765667, ,0.4162772188322687, ,0.0616313952776474
4, ,PASS, ,0.04430083000000001, ,0.005535784143377429, ,0.03657718030060611, ,0.00024916058308720147, ,1.8333333333333333, ,0.679184699234126, ,0.41615477235158466, ,0.06667210873247485
5, ,PASS, ,0.04380308000000002, ,0.0054836240184338815, ,0.036612100165914985, ,0.00024401437287238444, ,1.8333333333333333, ,0.6808912508899241, ,0.4151547927593314, ,0.06793738903287688
6, ,PASS, ,0.044065440000000025, ,0.005482872918471567, ,0.0366883565202751, ,0.0002454715450857944, ,1.8333333333333333, ,0.6792842939714803, ,0.41697108222281176, ,0.06524356645782739
7, ,PASS, ,0.04400268, ,0.0054821172578750285, ,0.03679246371767923, ,0.0002450726305635532, ,1.8333333333333333, ,0.6788862600881241, ,0.4148282688108406, ,0.06530478969816943
8, ,PASS, ,0.043508340000000006, ,0.0054160053892286, ,0.036845074023795436, ,0.00023946100698938602, ,1.8333333333333333, ,0.6795898622322623, ,0.4164812963000755, ,0.06110079386134977
9, ,PASS, ,0.04341761000000004, ,0.0054270196889846575, ,0.036719842540152245, ,0.00023903789588620322, ,1.8333333333333333, ,0.6790328455777322, ,0.4172159751841799, ,0.06452929532050367
10, ,PASS, ,0.043405330000000034, ,0.005383453933353598, ,0.03665706822881166, ,0.00023746501271058477, ,1.8333333333333333, ,0.6788889014226721, ,0.4165833350339789, ,0.06748841860370197
11, ,PASS, ,0.043272240000000024, ,0.0053554914924832985, ,0.03662562443072591, ,0.00023550897253074788, ,1.8333333333333333, ,0.6788212938141508, ,0.4162976265790494, ,0.06712107916164976
12, ,PASS, ,0.043108980000000026, ,0.0053613195348340805, ,0.036771777586171714, ,0.0002347030303469796, ,1.8333333333333333, ,0.6780371278177503, ,0.4163180343258301, ,0.0649578580028979
13, ,PASS, ,0.043470410000000015, ,0.005383909996744949, ,0.0365788451309157, ,0.00023767741806966777, ,1.8333333333333333, ,0.6761335860539761, ,0.41825677026999447, ,0.06369257770249587
14, ,PASS, ,0.04309557000000002, ,0.005333730811490367, ,0.036597854478888185, ,0.00023364450683365802, ,1.8333333333333333, ,0.6757569587143082, ,0.41644048080651414, ,0.06399869390420604
15, ,PASS, ,0.04285985000000001, ,0.005324821479534785, ,0.036565682959939595, ,0.0002317297636890187, ,1.8333333333333333, ,0.6767816586623052, ,0.41688945123568905, ,0.06142731780984061
16, ,PASS, ,0.042957770000000006, ,0.005281663302104478, ,0.03659414804534601, ,0.00023060758150257086, ,1.8333333333333333, ,0.6753969860085935, ,0.4163996653129528, ,0.0653251974449501
17, ,PASS, ,0.04276281000000002, ,0.005294555567930183, ,0.036533693673802575, ,0.00022985993461099445, ,1.8333333333333333, ,0.6776687960198181, ,0.4146650068365952, ,0.062202812187506375
18, ,PASS, ,0.042314700000000025, ,0.005295411247912929, ,0.03670705581090182, ,0.00022768146843705185, ,1.8333333333333333, ,0.6827486259935226, ,0.41644048080651414, ,0.07036591089977756
19, ,PASS, ,0.042270030000000014, ,0.005211616585914505, ,0.03669444259831432, ,0.00022371667562978047, ,1.8333333333333333, ,0.675756028428175, ,0.41533846248035755, ,0.06279463684414603
20, ,PASS, ,0.04226029000000001, ,0.005232981350725545, ,0.03656905300871411, ,0.00022466043493303979, ,1.8333333333333333, ,0.6755613684756484, ,0.4138078814718067, ,0.06540682843207281
21, ,PASS, ,0.04182934000000002, ,0.005228249875040907, ,0.0369301670953654, ,0.0002219597246123851, ,1.8333333333333333, ,0.6758586284956923, ,0.416828227995347, ,0.060876308646762314
22, ,PASS, ,0.04187577000000001, ,0.005164939632342191, ,0.036749466105589684, ,0.00021952282553504876, ,1.8333333333333333, ,0.6763786565137452, ,0.41793024632150366, ,0.06399869390420604
23, ,PASS, ,0.041968700000000025, ,0.005204414212631189, ,0.0366310403514214, ,0.00022188192375126794, ,1.8333333333333333, ,0.6785208195004824, ,0.4159098793902165, ,0.06444766433338095
24, ,PASS, ,0.04178824000000001, ,0.005182596211816121, ,0.03672550366257832, ,0.00021992764035284735, ,1.8333333333333333, ,0.6812287622550038, ,0.41782820758760025, ,0.06854962143629721
25, ,PASS, ,0.041958200000000015, ,0.005246600256234151, ,0.03683611964245628, ,0.00022356903945518802, ,1.8333333333333333, ,0.6837169328508432, ,0.4162772188322687, ,0.0743046060284484
26, ,PASS, ,0.04207749000000001, ,0.005239833115323023, ,0.03679269481765678, ,0.00022385834222978817, ,1.8333333333333333, ,0.6804608608305166, ,0.4158486561498745, ,0.06961082426889247
27, ,PASS, ,0.04190346000000001, ,0.005203180989145549, ,0.036798215928858596, ,0.00022130759534250168, ,1.8333333333333333, ,0.677398001539911, ,0.41737923715842534, ,0.06265178261668129
28, ,PASS, ,0.04170295000000002, ,0.00519711954955424, ,0.03664219984959491, ,0.00021998718936337385, ,1.8333333333333333, ,0.677723704372926, ,0.41703230546315384, ,0.06326401502010164
29, ,PASS, ,0.04158349000000001, ,0.0051797060687781725, ,0.03679022095365401, ,0.00021880431018339363, ,1.8333333333333333, ,0.6774272834011521, ,0.4179506540682843, ,0.07159037570661823
30, ,PASS, ,0.04146053000000001, ,0.0051443059811282525, ,0.03669242857472297, ,0.000216537879564713, ,1.8333333333333333, ,0.6774244886634315, ,0.41697108222281176, ,0.06432521785269689
31, ,PASS, ,0.04151835000000002, ,0.005151926967213816, ,0.036663633677884125, ,0.00021719891071976906, ,1.8333333333333333, ,0.6754833188891111, ,0.41619558784514604, ,0.06544764392563417
32, ,PASS, ,0.042305610000000014, ,0.005363946069515414, ,0.03673133715740495, ,0.00023020961137673078, ,1.8333333333333333, ,0.6823762973672977, ,0.41703230546315384, ,0.06930470806718231
33, ,PASS, ,0.04218643000000001, ,0.005367328354087256, ,0.03645941509458991, ,0.0002296812990562881, ,1.8333333333333333, ,0.686983844878638, ,0.4158486561498745, ,0.06846799044917451
34, ,PASS, ,0.041488290000000025, ,0.005171251624255251, ,0.036885963747882694, ,0.00021769454267780514, ,1.8333333333333333, ,0.6772362449951221, ,0.41735882941164465, ,0.06744760311014061
35, ,PASS, ,0.04123396, ,0.0051617244062583, ,0.03675706303830534, ,0.0002161953462864448, ,1.8333333333333333, ,0.6761500496064536, ,0.41607314136446194, ,0.06377420868961858
36, ,PASS, ,0.04137823, ,0.005171698360015939, ,0.036856699028591254, ,0.00021716779507635788, ,1.8333333333333333, ,0.679459986706529, ,0.4181343237893104, ,0.06934552356074365
37, ,PASS, ,0.041398210000000005, ,0.005152352146310671, ,0.03656063988387992, ,0.00021659810338051864, ,1.8333333333333333, ,0.6778703480432626, ,0.41652211179363685, ,0.06910063059937552
38, ,PASS, ,0.04117043000000001, ,0.0051837562521772984, ,0.03654137591498133, ,0.0002167405046984299, ,1.8333333333333333, ,0.6799808854940312, ,0.41493030754474397, ,0.07003938695128671
39, ,PASS, ,0.04140319000000002, ,0.005164835419086613, ,0.036826587061080385, ,0.00021720151004547405, ,1.8333333333333333, ,0.6788337240870681, ,0.41646088855329483, ,0.06618232280973858
40, ,PASS, ,0.041941000000000006, ,0.005268403274469345, ,0.03626130999408175, ,0.0002242667906559081, ,1.8333333333333333, ,0.6794950508902138, ,0.4167465970082243, ,0.06342727699434705
41, ,PASS, ,0.04234218000000001, ,0.005371476721463427, ,0.03620333291136915, ,0.0002306478435764485, ,1.8333333333333333, ,0.6866110916755037, ,0.41782820758760025, ,0.07120262851778535
42, ,PASS, ,0.04146252, ,0.005161796973851757, ,0.036413079693679726, ,0.00021721219917052983, ,1.8333333333333333, ,0.6740787864371794, ,0.41690985898246974, ,0.061815064998673494
43, ,PASS, ,0.04138642000000001, ,0.005148023833778033, ,0.03639415393155242, ,0.0002162383612244761, ,1.8333333333333333, ,0.6760390173195243, ,0.4185016632313626, ,0.0633864615007857
44, ,PASS, ,0.041183, ,0.005141538093154725, ,0.03630564978143303, ,0.00021491756057455145, ,1.8333333333333333, ,0.6756662295792368, ,0.4164200730597335, ,0.06601906083549315
45, ,PASS, ,0.041395130000000016, ,0.005134531464397992, ,0.03631380698495949, ,0.0002157519533191329, ,1.8333333333333333, ,0.6753629496880527, ,0.41709352870349586, ,0.06295789881839146
46, ,PASS, ,0.04128641000000001, ,0.005121710726976492, ,0.03637178891716496, ,0.0002146607053172206, ,1.8333333333333333, ,0.6772864262154757, ,0.4162159955919267, ,0.06448847982694231
47, ,PASS, ,0.04141073999999999, ,0.005131664540857973, ,0.03638420692638926, ,0.00021585801912612975, ,1.8333333333333333, ,0.6770991977915244, ,0.41688945123568905, ,0.06289667557804943
48, ,PASS, ,0.04097752, ,0.005095547559105707, ,0.03649611238791045, ,0.00021197857995810542, ,1.8333333333333333, ,0.674404174068029, ,0.41664455827432095, ,0.060141629762657904
49, ,PASS, ,0.04124598, ,0.005146118950156572, ,0.036422845639476745, ,0.00021553905213176803, ,1.8333333333333333, ,0.6774178668037527, ,0.4150731617722087, ,0.06867206791698129
50, ,PASS, ,0.041342670000000005, ,0.005081269228723427, ,0.036410107348421455, ,0.00021320970324805632, ,1.8333333333333333, ,0.6733239497856838, ,0.41709352870349586, ,0.06369257770249587
51, ,PASS, ,0.041441460000000006, ,0.005003931563944129, ,0.03606470285402339, ,0.00021079847307126383, ,1.8333333333333333, ,0.6654554994708337, ,0.41203240750188774, ,0.04918266974143385
52, ,PASS, ,0.04095850000000001, ,0.005076226688156137, ,0.03630761325891309, ,0.0002110362727456473, ,1.8333333333333333, ,0.6747256690378061, ,0.41535887022713824, ,0.06385583967674129
53, ,PASS, ,0.04152113, ,0.005106836773794041, ,0.036443372062406894, ,0.0002152957118083585, ,1.8333333333333333, ,0.6750973531566135, ,0.4172363829309606, ,0.06614150731617723
54, ,PASS, ,0.041414179999999995, ,0.005092342275141563, ,0.0363084889683884, ,0.00021402373560232228, ,1.8333333333333333, ,0.675183929356246, ,0.4177057611069162, ,0.06571294463378298
55, ,PASS, ,0.04144989000000002, ,0.005154620111829144, ,0.036401639181853435, ,0.00021683596248638459, ,1.8333333333333333, ,0.6756343727358031, ,0.4165833350339789, ,0.06722311789555316
56, ,PASS, ,0.04145899, ,0.005110732911227301, ,0.03636989304606029, ,0.00021513221331127943, ,1.8333333333333333, ,0.6761225012854739, ,0.4171343441970572, ,0.06191710373257689
57, ,PASS, ,0.04146731000000001, ,0.0051295016886322795, ,0.036532305688455335, ,0.00021602457369694663, ,1.8333333333333333, ,0.6784250503301942, ,0.4172363829309606, ,0.06940674680108569
58, ,PASS, ,0.04096475000000001, ,0.005096883982813667, ,0.03648172738291055, ,0.00021185363650288457, ,1.8333333333333333, ,0.677391629538463, ,0.4157466174159711, ,0.060917124140323665
59, ,PASS, ,0.041409160000000014, ,0.005144782120337122, ,0.03652033150466317, ,0.00021627214770182353, ,1.8333333333333333, ,0.6778007361072604, ,0.4168690434889084, ,0.0621824044407257
60, ,PASS, ,0.04209171, ,0.005209230366868626, ,0.03652457800595906, ,0.00022255375189394775, ,1.8333333333333333, ,0.6725564943095624, ,0.4172363829309606, ,0.058427379033080956
61, ,PASS, ,0.041907490000000006, ,0.005203880957626594, ,0.036322812025264786, ,0.0002214802787669367, ,1.8333333333333333, ,0.6762141961946183, ,0.4159302871369972, ,0.0656925368870023
62, ,PASS, ,0.041906360000000004, ,0.005213822977156164, ,0.03636433435031938, ,0.00022203036356032633, ,1.8333333333333333, ,0.6775154683463374, ,0.4155425399481643, ,0.06797820452643824
63, ,PASS, ,0.042166880000000025, ,0.005238465944735336, ,0.03644404847758209, ,0.0002241799046624557, ,1.8333333333333333, ,0.6760942927198245, ,0.41744046039876737, ,0.06481500377543316
64, ,PASS, ,0.042071760000000014, ,0.005178270959313914, ,0.036471230932838106, ,0.00022117688528497416, ,1.8333333333333333, ,0.672139181944996, ,0.41739964490520604, ,0.05791718536356401
65, ,PASS, ,0.041923950000000015, ,0.00518485030556764, ,0.03624032598049019, ,0.00022062474256560684, ,1.8333333333333333, ,0.6756297746775752, ,0.41739964490520604, ,0.06897818411869146
66, ,PASS, ,0.04192219, ,0.00515550797487185, ,0.03644316460602845, ,0.00021949526471575913, ,1.8333333333333333, ,0.6762614108614673, ,0.4165833350339789, ,0.06626395379686129
67, ,PASS, ,0.04217008000000001, ,0.005153323042639213, ,0.03633079636864554, ,0.00022067218287132953, ,1.8333333333333333, ,0.6723750116731531, ,0.4175424991326708, ,0.06016203750943858
68, ,PASS, ,0.042227960000000016, ,0.005191741910763976, ,0.036456517602906066, ,0.0002225433387400811, ,1.8333333333333333, ,0.6741604784888752, ,0.41688945123568905, ,0.06677414746637823
69, ,PASS, ,0.0420384, ,0.0051258527002496, ,0.036213656444970516, ,0.0002188683232294646, ,1.8333333333333333, ,0.6743635878933403, ,0.4179914695618457, ,0.0673659721230179
70, ,PASS, ,0.04259179000000002, ,0.005190875378063249, ,0.0364392171949552, ,0.00022443625336935084, ,1.8333333333333333, ,0.6703726507236627, ,0.4196240893042999, ,0.0604273382175874
71, ,PASS, ,0.04206193000000001, ,0.005173858173763879, ,0.036585344585824776, ,0.00022080353130351444, ,1.8333333333333333, ,0.6718870719813332, ,0.4173180139180833, ,0.061345686822717904
72, ,PASS, ,0.04260762, ,0.005185301216533013, ,0.03635245469092467, ,0.00022433414218739348, ,1.8333333333333333, ,0.6707189771454984, ,0.4163792575661721, ,0.06146813330340197
73, ,PASS, ,0.04277414000000002, ,0.005236363940764819, ,0.03628356446460276, ,0.00022738196106164045, ,1.8333333333333333, ,0.6713296328105027, ,0.4171139364502765, ,0.06767208832472807
74, ,PASS, ,0.04529047000000001, ,0.005488860765135152, ,0.03643128059100835, ,0.0002522520211666384, ,1.8333333333333333, ,0.67004206369201, ,0.41811391604252973, ,0.06208036570682231
75, ,PASS, ,0.04437893000000001, ,0.005468487799199601, ,0.03631241593926655, ,0.00024631276238020687, ,1.8333333333333333, ,0.6721471783959203, ,0.4172159751841799, ,0.061713026264770106
76, ,PASS, ,0.044143810000000026, ,0.0054335807902585525, ,0.03611785310361013, ,0.00024338240745718377, ,1.8333333333333333, ,0.6760687291994413, ,0.41744046039876737, ,0.06681496295993959
77, ,PASS, ,0.04433917000000004, ,0.005448534603146943, ,0.036125991705679476, ,0.00024504407293039006, ,1.8333333333333333, ,0.672340916185582, ,0.41784861533438095, ,0.06381502418317994
78, ,PASS, ,0.04401441000000002, ,0.0054287121616693095, ,0.03637791315116018, ,0.0002425423069491264, ,1.8333333333333333, ,0.6742391841080788, ,0.4168486357421277, ,0.06169261851798943
79, ,PASS, ,0.04361893000000003, ,0.005440268213954751, ,0.03625287158915125, ,0.00024077627154047834, ,1.8333333333333333, ,0.6759023198852011, ,0.4175833146262321, ,0.07071284259504908
80, ,PASS, ,0.043856770000000024, ,0.0054027141855250765, ,0.03632244737760454, ,0.00024037575869691004, ,1.8333333333333333, ,0.6723691062388732, ,0.41793024632150366, ,0.06691700169384299
81, ,PASS, ,0.04402012000000002, ,0.005417048217938267, ,0.036194958997979636, ,0.00024200357951896967, ,1.8333333333333333, ,0.6736985537099476, ,0.41746086814554806, ,0.06326401502010164
82, ,PASS, ,0.04389217000000003, ,0.0053764428560291455, ,0.03623447787453317, ,0.00023945855955135212, ,1.8333333333333333, ,0.6704626777457122, ,0.41746086814554806, ,0.05989673680128977
83, ,PASS, ,0.04363025000000002, ,0.0053845116824734265, ,0.036091224644599094, ,0.000238566268389498, ,1.8333333333333333, ,0.6751195349688687, ,0.41727719842452193, ,0.06381502418317994
84, ,PASS, ,0.04416563000000003, ,0.005469516214968386, ,0.036316172161792615, ,0.0002450467294478029, ,1.8333333333333333, ,0.6731492372517994, ,0.41856288647170464, ,0.06595783759515111
85, ,PASS, ,0.04424215000000003, ,0.005473854071192478, ,0.03627434376482113, ,0.00024568886967355895, ,1.8333333333333333, ,0.6757863997778234, ,0.417971061815065, ,0.06677414746637823
86, ,PASS, ,0.044303430000000026, ,0.0054792297888547085, ,0.03627221205730496, ,0.0002461537480165119, ,1.8333333333333333, ,0.6727455758190809, ,0.4181547315360911, ,0.06352931572825045
87, ,PASS, ,0.04397633000000002, ,0.005454266258770297, ,0.03633980170772025, ,0.0002432343920882898, ,1.8333333333333333, ,0.6747564888127318, ,0.4181343237893104, ,0.06681496295993959
88, ,PASS, ,0.04420180000000003, ,0.005488655749457495, ,0.03620318722597498, ,0.0002461719729590307, ,1.8333333333333333, ,0.6767972033188692, ,0.41776698434725823, ,0.0691210383461562
89, ,PASS, ,0.044256540000000025, ,0.005492074488212103, ,0.036296981245688864, ,0.0002466349458827615, ,1.8333333333333333, ,0.6755382302926878, ,0.4179914695618457, ,0.066345584783984
90, ,PASS, ,0.04437133000000003, ,0.005503537043693885, ,0.03612074749617355, ,0.00024775703928621754, ,1.8333333333333333, ,0.6759942029856041, ,0.4178690230811616, ,0.07091692006285585
91, ,PASS, ,0.04420923000000002, ,0.005474490243386148, ,0.036223341245688864, ,0.00024548368223984525, ,1.8333333333333333, ,0.675995469626893, ,0.4189098181669762, ,0.0667129242260362
92, ,PASS, ,0.043806880000000034, ,0.005454394676990949, ,0.03617360668578192, ,0.00024229827454689656, ,1.8333333333333333, ,0.674867495854351, ,0.41764453786657413, ,0.06426399461235485
93, ,PASS, ,0.04417830000000003, ,0.005468388044028389, ,0.03613149557906981, ,0.0002451021777981933, ,1.8333333333333333, ,0.674940135515325, ,0.41827717801677516, ,0.06877410665088468
94, ,PASS, ,0.04391108000000002, ,0.005431879018757549, ,0.03623662071406706, ,0.00024184238089165432, ,1.8333333333333333, ,0.6707181729229604, ,0.41860370196526603, ,0.06563131364666028
95, ,PASS, ,0.043563950000000025, ,0.005357266422561368, ,0.036351634162976265, ,0.00023674564254411398, ,1.8333333333333333, ,0.67248456704701, ,0.41856288647170464, ,0.0679169812860962
96, ,PASS, ,0.04349242000000003, ,0.005308645309415859, ,0.03652072935654374, ,0.0002338959364382557, ,1.8333333333333333, ,0.6667270229563484, ,0.42039958368196567, ,0.06122324034203384
97, ,PASS, ,0.04323740000000002, ,0.005325821956678127, ,0.036398785803963184, ,0.00023345422252830984, ,1.8333333333333333, ,0.6748030984380203, ,0.41709352870349586, ,0.07530458562070162
98, ,PASS, ,0.04340217000000002, ,0.00533044815312418, ,0.03638290644272566, ,0.00023452016619910504, ,1.8333333333333333, ,0.669848442835529, ,0.41993020550601007, ,0.06379461643639926
99, ,PASS, ,0.04324024000000003, ,0.0053239906225257825, ,0.0361128826981082, ,0.00023361905921218622, ,1.8333333333333333, ,0.6733122386816345, ,0.41829758576355586, ,0.06816187424746434
100, ,PASS, ,0.04335515000000002, ,0.0053199679721229794, ,0.036225352787085975, ,0.00023391007341941786, ,1.8333333333333333, ,0.6689342332112743, ,0.4196240893042999, ,0.06520275096426603
101, ,PASS, ,0.04326453000000001, ,0.005300803560350188, ,0.036409993977878, ,0.0002325575184620243, ,1.8333333333333333, ,0.6719755006182146, ,0.4193383808493704, ,0.0646721495479684
102, ,PASS, ,0.04344889000000003, ,0.005248896740313273, ,0.036502628368604725, ,0.0002311769824699668, ,1.8333333333333333, ,0.6665251726198795, ,0.42156282524846433, ,0.0606110079386135
103, ,PASS, ,0.04341269000000003, ,0.005246280135253322, ,0.0363813557331483, ,0.00023111338917203812, ,1.8333333333333333, ,0.6622599176150983, ,0.4189098181669762, ,0.060917124140323665
104, ,PASS, ,0.04405967000000001, ,0.005327729330536135, ,0.03635222718128201, ,0.00023807714518611834, ,1.8333333333333333, ,0.6688770715920921, ,0.42029754494806226, ,0.06738637986979858
105, ,PASS, ,0.04458871000000001, ,0.005376561440913394, ,0.036389678812677295, ,0.00024324120844122668, ,1.8333333333333333, ,0.6660081430391757, ,0.4183792167506786, ,0.06326401502010164
106, ,PASS, ,0.04515281000000003, ,0.005468559994914145, ,0.036151952618109835, ,0.0002505684096632717, ,1.8333333333333333, ,0.6660265619121997, ,0.4167874125017857, ,0.06573335238056366
107, ,PASS, ,0.04599142000000002, ,0.005684341374388415, ,0.03630918364237465, ,0.00026496368369704636, ,1.8333333333333333, ,0.6728181102290244, ,0.4205628456562111, ,0.06399869390420604
108, ,PASS, ,0.04692547999999999, ,0.005870931895690745, ,0.03595572978163711, ,0.0002792453384546028, ,1.8333333333333333, ,0.6795799887526529, ,0.4180526928021877, ,0.06481500377543316
