Channel, ,Pass/Fail, ,Amplitude, ,Sorting Function Response, ,Mean, ,Variance, ,NPeaksRatio, ,PosIntegralRatio, ,ToT50, ,ToT99
0, ,PASS, ,0.036535630799999996, ,0.0038221412756610004, ,0.027463164211954858, ,0.0001421404333857286, ,1.75, ,0.6127917564779752, ,0.4147466378237179, ,0.057672292402195874
1, ,PASS, ,0.0390912767, ,0.004624180459050767, ,0.02699182329265321, ,0.00018346101844731241, ,1.8333333333333333, ,0.6646997394116846, ,0.41488949205118264, ,0.06018244525621926
2, ,PASS, ,0.03909786080000001, ,0.0045847355584545035, ,0.02696511159115732, ,0.00018201458903625018, ,1.75, ,0.6591355283626148, ,0.4142772596477623, ,0.054386645170506724
3, ,PASS, ,0.038757862700000006, ,0.004552562942081794, ,0.026902830860980387, ,0.00017915150305516117, ,1.75, ,0.6592988309137991, ,0.4142160364074203, ,0.058039631844248075
4, ,PASS, ,0.0038119909999999903, ,0.00012751394453366322, ,0.029043506241158347, ,5.206845066953405e-07, ,0.75, ,0.24360645555977048, ,0.5016020081222832, ,0.009958980428970837
5, ,PASS, ,0.03832648659999999, ,0.004520617353001679, ,0.027047285501191815, ,0.00017572561867115383, ,1.75, ,0.6580420821570386, ,0.41364461949756126, ,0.05503969306748842
6, ,PASS, ,0.038412504599999994, ,0.004482595879362122, ,0.02703313615355605, ,0.00017480078015097924, ,1.75, ,0.6563464097604661, ,0.4143792983816657, ,0.05334585008469215
7, ,PASS, ,0.03839115180000001, ,0.004485202144728878, ,0.02699765772957491, ,0.00017478149650200668, ,1.8333333333333333, ,0.656155158355967, ,0.41442011387522704, ,0.060121222015877225
8, ,PASS, ,0.038418675799999996, ,0.004461101776718801, ,0.027162729808814106, ,0.00017410116703084835, ,1.8333333333333333, ,0.656094505389853, ,0.414297667394543, ,0.05408052896879655
9, ,PASS, ,0.038597015000000005, ,0.0045070508184147885, ,0.026819303640848148, ,0.0001766242150020513, ,1.75, ,0.6557946562743625, ,0.4142364441542009, ,0.05906001918328197
10, ,PASS, ,0.03872302230000002, ,0.0044841249856203205, ,0.026988934949464298, ,0.000176266081314395, ,1.8333333333333333, ,0.6540316630058586, ,0.41476704557049854, ,0.05450909165119079
11, ,PASS, ,0.0388914526, ,0.004486428105690652, ,0.02704170179947348, ,0.00017716011370679487, ,1.8333333333333333, ,0.6573523717775096, ,0.4138078814718067, ,0.06246811289565519
12, ,PASS, ,0.0386137003, ,0.004483226421923349, ,0.027026918702791784, ,0.00017571207695999964, ,1.8333333333333333, ,0.6543927746808291, ,0.4147058223301565, ,0.05946817411889553
13, ,PASS, ,0.03901420549999999, ,0.004529199040232971, ,0.026998718586194157, ,0.0001793846623688404, ,1.8333333333333333, ,0.6520205654189173, ,0.4139711434460521, ,0.05673353605028469
14, ,PASS, ,0.03916133449999999, ,0.004531652319011102, ,0.027092277536033958, ,0.00018019125486973573, ,1.8333333333333333, ,0.6562812921277577, ,0.4154813167078223, ,0.056753943797065366
15, ,PASS, ,0.039151843900000004, ,0.0045377788065586976, ,0.02693317829575519, ,0.00018041155762985037, ,1.8333333333333333, ,0.6555796046702576, ,0.41476704557049854, ,0.056427419848574516
16, ,PASS, ,0.03889427639999998, ,0.004539965663805344, ,0.02692766995784984, ,0.00017924317507973827, ,1.75, ,0.6615209594065162, ,0.41393032795249074, ,0.06195791922613824
17, ,PASS, ,0.039151649499999996, ,0.004580144048233245, ,0.026921009424364806, ,0.00018202876658988547, ,1.75, ,0.6583249864054842, ,0.41439970612844634, ,0.057672292402195874
18, ,PASS, ,0.039382378299999986, ,0.004595812552926997, ,0.027209954257331484, ,0.00018370241213557282, ,1.8333333333333333, ,0.6576575257084302, ,0.4146854145833758, ,0.060549784698271464
19, ,PASS, ,0.0388981764, ,0.00455622931159558, ,0.02686416010213465, ,0.00017989199334012972, ,1.75, ,0.6544484385381032, ,0.41521601599967345, ,0.05657027407603926
20, ,PASS, ,0.03922842450000001, ,0.00457627926420191, ,0.02692667604443583, ,0.00018208730276151415, ,1.8333333333333333, ,0.6552710688608, ,0.41476704557049854, ,0.05854982551376502
21, ,PASS, ,0.039197552300000015, ,0.004552518595029415, ,0.026957296107936575, ,0.00018115675925984217, ,1.8333333333333333, ,0.6555488858752577, ,0.41405277443317484, ,0.05961102834636028
22, ,PASS, ,0.039321104, ,0.004560878522804245, ,0.026937169066680273, ,0.00018213873269312043, ,1.75, ,0.6557351882947959, ,0.4142160364074203, ,0.05691720577131079
23, ,PASS, ,0.039545441099999995, ,0.004557560477618215, ,0.02716013257774331, ,0.0001830549389148393, ,1.8333333333333333, ,0.6497013063852803, ,0.41486908430440195, ,0.058917164955817225
24, ,PASS, ,0.03914601550000001, ,0.004501184366450394, ,0.026997324415630294, ,0.0001789256345481303, ,1.8333333333333333, ,0.652504739285458, ,0.4145425603559111, ,0.059651843839921635
25, ,PASS, ,0.0391134016, ,0.004505456187019848, ,0.027077689529750416, ,0.00017888429167457108, ,1.8333333333333333, ,0.6521874375852433, ,0.41448133711556906, ,0.0573661762004857
26, ,PASS, ,0.0392123957, ,0.004521483299818897, ,0.027059860004832556, ,0.00017998059358701732, ,1.8333333333333333, ,0.6552318578779684, ,0.41405277443317484, ,0.05734576845370502
27, ,PASS, ,0.039020115300000005, ,0.004516127816973552, ,0.027099539682877902, ,0.00017881295958516297, ,1.8333333333333333, ,0.6510249184376651, ,0.4141752209138589, ,0.05781514662966062
28, ,PASS, ,0.03930425190000001, ,0.004519583459192435, ,0.027064984407863105, ,0.00018034118830870333, ,1.8333333333333333, ,0.6509959206999504, ,0.4147058223301565, ,0.05957021285279892
29, ,PASS, ,0.0391520614, ,0.00453303766399169, ,0.02700563396513745, ,0.000180268985712231, ,1.8333333333333333, ,0.6523726561659733, ,0.4162772188322687, ,0.06234566641497112
30, ,PASS, ,0.0399584141, ,0.004668431643278056, ,0.026930894348392888, ,0.00018937696343810715, ,1.8333333333333333, ,0.6558063863091814, ,0.4156445786820677, ,0.05195812330360605
31, ,PASS, ,0.039872631699999994, ,0.004590888003479419, ,0.02693836865518867, ,0.00018591970110628728, ,1.75, ,0.6574452582291073, ,0.41460378359625316, ,0.058835533968694516
32, ,PASS, ,0.03941085119999999, ,0.004492453024992361, ,0.026918449581655478, ,0.00017987486296263696, ,1.8333333333333333, ,0.6481885119857543, ,0.4143792983816657, ,0.05326421909756944
33, ,PASS, ,0.0396425989, ,0.004514254705740443, ,0.026952152547858207, ,0.0001818496125933297, ,1.8333333333333333, ,0.6475749991067896, ,0.414991530785086, ,0.05879471847513316
34, ,PASS, ,0.039537271599999986, ,0.004535630946124743, ,0.026946538760119182, ,0.00018212789991304352, ,1.8333333333333333, ,0.6495981292718981, ,0.4143180751413236, ,0.05414175220913859
35, ,PASS, ,0.039560138400000014, ,0.004533481183305938, ,0.0270039393498398, ,0.00018213322512794828, ,1.8333333333333333, ,0.6507057237208742, ,0.4143180751413236, ,0.05730495296014367
36, ,PASS, ,0.03949665500000001, ,0.00456224541763823, ,0.027079122112005877, ,0.00018293627154403536, ,1.8333333333333333, ,0.6538329865929117, ,0.4147466378237179, ,0.061345686822717904
37, ,PASS, ,0.040069449600000015, ,0.004646916387885621, ,0.026998037344172568, ,0.0001890022695011685, ,1.8333333333333333, ,0.6543598861340615, ,0.4150323462786474, ,0.058039631844248075
38, ,PASS, ,0.040166714700000015, ,0.004671233217450025, ,0.026797846338315546, ,0.00019042250675070708, ,1.75, ,0.6561743136145324, ,0.4141956286606396, ,0.05732536070692435
39, ,PASS, ,0.03997397050000001, ,0.0046064646427707205, ,0.027057206983771762, ,0.00018695208254795116, ,1.75, ,0.652816642018714, ,0.41284871737311485, ,0.05216220077141283
40, ,PASS, ,0.03967798750000001, ,0.004563347438258069, ,0.026678404751119367, ,0.00018388056716370417, ,1.8333333333333333, ,0.6500261700378239, ,0.41439970612844634, ,0.05728454521336299
41, ,PASS, ,0.03982951660000002, ,0.004560606093111867, ,0.02682936766035387, ,0.0001844975620430079, ,1.8333333333333333, ,0.6500529844006474, ,0.4159915103773392, ,0.05871308748801045
42, ,PASS, ,0.03949605860000001, ,0.004539369342249765, ,0.026729871221813844, ,0.00018215301819403864, ,1.8333333333333333, ,0.647871021747954, ,0.4138486969653681, ,0.05432542193016469
43, ,PASS, ,0.03955372659999998, ,0.0045264169680868695, ,0.02675473389140834, ,0.00018177364489161709, ,1.8333333333333333, ,0.6473000915764453, ,0.41407318217995553, ,0.05734576845370502
44, ,PASS, ,0.039493764900000006, ,0.004492250764063507, ,0.026933973527605556, ,0.00018016094128153008, ,1.8333333333333333, ,0.6466054859255252, ,0.4146854145833758, ,0.05752943817473113
45, ,PASS, ,0.03985651259999999, ,0.004556435191375714, ,0.026831717040105302, ,0.00018444535840792312, ,1.8333333333333333, ,0.6504030687573039, ,0.41393032795249074, ,0.05981510581416706
46, ,PASS, ,0.0400990421, ,0.004583459708063516, ,0.026803490766076205, ,0.00018655900511321875, ,1.8333333333333333, ,0.6506978838255546, ,0.4145425603559111, ,0.05322340360400808
47, ,PASS, ,0.040014452799999996, ,0.004597340687111494, ,0.026627901710567135, ,0.0001868435772555467, ,1.8333333333333333, ,0.6497908674154913, ,0.4142160364074203, ,0.0590396114365013
48, ,PASS, ,0.040271349299999995, ,0.004616677026462473, ,0.02668986631486092, ,0.00018877272071438214, ,1.8333333333333333, ,0.6515156036444568, ,0.41442011387522704, ,0.0568151670374074
49, ,PASS, ,0.0401075412, ,0.004610286138478059, ,0.026859003901597928, ,0.00018777834429524148, ,1.8333333333333333, ,0.6497960276625298, ,0.4143384828881043, ,0.05630497336789045
50, ,PASS, ,0.040154398599999995, ,0.004615034504864113, ,0.026676305830562644, ,0.0001881384058795243, ,1.8333333333333333, ,0.6519817780427057, ,0.4138691047121487, ,0.057162098732678926
51, ,PASS, ,0.040248013099999994, ,0.004618476682000366, ,0.026829524372465868, ,0.0001887232994992431, ,1.8333333333333333, ,0.6509188389619749, ,0.41497112303830536, ,0.06536601293851146
52, ,PASS, ,0.040093572399999985, ,0.004601724775031216, ,0.0268442749127528, ,0.00018729738854052314, ,1.8333333333333333, ,0.6482203651244139, ,0.4142364441542009, ,0.058019224097467396
53, ,PASS, ,0.04024405440000001, ,0.004606924390510994, ,0.02671811441889349, ,0.00018821787084070864, ,1.8333333333333333, ,0.649921765788957, ,0.4147466378237179, ,0.05901920368972062
54, ,PASS, ,0.04025638890000001, ,0.004622108648115778, ,0.026850861315813962, ,0.00018894507382074226, ,1.8333333333333333, ,0.6492122488582934, ,0.4143180751413236, ,0.05961102834636028
55, ,PASS, ,0.040425614, ,0.004605405053843435, ,0.026764686300671418, ,0.00018914795396860788, ,1.8333333333333333, ,0.6487654697556401, ,0.41497112303830536, ,0.061264055835595195
56, ,PASS, ,0.0405671226, ,0.004603323061539876, ,0.0268205184986837, ,0.00018965178982366097, ,1.8333333333333333, ,0.6487057637235996, ,0.41523642374645414, ,0.0557947796983735
57, ,PASS, ,0.0406778494, ,0.004643245589337952, ,0.026794929366135388, ,0.00019177424459252714, ,1.8333333333333333, ,0.6486424206449027, ,0.4138486969653681, ,0.058141670578151464
58, ,PASS, ,0.040555273899999994, ,0.0046449014612658015, ,0.026759402232331995, ,0.00019129619758316912, ,1.8333333333333333, ,0.6485693541179656, ,0.4150527540254281, ,0.05297851064263995
59, ,PASS, ,0.040359688299999995, ,0.004663947732304069, ,0.026611354864953776, ,0.00019115812399210814, ,1.75, ,0.6534214961785807, ,0.411950776514765, ,0.058447786779861635
60, ,PASS, ,0.04087140970000001, ,0.004678292995338776, ,0.02688166804169711, ,0.00019420618652857903, ,1.8333333333333333, ,0.6479924958191703, ,0.4143384828881043, ,0.060468153711148755
61, ,PASS, ,0.04080724239999999, ,0.004716769716611135, ,0.02688502377835146, ,0.00019551363023726951, ,1.8333333333333333, ,0.6573402358932942, ,0.41615477235158466, ,0.07132507499846942
62, ,PASS, ,0.04121912979999999, ,0.004759240040385076, ,0.026724455902091795, ,0.00019919806882526757, ,1.8333333333333333, ,0.6523074757443582, ,0.4142772596477623, ,0.055896818432276896
63, ,PASS, ,0.041616360199999994, ,0.004751400296513603, ,0.026650879864100734, ,0.0002008451984369038, ,1.8333333333333333, ,0.6517677487934654, ,0.41439970612844634, ,0.05703965225199486
64, ,PASS, ,0.041761013499999985, ,0.00478285269768357, ,0.026703661368447585, ,0.00020281320946127147, ,1.8333333333333333, ,0.6513739933911866, ,0.4146445990898145, ,0.06205995796004163
65, ,PASS, ,0.04180497039999999, ,0.004786044726025527, ,0.026628807308844718, ,0.0002031370825327921, ,1.8333333333333333, ,0.6507520504287928, ,0.4147058223301565, ,0.05944776637211485
66, ,PASS, ,0.041556390599999986, ,0.004783814088371057, ,0.026433549369584294, ,0.00020192402669800522, ,1.8333333333333333, ,0.6540211690218366, ,0.41395073569927143, ,0.05871308748801045
67, ,PASS, ,0.04173368690000001, ,0.004812158219281489, ,0.026565636306287627, ,0.0002038964292069612, ,1.8333333333333333, ,0.6541536492683246, ,0.4133793187894125, ,0.05865186424766841
68, ,PASS, ,0.04204455, ,0.004864315488018563, ,0.026699948618407788, ,0.00020758176152206595, ,1.8333333333333333, ,0.6520877570990262, ,0.41460378359625316, ,0.06038652272402604
69, ,PASS, ,0.04709378909999999, ,0.005539344480748544, ,0.026157377149680618, ,0.00026460316841009075, ,1.8333333333333333, ,0.6603143481061498, ,0.4150527540254281, ,0.05667231280994266
70, ,PASS, ,0.04995159999999997, ,0.011039012794337071, ,0.0254165922777086, ,0.0005636092791281002, ,2.0, ,0.9416129896850222, ,0.4123181159568172, ,0.35478867778208606
71, ,PASS, ,0.037964180599999994, ,0.004192550668412059, ,0.026939827181796293, ,0.00016184581500397705, ,1.6666666666666667, ,0.6380814548625041, ,0.4146650068365952, ,0.0637538009428379
72, ,PASS, ,0.03520447279999998, ,0.0038189470189995004, ,0.027226231377992287, ,0.0001368177669202673, ,1.6666666666666667, ,0.627138257647069, ,0.4138078814718067, ,0.0637538009428379
73, ,PASS, ,0.0351535938, ,0.003820544145406494, ,0.027204958405930492, ,0.00013671435590835958, ,1.6666666666666667, ,0.62761133936117, ,0.41442011387522704, ,0.059162057917185366
74, ,PASS, ,0.03530905880000001, ,0.00378765700037639, ,0.0272020581222424, ,0.00013615728322967434, ,1.6666666666666667, ,0.6287133535740423, ,0.41476704557049854, ,0.06030489173690333
75, ,PASS, ,0.035519764300000006, ,0.0037965071859492575, ,0.02729989574686231, ,0.00013740423874454027, ,1.6666666666666667, ,0.6277453150278184, ,0.4148078610640599, ,0.06169261851798943
76, ,PASS, ,0.035211110299999994, ,0.0037451440336414886, ,0.027363950536764558, ,0.0001342853969392607, ,1.75, ,0.6215032713396792, ,0.41452215260913045, ,0.06208036570682231
77, ,PASS, ,0.03520770460000001, ,0.003761904737968562, ,0.027301400380094282, ,0.00013483730539003564, ,1.75, ,0.6261543181853055, ,0.4150323462786474, ,0.0621824044407257
78, ,PASS, ,0.0354782216, ,0.003785370204985672, ,0.027137194936613537, ,0.00013669241155153393, ,1.6666666666666667, ,0.6216562494646759, ,0.41074671945470503, ,0.058039631844248075
79, ,PASS, ,0.035406407999999986, ,0.003776986716121083, ,0.02714790527236179, ,0.0001361310639994073, ,1.6666666666666667, ,0.6249402547028261, ,0.4143180751413236, ,0.05828452480561621
80, ,PASS, ,0.0356731951, ,0.003840545555884296, ,0.027092159944103182, ,0.0001394408398451352, ,1.6666666666666667, ,0.6254604584953074, ,0.41274667863921144, ,0.053937674741331806
81, ,PASS, ,0.035786467399999994, ,0.0038465087876949694, ,0.02699288363543601, ,0.00014016911474042158, ,1.6666666666666667, ,0.6311821726025203, ,0.41493030754474397, ,0.06685577845350095
82, ,PASS, ,0.035609778999999994, ,0.0038540625345070785, ,0.02719881925779066, ,0.00013974794243767487, ,1.6666666666666667, ,0.6295183542008082, ,0.4146445990898145, ,0.06067223117895553
83, ,PASS, ,0.0358222242, ,0.0038999091802077585, ,0.0272715767808208, ,0.00014212396426456348, ,1.6666666666666667, ,0.6272809468939724, ,0.4145425603559111, ,0.060080406522315874
84, ,PASS, ,0.035651309400000004, ,0.003799889102732315, ,0.027045052847492913, ,0.0001380346420268107, ,1.6666666666666667, ,0.6258574329991325, ,0.4143792983816657, ,0.058835533968694516
85, ,PASS, ,0.03592740120000001, ,0.00385241162157895, ,0.027185335686863533, ,0.00014096747402540338, ,1.6666666666666667, ,0.6268826707185766, ,0.41484867655762125, ,0.06024366849656129
86, ,PASS, ,0.035833504099999997, ,0.003848191444890752, ,0.027170562651945878, ,0.00014039186957544392, ,1.6666666666666667, ,0.6253410478898955, ,0.4145425603559111, ,0.05648864308891655
87, ,PASS, ,0.03560520960000001, ,0.0038266457627451817, ,0.027140320030652438, ,0.00013874161470980818, ,1.6666666666666667, ,0.6250557740379431, ,0.41493030754474397, ,0.06354972347503113
88, ,PASS, ,0.035450625, ,0.0037836271680578362, ,0.027253237833656456, ,0.00013658302703979991, ,1.75, ,0.623273963340958, ,0.4141548131670782, ,0.06022326074978061
89, ,PASS, ,0.03579400599999999, ,0.003805192245635036, ,0.02717346312546683, ,0.0001386768853398768, ,1.75, ,0.6205096639120562, ,0.41374665823146467, ,0.058876349462255874
90, ,PASS, ,0.035701402300000004, ,0.003805713642912172, ,0.027266681991918534, ,0.00013830578360805358, ,1.75, ,0.6221349982895952, ,0.41476704557049854, ,0.06312116079263688
91, ,PASS, ,0.035700969999999985, ,0.003792739479663428, ,0.027246502295544987, ,0.00013785863635368476, ,1.75, ,0.6216259177414013, ,0.41442011387522704, ,0.055549886737005366
92, ,PASS, ,0.03581272849999998, ,0.003785404225296216, ,0.02715236231238138, ,0.00013808126885805924, ,1.6666666666666667, ,0.6206046485833236, ,0.41458337584947247, ,0.04793779718781249
93, ,PASS, ,0.035847859, ,0.0038148256128012394, ,0.027153421877492298, ,0.00013924385019038296, ,1.75, ,0.6231148100982423, ,0.41403236668639415, ,0.056427419848574516
94, ,PASS, ,0.0361705281, ,0.0038321106902877646, ,0.02720779392181792, ,0.0001411380164093106, ,1.6666666666666667, ,0.6158106291885104, ,0.4151752005061121, ,0.057202914226240284
95, ,PASS, ,0.03599752359999999, ,0.003832330033448713, ,0.02721507298832677, ,0.00014049131370381528, ,1.6666666666666667, ,0.6216900921335187, ,0.4139915511928328, ,0.05859064100732638
96, ,PASS, ,0.036261967799999996, ,0.003856792405225864, ,0.027032213972694438, ,0.00014230275742726695, ,1.75, ,0.6235468475453333, ,0.4146854145833758, ,0.062039550213260956
97, ,PASS, ,0.03649010990000001, ,0.003919751315380426, ,0.027152405607314137, ,0.00014550582493077656, ,1.6666666666666667, ,0.6268276874674915, ,0.4135221730168772, ,0.05544784800310198
98, ,PASS, ,0.036477851699999994, ,0.0039827828741939575, ,0.0270624001957307, ,0.00014781118580055975, ,1.6666666666666667, ,0.633983276277457, ,0.41460378359625316, ,0.06185588049223485
99, ,PASS, ,0.036253731799999994, ,0.003897503359704082, ,0.027098452042570564, ,0.00014384971754541735, ,1.6666666666666667, ,0.6240929943843286, ,0.41407318217995553, ,0.0569988367584335
100, ,PASS, ,0.035868798999999986, ,0.0038657432722845643, ,0.027303474646007225, ,0.0001411474987548496, ,1.6666666666666667, ,0.6295669171167521, ,0.41444052162200773, ,0.06787616579253485
101, ,PASS, ,0.03615839799999999, ,0.0038712449262195384, ,0.02714232994330728, ,0.00014246670897001055, ,1.75, ,0.6267793987635722, ,0.4150119385318667, ,0.06142731780984061
102, ,PASS, ,0.03623236119999999, ,0.0038625690063739913, ,0.027025255933470747, ,0.00014252013859683693, ,1.6666666666666667, ,0.6252437145716512, ,0.4151547927593314, ,0.0631007530458562
103, ,PASS, ,0.03603968349999999, ,0.0038465610670857064, ,0.02709606861345687, ,0.0001411971316932033, ,1.6666666666666667, ,0.6229040348151164, ,0.41444052162200773, ,0.06154976429052468
104, ,PASS, ,0.036112979999999996, ,0.0038318275581434736, ,0.027363243266525176, ,0.00014085941100824663, ,1.75, ,0.6206722465543273, ,0.41478745331727923, ,0.05377441276708639
105, ,PASS, ,0.03629309339999999, ,0.0038664416013905675, ,0.02723631380382033, ,0.00014291602250198575, ,1.6666666666666667, ,0.6231124788930988, ,0.414297667394543, ,0.05938654313177282
106, ,PASS, ,0.036702456099999996, ,0.003934070693043313, ,0.02704211087630865, ,0.00014704446012931162, ,1.6666666666666667, ,0.6281790132189633, ,0.4150527540254281, ,0.06028448399012265
107, ,PASS, ,0.0361481676, ,0.0038075166960007765, ,0.027107620993694008, ,0.00014009366750895343, ,1.75, ,0.6177563358943707, ,0.414991530785086, ,0.05528458602885655
108, ,PASS, ,0.0360287567, ,0.0038032211306241585, ,0.027100773888369623, ,0.00013950403713887524, ,1.6666666666666667, ,0.6185346850114268, ,0.41409358992673617, ,0.05481520785290096
109, ,PASS, ,0.03605397029999999, ,0.00381452470169803, ,0.027144033786657414, ,0.0001400835967611715, ,1.75, ,0.6181297896396846, ,0.41450174486234975, ,0.058039631844248075
110, ,PASS, ,0.0360713805, ,0.0038243676341311304, ,0.027173998279014712, ,0.00014053333550903744, ,1.75, ,0.6194426538724743, ,0.41439970612844634, ,0.06410073263810942
111, ,PASS, ,0.036108667000000004, ,0.00382597113275556, ,0.027303986298442887, ,0.00014068789976420703, ,1.6666666666666667, ,0.618355003646563, ,0.4141548131670782, ,0.0569988367584335
112, ,PASS, ,0.03666866239999999, ,0.0038551898043139325, ,0.027102395637742086, ,0.0001439585265069227, ,1.75, ,0.6105949468395501, ,0.4134609497765352, ,0.053407073325034186
113, ,PASS, ,0.03627825510000002, ,0.0038719356919442974, ,0.02723329451037734, ,0.0001430515115866408, ,1.6666666666666667, ,0.6258814287136637, ,0.41458337584947247, ,0.06816187424746434
114, ,PASS, ,0.0363167093, ,0.003875650470578696, ,0.02706329499148997, ,0.0001433440999494665, ,1.6666666666666667, ,0.6208125698820369, ,0.41360380400399993, ,0.05687639027774943
115, ,PASS, ,0.03654536420000001, ,0.0038726141018780827, ,0.027274661480724886, ,0.0001441612770299443, ,1.6666666666666667, ,0.6212812860845885, ,0.41448133711556906, ,0.05791718536356401
116, ,PASS, ,0.0362677338, ,0.0038373012367988535, ,0.027193204436623743, ,0.000141767467330958, ,1.75, ,0.6197235630814063, ,0.4146650068365952, ,0.05875390298157181
117, ,PASS, ,0.036352259100000006, ,0.0038757764897937837, ,0.027225292720556724, ,0.00014325024926640327, ,1.75, ,0.6189719090048321, ,0.4159506948837779, ,0.060835493153200956
118, ,PASS, ,0.03654199129999999, ,0.003882366198052894, ,0.0271278922763413, ,0.00014441110713924978, ,1.6666666666666667, ,0.6184891213565235, ,0.4148282688108406, ,0.05346829656537622
119, ,PASS, ,0.036418775800000004, ,0.0038739968293095145, ,0.02705981156711088, ,0.00014365315898800198, ,1.6666666666666667, ,0.6206165453228871, ,0.41403236668639415, ,0.05346829656537622
120, ,PASS, ,0.03648005319999999, ,0.0038489573548266, ,0.02729790627354544, ,0.0001429023700099981, ,1.75, ,0.6178166208689386, ,0.4143180751413236, ,0.056427419848574516
121, ,PASS, ,0.03655482510000001, ,0.003899506051714389, ,0.02724055378735128, ,0.00014515430743575975, ,1.6666666666666667, ,0.6197643273433334, ,0.41403236668639415, ,0.0566314973163813
122, ,PASS, ,0.03638818839999999, ,0.0038429684765143132, ,0.027209679553090754, ,0.00014240782422122276, ,1.75, ,0.618798494406363, ,0.41495071529152466, ,0.05330503459113079
123, ,PASS, ,0.03616070489999999, ,0.0038423676468482756, ,0.027150204882716678, ,0.00014137995663717683, ,1.75, ,0.6189083264080315, ,0.41439970612844634, ,0.055570294483786045
124, ,PASS, ,0.03585499399999998, ,0.003793904404106103, ,0.02727613411148752, ,0.00013845557983413373, ,1.75, ,0.6196807296979066, ,0.4147058223301565, ,0.060100814269096546
125, ,PASS, ,0.03636980659999999, ,0.0038421455302311684, ,0.027205546911001816, ,0.00014231758725984388, ,1.75, ,0.6193941229555904, ,0.4148282688108406, ,0.060896716393542986
126, ,PASS, ,0.03635509109999999, ,0.0038282277679367108, ,0.027105097382379952, ,0.0001417700168241345, ,1.75, ,0.6175203700209293, ,0.41478745331727923, ,0.05748862268116977
127, ,PASS, ,0.03632396009999999, ,0.0038280481287940376, ,0.027163486192689944, ,0.00014174482247645916, ,1.6666666666666667, ,0.619153039573777, ,0.41576702516275177, ,0.06267219036346197
128, ,PASS, ,0.036192194, ,0.0037698405287276194, ,0.027379612086855368, ,0.0001391152497086873, ,1.6666666666666667, ,0.6191074458643733, ,0.41366502724434195, ,0.06118242484847248
129, ,PASS, ,0.036522813600000016, ,0.003854762789305566, ,0.027336853667945554, ,0.0001432978150285995, ,1.75, ,0.6172287332594172, ,0.41395073569927143, ,0.05618252688720638
130, ,PASS, ,0.036653184299999975, ,0.0039036958613670645, ,0.027366742531846292, ,0.00014564584438079482, ,1.6666666666666667, ,0.6225067028063753, ,0.41452215260913045, ,0.060447745964368076
131, ,PASS, ,0.037042836100000004, ,0.003956003360181081, ,0.027490525692618516, ,0.00014919945269483152, ,1.6666666666666667, ,0.6238100096461195, ,0.4151547927593314, ,0.05632538111467113
132, ,PASS, ,0.03759252839999999, ,0.003982685056501586, ,0.027286314531723845, ,0.00015244696628062733, ,1.6666666666666667, ,0.6204457392923123, ,0.41444052162200773, ,0.058876349462255874
133, ,PASS, ,0.047719142100000014, ,0.005788781580993895, ,0.02624402496024979, ,0.00028015038145473396, ,1.8333333333333333, ,0.6725373057507876, ,0.41368543499112265, ,0.047733719720005716
134, ,PASS, ,0.04995159999999997, ,0.010873003929909005, ,0.025421360337544118, ,0.0005548754673863719, ,2.0, ,0.9287999492587695, ,0.41237933919715924, ,0.3447684741127732
135, ,PASS, ,0.034591123, ,0.003571283025422873, ,0.027485354200893857, ,0.00012579819092274568, ,1.75, ,0.6078186415037923, ,0.4142772596477623, ,0.056407012101793844
136, ,PASS, ,0.032296221, ,0.00317400208478514, ,0.027904952255647847, ,0.00010462822360740405, ,1.5, ,0.5873261171823704, ,0.4138282892185874, ,0.050203057080467746
137, ,PASS, ,0.03251888800000001, ,0.003173912658722752, ,0.027726646714148692, ,0.00010537038002962125, ,1.5, ,0.5782265157002903, ,0.41376706597824536, ,0.048550029591232835
138, ,PASS, ,0.03231107600000001, ,0.0031771828577098907, ,0.027722894399400014, ,0.00010475345208345194, ,1.5, ,0.586855872940949, ,0.4156445786820677, ,0.05287647190873656
139, ,PASS, ,0.032302915999999994, ,0.003159933059720713, ,0.02782295984739087, ,0.00010419232031178352, ,1.5, ,0.5882762707647065, ,0.413726250484684, ,0.04977449439807351
140, ,PASS, ,0.03219846600000001, ,0.0031709004035248953, ,0.027673971919981225, ,0.0001041559903878617, ,1.5, ,0.5863084802109171, ,0.4142364441542009, ,0.05193771555682537
141, ,PASS, ,0.032155741000000015, ,0.0031829926220537973, ,0.027918129998244934, ,0.00010441126760697392, ,1.5, ,0.5916890153824865, ,0.41405277443317484, ,0.054692761372216896
142, ,PASS, ,0.03209420100000001, ,0.00316919479068135, ,0.02781264954923369, ,0.00010374624038743169, ,1.5, ,0.5911871227035994, ,0.414358890634885, ,0.05077447399032673
143, ,PASS, ,0.032321146999999995, ,0.0031874949432814824, ,0.027803552232015673, ,0.00010516684730774835, ,1.5, ,0.5893033667477202, ,0.4133385032958511, ,0.052325462745658254
144, ,PASS, ,0.032391671, ,0.0031619064933734223, ,0.02777329787477807, ,0.0001045523484889958, ,1.5, ,0.5844947215410091, ,0.414297667394543, ,0.046958225342339954
145, ,PASS, ,0.032391753999999995, ,0.00321321306149343, ,0.02772972458311055, ,0.00010620150295550086, ,1.5, ,0.5952492703508279, ,0.4154609089610416, ,0.05908042693006265
146, ,PASS, ,0.032759747000000006, ,0.0032398839319399907, ,0.0278182159965715, ,0.00010828474487220808, ,1.5, ,0.5853352916244423, ,0.41495071529152466, ,0.05257035570702639
147, ,PASS, ,0.03247868500000001, ,0.0032491962403504676, ,0.02779858317911879, ,0.00010764808969437391, ,1.5, ,0.5925978624963497, ,0.4138691047121487, ,0.048631660578355544
148, ,PASS, ,0.03234779, ,0.0032051328248667143, ,0.027638271410318157, ,0.000105883140515935, ,1.5, ,0.5936817694301282, ,0.41244056243750127, ,0.05408052896879655
149, ,PASS, ,0.032576401000000005, ,0.003222885055956164, ,0.02773658357315157, ,0.0001071858179277915, ,1.5, ,0.5936162060629547, ,0.41568539417562905, ,0.05569274096447011
150, ,PASS, ,0.03261272, ,0.003208869488112046, ,0.02786526397220465, ,0.00010678749513855329, ,1.5, ,0.5874290988648199, ,0.41442011387522704, ,0.04875410705903961
151, ,PASS, ,0.03262156800000001, ,0.0032289841583397288, ,0.02773058311575274, ,0.0001074474637368859, ,1.5, ,0.5938089030132222, ,0.4151752005061121, ,0.052468316973123
152, ,PASS, ,0.032456020000000016, ,0.0032310553371644106, ,0.027730086847248016, ,0.00010703442478101819, ,1.5, ,0.5940689098414129, ,0.414297667394543, ,0.05632538111467113
153, ,PASS, ,0.032600329, ,0.0032075792060605856, ,0.02773078174453583, ,0.0001066939400686471, ,1.5, ,0.5901162058964136, ,0.41439970612844634, ,0.05177445358257995
154, ,PASS, ,0.03253287300000001, ,0.003200688057092945, ,0.02772910835460501, ,0.00010630007157945097, ,1.5, ,0.5880822352191353, ,0.41405277443317484, ,0.05010101834656436
155, ,PASS, ,0.03226348600000001, ,0.0031810083753664254, ,0.027870086847003123, ,0.00010469038562972833, ,1.5, ,0.5918104413991486, ,0.4138895124589294, ,0.06161098753086672
156, ,PASS, ,0.03233568500000001, ,0.0031144621429985368, ,0.02764990693724618, ,0.00010285974002754891, ,1.5, ,0.5806434152455233, ,0.4138895124589294, ,0.040835901308136566
157, ,PASS, ,0.032393165000000015, ,0.0031766574517730645, ,0.027748776577008635, ,0.00010495975608366576, ,1.5, ,0.5876669640285004, ,0.41478745331727923, ,0.053549927552498926
158, ,PASS, ,0.03252933399999999, ,0.003170620823061947, ,0.02774141173943389, ,0.00010532611689981973, ,1.5, ,0.5844809261480108, ,0.414358890634885, ,0.05216220077141283
159, ,PASS, ,0.032387873, ,0.0031749600832670856, ,0.02785057746719455, ,0.00010489104124992598, ,1.5, ,0.5860574249920968, ,0.41235893145037855, ,0.04995816411909961
160, ,PASS, ,0.03264109100000002, ,0.0031861826962062117, ,0.02782484362210975, ,0.00010611775250410208, ,1.5, ,0.5820548669493384, ,0.41452215260913045, ,0.050060202853003
161, ,PASS, ,0.032758916000000006, ,0.0032483463867516212, ,0.027924492390828757, ,0.000108555203255063, ,1.5, ,0.5894175672238993, ,0.4139099202057101, ,0.05328462684435011
162, ,PASS, ,0.033124574000000025, ,0.003277904414597739, ,0.027700469660272238, ,0.00011077098275180544, ,1.5, ,0.5960447766099738, ,0.4139711434460521, ,0.04965204791738944
163, ,PASS, ,0.032666292999999985, ,0.003196773636748559, ,0.027820815703944818, ,0.00010661622771515181, ,1.5, ,0.5861679773536719, ,0.4142160364074203, ,0.048203097895961305
164, ,PASS, ,0.03284614599999999, ,0.0032315405626296336, ,0.027818523364237464, ,0.00010833417975908516, ,1.5, ,0.5893569454157106, ,0.41521601599967345, ,0.05116222117915961
165, ,PASS, ,0.032820065, ,0.0032563232272962276, ,0.02768335764325218, ,0.00010905705342437179, ,1.5, ,0.5900197505495883, ,0.4138895124589294, ,0.05528458602885655
166, ,PASS, ,0.032575566, ,0.0032257318125200485, ,0.027758561079243283, ,0.0001071595863213899, ,1.5, ,0.5915897973157418, ,0.4133589110426318, ,0.04306034570723046
167, ,PASS, ,0.032825388999999996, ,0.003228057958618478, ,0.027766936846370483, ,0.00010816192069402983, ,1.5, ,0.5851955756768855, ,0.4151547927593314, ,0.05157037611477317
168, ,PASS, ,0.03265074699999999, ,0.003215911675944481, ,0.02780115961362013, ,0.00010710276743880678, ,1.5, ,0.5885618007214288, ,0.4145425603559111, ,0.05487643109324299
169, ,PASS, ,0.032533717, ,0.0031825539217230307, ,0.027712249997408216, ,0.00010560771251916114, ,1.5, ,0.5826262410304114, ,0.41395073569927143, ,0.05634578886145181
170, ,PASS, ,0.032587804000000005, ,0.003187899460134444, ,0.02768362819501643, ,0.00010609872176633718, ,1.5, ,0.5850107510732695, ,0.4143792983816657, ,0.051019366951694865
171, ,PASS, ,0.03289257399999998, ,0.003285160563626845, ,0.027703998033305442, ,0.00011026124407040037, ,1.5833333333333333, ,0.5954756196851254, ,0.4145425603559111, ,0.051876492316483336
172, ,PASS, ,0.03248846700000001, ,0.003161833399059384, ,0.02767703269841432, ,0.00010479106700429994, ,1.5, ,0.5846619313272772, ,0.4143180751413236, ,0.0568151670374074
173, ,PASS, ,0.032566355, ,0.0031763908302528576, ,0.02783019743221567, ,0.00010556671337570983, ,1.5, ,0.5822846960045424, ,0.4142160364074203, ,0.052754025428052485
174, ,PASS, ,0.032509208, ,0.0031893397956934454, ,0.028010287979347362, ,0.00010573049127469758, ,1.5, ,0.5822509673652015, ,0.41358339625721924, ,0.05263157894736842
175, ,PASS, ,0.032390162, ,0.0031616930035810752, ,0.027858202416379256, ,0.00010447521965962779, ,1.5, ,0.5841293832640684, ,0.41407318217995553, ,0.04957041693026673
176, ,PASS, ,0.03278863199999999, ,0.003174153870756078, ,0.027815644285688047, ,0.0001062333402910739, ,1.5, ,0.5836114992106242, ,0.414358890634885, ,0.05424379094304198
177, ,PASS, ,0.032766816000000004, ,0.0032021878498642645, ,0.027910829779392257, ,0.00010693775554838541, ,1.5, ,0.5812640896276671, ,0.4142160364074203, ,0.04587661476296402
178, ,PASS, ,0.032936166, ,0.003203103141696034, ,0.027857664358625335, ,0.00010761778811106162, ,1.5, ,0.5843964387608807, ,0.4150119385318667, ,0.048529621844452156
179, ,PASS, ,0.032883221000000004, ,0.0031688970843879315, ,0.027686550618130242, ,0.00010635092248643762, ,1.5, ,0.582008508740236, ,0.4150731617722087, ,0.04259096753127487
180, ,PASS, ,0.033134247, ,0.003231128638396126, ,0.027784608030060613, ,0.00010921733477066987, ,1.5, ,0.5830234273963077, ,0.41356298851043855, ,0.04522356686598233
181, ,PASS, ,0.03282728099999999, ,0.003202947601020195, ,0.02787698145233771, ,0.00010730512449029277, ,1.5, ,0.5833530936087519, ,0.41458337584947247, ,0.05346829656537622
182, ,PASS, ,0.03270727000000001, ,0.003196034206186844, ,0.028092674397461277, ,0.00010670693143630549, ,1.5, ,0.5845791589506818, ,0.4148078610640599, ,0.0568151670374074
183, ,PASS, ,0.03285821200000001, ,0.0031824087384830944, ,0.02777066999902043, ,0.00010673622209627693, ,1.5, ,0.5825651391784131, ,0.4146445990898145, ,0.04895818452684639
184, ,PASS, ,0.03293836500000001, ,0.003216224619660293, ,0.027795965998857166, ,0.00010809286109498753, ,1.5, ,0.5845014010713259, ,0.41409358992673617, ,0.04955000918348605
185, ,PASS, ,0.03306600100000001, ,0.003230654087853948, ,0.02775974818193506, ,0.00010904602755810799, ,1.5, ,0.582953377863895, ,0.4148078610640599, ,0.050284688067590455
186, ,PASS, ,0.03292536500000001, ,0.0032225611516860314, ,0.027677882913165038, ,0.00010827860144568069, ,1.5, ,0.584841553667014, ,0.4146854145833758, ,0.049019407767188425
187, ,PASS, ,0.032875739000000015, ,0.00321220752260798, ,0.027698033905165204, ,0.0001077883462065634, ,1.5, ,0.5892593826955251, ,0.4146854145833758, ,0.05240709373278096
188, ,PASS, ,0.033087861, ,0.003195100747321107, ,0.02770538172504643, ,0.00010787255888303006, ,1.5, ,0.579725528013255, ,0.41446092936878837, ,0.04887655353972368
189, ,PASS, ,0.03288046099999999, ,0.003186425751868478, ,0.02773056958817167, ,0.00010687507699472072, ,1.5, ,0.5786579147094655, ,0.4142772596477623, ,0.051917307810044694
190, ,PASS, ,0.03301985500000001, ,0.0031935798066808243, ,0.027916527347196997, ,0.00010758234949742438, ,1.5, ,0.5789474449940085, ,0.41495071529152466, ,0.05097855145813351
191, ,PASS, ,0.032869006, ,0.003193744337114517, ,0.027792949031387112, ,0.00010716850191238936, ,1.5, ,0.5815903856722248, ,0.4157466174159711, ,0.049039815513969104
192, ,PASS, ,0.03329215299999999, ,0.0032222257745224965, ,0.027794208311769146, ,0.0001093879618391942, ,1.5, ,0.5820768487613803, ,0.41442011387522704, ,0.0492234852349952
193, ,PASS, ,0.033208693000000004, ,0.003234794360968186, ,0.02777944050892839, ,0.00010964214942102492, ,1.5, ,0.5846994123399057, ,0.41442011387522704, ,0.051182628925940284
194, ,PASS, ,0.033176267, ,0.003244390638973865, ,0.02779662957576376, ,0.00010984024369616922, ,1.5, ,0.5851105352865844, ,0.41448133711556906, ,0.05528458602885655
195, ,PASS, ,0.033559211000000005, ,0.0032910597173660895, ,0.02764582257984531, ,0.00011265164110531015, ,1.5, ,0.5868895379742355, ,0.41439970612844634, ,0.051019366951694865
196, ,PASS, ,0.033982160000000004, ,0.003312781620877651, ,0.027670445232178934, ,0.00011477059550606937, ,1.5, ,0.5826984085356773, ,0.41497112303830536, ,0.052264239505316216
197, ,PASS, ,0.038084628599999996, ,0.003991546655029394, ,0.027362671946899047, ,0.00015485233753615848, ,1.6666666666666667, ,0.6140826048319398, ,0.41444052162200773, ,0.060100814269096546
198, ,PASS, ,0.04995159999999997, ,0.011008741801524913, ,0.02551444163384419, ,0.0005627760581607939, ,2.0, ,0.9395876599164675, ,0.4141956286606396, ,0.3550131629966735
199, ,PASS, ,0.030890489000000007, ,0.0029954568816826393, ,0.02787457460731414, ,9.43826548049776e-05, ,1.5, ,0.5845217229318763, ,0.4146241913430338, ,0.04714189506336605
200, ,PASS, ,0.028797677000000008, ,0.002712674854581688, ,0.028110351055386625, ,7.981016867666009e-05, ,1.4166666666666667, ,0.5676898081116607, ,0.41442011387522704, ,0.05040713454827452
201, ,PASS, ,0.028749129000000005, ,0.002731762822930952, ,0.027997069756474355, ,8.022607547361828e-05, ,1.4166666666666667, ,0.5698116969705848, ,0.4164200730597335, ,0.049815309891634865
202, ,PASS, ,0.028995208999999987, ,0.0027567092587591916, ,0.028021568442623622, ,8.160216728821466e-05, ,1.4166666666666667, ,0.5745940478242797, ,0.4143792983816657, ,0.04808065141527724
203, ,PASS, ,0.029436200999999988, ,0.002750866822693439, ,0.027934547872349547, ,8.271419522275212e-05, ,1.4166666666666667, ,0.5684901283603204, ,0.41493030754474397, ,0.04279504499908165
204, ,PASS, ,0.02883980599999998, ,0.0027003237045151824, ,0.027955049978857574, ,7.952404884521737e-05, ,1.4166666666666667, ,0.5651150514032708, ,0.41409358992673617, ,0.04387665557845758
205, ,PASS, ,0.02872738099999999, ,0.0027237447260700137, ,0.027955074265606825, ,7.995611237009086e-05, ,1.4166666666666667, ,0.5754976725703571, ,0.4151752005061121, ,0.05406012122201588
206, ,PASS, ,0.028893072000000006, ,0.0027011306749937297, ,0.02798582570329177, ,7.968432172227957e-05, ,1.4166666666666667, ,0.5659156794895287, ,0.41460378359625316, ,0.04936633946245995
207, ,PASS, ,0.02871431099999999, ,0.0026938870132412083, ,0.028040909796330688, ,7.898983408743676e-05, ,1.4166666666666667, ,0.566193244590506, ,0.41446092936878837, ,0.04793779718781249
208, ,PASS, ,0.028505250999999995, ,0.002715105905785874, ,0.028080631351584662, ,7.908129421878751e-05, ,1.4166666666666667, ,0.5706357465983373, ,0.4143792983816657, ,0.053570335299279605
209, ,PASS, ,0.02867105199999999, ,0.0027095435467410886, ,0.028150951900797944, ,7.927878479243176e-05, ,1.4166666666666667, ,0.5696352737076296, ,0.41478745331727923, ,0.04842758311054876
210, ,PASS, ,0.028910521999999987, ,0.0027471016150013962, ,0.027894330380073877, ,8.111144239694993e-05, ,1.4166666666666667, ,0.5714860087697473, ,0.4152772392400155, ,0.050243872574029104
211, ,PASS, ,0.028798881000000005, ,0.002739303624900757, ,0.027930770777249446, ,8.05045832951224e-05, ,1.4166666666666667, ,0.5785461273584841, ,0.41411399767351686, ,0.04459092671578131
212, ,PASS, ,0.028677956999999983, ,0.0027053838193794723, ,0.028047700362400767, ,7.917894845679278e-05, ,1.4166666666666667, ,0.5705622284164079, ,0.415562947694945, ,0.054386645170506724
213, ,PASS, ,0.028864773999999996, ,0.0027291297003020653, ,0.028109391908675337, ,8.040374716423766e-05, ,1.4166666666666667, ,0.5665867431287002, ,0.41542009346748027, ,0.04789698169425114
214, ,PASS, ,0.028598106999999998, ,0.002720195266355802, ,0.028085181596600072, ,7.938007678517519e-05, ,1.4166666666666667, ,0.57312836244877, ,0.4150527540254281, ,0.05257035570702639
215, ,PASS, ,0.02881929599999998, ,0.002738707744370043, ,0.02788404108683496, ,8.05999298431592e-05, ,1.4166666666666667, ,0.5711326524802546, ,0.4142772596477623, ,0.05036631905471317
216, ,PASS, ,0.029105974000000014, ,0.0027460114582576168, ,0.0280586269596947, ,8.159429682517301e-05, ,1.4166666666666667, ,0.568997219522753, ,0.4146241913430338, ,0.044509295728658596
217, ,PASS, ,0.029137083, ,0.002753384201333452, ,0.028054355600967324, ,8.187282404891842e-05, ,1.4166666666666667, ,0.570532583809089, ,0.41562417093528703, ,0.052386685986000284
218, ,PASS, ,0.029198452, ,0.0027574282366725172, ,0.028142473256709048, ,8.21949807447488e-05, ,1.4166666666666667, ,0.5710899494346982, ,0.4141956286606396, ,0.0431215689475725
219, ,PASS, ,0.029158454999999996, ,0.0027475185169310436, ,0.028133580374543377, ,8.180602119284035e-05, ,1.4166666666666667, ,0.5671214525724341, ,0.41395073569927143, ,0.04840717536376809
220, ,PASS, ,0.029100977999999993, ,0.0027114338840818182, ,0.027868803358768186, ,8.065867764989384e-05, ,1.4166666666666667, ,0.562829764054415, ,0.4148282688108406, ,0.05120303667272096
221, ,PASS, ,0.029040667000000013, ,0.002713248451458851, ,0.02802355591477725, ,8.044700395867559e-05, ,1.4166666666666667, ,0.5612664140073444, ,0.41452215260913045, ,0.04895818452684639
222, ,PASS, ,0.029108967999999992, ,0.0026851682482827, ,0.027963059620844475, ,7.988388211791142e-05, ,1.4166666666666667, ,0.5654685614592287, ,0.4145425603559111, ,0.050631619762861985
223, ,PASS, ,0.028855145, ,0.002689513198465989, ,0.02803270683196261, ,7.933457217912999e-05, ,1.4166666666666667, ,0.5654208291876995, ,0.413787473725026, ,0.051060182445256216
224, ,PASS, ,0.028783945999999994, ,0.002691075580170581, ,0.028003357832860554, ,7.91342062782247e-05, ,1.4166666666666667, ,0.5623391006488871, ,0.4135221730168772, ,0.04963164017060876
225, ,PASS, ,0.029046052000000003, ,0.002731955591875182, ,0.027991747114813986, ,8.098176415001279e-05, ,1.4166666666666667, ,0.5662117754873165, ,0.4148078610640599, ,0.05132548315340503
226, ,PASS, ,0.02922687100000001, ,0.0028104813359525124, ,0.02813819822156691, ,8.387580453007915e-05, ,1.5, ,0.5746017395790838, ,0.4139711434460521, ,0.049325523968898596
227, ,PASS, ,0.02899416100000001, ,0.0027573421021528325, ,0.028043566803024427, ,8.159121841954105e-05, ,1.4166666666666667, ,0.5704712085227779, ,0.41452215260913045, ,0.05052958102895859
228, ,PASS, ,0.028846198999999996, ,0.0026790920708029417, ,0.027946200571559766, ,7.895720248483089e-05, ,1.4166666666666667, ,0.5624394416189233, ,0.4138282892185874, ,0.05408052896879655
229, ,PASS, ,0.029003361000000012, ,0.002721481580906414, ,0.028103074721944447, ,8.064272815017455e-05, ,1.4166666666666667, ,0.5654636180045655, ,0.41452215260913045, ,0.05014183384012571
230, ,PASS, ,0.028981735999999977, ,0.0027074957404162056, ,0.027969936554151958, ,8.011743802806848e-05, ,1.4166666666666667, ,0.5608958507432347, ,0.41403236668639415, ,0.047386788024734186
231, ,PASS, ,0.02908129199999999, ,0.0027261608413748704, ,0.02823160432019755, ,8.092136883590075e-05, ,1.4166666666666667, ,0.5624689083606267, ,0.41533846248035755, ,0.05034591130793249
232, ,PASS, ,0.028990573, ,0.0026593767448201133, ,0.028131223460235506, ,7.877350848966495e-05, ,1.4166666666666667, ,0.5562960791137123, ,0.4143792983816657, ,0.048141874655619275
233, ,PASS, ,0.028996926999999992, ,0.0027110985909433918, ,0.028067277203118305, ,8.029457820569096e-05, ,1.4166666666666667, ,0.5674813981990303, ,0.4150323462786474, ,0.0519989387971674
234, ,PASS, ,0.029310125999999992, ,0.0028164531200653184, ,0.027944771085712534, ,8.436002991086123e-05, ,1.5, ,0.5750594521514232, ,0.4146650068365952, ,0.04640721617926165
235, ,PASS, ,0.029257377999999997, ,0.002701481994866069, ,0.028100504251505072, ,8.071617114597934e-05, ,1.4166666666666667, ,0.5635435561451414, ,0.41460378359625316, ,0.049794902144854186
236, ,PASS, ,0.02928028900000002, ,0.0027196884613240476, ,0.028101047258035552, ,8.133077561564763e-05, ,1.4166666666666667, ,0.5604979523995052, ,0.4147058223301565, ,0.04955000918348605
237, ,PASS, ,0.029352657000000004, ,0.002741416781001159, ,0.027893445939797146, ,8.214788972031974e-05, ,1.4166666666666667, ,0.5627865031590454, ,0.4142160364074203, ,0.04475418869002674
238, ,PASS, ,0.029352695999999987, ,0.0027208606040426556, ,0.027998390284177874, ,8.16177342352118e-05, ,1.4166666666666667, ,0.5656352868832069, ,0.41486908430440195, ,0.041203240750188774
239, ,PASS, ,0.029228752000000007, ,0.0027206101220704324, ,0.028035146143405236, ,8.117908540488564e-05, ,1.4166666666666667, ,0.5612858018660956, ,0.41446092936878837, ,0.046937817595559275
240, ,PASS, ,0.029528839, ,0.0027264892466329306, ,0.027946601073631148, ,8.22159112544598e-05, ,1.4166666666666667, ,0.5567504967138881, ,0.414358890634885, ,0.04750923450541826
241, ,PASS, ,0.02949350399999999, ,0.0027404882449771732, ,0.02795327627289239, ,8.24890132579703e-05, ,1.4166666666666667, ,0.5640122837932193, ,0.41448133711556906, ,0.05154996836799249
242, ,PASS, ,0.029545697000000003, ,0.002750874443623188, ,0.028048094875696414, ,8.298614740678245e-05, ,1.4166666666666667, ,0.5656675256527355, ,0.41452215260913045, ,0.05124385216628232
243, ,PASS, ,0.029806123000000018, ,0.0027725478294189526, ,0.02802626704536642, ,8.438573936442725e-05, ,1.4166666666666667, ,0.5641896269308206, ,0.4143180751413236, ,0.04442766474153589
244, ,PASS, ,0.029783629000000027, ,0.0027824619419556836, ,0.028089804865043567, ,8.460673753647884e-05, ,1.4166666666666667, ,0.560162075032348, ,0.41439970612844634, ,0.04522356686598233
245, ,PASS, ,0.029610746000000014, ,0.0027930809334212464, ,0.028121677283279932, ,8.447138587592207e-05, ,1.4166666666666667, ,0.5681865761743705, ,0.4150935695189894, ,0.05040713454827452
246, ,PASS, ,0.029765765999999992, ,0.0027671891586695785, ,0.027853747687312504, ,8.41137738173569e-05, ,1.4166666666666667, ,0.5604450094391675, ,0.4150731617722087, ,0.04169302667292504
247, ,PASS, ,0.029749197000000005, ,0.002796279779901124, ,0.027986310262157914, ,8.484427138591709e-05, ,1.4166666666666667, ,0.5647334247867285, ,0.41542009346748027, ,0.048243913389522664
248, ,PASS, ,0.029823116, ,0.0027593214487653516, ,0.028176345361176303, ,8.402071154332202e-05, ,1.4166666666666667, ,0.5594215754352816, ,0.4143792983816657, ,0.051060182445256216
249, ,PASS, ,0.029641490000000006, ,0.002783306800820375, ,0.02800314523085243, ,8.42187994615977e-05, ,1.4166666666666667, ,0.5660668063957094, ,0.4131344258280443, ,0.043264423175037245
250, ,PASS, ,0.02954593199999999, ,0.0027968238929722174, ,0.02821423753698904, ,8.422329767359948e-05, ,1.4166666666666667, ,0.5662961126775233, ,0.413726250484684, ,0.05073365849676537
251, ,PASS, ,0.02969280400000003, ,0.002763034590564132, ,0.02803325420850595, ,8.38269275990629e-05, ,1.4166666666666667, ,0.5620261584515216, ,0.41452215260913045, ,0.049896940878757574
252, ,PASS, ,0.029380042999999995, ,0.002712608273533357, ,0.02796468613975225, ,8.138184601217657e-05, ,1.4166666666666667, ,0.5598081800622181, ,0.41442011387522704, ,0.04548886757413114
253, ,PASS, ,0.029422429999999992, ,0.002754450473898583, ,0.027935980227934126, ,8.275730109649926e-05, ,1.4166666666666667, ,0.5653617301280456, ,0.415501724454603, ,0.05687639027774943
254, ,PASS, ,0.029808026000000012, ,0.0027839897092072755, ,0.02792628383845228, ,8.469933230938092e-05, ,1.4166666666666667, ,0.5667135637046553, ,0.4145425603559111, ,0.05046835778861656
255, ,PASS, ,0.029890935, ,0.0027454492699254436, ,0.027958062454174405, ,8.383756047386416e-05, ,1.4166666666666667, ,0.5589843226641941, ,0.4150527540254281, ,0.04687659435521724
