Channel, ,Pass/Fail, ,Amplitude, ,Sorting Function Response, ,Mean, ,Variance, ,NPeaksRatio, ,PosIntegralRatio, ,ToT50, ,ToT99
0, ,PASS, ,0.10259952, ,0.013452831512895192, ,0.0401801847876778, ,0.0013821004758480357, ,1.6666666666666667, ,0.6869361208006866, ,0.4959898777575968, ,0.068753698904104
1, ,PASS, ,0.10104470999999998, ,0.01337482372267865, ,0.03990271736499255, ,0.001353129060083422, ,1.6666666666666667, ,0.6907794555989922, ,0.49490826717822084, ,0.07473316871084264
2, ,PASS, ,0.10124996, ,0.013487265257818558, ,0.040036016656333544, ,0.0013674898527489012, ,1.6666666666666667, ,0.6933523798031497, ,0.4947858206975368, ,0.07950858145752128
3, ,PASS, ,0.10084507599999998, ,0.013397025030712422, ,0.03992202843299116, ,0.0013525528856890793, ,1.6666666666666667, ,0.6908490100657659, ,0.4926430072855656, ,0.07459031448337788
4, ,PASS, ,0.10124445400000003, ,0.013364865243599618, ,0.04013800642811371, ,0.0013547844689011544, ,1.6666666666666667, ,0.6887917482441132, ,0.4938470643456256, ,0.06836595171527111
5, ,PASS, ,0.10198836000000003, ,0.013557908188651742, ,0.03999783433136058, ,0.001384738241934765, ,1.6666666666666667, ,0.6926152590656502, ,0.4940511418134324, ,0.07818207791677721
6, ,PASS, ,0.16219831, ,0.020653184754829693, ,0.041049514578294324, ,0.003355784537970541, ,1.6666666666666667, ,0.677688636227953, ,0.4977041284871737, ,0.056794759290626724
7, ,PASS, ,0.11025129000000004, ,0.01580633284356858, ,0.03879875983681966, ,0.0017468631759765378, ,1.75, ,0.7215152480847821, ,0.48176567825146427, ,0.09787555356013143
8, ,PASS, ,0.06099453200000002, ,0.010507062655768068, ,0.037223579808248815, ,0.0006446125159780359, ,1.9166666666666667, ,0.7928190205336165, ,0.4615416011918124, ,0.10563049733678904
9, ,PASS, ,0.05973493100000001, ,0.010329280346947233, ,0.03716569004824392, ,0.0006205306290040896, ,1.9166666666666667, ,0.7952147682930737, ,0.45964368074120937, ,0.1056713128303504
10, ,PASS, ,0.05984288400000003, ,0.010313392364489278, ,0.037151254940552235, ,0.000620782594834007, ,1.9166666666666667, ,0.7920269966271678, ,0.459602865247648, ,0.09371237321687312
11, ,PASS, ,0.05951865, ,0.010259560922966648, ,0.03734995272351585, ,0.000614278498811885, ,1.9166666666666667, ,0.7924679497752006, ,0.46050080610599786, ,0.09516132323830126
12, ,PASS, ,0.059784514, ,0.010303829773496444, ,0.037125171783759514, ,0.0006194005034296811, ,1.9166666666666667, ,0.7914972650007978, ,0.46082733005448867, ,0.0961408950837738
13, ,PASS, ,0.05982410400000001, ,0.010341898787897028, ,0.03743683535850289, ,0.0006221824949768308, ,1.9166666666666667, ,0.7940404951608196, ,0.4610518152690761, ,0.10456929450419379
14, ,PASS, ,0.05987981500000002, ,0.010330502380549394, ,0.03722158601469358, ,0.0006221558729944598, ,1.9166666666666667, ,0.7919629136929731, ,0.46111303850941815, ,0.09469194506234567
15, ,PASS, ,0.05993146399999999, ,0.010337311036409684, ,0.037234781683884006, ,0.0006229545538514094, ,1.9166666666666667, ,0.7940310654166883, ,0.4622762800759168, ,0.10748760229383074
16, ,PASS, ,0.060032938, ,0.010303641467974784, ,0.0371791389415114, ,0.0006223540877787988, ,1.9166666666666667, ,0.7912525921715967, ,0.4617252709128385, ,0.09189608375339278
17, ,PASS, ,0.05985816700000001, ,0.010353982826065785, ,0.037431369494969495, ,0.0006230936801706065, ,1.9166666666666667, ,0.7939016882520094, ,0.4610314075222955, ,0.10967123119936328
18, ,PASS, ,0.05977748400000002, ,0.010292873582505063, ,0.03739228589659395, ,0.0006186533487385167, ,1.9166666666666667, ,0.79290276313407, ,0.46158241668537375, ,0.10148772474031142
19, ,PASS, ,0.05949008600000001, ,0.01026055997170536, ,0.03715774808932471, ,0.0006141025662537866, ,1.9166666666666667, ,0.7933156662809638, ,0.46162323217893514, ,0.10667129242260362
20, ,PASS, ,0.05919842300000001, ,0.010211465938189354, ,0.03720394345864371, ,0.0006080175897757171, ,1.9166666666666667, ,0.7922403028414475, ,0.46050080610599786, ,0.09765106834554396
21, ,PASS, ,0.059074125999999984, ,0.010197306792463067, ,0.0371755770798147, ,0.0006059550443830959, ,1.9166666666666667, ,0.791878752333346, ,0.45870492438929816, ,0.09673271974041346
22, ,PASS, ,0.058723146, ,0.010138597234546824, ,0.037205375326625996, ,0.0005988893488431353, ,1.9166666666666667, ,0.7922382153361679, ,0.4606436603334626, ,0.09942654231546295
23, ,PASS, ,0.05812708600000002, ,0.010055049912018468, ,0.0373062268398196, ,0.0005882112890830951, ,1.9166666666666667, ,0.794447833859797, ,0.4608885532948307, ,0.09834493173608702
24, ,PASS, ,0.05793229799999999, ,0.010002512067712568, ,0.037184453666659865, ,0.000583087546789929, ,1.9166666666666667, ,0.7938659597180571, ,0.46121507724332156, ,0.10175302544846024
25, ,PASS, ,0.05784433400000001, ,0.009990640241510732, ,0.0372290197884329, ,0.0005813083335811962, ,1.9166666666666667, ,0.7924646210436518, ,0.46084773780126936, ,0.098916348645946
26, ,PASS, ,0.05776826000000001, ,0.009953205130897286, ,0.03729205070210813, ,0.0005783966644728999, ,1.9166666666666667, ,0.7920192743385498, ,0.4609905920287341, ,0.09369196547009245
27, ,PASS, ,0.05778955100000002, ,0.009924339001562964, ,0.03724501402730557, ,0.0005768097179924224, ,1.9166666666666667, ,0.790887522124945, ,0.4609497765351728, ,0.08297789841023652
28, ,PASS, ,0.05775635500000002, ,0.009985458467650279, ,0.03729470826246404, ,0.000580272894692308, ,1.9166666666666667, ,0.7926811740942385, ,0.4613987469643477, ,0.09912042611375278
29, ,PASS, ,0.05800534300000001, ,0.009987096487503429, ,0.03728984429942246, ,0.0005828508697896348, ,1.9166666666666667, ,0.7921814900989648, ,0.4601946899042877, ,0.1024264810922226
30, ,PASS, ,0.05814337200000001, ,0.01000882380615874, ,0.037284219928205554, ,0.0005853169156688837, ,1.9166666666666667, ,0.7910805165912993, ,0.46117426174976023, ,0.09444705210097754
31, ,PASS, ,0.05831175599999999, ,0.010055501811022681, ,0.037193093711985474, ,0.0005896749111100548, ,1.9166666666666667, ,0.7919891034788957, ,0.4619089406338646, ,0.10042652190771617
32, ,PASS, ,0.058381243, ,0.010084699282967876, ,0.03720644392169548, ,0.0005920763787097848, ,1.9166666666666667, ,0.7938327968431362, ,0.46262321177118837, ,0.10922226077018836
33, ,PASS, ,0.058474353999999985, ,0.010053131188977913, ,0.03745678246225587, ,0.0005912510631832151, ,1.9166666666666667, ,0.7920921779514578, ,0.46278647374543375, ,0.10181424868880228
34, ,PASS, ,0.05849879300000002, ,0.010047555218192636, ,0.03722909976253547, ,0.0005910361669374311, ,1.9166666666666667, ,0.7896544090192149, ,0.462582396277627, ,0.09810003877471889
35, ,PASS, ,0.058208078999999996, ,0.010052238743679326, ,0.037392149247423526, ,0.0005884004136527701, ,1.9166666666666667, ,0.7949859568936166, ,0.4638680843248097, ,0.117609844697047
36, ,PASS, ,0.058395902999999985, ,0.010035748019248548, ,0.03755399580849371, ,0.0005893937680534377, ,1.9166666666666667, ,0.7908348183204386, ,0.46323544417460866, ,0.10028366768025142
37, ,PASS, ,0.05840278100000002, ,0.010000215426447055, ,0.037355959748331675, ,0.0005871362697927337, ,1.9166666666666667, ,0.7902015444430444, ,0.463215036427828, ,0.09122262810963042
38, ,PASS, ,0.05815993499999999, ,0.009979251543733378, ,0.03736119236193139, ,0.0005837017691915715, ,1.9166666666666667, ,0.7901062012081068, ,0.4618069018999612, ,0.1040999163282382
39, ,PASS, ,0.05813339499999999, ,0.00999031481657967, ,0.037435734058672274, ,0.000584080013584023, ,1.9166666666666667, ,0.7910658088961648, ,0.4635619681230995, ,0.10803861145690904
40, ,PASS, ,0.05903769499999999, ,0.010179761723006484, ,0.03720095321987307, ,0.0006041972118488937, ,1.9166666666666667, ,0.7912186505865806, ,0.4634599293891961, ,0.11177322911777311
41, ,PASS, ,0.058259113000000015, ,0.010022269066796412, ,0.03709523392416482, ,0.0005872113080699147, ,1.9166666666666667, ,0.790253164002125, ,0.4629497357196792, ,0.10238566559866125
42, ,PASS, ,0.05804481400000003, ,0.009928965554357268, ,0.03718321763743598, ,0.0005793652543525716, ,1.9166666666666667, ,0.7900580309367559, ,0.46299055121324056, ,0.10248770433256464
43, ,PASS, ,0.057789404, ,0.009956443480634352, ,0.03703093237472705, ,0.0005783092036252391, ,1.9166666666666667, ,0.7924910609207604, ,0.46354156037631883, ,0.10905899879594294
44, ,PASS, ,0.057758033000000035, ,0.009922210901793571, ,0.037047258746862315, ,0.0005761575512796024, ,1.9166666666666667, ,0.7886996672132008, ,0.46205179486132936, ,0.09689598171465888
45, ,PASS, ,0.05775030200000002, ,0.009908559058328223, ,0.037116796111732415, ,0.000575275114070522, ,1.9166666666666667, ,0.7891094180476236, ,0.46327625966817004, ,0.10316115997632701
46, ,PASS, ,0.05770525100000004, ,0.009902178522294401, ,0.037206675329544296, ,0.0005744389377458599, ,1.9166666666666667, ,0.7902530639658866, ,0.4642762392604233, ,0.10052856064161955
47, ,PASS, ,0.05792818800000002, ,0.009932196103705384, ,0.03702936175878044, ,0.0005783725307127147, ,1.9166666666666667, ,0.7891654594496957, ,0.4638680843248097, ,0.10432440154282566
48, ,PASS, ,0.058793887, ,0.010091191635086955, ,0.037273792237423733, ,0.0005964216376004431, ,1.9166666666666667, ,0.7918837058359371, ,0.4653374420930185, ,0.121222015877227
49, ,PASS, ,0.05744296400000005, ,0.00989143772617832, ,0.037044314602497914, ,0.0005715512924586727, ,1.9166666666666667, ,0.7903415101508163, ,0.46380686108446767, ,0.10681414665006837
50, ,PASS, ,0.05717579000000005, ,0.00982122111636348, ,0.03726080670049591, ,0.000564438243046032, ,1.9166666666666667, ,0.7894209607181809, ,0.46245994979694294, ,0.10332442195057244
51, ,PASS, ,0.05744099700000003, ,0.009837620360788939, ,0.037223517621375074, ,0.0005680122670046945, ,1.9166666666666667, ,0.7894443062382304, ,0.46252117303728496, ,0.1056713128303504
52, ,PASS, ,0.057490558, ,0.00985774512867703, ,0.0369716760376727, ,0.0005698479565285249, ,1.9166666666666667, ,0.7889291182664426, ,0.46131711597722497, ,0.10379380012652803
53, ,PASS, ,0.05736346800000002, ,0.009873307188432141, ,0.03726259786000286, ,0.0005694104326724855, ,1.9166666666666667, ,0.7913455402674949, ,0.46407216179261646, ,0.10999775514785412
54, ,PASS, ,0.05749180700000001, ,0.009854295271803714, ,0.03723506330413665, ,0.0005696805205504295, ,1.9166666666666667, ,0.7888148672958385, ,0.4639701230587131, ,0.10201832615660905
55, ,PASS, ,0.05724491100000004, ,0.009838153632932181, ,0.03714926504812147, ,0.0005662521938951501, ,1.9166666666666667, ,0.7895133754802174, ,0.46178649415318057, ,0.0982633007489643
56, ,PASS, ,0.05701535100000004, ,0.009735992429871233, ,0.037119888630578975, ,0.0005580495904467459, ,1.9166666666666667, ,0.787138246978117, ,0.4630925899471439, ,0.08530438154323382
57, ,PASS, ,0.05659859200000003, ,0.009735724358330056, ,0.037154185144180736, ,0.0005539130461325361, ,1.9166666666666667, ,0.7904593741729545, ,0.46297014346645987, ,0.10334482969735312
58, ,PASS, ,0.05640524600000003, ,0.009690926052607293, ,0.037017212319054714, ,0.0005492437087460247, ,1.9166666666666667, ,0.7892422786820535, ,0.46245994979694294, ,0.09912042611375278
59, ,PASS, ,0.056461671000000026, ,0.009640822877234641, ,0.03697181093791964, ,0.0005472020806631301, ,1.9166666666666667, ,0.7871776587634166, ,0.4626844350115304, ,0.0842023632170772
60, ,PASS, ,0.05671612700000004, ,0.009745986747022282, ,0.037031760015734376, ,0.0005555523780479594, ,1.9166666666666667, ,0.7904272801226149, ,0.4634191138956348, ,0.10332442195057244
61, ,PASS, ,0.05689238500000004, ,0.00970325553024319, ,0.03719241910528357, ,0.0005554998875121312, ,1.9166666666666667, ,0.7882608890239107, ,0.463786453337687, ,0.08946756188649212
62, ,PASS, ,0.05677633800000003, ,0.009741859929704019, ,0.036950435273504625, ,0.0005558455150690559, ,1.9166666666666667, ,0.7893470267363158, ,0.4612967082304443, ,0.10267137405359074
63, ,PASS, ,0.056930634000000015, ,0.009768851460847022, ,0.03710028057996776, ,0.000559112922203729, ,1.9166666666666667, ,0.7916201283964546, ,0.4627252505050917, ,0.11299769392461378
64, ,PASS, ,0.05761934400000002, ,0.009843608145963231, ,0.03690187796161303, ,0.0005700541843418163, ,1.9166666666666667, ,0.7866512759794612, ,0.46323544417460866, ,0.08669210832431991
65, ,PASS, ,0.05784363000000002, ,0.00993284411176914, ,0.03726551698408197, ,0.00057762808492509, ,1.9166666666666667, ,0.7893107276708948, ,0.464419093487888, ,0.10563049733678904
66, ,PASS, ,0.05845690399999999, ,0.009973858219599188, ,0.03715052633707476, ,0.0005859873688186738, ,1.9166666666666667, ,0.7880877486313925, ,0.4651945878655538, ,0.10173261770167956
67, ,PASS, ,0.05857645200000003, ,0.010027196674664932, ,0.03718012971167936, ,0.000590348807874598, ,1.9166666666666667, ,0.7874399920748937, ,0.464357870247546, ,0.10683455439684904
68, ,PASS, ,0.058535432, ,0.010043379536766742, ,0.0371439303711761, ,0.0005907001542880425, ,1.9166666666666667, ,0.7880718744493664, ,0.46450072447501073, ,0.10618150649986735
69, ,PASS, ,0.058988782000000003, ,0.010000949322005218, ,0.03721663153707067, ,0.0005928167724518876, ,1.9166666666666667, ,0.7865142071587063, ,0.4655823350543866, ,0.09773269933266668
70, ,PASS, ,0.05861979300000002, ,0.009989532277306536, ,0.03712099112728312, ,0.0005888648339717432, ,1.9166666666666667, ,0.7871161791163584, ,0.4652149956123344, ,0.10926307626374972
71, ,PASS, ,0.058399378, ,0.009970238674565375, ,0.03731151339862453, ,0.0005855249133810116, ,1.9166666666666667, ,0.7863868773660033, ,0.4643986857411073, ,0.08907981469765923
72, ,PASS, ,0.05828980100000004, ,0.009979222800737363, ,0.037123245869288383, ,0.0005845195435343207, ,1.9166666666666667, ,0.7881849477695569, ,0.46490887941062425, ,0.11648741862410972
73, ,PASS, ,0.05805877400000001, ,0.00998175290929682, ,0.037178499045978655, ,0.0005822744151265178, ,1.9166666666666667, ,0.7909236291853267, ,0.46466398644925616, ,0.11805881512622192
74, ,PASS, ,0.05794603900000003, ,0.009943139708570305, ,0.03699906907820249, ,0.0005788072461092411, ,1.9166666666666667, ,0.7889536976004236, ,0.46445990898144934, ,0.11042631783024837
75, ,PASS, ,0.05763196100000006, ,0.009896498938643071, ,0.03726096668474113, ,0.0005736360719373987, ,1.9166666666666667, ,0.7899240961088876, ,0.4639293075651517, ,0.10977326993326667
76, ,PASS, ,0.057595204000000025, ,0.009893818434950769, ,0.03722836709807963, ,0.0005729567018567773, ,1.9166666666666667, ,0.7903851893247053, ,0.4648884716638436, ,0.1125283157486582
77, ,PASS, ,0.05768463100000004, ,0.009861458795977667, ,0.03709770959602866, ,0.0005717918585482851, ,1.9166666666666667, ,0.7860460457858813, ,0.4624803575437236, ,0.09912042611375278
78, ,PASS, ,0.05748574700000001, ,0.009852334655767365, ,0.037015626355707036, ,0.0005692072360495306, ,1.9166666666666667, ,0.7901843544098995, ,0.4630721822003633, ,0.11177322911777311
79, ,PASS, ,0.057442720000000044, ,0.009853106239223844, ,0.03714440946523541, ,0.0005689146089956175, ,1.9166666666666667, ,0.7897659968045804, ,0.4640313462990551, ,0.11097732699332667
80, ,PASS, ,0.059681574000000015, ,0.01021690559688673, ,0.03703509148637783, ,0.0006127732070939316, ,1.9166666666666667, ,0.7881099280850435, ,0.4642354237668619, ,0.1092834840105304
81, ,PASS, ,0.12701596999999998, ,0.017592522281939357, ,0.039030049304871334, ,0.0022392139947449525, ,1.75, ,0.7091867711543042, ,0.4869900614273178, ,0.08085549274504603
82, ,PASS, ,0.089239872, ,0.013307255443054382, ,0.03812743796602111, ,0.0011904580221277228, ,1.75, ,0.7357737010348309, ,0.4781126915777229, ,0.12344646027632089
83, ,PASS, ,0.05438427000000003, ,0.009380119455129473, ,0.03725619004073386, ,0.0005130165571022514, ,1.9166666666666667, ,0.7922803262292769, ,0.46329666741495074, ,0.10858962061998735
84, ,PASS, ,0.05389801100000002, ,0.009167305934904025, ,0.03689740818330238, ,0.0004967108723873229, ,1.9166666666666667, ,0.7845851361406717, ,0.4612763004836636, ,0.07140670598559214
85, ,PASS, ,0.05359621000000002, ,0.009206740866415776, ,0.03720079784473786, ,0.000496398670747799, ,1.9166666666666667, ,0.7912903188424548, ,0.4628476969857758, ,0.09785514581335075
86, ,PASS, ,0.05375850000000001, ,0.009213563711019295, ,0.037103825325401525, ,0.0004981614673826002, ,1.9166666666666667, ,0.7895591980470725, ,0.462643619517969, ,0.09663068100651007
87, ,PASS, ,0.05367459000000002, ,0.009234193275100694, ,0.03727827349707149, ,0.0004986217328604899, ,1.9166666666666667, ,0.7901763451063047, ,0.46243954205016224, ,0.09805922328115753
88, ,PASS, ,0.05355617000000002, ,0.009232732558365455, ,0.03706183961449766, ,0.0004973241470643288, ,1.9166666666666667, ,0.7918784109503805, ,0.4626028040244077, ,0.1065896614354809
89, ,PASS, ,0.05373611, ,0.009213310740757022, ,0.03695894820248566, ,0.0004979341253069675, ,1.9166666666666667, ,0.7897767072593525, ,0.46119466949654087, ,0.09958980428970837
90, ,PASS, ,0.05376388000000004, ,0.009205838780675024, ,0.03714812584090121, ,0.0004975254546295196, ,1.9166666666666667, ,0.7864842511768111, ,0.462010979367768, ,0.08918185343156262
91, ,PASS, ,0.053949660000000024, ,0.00928381161334749, ,0.037233226393747064, ,0.0005034043119086821, ,1.9166666666666667, ,0.7889508274746019, ,0.4631946286810473, ,0.10097753107079448
92, ,PASS, ,0.05454911000000004, ,0.009345652111212214, ,0.037190178537989026, ,0.0005123314817837212, ,1.9166666666666667, ,0.7898387884851746, ,0.4643170547539846, ,0.10683455439684904
93, ,PASS, ,0.05401347000000002, ,0.009250858004562688, ,0.0371641127262709, ,0.0005025269683477938, ,1.9166666666666667, ,0.7891646591766568, ,0.4639088998183711, ,0.100120405706006
94, ,PASS, ,0.05412620000000003, ,0.009317919089113022, ,0.03739451160731414, ,0.000507077228088378, ,1.9166666666666667, ,0.7903715189479931, ,0.4633987061488541, ,0.10783453398910227
95, ,PASS, ,0.05395895000000002, ,0.009308111070516675, ,0.037206488186363545, ,0.0005048884779768774, ,1.9166666666666667, ,0.7923436583141912, ,0.4636027836166609, ,0.11985469684292158
96, ,PASS, ,0.05409523600000002, ,0.00929533302697172, ,0.037221946775576005, ,0.0005053774246549063, ,1.9166666666666667, ,0.7901771070368648, ,0.46374563784412565, ,0.09912042611375278
97, ,PASS, ,0.05426690000000002, ,0.009312969841995289, ,0.03727029722081182, ,0.0005081694982285673, ,1.9166666666666667, ,0.7903622345390555, ,0.463786453337687, ,0.1083651354053999
98, ,PASS, ,0.05448147000000002, ,0.009288479882770618, ,0.03716392389828779, ,0.0005086257587201755, ,1.9166666666666667, ,0.7873284784717987, ,0.46413338503295853, ,0.09034509499806126
99, ,PASS, ,0.05460123000000004, ,0.009334435771850242, ,0.03721412947368421, ,0.0005123465466086479, ,1.9166666666666667, ,0.7895857009139747, ,0.4646231709556948, ,0.1138956347829636
100, ,PASS, ,0.05510830900000005, ,0.00947219102072929, ,0.03721367536060489, ,0.0005245889806425328, ,1.9166666666666667, ,0.7912986025553169, ,0.46492928715740495, ,0.1352013224219914
101, ,PASS, ,0.05394281000000002, ,0.009265609133460388, ,0.03720494466786392, ,0.0005025686124258424, ,1.9166666666666667, ,0.7913610178821512, ,0.46407216179261646, ,0.11683435031938123
102, ,PASS, ,0.05394916000000004, ,0.009229172693243113, ,0.03713439831166711, ,0.0005006124466441676, ,1.9166666666666667, ,0.7893461930089875, ,0.46452113222179137, ,0.10565090508356972
103, ,PASS, ,0.053532470000000026, ,0.00918717430094539, ,0.03711042977604539, ,0.0004944347376743265, ,1.9166666666666667, ,0.7908180144925799, ,0.4634599293891961, ,0.11420175098467378
104, ,PASS, ,0.05327622000000003, ,0.009160181157020485, ,0.037113346324360724, ,0.0004905057672073847, ,1.9166666666666667, ,0.7902325546464516, ,0.4623170955694782, ,0.10122242403216261
105, ,PASS, ,0.053619226000000034, ,0.009178815877630898, ,0.03705602698516357, ,0.0004948147934001001, ,1.9166666666666667, ,0.7864389634726001, ,0.4626844350115304, ,0.08399828574927043
106, ,PASS, ,0.053112100000000016, ,0.009067621203704447, ,0.037061401650170404, ,0.0004842641839329467, ,1.9166666666666667, ,0.7850866253793265, ,0.46125589273688294, ,0.08063100753045856
107, ,PASS, ,0.052315459000000036, ,0.008966700158905229, ,0.03722434658313095, ,0.0004719030288222702, ,1.9166666666666667, ,0.7891220634940711, ,0.4627252505050917, ,0.09075324993367483
108, ,PASS, ,0.05193734, ,0.008963099422746845, ,0.037104227902491786, ,0.0004680768326814173, ,1.9166666666666667, ,0.7912326849437623, ,0.46035795187853307, ,0.10079386134976837
109, ,PASS, ,0.04560655999999998, ,0.007465559638055024, ,0.036403766053754005, ,0.0003439543236590448, ,1.8333333333333333, ,0.7621769663266228, ,0.45205199893879716, ,0.059162057917185366
