Channel, ,Pass/Fail, ,Amplitude, ,Sorting Function Response, ,Mean, ,Variance, ,NPeaksRatio, ,PosIntegralRatio, ,ToT50, ,ToT99
56, ,PASS, ,0.07397945056, ,0.011748593535955483, ,0.04443288169196548, ,0.0008759523167310271, ,1.75, ,0.7851773510173959, ,0.5911920164894594, ,0.12018122079141243
57, ,PASS, ,0.07135952200000001, ,0.011236310619717176, ,0.04414129036764556, ,0.0008083248530094741, ,1.75, ,0.7816415410677565, ,0.5903961143650129, ,0.1126099467357809
58, ,PASS, ,0.055957345000000006, ,0.008971811956493854, ,0.04291714683353401, ,0.0005064029284782854, ,1.75, ,0.7883799138844634, ,0.5911920164894594, ,0.11414052774433175
59, ,PASS, ,0.0276781, ,0.004548681492009987, ,0.04078892910022244, ,0.00012688881931485375, ,1.75, ,0.795119649844279, ,0.593375645394992, ,0.1402012203832575
60, ,PASS, ,0.03245056999999999, ,0.005040793010000994, ,0.041622103662986465, ,0.0001661654221556422, ,1.9166666666666667, ,0.8000235554761846, ,0.6101916287422706, ,0.09130425909675313
61, ,PASS, ,0.06680982999999999, ,0.010328386548755057, ,0.044240467884124814, ,0.0006993604942875577, ,1.75, ,0.788598860741729, ,0.5981102426481092, ,0.10118160853860125
62, ,PASS, ,0.07781521441999999, ,0.011949592560862607, ,0.04516952855807024, ,0.0009396778796948528, ,1.75, ,0.779135752647038, ,0.5931307524336238, ,0.09965102753005041
63, ,PASS, ,0.0746719457, ,0.011370190854390378, ,0.044807741643476666, ,0.0008582462199641784, ,1.75, ,0.7772018250004084, ,0.5924368890430808, ,0.10156935572743414
64, ,PASS, ,0.05463517500000001, ,0.008257679768709494, ,0.043262125534172774, ,0.00045743186355185373, ,1.75, ,0.782019803967315, ,0.5992938919613885, ,0.08885532948307177
65, ,PASS, ,0.021466390000000026, ,0.0031889457507195463, ,0.04067186236709455, ,6.980194167990034e-05, ,1.9166666666666667, ,0.7853980479171727, ,0.6115997632701373, ,0.10420195506214158
66, ,PASS, ,0.03443435, ,0.005478006752488517, ,0.04186781072753617, ,0.00019147784576047932, ,1.8333333333333333, ,0.8082002176699928, ,0.6083141160384482, ,0.09940613456868228
67, ,PASS, ,0.07127495500000001, ,0.011720927341039303, ,0.04478721736005388, ,0.0008498597199481856, ,1.9166666666666667, ,0.8269434041599771, ,0.5924368890430808, ,0.10250811207934532
68, ,PASS, ,0.08312973000000003, ,0.013404301996054477, ,0.04611066195424583, ,0.0011365902274907945, ,1.8333333333333333, ,0.8170625872619517, ,0.6017632293218506, ,0.11154874390318564
69, ,PASS, ,0.07880342351999997, ,0.012306697688632821, ,0.04654542779841228, ,0.0009931790935373771, ,1.8333333333333333, ,0.8021999546396023, ,0.6126609661027326, ,0.09963061978326973
70, ,PASS, ,0.05685361900000002, ,0.008760668925555383, ,0.04429133618762883, ,0.0005118624486427353, ,1.75, ,0.7976250476470897, ,0.6205383563600743, ,0.10338564519091448
71, ,PASS, ,0.02243101000000003, ,0.0035896545033619397, ,0.04067353739719598, ,8.2157204071655e-05, ,2.0, ,0.8250737795614743, ,0.6034162568110855, ,0.11599763270137343
72, ,PASS, ,0.03600578000000002, ,0.005953619638705809, ,0.04232221115650701, ,0.00021980665864256992, ,1.9166666666666667, ,0.8365050973787029, ,0.6126813738495133, ,0.11271198546968429
73, ,PASS, ,0.07023293600000001, ,0.010973189559667551, ,0.04646591140282851, ,0.0007907645512923365, ,1.8333333333333333, ,0.7989568603007908, ,0.6414971123038306, ,0.11756902920348564
74, ,PASS, ,0.08233878400000001, ,0.012945700360504082, ,0.04464528142609334, ,0.0010863228719319978, ,1.75, ,0.7804567759613604, ,0.5885186016611906, ,0.12634436031917715
75, ,PASS, ,0.07653808732, ,0.011962408479209893, ,0.04442260799204098, ,0.0009232750737264482, ,1.75, ,0.7796079063264256, ,0.5887634946225587, ,0.11142629742250158
76, ,PASS, ,0.056633522000000006, ,0.00879542887710108, ,0.04431547214179302, ,0.0005114096875199001, ,1.8333333333333333, ,0.7998936929521593, ,0.6196812309952858, ,0.0867941470582233
77, ,PASS, ,0.02151948000000002, ,0.0032188719889528956, ,0.04066722425644375, ,7.031251090421841e-05, ,1.9166666666666667, ,0.7929030118918267, ,0.6142323626048448, ,0.1098344931736087
78, ,PASS, ,0.033234479999999976, ,0.005226356018397912, ,0.04215383399216342, ,0.00017722140399089068, ,1.9166666666666667, ,0.8045111708323308, ,0.6208444725617844, ,0.08405950898961245
79, ,PASS, ,0.06904079, ,0.011038954771307183, ,0.044469948945388874, ,0.0007697152617645919, ,1.75, ,0.7965199595213334, ,0.597681679965715, ,0.10963041570580193
80, ,PASS, ,0.08172609170000003, ,0.0128187890451093, ,0.04557297661306912, ,0.001056276907860399, ,1.75, ,0.7842927462221888, ,0.5965184383992164, ,0.11689557355972327
81, ,PASS, ,0.07799516297999998, ,0.01194696553381379, ,0.045830655323993386, ,0.0009462364288000199, ,1.9166666666666667, ,0.7806783503885976, ,0.6074365829268791, ,0.10709985510499785
82, ,PASS, ,0.05579828999999999, ,0.008771116390489333, ,0.04412038973980123, ,0.0005022570302566613, ,1.8333333333333333, ,0.8098428292417391, ,0.6154976429052468, ,0.10671210791616498
83, ,PASS, ,0.019921199999999993, ,0.0030188931496587783, ,0.040380502565457846, ,6.113713451345115e-05, ,1.9166666666666667, ,0.7905699706886856, ,0.6118854717250668, ,0.05303973388298198
84, ,PASS, ,0.03884821000000003, ,0.006258630464524645, ,0.0426208860629375, ,0.0002491362192214031, ,1.8333333333333333, ,0.8094790936228572, ,0.620619987347197, ,0.11089569600620396
85, ,PASS, ,0.07722983413999998, ,0.012871612282051343, ,0.0460779588498194, ,0.001018818685571951, ,1.75, ,0.8165357075067684, ,0.6161302830554478, ,0.17232301381604456
86, ,PASS, ,0.08920299799999999, ,0.014418367058593954, ,0.046523977342911374, ,0.001313738684889563, ,1.8333333333333333, ,0.7858624916362541, ,0.6074569906736598, ,0.18511867104752963
87, ,PASS, ,0.08566674499999999, ,0.01363152986795383, ,0.046581407132303417, ,0.0011929981851451794, ,1.8333333333333333, ,0.7825770505655607, ,0.6158853900940797, ,0.17226179057570254
88, ,PASS, ,0.06333073200000001, ,0.010158565728163692, ,0.04463045008163099, ,0.0006590901661714623, ,1.75, ,0.7943369351367111, ,0.6192934838064529, ,0.13840533866655783
89, ,PASS, ,0.024703540000000003, ,0.003927119614084264, ,0.041001644041550184, ,9.970782806300986e-05, ,1.8333333333333333, ,0.8101429007973264, ,0.6216403746862309, ,0.11367114956837615
90, ,PASS, ,0.03625907000000002, ,0.005946726204709278, ,0.042046449499193894, ,0.00021819506995056885, ,1.8333333333333333, ,0.8127479587463097, ,0.6104569294504194, ,0.12450766310891614
91, ,PASS, ,0.07404135760000002, ,0.012236242042301294, ,0.044471442958429426, ,0.0009122227329602155, ,1.75, ,0.797307026675356, ,0.5913552784637048, ,0.1839758372278117
92, ,PASS, ,0.08723776599999998, ,0.014113375937577218, ,0.04459546006465174, ,0.0012364123562109636, ,1.8333333333333333, ,0.7775254584588058, ,0.5813758902879533, ,0.19834289096140895
93, ,PASS, ,0.083286951, ,0.013282277244719455, ,0.04468110509038755, ,0.0011103761711249358, ,1.75, ,0.7738897298164362, ,0.5853349931634049, ,0.18807779433072794
94, ,PASS, ,0.059204661000000006, ,0.009447814281397012, ,0.04316512928123916, ,0.0005638344522311288, ,1.75, ,0.7851170640435409, ,0.5901716291504255, ,0.1268545539886941
95, ,PASS, ,0.021305810000000015, ,0.0033291690949794773, ,0.04058989114711945, ,7.18433644926695e-05, ,1.8333333333333333, ,0.7921440029732617, ,0.6036203342788923, ,0.06169261851798943
96, ,PASS, ,0.03671895000000003, ,0.006191217509844686, ,0.04182126525050509, ,0.0002292813116533723, ,1.75, ,0.8156629455225831, ,0.6030081018754719, ,0.16987408420236322
97, ,PASS, ,0.07538513464000002, ,0.012578203944341794, ,0.044351631341584874, ,0.0009536206389330531, ,1.75, ,0.797161923840111, ,0.5883349319401645, ,0.22313830329993264
98, ,PASS, ,0.088129294, ,0.014222766057968801, ,0.04466025627691272, ,0.0012572312499887135, ,1.9166666666666667, ,0.7748005113242127, ,0.5821922001591804, ,0.2136487010469174
99, ,PASS, ,0.08518421399999998, ,0.013570136124333967, ,0.04620026235260505, ,0.0011792770846444155, ,1.8333333333333333, ,0.7794945458024041, ,0.6102120364890512, ,0.2075671925062754
100, ,PASS, ,0.05985916600000002, ,0.009588488932505735, ,0.04339913082763617, ,0.0005770643386429468, ,1.75, ,0.7829458824412923, ,0.5942531785065611, ,0.15232342197098017
101, ,PASS, ,0.021582240000000016, ,0.0034665632998341343, ,0.04059230380257547, ,7.551022564154599e-05, ,1.75, ,0.797748151506789, ,0.6018448603089733, ,0.11599763270137343
102, ,PASS, ,0.03441915000000001, ,0.005792035385973042, ,0.04150283952654027, ,0.0002007256712640402, ,1.75, ,0.8074312684046071, ,0.5986204363176262, ,0.1980163670129181
103, ,PASS, ,0.0725202379, ,0.01194326077260557, ,0.044006608538886965, ,0.0008694720462339541, ,1.75, ,0.7877967876587098, ,0.5889675720903655, ,0.2159751841799147
104, ,PASS, ,0.085515092, ,0.013533783247313972, ,0.04497357319474868, ,0.0011602086356790953, ,1.75, ,0.7696149085778788, ,0.588049223485235, ,0.20860798759208996
105, ,PASS, ,0.08066390159999998, ,0.012803344899329088, ,0.044064029926752915, ,0.0010349006826807247, ,1.8333333333333333, ,0.7646004546146093, ,0.5811922205669272, ,0.19766943531764658
106, ,PASS, ,0.05642374900000002, ,0.009038309928720494, ,0.04277904263729312, ,0.0005122404695200603, ,1.75, ,0.777475248289284, ,0.5888451256096814, ,0.16928225954572357
107, ,PASS, ,0.02044982000000001, ,0.0032563821649040365, ,0.04018316190138977, ,6.714145707784621e-05, ,1.75, ,0.7889820897004877, ,0.5983551356094774, ,0.11073243403195854
108, ,PASS, ,0.03242974999999998, ,0.00540419218062709, ,0.041171894035836, ,0.00017653635320631896, ,1.75, ,0.8035393434077491, ,0.5970082243219527, ,0.17558825330095304
109, ,PASS, ,0.07119295100000002, ,0.011641961735304657, ,0.04379582007871268, ,0.0008321288359832219, ,1.8333333333333333, ,0.7818470055724732, ,0.5851105079488174, ,0.21638333911552826
110, ,PASS, ,0.08460333699999999, ,0.01327907619714024, ,0.044043881046284775, ,0.0011249859900876857, ,1.8333333333333333, ,0.7587931010092369, ,0.5776208648803086, ,0.18622068937368624
111, ,PASS, ,0.07952253695999999, ,0.012496392892402411, ,0.04346210007872533, ,0.0009952267104936332, ,1.8333333333333333, ,0.7572330907363186, ,0.5750494887859432, ,0.19342462398726556
112, ,PASS, ,0.05428694999999999, ,0.008619486314798796, ,0.04254578928736148, ,0.00046976963502732373, ,1.75, ,0.771904174876947, ,0.5859472255668252, ,0.1608334523785229
113, ,PASS, ,0.019007110000000004, ,0.0030234293861490604, ,0.04018419193424624, ,5.7919108176050595e-05, ,1.75, ,0.787277948971187, ,0.6007632497295974, ,0.11209975306626395
114, ,PASS, ,0.028954880000000002, ,0.0047146455032797225, ,0.04110435097140875, ,0.00013788481334636884, ,1.75, ,0.8037457493719954, ,0.6012530356523337, ,0.12395665394583784
115, ,PASS, ,0.06529833099999999, ,0.010658061302923646, ,0.04369256650980592, ,0.0007010711583499452, ,1.75, ,0.7930129376944617, ,0.5895389890002245, ,0.15864982347299034
116, ,PASS, ,0.07667906729999999, ,0.012288133151621614, ,0.043885156671663844, ,0.0009462943723308675, ,1.8333333333333333, ,0.7776954888337935, ,0.5795187853309116, ,0.17571069978163711
117, ,PASS, ,0.071651968, ,0.011225205783839714, ,0.04362335965586417, ,0.000807594413164579, ,1.8333333333333333, ,0.7670077843350275, ,0.5857839635925798, ,0.1687720658762066
118, ,PASS, ,0.047382149999999984, ,0.007435348994723898, ,0.042179122477704535, ,0.00035466962511648977, ,1.75, ,0.7781423057329534, ,0.5890696108242689, ,0.13026264770106732
119, ,PASS, ,0.014081860000000015, ,0.002162273032822257, ,0.03997094249545928, ,3.080847067033507e-05, ,1.75, ,0.7837190451507344, ,0.605538662476276, ,0.09830411624252566
199, ,FAIL, ,0.00021600999999999565, ,6.0710360556766895e-06, ,0.03871831616885369, ,1.707695454865784e-09, ,0.75, ,0.29851648702898453, ,0.5513152792800147, ,0.000734678884104406
200, ,FAIL, ,0.024548090000000022, ,0.002182512012379051, ,0.040921156988428804, ,5.369798029687004e-05, ,1.8333333333333333, ,0.7066145433261778, ,0.633987061488541, ,0.0015509887553315238
201, ,PASS, ,0.034368019999999985, ,0.0047683183140965, ,0.04249044633864615, ,0.00016694259076519298, ,1.9166666666666667, ,0.8367485774810971, ,0.6338442072610763, ,0.024509703883594212
202, ,PASS, ,0.1998000000000001, ,0.04080953757424898, ,0.052201700055101, ,0.008379891843202657, ,1.8333333333333333, ,0.9595164516718225, ,0.640639986939042, ,0.5784575824983164
203, ,PASS, ,0.04454032000000002, ,0.006200994464026177, ,0.04355144086794147, ,0.0002832897968559192, ,1.9166666666666667, ,0.8501148293196069, ,0.6347829636129875, ,0.040448154119303685
204, ,PASS, ,0.1998000000000001, ,0.040984575216935146, ,0.051446293665435475, ,0.008429735287321768, ,1.8333333333333333, ,0.9594679265482542, ,0.6370074080120813, ,0.5749882655456011
205, ,PASS, ,0.09106837, ,0.011369585268513328, ,0.04801545551845881, ,0.0010647773404529614, ,1.9166666666666667, ,0.8762518707605412, ,0.6422521989347156, ,0.05995796004163181
206, ,PASS, ,0.09520603999999999, ,0.011473497774034365, ,0.04815941348564315, ,0.0011248598189232142, ,1.9166666666666667, ,0.8730908549991105, ,0.6433134017673109, ,0.06240688965531316
207, ,PASS, ,0.10484167999999999, ,0.0127744133773451, ,0.0493818004863166, ,0.0013859148686264785, ,1.8333333333333333, ,0.8765977631793505, ,0.6466398644925614, ,0.06167221077120875
208, ,PASS, ,0.07941134500000001, ,0.009549791421559352, ,0.046789442641782815, ,0.0007837973857526411, ,1.9166666666666667, ,0.864974100547578, ,0.6429460623252586, ,0.05461113038509418
209, ,PASS, ,0.07724840200000002, ,0.00957151157206158, ,0.046558936019468984, ,0.0007608416576227104, ,1.9166666666666667, ,0.8649844286668379, ,0.6409665108875329, ,0.05314177261688537
210, ,PASS, ,0.0702748829, ,0.00838364659547871, ,0.04570373321115895, ,0.0006061573744035393, ,1.9166666666666667, ,0.8585357140882623, ,0.6415787432909532, ,0.051468337380869776
211, ,PASS, ,0.07819985, ,0.009632125055229857, ,0.04667456531601396, ,0.0007762018521012969, ,1.9166666666666667, ,0.8654734448068314, ,0.641660374278076, ,0.05608048815330299
212, ,PASS, ,0.084629919, ,0.010186909893124945, ,0.047058398433909514, ,0.0008867532801579997, ,1.9166666666666667, ,0.8699382340819242, ,0.6431501397930655, ,0.06038652272402604
213, ,PASS, ,0.10139445000000001, ,0.012282575057449497, ,0.0488105507816167, ,0.001284394856973548, ,1.9166666666666667, ,0.8747643507494304, ,0.6452929532050367, ,0.06330483051366298
214, ,PASS, ,0.09898590000000003, ,0.011779962613625494, ,0.048533779121038345, ,0.0012049914709272337, ,1.9166666666666667, ,0.87198834468781, ,0.6475378053509112, ,0.05850901002020367
215, ,PASS, ,0.12484793999999999, ,0.01550042470983029, ,0.05119317487928818, ,0.0020017243536274735, ,1.8333333333333333, ,0.8800957397063986, ,0.6477010673251566, ,0.06889655313156874
216, ,PASS, ,0.10249985999999997, ,0.012703995494756357, ,0.04902553166955776, ,0.001344493299297851, ,1.8333333333333333, ,0.8756949543459421, ,0.6443337891063448, ,0.06650884675822942
217, ,PASS, ,0.11301033000000005, ,0.014465782498620447, ,0.050226364354400935, ,0.0016848371615570874, ,1.8333333333333333, ,0.8809110008694553, ,0.6444970510805902, ,0.07322299544907247
218, ,PASS, ,0.11307931000000004, ,0.013981098001800737, ,0.05005773103997878, ,0.0016300879854651512, ,1.8333333333333333, ,0.8782468545229482, ,0.6463337482908512, ,0.07159037570661823
219, ,PASS, ,0.10970612000000002, ,0.013943502848972637, ,0.049948755977633104, ,0.00157817249042469, ,1.8333333333333333, ,0.8796364250172861, ,0.6450480602436685, ,0.07038631864655823
220, ,PASS, ,0.06351231099999996, ,0.008469661200679603, ,0.045386365609681435, ,0.0005510676406825134, ,1.9166666666666667, ,0.8617595096101426, ,0.6377012714026244, ,0.05299891838942063
221, ,PASS, ,0.06970925384, ,0.009204149094123405, ,0.04604314772841371, ,0.0006589618410707848, ,1.9166666666666667, ,0.8670606550795205, ,0.6389869594498071, ,0.05489683884002367
222, ,PASS, ,0.05934276499999998, ,0.007890140429248849, ,0.044960540069182264, ,0.00048034961040292225, ,1.9166666666666667, ,0.8654041405704676, ,0.6384971735270709, ,0.05775392338931858
223, ,PASS, ,0.07624009299999998, ,0.010747999218225284, ,0.04664615068570029, ,0.0008327480503576675, ,1.9166666666666667, ,0.8744281846211652, ,0.6342931776902512, ,0.05861104875410706
224, ,PASS, ,0.056185911000000005, ,0.007987156232072674, ,0.04481958720740393, ,0.0004623444633868895, ,1.8333333333333333, ,0.866586859853235, ,0.637027815758862, ,0.061753841758331464
225, ,PASS, ,0.04010211000000001, ,0.0055997707797261955, ,0.043686865231117734, ,0.00023174655905259926, ,1.9166666666666667, ,0.839919898161874, ,0.6346401093855227, ,0.024897451072427093
226, ,PASS, ,0.04163346000000002, ,0.00603741638681393, ,0.04345398361604865, ,0.00025765087655137207, ,1.9166666666666667, ,0.856145027367639, ,0.6346401093855227, ,0.04971327115773148
227, ,PASS, ,0.031167709999999998, ,0.004429480976795566, ,0.04229046141915472, ,0.00014122380438402423, ,1.9166666666666667, ,0.8310040953916311, ,0.6337217607803922, ,0.04420317952694843
228, ,PASS, ,0.026417040000000037, ,0.0029057170082377, ,0.04137069841329769, ,7.847178397151123e-05, ,1.8333333333333333, ,0.7633243526260083, ,0.6350482643211363, ,0.0020611824248484723
