Channel, ,Pass/Fail, ,Amplitude, ,Sorting Function Response, ,Mean, ,Variance, ,NPeaksRatio, ,PosIntegralRatio, ,ToT50, ,ToT99
0, ,PASS, ,0.14395656000000004, ,0.019435736796514017, ,0.041618109659802865, ,0.0028180342931740806, ,1.6666666666666667, ,0.675361827467868, ,0.5251321401604049, ,0.10636517622089345
1, ,PASS, ,0.14255128, ,0.01936769279181377, ,0.04132444699230629, ,0.002779903446397204, ,1.6666666666666667, ,0.6777441409884398, ,0.5241933838084937, ,0.10877329034101345
2, ,PASS, ,0.14288319, ,0.019399484729532967, ,0.04163888296422522, ,0.0027908413025000095, ,1.6666666666666667, ,0.677395184521851, ,0.5247035774780107, ,0.1096508234525826
3, ,PASS, ,0.14233936, ,0.01925738696182001, ,0.04152131104834596, ,0.0027600837070530376, ,1.6666666666666667, ,0.6760518127175272, ,0.5249076549458175, ,0.10636517622089345
4, ,PASS, ,0.14211238, ,0.01928901491166428, ,0.04115884073651559, ,0.0027593840619738793, ,1.6666666666666667, ,0.6773047919699929, ,0.5238056366196608, ,0.10963041570580193
5, ,PASS, ,0.14222854000000001, ,0.019322165155552618, ,0.041459567619640425, ,0.0027669425538305865, ,1.6666666666666667, ,0.6781215661780364, ,0.5251321401604049, ,0.10932429950409175
6, ,PASS, ,0.16150006000000006, ,0.022195405890145233, ,0.042058682610354906, ,0.0036078417833983172, ,1.6666666666666667, ,0.6822948846188619, ,0.5248464317054754, ,0.11093651149976531
7, ,PASS, ,0.22547956999999996, ,0.033969845118692006, ,0.04372289830207547, ,0.007678507002869585, ,1.8333333333333333, ,0.7277931200757789, ,0.5249688781861594, ,0.08654925409685517
8, ,PASS, ,0.10576116, ,0.016793195856474923, ,0.041292661385073766, ,0.001775457897633898, ,1.8333333333333333, ,0.7620517446396411, ,0.5244382767698619, ,0.10601824452562193
9, ,PASS, ,0.10344510999999997, ,0.01639152708782434, ,0.04118979994428684, ,0.0016949150073717952, ,1.8333333333333333, ,0.7619414182209622, ,0.5243158302891777, ,0.10444684802350973
10, ,PASS, ,0.10279244099999997, ,0.016270599938417264, ,0.04115780839676741, ,0.0016718829693103815, ,1.8333333333333333, ,0.7613612751317168, ,0.5249688781861594, ,0.1066917001693843
11, ,PASS, ,0.10247151999999997, ,0.016204283771779914, ,0.04118218468602681, ,0.0016596304349677812, ,1.8333333333333333, ,0.7600824043697368, ,0.5237852288728801, ,0.10514071141405278
12, ,PASS, ,0.10204290999999999, ,0.016185582707051, ,0.04114888570110813, ,0.0016508257951012397, ,1.8333333333333333, ,0.7620576100495112, ,0.5245811309973266, ,0.10701822411787515
13, ,PASS, ,0.10225237999999995, ,0.016183109277005128, ,0.04123243152996877, ,0.0016541312679543702, ,1.8333333333333333, ,0.7604332420371062, ,0.5245811309973266, ,0.10407950858145752
14, ,PASS, ,0.10198606499999997, ,0.016139344873094555, ,0.04125693185139078, ,0.0016455844228282209, ,1.8333333333333333, ,0.7612662147812386, ,0.5245199077569845, ,0.10305912124242363
15, ,PASS, ,0.10189409999999997, ,0.01613784955578649, ,0.04107485425807636, ,0.001643623594667692, ,1.8333333333333333, ,0.7607810349119303, ,0.5239484908471256, ,0.10434480928960634
16, ,PASS, ,0.10178013399999997, ,0.01611798764747318, ,0.041060927773514826, ,0.0016394225107040782, ,1.8333333333333333, ,0.7608025724009824, ,0.5235607436582926, ,0.10840595089896124
17, ,PASS, ,0.10179094499999997, ,0.01609096244336226, ,0.041176743846656184, ,0.0016376190478016182, ,1.8333333333333333, ,0.7610875035839668, ,0.5251525479071856, ,0.1039162466072121
18, ,PASS, ,0.10185967199999998, ,0.016099154405057714, ,0.04137406259382461, ,0.0016396304289322465, ,1.8333333333333333, ,0.7601619922124195, ,0.5248872471990368, ,0.10148772474031142
19, ,PASS, ,0.10189183199999996, ,0.01607842106439224, ,0.041150909829187156, ,0.0016373812460130162, ,1.8333333333333333, ,0.7589142108425027, ,0.524111752821371, ,0.09999795922532194
20, ,PASS, ,0.10185155499999997, ,0.016087608770329973, ,0.041160927396379665, ,0.001638011462716732, ,1.8333333333333333, ,0.7602762434074162, ,0.5245607232505459, ,0.10420195506214158
21, ,PASS, ,0.10184857099999996, ,0.016075094199749104, ,0.04112954972327095, ,0.0016365797446979639, ,1.8333333333333333, ,0.7590888152081505, ,0.5245811309973266, ,0.10014081345278668
22, ,PASS, ,0.10163075299999996, ,0.01604377723132507, ,0.04113353070018979, ,0.0016296713264856697, ,1.8333333333333333, ,0.7588599196034891, ,0.5236219668986347, ,0.10226321911797719
23, ,PASS, ,0.10135495899999997, ,0.015988247827895364, ,0.0414006815777229, ,0.0016197869879156536, ,1.8333333333333333, ,0.7582511152463287, ,0.5240505295810289, ,0.10107956980469786
24, ,PASS, ,0.10078650199999996, ,0.01595450671569914, ,0.04114648521846492, ,0.0016073806488892308, ,1.8333333333333333, ,0.7603017967450153, ,0.5245199077569845, ,0.10579375931103446
25, ,PASS, ,0.10079870199999995, ,0.01592344203727645, ,0.041123339413481355, ,0.0016040523843972548, ,1.8333333333333333, ,0.7596710457261681, ,0.5240301218342482, ,0.10542641986898227
26, ,PASS, ,0.10051153, ,0.01580459469543187, ,0.040995112396889855, ,0.0015875361692844392, ,1.8333333333333333, ,0.7557937630370972, ,0.5228872880145303, ,0.0926307626374972
27, ,PASS, ,0.09979541999999994, ,0.01579653307573154, ,0.041184438294932756, ,0.0015753244045772017, ,1.8333333333333333, ,0.7602889695054991, ,0.523601559151854, ,0.10924266851696904
28, ,PASS, ,0.09951047299999996, ,0.015725035077414958, ,0.04115048938368605, ,0.0015641124282074312, ,1.8333333333333333, ,0.7600463119347101, ,0.524744392971572, ,0.1039162466072121
29, ,PASS, ,0.09940254699999997, ,0.015685918782003927, ,0.040965619692251175, ,0.0015583534885272095, ,1.8333333333333333, ,0.7589252159233889, ,0.5242750147956164, ,0.10626313748699007
30, ,PASS, ,0.09900279399999995, ,0.015669590505971123, ,0.04117285354094814, ,0.0015505208358072196, ,1.8333333333333333, ,0.7600844326104703, ,0.5240913450745903, ,0.09926328034121752
31, ,PASS, ,0.099310927, ,0.015660589186424788, ,0.041058990489785924, ,0.0015544059182072967, ,1.8333333333333333, ,0.7595531541823438, ,0.5248668394522561, ,0.10332442195057244
32, ,PASS, ,0.09958430199999997, ,0.015742233513787753, ,0.04111369038182894, ,0.0015666576064186988, ,1.8333333333333333, ,0.7592357237992147, ,0.5238464521132222, ,0.10463051774453583
33, ,PASS, ,0.09989482399999998, ,0.01572097759472303, ,0.04099686166159874, ,0.0015696457289272848, ,1.8333333333333333, ,0.7565262400400967, ,0.5239076753535642, ,0.09246750066325177
34, ,PASS, ,0.09983303999999996, ,0.015747667170793563, ,0.04126886627619844, ,0.0015713680438124355, ,1.8333333333333333, ,0.7577497952914334, ,0.5243362380359584, ,0.09532458521254668
35, ,PASS, ,0.09989094199999994, ,0.01575322400117548, ,0.0411947142241995, ,0.0015729278741731937, ,1.75, ,0.7584786932455857, ,0.5249484704393788, ,0.10316115997632701
36, ,PASS, ,0.10022124199999996, ,0.01575365537267682, ,0.041173468868390434, ,0.0015783035392510727, ,1.75, ,0.7578623402676221, ,0.5249484704393788, ,0.09834493173608702
37, ,PASS, ,0.10027834099999997, ,0.01582770133647852, ,0.04132164533580947, ,0.0015866546287858438, ,1.75, ,0.7587162330101546, ,0.5250913246668435, ,0.10265096630681006
38, ,PASS, ,0.10228067699999996, ,0.016140065054886975, ,0.04159033527070876, ,0.0016505366785090363, ,1.75, ,0.7595768860912838, ,0.5252954021346503, ,0.10532438113507887
39, ,PASS, ,0.10033887499999995, ,0.015861130280873856, ,0.041396250058366155, ,0.001591117990270128, ,1.75, ,0.7596512776621294, ,0.5253974408685537, ,0.10673251566294566
40, ,PASS, ,0.10070419899999998, ,0.015847926504701727, ,0.040935622846676595, ,0.001595241502373502, ,1.75, ,0.75679865981565, ,0.5247239852247914, ,0.09287565559886533
41, ,PASS, ,0.10086693199999996, ,0.015858435431892477, ,0.04101517749270423, ,0.0015988787057200204, ,1.75, ,0.7584856565229882, ,0.5248260239586947, ,0.1015897634742148
42, ,PASS, ,0.10077987099999997, ,0.015849408199193147, ,0.040960175923756656, ,0.0015968999804213061, ,1.75, ,0.7582256499978185, ,0.5252341788943082, ,0.10061019162874227
43, ,PASS, ,0.10092539899999996, ,0.01585449514496363, ,0.0408585136472725, ,0.0015991433504223167, ,1.75, ,0.7555264177921885, ,0.5247852084651333, ,0.09599804085630906
44, ,PASS, ,0.10103288499999996, ,0.015845001104228543, ,0.04088196443113405, ,0.0016000227425336183, ,1.75, ,0.7549276931279639, ,0.5244790922634232, ,0.09222260770188363
45, ,PASS, ,0.10069173599999998, ,0.01584893148467432, ,0.04053464547192914, ,0.0015951290954222277, ,1.75, ,0.7581191208458502, ,0.5244790922634232, ,0.10050815289483889
46, ,PASS, ,0.10212694999999995, ,0.016109606254040038, ,0.04082442356258035, ,0.0016451326923727955, ,1.75, ,0.758714994337048, ,0.5251525479071856, ,0.1058549825513765
47, ,PASS, ,0.10144581499999997, ,0.015976591871678134, ,0.04097851567723107, ,0.0016202417908610027, ,1.75, ,0.7582305604866308, ,0.52468316973123, ,0.10052856064161955
48, ,PASS, ,0.10056845499999997, ,0.015833953811146995, ,0.04075119558580437, ,0.0015915016950762075, ,1.75, ,0.7564404417631986, ,0.5238056366196608, ,0.09750821411807922
49, ,PASS, ,0.10065936299999997, ,0.01584898396409508, ,0.04088356940797126, ,0.001594628006942684, ,1.75, ,0.7567362976539804, ,0.5245607232505459, ,0.10069182261586498
50, ,PASS, ,0.10032690599999995, ,0.015728760376971764, ,0.040780462549539806, ,0.001577205770542097, ,1.75, ,0.7546873493169004, ,0.5237852288728801, ,0.09050835697230669
51, ,PASS, ,0.10027123299999997, ,0.015794916570281092, ,0.04090601785718659, ,0.0015833996808940643, ,1.75, ,0.7567795610811946, ,0.5248464317054754, ,0.09948776555580498
52, ,FAIL, ,0.009701699999999994, ,0.0005440831370284443, ,0.038506287151486705, ,5.461331615714041e-06, ,0.9166666666666666, ,0.3469286742633068, ,0.5625395400093876, ,0.013428297381686088
53, ,FAIL, ,0.00807736999999998, ,0.0004775720529763038, ,0.038671462192404235, ,4.003642867236373e-06, ,1.0, ,0.3586350074470555, ,0.45750086732923817, ,0.0230403461153854
54, ,PASS, ,0.10038644099999997, ,0.015760388137110396, ,0.04056133167343523, ,0.0015811611371835, ,1.75, ,0.7552899294857692, ,0.5235199281647314, ,0.0933654415216016
55, ,PASS, ,0.10005525699999995, ,0.015781885898627477, ,0.04073781986163547, ,0.0015784794703868207, ,1.75, ,0.7586756012431369, ,0.5245811309973266, ,0.10250811207934532
56, ,PASS, ,0.10105775199999996, ,0.01579141459972632, ,0.04054367906634558, ,0.0015947735773434453, ,1.75, ,0.7527288344885829, ,0.5234995204179507, ,0.08579416746597009
57, ,PASS, ,0.100760882, ,0.015844388194388836, ,0.04088478489643068, ,0.0015957642052616126, ,1.75, ,0.7571715456593623, ,0.5248872471990368, ,0.09777351482622804
58, ,PASS, ,0.10032722599999996, ,0.01577140786140572, ,0.040761672592191996, ,0.0015819600141952826, ,1.75, ,0.75647878653842, ,0.5251525479071856, ,0.094100120405706
59, ,PASS, ,0.10060310799999997, ,0.015744758419795724, ,0.040490520953449925, ,0.0015830181951918022, ,1.75, ,0.7524758170547022, ,0.5224179098385747, ,0.0810595702128528
60, ,PASS, ,0.10059924499999998, ,0.015787594519972695, ,0.040859952951776496, ,0.0015876549333482652, ,1.75, ,0.7551195014361141, ,0.5239280831003449, ,0.0896716393542989
61, ,PASS, ,0.10051783199999995, ,0.015789576422650057, ,0.040665197136589046, ,0.001586282951748747, ,1.75, ,0.7555098692174353, ,0.5236627823921961, ,0.09454909083488092
62, ,PASS, ,0.10008569499999995, ,0.015708132570299217, ,0.041045531382420765, ,0.001571691975949761, ,1.75, ,0.7559886251893905, ,0.5240709373278096, ,0.09534499295932736
63, ,PASS, ,0.099825897, ,0.015707760049086313, ,0.040705234420317954, ,0.0015672146135418492, ,1.75, ,0.7565149621418644, ,0.5243566457827391, ,0.09634497255158057
64, ,PASS, ,0.10031379099999994, ,0.015682075526868927, ,0.04067155781167731, ,0.0015721603240083318, ,1.75, ,0.7523644474862432, ,0.5233770739372666, ,0.08483500336727821
65, ,PASS, ,0.10009018199999999, ,0.015724070540576656, ,0.04091416663802779, ,0.001573056846820541, ,1.75, ,0.7556515669599047, ,0.5238668598600028, ,0.09536540070610804
66, ,PASS, ,0.10020252799999996, ,0.015736851360972703, ,0.0409544337107406, ,0.001575993609513813, ,1.75, ,0.7555899365225043, ,0.5232750352033632, ,0.09167159853880533
67, ,PASS, ,0.10037185899999997, ,0.015783984527306574, ,0.04089053014203792, ,0.0015837318093020287, ,1.75, ,0.7563869419420348, ,0.5243362380359584, ,0.096508234525826
68, ,PASS, ,0.10061150899999997, ,0.01585573431016336, ,0.04083414646721495, ,0.0015947064007486855, ,1.75, ,0.7565176928307594, ,0.5238260443664415, ,0.09575314789494092
69, ,PASS, ,0.10110625699999995, ,0.015924811151949075, ,0.04084081443195037, ,0.0016093682325353884, ,1.75, ,0.7568922537039869, ,0.5237852288728801, ,0.100120405706006
70, ,PASS, ,0.10158914699999995, ,0.015945811254312898, ,0.04094077941082835, ,0.0016194325069407785, ,1.75, ,0.7550864496320739, ,0.5231729964694598, ,0.09358992673618906
71, ,PASS, ,0.10165316199999996, ,0.015992800315861436, ,0.04080400631680986, ,0.0016253531640847453, ,1.75, ,0.7562906525449624, ,0.5245199077569845, ,0.09893675639272669
72, ,PASS, ,0.10209988999999996, ,0.016014939775964687, ,0.04085664261464051, ,0.0016349080035021257, ,1.75, ,0.7539691360870465, ,0.5244178690230812, ,0.08818187383930941
73, ,PASS, ,0.10181352099999993, ,0.01601533855736168, ,0.04077839456092733, ,0.0016301232003271826, ,1.75, ,0.7559027230559174, ,0.5239280831003449, ,0.09671231199363278
74, ,PASS, ,0.10171456399999997, ,0.01592528116080108, ,0.040953134696230686, ,0.001619429031119391, ,1.75, ,0.7535436182194579, ,0.5241321605681517, ,0.08683496255178466
75, ,PASS, ,0.10143011199999995, ,0.01599134073000998, ,0.04082284890716516, ,0.0016211897784923859, ,1.75, ,0.7565746983643326, ,0.5238260443664415, ,0.09883471765882329
76, ,PASS, ,0.10254305999999996, ,0.016116631760385264, ,0.04084285043182792, ,0.0016519987265745085, ,1.75, ,0.7563962016753606, ,0.5243158302891777, ,0.09973265851717313
77, ,PASS, ,0.12601152000000002, ,0.019462934582995348, ,0.041218441682006494, ,0.002454722152274613, ,1.75, ,0.7436871433998118, ,0.5238464521132222, ,0.07546784759494704
78, ,PASS, ,0.19828335000000002, ,0.029819128472726716, ,0.04273655583355442, ,0.005928668203477409, ,1.8333333333333333, ,0.7270712233780959, ,0.5242137915552744, ,0.0871614865002755
79, ,PASS, ,0.10371836999999998, ,0.016239023248119638, ,0.040703849837962484, ,0.0016834659914411988, ,1.75, ,0.7530989019657968, ,0.5241321605681517, ,0.08844717454745822
80, ,PASS, ,0.10102845899999996, ,0.015907087429122946, ,0.040853847682292194, ,0.0016067087387539793, ,1.75, ,0.757062306059965, ,0.5247035774780107, ,0.09720209791636905
81, ,PASS, ,0.10069983199999996, ,0.015816953750768352, ,0.0406481061543642, ,0.0015923740493634267, ,1.8333333333333333, ,0.7569454149922776, ,0.5240913450745903, ,0.09479398379624905
82, ,PASS, ,0.10066724999999996, ,0.01580785094956344, ,0.040871310208771244, ,0.0015907369428758054, ,1.75, ,0.755889456100072, ,0.5249484704393788, ,0.09481439154302973
83, ,PASS, ,0.10045003399999995, ,0.015832093912805992, ,0.04063388409154915, ,0.0015898009838696905, ,1.75, ,0.7585131702732956, ,0.5249076549458175, ,0.10165098671455684
84, ,PASS, ,0.10089480699999996, ,0.015845707280380303, ,0.04074303637048223, ,0.0015980066070777625, ,1.75, ,0.7555326577597539, ,0.523989306340687, ,0.09424297463317075
85, ,PASS, ,0.10120427199999996, ,0.01583347658017772, ,0.04078958795473562, ,0.00160182921803134, ,1.75, ,0.754561549608744, ,0.5245607232505459, ,0.08577375971918941
86, ,PASS, ,0.10109295699999997, ,0.015914359556942054, ,0.04090615326197424, ,0.0016085501140622313, ,1.75, ,0.7579235738783576, ,0.5250505091732822, ,0.09944695006224363
87, ,PASS, ,0.10113023999999997, ,0.015875223250007592, ,0.04056128627966776, ,0.0016048003983869046, ,1.75, ,0.7561837783548621, ,0.5240097140874675, ,0.0954062161996694
88, ,PASS, ,0.10110416499999995, ,0.01592994215526455, ,0.04068764882124854, ,0.001610273515697115, ,1.75, ,0.757582944068614, ,0.524744392971572, ,0.09950817330258566
89, ,PASS, ,0.10186827099999993, ,0.015950324562776706, ,0.04078274853554009, ,0.0016244397955308138, ,1.75, ,0.7536008824576725, ,0.5247239852247914, ,0.08538601253035652
90, ,PASS, ,0.10200349999999997, ,0.016025975425124097, ,0.04082341722658721, ,0.0016345761054154752, ,1.8333333333333333, ,0.7551991123303113, ,0.5247648007183527, ,0.09256953939715516
91, ,PASS, ,0.10186712299999992, ,0.016022201256664842, ,0.04077931872880145, ,0.0016318429892282615, ,1.75, ,0.7561369871971112, ,0.524172976061713, ,0.09646741903226465
92, ,PASS, ,0.10210745099999996, ,0.01597982211144812, ,0.04070994402848921, ,0.0016311742037037184, ,1.75, ,0.7548934781814497, ,0.5245199077569845, ,0.09132466684353381
93, ,PASS, ,0.10222122999999994, ,0.01606182360181442, ,0.04087376068998592, ,0.0016416267092941098, ,1.75, ,0.7566556700656824, ,0.5249076549458175, ,0.09930409583477888
94, ,PASS, ,0.10239136999999995, ,0.01604261303959013, ,0.040661488787371684, ,0.0016425991643513743, ,1.8333333333333333, ,0.7544976468945366, ,0.5247648007183527, ,0.0877124956633538
95, ,PASS, ,0.10159406099999996, ,0.01596082103652304, ,0.04072367116548641, ,0.0016218308602591975, ,1.8333333333333333, ,0.7553018405191357, ,0.5245403155037652, ,0.08971245484786025
96, ,PASS, ,0.10105878799999998, ,0.015911590056344734, ,0.04081431624232158, ,0.0016076284147837389, ,1.75, ,0.7542727625178605, ,0.5230913654823371, ,0.08910022244443991
