Channel, ,Pass/Fail, ,Amplitude, ,Sorting Function Response, ,Mean, ,Variance, ,NPeaksRatio, ,PosIntegralRatio, ,ToT50, ,ToT99
84, ,PASS, ,0.026755279999999992, ,0.0028481395486525444, ,0.028406845542131794, ,7.731154804245021e-05, ,1.5833333333333333, ,0.578569208593016, ,0.48584722760759985, ,0.025570906716189466
85, ,PASS, ,0.02844149, ,0.0034895498874760278, ,0.028446028548805128, ,0.00010101608533502335, ,1.6666666666666667, ,0.629736012046371, ,0.5005408052896879, ,0.04142772596477623
86, ,PASS, ,0.028700020000000007, ,0.003648083799506424, ,0.028434922265055815, ,0.00010602637103497983, ,1.6666666666666667, ,0.6468643998394806, ,0.4860104895818453, ,0.04030529989183894
87, ,PASS, ,0.02729587, ,0.0032667761667877124, ,0.028334989943266463, ,9.040084625532676e-05, ,1.6666666666666667, ,0.6246030138625034, ,0.4901532621783229, ,0.024264810922226078
88, ,PASS, ,0.02525641, ,0.0024028183335763967, ,0.02835456059019204, ,6.123119657664066e-05, ,1.5833333333333333, ,0.5562262915038712, ,0.45574580110609986, ,0.017836370686312525
89, ,PASS, ,0.01318165000000001, ,0.0020793540892467, ,0.029003029885716618, ,2.7980776120809235e-05, ,1.8333333333333333, ,0.7532716068956431, ,0.5340095100099997, ,0.0789371645476623
90, ,PASS, ,0.032903159999999994, ,0.005136394368624621, ,0.02913574424481133, ,0.00017202493116732492, ,1.75, ,0.7333169850716031, ,0.521642415460909, ,0.08722270974061754
91, ,PASS, ,0.044607701, ,0.006858688618950909, ,0.02914773075467848, ,0.00031144227638839887, ,1.75, ,0.7262682309730635, ,0.5176220893451154, ,0.10377339237974735
92, ,PASS, ,0.04686818300000001, ,0.0073565047581665, ,0.029187687043550133, ,0.0003487267179088192, ,1.75, ,0.7441861314458443, ,0.5111528336156405, ,0.08987571682210567
93, ,PASS, ,0.04013243400000001, ,0.006307688229131609, ,0.028739241446501095, ,0.00025875102222924263, ,1.75, ,0.7320666380971851, ,0.5113365033366666, ,0.08816146609252873
94, ,PASS, ,0.02093039, ,0.0033230921949756005, ,0.02902201934185017, ,7.07438309082739e-05, ,1.75, ,0.7432096111807533, ,0.52347911267117, ,0.08224321952613212
95, ,PASS, ,0.014727569999999995, ,0.0022981210266195856, ,0.029043501469561847, ,3.4554971489264124e-05, ,1.9166666666666667, ,0.7450428966567938, ,0.5402542805248872, ,0.07338625742331789
96, ,PASS, ,0.03419769999999997, ,0.005324813443852762, ,0.02903916637007408, ,0.00018519984953209247, ,1.8333333333333333, ,0.7318671470861464, ,0.5168465949674497, ,0.09101855064182364
97, ,PASS, ,0.044460269000000024, ,0.006890780246230486, ,0.02889297502736679, ,0.00031108457652184, ,1.75, ,0.7287465985387148, ,0.5067243525642334, ,0.08975327034142161
98, ,PASS, ,0.046351303999999996, ,0.007110018496416531, ,0.02889969301822412, ,0.0003349654255061793, ,1.8333333333333333, ,0.7237958489823445, ,0.5125201526499459, ,0.0861410991612416
99, ,PASS, ,0.04037948100000001, ,0.006298313148528488, ,0.02892289821432216, ,0.0002585737029138349, ,1.8333333333333333, ,0.7333157269912854, ,0.513785432950348, ,0.09010020203669312
100, ,PASS, ,0.02213484000000001, ,0.003502275019644997, ,0.02907432213975225, ,7.922208164045211e-05, ,1.75, ,0.7472104397634356, ,0.5327238219628171, ,0.11118140446113345
101, ,PASS, ,0.012807650000000007, ,0.0021288281733212048, ,0.028737446735168672, ,2.7772033171677337e-05, ,1.75, ,0.7658544541702126, ,0.5227240260402849, ,0.1250178567784331
102, ,PASS, ,0.028549879999999993, ,0.004642105243223254, ,0.02903105430644273, ,0.0001348034885532201, ,1.75, ,0.7569996348245859, ,0.5227240260402849, ,0.08893696047019449
103, ,PASS, ,0.038214991, ,0.006089297979577696, ,0.02914428372808718, ,0.00023639306123228094, ,1.75, ,0.75001914181018, ,0.5221934246239872, ,0.09363074222975042
104, ,PASS, ,0.04075494, ,0.006436379132143019, ,0.02941784026530071, ,0.00026799665504193736, ,1.75, ,0.7444592539360144, ,0.5378257586579865, ,0.08793698087794127
105, ,PASS, ,0.03467591999999998, ,0.005591512982558225, ,0.02934871845268464, ,0.00019757226929132516, ,1.8333333333333333, ,0.7544136821949226, ,0.5308463092589947, ,0.0877124956633538
106, ,PASS, ,0.019543510000000004, ,0.003200227125540848, ,0.029001807084753372, ,6.38074177758858e-05, ,1.75, ,0.7526839799860264, ,0.5276627007612089, ,0.11069161853839718
107, ,PASS, ,0.011034700000000008, ,0.0016533678959398037, ,0.02901579795208261, ,1.8604440331973673e-05, ,1.9166666666666667, ,0.7495902200439678, ,0.5397236791085896, ,0.049447970449582664
108, ,PASS, ,0.026004280000000008, ,0.003990967076374333, ,0.02939708764106855, ,0.00010595707782653054, ,1.8333333333333333, ,0.7487131477140272, ,0.5481520785290096, ,0.07459031448337788
109, ,PASS, ,0.035358200999999964, ,0.005355437324508482, ,0.029164338821656696, ,0.00019265771730979692, ,1.8333333333333333, ,0.7363109148147421, ,0.5244790922634232, ,0.06775371931185079
110, ,PASS, ,0.037611521, ,0.005706031974535437, ,0.029332657378420845, ,0.0002180722909116233, ,1.75, ,0.7352831639377145, ,0.5285606416195587, ,0.07195771514867043
111, ,PASS, ,0.031979919999999995, ,0.004910941180662605, ,0.02954255250321422, ,0.0001596675853104693, ,1.8333333333333333, ,0.7443533656375954, ,0.5338870635293157, ,0.0796718434317667
112, ,PASS, ,0.017366740000000002, ,0.0026827179382458315, ,0.029016377152303013, ,4.7486465391624285e-05, ,1.9166666666666667, ,0.7436059675295139, ,0.535580906512112, ,0.052774433174833164
113, ,PASS, ,0.01094469, ,0.001705794752340591, ,0.029189139748576558, ,1.8989545485054483e-05, ,1.9166666666666667, ,0.7760931525119087, ,0.5568253709107978, ,0.067549641844044
114, ,PASS, ,0.025249010000000002, ,0.003851185403031763, ,0.029227452126283138, ,9.900762874835714e-05, ,1.8333333333333333, ,0.7364170008913296, ,0.5341727719842452, ,0.06850880594273587
115, ,PASS, ,0.033857639999999994, ,0.005132493299248486, ,0.029492307340054282, ,0.00017687854042028155, ,1.8333333333333333, ,0.7324154173730412, ,0.5331523846452113, ,0.07608007999836738
116, ,PASS, ,0.03580270899999998, ,0.005359183399369615, ,0.029172354609089606, ,0.00019492489159112734, ,1.75, ,0.729438989484397, ,0.5262137507397808, ,0.0688353298912267
117, ,PASS, ,0.03097998999999998, ,0.004724524780968746, ,0.029593144047264344, ,0.00014885482773019972, ,1.9166666666666667, ,0.7420631036934197, ,0.5328054529499398, ,0.0672639333891145
118, ,PASS, ,0.016294169999999997, ,0.0025325523454061277, ,0.02898845916756801, ,4.214544115785496e-05, ,1.9166666666666667, ,0.7341992186140883, ,0.5200710189587967, ,0.048121466908838596
119, ,PASS, ,0.009866740000000002, ,0.001316465223503663, ,0.02929399396277627, ,1.3233655743467633e-05, ,1.8333333333333333, ,0.6949710862633602, ,0.5519071039366543, ,0.0450603048917369
120, ,PASS, ,0.0032186200000000158, ,0.00014599566856453465, ,0.028764309757964127, ,5.00293168176583e-07, ,1.0, ,0.36678875841138137, ,0.5165404787657395, ,0.007897798004122365
121, ,PASS, ,0.02887162999999999, ,0.00394994011874694, ,0.029637552754433586, ,0.00011598072331238512, ,1.75, ,0.6987123702779677, ,0.5448460235505398, ,0.05416215995591927
122, ,PASS, ,0.030286359999999995, ,0.00408778761482834, ,0.029549403737474746, ,0.00012578488558829905, ,1.9166666666666667, ,0.6997940605768307, ,0.5373971959755923, ,0.06152935654374401
123, ,PASS, ,0.026709429999999992, ,0.0035935632035339923, ,0.029286434037876778, ,9.734991862020708e-05, ,1.9166666666666667, ,0.6951251605688463, ,0.5341523642374646, ,0.05826411705883553
124, ,PASS, ,0.014533769999999977, ,0.0020218679551894637, ,0.029258492357911062, ,2.9930823299767777e-05, ,1.9166666666666667, ,0.7131894733673747, ,0.5423358706965163, ,0.05120303667272096
