Channel, ,Pass/Fail, ,Amplitude, ,Sorting Function Response, ,Mean, ,Variance, ,NPeaksRatio, ,PosIntegralRatio, ,ToT50, ,ToT99
0, ,PASS, ,0.06601485899999998, ,0.008565977088632078, ,0.026542412345441926, ,0.0005748644402331545, ,1.8333333333333333, ,0.6932538715731897, ,0.4610314075222955, ,0.06803942776678026
1, ,PASS, ,0.065417263, ,0.00849905150424124, ,0.026583307389971632, ,0.0005650715578194187, ,1.8333333333333333, ,0.6929995332522433, ,0.46117426174976023, ,0.07024346441909349
2, ,PASS, ,0.06582493599999999, ,0.008567595674358776, ,0.02666927432848309, ,0.0005732142959251348, ,1.8333333333333333, ,0.6922960025282853, ,0.46250076529050427, ,0.06910063059937552
3, ,PASS, ,0.065504313, ,0.008510935307532571, ,0.02655580133466664, ,0.0005667680319379267, ,1.8333333333333333, ,0.6938821556309259, ,0.4614191547111283, ,0.0694883777882084
4, ,PASS, ,0.06536573699999998, ,0.008497017164520582, ,0.026641106845105206, ,0.0005644597630860769, ,1.8333333333333333, ,0.6928555906633843, ,0.4610109997755148, ,0.06795779677965756
5, ,PASS, ,0.065253378, ,0.008478514085236089, ,0.026612917926838228, ,0.000562315483638924, ,1.8333333333333333, ,0.6942097077779502, ,0.46131711597722497, ,0.06824350523458705
6, ,PASS, ,0.065151005, ,0.0084818783775403, ,0.026453599141629765, ,0.0005616190054609142, ,1.8333333333333333, ,0.6945782017914879, ,0.46170486316605786, ,0.07167200669374095
7, ,PASS, ,0.06498125199999999, ,0.008441598586370254, ,0.02661549547905145, ,0.0005575864853532325, ,1.8333333333333333, ,0.6936425721952447, ,0.4615416011918124, ,0.06954960102855044
8, ,PASS, ,0.06482196, ,0.008459193697637786, ,0.026465054924675005, ,0.0005572856068174972, ,1.8333333333333333, ,0.6940975542712787, ,0.4610109997755148, ,0.06914144609293688
9, ,PASS, ,0.06495442800000001, ,0.008406080058038657, ,0.026625712972245467, ,0.0005549006538589305, ,1.8333333333333333, ,0.6915316551448975, ,0.4609089610416114, ,0.06418236362523214
10, ,PASS, ,0.06467614999999999, ,0.008437132238148386, ,0.02651270263370135, ,0.0005546884312498534, ,1.8333333333333333, ,0.6946348452736866, ,0.46048039835921717, ,0.07010061019162875
11, ,PASS, ,0.06436807700000001, ,0.008393189721220239, ,0.02661934502420359, ,0.0005491009459582021, ,1.8333333333333333, ,0.696792661046734, ,0.46115385400297954, ,0.06852921368951655
12, ,PASS, ,0.064568775, ,0.008457424045539647, ,0.026712694845921512, ,0.0005551406964422, ,1.8333333333333333, ,0.6968031549947877, ,0.4606436603334626, ,0.07022305667231281
13, ,PASS, ,0.07157371300000001, ,0.009622384713109543, ,0.02628166999318381, ,0.0006992070264449582, ,1.8333333333333333, ,0.7065403876483457, ,0.4609293687883921, ,0.06848839819595519
14, ,PASS, ,0.07204434100000001, ,0.009804579115525227, ,0.0262994740945695, ,0.0007178004695359114, ,1.8333333333333333, ,0.7151659075760353, ,0.46086814554805006, ,0.07636578845329688
15, ,PASS, ,0.0521563373, ,0.006361929016050792, ,0.026845649732862596, ,0.0003389884404404143, ,1.9166666666666667, ,0.6737089601329906, ,0.4609497765351728, ,0.06154976429052468
16, ,PASS, ,0.05095087799999999, ,0.006241998659799224, ,0.027416129928776966, ,0.00032492158298165263, ,1.9166666666666667, ,0.6773856768768406, ,0.4610926307626375, ,0.0673659721230179
17, ,PASS, ,0.05059315899999999, ,0.00619012554337082, ,0.0272718592147099, ,0.0003199707656787773, ,1.9166666666666667, ,0.6758454920329069, ,0.4610518152690761, ,0.06740678761657926
18, ,PASS, ,0.05054423399999997, ,0.006216410185585064, ,0.027233433357074344, ,0.00032090076632156246, ,1.9166666666666667, ,0.675952486485989, ,0.4605824370931205, ,0.06497826574967858
19, ,PASS, ,0.05055646999999999, ,0.006189369023258485, ,0.027144897081896286, ,0.00031963849534645804, ,1.9166666666666667, ,0.6752134829770062, ,0.46086814554805006, ,0.062141588947164345
20, ,PASS, ,0.050394728999999985, ,0.00612537879115931, ,0.026994463706046815, ,0.0003154181825141658, ,1.9166666666666667, ,0.6713359543464869, ,0.4608885532948307, ,0.05979469806738638
21, ,PASS, ,0.050095583, ,0.006106423740352076, ,0.027052604683781966, ,0.0003124527928250929, ,1.9166666666666667, ,0.674681540298797, ,0.4612763004836636, ,0.0666312932389135
22, ,PASS, ,0.050576936999999975, ,0.006156916730797267, ,0.027203648569416948, ,0.00031805434950711884, ,1.9166666666666667, ,0.6743185576723758, ,0.4621130181016714, ,0.05954980510601825
23, ,PASS, ,0.049874884999999994, ,0.0061056483904888235, ,0.026955510591416505, ,0.0003110298760413849, ,1.9166666666666667, ,0.6757384621462599, ,0.46111303850941815, ,0.062202812187506375
24, ,PASS, ,0.04987573099999999, ,0.006089442073472937, ,0.02703147300769372, ,0.00031005717986808156, ,1.9166666666666667, ,0.6739392553834453, ,0.4617456786596192, ,0.06681496295993959
25, ,PASS, ,0.049694938, ,0.006042189662496144, ,0.02719740752392808, ,0.00030687605753345227, ,1.9166666666666667, ,0.6736138231394957, ,0.4621334258484521, ,0.06585579886124773
26, ,PASS, ,0.049382138, ,0.0059767483466836415, ,0.02705262101936695, ,0.0003016436549471729, ,1.9166666666666667, ,0.6721523013925754, ,0.46115385400297954, ,0.06191710373257689
27, ,PASS, ,0.049424204, ,0.005980918814515921, ,0.026947867638211467, ,0.0003021341556834264, ,1.9166666666666667, ,0.672995025615761, ,0.4610926307626375, ,0.06505989673680129
28, ,PASS, ,0.04957173700000001, ,0.005997605060462108, ,0.027051858091263446, ,0.00030386948975088596, ,1.9166666666666667, ,0.6721250171262464, ,0.46113344625619884, ,0.06465174180118773
29, ,PASS, ,0.049423417, ,0.006010916287382906, ,0.027070330328360648, ,0.0003036942984858747, ,1.9166666666666667, ,0.6725257571930237, ,0.46066406808024324, ,0.06344768474112773
30, ,PASS, ,0.04938585899999999, ,0.005997249089901639, ,0.027083947207608008, ,0.00030247628859039657, ,1.9166666666666667, ,0.6738411427738726, ,0.4617456786596192, ,0.06426399461235485
31, ,PASS, ,0.048995529, ,0.005982260854871874, ,0.02718539739127773, ,0.00029952585744683714, ,1.9166666666666667, ,0.6737364949647499, ,0.4606028448399012, ,0.0642231791187935
32, ,PASS, ,0.048984183, ,0.005876064047928717, ,0.027226103225444376, ,0.0002943474812885868, ,1.9166666666666667, ,0.6676677153171177, ,0.46082733005448867, ,0.061753841758331464
33, ,PASS, ,0.04903427499999999, ,0.005873540296085626, ,0.027233020443256258, ,0.0002943567998771256, ,1.9166666666666667, ,0.6670953278811833, ,0.46113344625619884, ,0.05769270014897655
34, ,PASS, ,0.04886580400000001, ,0.005860845883536407, ,0.026897458956143754, ,0.00029292106564948175, ,1.9166666666666667, ,0.6670783638065392, ,0.4609293687883921, ,0.06146813330340197
35, ,PASS, ,0.048929339, ,0.005880015995299917, ,0.027184879609599807, ,0.0002941890136970977, ,1.9166666666666667, ,0.6673889246113464, ,0.46111303850941815, ,0.06418236362523214
36, ,PASS, ,0.049090765999999994, ,0.005982457636398603, ,0.027089728231464664, ,0.00030008212471870554, ,1.9166666666666667, ,0.6733328751260846, ,0.4614803779514704, ,0.06575376012734434
37, ,PASS, ,0.049405401999999994, ,0.00603804974917951, ,0.027085834619905717, ,0.00030473552163217803, ,1.9166666666666667, ,0.6762336316596267, ,0.4613987469643477, ,0.06312116079263688
38, ,PASS, ,0.04921940799999998, ,0.006015755862464492, ,0.027121753013203815, ,0.00030257741031842106, ,1.9166666666666667, ,0.673887929121142, ,0.4606232525866819, ,0.05775392338931858
39, ,PASS, ,0.04878529, ,0.005927725287191601, ,0.027270062298728595, ,0.00029541885259348787, ,1.9166666666666667, ,0.6720979337111391, ,0.4608885532948307, ,0.06526397420460807
40, ,PASS, ,0.049390135999999994, ,0.0060096971421573775, ,0.02716599326156609, ,0.0003033360262394507, ,1.9166666666666667, ,0.6728842996849916, ,0.4607252913205853, ,0.06397828615742536
41, ,PASS, ,0.049728402, ,0.006021322832292298, ,0.026988788435338053, ,0.0003058183972406262, ,1.9166666666666667, ,0.6695601570734054, ,0.4622966878226975, ,0.06185588049223485
42, ,PASS, ,0.04926109799999999, ,0.005987314955531948, ,0.026936937735760495, ,0.00030149168556641747, ,1.9166666666666667, ,0.6732394665166381, ,0.45882737086998227, ,0.06426399461235485
43, ,PASS, ,0.049535372, ,0.006024306120464939, ,0.02694176113467072, ,0.0003050028336243596, ,1.9166666666666667, ,0.6706907807086679, ,0.46199057162098733, ,0.06454970306728434
44, ,PASS, ,0.049357566000000005, ,0.005994258499909031, ,0.026827366676394362, ,0.00030237317275626447, ,1.9166666666666667, ,0.6713487349572478, ,0.4612763004836636, ,0.060957939633885024
45, ,PASS, ,0.049493981, ,0.006026553184246436, ,0.027003879450011224, ,0.0003046255954099095, ,1.9166666666666667, ,0.6732334285506087, ,0.4614803779514704, ,0.060957939633885024
46, ,PASS, ,0.049506694, ,0.006054915105578318, ,0.026960928329421853, ,0.00030611205754831094, ,1.9166666666666667, ,0.6756186197331951, ,0.4617456786596192, ,0.06420277137201282
47, ,PASS, ,0.05035550099999999, ,0.006231974549085469, ,0.026888829890206325, ,0.00032056895768870175, ,1.9166666666666667, ,0.6793264247885703, ,0.46123548499010225, ,0.0657945756209057
48, ,PASS, ,0.04941907999999999, ,0.00604978382349543, ,0.027071379839595112, ,0.00030538185783176517, ,1.9166666666666667, ,0.6736634746536055, ,0.4605416215995592, ,0.06322319952654028
49, ,PASS, ,0.04974537499999999, ,0.00605597347466027, ,0.02702075245015408, ,0.0003077682866742322, ,1.9166666666666667, ,0.6746000101503147, ,0.46115385400297954, ,0.06297830656517214
50, ,PASS, ,0.04983560999999999, ,0.006075024969545635, ,0.027014587224954593, ,0.0003092944298206353, ,1.9166666666666667, ,0.6746670797867945, ,0.4614803779514704, ,0.06246811289565519
51, ,PASS, ,0.04960719799999999, ,0.0060646754930887385, ,0.02702613122201588, ,0.0003073813989270146, ,1.9166666666666667, ,0.6743073806029964, ,0.4619293483806453, ,0.06136609456949858
52, ,PASS, ,0.049329477000000004, ,0.006040681619514753, ,0.026780094735209488, ,0.0003043856507553211, ,1.9166666666666667, ,0.6751276710893723, ,0.4610314075222955, ,0.06503948899002061
53, ,PASS, ,0.04962625600000001, ,0.006016189522596254, ,0.026829307654333584, ,0.00030519312062109204, ,1.9166666666666667, ,0.6711135984893253, ,0.4608885532948307, ,0.06016203750943858
54, ,PASS, ,0.049341857, ,0.006014128886979738, ,0.02694743511785474, ,0.0003031018897104039, ,1.9166666666666667, ,0.672692769955119, ,0.4616436399257158, ,0.06110079386134977
55, ,PASS, ,0.049936605999999994, ,0.006181883038376526, ,0.02684891893206261, ,0.00031527520782825326, ,1.9166666666666667, ,0.6815935381547774, ,0.4610722230158568, ,0.06818228199424502
56, ,PASS, ,0.04946566700000002, ,0.006044396004098993, ,0.02687837119446542, ,0.0003054709885429484, ,1.9166666666666667, ,0.6758409312129378, ,0.4610926307626375, ,0.060957939633885024
57, ,PASS, ,0.049372637999999996, ,0.006031860819705056, ,0.02702539244995, ,0.00030427321986201773, ,1.9166666666666667, ,0.6766555745297711, ,0.4610518152690761, ,0.06567212914022162
58, ,PASS, ,0.049358449000000006, ,0.0060173419416836285, ,0.02685368809310014, ,0.0003033765425117352, ,1.9166666666666667, ,0.6725928432461928, ,0.461378339217567, ,0.06314156853941756
59, ,PASS, ,0.049190472000000006, ,0.0060082153565986455, ,0.027021880243464417, ,0.0003019168247317932, ,1.9166666666666667, ,0.6742793077257591, ,0.4614599702046897, ,0.062447705148874516
60, ,PASS, ,0.04989690100000001, ,0.006033752375553398, ,0.026941588419828168, ,0.0003074776708321072, ,1.9166666666666667, ,0.6694793371756425, ,0.461378339217567, ,0.0562641578743291
61, ,PASS, ,0.049855381, ,0.00606566529669282, ,0.02689922079937144, ,0.0003091274385662626, ,1.9166666666666667, ,0.6735069490196746, ,0.46050080610599786, ,0.06259055937633926
62, ,PASS, ,0.049534046, ,0.0060337197883143555, ,0.026927192544029716, ,0.00030542198752222524, ,1.9166666666666667, ,0.6735032018782939, ,0.4610926307626375, ,0.06567212914022162
63, ,PASS, ,0.049446046, ,0.006027205069226128, ,0.026983477215771108, ,0.00030446016140104584, ,1.9166666666666667, ,0.6740231681903557, ,0.46119466949654087, ,0.07071284259504908
64, ,PASS, ,0.04970811900000001, ,0.0060144774508635685, ,0.026959956608232485, ,0.0003053926099910605, ,1.9166666666666667, ,0.6696995397101848, ,0.46121507724332156, ,0.05732536070692435
65, ,PASS, ,0.049678065, ,0.006028820768295869, ,0.027117590626721904, ,0.00030618455317195115, ,1.9166666666666667, ,0.6713801121161048, ,0.46076610681414665, ,0.06516193547070467
66, ,PASS, ,0.049531822999999996, ,0.006035352730307564, ,0.026868757057611072, ,0.00030554728849988656, ,1.9166666666666667, ,0.6723030283723306, ,0.46078651456092734, ,0.06365176220893451
67, ,PASS, ,0.049648051, ,0.006068832880961673, ,0.026997189589396134, ,0.00030798238503109907, ,1.9166666666666667, ,0.6750590711531878, ,0.4610722230158568, ,0.06201914246648028
68, ,PASS, ,0.049573561, ,0.006043351824915415, ,0.026802596720271014, ,0.00030616231677690295, ,1.9166666666666667, ,0.672766060273961, ,0.4605620293463399, ,0.06497826574967858
69, ,PASS, ,0.04950824399999999, ,0.006065015688902974, ,0.026951919731229977, ,0.0003067546863329988, ,1.9166666666666667, ,0.6740580597433444, ,0.46080692230770803, ,0.06591702210158977
70, ,PASS, ,0.04958913100000001, ,0.0060546330632258154, ,0.02684125957960042, ,0.00030664283079626136, ,1.9166666666666667, ,0.6754565492805397, ,0.462010979367768, ,0.06848839819595519
71, ,PASS, ,0.049542075, ,0.006064946425576678, ,0.02692999471704659, ,0.00030698759464379, ,1.9166666666666667, ,0.6735595661224367, ,0.4610722230158568, ,0.06497826574967858
72, ,PASS, ,0.049829856, ,0.006055656173550677, ,0.027022014910716107, ,0.0003082731419378468, ,1.9166666666666667, ,0.6746422642937895, ,0.46152119344503173, ,0.06330483051366298
73, ,PASS, ,0.04923752, ,0.005971445543232607, ,0.026792507489438993, ,0.0003003005931942961, ,1.9166666666666667, ,0.6718617532809763, ,0.4610722230158568, ,0.060039591028754516
74, ,PASS, ,0.04925878399999999, ,0.006003242236127876, ,0.027088634059917144, ,0.00030211052048448436, ,1.9166666666666667, ,0.6725157661863594, ,0.46160282443215445, ,0.0623660741617518
75, ,PASS, ,0.04914474400000001, ,0.005974924794757865, ,0.02705241717271076, ,0.0003000727780933904, ,1.9166666666666667, ,0.6714892151814745, ,0.4609293687883921, ,0.062447705148874516
76, ,PASS, ,0.049083308000000006, ,0.005896911537373759, ,0.026942853215648665, ,0.0002958635544597069, ,1.9166666666666667, ,0.6684055500536438, ,0.4612763004836636, ,0.06385583967674129
77, ,PASS, ,0.04907708200000001, ,0.005898281738294183, ,0.026853239735311524, ,0.0002958775328256304, ,1.9166666666666667, ,0.6693438758876731, ,0.46158241668537375, ,0.06420277137201282
78, ,PASS, ,0.04915888699999999, ,0.005924963198019383, ,0.026942149405726416, ,0.00029774402593204114, ,1.9166666666666667, ,0.6701364770451746, ,0.4613375237240056, ,0.06169261851798943
79, ,PASS, ,0.0489003, ,0.005892918631996324, ,0.026907316543948085, ,0.00029455461625176727, ,1.9166666666666667, ,0.6689877305973456, ,0.46152119344503173, ,0.06524356645782739
80, ,PASS, ,0.04914585000000002, ,0.005943261060181655, ,0.026926119153486666, ,0.0002984713265060299, ,1.9166666666666667, ,0.6684374895403552, ,0.46113344625619884, ,0.05897838819615926
81, ,PASS, ,0.04923571, ,0.005999956963747128, ,0.02708369140711414, ,0.00030178741003712245, ,1.9166666666666667, ,0.6754826582411879, ,0.46415379277973917, ,0.06740678761657926
82, ,PASS, ,0.049290848, ,0.005968274817375324, ,0.027025880883655436, ,0.000300644960618598, ,1.9166666666666667, ,0.6720686728826291, ,0.46111303850941815, ,0.06657006999857146
83, ,PASS, ,0.04934729500000002, ,0.005963256560927682, ,0.02683444319013898, ,0.00030091781105840267, ,1.9166666666666667, ,0.6693509272730508, ,0.4610109997755148, ,0.06469255729474908
84, ,PASS, ,0.04980580600000001, ,0.006001663648747435, ,0.026766659210628357, ,0.00030552048813591373, ,1.9166666666666667, ,0.6681069099148397, ,0.4610722230158568, ,0.05622334238076774
85, ,PASS, ,0.049575675, ,0.005954758992708814, ,0.026888159161649765, ,0.0003017747201385865, ,1.9166666666666667, ,0.669102676658459, ,0.4614803779514704, ,0.06481500377543316
86, ,PASS, ,0.04963761399999999, ,0.0059944419833537115, ,0.026957718675333156, ,0.0003040375618384746, ,1.9166666666666667, ,0.6694226507556088, ,0.4616436399257158, ,0.06269259811024265
87, ,PASS, ,0.049735467000000005, ,0.006033671839561532, ,0.02699876718271056, ,0.000306626999929429, ,1.9166666666666667, ,0.6723308321234718, ,0.46121507724332156, ,0.06691700169384299
88, ,PASS, ,0.05776594295000003, ,0.007466915105144562, ,0.026525502003040755, ,0.000439769788669549, ,1.8333333333333333, ,0.6985323434417233, ,0.46115385400297954, ,0.07005979469806739
89, ,PASS, ,0.08961554000000001, ,0.012496067239264382, ,0.02539197580338197, ,0.0011366877936215768, ,1.8333333333333333, ,0.7224497299105919, ,0.4609497765351728, ,0.07132507499846942
90, ,PASS, ,0.061886062000000006, ,0.007688189143617671, ,0.026669020505765192, ,0.00048542493373027244, ,1.8333333333333333, ,0.6796013928370725, ,0.4612967082304443, ,0.06250892838921655
91, ,PASS, ,0.060723616, ,0.007551200185469628, ,0.02662641464441542, ,0.00046794914241082136, ,1.8333333333333333, ,0.6793887862692071, ,0.46066406808024324, ,0.06577416787412502
92, ,PASS, ,0.060627969000000004, ,0.0075619919144556385, ,0.02662950558545744, ,0.0004674350835553213, ,1.9166666666666667, ,0.6836006673149229, ,0.46199057162098733, ,0.06924348482684027
93, ,PASS, ,0.060703062000000016, ,0.007535048305918417, ,0.026538014567029245, ,0.0004665999689013392, ,1.8333333333333333, ,0.680521105863421, ,0.4613375237240056, ,0.06342727699434705
94, ,PASS, ,0.060406375000000005, ,0.007521586441874785, ,0.02643324462070162, ,0.00046350552794107103, ,1.8333333333333333, ,0.6827240579345472, ,0.46158241668537375, ,0.06738637986979858
95, ,PASS, ,0.06036154500000001, ,0.007501878823238088, ,0.02661546509646742, ,0.0004621092971024645, ,1.8333333333333333, ,0.6813217301954597, ,0.4610109997755148, ,0.06697822493418501
96, ,PASS, ,0.060120019999999996, ,0.007466957433369897, ,0.026575306080386114, ,0.00045794069457897284, ,1.8333333333333333, ,0.6798796184176189, ,0.46113344625619884, ,0.06367216995571519
97, ,PASS, ,0.05998202000000002, ,0.007463632685263265, ,0.026567908973327076, ,0.0004569282653279782, ,1.8333333333333333, ,0.6817564698261444, ,0.4606028448399012, ,0.06750882635048264
98, ,PASS, ,0.05983921460000001, ,0.007429851640391496, ,0.02675423024648477, ,0.0004536767479195639, ,1.8333333333333333, ,0.6794188126840615, ,0.4610314075222955, ,0.06322319952654028
99, ,PASS, ,0.059620307000000004, ,0.007421668689231817, ,0.026564376715291528, ,0.0004515846011167153, ,1.8333333333333333, ,0.6806137331566655, ,0.4605824370931205, ,0.06812105875390298
100, ,PASS, ,0.059864371, ,0.007399016560185009, ,0.026704650370421017, ,0.0004521157791204348, ,1.8333333333333333, ,0.6785462939925296, ,0.46123548499010225, ,0.06446807208016163
101, ,PASS, ,0.05983809600000002, ,0.007407214063467863, ,0.026607028856819252, ,0.00045237092305774516, ,1.8333333333333333, ,0.6782399211329255, ,0.4606436603334626, ,0.06250892838921655
102, ,PASS, ,0.0598786563, ,0.007399125579782469, ,0.02669455586690068, ,0.0004521756997153186, ,1.8333333333333333, ,0.6778936279314184, ,0.46033754413175243, ,0.06187628823901553
103, ,PASS, ,0.0600129552, ,0.00741942639402982, ,0.026536637297912287, ,0.00045436849439935785, ,1.9166666666666667, ,0.6774086201239375, ,0.46119466949654087, ,0.06471296504152976
104, ,PASS, ,0.060542086, ,0.007503962550118766, ,0.02670107018671048, ,0.00046379450377540384, ,1.8333333333333333, ,0.6803701023988706, ,0.46117426174976023, ,0.06642721577110672
105, ,PASS, ,0.060615444, ,0.0075178169952112486, ,0.02647270018722067, ,0.00046504668726987804, ,1.8333333333333333, ,0.6795220049568856, ,0.46119466949654087, ,0.06803942776678026
106, ,PASS, ,0.06119784, ,0.007612336471859324, ,0.026412528658966147, ,0.00047533797146037654, ,1.8333333333333333, ,0.68087581911312, ,0.46113344625619884, ,0.06499867349645926
107, ,PASS, ,0.061754833, ,0.007770276310587182, ,0.026651211245872535, ,0.0004892045712868441, ,1.9166666666666667, ,0.6852789698736909, ,0.46205179486132936, ,0.06424358686557417
108, ,PASS, ,0.061794726999999994, ,0.007900842161815212, ,0.026437799496765373, ,0.0004974940051781854, ,1.8333333333333333, ,0.6922139697661002, ,0.46117426174976023, ,0.07008020244484807
