Channel, ,Pass/Fail, ,Amplitude, ,Sorting Function Response, ,Mean, ,Variance, ,NPeaksRatio, ,PosIntegralRatio, ,ToT50, ,ToT99
0, ,PASS, ,0.05526634799999998, ,0.006943813195286414, ,0.03601618679904491, ,0.0003910204879243665, ,1.8333333333333333, ,0.6872361854368648, ,0.4485214587457399, ,0.06954960102855044
1, ,PASS, ,0.054685819999999996, ,0.0068938030651427345, ,0.03639779520295504, ,0.00038380621704653856, ,1.8333333333333333, ,0.6834817839389377, ,0.4539907348829616, ,0.0680190200199996
2, ,PASS, ,0.054480111999999956, ,0.00675637897344559, ,0.03628182935225811, ,0.0003755323616809486, ,1.8333333333333333, ,0.6830688533086196, ,0.450480602436685, ,0.06803942776678026
3, ,PASS, ,0.05419840599999997, ,0.006761029046505893, ,0.03622403505397848, ,0.0003737036065331373, ,1.8333333333333333, ,0.6837550954098391, ,0.4502765249688782, ,0.06512111997714333
4, ,PASS, ,0.05379216599999996, ,0.006745222160239301, ,0.03633634643476663, ,0.00036978055409415207, ,1.8333333333333333, ,0.6842284434095237, ,0.44950103059121244, ,0.0661619150629579
5, ,PASS, ,0.05383550199999998, ,0.006790369190355156, ,0.03652046921613844, ,0.0003726063100563724, ,1.8333333333333333, ,0.6850797020030182, ,0.4527458623293402, ,0.06934552356074365
6, ,PASS, ,0.053989954999999965, ,0.006738525495649941, ,0.03639102984306443, ,0.00037128603943984914, ,1.8333333333333333, ,0.6841315250062079, ,0.45292953205036635, ,0.06703944817452705
7, ,PASS, ,0.05413736899999999, ,0.006822046929454843, ,0.03613058701189771, ,0.0003762979443218537, ,1.8333333333333333, ,0.6911718362051836, ,0.4485826819860819, ,0.06797820452643824
8, ,PASS, ,0.05327798799999998, ,0.00673018039005684, ,0.036258738539009405, ,0.0003653754289216357, ,1.8333333333333333, ,0.6879102632574879, ,0.4489704291749148, ,0.0673659721230179
9, ,PASS, ,0.053850549999999976, ,0.006789371016442392, ,0.0362584288524724, ,0.0003725479375813474, ,1.8333333333333333, ,0.6871880341340364, ,0.44946021509765105, ,0.06273341360380401
10, ,PASS, ,0.05374691199999999, ,0.006787418630539533, ,0.03624866438664517, ,0.0003718063553657657, ,1.8333333333333333, ,0.6897617818345656, ,0.45003163200751006, ,0.06720271014877248
11, ,PASS, ,0.05356634699999997, ,0.0067548017373163845, ,0.03622021718434318, ,0.00036874954689150325, ,1.8333333333333333, ,0.6893183340710578, ,0.4498071467929226, ,0.06512111997714333
12, ,PASS, ,0.053352227999999946, ,0.006765816297959524, ,0.036189273301973426, ,0.00036733583760585375, ,1.8333333333333333, ,0.6903010785783432, ,0.4489296136813534, ,0.06805983551356094
13, ,PASS, ,0.053111220000000015, ,0.006756357839752336, ,0.03628394705965184, ,0.0003654449853312352, ,1.8333333333333333, ,0.6902953144590547, ,0.4497255158057999, ,0.0673659721230179
14, ,PASS, ,0.05286289999999996, ,0.006684052175859503, ,0.036309562163629315, ,0.000359918730696065, ,1.8333333333333333, ,0.6878641506985865, ,0.44997040876716804, ,0.06103957062100773
15, ,PASS, ,0.05403361399999998, ,0.0069667245793472755, ,0.03615296347217403, ,0.00038326269708456964, ,1.8333333333333333, ,0.6965625323071697, ,0.4494193996040897, ,0.0712434440113467
16, ,PASS, ,0.05260306999999997, ,0.006711210371356434, ,0.036277939799595926, ,0.0003595153422802263, ,1.8333333333333333, ,0.6899054899509739, ,0.44990918552682596, ,0.07269239403277485
17, ,PASS, ,0.05209148, ,0.006562985090387903, ,0.036133022652190774, ,0.00034811690094276704, ,1.8333333333333333, ,0.6888140337899534, ,0.4460929368788392, ,0.06767208832472807
18, ,PASS, ,0.05194721000000001, ,0.00647745023744321, ,0.03612987890900186, ,0.0003432017476282056, ,1.8333333333333333, ,0.6845225374719441, ,0.4525621926083141, ,0.06242729740209384
19, ,PASS, ,0.05173803999999999, ,0.00644389101347587, ,0.0363476998795943, ,0.0003400471542684406, ,1.8333333333333333, ,0.6829265932127206, ,0.4519295524581131, ,0.0635701312218118
20, ,PASS, ,0.05164363999999999, ,0.006535543725606139, ,0.03632517132609539, ,0.00034370610177584176, ,1.8333333333333333, ,0.6869515861143476, ,0.4531540172649538, ,0.06608028407583519
21, ,PASS, ,0.05167053, ,0.0065972559171789845, ,0.03606305865655803, ,0.00034679195359633215, ,1.9166666666666667, ,0.6953626709420818, ,0.44403175445399073, ,0.07030468765943552
22, ,PASS, ,0.05193386999999999, ,0.006578602641189877, ,0.03624478326095386, ,0.0003478883467324717, ,1.8333333333333333, ,0.6892259664206363, ,0.4483173812779331, ,0.06408032489132875
23, ,PASS, ,0.05258225299999998, ,0.006800571851339139, ,0.036003035756004984, ,0.0003636053365740525, ,1.8333333333333333, ,0.6970663969858117, ,0.446868431256505, ,0.06842717495561315
24, ,PASS, ,0.05233472399999999, ,0.006692031425887004, ,0.036099639832860554, ,0.0003563664744784765, ,1.8333333333333333, ,0.6942857165752633, ,0.4472765861921185, ,0.06905981510581417
25, ,PASS, ,0.052221229999999966, ,0.0066846545497930435, ,0.036069315973755636, ,0.0003552032465101378, ,2.0, ,0.6969021393900253, ,0.4417664945613355, ,0.06914144609293688
26, ,PASS, ,0.051244729999999995, ,0.006804598533791054, ,0.034952992969123076, ,0.0003530592051001626, ,1.8333333333333333, ,0.7032206050875108, ,0.4279912654843779, ,0.06516193547070467
27, ,PASS, ,0.05119225999999999, ,0.006839748574470903, ,0.03511322136099263, ,0.0003542712117405713, ,1.8333333333333333, ,0.703814482537364, ,0.42652190771616905, ,0.06565172139344096
28, ,PASS, ,0.05104403999999999, ,0.006830970644227608, ,0.03491357459949797, ,0.0003528296922224031, ,1.8333333333333333, ,0.704678313475342, ,0.4249913267076182, ,0.06330483051366298
29, ,PASS, ,0.05070286000000001, ,0.00678672489619433, ,0.0349469565745597, ,0.0003481084136370512, ,1.8333333333333333, ,0.7015707759114852, ,0.4247872492398114, ,0.06350890798146977
30, ,PASS, ,0.050669290000000006, ,0.0068050972573409875, ,0.0349317309963062, ,0.00034874295665064046, ,1.8333333333333333, ,0.7030208122687183, ,0.4243382788106365, ,0.06434562559947757
31, ,PASS, ,0.05047138000000001, ,0.006749900089618313, ,0.03482363325748455, ,0.00034470022756106247, ,1.8333333333333333, ,0.7045851926512855, ,0.42239954286647213, ,0.06428440235913553
32, ,PASS, ,0.05078651, ,0.006800895569739648, ,0.03493015650129589, ,0.00034961074909893347, ,1.9166666666666667, ,0.7046195851940188, ,0.42033836044162365, ,0.06452929532050367
33, ,PASS, ,0.05069994, ,0.006774428148910657, ,0.03507449556947817, ,0.0003475477374589917, ,1.8333333333333333, ,0.7033769681038541, ,0.422154649905104, ,0.06612109956939655
34, ,PASS, ,0.05089974999999998, ,0.006823779644666574, ,0.034855150032652396, ,0.0003514493853241447, ,1.9166666666666667, ,0.7037825548172092, ,0.4225832125874982, ,0.06228444317462909
35, ,PASS, ,0.05128553400000001, ,0.006908151841077625, ,0.034778772723005655, ,0.00035836657170482914, ,1.9166666666666667, ,0.7038873150059892, ,0.42188934919695514, ,0.06575376012734434
36, ,PASS, ,0.051017660000000006, ,0.006951222739379111, ,0.03480619240505296, ,0.00035880931710867913, ,1.9166666666666667, ,0.708912160959698, ,0.4200322442399135, ,0.06926389257362095
37, ,PASS, ,0.05149222999999998, ,0.006931186030784022, ,0.0348265084475827, ,0.00036124485090840194, ,1.9166666666666667, ,0.7037024213211969, ,0.4214811942613416, ,0.06063141568539417
38, ,PASS, ,0.05201762999999998, ,0.007015293022948384, ,0.034705954930307543, ,0.00036920741876045413, ,1.9166666666666667, ,0.7051192398001095, ,0.4219505724372972, ,0.06493745025611722
39, ,PASS, ,0.057736188999999966, ,0.00791861492147278, ,0.034395781707414134, ,0.0004624471567740499, ,1.9166666666666667, ,0.709665980318474, ,0.42154241750168364, ,0.0679169812860962
40, ,PASS, ,0.15026663999999995, ,0.02391034524862947, ,0.025475849962449736, ,0.0036286841764633917, ,1.9166666666666667, ,0.7919461263348216, ,0.427664741535887, ,0.1605477439235934
41, ,PASS, ,0.058439223999999984, ,0.007475061786138849, ,0.034432112016081304, ,0.0004426351730025306, ,1.8333333333333333, ,0.6894562232826961, ,0.4207465153772372, ,0.06571294463378298
42, ,PASS, ,0.051733480000000005, ,0.006610197836844419, ,0.03483118509499806, ,0.0003466693178189889, ,1.8333333333333333, ,0.6892372670359015, ,0.4201342829738169, ,0.06565172139344096
43, ,PASS, ,0.05123663000000002, ,0.0065327809842543275, ,0.034967223083814614, ,0.0003393139526452109, ,1.8333333333333333, ,0.6894373466891235, ,0.42123630129997347, ,0.06308034529907552
44, ,PASS, ,0.05119815999999997, ,0.00651101693021504, ,0.03503405082855452, ,0.0003377095606244092, ,1.8333333333333333, ,0.6844138153118119, ,0.42364441542009346, ,0.0633864615007857
45, ,PASS, ,0.05081730000000004, ,0.006492035335592065, ,0.03491742658231465, ,0.00033443861583477705, ,1.8333333333333333, ,0.6890356066410954, ,0.4212771167935348, ,0.06548845941919552
46, ,PASS, ,0.050994230000000015, ,0.00648349717055037, ,0.03486285623905635, ,0.0003351189144043892, ,1.8333333333333333, ,0.6887771687195803, ,0.4201750984673782, ,0.0645905185608457
47, ,PASS, ,0.05071629, ,0.0064773127822397615, ,0.03493567313932369, ,0.0003329983782280761, ,1.8333333333333333, ,0.6876589837316294, ,0.4220322034244199, ,0.06599865308871247
48, ,PASS, ,0.05062965, ,0.006375499353743924, ,0.03498307975306626, ,0.0003271541853489981, ,1.8333333333333333, ,0.6844318156380478, ,0.42172608722270977, ,0.06518234321748535
49, ,PASS, ,0.05029037, ,0.0063474280284276504, ,0.0349192102771372, ,0.00032388946480475133, ,1.8333333333333333, ,0.6862878362708404, ,0.41984857451888735, ,0.06208036570682231
50, ,PASS, ,0.049966500000000025, ,0.006298203839537062, ,0.0349581005977429, ,0.0003190873515464266, ,1.8333333333333333, ,0.6833583187911851, ,0.42123630129997347, ,0.06240688965531316
51, ,PASS, ,0.04990121000000002, ,0.006266722604895715, ,0.034973287628007596, ,0.00031698208775536867, ,1.8333333333333333, ,0.6816520368583848, ,0.423991347115365, ,0.061264055835595195
52, ,PASS, ,0.04988227000000001, ,0.006239726030610208, ,0.034828525134180936, ,0.00031565664918616933, ,1.8333333333333333, ,0.6807244891323926, ,0.42115467031285075, ,0.0611620171016918
53, ,PASS, ,0.04974497000000003, ,0.0062263596880729345, ,0.03511393596069468, ,0.0003141278643092221, ,1.8333333333333333, ,0.6830590100674642, ,0.41990979775922943, ,0.06152935654374401
54, ,PASS, ,0.049876200000000016, ,0.006277817560793217, ,0.034935983825228056, ,0.0003176446057223706, ,1.8333333333333333, ,0.6844659495786888, ,0.42025672945450093, ,0.05969265933348299
55, ,PASS, ,0.05001165000000002, ,0.006274450729974981, ,0.03483331366951695, ,0.0003182252338682056, ,1.8333333333333333, ,0.6841375653888768, ,0.41993020550601007, ,0.058774310728352486
56, ,PASS, ,0.050174400000000015, ,0.006338086416024376, ,0.03494806120671007, ,0.00032270485267209894, ,1.8333333333333333, ,0.6849447580109114, ,0.41988939001244874, ,0.06273341360380401
57, ,PASS, ,0.05041492, ,0.006312492581276923, ,0.03483018318258811, ,0.00032280955651978405, ,1.8333333333333333, ,0.6816854565463162, ,0.417971061815065, ,0.062447705148874516
58, ,PASS, ,0.04996595, ,0.006311499767735777, ,0.03496492646394971, ,0.0003196293420325748, ,1.8333333333333333, ,0.6850842947648976, ,0.4206648843901145, ,0.06318238403297892
59, ,PASS, ,0.05011233000000001, ,0.006395611862052631, ,0.03505487371278137, ,0.0003250699783590553, ,1.8333333333333333, ,0.6880012893383902, ,0.41958327381073857, ,0.06334564600722434
60, ,PASS, ,0.05105486, ,0.0065194959192410905, ,0.0351101924083182, ,0.00033720120588504043, ,1.8333333333333333, ,0.6841920202578988, ,0.4250729576947409, ,0.062447705148874516
61, ,PASS, ,0.05109967999999999, ,0.006478751017212408, ,0.034846451938531864, ,0.0003359051620944431, ,1.8333333333333333, ,0.6869536565763827, ,0.41946082733005446, ,0.06401910165098672
62, ,PASS, ,0.05103628000000002, ,0.006441757834019796, ,0.035036522204240736, ,0.0003330451794922526, ,1.8333333333333333, ,0.6821509295043398, ,0.423358706965164, ,0.05850901002020367
63, ,PASS, ,0.050824629999999996, ,0.006451862097718103, ,0.034846598189424705, ,0.0003326079646701659, ,1.8333333333333333, ,0.6897596771790471, ,0.4166649660211016, ,0.06295789881839146
64, ,PASS, ,0.05058073000000001, ,0.006446586266135417, ,0.03488501180486112, ,0.0003306663303284914, ,1.8333333333333333, ,0.6878013161409632, ,0.41988939001244874, ,0.06359053896859247
65, ,PASS, ,0.05045990000000001, ,0.006387397760184934, ,0.03487002909103896, ,0.00032661589348920015, ,1.8333333333333333, ,0.6845790533962155, ,0.42233831962613005, ,0.06154976429052468
66, ,PASS, ,0.050670480000000004, ,0.006375941228033501, ,0.03489275984041142, ,0.0003277742588602651, ,1.8333333333333333, ,0.6836965381413953, ,0.4200934674802555, ,0.06238648190853248
67, ,PASS, ,0.050036230000000015, ,0.0063484181641811094, ,0.035030606206403955, ,0.0003217869177934975, ,1.8333333333333333, ,0.6827576456673934, ,0.4214607865145609, ,0.06308034529907552
68, ,PASS, ,0.05022763000000002, ,0.006319870797186658, ,0.035091201674455626, ,0.0003217543422558745, ,1.8333333333333333, ,0.6818223005495017, ,0.42060366114977243, ,0.05906001918328197
69, ,PASS, ,0.05020537000000001, ,0.006354266308327883, ,0.03502012970061836, ,0.0003232202463097357, ,1.8333333333333333, ,0.6815265045914674, ,0.42207301891798127, ,0.05910083467684333
70, ,PASS, ,0.049804710000000016, ,0.00632341171325718, ,0.03525500111609967, ,0.00031901163216316867, ,1.8333333333333333, ,0.6840263907429873, ,0.42039958368196567, ,0.060835493153200956
71, ,PASS, ,0.04970800000000002, ,0.00628128674128248, ,0.034869414706638645, ,0.00031636161080702104, ,1.8333333333333333, ,0.6858737932523687, ,0.4213995632742189, ,0.0606110079386135
72, ,PASS, ,0.05015241000000002, ,0.006342722950894917, ,0.03494839650252036, ,0.0003226504680778211, ,1.8333333333333333, ,0.6852409127950647, ,0.4198281667721067, ,0.06281504459092671
73, ,PASS, ,0.05006937000000001, ,0.006425363764422992, ,0.03475719757821269, ,0.00032616139260772145, ,1.8333333333333333, ,0.6935317644583465, ,0.4197261280382033, ,0.06548845941919552
74, ,PASS, ,0.05038525000000002, ,0.006488467936694822, ,0.034725602659537565, ,0.0003314227906797544, ,1.8333333333333333, ,0.6933827920391085, ,0.42164445623558705, ,0.06934552356074365
75, ,PASS, ,0.04984437000000001, ,0.006301346130143442, ,0.03506368125466827, ,0.0003183913295703114, ,1.8333333333333333, ,0.6876340911837537, ,0.42199138793085855, ,0.06722311789555316
76, ,PASS, ,0.049682020000000014, ,0.006297342258221856, ,0.035145618743903186, ,0.00031701601887011434, ,1.8333333333333333, ,0.6858841929155998, ,0.42164445623558705, ,0.06250892838921655
77, ,PASS, ,0.04966336000000001, ,0.00629738991593337, ,0.03482267422358728, ,0.0003169927328251978, ,1.8333333333333333, ,0.6883949892253594, ,0.4216852717291484, ,0.06430481010591621
78, ,PASS, ,0.04948376000000002, ,0.006329899298966729, ,0.03483030363992572, ,0.0003175427874576469, ,1.8333333333333333, ,0.6882518030682276, ,0.4201750984673782, ,0.06748841860370197
79, ,PASS, ,0.04962015000000001, ,0.00626837538468346, ,0.034778996509254916, ,0.0003153217897521027, ,1.8333333333333333, ,0.6839549955108968, ,0.42164445623558705, ,0.061243648088814516
80, ,PASS, ,0.04979892000000002, ,0.006286908453741227, ,0.03507644684863574, ,0.00031734018575885073, ,1.8333333333333333, ,0.684877051034777, ,0.42113426256607006, ,0.06105997836778841
81, ,PASS, ,0.04993577000000002, ,0.006373408929497771, ,0.035049728584314606, ,0.0003225064578605862, ,1.8333333333333333, ,0.6862906563547762, ,0.42023632170772024, ,0.06420277137201282
82, ,PASS, ,0.05013571000000001, ,0.006362963076448741, ,0.034912367214546644, ,0.00032331574864480816, ,1.8333333333333333, ,0.6917890296476252, ,0.421011816085386, ,0.0661619150629579
83, ,PASS, ,0.04964454900000001, ,0.006200730173682991, ,0.03493522447052101, ,0.000312118267869417, ,1.8333333333333333, ,0.6844801339365031, ,0.4227056590681823, ,0.06485581926899452
84, ,PASS, ,0.04988194000000002, ,0.006238340478627635, ,0.035096111536499254, ,0.00031533185513303667, ,1.8333333333333333, ,0.6799198569348223, ,0.42237913511969144, ,0.059284504397869434
85, ,PASS, ,0.049792770000000014, ,0.006297621799515337, ,0.03501744183465644, ,0.00031757094204789324, ,1.8333333333333333, ,0.6834102038368173, ,0.42421583232995247, ,0.06252933613599722
86, ,PASS, ,0.049824770000000025, ,0.006221843120841619, ,0.03511408599212261, ,0.00031409130751919166, ,1.8333333333333333, ,0.6833474851262371, ,0.424623987265566, ,0.06348850023468909
87, ,PASS, ,0.04977037000000001, ,0.006205568871934263, ,0.03493468473949511, ,0.0003129719009202719, ,1.9166666666666667, ,0.6806213886307443, ,0.4245423562784433, ,0.06142731780984061
88, ,PASS, ,0.04966674000000002, ,0.00621150137274352, ,0.035007466387624746, ,0.0003126717220365929, ,1.8333333333333333, ,0.6836981303079976, ,0.42366482316687415, ,0.0631007530458562
89, ,PASS, ,0.04993372000000001, ,0.006244959903074977, ,0.03513782408216159, ,0.0003158892612673522, ,1.8333333333333333, ,0.680968822401898, ,0.423991347115365, ,0.056835574784188075
90, ,PASS, ,0.04976049000000001, ,0.0062286299247623165, ,0.03519758383624824, ,0.00031399511242875567, ,1.8333333333333333, ,0.6827902051347201, ,0.42403216260892634, ,0.0611620171016918
91, ,PASS, ,0.049487840000000005, ,0.00622613350523201, ,0.03493350938429828, ,0.00031212919817252095, ,1.8333333333333333, ,0.6831074971874749, ,0.4230321830166731, ,0.05897838819615926
92, ,PASS, ,0.04991612000000002, ,0.006274486831776276, ,0.03498853753188711, ,0.000317275909795047, ,1.8333333333333333, ,0.6818859817184962, ,0.4242566478235138, ,0.060508969204710106
93, ,PASS, ,0.04970114000000002, ,0.00625720812202605, ,0.03499438541111406, ,0.0003151004946896407, ,1.9166666666666667, ,0.6855326576725346, ,0.4242770555702945, ,0.06424358686557417
94, ,PASS, ,0.04967336000000003, ,0.0061866929031624916, ,0.03537133918960838, ,0.00031163162578823957, ,1.9166666666666667, ,0.681593498328213, ,0.42748107181486095, ,0.06138650231627926
95, ,PASS, ,0.04972330900000001, ,0.006212135946705888, ,0.03522184650435706, ,0.00031306404921119474, ,1.9166666666666667, ,0.6823204723561506, ,0.4256443746045999, ,0.06208036570682231
96, ,PASS, ,0.049579740000000025, ,0.00626344436146801, ,0.035361613503601966, ,0.0003145125374068249, ,1.8333333333333333, ,0.6860538343138766, ,0.42446072529132056, ,0.06399869390420604
97, ,PASS, ,0.04955591000000001, ,0.006213086407747768, ,0.03519699347441889, ,0.0003121182636692066, ,1.9166666666666667, ,0.6829147509763673, ,0.4266851696904145, ,0.06246811289565519
98, ,PASS, ,0.04964544000000001, ,0.006160700365769591, ,0.03563608982714638, ,0.0003109891890697254, ,1.9166666666666667, ,0.678620653841568, ,0.434256443746046, ,0.06193751147935756
99, ,PASS, ,0.04932038000000003, ,0.006090698540259682, ,0.03535693881451399, ,0.00030485784346801186, ,1.9166666666666667, ,0.686080729001951, ,0.42670557743719517, ,0.06577416787412502
100, ,PASS, ,0.04937328000000003, ,0.0060016470738587634, ,0.03567795112160976, ,0.0003018340338150821, ,1.9166666666666667, ,0.6744918533231701, ,0.43572580151425483, ,0.05701924450521418
101, ,PASS, ,0.04965491000000002, ,0.005951435522871856, ,0.03580637694455215, ,0.0003015764190848197, ,1.8333333333333333, ,0.6699099048138936, ,0.4372767902695863, ,0.06169261851798943
102, ,PASS, ,0.048910170000000024, ,0.005962403260021809, ,0.035659478897369444, ,0.00029731620490980256, ,1.8333333333333333, ,0.6723172429134802, ,0.4361135487030877, ,0.06395787841064468
103, ,PASS, ,0.049221350000000025, ,0.0059131655518454155, ,0.035713882968919, ,0.0002969061764130543, ,1.8333333333333333, ,0.6730622130766188, ,0.4351543846043958, ,0.06099875512744638
104, ,PASS, ,0.049122850000000017, ,0.005908295706042771, ,0.03558024072161793, ,0.00029573139603560766, ,1.8333333333333333, ,0.6726018904858552, ,0.43376665782330975, ,0.06444766433338095
105, ,PASS, ,0.049011750000000014, ,0.005929742555476761, ,0.03556680645619477, ,0.00029551402680846764, ,1.9166666666666667, ,0.6758162567245226, ,0.430072855656007, ,0.06230485092140977
106, ,PASS, ,0.04884051000000003, ,0.005794251988018721, ,0.035779656572314855, ,0.0002886874939940796, ,1.8333333333333333, ,0.6652811301791518, ,0.43503193812371177, ,0.05832534029917757
107, ,PASS, ,0.049159020000000025, ,0.005827385978444509, ,0.0356667677900451, ,0.000292366131748563, ,1.8333333333333333, ,0.6670482768146546, ,0.4362972184241138, ,0.057590661415073165
108, ,PASS, ,0.04935164000000002, ,0.0058378965183045325, ,0.03585150832003429, ,0.0002937622971709575, ,1.8333333333333333, ,0.6691543648646457, ,0.4359911022224036, ,0.0619987347196996
109, ,PASS, ,0.049414470000000016, ,0.005920491327625729, ,0.035698227426174976, ,0.00029850605120429767, ,1.75, ,0.6717634091528553, ,0.434317666986388, ,0.06322319952654028
110, ,PASS, ,0.049680950000000015, ,0.005966279655855702, ,0.03566927287871677, ,0.0003022228702905723, ,1.75, ,0.6724102569235042, ,0.43446052121385276, ,0.0633864615007857
111, ,PASS, ,0.04996050000000002, ,0.0059987083534415505, ,0.03573236259994694, ,0.00030551144728226343, ,1.8333333333333333, ,0.6659625222375427, ,0.4396849043897063, ,0.06334564600722434
112, ,PASS, ,0.05033177, ,0.006067615610240788, ,0.03584522504438685, ,0.00031149090247607124, ,1.9166666666666667, ,0.67424409934848, ,0.4380726923940328, ,0.062121181200383666
113, ,PASS, ,0.05103936999999999, ,0.006121842404944745, ,0.03575767888553295, ,0.0003188031010599828, ,1.8333333333333333, ,0.6711550746554569, ,0.43737882900348973, ,0.06138650231627926
114, ,PASS, ,0.056553783999999975, ,0.00689002760807945, ,0.03561489111120181, ,0.00039736656940291096, ,1.9166666666666667, ,0.6778555718001827, ,0.4375624987245158, ,0.06430481010591621
115, ,PASS, ,0.14526813999999993, ,0.021286639283443213, ,0.029930930189751223, ,0.0031301013487150193, ,1.8333333333333333, ,0.7576725304448876, ,0.44078692271586295, ,0.12273218913899717
116, ,PASS, ,0.055959895999999974, ,0.006614086584112911, ,0.035459349197567394, ,0.00037782277532926665, ,1.75, ,0.6671719907443253, ,0.4342768514928267, ,0.06146813330340197
117, ,PASS, ,0.05062637000000002, ,0.00598923497535857, ,0.035663520402848925, ,0.000308854514072215, ,1.75, ,0.6629132753033352, ,0.43284830921817924, ,0.061243648088814516
118, ,PASS, ,0.04979040000000001, ,0.0058269004414243115, ,0.03582490134527867, ,0.00029643941457355584, ,1.8333333333333333, ,0.6628479178570339, ,0.4362972184241138, ,0.058835533968694516
119, ,PASS, ,0.04974057000000001, ,0.005853161239635981, ,0.03560499115446624, ,0.00029664650944223196, ,1.75, ,0.6629881146962485, ,0.4321340380808555, ,0.055264178282075874
120, ,PASS, ,0.049865810000000024, ,0.005871582332173013, ,0.03587548324993368, ,0.0002987071574502933, ,1.8333333333333333, ,0.6586814454936885, ,0.43958286565580296, ,0.060529376951490785
121, ,PASS, ,0.04971946000000002, ,0.005824056002804042, ,0.03586127300504072, ,0.000295321564771199, ,1.75, ,0.6604398625595486, ,0.433052386685986, ,0.05410093671557723
122, ,PASS, ,0.04908618000000002, ,0.005873413418389674, ,0.03532927219771025, ,0.0002925542156839419, ,1.8333333333333333, ,0.6673148682628615, ,0.4239097161282423, ,0.05657027407603926
123, ,PASS, ,0.04910759000000002, ,0.005800085632772585, ,0.03545249341748128, ,0.0002898225175673639, ,1.8333333333333333, ,0.6629494646848887, ,0.4305218260851819, ,0.058447786779861635
124, ,PASS, ,0.04867486000000001, ,0.0058295003742072455, ,0.03563189525172956, ,0.000288288714434281, ,1.8333333333333333, ,0.6655318180195392, ,0.43321564866023143, ,0.05291728740229791
125, ,PASS, ,0.048841400000000014, ,0.005827957417264239, ,0.035567643239117576, ,0.0002891772386526598, ,1.8333333333333333, ,0.6666175884833506, ,0.4276239260423257, ,0.060876308646762314
126, ,PASS, ,0.04858201000000002, ,0.0058318278854142865, ,0.03531905959327361, ,0.00028752058124628774, ,1.9166666666666667, ,0.6675715076014423, ,0.425828044325626, ,0.0609783473806657
127, ,PASS, ,0.048894370000000006, ,0.005871178697274168, ,0.03554510579743271, ,0.0002912489559859585, ,1.9166666666666667, ,0.6674505797291999, ,0.42578722883206466, ,0.058468194526642314
128, ,PASS, ,0.04839516000000001, ,0.005871338860139766, ,0.035740480754066245, ,0.0002881142281869097, ,1.9166666666666667, ,0.6705393662163878, ,0.42407297810248773, ,0.0621824044407257
129, ,PASS, ,0.048895530000000006, ,0.005882596881809999, ,0.03563753557662089, ,0.00029178158866910024, ,1.9166666666666667, ,0.6681799246390944, ,0.42458317177200466, ,0.05950898961245689
130, ,PASS, ,0.049127390000000014, ,0.0059372102045115085, ,0.03539785925001531, ,0.0002958666874406295, ,1.9166666666666667, ,0.6698654615697412, ,0.42409338584926837, ,0.05979469806738638
131, ,PASS, ,0.04940511000000002, ,0.005961447228032878, ,0.035484088602885655, ,0.00029872354320958574, ,1.8333333333333333, ,0.6691282728713555, ,0.42356278443297074, ,0.058141670578151464
132, ,PASS, ,0.04952401000000001, ,0.0060115402884220095, ,0.03553931419991429, ,0.0003019279866353165, ,1.9166666666666667, ,0.6717707147440617, ,0.42446072529132056, ,0.05979469806738638
133, ,PASS, ,0.04947858, ,0.006007903311793912, ,0.035678585345197036, ,0.00030137722560091796, ,1.9166666666666667, ,0.6695793258605763, ,0.42452194853166264, ,0.05426419868982266
134, ,PASS, ,0.04958846000000002, ,0.006039680535922723, ,0.0355537668182282, ,0.00030368146744293514, ,1.9166666666666667, ,0.6691384916644304, ,0.4241750168363911, ,0.055590702230566724
135, ,PASS, ,0.049433470000000014, ,0.005990343461583788, ,0.03548241305748862, ,0.00030029471323607463, ,1.9166666666666667, ,0.671638734062649, ,0.4241546090896104, ,0.058937572702597904
136, ,PASS, ,0.04962517000000002, ,0.006051550026341738, ,0.03549602047162303, ,0.0003044274959698106, ,1.9166666666666667, ,0.6705188125622683, ,0.42405257035570704, ,0.06022326074978061
137, ,PASS, ,0.049387670000000036, ,0.006049444380401944, ,0.035261931596089875, ,0.00030310572225241095, ,1.9166666666666667, ,0.6729318290152951, ,0.42031795269484296, ,0.057651884655415195
138, ,PASS, ,0.04903662000000002, ,0.00598923747137816, ,0.0355632285318667, ,0.0002977666876410431, ,1.9166666666666667, ,0.6729937900647739, ,0.4241546090896104, ,0.06240688965531316
139, ,PASS, ,0.048949790000000014, ,0.005916011476082069, ,0.035529052786677826, ,0.00029360327809169873, ,1.9166666666666667, ,0.6692270809951797, ,0.4239097161282423, ,0.05781514662966062
140, ,PASS, ,0.04925850000000001, ,0.005942146738848954, ,0.03581873875267852, ,0.0002968391997483917, ,1.8333333333333333, ,0.6665250191192541, ,0.42856268239423684, ,0.052672394440929776
141, ,PASS, ,0.04882557000000002, ,0.005904535882200245, ,0.035368905116630274, ,0.00029237352020236265, ,1.9166666666666667, ,0.6682650462777641, ,0.4237056386604355, ,0.05848860227342299
142, ,PASS, ,0.04860489000000001, ,0.005899796152281092, ,0.03551980304871329, ,0.0002909526344332891, ,1.9166666666666667, ,0.6709591178904556, ,0.41988939001244874, ,0.057631476908634516
143, ,PASS, ,0.04835654000000002, ,0.005819411342011481, ,0.0355137945376625, ,0.0002855287974466143, ,1.9166666666666667, ,0.6655421420395146, ,0.42113426256607006, ,0.05442746066406808
144, ,PASS, ,0.04834694000000002, ,0.0058938052759454785, ,0.035299578394522566, ,0.00028905909526753733, ,1.9166666666666667, ,0.673881260725763, ,0.4201138752270362, ,0.06473337278831044
145, ,PASS, ,0.04873073000000002, ,0.005899573918979494, ,0.035489256966388445, ,0.000291730541975091, ,1.8333333333333333, ,0.6689950613355309, ,0.4212771167935348, ,0.05865186424766841
146, ,PASS, ,0.04870330000000002, ,0.005980602281587877, ,0.035303507837187, ,0.00029536363447484596, ,1.9166666666666667, ,0.6733529608533553, ,0.4226444358278402, ,0.0635701312218118
147, ,PASS, ,0.04859168000000002, ,0.005955007960521929, ,0.035386967785147244, ,0.00029352963730616173, ,1.9166666666666667, ,0.6740639962829049, ,0.41997102099957145, ,0.06114160935491112
148, ,PASS, ,0.049189920000000026, ,0.006117684358797421, ,0.03514225038346157, ,0.00030522170373453397, ,1.8333333333333333, ,0.6822754742694616, ,0.4197057202914226, ,0.06546805167241485
149, ,PASS, ,0.048981160000000024, ,0.006080224830584129, ,0.03528171362400767, ,0.00030202942040394873, ,1.8333333333333333, ,0.6789184256895296, ,0.4213587477806575, ,0.06018244525621926
150, ,PASS, ,0.048327980000000006, ,0.005887617713890684, ,0.03553807385339075, ,0.00028897720937479777, ,1.8333333333333333, ,0.6745856470259881, ,0.4200322442399135, ,0.06136609456949858
151, ,PASS, ,0.04835119000000001, ,0.0058666703004745125, ,0.03560084830085101, ,0.0002878376593053057, ,1.9166666666666667, ,0.6700920811113557, ,0.419746535784984, ,0.05730495296014367
152, ,PASS, ,0.04826972000000002, ,0.005859305965955993, ,0.03536694284300321, ,0.0002869941511925256, ,1.9166666666666667, ,0.6703401227654195, ,0.4194404195832738, ,0.05573355645803147
153, ,PASS, ,0.04833699000000001, ,0.0058198908158682925, ,0.03574209275871921, ,0.000285280921068221, ,1.8333333333333333, ,0.6677874640554818, ,0.42393012387502294, ,0.05785596212322198
154, ,PASS, ,0.047981350000000006, ,0.005775314434411522, ,0.03556109102610151, ,0.00028098634418229925, ,1.8333333333333333, ,0.6651338751070448, ,0.42376686190077756, ,0.057672292402195874
155, ,PASS, ,0.047742250000000014, ,0.005781666197771991, ,0.035508332161384465, ,0.00028029620932039676, ,1.8333333333333333, ,0.6702947085901746, ,0.41960368155751926, ,0.0609783473806657
156, ,PASS, ,0.04844367000000002, ,0.005883717356967989, ,0.03557396724740312, ,0.0002890481475995517, ,1.9166666666666667, ,0.6717020045443607, ,0.4239097161282423, ,0.0661619150629579
157, ,PASS, ,0.048505460000000014, ,0.005968688805623922, ,0.03528051794249097, ,0.000293738373740075, ,1.8333333333333333, ,0.6733318832125269, ,0.42088936960470197, ,0.06018244525621926
158, ,PASS, ,0.04789643000000002, ,0.005842299990839375, ,0.0356133348772474, ,0.00028401602656452673, ,1.8333333333333333, ,0.6726307462908518, ,0.42117507805963145, ,0.059223281157527397
159, ,PASS, ,0.04816797000000001, ,0.0058745199218812535, ,0.035342115506826394, ,0.00028734494305103167, ,1.8333333333333333, ,0.6754386717423468, ,0.41995061325279076, ,0.0609783473806657
160, ,PASS, ,0.04841239000000001, ,0.005906617434536013, ,0.03547092549641844, ,0.0002899370352676018, ,1.9166666666666667, ,0.6700133469066416, ,0.4233382992183833, ,0.05703965225199486
161, ,PASS, ,0.048733390000000015, ,0.005957096531873214, ,0.035375146333544216, ,0.00029440273309814255, ,1.9166666666666667, ,0.6715913336256183, ,0.4213995632742189, ,0.0544070529172874
162, ,PASS, ,0.04823826000000001, ,0.005994767691143691, ,0.03509291944592968, ,0.00029331742665412715, ,1.8333333333333333, ,0.6803533833206535, ,0.4199914287463521, ,0.06399869390420604
163, ,PASS, ,0.048406850000000015, ,0.0059680262999043015, ,0.03536144328727985, ,0.00029298734205261115, ,1.9166666666666667, ,0.677686274376572, ,0.42119548580641214, ,0.06193751147935756
164, ,PASS, ,0.04866287000000002, ,0.005983819279353994, ,0.035414360154486645, ,0.00029518728719785966, ,1.9166666666666667, ,0.6724344266037995, ,0.423481153445848, ,0.05897838819615926
165, ,PASS, ,0.048520240000000034, ,0.006007360889880549, ,0.03514137796004164, ,0.0002959041326422413, ,1.8333333333333333, ,0.6776536465984031, ,0.4193791963429318, ,0.05930491214465011
166, ,PASS, ,0.04855755000000003, ,0.00597998298569283, ,0.03535404034570723, ,0.00029444410819872324, ,1.9166666666666667, ,0.676212747141946, ,0.4221750576518847, ,0.059672251586702314
167, ,PASS, ,0.048345670000000014, ,0.00597122154458498, ,0.03532819563212996, ,0.0002930053280386144, ,1.8333333333333333, ,0.6767110863420145, ,0.4196444970510806, ,0.0590396114365013
168, ,PASS, ,0.048167790000000016, ,0.005961726654298698, ,0.03517541695904165, ,0.0002915100444174878, ,1.8333333333333333, ,0.6815642484963894, ,0.4200730597334748, ,0.06363135446215383
169, ,PASS, ,0.04830849000000002, ,0.005997526902854123, ,0.03529590885798249, ,0.00029362675653810935, ,1.9166666666666667, ,0.6756196951450442, ,0.4243586865574172, ,0.05703965225199486
170, ,PASS, ,0.04859753, ,0.005988248010128223, ,0.03579266159649803, ,0.0002949265453373596, ,1.9166666666666667, ,0.6727209771701834, ,0.423991347115365, ,0.056794759290626724
171, ,PASS, ,0.04819838000000003, ,0.006005112117523312, ,0.03529776339217567, ,0.0002933216599069623, ,1.9166666666666667, ,0.6778052183297169, ,0.4220526111712006, ,0.06224362768106773
172, ,PASS, ,0.048357400000000016, ,0.005937385285034653, ,0.03522953405624375, ,0.00029108314761481136, ,1.9166666666666667, ,0.6717987336205584, ,0.4223179118793494, ,0.0578355543764413
173, ,PASS, ,0.048069100000000003, ,0.005862336180482027, ,0.03543340496887819, ,0.0002857230909921578, ,1.9166666666666667, ,0.6765232620380255, ,0.42272606681496294, ,0.06526397420460807
174, ,PASS, ,0.04765651000000001, ,0.0058194800905556916, ,0.03554285948307177, ,0.00028124842201907285, ,1.9166666666666667, ,0.6742516674144807, ,0.42160364074202566, ,0.06183547274545417
175, ,PASS, ,0.04758527000000001, ,0.005864386645387366, ,0.03551983291300177, ,0.0002830322256650757, ,1.9166666666666667, ,0.6783402119758556, ,0.4201342829738169, ,0.06350890798146977
176, ,PASS, ,0.04790420000000001, ,0.005813538572605174, ,0.03552923816779249, ,0.0002828220506921315, ,1.8333333333333333, ,0.6710714447411872, ,0.4196649047978613, ,0.054794800106120284
177, ,PASS, ,0.04756226000000001, ,0.0057338976430402885, ,0.035362471486092124, ,0.0002770476867611297, ,1.8333333333333333, ,0.6712406558131994, ,0.41958327381073857, ,0.05789677761678333
178, ,PASS, ,0.04792238000000001, ,0.005769575624447098, ,0.03557889955225404, ,0.00028085246715249047, ,1.75, ,0.6692606979934791, ,0.419807759025326, ,0.05793759311034469
179, ,PASS, ,0.0475864, ,0.005780242676070467, ,0.035540122431991186, ,0.0002793190541031535, ,1.8333333333333333, ,0.6717635877013968, ,0.41988939001244874, ,0.05826411705883553
180, ,PASS, ,0.04786788000000001, ,0.005810243553142866, ,0.03549535334421747, ,0.000282188803135995, ,1.9166666666666667, ,0.6712501948357334, ,0.41978735127854533, ,0.05865186424766841
181, ,PASS, ,0.04776553000000002, ,0.005825412378601406, ,0.03529317049141854, ,0.0002821726277891784, ,1.9166666666666667, ,0.670140832302353, ,0.4197057202914226, ,0.053121364870104694
182, ,PASS, ,0.04800681000000001, ,0.005812250423354713, ,0.03524543608599825, ,0.0002833475380819048, ,1.8333333333333333, ,0.6699005536817475, ,0.4196649047978613, ,0.05291728740229791
183, ,PASS, ,0.047590310000000025, ,0.005723614365886588, ,0.03539585113793596, ,0.0002763021928066732, ,1.9166666666666667, ,0.667280471704124, ,0.4218485337033938, ,0.060039591028754516
184, ,PASS, ,0.04774903000000002, ,0.005753804311988022, ,0.03564526715271117, ,0.00027865459505622747, ,1.8333333333333333, ,0.6679302267870036, ,0.42193016469051653, ,0.05799881635068672
185, ,PASS, ,0.047621630000000026, ,0.005740916513762428, ,0.03548704682230975, ,0.0002774265321037319, ,1.8333333333333333, ,0.6683660042725609, ,0.4200730597334748, ,0.05985592130772841
186, ,PASS, ,0.04750549000000001, ,0.00573381447371203, ,0.03549776498622478, ,0.00027661743764005484, ,1.9166666666666667, ,0.668407731934296, ,0.4193179731025897, ,0.055162139548172485
187, ,PASS, ,0.048411210000000024, ,0.005834367892691565, ,0.03559162902104039, ,0.00028680836905866215, ,1.8333333333333333, ,0.6747194183607949, ,0.41946082733005446, ,0.06020285300299994
188, ,PASS, ,0.04894910000000001, ,0.00593454608803292, ,0.03538074656435583, ,0.0002947161638589726, ,1.8333333333333333, ,0.6695963523802123, ,0.42097100059182463, ,0.057264137466582314
189, ,PASS, ,0.056132016999999985, ,0.007151838820234531, ,0.03477922577824942, ,0.00040725352524330696, ,1.8333333333333333, ,0.6892497105510385, ,0.4196240893042999, ,0.06461092630762638
190, ,PASS, ,0.14412338999999993, ,0.021818698390636597, ,0.027993735298646957, ,0.0031756372402246724, ,1.8333333333333333, ,0.7610309237838871, ,0.4258484520724067, ,0.12391583845227648
191, ,PASS, ,0.05088299000000002, ,0.006373835169460047, ,0.03513351395706211, ,0.00032858946547387267, ,1.9166666666666667, ,0.6822638120216271, ,0.4218689414501745, ,0.06226403542784841
192, ,PASS, ,0.046499639999999995, ,0.005888288825133457, ,0.035520122135262545, ,0.00027768849349757045, ,1.8333333333333333, ,0.6872048802842584, ,0.42097100059182463, ,0.0670802636680884
193, ,PASS, ,0.04625083000000002, ,0.005829721578086291, ,0.03552149355809065, ,0.0002734645497453599, ,1.8333333333333333, ,0.687286892638889, ,0.4212771167935348, ,0.06479459602865248
194, ,PASS, ,0.046035110000000025, ,0.005867333765576415, ,0.035312822145466424, ,0.00027373309311233714, ,1.9166666666666667, ,0.6911944671159495, ,0.42005265198669417, ,0.0638354319299606
195, ,PASS, ,0.04683659000000001, ,0.005938664835618353, ,0.03552526694965409, ,0.00028210516350381205, ,1.8333333333333333, ,0.6875410123852802, ,0.419807759025326, ,0.06499867349645926
196, ,PASS, ,0.04651768000000002, ,0.005828439313439573, ,0.03539239839227771, ,0.00027473673990727237, ,1.9166666666666667, ,0.680858823216084, ,0.42368523091365484, ,0.06224362768106773
197, ,PASS, ,0.04648745000000003, ,0.0058349460411991, ,0.03543528241586907, ,0.00027491220156702066, ,1.9166666666666667, ,0.683753629073122, ,0.4234607456990674, ,0.06322319952654028
198, ,PASS, ,0.04640781000000003, ,0.005840523592878816, ,0.03553058547131691, ,0.0002746434430021747, ,1.9166666666666667, ,0.6816475482511956, ,0.4221138344115426, ,0.0616313952776474
199, ,PASS, ,0.04631206000000001, ,0.005810066968049726, ,0.03539766422399543, ,0.00027276348421415643, ,1.9166666666666667, ,0.6850405865147775, ,0.42233831962613005, ,0.06293749107161078
200, ,PASS, ,0.04626208000000001, ,0.005844901852655185, ,0.03549094279014714, ,0.00027435950362147076, ,1.8333333333333333, ,0.6859917794896819, ,0.41986898226566804, ,0.06201914246648028
201, ,PASS, ,0.04596716000000003, ,0.005799677005985634, ,0.035199018141874656, ,0.0002702547456248774, ,1.8333333333333333, ,0.6871331714292451, ,0.42005265198669417, ,0.062202812187506375
202, ,PASS, ,0.04599020000000002, ,0.005779291996677696, ,0.03553469703965226, ,0.0002694075874396593, ,1.9166666666666667, ,0.6823120699739155, ,0.4220526111712006, ,0.06389665517030264
203, ,PASS, ,0.04594153000000001, ,0.005736383577694906, ,0.0356067190924675, ,0.000267168419813907, ,1.9166666666666667, ,0.6824465250107955, ,0.4214199710209996, ,0.06336605375400502
204, ,PASS, ,0.045734310000000014, ,0.005725955995939771, ,0.03526944901246914, ,0.0002654598427139316, ,1.9166666666666667, ,0.6815573002087568, ,0.42197098018407786, ,0.06546805167241485
205, ,PASS, ,0.045519380000000026, ,0.005687840598205409, ,0.03507254372645457, ,0.00026281129606668235, ,1.8333333333333333, ,0.6834638556692436, ,0.4198281667721067, ,0.06252933613599722
206, ,PASS, ,0.04558892000000002, ,0.005707989781062608, ,0.03570398887736985, ,0.00026370091196514995, ,1.8333333333333333, ,0.6810391846792248, ,0.423358706965164, ,0.06040693047080672
207, ,PASS, ,0.045400280000000015, ,0.0057084208969282796, ,0.03551562500846922, ,0.0002628381121681085, ,1.9166666666666667, ,0.6837569420842405, ,0.41958327381073857, ,0.06232525866819044
208, ,PASS, ,0.04560105000000003, ,0.005668475019401474, ,0.03549413721658742, ,0.00026218773544090575, ,1.9166666666666667, ,0.6801852431911161, ,0.41990979775922943, ,0.05999877553519316
209, ,PASS, ,0.04548538000000002, ,0.005690267547488185, ,0.03558995602457093, ,0.00026237813397794935, ,1.9166666666666667, ,0.6831114585308167, ,0.4221342421583233, ,0.06834554396849044
210, ,PASS, ,0.04548512000000001, ,0.0056906522560650355, ,0.03539192062570152, ,0.0002625411571862644, ,1.8333333333333333, ,0.6803735254582765, ,0.42144037876778023, ,0.06275382135058469
211, ,PASS, ,0.04532110000000002, ,0.005628969259277748, ,0.0355087881596294, ,0.0002585876158261018, ,1.9166666666666667, ,0.6784633855828149, ,0.4238280851411196, ,0.06185588049223485
212, ,PASS, ,0.04544264000000001, ,0.005662792013100171, ,0.03562944968000654, ,0.00026086400767688596, ,1.9166666666666667, ,0.6828874627858028, ,0.4210322238321667, ,0.06661088549213282
213, ,PASS, ,0.04555209000000001, ,0.005671304957620701, ,0.03573200111446705, ,0.00026185322752206357, ,1.9166666666666667, ,0.6806169598135319, ,0.42172608722270977, ,0.061304871329156546
214, ,PASS, ,0.04537883000000002, ,0.005670327663130357, ,0.035501417010469175, ,0.0002609309023607758, ,1.9166666666666667, ,0.680420086223528, ,0.42150160200812226, ,0.0631007530458562
215, ,PASS, ,0.04549238000000001, ,0.005665463801962245, ,0.035561811512418114, ,0.000261594718565465, ,1.8333333333333333, ,0.6803876254301146, ,0.4197261280382033, ,0.06038652272402604
216, ,PASS, ,0.04556778000000002, ,0.005712972854510991, ,0.03551832997795963, ,0.0002637214675565725, ,1.9166666666666667, ,0.6785694201718342, ,0.4218485337033938, ,0.06146813330340197
217, ,PASS, ,0.045859680000000014, ,0.00567371848391828, ,0.03537489503214221, ,0.00026387401327428075, ,1.8333333333333333, ,0.6762579221595089, ,0.4200934674802555, ,0.06283545233770739
218, ,PASS, ,0.04615864000000003, ,0.005790294808926984, ,0.03522925418603702, ,0.0002712662814519609, ,1.8333333333333333, ,0.683329482324866, ,0.4197261280382033, ,0.05895798044937858
219, ,PASS, ,0.04611353000000001, ,0.005777172373193122, ,0.03551357309932451, ,0.00027002492509391407, ,1.8333333333333333, ,0.6797992616755233, ,0.4225628048407175, ,0.06408032489132875
220, ,PASS, ,0.04601545000000002, ,0.0058181253506004275, ,0.0353038861027326, ,0.00027128781963225626, ,1.8333333333333333, ,0.685701666237258, ,0.42162404848880636, ,0.06571294463378298
221, ,PASS, ,0.046116090000000026, ,0.005834276002367975, ,0.035422581878737175, ,0.0002728317192339099, ,1.8333333333333333, ,0.6875520500277359, ,0.41960368155751926, ,0.0619987347196996
222, ,PASS, ,0.04644906, ,0.0058633810113341185, ,0.03550764802799943, ,0.0002760848579304906, ,1.8333333333333333, ,0.6832624844602414, ,0.4217873104630518, ,0.06167221077120875
223, ,PASS, ,0.04706936000000001, ,0.006027985680228306, ,0.03520333455868248, ,0.000287539595176938, ,1.8333333333333333, ,0.6884794608968542, ,0.42150160200812226, ,0.06340686924756637
224, ,PASS, ,0.04698457000000001, ,0.00600850041372259, ,0.03537780301748944, ,0.0002860694213598899, ,1.8333333333333333, ,0.6915589010224835, ,0.4218485337033938, ,0.0680190200199996
225, ,PASS, ,0.04629799000000001, ,0.005821241183268455, ,0.03515362337625763, ,0.00027363783310027965, ,1.8333333333333333, ,0.6849193617189266, ,0.41948123507683516, ,0.0657945756209057
226, ,PASS, ,0.04639771000000002, ,0.005837862935631248, ,0.035273231142425664, ,0.00027458582746909497, ,1.8333333333333333, ,0.6830258967486299, ,0.41995061325279076, ,0.06071304667251689
227, ,PASS, ,0.046461380000000004, ,0.005821890793667835, ,0.03526670499846942, ,0.00027422713269114934, ,1.8333333333333333, ,0.6835506113814298, ,0.4200730597334748, ,0.06526397420460807
228, ,PASS, ,0.046289490000000016, ,0.00586772308405541, ,0.03563984503479521, ,0.00027524979899913723, ,1.8333333333333333, ,0.6879083553189689, ,0.4249913267076182, ,0.07246790881818739
229, ,PASS, ,0.04600794000000002, ,0.005850452125673291, ,0.03536903758657987, ,0.0002727664976522891, ,1.8333333333333333, ,0.6885928245344456, ,0.4226036203342789, ,0.0655088671659762
230, ,PASS, ,0.04650127000000001, ,0.005827419983386857, ,0.035448220778963695, ,0.0002746424224744619, ,1.8333333333333333, ,0.6814836994522182, ,0.42197098018407786, ,0.06544764392563417
231, ,PASS, ,0.04686339, ,0.005964457048399827, ,0.035299202950347955, ,0.00028360237310363147, ,1.8333333333333333, ,0.6856989016818505, ,0.41921593436868637, ,0.059345727638211464
232, ,PASS, ,0.047100190000000014, ,0.005997287986664734, ,0.035338083832983, ,0.000286193051994207, ,1.8333333333333333, ,0.6859647790414614, ,0.42327707597804126, ,0.06679455521315891
233, ,PASS, ,0.04672640000000001, ,0.005860734660477418, ,0.0352376350856105, ,0.00027790045781468474, ,1.8333333333333333, ,0.683174545525929, ,0.41950164282361585, ,0.06275382135058469
234, ,PASS, ,0.047026029999999996, ,0.0058323801208737995, ,0.035258054020938345, ,0.0002783224294406675, ,1.8333333333333333, ,0.674254486026925, ,0.4172159751841799, ,0.06105997836778841
235, ,PASS, ,0.046967750000000016, ,0.005862581043119608, ,0.0353804835613559, ,0.00027903644680640863, ,1.8333333333333333, ,0.6787474805474863, ,0.4217669027162711, ,0.05946817411889553
236, ,PASS, ,0.04726665, ,0.005921836859140014, ,0.03537920554274403, ,0.0002837966434043988, ,1.8333333333333333, ,0.6820507672717971, ,0.4217464949694904, ,0.06608028407583519
237, ,PASS, ,0.04741129000000002, ,0.005929453195746717, ,0.03515523995673558, ,0.0002852458874110378, ,1.8333333333333333, ,0.6789308118756802, ,0.41948123507683516, ,0.05930491214465011
238, ,PASS, ,0.04718568, ,0.005886234384378479, ,0.03566085570253668, ,0.0002815444032019992, ,1.8333333333333333, ,0.6783094033140391, ,0.42164445623558705, ,0.06452929532050367
239, ,PASS, ,0.04700708000000002, ,0.005889231303828433, ,0.035322868631456505, ,0.0002806042020318668, ,1.8333333333333333, ,0.679880200626719, ,0.4218077182098324, ,0.05908042693006265
240, ,PASS, ,0.04723352, ,0.005928442026902161, ,0.03541654780514684, ,0.00028415075994179373, ,1.8333333333333333, ,0.6796446803972819, ,0.4193383808493704, ,0.066345584783984
241, ,PASS, ,0.04715454, ,0.005854912385119115, ,0.035140981288749214, ,0.00028010577980123964, ,1.8333333333333333, ,0.6796565751912922, ,0.41950164282361585, ,0.06028448399012265
242, ,PASS, ,0.04707175, ,0.005828251310462017, ,0.03536687189363483, ,0.00027810478419633736, ,1.8333333333333333, ,0.6781757369165047, ,0.4221954653986653, ,0.06720271014877248
243, ,PASS, ,0.04719323000000001, ,0.005812471772868339, ,0.0353980620940389, ,0.0002781082401526021, ,1.8333333333333333, ,0.6730404419703444, ,0.4204812146690884, ,0.05906001918328197
244, ,PASS, ,0.04697503000000001, ,0.005782188882835806, ,0.035347742982184044, ,0.000275331575234889, ,1.8333333333333333, ,0.6719400095468119, ,0.42246076610681416, ,0.0590396114365013
245, ,PASS, ,0.04749343, ,0.005854932837871165, ,0.035337781244260326, ,0.00028187592966905887, ,1.8333333333333333, ,0.6741018042527152, ,0.4220526111712006, ,0.06399869390420604
246, ,PASS, ,0.04751064000000001, ,0.005783836705580596, ,0.035494549763882374, ,0.0002786743520601675, ,1.75, ,0.6675294103331809, ,0.42152200975490295, ,0.05454990714475215
247, ,PASS, ,0.04721600999999999, ,0.005822004395668019, ,0.035517106113752785, ,0.00027867618094008773, ,1.8333333333333333, ,0.6732932984371278, ,0.420950592845044, ,0.05673353605028469
248, ,PASS, ,0.047906610000000016, ,0.0058649045486738605, ,0.035663988067998614, ,0.000284912628036797, ,1.8333333333333333, ,0.670913937844356, ,0.42164445623558705, ,0.057162098732678926
249, ,PASS, ,0.04795530000000002, ,0.005951281419313962, ,0.03540462570131222, ,0.0002892583996962199, ,1.8333333333333333, ,0.6756594575027789, ,0.4216648639823677, ,0.06318238403297892
250, ,PASS, ,0.04807936000000002, ,0.005933871177699279, ,0.035389718356564154, ,0.00028917737255938693, ,1.8333333333333333, ,0.6726856553453772, ,0.4221342421583233, ,0.05997836778841248
251, ,PASS, ,0.048265360000000014, ,0.0059484740869752886, ,0.03519504120752638, ,0.0002910532787891391, ,1.8333333333333333, ,0.6752653964453109, ,0.4226648435746209, ,0.06365176220893451
252, ,PASS, ,0.047603260000000015, ,0.00592302571900804, ,0.03542939437868615, ,0.0002861277483153473, ,1.8333333333333333, ,0.6779289859706066, ,0.4196853125446419, ,0.06028448399012265
253, ,PASS, ,0.048128390000000014, ,0.005955630787112064, ,0.03546054754127467, ,0.00029038994633682244, ,1.8333333333333333, ,0.6705468068387876, ,0.4221954653986653, ,0.055488663496663336
254, ,PASS, ,0.04869247000000003, ,0.005978141723141377, ,0.03555839490704272, ,0.0002950642739484085, ,1.8333333333333333, ,0.6693500330995198, ,0.42282810554886635, ,0.05587641068549622
255, ,PASS, ,0.04872433000000001, ,0.006070790469158341, ,0.03529587269055734, ,0.00029989328627861835, ,1.8333333333333333, ,0.6795215194750344, ,0.42109344707250873, ,0.06418236362523214
