Channel, ,Pass/Fail, ,Amplitude, ,Sorting Function Response, ,Mean, ,Variance, ,NPeaksRatio, ,PosIntegralRatio, ,ToT50, ,ToT99
29, ,PASS, ,0.015073429999999978, ,0.0023923669146988717, ,0.036534879668986345, ,3.632615786113568e-05, ,1.8333333333333333, ,0.7725707747949819, ,0.5251117324136242, ,0.03704006040693047
30, ,PASS, ,0.04780136000000001, ,0.007205764954558802, ,0.03810575177057611, ,0.0003474721712814028, ,1.75, ,0.7622668287793103, ,0.5374380114691537, ,0.13716046611293647
31, ,PASS, ,0.07089462783000004, ,0.010183855937660023, ,0.039322162039282876, ,0.0007289032431120439, ,1.75, ,0.7422831690850612, ,0.5437440052243832, ,0.13375237240056326
32, ,PASS, ,0.07577434329999999, ,0.01094854918944138, ,0.03954969642990285, ,0.0008374395686715479, ,1.75, ,0.744115191617148, ,0.5426215791514459, ,0.1316707822289341
33, ,PASS, ,0.064420839, ,0.010136890837768094, ,0.03888897745562335, ,0.0006586394408568464, ,1.9166666666666667, ,0.7759649343592946, ,0.5338462480357544, ,0.1704455011122222
34, ,PASS, ,0.03058804, ,0.005205653297301511, ,0.0369258790698149, ,0.00016064736070657145, ,1.9166666666666667, ,0.8102813903525374, ,0.5220301626497419, ,0.17993510336523744
35, ,PASS, ,0.01782124000000002, ,0.0028402951007810463, ,0.03672542561110998, ,5.1040222318639605e-05, ,1.8333333333333333, ,0.7777710514671852, ,0.525315809881431, ,0.035897226587212505
36, ,PASS, ,0.051418035000000015, ,0.00785797840068625, ,0.03829616321803637, ,0.00040772111925986733, ,1.75, ,0.7666103418680889, ,0.5366829248382686, ,0.15938450235709475
37, ,PASS, ,0.07304447769, ,0.0105387235555279, ,0.039553277604647864, ,0.0007769319091467377, ,1.75, ,0.7437093090115439, ,0.5427032101385686, ,0.13303810126323953
38, ,PASS, ,0.07753653229999999, ,0.011226900166031248, ,0.03986029950864799, ,0.0008788763516846814, ,1.75, ,0.7456632313211039, ,0.5422542397093937, ,0.12960959980408562
39, ,PASS, ,0.06649304, ,0.010502693241958867, ,0.03882992434217669, ,0.0007040242553108707, ,1.9166666666666667, ,0.7775790661688673, ,0.5331115691516499, ,0.1744250117344544
40, ,PASS, ,0.032563230000000006, ,0.005474895742991229, ,0.03686709115058876, ,0.00017982147876382463, ,1.8333333333333333, ,0.8070430485457049, ,0.5220301626497419, ,0.20164894593987878
41, ,PASS, ,0.019446000000000015, ,0.003199684510305524, ,0.03631259857247812, ,6.274559204600189e-05, ,1.9166666666666667, ,0.793618736181353, ,0.5191118548601049, ,0.10969163894614396
42, ,PASS, ,0.055732328000000005, ,0.008549969205887346, ,0.0382735227305157, ,0.00048059304052958026, ,1.8333333333333333, ,0.7683923055155327, ,0.5340911409971225, ,0.15760902838717578
43, ,PASS, ,0.07748669200000001, ,0.01123367144306392, ,0.039533925138374726, ,0.0008784108503084463, ,1.75, ,0.7474094330470921, ,0.5422134242158323, ,0.13489520622028123
44, ,PASS, ,0.080874453, ,0.011920313006576937, ,0.03911353955408053, ,0.0009737176062543557, ,1.75, ,0.7494115399231055, ,0.5358053917266995, ,0.1403644823575029
45, ,PASS, ,0.07027899631000002, ,0.011171626836592688, ,0.038723736526557216, ,0.0007918591083360968, ,1.9166666666666667, ,0.7817822103739283, ,0.532662598722475, ,0.17879226954551947
46, ,PASS, ,0.03389382, ,0.005751668274878714, ,0.03654799632538112, ,0.0001966170673265812, ,1.8333333333333333, ,0.8112593452239657, ,0.5153364217056795, ,0.1802412195669476
47, ,PASS, ,0.019669510000000015, ,0.0033783190075920904, ,0.036095699839391045, ,6.69949135883059e-05, ,1.8333333333333333, ,0.8104896413990343, ,0.5163568090447134, ,0.14724189302259139
48, ,PASS, ,0.05383071500000001, ,0.008529463207633065, ,0.037832992713516055, ,0.0004629338801470231, ,1.9166666666666667, ,0.7813461256909019, ,0.5331523846452113, ,0.16911899757147814
49, ,PASS, ,0.0752498489, ,0.011234237089629425, ,0.03927494872877757, ,0.0008526897230762282, ,1.75, ,0.7577134035240539, ,0.5404175424991327, ,0.15762943613395644
50, ,PASS, ,0.07841051499999999, ,0.011934666248901162, ,0.039373519198767366, ,0.0009442660440683525, ,1.75, ,0.7633606684769159, ,0.5394787861472214, ,0.1623028101467317
51, ,PASS, ,0.06790244012000002, ,0.011080557167030108, ,0.03811727917260423, ,0.0007580402273476747, ,1.9166666666666667, ,0.7913578847993218, ,0.5299891838942062, ,0.17797595967429236
52, ,PASS, ,0.032341250000000016, ,0.0056585133335389235, ,0.03642007280443256, ,0.00018447737901352998, ,1.8333333333333333, ,0.8203229585853179, ,0.5152547907185567, ,0.11444664394604191
53, ,PASS, ,0.021673779999999997, ,0.0036392324725623712, ,0.036345313922573015, ,7.94987758365494e-05, ,1.8333333333333333, ,0.8062569467540889, ,0.5241321605681517, ,0.1418338401257117
54, ,PASS, ,0.055049743, ,0.00867630165617352, ,0.03781770061817106, ,0.00048198500875123963, ,1.8333333333333333, ,0.7793506092817043, ,0.5319075120915899, ,0.17573110752841778
55, ,PASS, ,0.07567526259999997, ,0.011346290873508368, ,0.039326392793040954, ,0.0008663362650923531, ,1.75, ,0.7611994396988409, ,0.5398461255892737, ,0.16362931368747577
56, ,PASS, ,0.07948349999999997, ,0.012171407221143207, ,0.039208454018632266, ,0.0009762248603454943, ,1.75, ,0.7668914060864013, ,0.538050243872574, ,0.16985367645558255
57, ,PASS, ,0.06914900151000003, ,0.011258561389471696, ,0.03855407118925267, ,0.000785106516029637, ,1.9166666666666667, ,0.7909429885010175, ,0.5301524458684517, ,0.18185343156262118
58, ,PASS, ,0.034771109999999994, ,0.005997803134372486, ,0.03663070296606192, ,0.00021044996342463058, ,1.9166666666666667, ,0.8160452995324101, ,0.5184588069631232, ,0.16950674476031102
59, ,PASS, ,0.01762867000000001, ,0.003059607137665761, ,0.035879740901614256, ,5.4340350890686913e-05, ,1.8333333333333333, ,0.8104613392745237, ,0.5074998469418991, ,0.10767127201485684
60, ,PASS, ,0.04558131, ,0.00784960490632323, ,0.03688303988102284, ,0.00036065207186273114, ,1.9166666666666667, ,0.8112613089121179, ,0.5186220689373686, ,0.1208546764351748
61, ,PASS, ,0.065981942, ,0.010947265199556678, ,0.038045928102283626, ,0.0007271179129483468, ,1.8333333333333333, ,0.7966671524177256, ,0.5279075937225771, ,0.13809922246484765
62, ,PASS, ,0.07205513924000001, ,0.01177748214366461, ,0.03832803998795433, ,0.0008553141767172545, ,1.8333333333333333, ,0.7883818419200943, ,0.5290300197955143, ,0.11740576722924022
63, ,PASS, ,0.06038314699999998, ,0.010236088746823174, ,0.0371090024973776, ,0.0006223399819543176, ,1.8333333333333333, ,0.801031374244205, ,0.5163364012979327, ,0.09338584926838228
64, ,PASS, ,0.027633279999999996, ,0.004886301174420384, ,0.03618272350890798, ,0.00013607541795796388, ,1.8333333333333333, ,0.8241589326868252, ,0.5086426807616171, ,0.11940572641374665
65, ,PASS, ,0.01865377000000002, ,0.0032608066044126616, ,0.03606034915042551, ,6.127330690756454e-05, ,1.8333333333333333, ,0.8133928602747734, ,0.5080508561049775, ,0.08103916246607212
66, ,PASS, ,0.046872089999999984, ,0.007997258015574193, ,0.03697321112528315, ,0.00037733144390606236, ,1.9166666666666667, ,0.8062873493654787, ,0.5186424766841493, ,0.11842615456827411
67, ,PASS, ,0.065387208, ,0.010509595027675935, ,0.038854342403257074, ,0.000692156244151096, ,1.9166666666666667, ,0.7835755081560989, ,0.5316218036366605, ,0.11136507418215955
68, ,PASS, ,0.07159161520000001, ,0.011698988505846091, ,0.03834028074653783, ,0.0008436811386386502, ,1.8333333333333333, ,0.7892090442656408, ,0.5304585620701618, ,0.12438521662823207
69, ,PASS, ,0.06165952299999997, ,0.010386992109449043, ,0.037643653160588555, ,0.0006448452966842039, ,1.9166666666666667, ,0.8032355152130657, ,0.5236423746454154, ,0.11707924328074937
70, ,PASS, ,0.030819549999999994, ,0.005404622830318889, ,0.03629399738944102, ,0.00016787084092198155, ,1.8333333333333333, ,0.8186231894905106, ,0.5125201526499459, ,0.0993857268219016
71, ,PASS, ,0.01850250000000002, ,0.003270575140933179, ,0.036129372542193026, ,6.100267589776758e-05, ,1.8333333333333333, ,0.8197002477121028, ,0.5077855553968287, ,0.09748780637129854
72, ,PASS, ,0.04764023000000001, ,0.008121452134115066, ,0.03724821993714413, ,0.0003899561241040633, ,1.9166666666666667, ,0.8097185656285016, ,0.5214383379931021, ,0.1203852982592192
73, ,PASS, ,0.06565270700000002, ,0.010797738058915282, ,0.03830620392424644, ,0.0007144816750402308, ,1.9166666666666667, ,0.7938454598806938, ,0.5288055345809269, ,0.13179322870961818
74, ,PASS, ,0.07059020516000002, ,0.011534360168067683, ,0.03850415644676844, ,0.000819588450426669, ,1.9166666666666667, ,0.7910573532987194, ,0.5301728536152324, ,0.13107895757229443
75, ,PASS, ,0.06087806699999997, ,0.010363407096749391, ,0.0381441861122426, ,0.0006355345025539664, ,1.9166666666666667, ,0.8071162456039982, ,0.5228872880145303, ,0.12230362645660292
76, ,PASS, ,0.029658249999999987, ,0.005307190407469773, ,0.03653794525254586, ,0.00015868634407506418, ,1.8333333333333333, ,0.8316570730453641, ,0.5129283075855595, ,0.1403644823575029
77, ,PASS, ,0.019522500000000016, ,0.0034250044561168797, ,0.03612381318564928, ,6.728058913588756e-05, ,1.8333333333333333, ,0.819029064126934, ,0.5113569110834473, ,0.11971184261545682
78, ,PASS, ,0.046408939999999996, ,0.007943788859649243, ,0.0373787330785086, ,0.0003711889695084201, ,1.8333333333333333, ,0.8094547354865359, ,0.5207444746025591, ,0.1339768576151507
79, ,PASS, ,0.06288504999999996, ,0.010283200237639376, ,0.03831730707205975, ,0.0006515893201738002, ,1.9166666666666667, ,0.7903674109608686, ,0.5294585824779087, ,0.1292830758555948
80, ,PASS, ,0.06740234170000005, ,0.011001092506772238, ,0.03827813225329932, ,0.0007472820070703599, ,1.9166666666666667, ,0.7897569605484935, ,0.5307034550315299, ,0.13005857023326053
81, ,PASS, ,0.05881401199999997, ,0.009943837121565588, ,0.037724841565417035, ,0.0005892359845406271, ,1.9166666666666667, ,0.8042728575648628, ,0.5224383175853554, ,0.11987510458970226
82, ,PASS, ,0.029267569999999982, ,0.00514944627712721, ,0.03619595693087896, ,0.0001518057598844105, ,1.8333333333333333, ,0.8224103707320294, ,0.5110303871349564, ,0.10605906001918328
83, ,PASS, ,0.023585820000000004, ,0.0038125202209866606, ,0.03663899005734576, ,9.061010746455048e-05, ,1.8333333333333333, ,0.7905566538202679, ,0.5247852084651333, ,0.10230403461153854
84, ,PASS, ,0.04625857, ,0.007608852119439532, ,0.03740366391583845, ,0.000354863902835562, ,1.8333333333333333, ,0.796598353985187, ,0.5268463908899819, ,0.14044611334462562
85, ,PASS, ,0.058941798999999975, ,0.009452771745369843, ,0.037948359482888105, ,0.0005617835361987385, ,1.9166666666666667, ,0.7834038566528695, ,0.5313769106752924, ,0.16034366645578663
86, ,PASS, ,0.061968880999999996, ,0.009774869087022735, ,0.038249515604803976, ,0.0006108400991908992, ,1.75, ,0.7766192576791818, ,0.5355604987653313, ,0.16346605171323034
87, ,PASS, ,0.055877638999999986, ,0.0092704936715475, ,0.037702350148711254, ,0.000522347461668252, ,1.9166666666666667, ,0.7975542555861701, ,0.5279075937225771, ,0.1486908430440195
199, ,FAIL, ,0.024137755530000006, ,0.0019847998690437395, ,0.035405464144405215, ,5.1679879102651735e-05, ,1.9166666666666667, ,0.6913039840471874, ,0.48827574947450053, ,0.0006326401502010163
200, ,FAIL, ,0.02117696, ,0.0019982669317643942, ,0.03539743940184894, ,4.530935846369123e-05, ,1.9166666666666667, ,0.6863702178257699, ,0.4877043325646415, ,0.0008367176180077957
201, ,PASS, ,0.028893439999999992, ,0.004263620585282299, ,0.03529118548580641, ,0.0001285971110325719, ,2.0, ,0.8061005390469395, ,0.4892349135731924, ,0.011795677639231852
202, ,PASS, ,0.03238572999999998, ,0.004519000415290715, ,0.03518240892634844, ,0.00015293033719626694, ,1.9166666666666667, ,0.7910456173633305, ,0.4896634762555866, ,0.015734372767902696
203, ,PASS, ,0.03619938000000002, ,0.005521091782356714, ,0.03518271498357176, ,0.00021117889461199558, ,1.9166666666666667, ,0.8225653605012573, ,0.4901532621783229, ,0.017713924205628458
204, ,PASS, ,0.06648826077999999, ,0.009864646169339597, ,0.0342484554533581, ,0.0006916058497669724, ,1.9166666666666667, ,0.8379399285887383, ,0.4918675129078998, ,0.02383624823983184
205, ,PASS, ,0.07493214300000003, ,0.011192472984146615, ,0.03439632131762617, ,0.0008718317072230839, ,1.8333333333333333, ,0.8469682642345213, ,0.49954082569743474, ,0.026060692638925735
206, ,PASS, ,0.07418468599999999, ,0.010771987820914741, ,0.03424061103875431, ,0.0008294288686262395, ,1.8333333333333333, ,0.8401143640224902, ,0.5001326503540744, ,0.025713760943654212
207, ,PASS, ,0.07153776999999999, ,0.010340178726343336, ,0.034288119403073414, ,0.0007681890464066514, ,1.8333333333333333, ,0.8460338559988767, ,0.5016020081222832, ,0.026693332789126754
208, ,PASS, ,0.057495312000000035, ,0.008192846651062619, ,0.03449729009673272, ,0.00048795509177346257, ,1.8333333333333333, ,0.8354808950099308, ,0.4983775841309361, ,0.02473418909818167
209, ,PASS, ,0.05554794300000002, ,0.007956684080967837, ,0.034723412396481704, ,0.00045964293593876195, ,1.8333333333333333, ,0.8368201762763138, ,0.4976633129936124, ,0.02485663557886574
210, ,PASS, ,0.05659102900000003, ,0.008164657608939837, ,0.03466608289810413, ,0.00047065477054222186, ,1.9166666666666667, ,0.825453274061365, ,0.498132691169568, ,0.022489336952307096
211, ,PASS, ,0.05757150500000002, ,0.008255759084660875, ,0.03466411995102141, ,0.0004957169482932688, ,1.8333333333333333, ,0.8343301889983474, ,0.49833676863737475, ,0.021673027081079977
212, ,PASS, ,0.072975494, ,0.01078505457580968, ,0.034266710961592624, ,0.0008145125028826486, ,1.8333333333333333, ,0.8322983253888299, ,0.49843880737127816, ,0.025183159527356586
213, ,PASS, ,0.07850618899999999, ,0.01168474427270391, ,0.034253295593232785, ,0.0009500390861905245, ,1.8333333333333333, ,0.84544737966373, ,0.5035815595600089, ,0.030917736372727087
214, ,PASS, ,0.08233162100000001, ,0.012210966412988649, ,0.03404049713062998, ,0.001041116234576349, ,1.8333333333333333, ,0.8417655989653612, ,0.5014591538948184, ,0.028632068733291157
215, ,PASS, ,0.09457521999999999, ,0.014408960108915705, ,0.0339030899852452, ,0.0014077454946726917, ,1.8333333333333333, ,0.848840530308752, ,0.5044795004183588, ,0.03218301667312912
216, ,PASS, ,0.08194650600000002, ,0.012443885643183734, ,0.034011709472071994, ,0.0010532774749088354, ,1.8333333333333333, ,0.8428577738154873, ,0.5008673292381788, ,0.028244321544458276
217, ,PASS, ,0.080690345, ,0.012453318945591207, ,0.03446227316752719, ,0.001034507570084903, ,1.8333333333333333, ,0.8462119503720759, ,0.5078467786371706, ,0.02789738984918675
218, ,PASS, ,0.08701547999999998, ,0.013324022485017508, ,0.03396443170949572, ,0.0011941328619953344, ,1.8333333333333333, ,0.8429957085069811, ,0.5014183384012572, ,0.029427970857737597
219, ,PASS, ,0.08470877, ,0.013011475861330729, ,0.03418619577851472, ,0.0011345704643325653, ,1.8333333333333333, ,0.8461620513779786, ,0.5022550560192649, ,0.030550396930674885
220, ,PASS, ,0.04808648699999997, ,0.007264826507870501, ,0.034996551580171835, ,0.000363584377831961, ,1.8333333333333333, ,0.828738229188133, ,0.4965204791738944, ,0.024081141201199977
221, ,PASS, ,0.055383514000000016, ,0.008413849168953717, ,0.03471682076467827, ,0.0004888873904153118, ,1.9166666666666667, ,0.8398826626332407, ,0.49294912348727576, ,0.030060611007938613
222, ,PASS, ,0.047232364999999985, ,0.007095986251900164, ,0.03498754147690864, ,0.00035119537430833796, ,1.9166666666666667, ,0.828599534754581, ,0.4951735678863697, ,0.023897471480173873
223, ,PASS, ,0.05390767800000004, ,0.008638250580293104, ,0.03486175232199343, ,0.00048320427830686675, ,1.8333333333333333, ,0.8493888064190386, ,0.49741842003224424, ,0.030060611007938613
224, ,PASS, ,0.04458103000000001, ,0.007042888946139475, ,0.034913478452480565, ,0.00032790136469045597, ,1.9166666666666667, ,0.8304655149711947, ,0.49337768616967, ,0.023183200342850145
225, ,PASS, ,0.033276669999999994, ,0.005192605732843883, ,0.035259804854798876, ,0.00017901724333254117, ,1.9166666666666667, ,0.8106440883383765, ,0.4939899185730903, ,0.023591355278463705
226, ,PASS, ,0.03165171999999998, ,0.005055145764642462, ,0.03526671972082202, ,0.00016594868144181746, ,1.9166666666666667, ,0.823402709283868, ,0.49166343544009306, ,0.022856676394359298
227, ,PASS, ,0.022723199999999995, ,0.003372334643054954, ,0.03550682137895146, ,8.091943148332856e-05, ,1.9166666666666667, ,0.7881819634722754, ,0.48807167200669377, ,0.018244525621926085
228, ,FAIL, ,0.019500450000000006, ,0.0023944986237905918, ,0.03555909808452888, ,4.9835051456499204e-05, ,1.9166666666666667, ,0.7409440122093272, ,0.4859900818350646, ,0.0016326197424542355
