Channel, ,Pass/Fail, ,Amplitude, ,Sorting Function Response, ,Mean, ,Variance, ,NPeaksRatio, ,PosIntegralRatio, ,ToT50, ,ToT99
24, ,PASS, ,0.09798507000000006, ,0.01451499006057417, ,0.023726561434868676, ,0.0014485382162266285, ,1.8333333333333333, ,0.7388979796669456, ,0.42613416052733616, ,0.1217730250403053
25, ,PASS, ,0.12575488, ,0.013991624590103294, ,0.024297641792616474, ,0.0017911677755165546, ,1.5833333333333333, ,0.6354775847664568, ,0.4243382788106365, ,0.03330544274606641
26, ,PASS, ,0.12421545, ,0.01313363988166822, ,0.025330711553845843, ,0.0016621707279033844, ,1.5833333333333333, ,0.6013025483093004, ,0.440848145956205, ,0.02999938776759658
27, ,PASS, ,0.09376451999999999, ,0.01191415598447815, ,0.024896493625864775, ,0.0011378230110797474, ,1.6666666666666667, ,0.6829256552104047, ,0.42456276402522397, ,0.07424338278810637
28, ,PASS, ,0.10682315, ,0.014002039335472179, ,0.024199986437011493, ,0.0015242147821364863, ,1.75, ,0.6978478708704671, ,0.42460357951878536, ,0.05371318952674435
29, ,PASS, ,0.13776585, ,0.014101015934685615, ,0.025777313742168528, ,0.001980981825398555, ,1.6666666666666667, ,0.5951923423486761, ,0.4444195016428236, ,0.024754596844962347
30, ,PASS, ,0.13501587, ,0.013281050428708939, ,0.02574352962531377, ,0.0018275487298660227, ,1.5, ,0.5721934867611075, ,0.4496234770718965, ,0.023815840493051164
31, ,PASS, ,0.10020473, ,0.011869584303463266, ,0.02485271935068672, ,0.0012099148515306855, ,1.75, ,0.6538093153190585, ,0.42613416052733616, ,0.04344809289606334
32, ,PASS, ,0.12078209000000004, ,0.014407020082906483, ,0.024461064131548336, ,0.0017740406752254135, ,1.6666666666666667, ,0.6638813831735084, ,0.4296647007203935, ,0.036611497724536236
33, ,PASS, ,0.15009623, ,0.014514564733878806, ,0.024498078519213894, ,0.0022226342976296855, ,1.5833333333333333, ,0.580788330388657, ,0.42901165282341175, ,0.02234648272484235
34, ,PASS, ,0.14712842999999992, ,0.013954571293701408, ,0.025954685776208648, ,0.0020945568285951222, ,1.5, ,0.5630400222229052, ,0.44937858411052833, ,0.02316279259606947
35, ,PASS, ,0.11463286, ,0.01225462845700902, ,0.025450948746433742, ,0.001432059524685826, ,1.6666666666666667, ,0.6115852272965671, ,0.4355829472867901, ,0.031019775106630478
36, ,PASS, ,0.11795377, ,0.014604687217808356, ,0.02345628617050672, ,0.001750313470139716, ,1.75, ,0.666368660778162, ,0.42607293728699414, ,0.03561151813228301
37, ,PASS, ,0.14906271, ,0.014415224504097811, ,0.025378346083753393, ,0.0021905519322713155, ,1.5, ,0.567689834926563, ,0.4459704903981551, ,0.019611844656231506
38, ,PASS, ,0.14573968999999998, ,0.01427511302884756, ,0.024051234510112037, ,0.0021170349320652503, ,1.5833333333333333, ,0.5885397711472018, ,0.4247872492398114, ,0.0230403461153854
39, ,PASS, ,0.11263848, ,0.012369180634326668, ,0.026246395125303565, ,0.0014202680331348483, ,1.6666666666666667, ,0.6287141956138943, ,0.4405828452480562, ,0.03483602375461725
40, ,PASS, ,0.12056788999999998, ,0.014589740501501908, ,0.023654171364257872, ,0.0017939407825278899, ,1.6666666666666667, ,0.6698471353177357, ,0.4227056590681823, ,0.03491765474173997
41, ,PASS, ,0.15288715, ,0.014774903116330744, ,0.02523345889430828, ,0.0023026967983807954, ,1.5, ,0.5683392311536408, ,0.44868472071998533, ,0.021815881308544723
42, ,PASS, ,0.14935510999999996, ,0.014073623532836902, ,0.025752052263015038, ,0.0021424363985451367, ,1.5, ,0.5539627519801349, ,0.45619477153527477, ,0.021673027081079977
43, ,PASS, ,0.11589517999999999, ,0.012582145710462246, ,0.02515870431672823, ,0.0014862266599490715, ,1.6666666666666667, ,0.615133616055476, ,0.43574620926103547, ,0.033836044162364035
44, ,PASS, ,0.10776110999999997, ,0.013820779352146874, ,0.024087919413889512, ,0.0015177989535675714, ,1.75, ,0.6901805044145188, ,0.42541988939001246, ,0.04340727740250199
45, ,PASS, ,0.14301300999999997, ,0.01380746770035946, ,0.02520601394991939, ,0.0020137829731045457, ,1.5, ,0.570972836147429, ,0.44374604599906126, ,0.02144854186649252
46, ,PASS, ,0.14049557999999998, ,0.013099219388019287, ,0.02573171502969327, ,0.0018769313682795562, ,1.5, ,0.5525935782921326, ,0.45278667782290155, ,0.02075467847594947
47, ,PASS, ,0.11718662999999999, ,0.012272336702046662, ,0.02602220939180833, ,0.0014663500987562215, ,1.6666666666666667, ,0.6070510425418121, ,0.4414603783596253, ,0.029244301136711497
48, ,PASS, ,0.10595179999999998, ,0.01417509298737204, ,0.023338038524723985, ,0.001528769672743357, ,1.75, ,0.6985224909341342, ,0.4242362400767331, ,0.04632558519213894
49, ,PASS, ,0.14453991000000002, ,0.013970115540534902, ,0.025499415387441073, ,0.0020594837990005337, ,1.5, ,0.5719779910467857, ,0.4450725495398053, ,0.021999551029570824
50, ,PASS, ,0.14172307999999997, ,0.013162658806319094, ,0.02549721147856166, ,0.0019033327972591823, ,1.5, ,0.5569604067854447, ,0.4435011530376931, ,0.020877124956633537
51, ,PASS, ,0.11630894000000001, ,0.012180168736706937, ,0.025543630177506584, ,0.0014438195792520708, ,1.5833333333333333, ,0.5985034526744488, ,0.44188894104201953, ,0.0270198567376176
52, ,PASS, ,0.11081935000000004, ,0.01426515896799127, ,0.023519363162792593, ,0.0016123126675004907, ,1.8333333333333333, ,0.6882833529884328, ,0.42439950205097854, ,0.03842778718801657
53, ,PASS, ,0.14831501999999996, ,0.014099648361749527, ,0.025460013486867616, ,0.002132190257827533, ,1.5, ,0.5626787357684196, ,0.448766351707108, ,0.020183261566090488
54, ,PASS, ,0.14527386, ,0.013460091160252211, ,0.025501872342482804, ,0.0019955110455757348, ,1.5, ,0.5509847056515326, ,0.45158262076284156, ,0.02177506581498337
55, ,PASS, ,0.11729334999999999, ,0.012328597964547593, ,0.025182909830493254, ,0.0014743271941722975, ,1.6666666666666667, ,0.6049264893132621, ,0.4360115099691843, ,0.02920348564315014
56, ,PASS, ,0.11027875000000002, ,0.013379978519602525, ,0.02413000422073019, ,0.001504677390324974, ,1.75, ,0.6702143870172843, ,0.42405257035570704, ,0.0332238117589437
57, ,PASS, ,0.14224227999999997, ,0.013620952089282271, ,0.026225094846431707, ,0.001975835534790936, ,1.5, ,0.5631857086301014, ,0.45605191730781003, ,0.021264872145466417
58, ,PASS, ,0.14002853999999995, ,0.013006676871391865, ,0.025972345384583987, ,0.0018573488927841203, ,1.5, ,0.5488952920546816, ,0.4567865961919145, ,0.021326095385808454
59, ,PASS, ,0.10776002999999997, ,0.012024181027781154, ,0.024995953976857613, ,0.001317978248254825, ,1.6666666666666667, ,0.6334610137619351, ,0.4263178302483623, ,0.032162608926348445
60, ,PASS, ,0.10932870000000003, ,0.013543251130438107, ,0.023930587442093018, ,0.0015084128115084034, ,1.75, ,0.6729059206211129, ,0.425134180935083, ,0.03412175261729353
61, ,PASS, ,0.14222501999999998, ,0.013598763074836798, ,0.025483417887798208, ,0.00197213407651334, ,1.5, ,0.5642122098642026, ,0.4484806432521785, ,0.022407705965184384
62, ,PASS, ,0.13992168, ,0.012974951569414382, ,0.026055726182404444, ,0.0018518252497522175, ,1.5, ,0.5532371260019974, ,0.4526234158486562, ,0.021693434827860656
63, ,PASS, ,0.10674682999999999, ,0.011729992563766578, ,0.025889739307381483, ,0.0012763227005277312, ,1.6666666666666667, ,0.6275106050444365, ,0.4379706536601294, ,0.03489724699495929
64, ,PASS, ,0.11239353999999999, ,0.013546298120504565, ,0.024063610369176137, ,0.0015529201840367962, ,1.75, ,0.6668952247622331, ,0.4247260259994694, ,0.030652435664578273
65, ,PASS, ,0.14731879999999997, ,0.013938885330976652, ,0.025493130799167363, ,0.002094551186312095, ,1.5, ,0.5631530362861481, ,0.4483173812779331, ,0.02134650313258913
66, ,PASS, ,0.14435585, ,0.013266429820427294, ,0.025802187132099346, ,0.001953317202407989, ,1.5, ,0.5484769526391116, ,0.4527458623293402, ,0.0200812228321871
67, ,PASS, ,0.11045375000000002, ,0.012072232597897373, ,0.025175761775045408, ,0.0013590833421159166, ,1.5833333333333333, ,0.6289025612338522, ,0.4280728964715006, ,0.0309993673598498
68, ,PASS, ,0.10667201999999998, ,0.013109471185774022, ,0.023362155965184383, ,0.001426986563581433, ,1.75, ,0.6774427966595846, ,0.41284871737311485, ,0.03608089630823861
69, ,PASS, ,0.14295137999999996, ,0.013514141862530499, ,0.025719310117956775, ,0.0019687519867664528, ,1.5, ,0.5568508555355304, ,0.4546437827799433, ,0.02232607497806167
70, ,PASS, ,0.14031057, ,0.013102634555889964, ,0.025869674649741842, ,0.0018746419928567972, ,1.5, ,0.5559387929484574, ,0.4512765045611314, ,0.020795493969510827
71, ,PASS, ,0.10396394, ,0.011523884671803252, ,0.02525396692667497, ,0.001220901168997021, ,1.6666666666666667, ,0.6287357079830287, ,0.4318279218791453, ,0.031774861737515564
72, ,PASS, ,0.10503805000000001, ,0.013376312767796644, ,0.02350829393787882, ,0.0014316188621701978, ,1.75, ,0.6794866347064721, ,0.42409338584926837, ,0.03824411746699047
73, ,PASS, ,0.14245229999999998, ,0.014679588760027272, ,0.022672486851492826, ,0.0021368357642755124, ,1.5833333333333333, ,0.5887985982707545, ,0.42574641333850327, ,0.020795493969510827
74, ,PASS, ,0.1394788, ,0.012793234478963253, ,0.025844755420787333, ,0.0018197777114415865, ,1.5, ,0.5460106273276908, ,0.4512969123079121, ,0.020734270729168794
75, ,PASS, ,0.0992138, ,0.01097646876751573, ,0.025593900097997998, ,0.0011096786234630824, ,1.6666666666666667, ,0.6246321970517006, ,0.4337870655700904, ,0.03346870472031183
76, ,PASS, ,0.10626202000000001, ,0.013330912689947289, ,0.024127056911491602, ,0.0014444559376992866, ,1.75, ,0.6812222983625991, ,0.4259096753127487, ,0.03646864349707149
77, ,PASS, ,0.14784332999999994, ,0.014023515797033717, ,0.025656677567192507, ,0.002113876199846035, ,1.5, ,0.5605121725107054, ,0.450480602436685, ,0.021183241158343708
78, ,PASS, ,0.14331934999999996, ,0.013277028493785481, ,0.02627465466398645, ,0.0019402231270407133, ,1.5, ,0.5482038758863385, ,0.45866410889573683, ,0.021856696802106078
79, ,PASS, ,0.09607239999999996, ,0.010724499122611343, ,0.025302167788922674, ,0.0010501500126506803, ,1.5833333333333333, ,0.6323302944476182, ,0.4296851084671741, ,0.03297891879757556
80, ,PASS, ,0.09473475999999997, ,0.01379553717467177, ,0.02381286297136793, ,0.001330767645309556, ,1.75, ,0.7309128622251531, ,0.4256239668578192, ,0.09020224077059652
81, ,PASS, ,0.13794016999999997, ,0.01388881863181876, ,0.025237778621864857, ,0.001953585064987075, ,1.5833333333333333, ,0.5888837738878685, ,0.4399910205914165, ,0.02334646231709557
82, ,PASS, ,0.13249915, ,0.012858104141157931, ,0.025661585621497517, ,0.001736491974055245, ,1.5, ,0.5666499353284069, ,0.45021530172853613, ,0.024121956694761332
83, ,PASS, ,0.08115246999999996, ,0.010320370057699316, ,0.025199692383686044, ,0.0008530958548383982, ,1.75, ,0.6815921269193647, ,0.42458317177200466, ,0.06430481010591621
198, ,PASS, ,0.19979999999999992, ,0.03665826454586585, ,0.013534326184771715, ,0.007436028141287529, ,1.9166666666666667, ,0.8961874281669695, ,0.4554396849043897, ,0.13628293300136732
199, ,PASS, ,0.10668524999999998, ,0.015886854448534802, ,0.020588924181792204, ,0.0017458534870122356, ,1.9166666666666667, ,0.8569082106222011, ,0.4389910409991633, ,0.04336646190894063
200, ,FAIL, ,0.08197624999999997, ,0.006476240986727286, ,0.024568114786249262, ,0.0005427194997507596, ,1.5, ,0.4468120255581432, ,0.44005224383175856, ,0.026101508132487093
201, ,PASS, ,0.09904368, ,0.016002574181676724, ,0.021690473258300848, ,0.0016208449691835689, ,2.0, ,0.8591934074623065, ,0.44650109181445274, ,0.04314197669435318
202, ,FAIL, ,0.08908197999999998, ,0.007418839431518736, ,0.024466961568294525, ,0.000674973860917239, ,1.4166666666666667, ,0.4765423523890841, ,0.4310932429950409, ,0.02640762433419726
203, ,PASS, ,0.09763783999999999, ,0.0142197915400462, ,0.0214382363237689, ,0.001428735883671099, ,1.9166666666666667, ,0.8477395572041145, ,0.43835840084896227, ,0.039101242831778946
204, ,PASS, ,0.08519960999999998, ,0.012817535973153688, ,0.022731258571661802, ,0.0011300927446664588, ,1.9166666666666667, ,0.8460149068551021, ,0.4359706944756229, ,0.041182833003408095
205, ,PASS, ,0.08071504000000003, ,0.011730605764640606, ,0.023076422903630132, ,0.0009812169299844619, ,1.9166666666666667, ,0.8473162725788079, ,0.43505234587049246, ,0.036672720964878266
206, ,PASS, ,0.07862938000000001, ,0.011223099699905982, ,0.023167106691371404, ,0.0009127895254529208, ,1.8333333333333333, ,0.842804298957815, ,0.4358278402481582, ,0.035591110385502334
207, ,PASS, ,0.08344040000000001, ,0.011678985382347233, ,0.02293537908956981, ,0.0010102276314428405, ,2.0, ,0.8405554794021767, ,0.4352564233382992, ,0.0369176139262464
208, ,PASS, ,0.06710525199999998, ,0.00939562265787966, ,0.024293305417195567, ,0.0006563270595891377, ,1.9166666666666667, ,0.838780282374606, ,0.4354809085528867, ,0.034223791351196915
209, ,PASS, ,0.06491901300000003, ,0.00933596454441152, ,0.024569389602620357, ,0.000609384933717472, ,1.9166666666666667, ,0.8416560561053661, ,0.4350115303769311, ,0.03593804208077386
210, ,PASS, ,0.07134265999999999, ,0.009684614169901172, ,0.024463927807208016, ,0.0007074639992088289, ,1.8333333333333333, ,0.8355632825357727, ,0.44317462908920224, ,0.03642782800351013
211, ,PASS, ,0.08584695999999999, ,0.01204963041636569, ,0.0228564682905055, ,0.0010717449225113335, ,1.9166666666666667, ,0.8386222488278793, ,0.4344197057202914, ,0.03665231321809759
212, ,PASS, ,0.12404042, ,0.019588979717119717, ,0.01900612870145507, ,0.0024920821272952243, ,1.9166666666666667, ,0.8586009263978293, ,0.4426440276729046, ,0.044488887981877924
213, ,PASS, ,0.09168379, ,0.013399950510383117, ,0.022200226282422807, ,0.0012683312254902917, ,1.9166666666666667, ,0.8518408191601567, ,0.4363584416644558, ,0.04012163017081284
214, ,PASS, ,0.09439724, ,0.013213799497489137, ,0.022314976376261706, ,0.001278205280896475, ,1.8333333333333333, ,0.8437928820027893, ,0.4391543029734087, ,0.03634619701638742
215, ,PASS, ,0.11523731999999999, ,0.01702076233845364, ,0.020449893779106543, ,0.002006530540360489, ,1.75, ,0.8534132284549653, ,0.4418073100548968, ,0.042386890063468095
216, ,PASS, ,0.10329656999999998, ,0.015255939777501986, ,0.021016750655578457, ,0.0016165589957492276, ,1.8333333333333333, ,0.8538348254231963, ,0.4393379726944348, ,0.0393257280463664
217, ,PASS, ,0.09780748999999997, ,0.01437256502788767, ,0.021799107544233788, ,0.001450679127621085, ,2.0, ,0.8501976532224929, ,0.43876655578457585, ,0.04128487173731148
218, ,PASS, ,0.12227336999999999, ,0.018068965532649615, ,0.019758711219362866, ,0.0022644609317873173, ,1.8333333333333333, ,0.8541394616254632, ,0.4413991551192833, ,0.043570539376747416
219, ,PASS, ,0.11582885000000007, ,0.017188490242865662, ,0.019923017980082034, ,0.0020298446291805465, ,1.8333333333333333, ,0.8516452654090529, ,0.43580743250137755, ,0.04416236403338707
220, ,PASS, ,0.10144819999999999, ,0.015046911641878168, ,0.02140248491059366, ,0.001562172021727903, ,1.8333333333333333, ,0.854270048670362, ,0.4384196240893043, ,0.04261137527805555
221, ,PASS, ,0.11031193999999997, ,0.016229862116983032, ,0.021197641481092218, ,0.0018359499255770136, ,2.0, ,0.8576720476234015, ,0.43990938960429377, ,0.04479500418358809
222, ,PASS, ,0.08272032, ,0.011266544624500488, ,0.02344641777215955, ,0.0009402527682725707, ,1.9166666666666667, ,0.8391362195211666, ,0.4373992367502704, ,0.03495847023530132
223, ,PASS, ,0.11566792000000001, ,0.01696757877149852, ,0.020164342533825836, ,0.002023400727272488, ,2.0, ,0.8441338374872981, ,0.43586865574171957, ,0.037938001265280304
224, ,PASS, ,0.09290855000000002, ,0.013392419368852054, ,0.02264497940835901, ,0.0012763224674564734, ,2.0, ,0.8510683364099413, ,0.44584804391747107, ,0.0427542295055203
225, ,PASS, ,0.08355536, ,0.011912141384013357, ,0.02388486642213404, ,0.0010166281071698068, ,1.9166666666666667, ,0.8471113016718487, ,0.447562294647048, ,0.036305381522826065
226, ,PASS, ,0.09925952000000003, ,0.013821788583140692, ,0.02199141823232179, ,0.001405352485085565, ,1.9166666666666667, ,0.834388706799958, ,0.43580743250137755, ,0.03367278218811861
227, ,PASS, ,0.12539586, ,0.018894385485011593, ,0.019173277074753574, ,0.0023940037011610706, ,1.75, ,0.8526182482317846, ,0.4396849043897063, ,0.04220322034244199
228, ,PASS, ,0.19979999999999992, ,0.04297597053792305, ,0.007117393331156427, ,0.008777727467316351, ,2.0, ,0.9452080046419017, ,0.44652149956123344, ,0.39248178608599826
229, ,PASS, ,0.19979999999999992, ,0.04089389535319198, ,0.010169219900818278, ,0.008376003938508443, ,2.0, ,0.9450051121607741, ,0.44772555662129343, ,0.39405318258811045
230, ,PASS, ,0.19979999999999992, ,0.04334157829306968, ,0.006794639813473112, ,0.008917181013282535, ,1.9166666666666667, ,0.9452256791167571, ,0.44950103059121244, ,0.39476745372543415
231, ,PASS, ,0.19979999999999992, ,0.04428071418471821, ,0.005276296231913546, ,0.009139791694410497, ,1.8333333333333333, ,0.9459858582417378, ,0.44919491438950226, ,0.39413481357523317
232, ,PASS, ,0.12899145, ,0.020131168729364282, ,0.018745717204750923, ,0.0026224869083069603, ,1.75, ,0.8619500145659739, ,0.44123589314503786, ,0.044448072488316566
233, ,PASS, ,0.10081092999999999, ,0.01451614098311339, ,0.02168082028205547, ,0.0014950381913649683, ,1.8333333333333333, ,0.8563777527189679, ,0.43952164241546093, ,0.04061141609354911
234, ,PASS, ,0.12640475999999995, ,0.018750020633530665, ,0.019200775346625575, ,0.0024066158804224957, ,1.75, ,0.8582093093252121, ,0.4411950776514765, ,0.040835901308136566
235, ,PASS, ,0.13958813999999997, ,0.021280122433324545, ,0.017681083072794434, ,0.003031407853910503, ,1.8333333333333333, ,0.8591113640833326, ,0.44505214179302466, ,0.044121548539825715
236, ,PASS, ,0.08479693999999999, ,0.011690478654742079, ,0.022933196839370014, ,0.0010313913554478027, ,1.9166666666666667, ,0.8504058869946457, ,0.43484826840268564, ,0.03781555478459623
237, ,PASS, ,0.10331546999999999, ,0.014810253777883161, ,0.0211340581066917, ,0.00157956865711824, ,1.9166666666666667, ,0.8567469301661375, ,0.43778698393910326, ,0.03801963225240301
238, ,PASS, ,0.10849356999999997, ,0.014995465988717744, ,0.021043176783902367, ,0.0016703567193868583, ,1.75, ,0.8533718439260629, ,0.44141956286606393, ,0.03810126323952572
239, ,PASS, ,0.08002685000000004, ,0.010652632489553265, ,0.0239001740168568, ,0.0008540467004595289, ,1.9166666666666667, ,0.8447319023303023, ,0.43725638252280563, ,0.03236668639415522
240, ,PASS, ,0.09148363999999998, ,0.012573179186104922, ,0.022643520155498052, ,0.0011898072455318839, ,1.9166666666666667, ,0.8507658843988624, ,0.43725638252280563, ,0.03579518785330912
241, ,PASS, ,0.09986713999999998, ,0.013918242053208511, ,0.021639323438521662, ,0.0014370151081559452, ,1.9166666666666667, ,0.8570549838562407, ,0.43741964449705106, ,0.03979510622232199
242, ,PASS, ,0.09085194999999997, ,0.011969859895078542, ,0.022876176056485786, ,0.001126214316327209, ,1.9166666666666667, ,0.8484346834541311, ,0.43737882900348973, ,0.03444827656578437
243, ,PASS, ,0.07368064, ,0.009557396453096285, ,0.02412155896493949, ,0.0007332020297927916, ,1.9166666666666667, ,0.8407388904559718, ,0.4346237831880982, ,0.031080998346972512
244, ,PASS, ,0.12241389999999999, ,0.0179112729732073, ,0.01966522459908981, ,0.002256245401466736, ,1.9166666666666667, ,0.86371158838726, ,0.43956245790902226, ,0.044468480235097245
245, ,PASS, ,0.13074894999999997, ,0.01955532474494741, ,0.019548329284708475, ,0.002565839030985218, ,1.9166666666666667, ,0.8631142136360053, ,0.43868492479745314, ,0.04240729781024877
246, ,PASS, ,0.10212021999999998, ,0.013844853251619266, ,0.021981038218056772, ,0.0014627484782585105, ,1.9166666666666667, ,0.8504095178433436, ,0.43856247831676903, ,0.03663190547131691
247, ,PASS, ,0.08204310999999999, ,0.010334075898473957, ,0.024064266989422666, ,0.0008878477253328276, ,1.9166666666666667, ,0.8434453246614618, ,0.4339503275443358, ,0.03167282300361217
248, ,PASS, ,0.08753737999999998, ,0.011720916394852836, ,0.022938777609931228, ,0.0010685303576124737, ,1.9166666666666667, ,0.8516504575936236, ,0.4342768514928267, ,0.03942776678026979
249, ,PASS, ,0.10705694999999998, ,0.01484761989921511, ,0.021354320725209687, ,0.0016331550322043096, ,1.9166666666666667, ,0.8580541582266155, ,0.43717475153568297, ,0.03820330197342912
250, ,PASS, ,0.09511188000000004, ,0.012322064450722578, ,0.023073888552411173, ,0.001176494659017317, ,1.9166666666666667, ,0.8480706883123481, ,0.43829717760862025, ,0.03367278218811861
251, ,PASS, ,0.07354060999999999, ,0.009163795310486143, ,0.024702402831166714, ,0.0006796437102462546, ,1.9166666666666667, ,0.8330581578881618, ,0.4350115303769311, ,0.028448399012265056
252, ,PASS, ,0.16823572999999997, ,0.02698673200132406, ,0.015160777762902799, ,0.00466411301150391, ,1.9166666666666667, ,0.8685834773005398, ,0.44225628048407173, ,0.045713352788718596
253, ,PASS, ,0.18504780999999998, ,0.028315049911983678, ,0.015496683700536725, ,0.0053150737838449985, ,1.8333333333333333, ,0.8665790126851713, ,0.4455215199689802, ,0.04599906124364809
254, ,PASS, ,0.19979999999999992, ,0.040788225606780235, ,0.01086152902410148, ,0.008269409752759091, ,2.0, ,0.9542557790530259, ,0.44321544458276363, ,0.3988490030815698
255, ,PASS, ,0.19979999999999992, ,0.045273211743077975, ,0.003310134942143947, ,0.009416452823011722, ,2.0, ,0.9661950796363878, ,0.44164404808065144, ,0.4063182384032979
