Channel, ,Pass/Fail, ,Amplitude, ,Sorting Function Response, ,Mean, ,Variance, ,NPeaksRatio, ,PosIntegralRatio, ,ToT50, ,ToT99
0, ,PASS, ,0.09512696000000004, ,0.013754552295733, ,0.028885855739005328, ,0.0013140350733664408, ,1.75, ,0.7162135398954849, ,0.4905818248607171, ,0.12681373849513275
1, ,PASS, ,0.09514668, ,0.013601420103809759, ,0.02894148140562438, ,0.001299681647090452, ,1.75, ,0.7120948965468724, ,0.4923777065774168, ,0.14134405420297544
2, ,PASS, ,0.09403734999999999, ,0.01357925219606495, ,0.028891520517438422, ,0.0012824780479747176, ,1.75, ,0.7155695087115934, ,0.49092875655598867, ,0.12842595049080632
3, ,PASS, ,0.09423254, ,0.013454108762611416, ,0.028992687516295586, ,0.001273280073763557, ,1.75, ,0.7115852614334054, ,0.4926430072855656, ,0.1387930858553907
4, ,PASS, ,0.09282389, ,0.01337225952055631, ,0.028937071816044574, ,0.0012467931670461815, ,1.75, ,0.7153403265591566, ,0.49113283402379543, ,0.1271402624436236
5, ,PASS, ,0.09295440999999999, ,0.013281435479115002, ,0.029070902701169368, ,0.0012398531911563151, ,1.75, ,0.7123005254125723, ,0.4927654537662497, ,0.13662986469663885
6, ,PASS, ,0.09153646, ,0.013160671294276042, ,0.028735278804310118, ,0.0012100003746688653, ,1.75, ,0.7152514775003037, ,0.49170425093365444, ,0.1416501704046856
7, ,PASS, ,0.09168001, ,0.013072834614344388, ,0.02916070904475419, ,0.0012036306558709342, ,1.75, ,0.7113121584118618, ,0.4925613762984429, ,0.13958898797983715
8, ,PASS, ,0.09015092000000002, ,0.012997986854254856, ,0.02897045921077121, ,0.0011766263068173383, ,1.75, ,0.7152485370523131, ,0.4910512030366727, ,0.13562988510438562
9, ,PASS, ,0.0905618, ,0.012904723134144714, ,0.02911424488373707, ,0.0011738274686542516, ,1.75, ,0.7107502943537747, ,0.4926634150323463, ,0.13942572600559172
10, ,PASS, ,0.08873596000000003, ,0.01282327945905906, ,0.029075492287626785, ,0.0011427797739113977, ,1.75, ,0.7167025944418264, ,0.4910103875431114, ,0.14238484928879003
11, ,PASS, ,0.08933488000000002, ,0.012759212880839923, ,0.028964250749168387, ,0.001144906833067642, ,1.75, ,0.7120891262337733, ,0.4926634150323463, ,0.14271137323728086
12, ,PASS, ,0.08762274, ,0.012641042670324945, ,0.028705226705679477, ,0.0011124750583377113, ,1.75, ,0.7158490156232713, ,0.4910512030366727, ,0.138140037958409
13, ,PASS, ,0.08835105000000001, ,0.012564370710899797, ,0.028970062848329627, ,0.0011147327765376421, ,1.75, ,0.7105543057790172, ,0.492683822779127, ,0.13862982388114528
14, ,PASS, ,0.08700627, ,0.012500891589834834, ,0.02896619387820657, ,0.0010925196622479825, ,1.75, ,0.7140976619772977, ,0.4907859023285239, ,0.12183424828064733
15, ,PASS, ,0.08708672000000002, ,0.012391109826618662, ,0.028960146189118588, ,0.0010834890338502236, ,1.75, ,0.7092263924343872, ,0.4906634558478398, ,0.13624211750780596
16, ,PASS, ,0.08584180000000004, ,0.012363687219485824, ,0.02897435557688619, ,0.0010659050616363159, ,1.75, ,0.7154856433164307, ,0.4902144854186649, ,0.13909920205710088
17, ,PASS, ,0.08769805000000001, ,0.012396932352900082, ,0.029095452363155857, ,0.0010919540330190799, ,1.75, ,0.7085890035275839, ,0.4926430072855656, ,0.13567070059794697
18, ,PASS, ,0.08557784000000002, ,0.01227591937151449, ,0.029054566280565707, ,0.001055092386146868, ,1.75, ,0.7132421779478021, ,0.49127568825126017, ,0.13995632742188935
19, ,PASS, ,0.08533824000000001, ,0.012154249883245953, ,0.029133546643537886, ,0.0010418778925985364, ,1.75, ,0.7097036775965778, ,0.4910920185302341, ,0.1353645843962368
20, ,PASS, ,0.08398513, ,0.012122352404731938, ,0.028702103189608377, ,0.0010223149810293893, ,1.75, ,0.7158926388835902, ,0.49047978612681375, ,0.14475214791534866
21, ,PASS, ,0.08477269000000001, ,0.012049800228485962, ,0.028840688263606865, ,0.0010258087382881622, ,1.75, ,0.7105017404959808, ,0.49082671782208526, ,0.13634415624170934
22, ,PASS, ,0.08344227000000004, ,0.012052801461519436, ,0.028624385985837025, ,0.0010101470671809946, ,1.75, ,0.7163272151768915, ,0.48925532131997307, ,0.14242566478235139
23, ,PASS, ,0.08439392000000003, ,0.011979436576798001, ,0.029085342364837456, ,0.0010157348256746269, ,1.75, ,0.7103740373647044, ,0.4901940776718842, ,0.13207893716454766
24, ,PASS, ,0.08266162, ,0.011925653778331184, ,0.028951745400922428, ,0.0009898143834350284, ,1.75, ,0.7156036765563816, ,0.4890512438521663, ,0.14326238240035918
25, ,PASS, ,0.08454115000000004, ,0.011943532773306472, ,0.028898673066476196, ,0.0010138477301464878, ,1.75, ,0.7083402927953169, ,0.49164302769331236, ,0.13348707169241444
26, ,PASS, ,0.08322076000000002, ,0.01191426949696989, ,0.02876902748601049, ,0.0009956319842836293, ,1.75, ,0.7121001351594668, ,0.489704291749148, ,0.1383441154262158
27, ,PASS, ,0.08297299000000002, ,0.011814671644780166, ,0.029036296188065552, ,0.0009846816215612743, ,1.75, ,0.7107733346293585, ,0.4910512030366727, ,0.1374869900614273
28, ,PASS, ,0.08158349, ,0.011745797456995237, ,0.02861652458255954, ,0.0009620361462055336, ,1.75, ,0.7141159482755558, ,0.48856145792943, ,0.14265014999693884
29, ,PASS, ,0.08398556000000001, ,0.011607891611454048, ,0.029082391903441362, ,0.0009792840061582386, ,1.6666666666666667, ,0.6997818772111053, ,0.4940307340666517, ,0.12252811167119039
30, ,PASS, ,0.08407002000000004, ,0.01161821007597938, ,0.029116892026425176, ,0.0009811913112776028, ,1.6666666666666667, ,0.6994812095803087, ,0.4936633946245995, ,0.12360972225056631
31, ,PASS, ,0.08159296, ,0.011622743216326639, ,0.028942387563872164, ,0.0009523266601587053, ,1.75, ,0.7115308631934132, ,0.4907042713414012, ,0.13697679639191038
32, ,PASS, ,0.07971359999999997, ,0.011615467791114734, ,0.02862681173404216, ,0.0009300661749355511, ,1.75, ,0.7201679043860238, ,0.4881124875002551, ,0.1391604252974429
33, ,PASS, ,0.08017324999999999, ,0.011582676393149857, ,0.028781761425203566, ,0.0009326873579511582, ,1.75, ,0.7172407740037249, ,0.4893369523070958, ,0.14213995632742188
34, ,PASS, ,0.07927795199999997, ,0.011551939664667901, ,0.028692179202595865, ,0.0009200286598587043, ,1.75, ,0.7206534841338392, ,0.4878267790453256, ,0.13128303504010122
35, ,PASS, ,0.079797906, ,0.011500324138816619, ,0.028812547045178463, ,0.0009217290555886453, ,1.75, ,0.7164205001693447, ,0.48945939878777983, ,0.1426705577437195
36, ,PASS, ,0.079414433, ,0.011496370166548435, ,0.028921351743301568, ,0.000917145779857873, ,1.75, ,0.7171279526397376, ,0.48825534172771984, ,0.13050754066243547
37, ,PASS, ,0.08026955000000001, ,0.011495991267328967, ,0.028825476788750228, ,0.0009267274072929736, ,1.75, ,0.7136059367659786, ,0.48960225301524457, ,0.13971143446052123
38, ,PASS, ,0.07923696099999997, ,0.011465111175053657, ,0.02860860871543744, ,0.0009124766638890636, ,1.75, ,0.7180991099007992, ,0.48876553539723677, ,0.14377257606987612
39, ,PASS, ,0.08000726200000001, ,0.011443632583201767, ,0.029111079469189605, ,0.0009197517231496983, ,1.75, ,0.7130882765151397, ,0.4900512234444195, ,0.1365686414562968
40, ,PASS, ,0.07956316099999997, ,0.011460460239077206, ,0.028564538685155814, ,0.0009161943948596569, ,1.75, ,0.7162068715711838, ,0.4883981959551846, ,0.12187506377420869
41, ,PASS, ,0.08025914800000003, ,0.01148115466414065, ,0.02887220599871839, ,0.0009257117610209608, ,1.75, ,0.7134412023264761, ,0.49037774739291035, ,0.1395277647394951
42, ,PASS, ,0.07926443000000001, ,0.011467023249755121, ,0.028442915765680293, ,0.0009128755419574415, ,1.75, ,0.7181334870818422, ,0.48872471990367544, ,0.14126242321585275
43, ,PASS, ,0.07984880999999996, ,0.011413727640176216, ,0.028661351042584843, ,0.0009155298294306409, ,1.75, ,0.7128455177759494, ,0.4896634762555866, ,0.13340544070529173
44, ,PASS, ,0.078740727, ,0.011437521596528749, ,0.0285119225313463, ,0.0009046747135674773, ,1.75, ,0.71969252261792, ,0.48807167200669377, ,0.1439766535376829
45, ,PASS, ,0.07955391, ,0.011400082644344153, ,0.02868909578897247, ,0.0009109044579738502, ,1.75, ,0.714748378189424, ,0.48964306850880596, ,0.1416501704046856
46, ,PASS, ,0.07841053499999998, ,0.011379599939402307, ,0.028459254713465238, ,0.0008965102115768566, ,1.75, ,0.7193671048767526, ,0.48703087692087915, ,0.13548703087692088
47, ,PASS, ,0.079304863, ,0.01135625373052028, ,0.02880243334255423, ,0.0009049326937618458, ,1.75, ,0.7141088024632735, ,0.48919409807963105, ,0.13901757106997817
48, ,PASS, ,0.07822046299999999, ,0.011349677936213757, ,0.028690322707287608, ,0.0008920720387277249, ,1.75, ,0.7201884491731526, ,0.48658190649170424, ,0.13160955898859206
49, ,PASS, ,0.07901982499999997, ,0.011339140957840986, ,0.02864038940831452, ,0.000899995838209225, ,1.75, ,0.7147656889885299, ,0.4890104283586049, ,0.13905838656353953
50, ,PASS, ,0.07818505999999996, ,0.011353556222244437, ,0.02845471675164364, ,0.0008918302091701806, ,1.75, ,0.7206382107035357, ,0.4880104487663517, ,0.14456847819432256
51, ,PASS, ,0.079053837, ,0.01133178171387785, ,0.028602629277250873, ,0.0008998868652114122, ,1.75, ,0.7140433478973989, ,0.4892349135731924, ,0.138711454868268
52, ,PASS, ,0.07798830800000003, ,0.011343041157729515, ,0.02833296586703741, ,0.0008885835742179012, ,1.75, ,0.7205299996737662, ,0.4872757698822473, ,0.1451807105977429
53, ,PASS, ,0.07900996099999999, ,0.011328707431420499, ,0.02840819181617518, ,0.0008990537433652778, ,1.75, ,0.713944602615489, ,0.48827574947450053, ,0.13571151609150833
54, ,PASS, ,0.078190175, ,0.011337283749600706, ,0.028343914777739232, ,0.000890403796419037, ,1.75, ,0.7182889036107688, ,0.48613293606252933, ,0.14430317748617374
55, ,PASS, ,0.07930902599999999, ,0.011394868196304763, ,0.028657503477801067, ,0.0009076914926645482, ,1.75, ,0.7154636240502638, ,0.48794922552600967, ,0.13830329993265444
56, ,PASS, ,0.08467636, ,0.011975151183282639, ,0.02882503830589172, ,0.0010185177055823942, ,1.75, ,0.7092356209542444, ,0.48994918471051613, ,0.1365890492030775
57, ,PASS, ,0.19635020000000003, ,0.025974111889903135, ,0.03495909931205485, ,0.005111163862132053, ,1.75, ,0.6446118110374114, ,0.47999020428154526, ,0.06481500377543316
58, ,PASS, ,0.075660697, ,0.011529342194357384, ,0.02801395406277423, ,0.0008767532918337649, ,1.75, ,0.7396863718243436, ,0.4788473704618273, ,0.11454868267994531
59, ,PASS, ,0.07439628200000001, ,0.011279627146591892, ,0.02817343938998184, ,0.0008430219202070685, ,1.75, ,0.7371783452860345, ,0.4793983796249056, ,0.10952837697189853
60, ,PASS, ,0.073702632, ,0.011256475831242146, ,0.027950984270645497, ,0.0008336659758555465, ,1.8333333333333333, ,0.7398743977132584, ,0.4781330993245036, ,0.10895696006203955
61, ,PASS, ,0.074116857, ,0.011246486637099772, ,0.027821303208567176, ,0.0008374372826218796, ,1.75, ,0.7387755624647154, ,0.48029632048325543, ,0.12542601171404666
62, ,PASS, ,0.07337113700000002, ,0.011173277211874296, ,0.027979442845666416, ,0.0008239141307913186, ,1.75, ,0.7406074461988114, ,0.4797657190669578, ,0.1146507214138487
63, ,PASS, ,0.073840197, ,0.011192089246587962, ,0.027983865584130938, ,0.0008304025677206039, ,1.75, ,0.7367239941973902, ,0.48001061202832596, ,0.11414052774433175
64, ,PASS, ,0.072905121, ,0.01113706645761392, ,0.02804493314861942, ,0.0008160963050782632, ,1.75, ,0.7418567894681987, ,0.47999020428154526, ,0.11636497214342564
65, ,PASS, ,0.07365927700000001, ,0.011153094288831666, ,0.02797735063712986, ,0.0008253520463030876, ,1.75, ,0.7372745517056939, ,0.4813983388094121, ,0.11536499255117243
66, ,PASS, ,0.07298837300000001, ,0.011094747539784065, ,0.027971078106022333, ,0.0008138416255721684, ,1.75, ,0.7382514418776986, ,0.48013305850901, ,0.10787534948266361
67, ,PASS, ,0.07359211800000001, ,0.011071007082989446, ,0.02828095259951838, ,0.0008186688099120046, ,1.75, ,0.7352192489046843, ,0.48205138670639375, ,0.11667108834513581
68, ,PASS, ,0.072820114, ,0.011048915216590944, ,0.02820042796179466, ,0.0008085919699691435, ,1.75, ,0.7374993695797812, ,0.48084732964633375, ,0.11073243403195854
69, ,PASS, ,0.073610274, ,0.011076702110118863, ,0.02814923726578009, ,0.0008194219318513841, ,1.75, ,0.73427759053266, ,0.48176567825146427, ,0.11069161853839718
70, ,PASS, ,0.07259041900000002, ,0.01103653347628602, ,0.027925132098044942, ,0.0008047618767982966, ,1.75, ,0.7383400211403579, ,0.48205138670639375, ,0.11481398338809412
71, ,PASS, ,0.073278734, ,0.01099976187405103, ,0.028222139681948536, ,0.000809775805276302, ,1.75, ,0.7331344236431399, ,0.48364319095528663, ,0.1116915981306504
72, ,PASS, ,0.07291076199999999, ,0.010977250999618738, ,0.028126642666420284, ,0.0008044204267797264, ,1.75, ,0.7336416642098001, ,0.48239831840166525, ,0.10944674598477581
73, ,PASS, ,0.07526643000000001, ,0.011134039075204487, ,0.028418095629012267, ,0.0008420983495452134, ,1.75, ,0.7269930706835129, ,0.48537784943164425, ,0.1297320462847697
74, ,PASS, ,0.07309632599999999, ,0.010990739731463525, ,0.028357543651691193, ,0.0008073327528899722, ,1.75, ,0.7325708674938145, ,0.4831942205261117, ,0.11065080304483582
75, ,PASS, ,0.07282091900000001, ,0.010914927967539286, ,0.02812002478595866, ,0.0007986082743860495, ,1.75, ,0.7323636241189428, ,0.48445950082651373, ,0.11852819330217751
76, ,PASS, ,0.072794296, ,0.010924389389538281, ,0.028075390150917538, ,0.0007989451021366903, ,1.75, ,0.7322238288041133, ,0.48372482194240934, ,0.1142833819717965
77, ,PASS, ,0.07242318900000001, ,0.010892606479822998, ,0.028164327414602768, ,0.0007928239088678456, ,1.75, ,0.7337333351997377, ,0.48315340503255033, ,0.10705903961143651
78, ,PASS, ,0.07244837600000004, ,0.0108427724638627, ,0.028215181560847947, ,0.0007892395910024279, ,1.75, ,0.7307603769418719, ,0.4843370543458297, ,0.10522234240117549
79, ,PASS, ,0.071680194, ,0.010785286240178864, ,0.028149471925318876, ,0.0007769331274223888, ,1.75, ,0.7332618262033029, ,0.4830309585518663, ,0.10538560437542091
80, ,PASS, ,0.07275467299999999, ,0.010863033918228534, ,0.028338676366702523, ,0.0007939901541317393, ,1.75, ,0.7300430175968551, ,0.4853370339380829, ,0.11128344319503683
81, ,PASS, ,0.07322287400000001, ,0.010944790866504945, ,0.028121726622835665, ,0.0008051292151899032, ,1.75, ,0.7304456211925227, ,0.4851533642170568, ,0.11432419746535785
82, ,PASS, ,0.07290859900000002, ,0.010861340499161544, ,0.028228206494438076, ,0.0007956555759706625, ,1.75, ,0.7293165299555872, ,0.4858880431011612, ,0.11775269892451175
83, ,PASS, ,0.071733613, ,0.010765414746935187, ,0.02822031355989286, ,0.000775932417577501, ,1.75, ,0.7316461407737791, ,0.48464317054753986, ,0.11050794881737107
84, ,PASS, ,0.07229792399999999, ,0.010751192414458082, ,0.028373550039295124, ,0.0007810352943435567, ,1.75, ,0.7266370510366997, ,0.4851329564702761, ,0.10563049733678904
85, ,PASS, ,0.07151638000000002, ,0.010747879426574148, ,0.028228712983838906, ,0.0007724510549331763, ,1.75, ,0.7327476590018593, ,0.4842146078651456, ,0.10812024244403176
86, ,PASS, ,0.07187985700000003, ,0.010735943157458419, ,0.02807513721288505, ,0.0007751599802554123, ,1.75, ,0.7307359286298181, ,0.4859900818350646, ,0.11687516581294259
87, ,PASS, ,0.071366006, ,0.010692957565572928, ,0.02855643450979164, ,0.0007667670945361978, ,1.75, ,0.730993995654954, ,0.48452072406685576, ,0.10350809167159854
88, ,PASS, ,0.071746822, ,0.010695756023272902, ,0.028423234821188754, ,0.0007710087992330336, ,1.75, ,0.7285954722008459, ,0.4860104895818453, ,0.10793657272300565
89, ,PASS, ,0.07134086800000002, ,0.010684681080755641, ,0.02819364792952226, ,0.0007656840183028504, ,1.75, ,0.730719155818937, ,0.4847248015346626, ,0.10787534948266361
90, ,PASS, ,0.07169503900000002, ,0.010707918845826047, ,0.028357716285361937, ,0.0007710439892272338, ,1.75, ,0.7302610305644213, ,0.4867451684659497, ,0.11916083345237852
91, ,PASS, ,0.07120085000000002, ,0.010669485577198108, ,0.028302501382128736, ,0.0007630582922131868, ,1.75, ,0.7306046072963778, ,0.48594926634150326, ,0.10842635864574192
92, ,PASS, ,0.07198063799999999, ,0.010703278821064834, ,0.02837916999147773, ,0.0007737906625792909, ,1.75, ,0.7285775382083288, ,0.48796963327279036, ,0.12754841737923717
93, ,PASS, ,0.07221328600000002, ,0.010724711246892771, ,0.028368190383894414, ,0.0007780730574972278, ,1.75, ,0.7274083153475885, ,0.48723495438868597, ,0.10420195506214158
94, ,PASS, ,0.073123711, ,0.01079051435510857, ,0.028442612638639213, ,0.000792636637746829, ,1.75, ,0.7249552560874797, ,0.4889900206118242, ,0.11860982428930023
95, ,PASS, ,0.07277468299999998, ,0.010782971928726957, ,0.028594323724449505, ,0.000788377202447812, ,1.75, ,0.7266363034383828, ,0.4889083896247015, ,0.11660986510479378
96, ,PASS, ,0.07348446799999997, ,0.010684890590344259, ,0.028698357100659173, ,0.0007887713892591397, ,1.75, ,0.7199377494721219, ,0.4916226199465317, ,0.14542560355911105
