Channel, ,Pass/Fail, ,Amplitude, ,Sorting Function Response, ,Mean, ,Variance, ,NPeaksRatio, ,PosIntegralRatio, ,ToT50, ,ToT99
0, ,PASS, ,0.077791745, ,0.011323844788000883, ,0.032904187394012366, ,0.0008963760577514181, ,1.75, ,0.7145110218845001, ,0.5546825574988266, ,0.08150854064202771
1, ,PASS, ,0.077080707, ,0.011281171774574618, ,0.03291442553980531, ,0.0008844664510841534, ,1.75, ,0.7164730207632188, ,0.5588865533356462, ,0.08163098712271179
2, ,PASS, ,0.07685507800000002, ,0.011206607691614757, ,0.0328162519304504, ,0.0008756406456112382, ,1.75, ,0.7144431152113829, ,0.5526825983143201, ,0.08034529907552906
3, ,PASS, ,0.076154555, ,0.011166154728664824, ,0.03305954172751577, ,0.0008652703240398179, ,1.75, ,0.7172220210373421, ,0.5597640864472153, ,0.0840186934960511
4, ,PASS, ,0.075561511, ,0.011076017159622448, ,0.03289993175559683, ,0.0008516521822860911, ,1.75, ,0.7171402399226486, ,0.5573559723270953, ,0.07979428991245077
5, ,PASS, ,0.07559305, ,0.011093348402642794, ,0.03322863316013959, ,0.0008532477871432668, ,1.75, ,0.7186971147651398, ,0.5652741780779984, ,0.07687598212281382
6, ,PASS, ,0.075230924, ,0.010988543548171106, ,0.03290104241766494, ,0.0008410943407282709, ,1.75, ,0.7158518297865539, ,0.557376380073876, ,0.08293708291667518
7, ,PASS, ,0.07503196300000001, ,0.011027392274579016, ,0.03301907673822983, ,0.0008412369448179556, ,1.75, ,0.7182785563100839, ,0.5603150956102937, ,0.08240648150037755
8, ,PASS, ,0.07471305199999999, ,0.010964279423753916, ,0.03309296563886451, ,0.0008331264002423844, ,1.75, ,0.7180019949495886, ,0.5607232505459072, ,0.08507989632864635
9, ,PASS, ,0.074420011, ,0.010894681701714874, ,0.032802425306054976, ,0.0008252280969363318, ,1.75, ,0.7173479934716315, ,0.5566212934429909, ,0.08177384135017653
10, ,PASS, ,0.07458373099999999, ,0.010863837003757466, ,0.033333020547825554, ,0.0008243369832716074, ,1.75, ,0.7173310680308882, ,0.5616620068978184, ,0.0796718434317667
11, ,PASS, ,0.07464976699999998, ,0.010871256926958726, ,0.032901292854635625, ,0.000825925040850318, ,1.75, ,0.7139169358380352, ,0.5561927307605967, ,0.07895757229444297
12, ,PASS, ,0.074235578, ,0.010885757423467262, ,0.03254287065627232, ,0.0008214410970006794, ,1.75, ,0.7192478588380721, ,0.553070345503153, ,0.08326360686516601
13, ,PASS, ,0.07424140000000001, ,0.010908943320628276, ,0.032821678250729576, ,0.0008235951386521195, ,1.75, ,0.7177446743621788, ,0.559213077284137, ,0.08193710332442194
14, ,PASS, ,0.074135019, ,0.010852781674441203, ,0.033082145833309526, ,0.0008187129092332465, ,1.75, ,0.7171437907030594, ,0.5590089998163302, ,0.07571274055631518
15, ,PASS, ,0.073923993, ,0.010889279845526425, ,0.03298040190510398, ,0.0008186724224265558, ,1.75, ,0.7188093864328058, ,0.5610905899879595, ,0.08038611456909042
16, ,PASS, ,0.07398433599999998, ,0.010818443150376542, ,0.03306241795110304, ,0.0008149496094125412, ,1.75, ,0.7203596691180199, ,0.5632742188934919, ,0.07989632864635415
17, ,PASS, ,0.073944666, ,0.010837757640637859, ,0.032290564416277215, ,0.0008152249690499135, ,1.75, ,0.7156154272226494, ,0.5504785616620069, ,0.07979428991245077
18, ,PASS, ,0.073812233, ,0.010803534400859847, ,0.032526538845207245, ,0.0008117926956558689, ,1.75, ,0.7156425999174785, ,0.5522132201383645, ,0.08026366808840636
19, ,PASS, ,0.07483634300000001, ,0.011015279195295475, ,0.03267754143727679, ,0.0008390616201298479, ,1.75, ,0.7176259221803059, ,0.5558049835717639, ,0.0834676843329728
20, ,PASS, ,0.07364559500000001, ,0.010879896307386646, ,0.03272043166523132, ,0.0008151989202265346, ,1.75, ,0.7204035559399911, ,0.559784494193996, ,0.08371257729434094
21, ,PASS, ,0.073368755, ,0.010780677607118228, ,0.032493019484337055, ,0.0008050066516997074, ,1.75, ,0.7184685889247427, ,0.5530499377563723, ,0.0851207118222077
22, ,PASS, ,0.07316768300000001, ,0.010862417858573609, ,0.032929190048366364, ,0.0008081222426221889, ,1.75, ,0.7220615991394417, ,0.5624375012754842, ,0.08693700128568804
23, ,PASS, ,0.07321646199999998, ,0.01070062639430564, ,0.0327475003084835, ,0.0007976689426577479, ,1.75, ,0.7192883690868459, ,0.558580437133936, ,0.08422277096385788
24, ,PASS, ,0.07311266199999998, ,0.010782891317434096, ,0.032816420487581884, ,0.0008024460225534749, ,1.75, ,0.7187396767641361, ,0.5595804167261893, ,0.08373298504112162
25, ,PASS, ,0.07309667799999998, ,0.010803147098405606, ,0.03280327925989266, ,0.0008035002107652595, ,1.75, ,0.7195932932820847, ,0.5603150956102937, ,0.08201873431154466
26, ,PASS, ,0.07263036800000003, ,0.010740856339812177, ,0.03274000950384686, ,0.0007938544631456792, ,1.75, ,0.7211824704025442, ,0.5590498153098916, ,0.08297789841023652
27, ,PASS, ,0.07355639, ,0.010925363743050424, ,0.03295334896157221, ,0.0008177508994125481, ,1.75, ,0.7202258942639518, ,0.5610293667476174, ,0.08267178220852636
28, ,PASS, ,0.07257456099999998, ,0.010681186270303443, ,0.0326068406256607, ,0.0007893100620386435, ,1.75, ,0.7187301883312494, ,0.5544988877778004, ,0.08436562519132262
29, ,PASS, ,0.071777062, ,0.010615428728053829, ,0.032291166542601175, ,0.0007753322274339085, ,1.75, ,0.7176444025248493, ,0.5521315891512418, ,0.08159017162915043
30, ,PASS, ,0.07160471700000001, ,0.010545663876610746, ,0.03307689312581376, ,0.0007689294469988799, ,1.75, ,0.7194027847571721, ,0.5605191730781004, ,0.07969225117854738
31, ,PASS, ,0.070868053, ,0.010435187287793465, ,0.032963110438195144, ,0.0007528913716708376, ,1.75, ,0.722089830472899, ,0.5594987857390665, ,0.07930450398971449
32, ,PASS, ,0.070441372, ,0.010459568530318914, ,0.033075991726005595, ,0.0007494943996010399, ,1.75, ,0.7251887612828265, ,0.5627640252239751, ,0.08236566600681619
33, ,PASS, ,0.07034198299999997, ,0.010304066171751136, ,0.03348075218673088, ,0.0007384360768048423, ,1.75, ,0.7240736379766943, ,0.5683353400951001, ,0.07575355604987653
34, ,PASS, ,0.07025582499999998, ,0.010400280283093432, ,0.03307172752576478, ,0.0007435194908333368, ,1.75, ,0.7248475278548815, ,0.5623966857819228, ,0.08575335197240873
35, ,PASS, ,0.06981337000000001, ,0.010427225929929347, ,0.03343820872435257, ,0.0007402868605510884, ,1.8333333333333333, ,0.728758082745652, ,0.567070059794698, ,0.08371257729434094
36, ,PASS, ,0.070233652, ,0.010423194218343696, ,0.03285637155809065, ,0.0007448322282420906, ,1.75, ,0.7222491760315917, ,0.5623558702883614, ,0.08071263851758127
37, ,PASS, ,0.070310927, ,0.010427943852602742, ,0.033097420201342834, ,0.0007461045467097304, ,1.75, ,0.7221166612568923, ,0.5613150752025469, ,0.08130446317422094
38, ,PASS, ,0.06990702, ,0.010410944239060207, ,0.032965832390359384, ,0.0007410154186626241, ,1.75, ,0.7243051821964663, ,0.5612946674557662, ,0.07869227158629416
39, ,PASS, ,0.06971762199999999, ,0.010382772469341632, ,0.03274450246382727, ,0.0007367793518959273, ,1.75, ,0.722286775644754, ,0.5566212934429909, ,0.08636558437582907
40, ,PASS, ,0.07004433, ,0.010448717463446841, ,0.032392769825064796, ,0.0007448459293843145, ,1.75, ,0.7248124943110564, ,0.5587436991081814, ,0.0845697026591294
41, ,PASS, ,0.07008189400000002, ,0.0104878693645318, ,0.032842855367074146, ,0.0007477030617466942, ,1.75, ,0.7286393165691428, ,0.5628048407175363, ,0.08279422868921042
42, ,PASS, ,0.06989946099999998, ,0.010293569169649738, ,0.03420414378139222, ,0.0007311998173631626, ,1.75, ,0.7351465928564256, ,0.58488602273423, ,0.08507989632864635
43, ,PASS, ,0.070448801, ,0.010478606183386793, ,0.032555602666680276, ,0.0007513670456980051, ,1.75, ,0.7239386760924551, ,0.5629885104385625, ,0.07977388216567009
44, ,PASS, ,0.07035073100000003, ,0.010432037713617203, ,0.03246251327262709, ,0.0007473675374442334, ,1.75, ,0.723191865920474, ,0.5589885920695497, ,0.08428399420419991
45, ,PASS, ,0.07034418800000002, ,0.010486861342540248, ,0.0326993926106406, ,0.0007508454723463215, ,1.75, ,0.7234064951077362, ,0.5617232301381605, ,0.08036570682230974
46, ,PASS, ,0.07035791000000001, ,0.01047554998490909, ,0.032392843187037, ,0.0007502149024360744, ,1.75, ,0.7226901601914727, ,0.557886573743393, ,0.08026366808840636
47, ,PASS, ,0.07018051899999998, ,0.010427068474842675, ,0.03272612194379707, ,0.0007455874053819616, ,1.75, ,0.7243854879141896, ,0.55990694067468, ,0.08501867308830433
48, ,PASS, ,0.07039873699999999, ,0.010454831183191661, ,0.03247470457268219, ,0.000749298082327838, ,1.75, ,0.7244550998532785, ,0.560172241382829, ,0.08424317871063856
49, ,PASS, ,0.070312531, ,0.01043707692056743, ,0.03268682665974164, ,0.0007472239188134835, ,1.75, ,0.7222285717333267, ,0.5570090406318239, ,0.0788351258137589
50, ,PASS, ,0.07047588700000001, ,0.010502988441056753, ,0.03263358886712516, ,0.000753870523121586, ,1.75, ,0.7233988251009059, ,0.5592538927776984, ,0.08632476888226771
51, ,PASS, ,0.07049124500000001, ,0.010456155565542309, ,0.032449976718230245, ,0.0007507758435068034, ,1.75, ,0.7240468658135785, ,0.5557641680782025, ,0.08734515622130161
52, ,PASS, ,0.07016193400000001, ,0.010449306526112983, ,0.03272919331303443, ,0.0007461107531713285, ,1.75, ,0.7248746883677666, ,0.5569682251382625, ,0.07777392298116365
53, ,PASS, ,0.06977396, ,0.010396232918100132, ,0.03256051540197139, ,0.0007386638539712153, ,1.75, ,0.725299678113031, ,0.5573355645803146, ,0.08773290341013448
54, ,PASS, ,0.06935852, ,0.010583154992456236, ,0.03306700879606539, ,0.0007457019689053676, ,1.9166666666666667, ,0.7485235471020574, ,0.5627436174771944, ,0.08812065059896737
55, ,PASS, ,0.06931875200000003, ,0.010322165910760734, ,0.03253800078614722, ,0.0007283656056740306, ,1.75, ,0.7270661365591241, ,0.558968184322769, ,0.08616150690802228
56, ,PASS, ,0.06924682700000001, ,0.010287374154844244, ,0.032681814565580294, ,0.0007251540324584131, ,1.75, ,0.7242947758174167, ,0.5580498357176384, ,0.08665129283075855
57, ,PASS, ,0.069145114, ,0.010306893745083263, ,0.03252207824150528, ,0.0007250976835969511, ,1.75, ,0.7239793527132955, ,0.5580090202240771, ,0.07848819411848738
58, ,PASS, ,0.06901004300000002, ,0.010292530822621226, ,0.03249726960351829, ,0.0007230463596867098, ,1.75, ,0.7248978699754496, ,0.5595600089794086, ,0.08261055896818432
59, ,PASS, ,0.069880211, ,0.010363738668235336, ,0.03240503350560193, ,0.0007372892659061033, ,1.75, ,0.724643424569354, ,0.560294687863513, ,0.08101875471929144
60, ,PASS, ,0.0921218, ,0.013344097433002723, ,0.032292912518928185, ,0.0012513019593594417, ,1.75, ,0.7047628293830658, ,0.5486418644517459, ,0.07626374971939348
61, ,PASS, ,0.17229810000000007, ,0.02386279988911363, ,0.033077262318811695, ,0.004185251957871203, ,1.75, ,0.6773692863914588, ,0.5330707536580886, ,0.07265157853921349
62, ,PASS, ,0.06977973800000002, ,0.01039132027697457, ,0.03273967899785719, ,0.0007384053961696967, ,1.75, ,0.7263914508348907, ,0.5587232913614008, ,0.08450847941878738
63, ,PASS, ,0.06660202800000004, ,0.009882005712242629, ,0.03246669054860105, ,0.0006703141007780833, ,1.75, ,0.7281989254859699, ,0.5615191526703537, ,0.08297789841023652
64, ,PASS, ,0.06617576400000003, ,0.009834719709759292, ,0.03257443372078121, ,0.0006621718295073594, ,1.75, ,0.7269106781104753, ,0.5621722005673354, ,0.07548825534172772
65, ,PASS, ,0.06643332880000002, ,0.00992443622777819, ,0.0325143405337034, ,0.0006708069368091237, ,1.75, ,0.73150367906625, ,0.5612130364686435, ,0.0806922307708006
66, ,PASS, ,0.06637868000000004, ,0.009856519501946185, ,0.03290621984294198, ,0.0006658318820516873, ,1.8333333333333333, ,0.7298055399437379, ,0.5656619252668312, ,0.07738617579233077
67, ,PASS, ,0.06659895900000003, ,0.009920424007236271, ,0.03273683060472236, ,0.0006727716995583782, ,1.75, ,0.7286373585144599, ,0.5636211505887635, ,0.07889634905410094
68, ,PASS, ,0.066930564, ,0.00995545529565943, ,0.03235035781065693, ,0.0006783956442850616, ,1.75, ,0.7282371872938365, ,0.5592334850309177, ,0.07936572723005653
69, ,PASS, ,0.06663037990000004, ,0.009979068853743759, ,0.032938844073263814, ,0.0006768960883723561, ,1.75, ,0.7307747917808932, ,0.562702801983633, ,0.08212077304544806
70, ,PASS, ,0.06691329499999998, ,0.009975069658275632, ,0.03253395896651089, ,0.0006794384610975745, ,1.75, ,0.7274190826449146, ,0.5611722209750821, ,0.0834676843329728
71, ,PASS, ,0.06686090820000001, ,0.009937549588611478, ,0.0325179816206608, ,0.0006764565702087113, ,1.75, ,0.7266703441103948, ,0.5583967674129099, ,0.08230444276647415
72, ,PASS, ,0.06699970690000001, ,0.009997377701307928, ,0.03238478418652681, ,0.000682201253990962, ,1.75, ,0.7284913347368946, ,0.5567029244301137, ,0.08363094630721822
73, ,PASS, ,0.066998709, ,0.01004189885029616, ,0.03239001143421563, ,0.0006842955198843621, ,1.8333333333333333, ,0.7299122431771805, ,0.5591110385502337, ,0.08699822452603008
74, ,PASS, ,0.06702723200000002, ,0.009917101303305908, ,0.03269338794775617, ,0.0006775238778821325, ,1.75, ,0.7284128245457459, ,0.5647027611681394, ,0.07567192506275382
75, ,PASS, ,0.06682571200000002, ,0.010003250010300137, ,0.0325627792547499, ,0.0006805725880930097, ,1.75, ,0.7279568710604248, ,0.5594579702455051, ,0.0817942490969572
76, ,PASS, ,0.06680173800000003, ,0.00990964483106701, ,0.03254579666047632, ,0.0006746848864116141, ,1.75, ,0.7260751285594893, ,0.5626415787432909, ,0.07685557437603315
77, ,PASS, ,0.06635228900000002, ,0.009916408122780078, ,0.032457027140752236, ,0.0006703858629269495, ,1.75, ,0.7293160146070186, ,0.5613354829493276, ,0.08659006959041653
78, ,PASS, ,0.06622258200000002, ,0.009857257869839077, ,0.03241028716969042, ,0.0006646712454601728, ,1.75, ,0.7273819038182979, ,0.5610701822411788, ,0.08591661394665415
79, ,PASS, ,0.06570625200000003, ,0.009781427619511385, ,0.032335320748352075, ,0.0006545973279669934, ,1.75, ,0.7266509485666895, ,0.5602334646231709, ,0.08303912165057856
80, ,PASS, ,0.06591328600000002, ,0.009778193567027943, ,0.03221031600248975, ,0.0006565790237034793, ,1.75, ,0.7249208933280026, ,0.5583355441725679, ,0.07965143568498602
81, ,PASS, ,0.06646941, ,0.009928537062495973, ,0.032334572984959495, ,0.0006720991047960135, ,1.75, ,0.7277253139897851, ,0.5587641068549621, ,0.08542682802391788
82, ,PASS, ,0.06575583500000004, ,0.009841562049323797, ,0.03217270879141242, ,0.0006588348394016456, ,1.75, ,0.7283030703526548, ,0.5575600497949021, ,0.08432480969776127
83, ,PASS, ,0.06555270200000003, ,0.009708110324594798, ,0.032344811919185326, ,0.0006482169305997889, ,1.75, ,0.7260585953600848, ,0.5599681639150221, ,0.08326360686516601
84, ,PASS, ,0.06534725800000002, ,0.009772743168650878, ,0.03292084896671497, ,0.0006508453692071272, ,1.75, ,0.7316845587893802, ,0.5684373788290035, ,0.08387583926858636
85, ,PASS, ,0.06553557300000003, ,0.009791630268397113, ,0.0323603660700802, ,0.0006533519659035206, ,1.75, ,0.7288299712729261, ,0.5627436174771944, ,0.08128405542744026
86, ,PASS, ,0.06531172100000002, ,0.00970592373840997, ,0.032203499836493135, ,0.0006455795103634469, ,1.75, ,0.7261111028638835, ,0.5581110589579804, ,0.08393706250892839
87, ,PASS, ,0.06520967400000002, ,0.009761682463761275, ,0.03214216613995633, ,0.0006481763187840817, ,1.75, ,0.7285242182657874, ,0.5635599273484214, ,0.08363094630721822
88, ,PASS, ,0.06545101900000003, ,0.009720115717999469, ,0.0321632721214261, ,0.0006479524914502708, ,1.75, ,0.7257274656345468, ,0.5619477153527479, ,0.08369216954756026
89, ,PASS, ,0.06659703300000003, ,0.009904704106339089, ,0.03216294346792923, ,0.0006716484534787416, ,1.75, ,0.7255176819780427, ,0.5581518744515418, ,0.08095753147894941
90, ,PASS, ,0.06661572200000002, ,0.009907029122772634, ,0.03218141673043407, ,0.0006714635193525414, ,1.75, ,0.7249492422706629, ,0.5553968286361503, ,0.08330442235872737
91, ,PASS, ,0.06570249370000003, ,0.00976506455223859, ,0.032354261981020795, ,0.0006532930044569807, ,1.75, ,0.7272974116768168, ,0.5589477765759883, ,0.0834676843329728
92, ,PASS, ,0.06619425000000004, ,0.009891297801386287, ,0.03234095621260791, ,0.0006664364409024165, ,1.75, ,0.7266343173298498, ,0.5609477357604947, ,0.08144731740168568
93, ,PASS, ,0.06602482800000004, ,0.009803394622711872, ,0.0320366855640089, ,0.0006592171721505509, ,1.75, ,0.7223676712257491, ,0.557253933593192, ,0.08228403501969347
94, ,PASS, ,0.06594082300000002, ,0.009846725839807044, ,0.031846228287790046, ,0.0006610820645016387, ,1.75, ,0.7249883830338135, ,0.5549274504601946, ,0.07854941735882941
95, ,PASS, ,0.065963002, ,0.009804783720996692, ,0.03208213139682864, ,0.0006585064497720619, ,1.75, ,0.7248252052746903, ,0.5553968286361503, ,0.0827125977020877
96, ,PASS, ,0.06620855000000002, ,0.00983573410134563, ,0.031952767306503954, ,0.0006628446184106015, ,1.75, ,0.7222443065208832, ,0.554968265953756, ,0.08495744984796229
97, ,PASS, ,0.06621853400000002, ,0.00990790668717771, ,0.0320184738092692, ,0.000668107911588797, ,1.75, ,0.7241420482492767, ,0.5554580518764923, ,0.08314116038448195
98, ,PASS, ,0.06595814100000001, ,0.009877000572990301, ,0.032096091442501175, ,0.000663351887334997, ,1.75, ,0.7265164611939383, ,0.5574988265545601, ,0.08767168016979246
99, ,PASS, ,0.06621080700000004, ,0.009853573608543742, ,0.03215963795820494, ,0.0006641588827216865, ,1.75, ,0.72435305272708, ,0.5557845758249832, ,0.08628395338870636
100, ,PASS, ,0.06611946800000003, ,0.009805950993676088, ,0.0318782028601049, ,0.000660257891186011, ,1.75, ,0.7235057559936655, ,0.5559682455460092, ,0.08228403501969347
101, ,PASS, ,0.06588659800000002, ,0.0098135630914334, ,0.03211343918205751, ,0.000658358503365712, ,1.75, ,0.7266166142694547, ,0.5579682047305157, ,0.08587579845309279
102, ,PASS, ,0.06592660400000003, ,0.009859820993614836, ,0.032167566227342306, ,0.0006618485283511317, ,1.75, ,0.7254385699724448, ,0.5584988061468134, ,0.08338605334585009
103, ,PASS, ,0.06574273000000001, ,0.00983390378749727, ,0.0320811709625926, ,0.0006589102920478874, ,1.75, ,0.7252513882645291, ,0.5610089590008367, ,0.08601865268055754
104, ,PASS, ,0.06631610700000003, ,0.009974617492850871, ,0.03235509860104896, ,0.000672113162607045, ,1.8333333333333333, ,0.726148986687065, ,0.5619681230995286, ,0.08579416746597009
105, ,PASS, ,0.06612059600000002, ,0.009885011103801003, ,0.03213015150029592, ,0.0006654087072377186, ,1.75, ,0.7259163082057891, ,0.5574784188077795, ,0.0844880716720067
106, ,PASS, ,0.06622968300000004, ,0.009842135363343165, ,0.03206873894977654, ,0.0006638248149964043, ,1.75, ,0.7236680474167845, ,0.5549886737005367, ,0.08077386175792331
107, ,PASS, ,0.06584929520000002, ,0.009836294730300604, ,0.031971672842554234, ,0.0006598246911404832, ,1.75, ,0.7261363609639491, ,0.5562947694945001, ,0.08695740903246872
108, ,PASS, ,0.06586209500000001, ,0.009844230447462039, ,0.03227033025823963, ,0.0006600696865708277, ,1.75, ,0.726329083469346, ,0.5570294483786045, ,0.0876308646762311
109, ,PASS, ,0.061008646979999984, ,0.008800989787453048, ,0.03249515570237342, ,0.0005461885218834071, ,1.9166666666666667, ,0.7297112457854006, ,0.5628456562110977, ,0.07640660394685823
