Channel, ,Pass/Fail, ,Amplitude, ,Sorting Function Response, ,Mean, ,Variance, ,NPeaksRatio, ,IntegralRatio, ,ToT50, ,ToT99
0, ,PASS, ,0.053449819999999995, ,0.024845264657623357, ,-0.0024449894902144856, ,0.0002754220951578334, ,0.9166666666666666, ,0.12819559277586348, ,0.677843309320218, ,0.19248586763535439
1, ,PASS, ,0.07037456, ,0.058037568989219045, ,-0.0001401201042835862, ,0.0008495633574932396, ,1.0, ,0.393464444099991, ,0.49611232423828083, ,0.09661027325972939
2, ,PASS, ,0.07043507999999998, ,0.05820001794105336, ,0.00011534822901573398, ,0.0008529013818859479, ,1.0, ,0.39767808520169207, ,0.4961327319850615, ,0.10316115997632701
3, ,PASS, ,0.07079292, ,0.05767713243471986, ,0.00013539169853676405, ,0.0008498878546350944, ,1.0, ,0.3949024204745265, ,0.49656129466745574, ,0.1006714148690843
4, ,PASS, ,0.07048273999999999, ,0.057742122339247345, ,-3.520934368686367e-05, ,0.00084639519173393, ,1.0, ,0.39308956881086743, ,0.4967857798820432, ,0.09526336197220465
5, ,PASS, ,0.06995084000000001, ,0.0578187640674238, ,0.00020000558764106808, ,0.0008412931620323095, ,1.0, ,0.39850359575130084, ,0.4965204791738944, ,0.09867145568457787
6, ,PASS, ,0.06982435000000001, ,0.05769104035426065, ,0.0001321304220322033, ,0.0008379175181396284, ,1.0, ,0.39709378077477014, ,0.4968265953756046, ,0.10526315789473684
7, ,PASS, ,0.06995040000000004, ,0.05735635746839678, ,0.00010664341911389569, ,0.0008348326021223231, ,1.0, ,0.3955649000133806, ,0.4964388481867717, ,0.10712026285177853
8, ,PASS, ,0.06967544000000002, ,0.057442015459767376, ,-0.00013305501908124294, ,0.0008323217244148518, ,1.0, ,0.3933176371197102, ,0.4960306932511581, ,0.10777331074876023
9, ,PASS, ,0.06907036000000003, ,0.057273083269703845, ,8.997834554396898e-05, ,0.0008229031304991928, ,1.0, ,0.39762651902358365, ,0.4963368094528683, ,0.11030387134956429
10, ,PASS, ,0.06886853000000003, ,0.05689980930337719, ,0.0002194954523377084, ,0.00081497986706114, ,1.0, ,0.399105960906945, ,0.4958878390236934, ,0.09667149650007142
11, ,PASS, ,0.06881824000000006, ,0.05684207979010457, ,-7.70003308095746e-05, ,0.0008135398610771438, ,1.0, ,0.3947993958095912, ,0.49576539254300933, ,0.09779392257300872
12, ,PASS, ,0.06858484000000005, ,0.056559936577962336, ,0.00011093286790065644, ,0.0008070012141486476, ,1.0, ,0.39700585951329764, ,0.4961327319850615, ,0.10165098671455684
13, ,PASS, ,0.06858135000000003, ,0.05656332436683118, ,3.84303975429081e-05, ,0.0008068255283914679, ,1.0, ,0.3962436265920074, ,0.4956633538091059, ,0.1096508234525826
14, ,PASS, ,0.06832413000000004, ,0.056267631325135674, ,-7.588690353257993e-05, ,0.0007997151966070644, ,1.0, ,0.3939623263953133, ,0.4959898777575968, ,0.09583477888206363
15, ,PASS, ,0.06825035000000004, ,0.056099781793404795, ,1.9897720658763414e-05, ,0.0007960094265604715, ,1.0, ,0.39468987784911064, ,0.49627558621252627, ,0.10214077263729311
16, ,PASS, ,0.06783726000000004, ,0.05573460762132957, ,-2.4067812493621345e-05, ,0.0007866573989778353, ,1.0, ,0.39458606494309867, ,0.49580620803657066, ,0.09861023244423583
17, ,PASS, ,0.06882353000000002, ,0.056806921116131816, ,0.00011215969367972185, ,0.0008131441539479446, ,1.0, ,0.3972442440100373, ,0.49543886859451847, ,0.10236525785188057
18, ,PASS, ,0.06799654000000005, ,0.05599624183588527, ,-0.00010527092263423067, ,0.0007919266655751447, ,1.0, ,0.3936940603122759, ,0.4957041693026673, ,0.09703883594212363
19, ,PASS, ,0.06716243000000002, ,0.055515444501596456, ,0.00012258076855574545, ,0.0007754132896602926, ,1.0, ,0.39741071320374877, ,0.49631640170608765, ,0.10520193465439481
20, ,PASS, ,0.06692638000000004, ,0.05524632917205909, ,2.0623917879239765e-06, ,0.0007692046207565911, ,1.0, ,0.3957457242745453, ,0.4960511009979388, ,0.10107956980469786
21, ,PASS, ,0.06684466000000004, ,0.05514368218551211, ,-6.46187579845297e-05, ,0.000766769178874722, ,1.0, ,0.3950867631769055, ,0.49539805310095714, ,0.10477337197200057
22, ,PASS, ,0.06697634000000004, ,0.054867868381984604, ,0.0001907781316707845, ,0.0007641623669965281, ,1.0, ,0.39671942107793684, ,0.49619395522540355, ,0.09783473806657007
23, ,PASS, ,0.06670796000000001, ,0.054945975320155854, ,6.964550070406897e-05, ,0.0007626068123033827, ,1.0, ,0.39640783785226646, ,0.4958878390236934, ,0.11003857064141548
24, ,PASS, ,0.06670618000000003, ,0.054994267342890445, ,3.6744604395830055e-05, ,0.0007629375442109377, ,1.0, ,0.39653305518121185, ,0.49509193689924696, ,0.09312054856023347
25, ,PASS, ,0.06767562000000005, ,0.05546372370499993, ,6.078469623070338e-06, ,0.000781015589923206, ,1.0, ,0.3944355365660838, ,0.4956837615558866, ,0.0923450541825677
26, ,PASS, ,0.06676677000000003, ,0.055190563629698965, ,0.0001227331562621192, ,0.0007663752004895139, ,1.0, ,0.3976003123302094, ,0.4959694700108161, ,0.10038570641415481
27, ,PASS, ,0.06645726000000002, ,0.054622579797020135, ,-7.463369543478637e-05, ,0.0007552171091221181, ,1.0, ,0.39384617377055015, ,0.4956837615558866, ,0.09297769433276871
28, ,PASS, ,0.06614824000000001, ,0.05437886771813637, ,-5.201325279075867e-05, ,0.0007481323275137338, ,1.0, ,0.39411247462832966, ,0.49586743127691274, ,0.09599804085630906
29, ,PASS, ,0.06622246000000002, ,0.05449587490534412, ,3.2916303340749385e-05, ,0.0007508022163344014, ,1.0, ,0.3958126812333036, ,0.4956633538091059, ,0.0971612824228077
30, ,PASS, ,0.06639431000000003, ,0.05466807465285773, ,1.1766857819229384e-05, ,0.0007551995692500868, ,1.0, ,0.39545706541191455, ,0.49582661578335135, ,0.09567151690781821
31, ,PASS, ,0.06664602000000001, ,0.05462887111600286, ,0.0002564959696740901, ,0.0007573995312980397, ,1.0, ,0.3979458976882117, ,0.4959490622640354, ,0.10152854023387278
32, ,PASS, ,0.06634642000000002, ,0.05488150546950823, ,-0.0001586997244954176, ,0.0007571771127067714, ,1.0, ,0.3935703527313405, ,0.4955000918348605, ,0.12191587926777005
33, ,PASS, ,0.06617659000000001, ,0.05467226163386163, ,-3.3484135017643017e-06, ,0.0007525495877848835, ,1.0, ,0.3960962037497298, ,0.495214383379931, ,0.10230403461153854
34, ,PASS, ,0.06603285000000003, ,0.05448078989234123, ,-0.00011940563886451192, ,0.0007483193943446447, ,1.0, ,0.3945886228199217, ,0.4947041897104141, ,0.10552845860288565
35, ,PASS, ,0.06713974000000003, ,0.055647988538447976, ,-4.8347182098322684e-05, ,0.000776836279000124, ,1.0, ,0.39477219224962457, ,0.4948470439378788, ,0.11781392216485378
36, ,PASS, ,0.06735860000000005, ,0.0552973049207151, ,-7.999473337278671e-05, ,0.0007742911234820729, ,1.0, ,0.39234684794777946, ,0.49503071365890494, ,0.11165078263708904
37, ,PASS, ,0.06628432000000001, ,0.05474294009997706, ,-9.103341237933853e-05, ,0.0007549778891914249, ,1.0, ,0.3948555935149918, ,0.4950511214056856, ,0.09875308667170057
38, ,PASS, ,0.06607634000000003, ,0.05469733161147503, ,-2.0978967980244176e-05, ,0.0007516413085458532, ,1.0, ,0.39682855658529426, ,0.49427562702801986, ,0.10677333115650701
39, ,PASS, ,0.06601082000000001, ,0.05444512886771152, ,3.668680884063697e-05, ,0.0007476610765696062, ,1.0, ,0.39622749859233763, ,0.4955204995816412, ,0.09958980428970837
40, ,PASS, ,0.06603324000000002, ,0.054555885030997196, ,-2.5706875165811705e-05, ,0.0007495167351106208, ,1.0, ,0.396295965037795, ,0.49490826717822084, ,0.10109997755147854
41, ,PASS, ,0.06576702, ,0.054278142074761726, ,-4.879174343380684e-05, ,0.0007426835699897752, ,1.0, ,0.3954569820854989, ,0.4953164221138344, ,0.10056937613518091
42, ,PASS, ,0.06532969999999999, ,0.05415317194687086, ,-0.00012078621313850682, ,0.0007359731620215933, ,1.0, ,0.3951956743185958, ,0.49539805310095714, ,0.10526315789473684
43, ,PASS, ,0.06567662999999999, ,0.054372310986304614, ,4.2224868472072924e-05, ,0.0007431401055177406, ,1.0, ,0.3973487420380562, ,0.4955409073284219, ,0.10063059937552295
44, ,PASS, ,0.06556347000000001, ,0.054128834124370806, ,-0.0001771426858635534, ,0.0007383626407918768, ,1.0, ,0.3938082025042214, ,0.49503071365890494, ,0.09981428950429583
45, ,PASS, ,0.06554244000000001, ,0.0539554146626301, ,-0.00013727638925736184, ,0.0007357614093309801, ,1.0, ,0.3932863741100997, ,0.4956021305687639, ,0.1002224444399094
46, ,PASS, ,0.06551948000000002, ,0.05426064239193824, ,-8.653733597273504e-05, ,0.0007396196392860262, ,1.0, ,0.39541500936987733, ,0.49547968408807985, ,0.1015897634742148
47, ,PASS, ,0.06558584999999999, ,0.05409195683050354, ,-7.001674618885283e-05, ,0.000738301023700103, ,1.0, ,0.39553638660672163, ,0.4946837819636334, ,0.11181404461133446
48, ,PASS, ,0.06527427999999999, ,0.053845416965651635, ,-6.565664108895667e-05, ,0.0007314274902233219, ,1.0, ,0.39579614819291603, ,0.49464296647007205, ,0.10944674598477581
49, ,PASS, ,0.06531408999999999, ,0.053887258821685324, ,-0.0003064144568478193, ,0.0007325744734860019, ,1.0, ,0.3916115269492477, ,0.49543886859451847, ,0.10607946776596396
50, ,PASS, ,0.06538480000000002, ,0.05396769058106707, ,-0.00020435022489336915, ,0.0007341835019718038, ,1.0, ,0.39327378120743134, ,0.49511234464602766, ,0.10499785718658802
51, ,PASS, ,0.06571269000000002, ,0.0540673794151102, ,-0.00024306812697700021, ,0.0007396370193474956, ,1.0, ,0.3923069417680105, ,0.49496949041856286, ,0.10540601212220159
52, ,PASS, ,0.06615701000000002, ,0.05460617758883037, ,-0.00022473240627742197, ,0.0007516601269203431, ,1.0, ,0.3930353780564702, ,0.4946837819636334, ,0.10373257688618599
53, ,PASS, ,0.06618681000000001, ,0.054649065238434956, ,5.680574151548045e-05, ,0.0007527723642324457, ,1.0, ,0.3971538557453484, ,0.49507152915246627, ,0.11118140446113345
54, ,PASS, ,0.06600301, ,0.054742089451593326, ,-8.008272790351144e-05, ,0.0007518635808341296, ,1.0, ,0.3967604807455223, ,0.493949103079529, ,0.10565090508356972
55, ,PASS, ,0.06698798, ,0.05546081167113797, ,3.0933912777292264e-05, ,0.0007728770464515455, ,1.0, ,0.39745036611996215, ,0.4943980735087039, ,0.1080794269504704
56, ,PASS, ,0.08326504000000001, ,0.06745314288468321, ,-0.00026159213281361633, ,0.0011672497140675345, ,1.0, ,0.38572208604314506, ,0.4948062284443175, ,0.12554845819473073
57, ,PASS, ,0.18162624999999993, ,0.13724511378917859, ,-0.0007271434156445782, ,0.005166104758244433, ,1.0, ,0.3671245220028207, ,0.493949103079529, ,0.14179302463215038
58, ,PASS, ,0.06460111, ,0.05319970537848303, ,-1.8154783983999877e-05, ,0.000715624529373175, ,1.0, ,0.39768525890324835, ,0.4943980735087039, ,0.09542662394645007
59, ,PASS, ,0.06149844999999998, ,0.05070001581115716, ,-0.00025471868900634685, ,0.0006494278877420569, ,1.0, ,0.3948764312003708, ,0.4941123650537744, ,0.09405930491214465
60, ,PASS, ,0.06110491999999999, ,0.050773607189740555, ,-6.7658086569668785e-06, ,0.0006459430289433149, ,1.0, ,0.40022548020750753, ,0.4943980735087039, ,0.10112038529825922
61, ,PASS, ,0.06138106999999998, ,0.05053391415009986, ,-3.9315471520989936e-05, ,0.0006460136608667927, ,1.0, ,0.3975444581640745, ,0.49501030591212425, ,0.08573294422562805
62, ,PASS, ,0.061607569999999987, ,0.050332809149518244, ,-4.885979245321566e-05, ,0.0006458819351096207, ,1.0, ,0.3964348123366033, ,0.49413277280055506, ,0.10279382053427481
63, ,PASS, ,0.061172959999999985, ,0.050287705749301505, ,-2.615580110610039e-05, ,0.0006407054158841984, ,1.0, ,0.398282770113922, ,0.4939899185730903, ,0.09254913165037448
64, ,PASS, ,0.06122019999999998, ,0.05044503013731709, ,3.569146486806336e-05, ,0.0006431781533811186, ,1.0, ,0.3990336360694223, ,0.49472459745719477, ,0.09989592049141854
65, ,PASS, ,0.060957359999999974, ,0.05064038715208919, ,3.922127874941264e-05, ,0.0006426694134163994, ,1.0, ,0.401111609026278, ,0.49419399604089714, ,0.09171241403236668
66, ,PASS, ,0.06092638999999998, ,0.05051545943230108, ,-7.89101916287472e-06, ,0.0006409264324787836, ,1.0, ,0.4000007748106185, ,0.49413277280055506, ,0.10279382053427481
67, ,PASS, ,0.06092950999999998, ,0.050291776949418755, ,0.00020931919838370553, ,0.0006381457500423711, ,1.0, ,0.4024519265134391, ,0.49427562702801986, ,0.08893696047019449
68, ,PASS, ,0.06072787999999997, ,0.050358131940881005, ,6.249561213036399e-05, ,0.0006366824892486781, ,1.0, ,0.4009482961619316, ,0.4944797044958266, ,0.0976306605987633
69, ,PASS, ,0.060932659999999986, ,0.05009494296003532, ,-0.00016727444256239697, ,0.0006355867764858746, ,1.0, ,0.3959370719612188, ,0.4939286953327483, ,0.08810024285218669
70, ,PASS, ,0.06091427999999999, ,0.05027513281960486, ,-6.666689863472223e-05, ,0.0006375114645251877, ,1.0, ,0.39793811323944855, ,0.4942348115344585, ,0.09481439154302973
71, ,PASS, ,0.06071771999999998, ,0.05046223860148223, ,-0.00012543245403155086, ,0.0006375915754780404, ,1.0, ,0.3990443991406207, ,0.49327564743576663, ,0.0927123936246199
72, ,PASS, ,0.06130820999999999, ,0.05078586350703018, ,-1.7344970510812964e-06, ,0.0006476234138273911, ,1.0, ,0.399760019118603, ,0.49380624885206426, ,0.09942654231546295
73, ,PASS, ,0.062477079999999977, ,0.05192646219768647, ,-0.00013478565988449227, ,0.0006752693443883183, ,1.0, ,0.3976835414010129, ,0.4943164425215812, ,0.09801840778759617
74, ,PASS, ,0.06125743999999998, ,0.05056516764879954, ,7.397640905287554e-05, ,0.0006445771830630464, ,1.0, ,0.40006381918581924, ,0.4942348115344585, ,0.09985510499785719
75, ,PASS, ,0.061138179999999986, ,0.050444448813635114, ,-1.0875394175629677e-05, ,0.0006419949237120015, ,1.0, ,0.39889106778304767, ,0.49388787983918697, ,0.08159017162915043
76, ,PASS, ,0.06097964999999998, ,0.050414210301938725, ,-4.3170078365748185e-05, ,0.0006398325613291966, ,1.0, ,0.39865397926405244, ,0.49415318054733576, ,0.10034489092059345
77, ,PASS, ,0.06122947999999998, ,0.050494751663527855, ,-6.401562417093595e-05, ,0.0006435910996178229, ,1.0, ,0.3982529992654832, ,0.49372461786494154, ,0.08991653231566703
78, ,PASS, ,0.06119065999999998, ,0.05048171405405974, ,-9.241122426072977e-05, ,0.0006430356191828244, ,1.0, ,0.39738762783050335, ,0.49427562702801986, ,0.09275320911818126
79, ,PASS, ,0.061359389999999986, ,0.05059462628391176, ,-0.0001442911385481934, ,0.0006460401735089715, ,1.0, ,0.3974338864242298, ,0.49288790024693374, ,0.08510030407542703
80, ,PASS, ,0.06162707999999999, ,0.05095768986128885, ,-0.00020916393991959368, ,0.0006537096885225287, ,1.0, ,0.39548786473224573, ,0.49462255872329136, ,0.10112038529825922
81, ,PASS, ,0.06271841999999998, ,0.05218514250468507, ,-1.0804010122242576e-05, ,0.0006811761898586613, ,1.0, ,0.39997360106666335, ,0.4939695108263097, ,0.09783473806657007
82, ,PASS, ,0.061958279999999984, ,0.05124026117474617, ,2.260484071753142e-06, ,0.0006607339787221798, ,1.0, ,0.399343816126879, ,0.49382665659884495, ,0.08916144568478195
83, ,PASS, ,0.062011629999999984, ,0.05134694523353312, ,-3.5662178322891885e-05, ,0.000662710281788852, ,1.0, ,0.39895723032188113, ,0.493949103079529, ,0.10048774514805821
84, ,PASS, ,0.061917259999999995, ,0.05136869660010181, ,2.9367357400868946e-05, ,0.0006619713762037317, ,1.0, ,0.40124822776446406, ,0.4930307544743985, ,0.0879982041182833
85, ,PASS, ,0.06236920999999999, ,0.05166717627214699, ,5.686144058284473e-05, ,0.0006706999536722366, ,1.0, ,0.4005835472211584, ,0.4940511418134324, ,0.09995714373176058
86, ,PASS, ,0.062418609999999985, ,0.051612747699012924, ,4.265863859921159e-05, ,0.0006706874359577685, ,1.0, ,0.39988846802943157, ,0.4939899185730903, ,0.10167139446133752
87, ,PASS, ,0.06241847999999998, ,0.051747900241732085, ,0.00019287064508887515, ,0.0006722282846959051, ,1.0, ,0.4032227378669041, ,0.4936633946245995, ,0.10236525785188057
88, ,PASS, ,0.06260787, ,0.0517589385821746, ,4.057738678802431e-05, ,0.0006746067902240853, ,1.0, ,0.39971604589516296, ,0.49413277280055506, ,0.09867145568457787
89, ,PASS, ,0.06265126999999998, ,0.05188826379065161, ,-0.00011281998000040833, ,0.0006767755552679409, ,1.0, ,0.397425773078408, ,0.4944797044958266, ,0.1035489071651599
90, ,PASS, ,0.06282351, ,0.05188570567145479, ,-0.00020297192363421168, ,0.0006785115933283866, ,1.0, ,0.3954269942201838, ,0.49425521928123917, ,0.09667149650007142
91, ,PASS, ,0.06290501, ,0.05185622705927283, ,-9.533417277198663e-06, ,0.0006790693166017722, ,1.0, ,0.3982295388431443, ,0.4942960347748005, ,0.09097773514826228
92, ,PASS, ,0.06248288999999999, ,0.05185926037175336, ,-0.00017697382890145122, ,0.0006744380758807382, ,1.0, ,0.3972502489331655, ,0.49372461786494154, ,0.10450807126385175
93, ,PASS, ,0.06315125999999999, ,0.05215755542735456, ,9.122060039591007e-05, ,0.000685609705059747, ,1.0, ,0.40054789306922167, ,0.49368380237138015, ,0.08754923368910839
94, ,PASS, ,0.06307045999999998, ,0.05220402694004592, ,0.0001148101412216075, ,0.0006851910115324278, ,1.0, ,0.40123349700187944, ,0.49388787983918697, ,0.10332442195057244
95, ,PASS, ,0.06283488999999998, ,0.05232426197191577, ,-0.00011752095304177454, ,0.0006842407289615456, ,1.0, ,0.39792676433784835, ,0.4948266361910981, ,0.09634497255158057
96, ,PASS, ,0.06250048999999998, ,0.05205312809269658, ,-1.2284887859431705e-05, ,0.0006771900088082379, ,1.0, ,0.40008535655402006, ,0.494010326319871, ,0.09981428950429583
