Channel, ,Pass/Fail, ,Amplitude, ,Sorting Function Response, ,Mean, ,Variance, ,NPeaksRatio, ,PosIntegralRatio, ,ToT50, ,ToT99
84, ,PASS, ,0.023130410000000004, ,0.0027790408123042273, ,0.03870567625477031, ,6.431314548946849e-05, ,1.6666666666666667, ,0.6460271801928896, ,0.47911267116997613, ,0.04320319993469521
85, ,PASS, ,0.029210569999999977, ,0.0032752100482186233, ,0.03879516526152528, ,9.57121330405835e-05, ,1.6666666666666667, ,0.6154881135521993, ,0.4835819677149446, ,0.01661190587947185
86, ,PASS, ,0.03208622, ,0.0037439206843110284, ,0.038717263600334687, ,0.00012014552457813237, ,1.6666666666666667, ,0.6349347118345632, ,0.4829289198179629, ,0.03371359768167997
87, ,PASS, ,0.030721269999999978, ,0.003844020964093844, ,0.03849851635803351, ,0.0001181591491969766, ,1.6666666666666667, ,0.6598234077797274, ,0.4730923858696761, ,0.0403461153854003
88, ,PASS, ,0.022020410000000008, ,0.0031859332278583643, ,0.03809642932266689, ,7.043184023209559e-05, ,1.75, ,0.7190507842267937, ,0.4515622130160609, ,0.08342686883941144
89, ,PASS, ,0.01836017000000001, ,0.0022185301160776, ,0.03829022257647803, ,4.079578188641121e-05, ,1.6666666666666667, ,0.6462336086892609, ,0.46280688149221444, ,0.032611579355523355
90, ,FAIL, ,0.0004969900000000027, ,3.597311974150082e-05, ,0.03855910664496643, ,1.986011897246664e-08, ,1.75, ,0.5707891943069987, ,0.4400930593253199, ,0.003959102875451521
91, ,PASS, ,0.04921866999999996, ,0.005254955930867394, ,0.03962186217260872, ,0.00025840715220178047, ,1.6666666666666667, ,0.6053921836695704, ,0.5035611518132282, ,0.033346258239627766
92, ,PASS, ,0.05488915300000006, ,0.0061541184654316135, ,0.03923277814044611, ,0.00033768243267814484, ,1.6666666666666667, ,0.6214806207918702, ,0.49327564743576663, ,0.0331217730250403
93, ,PASS, ,0.052176760000000016, ,0.006337436245461983, ,0.03859403008183506, ,0.00033051636158112495, ,1.6666666666666667, ,0.6484841119968129, ,0.4818064937450256, ,0.039162466072120976
94, ,PASS, ,0.03397892999999999, ,0.004683724691594484, ,0.0380534687681884, ,0.00015953647162434965, ,1.75, ,0.6984907090323182, ,0.4580314687455358, ,0.07175363768086365
95, ,PASS, ,0.019178050000000023, ,0.0024973357932595985, ,0.03820174748290851, ,4.811643732510558e-05, ,1.75, ,0.6794808227588905, ,0.4513989510418155, ,0.023917879226954552
96, ,PASS, ,0.039529490000000035, ,0.004467981053643411, ,0.03872895677312708, ,0.00017652157304399874, ,1.6666666666666667, ,0.6250652363413699, ,0.4825615803759107, ,0.03185649272463827
97, ,PASS, ,0.05019789999999995, ,0.005706892111842612, ,0.038933092202199954, ,0.00028632007548684747, ,1.6666666666666667, ,0.6260240830808314, ,0.49029611640578763, ,0.0351625477031081
98, ,PASS, ,0.054285769000000025, ,0.0063963767808423175, ,0.03858857659272259, ,0.0003469723766419397, ,1.6666666666666667, ,0.639096881566983, ,0.48592885859472257, ,0.03865227240260403
99, ,PASS, ,0.05044434999999993, ,0.006305157353406918, ,0.03841307657190669, ,0.00031808449769538095, ,1.6666666666666667, ,0.6584458175140672, ,0.47580661619150627, ,0.04250933654415216
100, ,PASS, ,0.03187657000000001, ,0.004356346085710225, ,0.03793660950082651, ,0.00013936197667600446, ,1.75, ,0.6941604492576098, ,0.4554396849043897, ,0.04377461684455419
101, ,PASS, ,0.019225980000000014, ,0.0030250860101074814, ,0.03774061666843534, ,5.857374550045038e-05, ,1.75, ,0.7577628917138658, ,0.4410114079304504, ,0.1301810167139446
102, ,PASS, ,0.039891110000000035, ,0.005407779751134786, ,0.038084962643619526, ,0.00021591150327538233, ,1.6666666666666667, ,0.6880598724732493, ,0.46574559702863205, ,0.0640395093977674
103, ,PASS, ,0.050063499999999955, ,0.006438530851445244, ,0.03830236482479949, ,0.0003221508054091942, ,1.6666666666666667, ,0.6672981333915693, ,0.47662292606273343, ,0.04785616620068978
104, ,PASS, ,0.05325379000000002, ,0.006898486014669465, ,0.03825056980184077, ,0.0003673179163834144, ,1.6666666666666667, ,0.669440025769925, ,0.47499030632027917, ,0.05050917328217792
105, ,PASS, ,0.04669710999999999, ,0.006439186369533981, ,0.0379692995598049, ,0.0003010789556742822, ,1.75, ,0.6959503386287218, ,0.4669292463419114, ,0.07730454480520806
106, ,PASS, ,0.027794719999999995, ,0.0042732740245693636, ,0.03771038727597396, ,0.00011939841397487882, ,1.75, ,0.746389780920217, ,0.44456235587028836, ,0.12618109834493174
107, ,PASS, ,0.019058760000000022, ,0.0029233312671053937, ,0.03818051097446991, ,5.5980623535385376e-05, ,1.75, ,0.7407259882629091, ,0.4481541193036877, ,0.10465092549131651
108, ,PASS, ,0.03737307999999999, ,0.005055316564594822, ,0.03809560212791576, ,0.00018917129123785232, ,1.6666666666666667, ,0.6887665817706452, ,0.46827615762943614, ,0.06844758270239383
109, ,PASS, ,0.046228129999999985, ,0.006003301952477677, ,0.03848300187159446, ,0.0002773032737691453, ,1.6666666666666667, ,0.6709135473301284, ,0.4780514683373809, ,0.05452949939797147
110, ,PASS, ,0.04845538999999996, ,0.006331850953769162, ,0.038420543056672314, ,0.0003066469088703533, ,1.6666666666666667, ,0.6717633536489889, ,0.4780922838309422, ,0.05863145650088774
111, ,PASS, ,0.04190615000000002, ,0.005801395014895363, ,0.03798826837819636, ,0.00024326054192771348, ,1.6666666666666667, ,0.6959357114079883, ,0.4676639252260158, ,0.07877390257341686
112, ,PASS, ,0.025101640000000005, ,0.0038087359219645765, ,0.03784376739331851, ,9.602854751594505e-05, ,1.75, ,0.7371001297694635, ,0.44788881859553886, ,0.11744658272280158
113, ,PASS, ,0.019380290000000012, ,0.0027788915145068875, ,0.03815255319442461, ,5.3983373962491685e-05, ,1.8333333333333333, ,0.7083660776099147, ,0.45825595396012325, ,0.11203852982592193
114, ,PASS, ,0.03500637999999998, ,0.004555561264737295, ,0.03842657335789065, ,0.0001594609160207478, ,1.75, ,0.671519447898822, ,0.47445970490398154, ,0.05665190506316198
115, ,PASS, ,0.04298086000000001, ,0.00542101354208892, ,0.03856629709210017, ,0.00023273856637324186, ,1.6666666666666667, ,0.6598077293615277, ,0.4814799697965348, ,0.05214179302463215
116, ,PASS, ,0.044815459999999974, ,0.005637756158809409, ,0.038522611314258895, ,0.00025248648826443036, ,1.6666666666666667, ,0.6596490500499983, ,0.4847452092814432, ,0.05367237403318299
117, ,PASS, ,0.04009740000000002, ,0.005192048714771687, ,0.0382049735495194, ,0.00020819898729626266, ,1.75, ,0.6700525789126419, ,0.4753372380155507, ,0.05691720577131079
118, ,PASS, ,0.02389459000000002, ,0.003290321628653269, ,0.038145667627191286, ,7.880551779414652e-05, ,1.75, ,0.6944755877030387, ,0.4586845166425175, ,0.07699842860349788
119, ,PASS, ,0.015166159999999995, ,0.002361164871276781, ,0.03829058608130446, ,3.592451106369241e-05, ,1.75, ,0.7359515126556573, ,0.4546845982735046, ,0.08626354564192568
120, ,PASS, ,0.027428409999999993, ,0.003961845959508283, ,0.03823208990143059, ,0.00010865086409717398, ,1.6666666666666667, ,0.709978115941827, ,0.4692149139813473, ,0.11105895798044937
121, ,PASS, ,0.033272120000000016, ,0.004676146667776095, ,0.0383379351309157, ,0.00015548707902546396, ,1.75, ,0.6966545614237541, ,0.4768065957837595, ,0.10073263810942634
122, ,PASS, ,0.03512864, ,0.004864573425475351, ,0.03820662690781821, ,0.00017075740575855805, ,1.75, ,0.6899680850894331, ,0.47586783943184835, ,0.08122283218709822
123, ,PASS, ,0.032338740000000005, ,0.004561329454591098, ,0.03823150444337871, ,0.00014748257008746562, ,1.75, ,0.6994575259441731, ,0.4697455153976449, ,0.07434542152200975
124, ,PASS, ,0.020661030000000028, ,0.0030723752899550144, ,0.038156389388175754, ,6.365800717330747e-05, ,1.8333333333333333, ,0.724585111243241, ,0.458909001857105, ,0.13920124079100427
