Channel, ,Pass/Fail, ,Amplitude, ,Sorting Function Response, ,Mean, ,Variance
31, ,PASS, ,0.09316236999999997, ,0.05950248706624138, ,0.006019581163649723, ,0.0011387714697907846
32, ,PASS, ,0.09097712, ,0.05930745794422181, ,0.005715343984612559, ,0.0011075548560817404
33, ,PASS, ,0.08881703000000005, ,0.05777093212096548, ,0.005723624078080039, ,0.0010538026424276716
34, ,PASS, ,0.08501096000000002, ,0.05703617806443986, ,0.005575649925511724, ,0.0009946343209494344
35, ,PASS, ,0.09209861999999999, ,0.05909169480952921, ,0.005945869159608989, ,0.0011178782870302272
36, ,PASS, ,0.08825872000000001, ,0.058409550975369026, ,0.005672152212403828, ,0.0010579240944598733
37, ,PASS, ,0.08422893000000004, ,0.05632361452619643, ,0.005464439675108671, ,0.0009733577139882241
38, ,PASS, ,0.07974712999999999, ,0.05518265934749481, ,0.005213984291749148, ,0.000902022075329222
39, ,PASS, ,0.08465161000000002, ,0.056626532504883816, ,0.005494236445378665, ,0.0009836482488565325
40, ,PASS, ,0.08010882999999999, ,0.055146142956372386, ,0.005242520070202649, ,0.0009056627971058864
41, ,PASS, ,0.09001148000000002, ,0.05946374199208295, ,0.005899988271667925, ,0.0010985470876998986
42, ,PASS, ,0.08358576000000005, ,0.05834566358462948, ,0.005484517113324217, ,0.00099929591797623
43, ,PASS, ,0.08622108, ,0.05846757684461826, ,0.0056372624660721215, ,0.0010340818210895922
44, ,PASS, ,0.07950122999999999, ,0.05709323557651738, ,0.005175672210771209, ,0.0009296215279019728
45, ,PASS, ,0.08894278000000003, ,0.059176503143134836, ,0.005793336460480399, ,0.0010798980231047214
46, ,PASS, ,0.08272257999999999, ,0.057999874690536864, ,0.0053217550025509664, ,0.00098317471929226
47, ,PASS, ,0.08157211000000002, ,0.056664654578462884, ,0.005447275086018651, ,0.0009476228206267381
48, ,PASS, ,0.07758780000000001, ,0.055515928312709774, ,0.0051077465882328945, ,0.000882339040688877
49, ,PASS, ,0.08197771000000001, ,0.05673035787443978, ,0.005432199899797962, ,0.0009534003004099299
50, ,PASS, ,0.07841498999999999, ,0.056011407629754525, ,0.005186754279708578, ,0.0008997523404348114
51, ,PASS, ,0.08556859000000003, ,0.058224143730399296, ,0.005522839003897879, ,0.0010215778492915861
52, ,PASS, ,0.08145335999999999, ,0.057592449968001204, ,0.005254095958245749, ,0.0009610294004780449
53, ,PASS, ,0.08434051000000004, ,0.05844446574332895, ,0.005538777604538682, ,0.0010106921075910748
54, ,PASS, ,0.07860951, ,0.056444084883481106, ,0.005091333231362626, ,0.000908770498686222
198, ,PASS, ,0.09237743999999999, ,0.06056573896243625, ,0.0034111603614211962, ,0.0012509083762901213
199, ,PASS, ,0.05397928000000002, ,0.034123368454639015, ,0.001889766975571926, ,0.0004259730699803098
200, ,PASS, ,0.05185415999999999, ,0.029599076508915276, ,0.0016669869757760041, ,0.0003580918693681794
201, ,PASS, ,0.0498721, ,0.028031082226641277, ,0.0015911911373237286, ,0.00032563218099557976
202, ,PASS, ,0.05638922, ,0.03051108931583305, ,0.0017372543360339577, ,0.00039990652664563184
203, ,PASS, ,0.0511266, ,0.028254597258700973, ,0.0016323128070855697, ,0.0003360039214126282
204, ,PASS, ,0.06255267000000002, ,0.03516401438200217, ,0.0019773967933307485, ,0.0005062955016961737
205, ,PASS, ,0.06605889000000001, ,0.03755976578803502, ,0.002166401068141467, ,0.0005657868577151477
206, ,PASS, ,0.06404378, ,0.0353203519763806, ,0.0021182972133221775, ,0.0005177847005511679
207, ,PASS, ,0.06639515, ,0.03732535992750613, ,0.00223352794330728, ,0.0005628168471232297
208, ,PASS, ,0.055657820000000004, ,0.031002155289019284, ,0.0017519692577702486, ,0.00039761178639945106
209, ,PASS, ,0.052774640000000005, ,0.03013643055696668, ,0.001663464500520397, ,0.0003661647298219949
210, ,PASS, ,0.04834147999999999, ,0.026400921227575112, ,0.0015048779057570255, ,0.00029626239812507283
211, ,PASS, ,0.05211713999999999, ,0.03022730739216387, ,0.0017302220377135155, ,0.00036138494480712655
212, ,PASS, ,0.05762436999999998, ,0.033109459424245515, ,0.001957845934980918, ,0.0004353270295734307
213, ,PASS, ,0.06417029, ,0.03771176299955153, ,0.0022891296995979677, ,0.0005449507408941416
214, ,PASS, ,0.06577428000000002, ,0.037854507364358296, ,0.0022394997410256938, ,0.0005614785348620671
215, ,PASS, ,0.07819886000000001, ,0.04694915837773112, ,0.002731059913471154, ,0.0008136181605000704
216, ,PASS, ,0.06474172, ,0.037712693372114185, ,0.0022248437976775987, ,0.0005489016148678554
217, ,PASS, ,0.07089368000000003, ,0.043066837142990845, ,0.0025218379153486674, ,0.0006776369301861541
218, ,PASS, ,0.07432837, ,0.04368050034041952, ,0.0025839076761698747, ,0.0007214524910015279
219, ,PASS, ,0.07273665000000001, ,0.04448369474520121, ,0.0026114271233240146, ,0.0007171978645287573
220, ,PASS, ,0.04281412, ,0.025073703134231393, ,0.0013657117924123986, ,0.0002471057431971811
221, ,PASS, ,0.05474324000000001, ,0.033225374112169914, ,0.0018763315287443102, ,0.0004129934627700177
222, ,PASS, ,0.047273209999999996, ,0.02735900991162724, ,0.0014369451841799146, ,0.00029727791217784284
223, ,PASS, ,0.054411890000000025, ,0.03285615534971747, ,0.0018952201297932686, ,0.0004032972012624801
224, ,PASS, ,0.07610095000000001, ,0.0460269079678263, ,0.0027484053962164036, ,0.0007693931592736522
225, ,PASS, ,0.06668747, ,0.04122900968922798, ,0.0023783600740801213, ,0.0006086882401179507
226, ,PASS, ,0.06840821000000001, ,0.04065578365537076, ,0.002347766471092427, ,0.0006170381437604991
227, ,PASS, ,0.08740324000000002, ,0.05617056679608875, ,0.003250777533907473, ,0.001058660372527354
228, ,PASS, ,0.07301978, ,0.044803068983652605, ,0.002660529624089305, ,0.000720538352234858
229, ,PASS, ,0.06962363, ,0.043864277520316734, ,0.002512590071223037, ,0.0006717707891285113
230, ,PASS, ,0.05580052, ,0.034082945977344965, ,0.0018930674037264533, ,0.0004268315769714366
231, ,PASS, ,0.08683312000000001, ,0.056040709056842976, ,0.00329300784975817, ,0.0010444475910898682
232, ,PASS, ,0.06957348999999999, ,0.04329119093480498, ,0.0024496698479622866, ,0.0006632398557605949
233, ,PASS, ,0.07711455000000003, ,0.04960509164388787, ,0.002871748827370871, ,0.0008389508848604411
234, ,PASS, ,0.08357759000000001, ,0.054554256329606955, ,0.003214954470929167, ,0.000996173347110436
