Channel, ,Pass/Fail, ,Amplitude, ,Sorting Function Response, ,Mean, ,Variance, ,NPeaksRatio, ,PosIntegralRatio, ,ToT50, ,ToT99
15, ,PASS, ,0.02832652000000002, ,0.004559052830067323, ,0.03850177949123488, ,0.00013114593536768372, ,1.75, ,0.8031054223965038, ,0.6069467970041428, ,0.0829166751698945
16, ,PASS, ,0.12888139999999998, ,0.020255451115833108, ,0.045793873495303214, ,0.0026319499861603346, ,1.75, ,0.7701198840164687, ,0.595396012326279, ,0.1629558580437134
17, ,PASS, ,0.08501480400000003, ,0.01398991444636743, ,0.04310171894900941, ,0.0012025605431678797, ,1.8333333333333333, ,0.8015775202339144, ,0.6011305891716495, ,0.17593518499622457
18, ,PASS, ,0.024802879999999996, ,0.003884798986276978, ,0.0382626682755454, ,9.846139692506441e-05, ,1.8333333333333333, ,0.8077922426529415, ,0.6171914858880431, ,0.11405889675720904
19, ,PASS, ,0.02323351999999999, ,0.0036164345321938038, ,0.037801377360870185, ,8.585761435000418e-05, ,1.8333333333333333, ,0.8023696200517804, ,0.6166812922185262, ,0.0870798555131528
20, ,PASS, ,0.02210936, ,0.0034906432239628664, ,0.03800653505703965, ,7.887720523447958e-05, ,1.8333333333333333, ,0.8086237645957561, ,0.6175996408236567, ,0.10769167976163752
21, ,PASS, ,0.02189552000000001, ,0.003466979909196606, ,0.03789360473990327, ,7.762316364458637e-05, ,1.8333333333333333, ,0.8128673600762236, ,0.6171506703944818, ,0.10379380012652803
22, ,PASS, ,0.022889360000000022, ,0.0035991287388545705, ,0.038213877045162346, ,8.41386375399671e-05, ,1.8333333333333333, ,0.806579793403201, ,0.6159262055876411, ,0.09907961062019142
23, ,PASS, ,0.02255023999999999, ,0.003529247786513615, ,0.03806113517969021, ,8.13678972828959e-05, ,1.8333333333333333, ,0.8018753933489643, ,0.6163343605232546, ,0.06787616579253485
24, ,PASS, ,0.021966319999999994, ,0.0034537708463100113, ,0.03806595912287504, ,7.751944851455227e-05, ,1.8333333333333333, ,0.8103188055877084, ,0.6172118936348238, ,0.10758964102773413
25, ,PASS, ,0.022006399999999992, ,0.0034238513036550238, ,0.038002196243341974, ,7.69906729745879e-05, ,1.8333333333333333, ,0.8001366867091019, ,0.6167016999653069, ,0.07048835738046162
26, ,PASS, ,0.0220088, ,0.0034900580078961775, ,0.03779458018611865, ,7.839337561522396e-05, ,1.8333333333333333, ,0.812910827180427, ,0.6167629232056488, ,0.12799738780841208
27, ,PASS, ,0.021685279999999987, ,0.0034405623229780994, ,0.037988611581192225, ,7.617860945758791e-05, ,1.8333333333333333, ,0.8122964806694141, ,0.6172527091283851, ,0.11114058896757209
28, ,PASS, ,0.021693439999999984, ,0.0034352094524611387, ,0.037798243138711454, ,7.619584934876939e-05, ,1.8333333333333333, ,0.8133267024811596, ,0.6199465317034346, ,0.11271198546968429
29, ,PASS, ,0.021901520000000008, ,0.0034174405639867053, ,0.03782092234240117, ,7.636403012623473e-05, ,1.8333333333333333, ,0.8005281033161171, ,0.6152935654374401, ,0.05326421909756944
30, ,PASS, ,0.021727519999999986, ,0.0034090814059019605, ,0.03796900006979449, ,7.554695574205813e-05, ,1.8333333333333333, ,0.803104302176894, ,0.6126201506091712, ,0.0803248913287484
31, ,PASS, ,0.021975199999999993, ,0.0034298794994004375, ,0.03777063214934389, ,7.709113344640385e-05, ,1.8333333333333333, ,0.7997437654387217, ,0.6167425154588682, ,0.06936593130752433
32, ,PASS, ,0.021612080000000006, ,0.0033722170459477858, ,0.03778075451643844, ,7.43271001938326e-05, ,1.8333333333333333, ,0.798128063047344, ,0.6144364400726515, ,0.04142772596477623
33, ,PASS, ,0.021776959999999998, ,0.003438312645799407, ,0.037860245827023936, ,7.653941951678812e-05, ,1.8333333333333333, ,0.805863780042302, ,0.6187628823901553, ,0.09152874431134059
34, ,PASS, ,0.021795440000000003, ,0.003542670137259977, ,0.037819065531111605, ,7.858058075074977e-05, ,1.8333333333333333, ,0.8154206080861565, ,0.6096406195791922, ,0.13526254566233342
35, ,PASS, ,0.021754879999999997, ,0.00354856874255515, ,0.037909354167874124, ,7.868505026353251e-05, ,1.8333333333333333, ,0.8147795433038096, ,0.6151303034631946, ,0.1430787126793331
36, ,PASS, ,0.021325760000000006, ,0.00338514124852402, ,0.038048704819901635, ,7.367178932383407e-05, ,1.8333333333333333, ,0.8133212950322951, ,0.6159670210812024, ,0.12403828493296055
37, ,PASS, ,0.02159624, ,0.003440276623953787, ,0.03799759500683659, ,7.579064258833674e-05, ,1.8333333333333333, ,0.8083245602358516, ,0.6111712005877431, ,0.10485500295912328
38, ,PASS, ,0.021804079999999997, ,0.003432288745036614, ,0.0378314796485786, ,7.64118994022331e-05, ,1.8333333333333333, ,0.7999206624039753, ,0.6144568478194322, ,0.05816207832493214
39, ,PASS, ,0.021452, ,0.0033999415815669388, ,0.037720333474214815, ,7.448846945884312e-05, ,1.8333333333333333, ,0.8111030508977057, ,0.6162731372829126, ,0.12691577722903613
40, ,PASS, ,0.02163056, ,0.0033837013688958516, ,0.03775677858472276, ,7.471244857693174e-05, ,1.8333333333333333, ,0.8038316378596978, ,0.6160894675618865, ,0.08424317871063856
41, ,PASS, ,0.021606079999999996, ,0.003377534376885402, ,0.03775639111140589, ,7.43243753151934e-05, ,1.8333333333333333, ,0.7930598573809622, ,0.6119262872186282, ,0.06483541152221384
42, ,PASS, ,0.02156504, ,0.0033638905235015876, ,0.03762515585518663, ,7.399415808962387e-05, ,1.8333333333333333, ,0.8056077223830951, ,0.6155996816391502, ,0.09034509499806126
43, ,PASS, ,0.021427759999999997, ,0.003352207625935673, ,0.03768769088181874, ,7.331601718011546e-05, ,1.8333333333333333, ,0.8013166040891085, ,0.6143956245790902, ,0.059325319891430785
44, ,PASS, ,0.021264560000000002, ,0.0033824637623945135, ,0.03755396337931879, ,7.339811096358723e-05, ,1.8333333333333333, ,0.8129090674024761, ,0.6151507112099753, ,0.13048713291565478
45, ,PASS, ,0.021766399999999995, ,0.0034789696159536897, ,0.037848223948082696, ,7.712100693712932e-05, ,1.8333333333333333, ,0.8063033340799354, ,0.6125181118752678, ,0.09879390216526193
46, ,PASS, ,0.021330800000000007, ,0.0033761047470228338, ,0.03760514803085652, ,7.343167922497838e-05, ,1.8333333333333333, ,0.8104300513424723, ,0.6147425562743617, ,0.12405869267974123
47, ,PASS, ,0.02143088000000002, ,0.0034098735445595354, ,0.03734877864002775, ,7.455344334363312e-05, ,1.8333333333333333, ,0.8132465964247295, ,0.6148854105018265, ,0.12632395257239648
48, ,PASS, ,0.02117096, ,0.003341943066136777, ,0.03751088206648844, ,7.220456563943175e-05, ,1.8333333333333333, ,0.7967912925858053, ,0.6090692026693333, ,0.060508969204710106
49, ,PASS, ,0.02155183999999999, ,0.003358624183272756, ,0.03739038563478296, ,7.38577614879973e-05, ,1.8333333333333333, ,0.8036932430907825, ,0.6143139935919675, ,0.09850819371033244
50, ,PASS, ,0.021105920000000004, ,0.003326536603572539, ,0.03764878549519397, ,7.166429138781782e-05, ,1.8333333333333333, ,0.803348811522007, ,0.613395644986837, ,0.09173282177914736
51, ,PASS, ,0.021099920000000015, ,0.0032871712669121566, ,0.037534172915042546, ,7.067348915580059e-05, ,1.8333333333333333, ,0.7948016288070752, ,0.6119466949654089, ,0.05822330156527418
52, ,PASS, ,0.02103248000000001, ,0.0032893832392850955, ,0.037452849714495626, ,7.054972241444594e-05, ,1.8333333333333333, ,0.8073232565163015, ,0.6158445746005183, ,0.09601844860308974
53, ,PASS, ,0.021763999999999995, ,0.003454366048853371, ,0.03752184466970062, ,7.666788032037594e-05, ,1.8333333333333333, ,0.8033343955313876, ,0.613211975265811, ,0.05875390298157181
54, ,PASS, ,0.02111936, ,0.0033215405853811563, ,0.03738698715169078, ,7.160501588396288e-05, ,1.8333333333333333, ,0.8109382894417931, ,0.615171118956756, ,0.1105691720577131
55, ,PASS, ,0.02103511999999999, ,0.0033212712096350886, ,0.03732365296177629, ,7.115632029908045e-05, ,1.8333333333333333, ,0.8044713147604385, ,0.6136201302014245, ,0.09001857104957042
56, ,PASS, ,0.021001519999999992, ,0.003237478019923799, ,0.037504328775331115, ,6.931384164593641e-05, ,1.8333333333333333, ,0.7933607404927469, ,0.6130691210383462, ,0.05908042693006265
57, ,PASS, ,0.020951600000000004, ,0.0032892197565629814, ,0.03734363707352911, ,7.034628791432901e-05, ,1.8333333333333333, ,0.8054325344590111, ,0.6158241668537376, ,0.0866104773371972
58, ,PASS, ,0.020839760000000013, ,0.0033019412737572244, ,0.03749750800412237, ,7.033944208947587e-05, ,1.8333333333333333, ,0.8070383903342488, ,0.6163343605232546, ,0.074773984204404
59, ,PASS, ,0.02090744, ,0.003270646360879839, ,0.03767228409889594, ,6.981427921806752e-05, ,1.8333333333333333, ,0.8036981097771668, ,0.6162119140425706, ,0.09607967184343176
60, ,PASS, ,0.02104472, ,0.003269132541528231, ,0.037446656059264095, ,7.024153452585033e-05, ,1.8333333333333333, ,0.797365638603043, ,0.6155996816391502, ,0.058427379033080956
61, ,PASS, ,0.021262399999999997, ,0.0033389538396170087, ,0.037480647503316256, ,7.234479737215871e-05, ,1.8333333333333333, ,0.8069964799923744, ,0.6148854105018265, ,0.11128344319503683
62, ,PASS, ,0.021395119999999997, ,0.003353429634910312, ,0.03768151077202506, ,7.321595387478779e-05, ,1.8333333333333333, ,0.803675898684904, ,0.6148650027550459, ,0.08569212873206669
63, ,PASS, ,0.02130536, ,0.0033744480733357662, ,0.03759276706495786, ,7.342159931832803e-05, ,1.8333333333333333, ,0.808101156320623, ,0.6142731780984062, ,0.09828370849574498
64, ,PASS, ,0.021198319999999996, ,0.003372773343004325, ,0.03746382788677782, ,7.299529155606304e-05, ,1.8333333333333333, ,0.8026751758013622, ,0.6134772759739597, ,0.05546825574988266
65, ,PASS, ,0.021238400000000008, ,0.00340342468549803, ,0.03753382443521561, ,7.369400998850876e-05, ,1.8333333333333333, ,0.8119094085735722, ,0.6125589273688292, ,0.08573294422562805
66, ,PASS, ,0.02135696, ,0.0033780805810955175, ,0.03775984605457031, ,7.35815557314304e-05, ,1.8333333333333333, ,0.8093428272302986, ,0.6137425766821085, ,0.11295687843105243
67, ,PASS, ,0.02114984, ,0.003382465944605945, ,0.037440108529417766, ,7.285903595826968e-05, ,1.8333333333333333, ,0.8123564651038273, ,0.6140895083773801, ,0.13467072100569377
68, ,PASS, ,0.021360319999999985, ,0.0033084453369979236, ,0.03759400620905696, ,7.204694646657456e-05, ,1.8333333333333333, ,0.7947295422084598, ,0.6107834533989103, ,0.05367237403318299
69, ,PASS, ,0.021085040000000006, ,0.0033063409075269425, ,0.03771990217811881, ,7.118628660608994e-05, ,1.8333333333333333, ,0.8057839228857188, ,0.6158853900940797, ,0.09581437113528295
70, ,PASS, ,0.02110592000000001, ,0.003297298534772186, ,0.037597262618926146, ,7.097567678666818e-05, ,1.8333333333333333, ,0.8050924819991869, ,0.6147833717679231, ,0.1231607518213914
71, ,PASS, ,0.021017120000000014, ,0.0032919146987241393, ,0.037622778171874045, ,7.060751438347552e-05, ,1.8333333333333333, ,0.8004228632371126, ,0.6130691210383462, ,0.09869186343135854
72, ,PASS, ,0.02112992000000001, ,0.003293051821093017, ,0.03751911564968062, ,7.111676393066474e-05, ,1.8333333333333333, ,0.800053751596125, ,0.6164159915103773, ,0.088651252015265
73, ,PASS, ,0.021094880000000014, ,0.0033166408819015206, ,0.037756452228934104, ,7.151606915037478e-05, ,1.8333333333333333, ,0.7984045862335892, ,0.6153343809310015, ,0.057958000857125366
74, ,PASS, ,0.021295999999999992, ,0.0032769233548493415, ,0.03767731873798494, ,7.12205325309259e-05, ,1.8333333333333333, ,0.7965559877828897, ,0.6146405175404583, ,0.06322319952654028
75, ,PASS, ,0.02144072000000001, ,0.0033273428149920604, ,0.03756877308544723, ,7.295300728055579e-05, ,1.8333333333333333, ,0.8013605895320973, ,0.6167221077120875, ,0.057958000857125366
76, ,PASS, ,0.021136159999999998, ,0.00331484686330493, ,0.03757128040039999, ,7.159021749873481e-05, ,1.8333333333333333, ,0.802966413719597, ,0.615109895716414, ,0.08403910124283177
77, ,PASS, ,0.021336320000000002, ,0.0033553728542673037, ,0.037717496345584786, ,7.302625047840655e-05, ,1.8333333333333333, ,0.8021566514288003, ,0.614660925287239, ,0.08373298504112162
78, ,PASS, ,0.02139944, ,0.0033777114011710294, ,0.03747720843105243, ,7.393044896060447e-05, ,1.8333333333333333, ,0.811964419129135, ,0.6195179690210404, ,0.12377298422481174
79, ,PASS, ,0.021545600000000005, ,0.0033505246382117488, ,0.037698019023489314, ,7.382188362522033e-05, ,1.8333333333333333, ,0.802820343507384, ,0.618660843656252, ,0.08173302585661517
112, ,PASS, ,0.02183744, ,0.0034200048206866865, ,0.037680091435072754, ,7.626022362021916e-05, ,1.8333333333333333, ,0.8035865578434471, ,0.6162527295361319, ,0.07103936654353993
113, ,PASS, ,0.045633040000000014, ,0.0074381904348389824, ,0.03961157326748434, ,0.0003438669191477803, ,1.8333333333333333, ,0.7932397396171731, ,0.6035591110385502, ,0.16356809044713372
114, ,PASS, ,0.020432959999999993, ,0.0031369058241832817, ,0.03769220884981939, ,6.55963480568707e-05, ,1.8333333333333333, ,0.7981701273029812, ,0.6190281830983041, ,0.05426419868982266
115, ,PASS, ,0.01893488000000001, ,0.002902039796474197, ,0.037302893087692086, ,5.625067473306637e-05, ,1.8333333333333333, ,0.7983774979094588, ,0.6173547478622885, ,0.055080508561049776
116, ,PASS, ,0.01855448000000001, ,0.0028576193361692036, ,0.03738002015469072, ,5.4297845339204796e-05, ,1.8333333333333333, ,0.8064160891528755, ,0.6194567457806983, ,0.11365074182159547
117, ,PASS, ,0.018400880000000005, ,0.0028822292810632864, ,0.03737756964898676, ,5.427980963716581e-05, ,1.8333333333333333, ,0.8053881997441841, ,0.6179465725189281, ,0.11024264810922225
118, ,PASS, ,0.018424399999999994, ,0.00284680076751076, ,0.03737417070508765, ,5.365364792754749e-05, ,1.8333333333333333, ,0.8056017662729318, ,0.6168649619395522, ,0.0844880716720067
119, ,PASS, ,0.01819088, ,0.0027887792080194323, ,0.03739155774473991, ,5.1911336286543396e-05, ,1.8333333333333333, ,0.7984861769408635, ,0.6180282035060509, ,0.1032631987102304
120, ,PASS, ,0.018317120000000006, ,0.0027657999951588245, ,0.03732169460317137, ,5.189818373324906e-05, ,1.8333333333333333, ,0.7973979508674804, ,0.6218648599008183, ,0.05569274096447011
121, ,PASS, ,0.018281600000000002, ,0.002823843013294984, ,0.03728772286137018, ,5.280848993091098e-05, ,1.8333333333333333, ,0.80284025000126, ,0.6194567457806983, ,0.07734536029876941
122, ,PASS, ,0.01819496000000001, ,0.0027819356720937137, ,0.037357574295218465, ,5.1767460876634566e-05, ,1.8333333333333333, ,0.7913317122400897, ,0.6166404767249648, ,0.05114181343237893
123, ,PASS, ,0.01794560000000001, ,0.0028296296399924793, ,0.0372569877963715, ,5.193728250863804e-05, ,1.8333333333333333, ,0.806856691976053, ,0.6167629232056488, ,0.11503846860268158
124, ,PASS, ,0.017530400000000015, ,0.002716340157529062, ,0.03726076597436787, ,4.864519927909413e-05, ,1.8333333333333333, ,0.8006421921099629, ,0.6166404767249648, ,0.04314197669435318
125, ,PASS, ,0.01773320000000001, ,0.0027468431690631278, ,0.03728685851676496, ,4.9816211920348497e-05, ,1.8333333333333333, ,0.804018142816377, ,0.6174771943429725, ,0.0974265831309565
126, ,PASS, ,0.017838559999999993, ,0.002764403203609884, ,0.03712085458827371, ,5.038194398036991e-05, ,1.8333333333333333, ,0.7987711253044886, ,0.6157017203730536, ,0.06114160935491112
127, ,PASS, ,0.01781504000000001, ,0.0027604958860093375, ,0.037186282989938986, ,5.027919173504712e-05, ,1.8333333333333333, ,0.802330884745043, ,0.6177833105446827, ,0.09638578804514193
128, ,PASS, ,0.017382320000000014, ,0.002660428127305461, ,0.037525135908859, ,4.729338071429513e-05, ,1.8333333333333333, ,0.8039216498759836, ,0.6179669802657088, ,0.07585559478377993
129, ,PASS, ,0.017540720000000003, ,0.0027051956097030945, ,0.03723284521173038, ,4.860499336907297e-05, ,1.8333333333333333, ,0.7907985831504548, ,0.6160078365747638, ,0.029836125793351157
130, ,PASS, ,0.017331440000000007, ,0.0026807040059795267, ,0.03737230818105753, ,4.749975086910241e-05, ,1.8333333333333333, ,0.8029142015411425, ,0.6168037386992102, ,0.06340686924756637
131, ,PASS, ,0.017135840000000013, ,0.0026657676783284016, ,0.0372229853211159, ,4.6716080940661615e-05, ,1.8333333333333333, ,0.8061635256110695, ,0.6180486112528316, ,0.10099793881757516
132, ,PASS, ,0.01712288000000001, ,0.002621121930429034, ,0.03733254183710537, ,4.597096726935457e-05, ,1.8333333333333333, ,0.7902625287862938, ,0.618273096467419, ,0.04806024366849656
133, ,PASS, ,0.01747040000000001, ,0.002646935126442079, ,0.03750928337544132, ,4.724750984424882e-05, ,1.8333333333333333, ,0.7981457480293268, ,0.6171098549009204, ,0.05416215995591927
134, ,PASS, ,0.01718360000000001, ,0.002621288205018742, ,0.03715298265749679, ,4.598351250104432e-05, ,1.8333333333333333, ,0.7921099546580863, ,0.6160078365747638, ,0.039999183690128774
135, ,PASS, ,0.017036479999999993, ,0.0026533836853432965, ,0.037344347493724624, ,4.617457645529437e-05, ,1.8333333333333333, ,0.8122112778580399, ,0.6178853492785862, ,0.1307728413705843
136, ,PASS, ,0.01693855999999999, ,0.002634170664051686, ,0.0371913027044346, ,4.559734650777502e-05, ,1.8333333333333333, ,0.8106650383615435, ,0.6166200689781841, ,0.12283422787290055
137, ,PASS, ,0.01686776000000002, ,0.0026158125502487536, ,0.037616234062161996, ,4.5028067513024275e-05, ,1.8333333333333333, ,0.8035944141662692, ,0.6160282443215445, ,0.11456909042672599
138, ,PASS, ,0.01694408000000001, ,0.0026292767831861516, ,0.03732366863104835, ,4.554017308362783e-05, ,1.8333333333333333, ,0.8013768029826, ,0.6155588661455889, ,0.0829166751698945
139, ,PASS, ,0.016898710000000008, ,0.0026198816895591295, ,0.0374582896032734, ,4.526453932537696e-05, ,1.8333333333333333, ,0.7979318144930785, ,0.6169670006734557, ,0.055958041672618926
140, ,PASS, ,0.016549039999999994, ,0.0025347781892465205, ,0.03721059185771719, ,4.287261037497241e-05, ,1.8333333333333333, ,0.7932588814143025, ,0.6183955429481031, ,0.07536580886104365
141, ,PASS, ,0.016788800000000013, ,0.002560356001002113, ,0.03738082817922083, ,4.3915012216118175e-05, ,1.8333333333333333, ,0.7919843709173002, ,0.617007816167017, ,0.06187628823901553
142, ,PASS, ,0.01673408000000001, ,0.0025620191810321194, ,0.03748552519417971, ,4.386246753595286e-05, ,1.8333333333333333, ,0.7989756576717658, ,0.618211873227077, ,0.06520275096426603
143, ,PASS, ,0.01652840000000001, ,0.002562822317859264, ,0.03740528093100141, ,4.3350495280984665e-05, ,1.8333333333333333, ,0.7996396659575323, ,0.617007816167017, ,0.0983653394828677
176, ,PASS, ,0.01665896000000001, ,0.0025216865085657134, ,0.03749718195159282, ,4.2979564682630614e-05, ,1.8333333333333333, ,0.8001157350485183, ,0.6199669394502153, ,0.06179465725189282
177, ,PASS, ,0.016709120000000015, ,0.002567486202113984, ,0.037231474677659644, ,4.380150965716575e-05, ,1.8333333333333333, ,0.7980333828245209, ,0.6148445950082652, ,0.05659068182281994
178, ,PASS, ,0.01660112000000001, ,0.0025138472797035503, ,0.0372670782384033, ,4.266462004854882e-05, ,1.8333333333333333, ,0.786740557040246, ,0.6164159915103773, ,0.041182833003408095
179, ,PASS, ,0.016506560000000007, ,0.0025115863816528314, ,0.03710845611232424, ,4.233763509383197e-05, ,1.8333333333333333, ,0.7935589483023652, ,0.617069039407359, ,0.05983551356094773
180, ,PASS, ,0.016340960000000005, ,0.0025182016632188152, ,0.037360455047856164, ,4.208878177277175e-05, ,1.8333333333333333, ,0.7986110738324211, ,0.6172731168751658, ,0.08432480969776127
181, ,PASS, ,0.01518903000000001, ,0.001832268891023682, ,0.03906098316442522, ,2.8653446774948843e-05, ,1.8333333333333333, ,0.6940500490498993, ,0.6225995387849228, ,0.0403461153854003
182, ,PASS, ,0.016298, ,0.0024825619550969845, ,0.037307766977612705, ,4.131179821676697e-05, ,1.8333333333333333, ,0.7910061841136147, ,0.614599702046897, ,0.04726434154405012
183, ,PASS, ,0.01661, ,0.002470503055540458, ,0.037369630212648726, ,4.1924294456417596e-05, ,1.8333333333333333, ,0.7804367973563214, ,0.6149670414889492, ,0.04075427032101386
184, ,PASS, ,0.0163268, ,0.002529941066665642, ,0.03723894638027796, ,4.224055963949083e-05, ,1.8333333333333333, ,0.8006379044694513, ,0.6174771943429725, ,0.0829983061570172
185, ,PASS, ,0.016531280000000013, ,0.0026001412722632456, ,0.03728525354074407, ,4.3927229356530046e-05, ,1.8333333333333333, ,0.8045447167033574, ,0.6152527499438787, ,0.07816167016999653
186, ,PASS, ,0.016155920000000008, ,0.0024664144272348917, ,0.03721812377012714, ,4.073143805150262e-05, ,1.8333333333333333, ,0.7995242514904853, ,0.6193751147935757, ,0.10120201628538193
187, ,PASS, ,0.015992469999999995, ,0.0024480491256757488, ,0.03724662464827249, ,3.997428258014297e-05, ,1.8333333333333333, ,0.7968413111756544, ,0.6172527091283851, ,0.07548825534172772
188, ,PASS, ,0.015996080000000013, ,0.0024352118827770915, ,0.03730502949286749, ,3.9756767215050595e-05, ,1.8333333333333333, ,0.7921517898310475, ,0.6156609048794922, ,0.04801942817493521
189, ,PASS, ,0.015982400000000008, ,0.0024745973339158475, ,0.037308611423848496, ,4.042177340861746e-05, ,1.8333333333333333, ,0.8009283958378574, ,0.6159874288279831, ,0.0827125977020877
190, ,PASS, ,0.015932480000000013, ,0.002467357445851459, ,0.03714071621762821, ,4.015869834799548e-05, ,1.8333333333333333, ,0.800205387497347, ,0.6148241872614845, ,0.08485541111405889
191, ,PASS, ,0.01599152, ,0.002442174766998421, ,0.03742923037897186, ,3.979945014851034e-05, ,1.8333333333333333, ,0.789288889885688, ,0.6144568478194322, ,0.05254994796024571
192, ,PASS, ,0.01603015, ,0.002465639469848642, ,0.03713085363400747, ,4.035856663501342e-05, ,1.8333333333333333, ,0.7971061963546839, ,0.6158445746005183, ,0.07391685883961552
193, ,PASS, ,0.016014320000000002, ,0.002487819520732665, ,0.0370295003614212, ,4.069528967334562e-05, ,1.8333333333333333, ,0.8007471441223737, ,0.6168649619395522, ,0.08375339278790228
194, ,PASS, ,0.015776950000000005, ,0.002477243767247611, ,0.03719038379420828, ,3.9905008885671046e-05, ,1.8333333333333333, ,0.8069837491766882, ,0.6154160119181241, ,0.12646680679986122
195, ,PASS, ,0.015750560000000004, ,0.0024175843310407985, ,0.037165167361482426, ,3.8912423258797764e-05, ,1.8333333333333333, ,0.7945745568554206, ,0.6148037795147038, ,0.06636599253076468
196, ,PASS, ,0.016133360000000003, ,0.002475060453785297, ,0.037061295790494074, ,4.0826460425034774e-05, ,1.8333333333333333, ,0.7975925759178853, ,0.6149874492357299, ,0.07295769474092366
197, ,PASS, ,0.01577336, ,0.002435388868342664, ,0.037296205522132204, ,3.914990217289122e-05, ,1.8333333333333333, ,0.8015568098790273, ,0.6161915062957899, ,0.11677312707903921
198, ,PASS, ,0.015835970000000005, ,0.002373445632857927, ,0.03738738262402808, ,3.840434241533416e-05, ,1.8333333333333333, ,0.7826460807648608, ,0.6162323217893513, ,0.04299912246688843
199, ,PASS, ,0.015639439999999994, ,0.002364449700582568, ,0.037165109468174126, ,3.7767484592086544e-05, ,1.8333333333333333, ,0.7862458117294105, ,0.6141099161241608, ,0.04806024366849656
200, ,PASS, ,0.01538884, ,0.00235341239188916, ,0.037048193081773845, ,3.7002770857458095e-05, ,1.8333333333333333, ,0.79233603681932, ,0.6148037795147038, ,0.08603906042733822
201, ,PASS, ,0.015396560000000017, ,0.0023375603563135657, ,0.03713124153547887, ,3.676785017231589e-05, ,1.8333333333333333, ,0.7965634000443197, ,0.613395644986837, ,0.10471214873165854
202, ,PASS, ,0.015101790000000021, ,0.00231369527689112, ,0.0371716695961307, ,3.5687470699761576e-05, ,1.8333333333333333, ,0.7920829298329536, ,0.6158853900940797, ,0.05322340360400808
203, ,PASS, ,0.015358370000000014, ,0.0023038672131198263, ,0.03713584909450828, ,3.617860684013904e-05, ,1.8333333333333333, ,0.787559007783789, ,0.619415930287137, ,0.045713352788718596
204, ,PASS, ,0.015165900000000027, ,0.0023006465682444024, ,0.03703897329360625, ,3.56385330815854e-05, ,1.8333333333333333, ,0.7908043600342197, ,0.6168445541927716, ,0.09297769433276871
205, ,PASS, ,0.015140169999999998, ,0.0022705976846780517, ,0.03723104245260301, ,3.522522046398018e-05, ,1.8333333333333333, ,0.786329012714842, ,0.6188036978837167, ,0.058141670578151464
206, ,PASS, ,0.014968610000000025, ,0.0022645624184904215, ,0.03709980095998041, ,3.4618297229942935e-05, ,1.8333333333333333, ,0.7912728516830365, ,0.6171914858880431, ,0.06940674680108569
207, ,PASS, ,0.01504014000000001, ,0.0022205088427208254, ,0.036947731151201, ,3.412286167513106e-05, ,1.8333333333333333, ,0.7789210767932458, ,0.6170486316605783, ,0.04744801126507622
208, ,PASS, ,0.015229019999999992, ,0.002209067673844862, ,0.03713256406767209, ,3.434165238198206e-05, ,1.8333333333333333, ,0.7728575885377327, ,0.6118446562315055, ,0.053978490234893164
209, ,PASS, ,0.015493480000000014, ,0.0022211916160510526, ,0.037275685208873297, ,3.5187878100918625e-05, ,1.8333333333333333, ,0.7619447351364894, ,0.6152731576906594, ,0.04873369931225893
210, ,PASS, ,0.015207440000000017, ,0.002296528966633125, ,0.03707149048794923, ,3.570507056639318e-05, ,1.8333333333333333, ,0.7897547976514597, ,0.6167833309524295, ,0.06022326074978061
211, ,PASS, ,0.01540875000000001, ,0.0022908406951962406, ,0.037256017745760296, ,3.610789586818659e-05, ,1.8333333333333333, ,0.7800835523735827, ,0.6168445541927716, ,0.04971327115773148
212, ,PASS, ,0.015512230000000005, ,0.0023238092846917732, ,0.0371684760139589, ,3.684646021474234e-05, ,1.8333333333333333, ,0.7843591634045506, ,0.6162527295361319, ,0.0403461153854003
213, ,PASS, ,0.016160239999999996, ,0.002433412465456642, ,0.037235225013775235, ,4.012222740437779e-05, ,1.8333333333333333, ,0.7918983337631087, ,0.6153343809310015, ,0.0917940450194894
214, ,PASS, ,0.016040240000000004, ,0.002517663592364079, ,0.03727170084304402, ,4.114365368003479e-05, ,1.8333333333333333, ,0.8024857082691522, ,0.6126201506091712, ,0.10091630783045244
215, ,PASS, ,0.013667270000000002, ,0.001865515042338194, ,0.03692335878941246, ,2.620231825506365e-05, ,1.8333333333333333, ,0.7589433238656589, ,0.6225587232913614, ,0.03744821534254403
