Channel, ,Pass/Fail, ,Amplitude, ,Sorting Function Response, ,Mean, ,Variance, ,NPeaksRatio, ,PosIntegralRatio, ,ToT50, ,ToT99
0, ,PASS, ,0.03622457999999998, ,0.005898064214100031, ,0.03254313720413869, ,0.00021584305046443665, ,1.8333333333333333, ,0.760875814786204, ,0.4209097773514826, ,0.0635701312218118
1, ,PASS, ,0.039402309999999975, ,0.00657442539405051, ,0.03291624054060121, ,0.00026021079399659436, ,1.75, ,0.7728327709980234, ,0.4325626007632497, ,0.08644721536295177
2, ,PASS, ,0.03938301999999999, ,0.006570455757233657, ,0.03279718890879778, ,0.00026002481615444045, ,1.75, ,0.7712107051775154, ,0.4305626415787433, ,0.08489622660762025
3, ,PASS, ,0.03870455999999999, ,0.006457111268604656, ,0.032651604779290216, ,0.0002512583277462602, ,1.75, ,0.7748282541665985, ,0.43078712679333075, ,0.07963102793820534
4, ,PASS, ,0.038417900000000005, ,0.0063750499539437285, ,0.03290420753923389, ,0.00024626680691427496, ,1.75, ,0.7698360088568972, ,0.428868798595947, ,0.08220240403257076
5, ,PASS, ,0.037692949999999996, ,0.006314512502978424, ,0.032948685213567065, ,0.0002392205578963154, ,1.8333333333333333, ,0.775745889910545, ,0.4304606028448399, ,0.08632476888226771
6, ,PASS, ,0.037508099999999975, ,0.006291161605762466, ,0.03287399344013387, ,0.00023695102823909422, ,1.75, ,0.7769915578489321, ,0.4301544866431297, ,0.09222260770188363
7, ,PASS, ,0.03746348000000001, ,0.006283423652679986, ,0.03286017856370278, ,0.00023677624686086463, ,1.8333333333333333, ,0.7736342080740541, ,0.4292973612783413, ,0.07573314830309585
8, ,PASS, ,0.03748761, ,0.006260821920481982, ,0.032880828897981676, ,0.00023598252088919832, ,1.8333333333333333, ,0.7715467220248733, ,0.42893002183628903, ,0.0796718434317667
9, ,PASS, ,0.037540639999999986, ,0.006256222801662388, ,0.03276263150813249, ,0.0002361350285479424, ,1.8333333333333333, ,0.770660377715413, ,0.4281137119650619, ,0.0748556151915267
10, ,PASS, ,0.037419179999999996, ,0.006266520622160818, ,0.03290189508295749, ,0.00023583283657387842, ,1.8333333333333333, ,0.7726832270784462, ,0.4289504295830697, ,0.08738597171486297
11, ,PASS, ,0.03738791999999999, ,0.006244682876766454, ,0.0327551785118671, ,0.00023485510228012517, ,1.8333333333333333, ,0.7703772765153583, ,0.4281137119650619, ,0.0756107018224118
12, ,PASS, ,0.03717207, ,0.0062515554431223554, ,0.03271902519540417, ,0.00023362957443819542, ,1.8333333333333333, ,0.7756703389871376, ,0.4284402359135528, ,0.07844737862492603
13, ,PASS, ,0.037163529999999986, ,0.006212997118437858, ,0.03280456178180037, ,0.00023221141992631832, ,1.8333333333333333, ,0.7712176205175647, ,0.42829738168608805, ,0.08181465684373788
14, ,PASS, ,0.03727899999999999, ,0.006189867843202846, ,0.03261455680761617, ,0.0002321019516720732, ,1.8333333333333333, ,0.7715799317012715, ,0.42858309014101753, ,0.07885553356053958
15, ,PASS, ,0.03730214, ,0.006232965125015103, ,0.032740495528254525, ,0.00023388952135887289, ,1.8333333333333333, ,0.7726545952375473, ,0.4280524887247199, ,0.07183526866798637
16, ,PASS, ,0.037239069999999985, ,0.0061805984182419435, ,0.03279594767678211, ,0.00023157689893619072, ,1.8333333333333333, ,0.770692474433572, ,0.4285218669006755, ,0.0779167772086284
17, ,PASS, ,0.037092259999999995, ,0.00620435321362191, ,0.032925773539927754, ,0.00023137997971440087, ,1.8333333333333333, ,0.7742208379485571, ,0.428868798595947, ,0.0831003448909206
18, ,PASS, ,0.037310579999999996, ,0.00622428576917602, ,0.03290507451807106, ,0.00023352453192263312, ,1.75, ,0.7693564350027918, ,0.4280524887247199, ,0.07350870390400197
19, ,PASS, ,0.037885479999999985, ,0.0063513484629425035, ,0.0327027132134038, ,0.0002418640096845088, ,1.75, ,0.7723863925799105, ,0.42976673945429683, ,0.08087590049182669
20, ,PASS, ,0.038139459999999986, ,0.006387611626523457, ,0.03269531954572356, ,0.00024481863804267745, ,1.75, ,0.7738010242139165, ,0.4302769331238138, ,0.0788351258137589
21, ,PASS, ,0.03748680999999998, ,0.006301411684163303, ,0.032860528155956005, ,0.0002372054960102844, ,1.75, ,0.7759103393486955, ,0.4347870451623436, ,0.08101875471929144
22, ,PASS, ,0.037736279999999976, ,0.006283141994141598, ,0.032888431453235646, ,0.00023836328763092728, ,1.75, ,0.7722204301888261, ,0.4300932634027877, ,0.07475357645762332
23, ,PASS, ,0.03768166999999999, ,0.0063283777849274525, ,0.032788871486092115, ,0.0002392035939855055, ,1.75, ,0.7668546616227507, ,0.4354400930593253, ,0.08626354564192568
24, ,PASS, ,0.0378005, ,0.006365656186927573, ,0.03275732581702414, ,0.00024163550002187989, ,1.75, ,0.7782645586764901, ,0.4354400930593253, ,0.0828146364359911
25, ,PASS, ,0.037931569999999984, ,0.006329118249836006, ,0.03274709837676782, ,0.00024151974821518403, ,1.8333333333333333, ,0.7713306407524039, ,0.42837901267321077, ,0.07546784759494704
26, ,PASS, ,0.038035349999999996, ,0.006347563864678154, ,0.03282050448011265, ,0.0002427984811363285, ,1.8333333333333333, ,0.7730083367627468, ,0.42921573029121857, ,0.08316156813126263
27, ,PASS, ,0.03823384999999997, ,0.006392616474158537, ,0.03277427551376502, ,0.0002456139629449903, ,1.8333333333333333, ,0.7721597288164491, ,0.4288279831023857, ,0.07783514622150568
28, ,PASS, ,0.038619860000000006, ,0.006455348725840722, ,0.032972509806126406, ,0.00025047972000616863, ,1.75, ,0.7714955313402035, ,0.4306646803126467, ,0.07789636946184772
29, ,PASS, ,0.037568339999999985, ,0.006315033451485093, ,0.03270673807269239, ,0.0002386603517267537, ,1.8333333333333333, ,0.7740677883719266, ,0.42780759576335176, ,0.08099834697251077
30, ,PASS, ,0.03759372999999999, ,0.006322057373493655, ,0.032815467922287296, ,0.00023910029268452794, ,1.8333333333333333, ,0.7788173063343307, ,0.4289504295830697, ,0.0803248913287484
31, ,PASS, ,0.037508849999999996, ,0.006282894124393474, ,0.03288070038386972, ,0.0002363379827918258, ,1.75, ,0.7683320902494916, ,0.43411358951858126, ,0.07891675680088162
32, ,PASS, ,0.03755225999999999, ,0.0063180318514021614, ,0.032980216790065506, ,0.00023828161648411562, ,1.75, ,0.7746592689630118, ,0.4322360768147589, ,0.07305973347482704
33, ,PASS, ,0.03758411999999999, ,0.0062890826424080734, ,0.03270562567539438, ,0.0002377753842825275, ,1.8333333333333333, ,0.7725355119974122, ,0.4273178098406155, ,0.07673312789534907
34, ,PASS, ,0.037687839999999986, ,0.006297821150502969, ,0.032849465717842495, ,0.0002387892226193934, ,1.8333333333333333, ,0.7698080327808876, ,0.4267668006775372, ,0.07593722577090263
35, ,PASS, ,0.037529029999999984, ,0.006286622586739437, ,0.032719856077018834, ,0.00023733313103226276, ,1.8333333333333333, ,0.7733953168259857, ,0.42793004224403586, ,0.08103916246607212
36, ,PASS, ,0.037445169999999986, ,0.006226029531492371, ,0.03278534535825799, ,0.0002341171613513748, ,1.75, ,0.7589140245291909, ,0.42956266198649007, ,0.07920246525581111
37, ,PASS, ,0.03754542999999999, ,0.00631820320714701, ,0.0327639906267219, ,0.0002386473141039237, ,1.8333333333333333, ,0.775106330714256, ,0.42644027672904633, ,0.08740637946164365
38, ,PASS, ,0.03748083999999998, ,0.006273059716661437, ,0.032733118776759655, ,0.00023666293369038578, ,1.8333333333333333, ,0.7730025816749361, ,0.4275218873084223, ,0.07932491173649517
39, ,PASS, ,0.03714501999999999, ,0.00624909671831002, ,0.03255725073896451, ,0.00023344674214335605, ,1.8333333333333333, ,0.7738885023877179, ,0.42658313095651107, ,0.07461072223015856
40, ,PASS, ,0.03740873, ,0.006335431314223845, ,0.032613762282198325, ,0.00023811276853800213, ,1.75, ,0.7797198221447168, ,0.4334605416215996, ,0.08765127242301178
41, ,PASS, ,0.037545999999999996, ,0.006328478099660675, ,0.03275787454725414, ,0.000238493961716551, ,1.75, ,0.7769980786138156, ,0.4318075141323646, ,0.07683516662925247
42, ,PASS, ,0.03733237999999997, ,0.006271491119913818, ,0.03255074391461399, ,0.00023555429123269162, ,1.8333333333333333, ,0.7754434834471273, ,0.426399461235485, ,0.08250852023428093
43, ,PASS, ,0.037878359999999986, ,0.006335139700695023, ,0.032586964959694695, ,0.00024124997093285947, ,1.75, ,0.7726783226367182, ,0.4289096140895084, ,0.06950878553498908
44, ,PASS, ,0.03752788, ,0.006347550548509445, ,0.03261159001938736, ,0.00023959473153804115, ,1.8333333333333333, ,0.780332069736884, ,0.42901165282341175, ,0.0772637293116467
45, ,PASS, ,0.037618789999999985, ,0.0063110682277783105, ,0.032580524447664336, ,0.00023861713675423928, ,1.75, ,0.77455550527985, ,0.42911369155731516, ,0.07501887716577213
46, ,PASS, ,0.038004289999999996, ,0.00635179115230429, ,0.03256040552519336, ,0.00024289789799186698, ,1.8333333333333333, ,0.7730509798767431, ,0.4268484316646599, ,0.07842697087814535
47, ,PASS, ,0.04006993999999999, ,0.006746503175936144, ,0.03274710424787249, ,0.0002713410794918577, ,1.75, ,0.7757407531634236, ,0.43437889022673004, ,0.08079426950470399
48, ,PASS, ,0.14867978999999998, ,0.020210064357885596, ,0.032250634085712535, ,0.0029964692000227647, ,1.75, ,0.6862778244803022, ,0.46364359911022224, ,0.08007999836738025
49, ,PASS, ,0.05551701599999999, ,0.00908003595516203, ,0.03230138065229281, ,0.0005045121016112236, ,1.75, ,0.7611653453308412, ,0.4422970959776331, ,0.12997693924613785
50, ,PASS, ,0.04453459300000001, ,0.007489119899915969, ,0.03252417073529112, ,0.00033485742456519147, ,1.75, ,0.77600356828247, ,0.43617477194342974, ,0.08305952939735924
51, ,PASS, ,0.04401366000000001, ,0.007432936313963234, ,0.032536866737209444, ,0.0003283273716519283, ,1.75, ,0.7781349333464422, ,0.4368686353339728, ,0.08081467725148467
52, ,PASS, ,0.04392251000000001, ,0.007473112362312942, ,0.032255589688373706, ,0.0003303639709542435, ,1.75, ,0.7864725456005439, ,0.4316646599048999, ,0.08246770474071957
53, ,PASS, ,0.04391585, ,0.007390274291650473, ,0.032620801118548606, ,0.0003259016182040402, ,1.75, ,0.7770523003183143, ,0.436664557866166, ,0.082630966714965
54, ,PASS, ,0.0439769, ,0.007412871805856306, ,0.032511392249341846, ,0.0003272849398814751, ,1.75, ,0.7774161202447858, ,0.4363584416644558, ,0.08426358645741924
55, ,PASS, ,0.04397196999999999, ,0.007380890037009198, ,0.03228373190955287, ,0.00032626660818154004, ,1.75, ,0.772947415382853, ,0.42868512887492094, ,0.08148813289524703
56, ,PASS, ,0.043853006, ,0.007363363449670157, ,0.03240791702679537, ,0.00032421970982818695, ,1.75, ,0.7750561183701916, ,0.43580743250137755, ,0.06877410665088468
57, ,PASS, ,0.04366635, ,0.007405250691296291, ,0.032613137466786395, ,0.00032451081700686187, ,1.75, ,0.7786278920914594, ,0.4371951592824636, ,0.07818207791677721
58, ,PASS, ,0.043778766, ,0.007380741847354447, ,0.0327100070147548, ,0.00032450120680675877, ,1.75, ,0.7764831766478304, ,0.4361135487030877, ,0.08214118079222874
59, ,PASS, ,0.043561156000000004, ,0.00735807526071574, ,0.032501190403869305, ,0.000321867569307099, ,1.75, ,0.7771474285947492, ,0.43578702475459685, ,0.07812085467643518
60, ,PASS, ,0.04388299000000002, ,0.0073691159410783445, ,0.03224439000530602, ,0.00032503131931468975, ,1.75, ,0.7729820160475889, ,0.4284810514071141, ,0.08193710332442194
61, ,PASS, ,0.04417023000000002, ,0.007380596303984335, ,0.0323464482945246, ,0.0003275951920894558, ,1.75, ,0.7729114203766118, ,0.4304401950980592, ,0.07871267933307484
62, ,PASS, ,0.04404994, ,0.007387460680329269, ,0.03229697202567295, ,0.00032702590918893014, ,1.75, ,0.7730187889974854, ,0.42986877818820024, ,0.08265137446174568
63, ,PASS, ,0.04422458, ,0.0073772147593801456, ,0.03223907266606804, ,0.000328067755304497, ,1.75, ,0.7703065445435334, ,0.4292973612783413, ,0.08436562519132262
64, ,PASS, ,0.04406663, ,0.00744071044060629, ,0.03237261955919267, ,0.0003293991381696784, ,1.75, ,0.7759953320803767, ,0.43356258035550294, ,0.08532478929001448
65, ,PASS, ,0.04407995600000002, ,0.007400925863472678, ,0.03234934450847942, ,0.0003278810580520916, ,1.75, ,0.774169945178024, ,0.4300320401624457, ,0.081426909654905
66, ,PASS, ,0.04382464999999999, ,0.007386223946474683, ,0.032331082027305565, ,0.0003252508503990057, ,1.75, ,0.7787995072795159, ,0.4305218260851819, ,0.08450847941878738
67, ,PASS, ,0.04374411, ,0.007375560124711983, ,0.03249315652068325, ,0.00032383695921619625, ,1.75, ,0.7753690284834183, ,0.4347462296687823, ,0.07997795963347687
68, ,PASS, ,0.043578340000000014, ,0.007346108584411433, ,0.03247081217036387, ,0.0003214351557788091, ,1.75, ,0.7756897320183457, ,0.4359094712352809, ,0.0820799575518867
69, ,PASS, ,0.04354099, ,0.0072617929651120775, ,0.0323929042541989, ,0.00031795228268094493, ,1.8333333333333333, ,0.7684555090835197, ,0.4275218873084223, ,0.06901899961225282
70, ,PASS, ,0.04335757, ,0.00724059789953334, ,0.03228148366523132, ,0.00031565876876247855, ,1.8333333333333333, ,0.7699342833039239, ,0.4289912450766311, ,0.06685577845350095
71, ,PASS, ,0.04297587000000001, ,0.0071893771069051595, ,0.032273243462582396, ,0.000310741820036377, ,1.8333333333333333, ,0.7709503271615757, ,0.42821575069896534, ,0.07212097712291586
72, ,PASS, ,0.043108110000000005, ,0.007255113904475921, ,0.03246697263341564, ,0.0003140690452651824, ,1.75, ,0.7749549317024285, ,0.43401155078467785, ,0.07354951939756331
73, ,PASS, ,0.04307101600000001, ,0.007230863402962616, ,0.03209433909981429, ,0.00031322567260766947, ,1.8333333333333333, ,0.775371273986363, ,0.42901165282341175, ,0.08307993714413991
74, ,PASS, ,0.04307444000000001, ,0.007272685434252378, ,0.03228115781820779, ,0.00031522559433809987, ,1.8333333333333333, ,0.7795307100194245, ,0.43033815636415584, ,0.08077386175792331
75, ,PASS, ,0.043107830000000014, ,0.007327600917540921, ,0.03242963142874635, ,0.00031771391153753964, ,1.75, ,0.7850221558893837, ,0.43156262117099653, ,0.07871267933307484
76, ,PASS, ,0.04344257599999998, ,0.0072557658895186245, ,0.032323314755005, ,0.0003168394215704168, ,1.75, ,0.7729998590900553, ,0.42941980775902533, ,0.08018203710128365
77, ,PASS, ,0.043251539999999984, ,0.007248117469859354, ,0.032053985098793904, ,0.0003151327023372135, ,1.8333333333333333, ,0.7736806172467314, ,0.42862390563457886, ,0.07269239403277485
78, ,PASS, ,0.043064500000000006, ,0.007249160957282262, ,0.0324046077610661, ,0.0003139183832601797, ,1.75, ,0.7741441364731462, ,0.4300320401624457, ,0.07854941735882941
79, ,PASS, ,0.042990770000000005, ,0.00721141740670639, ,0.03211703268382278, ,0.00031177417659272337, ,1.8333333333333333, ,0.7747542482807053, ,0.42866472112814025, ,0.08171261810983449
80, ,PASS, ,0.04334503999999999, ,0.007091820070492374, ,0.032198910332442196, ,0.0003088100928018036, ,1.75, ,0.7498080567035529, ,0.4311952817289443, ,0.060121222015877225
81, ,PASS, ,0.04398454900000001, ,0.007460452153855046, ,0.032275060694679704, ,0.00033022313458290947, ,1.75, ,0.784485921989546, ,0.431276912716067, ,0.07422297504132569
82, ,PASS, ,0.04452518000000002, ,0.007440182411994211, ,0.03225355823832167, ,0.000332880473149784, ,1.75, ,0.7755336709538097, ,0.4309912042611375, ,0.08626354564192568
83, ,PASS, ,0.043375047, ,0.007290052459576331, ,0.03205386079753474, ,0.0003179557478386281, ,1.8333333333333333, ,0.7743678135994695, ,0.42866472112814025, ,0.07852900961204873
84, ,PASS, ,0.04339144000000002, ,0.007366945466046693, ,0.03251235724270934, ,0.0003209322206143697, ,1.75, ,0.7814937155068302, ,0.4355829472867901, ,0.08544723577069856
85, ,PASS, ,0.04361304, ,0.007419365326253306, ,0.032499310977531067, ,0.0003247571565020119, ,1.75, ,0.7819094014791724, ,0.4362972184241138, ,0.08765127242301178
86, ,PASS, ,0.043862990000000004, ,0.007392240558630752, ,0.03248867347992898, ,0.00032554393934875034, ,1.75, ,0.7772239994295924, ,0.4361135487030877, ,0.08597783718699618
87, ,PASS, ,0.043992036, ,0.007384432059921653, ,0.03206976560376319, ,0.00032670623924409254, ,1.8333333333333333, ,0.7731540512574123, ,0.4279504499908165, ,0.08191669557764127
88, ,PASS, ,0.04413387300000001, ,0.007395558579944618, ,0.03220161138650232, ,0.00032805228837576864, ,1.75, ,0.7730416992839199, ,0.4305014183384013, ,0.071161813024224
89, ,PASS, ,0.04437101000000001, ,0.007495069085497642, ,0.032597277565559885, ,0.0003339328283266513, ,1.75, ,0.7755303663423734, ,0.43570539376747414, ,0.07397808207995756
90, ,PASS, ,0.04495180700000001, ,0.007633306594107549, ,0.03236837646227628, ,0.00034415252602363645, ,1.75, ,0.779281711250148, ,0.4375216832309545, ,0.09381441195077651
91, ,PASS, ,0.04396912700000001, ,0.007370463934039746, ,0.032246371697720454, ,0.00032546768327825843, ,1.8333333333333333, ,0.7749009599230458, ,0.4344401134670721, ,0.07734536029876941
92, ,PASS, ,0.04380227000000001, ,0.007290374737759479, ,0.03231244894491949, ,0.0003203782486736962, ,1.75, ,0.759129563494529, ,0.4354400930593253, ,0.07824330115711925
93, ,PASS, ,0.044069952999999995, ,0.007354547321318686, ,0.03225910992714435, ,0.00032540866503905303, ,1.75, ,0.7638374036593834, ,0.43401155078467785, ,0.08191669557764127
94, ,PASS, ,0.04375469000000001, ,0.007391532366529312, ,0.032522042885043165, ,0.00032471757943498705, ,1.75, ,0.7766252551075027, ,0.43458296769453686, ,0.07556988632885044
95, ,PASS, ,0.04372282000000001, ,0.007384924564369446, ,0.03242166024734189, ,0.0003241097987239136, ,1.75, ,0.7785074602571364, ,0.434827860655905, ,0.077182098324524
96, ,PASS, ,0.04364477000000001, ,0.007353159738397143, ,0.03203213530968756, ,0.0003226136192618494, ,1.8333333333333333, ,0.7755226129060895, ,0.42862390563457886, ,0.08122283218709822
97, ,PASS, ,0.043618760000000006, ,0.007369596045914142, ,0.032212016650884676, ,0.0003230592627183207, ,1.8333333333333333, ,0.7774901246458247, ,0.42921573029121857, ,0.08650843860329381
98, ,PASS, ,0.043797363, ,0.007385616156973955, ,0.03258608565825187, ,0.0003247808648334392, ,1.75, ,0.7775295160952196, ,0.4358278402481582, ,0.080222852594845
99, ,PASS, ,0.043802746000000004, ,0.007363078573951686, ,0.03239910815309892, ,0.00032391868792477674, ,1.75, ,0.7742999460144164, ,0.4343380747331687, ,0.07848819411848738
100, ,PASS, ,0.043471600000000006, ,0.0073477820305497925, ,0.03242107279545315, ,0.0003208004932056112, ,1.75, ,0.7783358542149813, ,0.4354400930593253, ,0.07832493214424195
101, ,PASS, ,0.04355071, ,0.007362249038603621, ,0.032397633527479035, ,0.00032207966882191844, ,1.75, ,0.778081960665805, ,0.4342768514928267, ,0.08199832656476398
102, ,PASS, ,0.04354194, ,0.007390729631629615, ,0.03260298284096243, ,0.0003230103860224597, ,1.75, ,0.7809278854176936, ,0.4355829472867901, ,0.08038611456909042
103, ,PASS, ,0.043482540000000014, ,0.007271280299979266, ,0.032327615430297336, ,0.00031736793899411156, ,1.75, ,0.7653003474335351, ,0.4346441909348789, ,0.08254933572784229
104, ,PASS, ,0.04391588000000001, ,0.0073211088583417, ,0.03235256853349931, ,0.00032332046966118135, ,1.8333333333333333, ,0.7698714630686101, ,0.4306238648190853, ,0.07773310748760229
105, ,PASS, ,0.043887949999999995, ,0.0074259168843193715, ,0.03244739937919634, ,0.0003272879082665373, ,1.75, ,0.7781537365511085, ,0.43497071488336975, ,0.0800391828738189
106, ,PASS, ,0.043977180000000005, ,0.007425373445896561, ,0.032548401825881104, ,0.00032809240745003236, ,1.75, ,0.7765276024393987, ,0.4326646394971531, ,0.08395747025570907
107, ,PASS, ,0.044074440000000006, ,0.007417671675103369, ,0.03239467474725006, ,0.0003286297671113242, ,1.75, ,0.7768661012772416, ,0.43086875778045347, ,0.07595763351768331
108, ,PASS, ,0.04405554200000001, ,0.00745200389377435, ,0.032330125588457374, ,0.0003298055271857637, ,1.75, ,0.7782947955144173, ,0.4346237831880982, ,0.08056978429011653
109, ,PASS, ,0.044253286, ,0.007495516581457005, ,0.032458688732474844, ,0.00033295411763753827, ,1.75, ,0.7800840635076833, ,0.4350115303769311, ,0.07720250607130466
110, ,PASS, ,0.043888422, ,0.007365806990273563, ,0.03231271549866329, ,0.0003242618495439372, ,1.75, ,0.764747463702587, ,0.4356441705271321, ,0.07510050815289483
111, ,PASS, ,0.044181460000000006, ,0.007429498323143078, ,0.032176934205424376, ,0.0003301599053742209, ,1.8333333333333333, ,0.7752611438227476, ,0.42784841125691314, ,0.08250852023428093
112, ,PASS, ,0.04416534200000001, ,0.007462471675087936, ,0.03203129584008489, ,0.000330935093948703, ,1.75, ,0.7800528486890851, ,0.4290728760637538, ,0.08210036529866738
113, ,PASS, ,0.04417222000000001, ,0.007502546932655817, ,0.03222658466500684, ,0.00033278209277776155, ,1.75, ,0.7797199547816289, ,0.43209322258729416, ,0.08520234280933042
114, ,PASS, ,0.044170530000000006, ,0.007502326525906025, ,0.0324859368037387, ,0.00033271209198051244, ,1.75, ,0.7789513182325424, ,0.4347462296687823, ,0.07542703210138568
115, ,PASS, ,0.04418009000000001, ,0.007495980211800826, ,0.03225053402175466, ,0.0003327276923196721, ,1.75, ,0.780982604750772, ,0.4303789718577172, ,0.08644721536295177
116, ,PASS, ,0.04429791700000001, ,0.00751144644537074, ,0.03217158513826248, ,0.0003340330264179285, ,1.75, ,0.7784204041552211, ,0.434317666986388, ,0.07265157853921349
117, ,PASS, ,0.044329090000000015, ,0.007549424386132953, ,0.032321341250994874, ,0.00033589815123006244, ,1.75, ,0.7821379040975633, ,0.4350931613640538, ,0.0822636272729128
118, ,PASS, ,0.04455525800000001, ,0.007504847561102481, ,0.032187616760270196, ,0.0003359790008101521, ,1.75, ,0.7815201719257031, ,0.43319524091345074, ,0.08507989632864635
119, ,PASS, ,0.04458724, ,0.007596180790404413, ,0.032249955539886944, ,0.00034028784859200693, ,1.75, ,0.7853362587909352, ,0.4331340176731087, ,0.08130446317422094
120, ,PASS, ,0.044527810000000015, ,0.007568204264059891, ,0.032442452663415035, ,0.0003384395015950513, ,1.75, ,0.7799630657337241, ,0.43452174445419484, ,0.08344727658619212
121, ,PASS, ,0.045056947000000014, ,0.007624320548812587, ,0.032306611410991615, ,0.00034478657290172067, ,1.75, ,0.7777408590277558, ,0.43537886981898327, ,0.07748821452623415
122, ,PASS, ,0.04795766100000001, ,0.007950215785462875, ,0.03213988018395543, ,0.00038215567376356693, ,1.75, ,0.7573977319305355, ,0.436725781106508, ,0.07822289341033857
123, ,PASS, ,0.16697779999999998, ,0.022632162965521854, ,0.03222847110458971, ,0.003768710584003613, ,1.75, ,0.6859849051737253, ,0.4646231709556948, ,0.08703904001959144
124, ,PASS, ,0.06291853200000001, ,0.010132971523332158, ,0.031780968378318813, ,0.0006379768611681214, ,1.8333333333333333, ,0.7538914418748502, ,0.4368074120936307, ,0.1401808126364768
125, ,PASS, ,0.050718234, ,0.008593273657226884, ,0.032138382380420806, ,0.0004384511139364771, ,1.75, ,0.7864518013377498, ,0.43233811554866225, ,0.08159017162915043
126, ,PASS, ,0.05081776200000001, ,0.008547661144653093, ,0.03228281715430298, ,0.0004360032550706387, ,1.75, ,0.7754225063954188, ,0.43607273320952633, ,0.08546764351747924
127, ,PASS, ,0.051121522999999995, ,0.008638110931235815, ,0.03217098870251627, ,0.00044319828614339794, ,1.75, ,0.7756418071551711, ,0.4371543437889023, ,0.07728413705842738
128, ,PASS, ,0.04968198300000003, ,0.008406869256972106, ,0.03239300596044979, ,0.0004192747190712628, ,1.75, ,0.7776909163751711, ,0.43697067406787615, ,0.0803248913287484
129, ,PASS, ,0.04968948700000002, ,0.008414680348295074, ,0.03221888390212445, ,0.00041981119715599343, ,1.75, ,0.7777711378778285, ,0.43613395644986835, ,0.08073304626436195
130, ,PASS, ,0.05005661900000001, ,0.008435967524085146, ,0.03229907305265199, ,0.00042359604200090676, ,1.75, ,0.7704553211657177, ,0.43586865574171957, ,0.08169221036305381
131, ,PASS, ,0.05022212100000002, ,0.008378800485629048, ,0.03215906307293729, ,0.00042243252624831807, ,1.75, ,0.7700427488555455, ,0.4325013775229077, ,0.07112099753066264
132, ,PASS, ,0.050245153000000015, ,0.00834561154925712, ,0.03233780670453664, ,0.0004206100992502371, ,1.75, ,0.7584523453050763, ,0.4369502663210955, ,0.07820248566355789
133, ,PASS, ,0.05022096700000001, ,0.008319774660082291, ,0.03218242558811045, ,0.0004189898362837385, ,1.75, ,0.7605513680174429, ,0.43735842125670904, ,0.08220240403257076
134, ,PASS, ,0.050277838000000005, ,0.008401429744067613, ,0.032022334782433014, ,0.0004237799255746346, ,1.75, ,0.764454871233913, ,0.4310932429950409, ,0.08120242444031754
135, ,PASS, ,0.05014734900000002, ,0.008460005252373353, ,0.03195943867347605, ,0.0004261183620134356, ,1.75, ,0.7761607521466045, ,0.430644272565866, ,0.09122262810963042
136, ,PASS, ,0.05020648000000001, ,0.008407211192396688, ,0.03185481551690782, ,0.00042376508322858287, ,1.75, ,0.766303711186328, ,0.4308483500336728, ,0.08054937654333585
137, ,PASS, ,0.050399205, ,0.008432877807776443, ,0.03211018583908492, ,0.0004268937459559931, ,1.75, ,0.7697474402266039, ,0.42946062325258666, ,0.07801881594253178
138, ,PASS, ,0.05004262000000001, ,0.008445483949145214, ,0.03202788149715312, ,0.00042460038392289583, ,1.75, ,0.7769265146697322, ,0.4309299810207955, ,0.08610028366768026
139, ,PASS, ,0.04984243300000002, ,0.008449854673763003, ,0.03217299178720843, ,0.00042284039680732345, ,1.75, ,0.7787074781716147, ,0.4351543846043958, ,0.08426358645741924
140, ,PASS, ,0.04987455700000001, ,0.008429707553048211, ,0.03219953214785413, ,0.0004221742040598445, ,1.75, ,0.7796559846875964, ,0.43160343666455786, ,0.0722638313503806
141, ,PASS, ,0.049985282000000006, ,0.00836049858884529, ,0.03209391804571335, ,0.0004201356289604405, ,1.75, ,0.772811855154779, ,0.429440215505806, ,0.08107997795963348
142, ,PASS, ,0.0498487, ,0.00838022318717365, ,0.03187662209526337, ,0.00042001990491592083, ,1.75, ,0.7731663479518721, ,0.42911369155731516, ,0.07922287300259179
143, ,PASS, ,0.049813114000000006, ,0.008412187171798853, ,0.032637232980939165, ,0.00042050719481828523, ,1.75, ,0.7786742903327072, ,0.43654211138548193, ,0.08250852023428093
144, ,PASS, ,0.050046126, ,0.008403238557834718, ,0.032354264790412444, ,0.00042178942184026356, ,1.75, ,0.7734396099529832, ,0.4373992367502704, ,0.07999836738025755
145, ,PASS, ,0.049949612000000004, ,0.008451716163304663, ,0.032442234802881574, ,0.0004235277028672893, ,1.75, ,0.7762510628645638, ,0.436725781106508, ,0.08081467725148467
146, ,PASS, ,0.05001496700000001, ,0.008444606599756611, ,0.03249866200442848, ,0.0004237779721115662, ,1.75, ,0.7774103889889442, ,0.43748086773739314, ,0.08293708291667518
147, ,PASS, ,0.04991071899999999, ,0.00845007904916576, ,0.03246161706687619, ,0.00042319272584151376, ,1.75, ,0.7789837840807906, ,0.43707271280177956, ,0.08389624701536703
148, ,PASS, ,0.04989176500000001, ,0.008484514625357762, ,0.032447950460092655, ,0.0004255612930410848, ,1.75, ,0.78596636065496, ,0.4362972184241138, ,0.08648803085651313
149, ,PASS, ,0.05008563499999999, ,0.00840256918986771, ,0.03205964284177874, ,0.0004228455077250568, ,1.75, ,0.7731664765442435, ,0.43023611763025243, ,0.07979428991245077
150, ,PASS, ,0.049784488, ,0.008431996667742617, ,0.03231186385788045, ,0.0004213265069917549, ,1.75, ,0.7779423514288859, ,0.4364400726515785, ,0.0840186934960511
151, ,PASS, ,0.049824973000000015, ,0.008410706679907922, ,0.03229955957362095, ,0.00042065554816790113, ,1.75, ,0.7762568091254926, ,0.43419522050570397, ,0.07834533989102263
152, ,PASS, ,0.049771215, ,0.008410882537854148, ,0.03242670167794535, ,0.0004201483946019362, ,1.75, ,0.7780292307793243, ,0.43537886981898327, ,0.08314116038448195
153, ,PASS, ,0.04969183, ,0.008433740601796339, ,0.032637295072161794, ,0.0004205223499550085, ,1.75, ,0.7788805084766405, ,0.43574620926103547, ,0.08099834697251077
154, ,PASS, ,0.04977797700000001, ,0.008421131996862223, ,0.032330321122732195, ,0.0004207141832011458, ,1.75, ,0.7781775174256584, ,0.436664557866166, ,0.07914124201546907
155, ,PASS, ,0.049734318000000007, ,0.008404923390901601, ,0.03245643745821514, ,0.00041966180672516865, ,1.75, ,0.7782055931440558, ,0.43586865574171957, ,0.08287585967633314
156, ,PASS, ,0.050622153999999996, ,0.008533492457795156, ,0.032240777383624825, ,0.0004337682428287714, ,1.75, ,0.7764815090081172, ,0.4320319993469521, ,0.0843860329381033
157, ,PASS, ,0.051271732, ,0.008583860743759195, ,0.03206405999928573, ,0.0004421385742278372, ,1.75, ,0.7727120516262784, ,0.42990959368176157, ,0.08175343360339585
158, ,PASS, ,0.05010128200000001, ,0.008461869429283094, ,0.03245412013789514, ,0.0004256189954092231, ,1.75, ,0.7768611586422186, ,0.43568498602069344, ,0.0796718434317667
159, ,PASS, ,0.049931845, ,0.00847696784918253, ,0.032455051745943965, ,0.0004247937144153635, ,1.75, ,0.7798293445127914, ,0.4356033550335707, ,0.08436562519132262
160, ,PASS, ,0.05026177800000001, ,0.008333719943309314, ,0.032347242016264974, ,0.0004200680146254184, ,1.75, ,0.7611273638753352, ,0.4376033142180772, ,0.08089630823860737
161, ,PASS, ,0.050056194000000005, ,0.008471372251652096, ,0.032368026429215734, ,0.0004255581430778125, ,1.75, ,0.7786273036266244, ,0.43699108181465685, ,0.08922266892512398
162, ,PASS, ,0.05023969300000001, ,0.008467747560990726, ,0.03239731430650395, ,0.0004269651790420165, ,1.75, ,0.7772780386624423, ,0.4355829472867901, ,0.07446786800269382
163, ,PASS, ,0.05036489600000001, ,0.008459487458491923, ,0.032163907923246464, ,0.0004275237289770276, ,1.75, ,0.7743105872169159, ,0.43411358951858126, ,0.07587600253056061
164, ,PASS, ,0.050498847, ,0.008535825674329301, ,0.032426812007652905, ,0.000432619159238047, ,1.75, ,0.7773360881109806, ,0.4361135487030877, ,0.08250852023428093
165, ,PASS, ,0.05100256, ,0.008656093602481714, ,0.0321922863235036, ,0.0004436806502030442, ,1.75, ,0.7841126141885143, ,0.4313789514499704, ,0.08573294422562805
166, ,PASS, ,0.04984252699999999, ,0.008463488615016357, ,0.03228897567627191, ,0.000423552724753953, ,1.75, ,0.7791853619422433, ,0.43537886981898327, ,0.08007999836738025
167, ,PASS, ,0.04987983999999999, ,0.00844552229253337, ,0.03241215794849085, ,0.0004228309689502314, ,1.75, ,0.7772491244903401, ,0.43535846207220263, ,0.08112079345319484
168, ,PASS, ,0.04972195400000002, ,0.008317619371808502, ,0.031991632570070004, ,0.00041470141597160093, ,1.75, ,0.7635327028611057, ,0.43670537335972737, ,0.07928409624293382
169, ,PASS, ,0.04995092500000001, ,0.008413288136267889, ,0.03203179973325034, ,0.00042250070474245674, ,1.75, ,0.7756499988017725, ,0.4296238852268321, ,0.08036570682230974
170, ,PASS, ,0.04983095900000001, ,0.008417753503168908, ,0.0325025206488439, ,0.0004209653130163743, ,1.75, ,0.7776566696835321, ,0.43633803391767517, ,0.08375339278790228
171, ,PASS, ,0.04977979200000002, ,0.00839682461902804, ,0.03203948467329239, ,0.00042011096381068536, ,1.75, ,0.7759147324550068, ,0.4291953225444379, ,0.08089630823860737
172, ,PASS, ,0.049836571, ,0.008318949375568943, ,0.032179297013367074, ,0.0004158786613350361, ,1.75, ,0.7629596978262217, ,0.4356033550335707, ,0.07797800044897044
173, ,PASS, ,0.049679874000000006, ,0.008494290748728033, ,0.0321467452808106, ,0.0004246532532785926, ,1.75, ,0.7875948880270363, ,0.4309912042611375, ,0.08173302585661517
174, ,PASS, ,0.049581361000000004, ,0.008400910638607902, ,0.03236560260411012, ,0.0004180790731784249, ,1.75, ,0.7788516186239325, ,0.43578702475459685, ,0.07971265892532806
175, ,PASS, ,0.04978446300000001, ,0.008420400821060665, ,0.03221069446735781, ,0.0004208788954421234, ,1.75, ,0.7782629129102627, ,0.43503193812371177, ,0.08377380053468296
176, ,PASS, ,0.050013826, ,0.008420285120915406, ,0.032209408806677414, ,0.00042298239869243727, ,1.75, ,0.7754712824003918, ,0.43288912471174057, ,0.08044733780943246
177, ,PASS, ,0.049925971000000006, ,0.008471984537452371, ,0.0320829832700149, ,0.00042453123020288905, ,1.75, ,0.7799692764665533, ,0.43586865574171957, ,0.08061059978367788
178, ,PASS, ,0.04994184800000001, ,0.008464640707373142, ,0.03198186669912859, ,0.0004247684028566292, ,1.75, ,0.7828690605695936, ,0.42988918593498093, ,0.08452888716556806
179, ,PASS, ,0.049878026000000006, ,0.008459997055015638, ,0.03260233489322667, ,0.0004235251395051684, ,1.75, ,0.7795821074565703, ,0.4360115099691843, ,0.07946776596395992
180, ,PASS, ,0.049858904000000016, ,0.00848375508307559, ,0.03231805380845289, ,0.00042456895624769377, ,1.75, ,0.7808912988497138, ,0.43531764657864125, ,0.08240648150037755
181, ,PASS, ,0.049937033, ,0.008449614691886098, ,0.03227286376978021, ,0.0004236067206021554, ,1.75, ,0.7777640714232271, ,0.4333380951409155, ,0.08001877512703823
182, ,PASS, ,0.04995975300000001, ,0.008476566327595702, ,0.0323073579567968, ,0.00042510757983517974, ,1.75, ,0.7798412677444477, ,0.4359502867288423, ,0.08159017162915043
183, ,PASS, ,0.04987017000000002, ,0.008481781533365323, ,0.03238527550592845, ,0.0004245804081394125, ,1.75, ,0.7814376077324773, ,0.4358278402481582, ,0.08475337238015551
184, ,PASS, ,0.050022371999999996, ,0.008450023334118149, ,0.03227389573967878, ,0.00042499364922547663, ,1.8333333333333333, ,0.7772433696692447, ,0.4283381971796494, ,0.08544723577069856
185, ,PASS, ,0.049989757999999995, ,0.008482538174327134, ,0.03224393721519969, ,0.00042568141170768256, ,1.75, ,0.7803651770869803, ,0.4351135691108345, ,0.08328401461194669
186, ,PASS, ,0.04997792000000001, ,0.008482410313972809, ,0.03241942142793004, ,0.0004255109865221852, ,1.75, ,0.7787394923352869, ,0.4351543846043958, ,0.08075345401114263
187, ,PASS, ,0.050025175000000005, ,0.008437870572109735, ,0.03207531029274913, ,0.00042326752846397805, ,1.75, ,0.7722029629123234, ,0.43537886981898327, ,0.0756107018224118
188, ,PASS, ,0.05009551400000001, ,0.008497204100384483, ,0.03234466090877737, ,0.00042723894921849366, ,1.75, ,0.7795598440058156, ,0.43529723883186056, ,0.07942695047039856
189, ,PASS, ,0.050152445000000004, ,0.008516835643343414, ,0.032342738165955794, ,0.0004286352177903315, ,1.75, ,0.7801669060006838, ,0.43541968531254466, ,0.08165139486949245
190, ,PASS, ,0.05010474100000001, ,0.008454713338335742, ,0.03219407737550254, ,0.0004260259153487823, ,1.75, ,0.7805929829590169, ,0.43086875778045347, ,0.07793718495540908
191, ,PASS, ,0.04990578700000001, ,0.008473346236485343, ,0.03232522959711027, ,0.0004244720708174252, ,1.75, ,0.7809469647274204, ,0.4356441705271321, ,0.08681455480500398
192, ,PASS, ,0.05004788100000001, ,0.008445686114004628, ,0.03186758171057734, ,0.0004248917817152355, ,1.75, ,0.778545681893867, ,0.42823615844574603, ,0.08218199628579008
193, ,PASS, ,0.049784653, ,0.008455258571806668, ,0.03221141253694823, ,0.0004225884056125002, ,1.75, ,0.7798691964319148, ,0.43495030713658905, ,0.07699842860349788
194, ,PASS, ,0.04962147300000001, ,0.00837577596304927, ,0.03187435343437889, ,0.00041760547874313605, ,1.8333333333333333, ,0.7779061320894787, ,0.4285218669006755, ,0.08103916246607212
195, ,PASS, ,0.04963877699999999, ,0.008448910779034669, ,0.03227693867088427, ,0.00042103669581035867, ,1.75, ,0.7821333977723481, ,0.4346441909348789, ,0.0887328830023877
196, ,PASS, ,0.050113663, ,0.008493816413241703, ,0.0320631509475725, ,0.00042771833695167365, ,1.75, ,0.7793081168463675, ,0.4298279626946389, ,0.09183486051305076
197, ,PASS, ,0.05383048599999996, ,0.008910734575898777, ,0.0319426437586988, ,0.00048171154182319326, ,1.75, ,0.7687491268708448, ,0.4299912246688843, ,0.08132487092100162
198, ,PASS, ,0.18302028999999992, ,0.024117210842533713, ,0.03249950983779923, ,0.0044011298771040154, ,1.75, ,0.6760197093765629, ,0.4668476153547887, ,0.06812105875390298
199, ,PASS, ,0.07045167708300001, ,0.010844633886866763, ,0.03270753405185562, ,0.000763499343801379, ,1.8333333333333333, ,0.7340336717874848, ,0.45084794187873717, ,0.14816024162772187
200, ,PASS, ,0.057645051999999974, ,0.009338058569885354, ,0.03275682643754208, ,0.0005386056180765823, ,1.75, ,0.7575335000544765, ,0.4454602967286382, ,0.1397318422073019
201, ,PASS, ,0.05736650200000002, ,0.009258681511736123, ,0.03268849440846105, ,0.0005315693184171109, ,1.75, ,0.7542942753461711, ,0.44484806432521784, ,0.12271178139221649
202, ,PASS, ,0.057238814999999964, ,0.009260892012929567, ,0.03263281564547662, ,0.0005303947977773092, ,1.75, ,0.7567017233949059, ,0.44566437419644495, ,0.1385073774004612
203, ,PASS, ,0.057484644999999994, ,0.009275288886190364, ,0.03262519551745882, ,0.0005339212639032744, ,1.8333333333333333, ,0.758468971707947, ,0.443950123466868, ,0.11946694965408869
204, ,PASS, ,0.05721522199999999, ,0.009121621888058087, ,0.03262959605693761, ,0.0005218212804767753, ,1.8333333333333333, ,0.7435659824152936, ,0.44486847207199853, ,0.11832411583437073
205, ,PASS, ,0.057246654, ,0.009247001884077198, ,0.03261671039668578, ,0.0005297586813021207, ,1.75, ,0.7554570042004914, ,0.4454398889818575, ,0.13395644986837002
206, ,PASS, ,0.057220671999999986, ,0.009244664734029222, ,0.03271159998036774, ,0.000529206738768176, ,1.8333333333333333, ,0.7556870737790669, ,0.44521540376727003, ,0.13336462521173037
207, ,PASS, ,0.05697065299999996, ,0.009222200685426181, ,0.03263230025907634, ,0.0005256434321173003, ,1.75, ,0.756093911952215, ,0.44482765657843715, ,0.13465031325891308
208, ,PASS, ,0.05698261199999997, ,0.009222384964889516, ,0.032663594843186865, ,0.0005257056257654619, ,1.75, ,0.7558179884996717, ,0.4451949960204894, ,0.13662986469663885
209, ,PASS, ,0.05714775499999997, ,0.009237631072015418, ,0.03235719281369768, ,0.0005289393382818337, ,1.75, ,0.7593408920429617, ,0.4393175649476541, ,0.12895655190710395
210, ,PASS, ,0.057082520999999956, ,0.009081549427601743, ,0.03249345803428501, ,0.0005179584094153933, ,1.8333333333333333, ,0.7410466254599855, ,0.44621538335952327, ,0.12550764270116938
211, ,PASS, ,0.057108708999999966, ,0.00918856614053816, ,0.03284662786106406, ,0.0005250520982364975, ,1.8333333333333333, ,0.7547861070132208, ,0.4456031509561029, ,0.12442603212179343
212, ,PASS, ,0.056981676, ,0.0092070959498806, ,0.03271338777096385, ,0.0005250492121730184, ,1.8333333333333333, ,0.7561358495467396, ,0.44641946082733003, ,0.13322177098426563
213, ,PASS, ,0.05720660299999998, ,0.009150040893626041, ,0.032646556894859284, ,0.0005232630839296817, ,1.8333333333333333, ,0.7477499698839911, ,0.4463786453337687, ,0.135099283688088
214, ,PASS, ,0.057254395999999964, ,0.009212283436102572, ,0.03265325155747841, ,0.0005275494659556076, ,1.8333333333333333, ,0.7535095040995394, ,0.4440521622007714, ,0.12560968143507276
215, ,PASS, ,0.05713558399999998, ,0.009209727501429846, ,0.03262688532576886, ,0.0005264359483993472, ,1.8333333333333333, ,0.7532726599929358, ,0.4455215199689802, ,0.12652803004020327
216, ,PASS, ,0.05763888799999996, ,0.00923301490724629, ,0.032725078722577086, ,0.0005323476198078775, ,1.8333333333333333, ,0.7525602901042644, ,0.44670516928225956, ,0.1352013224219914
217, ,FAIL, ,0.006959080000000013, ,0.0002698889314857444, ,0.03492777204322361, ,2.046643090327042e-06, ,0.9166666666666666, ,0.2829996334667826, ,0.3884206444766433, ,0.006408032489132875
218, ,PASS, ,0.05769344899999999, ,0.009242843148444839, ,0.03276845565680292, ,0.0005333416083446671, ,1.8333333333333333, ,0.7520404303047118, ,0.44705210097753106, ,0.1476908634517663
219, ,PASS, ,0.05784397999999998, ,0.009258838293163487, ,0.03270429433889104, ,0.0005359920589064227, ,1.8333333333333333, ,0.753450475503027, ,0.4467459847758209, ,0.13514009918164935
220, ,PASS, ,0.058273074999999994, ,0.009337597426324002, ,0.03278458344637864, ,0.0005442765382935178, ,1.8333333333333333, ,0.752129420818991, ,0.44705210097753106, ,0.1356502928511663
221, ,PASS, ,0.058171166999999996, ,0.009333059752332389, ,0.032832667221383234, ,0.0005429850048361867, ,1.8333333333333333, ,0.7528748606761116, ,0.4459704903981551, ,0.13526254566233342
222, ,PASS, ,0.058320518, ,0.009314935698152478, ,0.03271494257941674, ,0.0005432795329111395, ,1.8333333333333333, ,0.7492683367072334, ,0.44688883900328563, ,0.1341809350829575
223, ,PASS, ,0.05823771499999998, ,0.0092945054192061, ,0.03241371177757597, ,0.0005415867891729267, ,1.8333333333333333, ,0.7511830774824263, ,0.4463990530805494, ,0.13642578722883206
224, ,PASS, ,0.05847710400000001, ,0.009346581205745002, ,0.03273150384257464, ,0.0005466986003916466, ,1.8333333333333333, ,0.7516320245811311, ,0.44737862492602193, ,0.1389767555764168
225, ,PASS, ,0.05862026299999998, ,0.009329953209465896, ,0.03233409832150364, ,0.0005475628681999587, ,1.75, ,0.7481131876382011, ,0.4405216220077141, ,0.1295483765637436
226, ,PASS, ,0.05850097399999999, ,0.00934287364502093, ,0.032716209024917856, ,0.0005466016842721661, ,1.8333333333333333, ,0.75006349020383, ,0.4472357706985572, ,0.13728291259362055
227, ,PASS, ,0.05838351499999998, ,0.009293877326839528, ,0.032420415844676635, ,0.000543001289505178, ,1.75, ,0.7483057233091552, ,0.4410318156772311, ,0.1330585090100202
228, ,PASS, ,0.058221254, ,0.009312485259136275, ,0.032727454090773656, ,0.0005424262336667213, ,1.8333333333333333, ,0.7511771457961631, ,0.44495010305912125, ,0.12169139405318259
229, ,PASS, ,0.05828205800000001, ,0.009290371638233416, ,0.032565199224464804, ,0.0005414344518789067, ,1.8333333333333333, ,0.7490373025178717, ,0.4452766270076121, ,0.11463031366706802
230, ,PASS, ,0.05815315799999998, ,0.009277245546059557, ,0.03251940928927981, ,0.000540022111920877, ,1.75, ,0.7497364097611885, ,0.440848145956205, ,0.12189547152098937
231, ,PASS, ,0.058678465, ,0.009308297691345179, ,0.03256607957837595, ,0.0005465054045312095, ,1.75, ,0.7480340453662719, ,0.4406440684883982, ,0.128507581477929
232, ,PASS, ,0.059173336, ,0.009420217228057014, ,0.03240349623136263, ,0.000557826969208862, ,1.75, ,0.747280620957157, ,0.4410318156772311, ,0.13318095549070427
233, ,PASS, ,0.058065601999999994, ,0.009325324432663732, ,0.03235165530395298, ,0.0005421808087779775, ,1.75, ,0.7504513755691433, ,0.43958286565580296, ,0.12718107793718494
234, ,PASS, ,0.05801689799999999, ,0.00931233188897384, ,0.03233310198602069, ,0.0005409168235640152, ,1.75, ,0.7520376043562463, ,0.4402563212995653, ,0.1300993857268219
235, ,PASS, ,0.05817988399999999, ,0.009303779674820203, ,0.0325371743954205, ,0.0005418402296460973, ,1.75, ,0.7494619870817877, ,0.4407256994755209, ,0.12409950817330259
236, ,PASS, ,0.058788878, ,0.009348181300433795, ,0.03232450346160282, ,0.0005499427010540346, ,1.75, ,0.747570479507043, ,0.4399910205914165, ,0.12546682720760802
237, ,PASS, ,0.058744765, ,0.00939437593457105, ,0.032424213525234176, ,0.0005523373897252932, ,1.75, ,0.7492047467591558, ,0.4405624375012755, ,0.12348727576988225
238, ,PASS, ,0.058785597999999994, ,0.009402955254391747, ,0.03236142350058162, ,0.0005534802528267521, ,1.75, ,0.7485880376644564, ,0.439644088896145, ,0.11058957980449378
239, ,PASS, ,0.059641317000000034, ,0.00947118731363683, ,0.03254480079645313, ,0.0005649279393948702, ,1.8333333333333333, ,0.7455479512257864, ,0.44327666782310565, ,0.12905859064100733
240, ,PASS, ,0.06119020099999999, ,0.009627566258026852, ,0.03230423084163588, ,0.0005893190280437607, ,1.75, ,0.7395351433397732, ,0.4409501846901084, ,0.11036509458990633
241, ,PASS, ,0.05947235900000001, ,0.009482513732013118, ,0.03233198879692251, ,0.0005643253900870775, ,1.75, ,0.7493678876710841, ,0.4414603783596253, ,0.12307912083426868
242, ,PASS, ,0.05930430199999999, ,0.00952225034372399, ,0.03262144647968408, ,0.0005650184069345768, ,1.8333333333333333, ,0.7540522749431212, ,0.4472561784453378, ,0.1395277647394951
243, ,PASS, ,0.059591443, ,0.00953892073159802, ,0.03268004736180894, ,0.0005685113713858386, ,1.8333333333333333, ,0.7528443856945881, ,0.44652149956123344, ,0.13948694924593374
244, ,PASS, ,0.06005427000000003, ,0.009578409063034518, ,0.03234458933603396, ,0.0005757639923479867, ,1.75, ,0.7490595429162091, ,0.4421950572437297, ,0.12369135323768903
245, ,PASS, ,0.060117685000000025, ,0.00954705636342068, ,0.03239055949060223, ,0.0005745120478483476, ,1.75, ,0.7494197744720589, ,0.4404399910205914, ,0.13377278014734392
246, ,PASS, ,0.060197888000000005, ,0.009625164406689158, ,0.032722347478112694, ,0.0005794905467160272, ,1.8333333333333333, ,0.7488510711416557, ,0.4464602763208914, ,0.1258341666496602
247, ,PASS, ,0.060338303, ,0.009629407718712726, ,0.03225268170510806, ,0.000581563855225953, ,1.75, ,0.7485724945773472, ,0.4404399910205914, ,0.13471153649925513
248, ,PASS, ,0.06038916700000001, ,0.009665502761023475, ,0.03256550127768821, ,0.000583818023839346, ,1.8333333333333333, ,0.7508936489172027, ,0.44695006224362765, ,0.12773208710026326
249, ,PASS, ,0.060711825000000004, ,0.009715927358794558, ,0.03265537864141548, ,0.0005903374285754761, ,1.8333333333333333, ,0.7521186622680357, ,0.44664394604191754, ,0.13771147527601477
250, ,PASS, ,0.06038555400000002, ,0.009675891813910334, ,0.03272414320297545, ,0.000584481487708812, ,1.8333333333333333, ,0.751727073247263, ,0.4468276157629436, ,0.1342625660700802
251, ,PASS, ,0.06038301200000002, ,0.009679631616215302, ,0.032628684420501625, ,0.0005848431772753685, ,1.8333333333333333, ,0.7516740861201431, ,0.4464806840676721, ,0.1257729434093182
252, ,PASS, ,0.05973925700000002, ,0.009627701899439917, ,0.03257194397765351, ,0.0005753732671542588, ,1.8333333333333333, ,0.7528831357094744, ,0.44617456786596194, ,0.13207893716454766
253, ,PASS, ,0.06007334600000002, ,0.00968039618548622, ,0.0327438735360911, ,0.0005822779429143939, ,1.8333333333333333, ,0.7574158040297301, ,0.44497051080590194, ,0.11803840737944124
254, ,PASS, ,0.06011768700000003, ,0.009697405658671329, ,0.032530910305279485, ,0.0005834519783070163, ,1.8333333333333333, ,0.7555625360092478, ,0.4460113058917165, ,0.13424215832329953
255, ,PASS, ,0.060244814, ,0.009664343388716336, ,0.03247065077451481, ,0.000582911745083203, ,1.75, ,0.7512047440630539, ,0.44003183608497787, ,0.12977286177833106
