Channel, ,Pass/Fail, ,Amplitude, ,Sorting Function Response, ,Mean, ,Variance, ,NPeaksRatio, ,PosIntegralRatio, ,ToT50, ,ToT99
0, ,PASS, ,0.063504557, ,0.009131475534527133, ,0.023238598279402462, ,0.0005893551748121571, ,1.75, ,0.7212857084956273, ,0.3942368523091365, ,0.06257015162955858
1, ,PASS, ,0.067818582, ,0.010528080547464777, ,0.02163148223981143, ,0.0007285895799791932, ,1.75, ,0.7498663259508273, ,0.3846452113222179, ,0.07830452439746127
2, ,PASS, ,0.068653939, ,0.010644561079997748, ,0.021626555027244344, ,0.0007458765937319471, ,1.75, ,0.7505174461442171, ,0.3843799106140691, ,0.07720250607130466
3, ,PASS, ,0.06894561900000001, ,0.01069797637897598, ,0.021805741217301687, ,0.0007528016606686633, ,1.75, ,0.749601153447674, ,0.3838901246913328, ,0.07630456521295484
4, ,PASS, ,0.069148846, ,0.010736773270471567, ,0.021469312615558865, ,0.0007578063636795947, ,1.75, ,0.7502409488317557, ,0.38401257117201687, ,0.08097793922573009
5, ,PASS, ,0.06983013300000004, ,0.010845186325526383, ,0.021836519369216958, ,0.0007731198773933823, ,1.75, ,0.7505225195728998, ,0.38276769861839555, ,0.07436582926879043
6, ,PASS, ,0.06998168500000004, ,0.010875087304108872, ,0.02172643615189486, ,0.0007768830666915183, ,1.75, ,0.7512122289065967, ,0.38323707679435115, ,0.07991673639313483
7, ,PASS, ,0.07025828000000002, ,0.010888473926994926, ,0.021622083474847453, ,0.0007809673477945015, ,1.75, ,0.7497980681704963, ,0.3833595232750352, ,0.07534540111426298
8, ,PASS, ,0.07033760100000004, ,0.010978486856842863, ,0.02176397064347667, ,0.0007882742831806924, ,1.75, ,0.7528898214492079, ,0.38315544580722843, ,0.08230444276647415
9, ,PASS, ,0.07195240000000001, ,0.011196769759283414, ,0.021469255441419567, ,0.000822827400390758, ,1.75, ,0.752601954512856, ,0.38152282606477417, ,0.0753249933674823
10, ,PASS, ,0.07096316200000001, ,0.011040554662162734, ,0.02155946229221853, ,0.0007998904515987307, ,1.75, ,0.7521045666579856, ,0.38284932960551826, ,0.08014122160772229
11, ,PASS, ,0.07048764700000001, ,0.010967646832024168, ,0.021750302094467464, ,0.0007892546623228684, ,1.75, ,0.7509931451392676, ,0.3828901450990796, ,0.07632497295973552
12, ,PASS, ,0.07022190000000005, ,0.010918555100547544, ,0.02152714344170527, ,0.0007829346679103019, ,1.75, ,0.7517516249720971, ,0.3828085141119569, ,0.07577396379665721
13, ,PASS, ,0.07016781400000005, ,0.010882896211855161, ,0.021605019241525684, ,0.0007797101252077273, ,1.75, ,0.7520695570160104, ,0.3834819697557193, ,0.07877390257341686
14, ,PASS, ,0.07013818800000003, ,0.010871609570765387, ,0.021652369701577523, ,0.0007783870546744484, ,1.75, ,0.7495870316611873, ,0.38401257117201687, ,0.07777392298116365
15, ,PASS, ,0.07050008400000002, ,0.010945014109459148, ,0.021829152956286606, ,0.0007877505036477964, ,1.75, ,0.7520829372713455, ,0.38311463031366705, ,0.07761066100691823
16, ,PASS, ,0.07048714200000002, ,0.010937113180111611, ,0.02154854914158895, ,0.0007868805366124766, ,1.75, ,0.7511333590807338, ,0.38368604722352606, ,0.07775351523438297
17, ,PASS, ,0.07169030899999998, ,0.011057652550286571, ,0.021710767343809313, ,0.0008090565526452975, ,1.75, ,0.748057916955437, ,0.3837676782106488, ,0.07254953980531009
18, ,PASS, ,0.07115700400000001, ,0.010986825857034692, ,0.02181231604571336, ,0.000797968029870866, ,1.75, ,0.7499991085274695, ,0.38362482398318404, ,0.07493724617864941
19, ,PASS, ,0.07010034000000004, ,0.01085518780624501, ,0.021783836340891007, ,0.0007764875648783483, ,1.75, ,0.74927982804443, ,0.3845431725883145, ,0.07442705250913247
20, ,PASS, ,0.06982149700000002, ,0.01077248309839914, ,0.021924843654680518, ,0.0007676795958717513, ,1.75, ,0.7487499341913822, ,0.38444113385441114, ,0.07377400461215078
21, ,PASS, ,0.06959801600000005, ,0.010695504337736797, ,0.021906533709516136, ,0.0007591080212629679, ,1.75, ,0.7468660885178392, ,0.3857676373951552, ,0.07452909124303586
22, ,PASS, ,0.06965870100000005, ,0.010752045903600804, ,0.022090881555784578, ,0.000764064417015705, ,1.75, ,0.7461186142311088, ,0.38570641415481316, ,0.07456990673659722
23, ,PASS, ,0.07014259100000003, ,0.010812791828581657, ,0.021676534316850682, ,0.0007738596165339655, ,1.75, ,0.7477434835371787, ,0.3854207056998837, ,0.07714128283096264
24, ,PASS, ,0.06983147900000004, ,0.010826070551980737, ,0.021833669740597132, ,0.0007711304454888785, ,1.75, ,0.7491475535971397, ,0.38527785147241894, ,0.07971265892532806
25, ,PASS, ,0.07020016300000004, ,0.010814841944565959, ,0.02152763070202649, ,0.0007741226571797886, ,1.75, ,0.7461506953643897, ,0.3863594620517949, ,0.07546784759494704
26, ,PASS, ,0.07118580400000002, ,0.010995974289763982, ,0.021562906252239753, ,0.0007986301341088745, ,1.75, ,0.7472733556218851, ,0.3842778718801657, ,0.07410052856064162
27, ,PASS, ,0.10729225, ,0.0162572820904152, ,0.017068651051407112, ,0.0017874924288214104, ,1.8333333333333333, ,0.7392795223366447, ,0.3740944062366074, ,0.07232505459072264
28, ,PASS, ,0.12962262, ,0.019529160933913155, ,0.014361150458949817, ,0.0025954438483975465, ,1.9166666666666667, ,0.7335741845508744, ,0.37442093018509826, ,0.0748556151915267
29, ,PASS, ,0.07522644999999997, ,0.011538755111820384, ,0.020950712968857782, ,0.0008854902316342153, ,1.75, ,0.7456662116686837, ,0.38572682190159385, ,0.07585559478377993
30, ,PASS, ,0.07415119099999999, ,0.011385344885669276, ,0.02137096341644048, ,0.0008608924997500541, ,1.75, ,0.745072710472203, ,0.38582886063549726, ,0.07283524826023959
31, ,PASS, ,0.074677718, ,0.0113713747423744, ,0.021670615677088223, ,0.0008658831883122932, ,1.75, ,0.7469364347271968, ,0.38619620007754946, ,0.07591681802412195
32, ,PASS, ,0.074224702, ,0.011384898696092416, ,0.021134651365217038, ,0.000861354361092145, ,1.75, ,0.745877567846498, ,0.3863390543050142, ,0.0769780208567172
33, ,PASS, ,0.07422883, ,0.011423805602518232, ,0.021750563306381504, ,0.0008648152197953715, ,1.75, ,0.7469704454067136, ,0.3858492683822779, ,0.07899838778800433
34, ,PASS, ,0.07459785999999999, ,0.01147968652631811, ,0.02134013889485929, ,0.0008734621002770683, ,1.75, ,0.7462790997607454, ,0.38489010428358605, ,0.07408012081386094
35, ,PASS, ,0.07454370100000002, ,0.011451757761123206, ,0.021412304653333606, ,0.0008707514692862185, ,1.75, ,0.7472489493989739, ,0.38491051203036675, ,0.0746719454705006
36, ,PASS, ,0.074429358, ,0.011500485671235013, ,0.021295677060753863, ,0.0008731748462881047, ,1.75, ,0.7485070051711945, ,0.3850329585110508, ,0.08001877512703823
37, ,PASS, ,0.07460435199999998, ,0.011446381367970347, ,0.021336363501377523, ,0.0008709454295788839, ,1.75, ,0.7456513900320005, ,0.3851145894981735, ,0.0718964919083284
38, ,PASS, ,0.07400764899999998, ,0.011384464656612718, ,0.021347175012183427, ,0.0008590303942097253, ,1.75, ,0.7455950423672307, ,0.38535948245954166, ,0.07701883635027856
39, ,PASS, ,0.073727819, ,0.011350424322215159, ,0.021448309910512033, ,0.0008535344905318771, ,1.75, ,0.7477314983832378, ,0.38480847329646334, ,0.07716169057774332
40, ,PASS, ,0.07410680500000001, ,0.01134680242286662, ,0.021063299623375036, ,0.000857685228814141, ,1.75, ,0.746467677705068, ,0.3855023366870064, ,0.0756107018224118
41, ,PASS, ,0.07382008499999998, ,0.011310698263104667, ,0.021314694084039104, ,0.0008513881523405078, ,1.75, ,0.7452206576110313, ,0.38566559866125183, ,0.07487602293830738
42, ,PASS, ,0.07380277200000002, ,0.011304491842018519, ,0.021248623771555685, ,0.0008508821219132657, ,1.75, ,0.7454323208570752, ,0.38535948245954166, ,0.0756923328095345
43, ,PASS, ,0.07364573799999999, ,0.01127050801009453, ,0.02127561839972654, ,0.0008462949896532805, ,1.75, ,0.7443689262545774, ,0.38535948245954166, ,0.07456990673659722
44, ,PASS, ,0.07325810700000002, ,0.011197978594599917, ,0.021342320917532295, ,0.0008364747400860259, ,1.75, ,0.7438247554611618, ,0.3855839676741291, ,0.07220260811003858
45, ,PASS, ,0.07310854, ,0.011158578236177696, ,0.021484821440235915, ,0.000831753191691818, ,1.75, ,0.7440120366846005, ,0.3852166282320769, ,0.07422297504132569
46, ,PASS, ,0.072764585, ,0.011132236257882466, ,0.021484218057611075, ,0.0008260880191149751, ,1.75, ,0.7442908041632471, ,0.38560437542090975, ,0.07108018203710129
47, ,PASS, ,0.07301316599999998, ,0.01111429740686481, ,0.021508375061080387, ,0.0008275209310966913, ,1.75, ,0.7436241389979301, ,0.386032938103304, ,0.07332503418297585
48, ,PASS, ,0.07311005700000002, ,0.011186294704704348, ,0.021261611690781824, ,0.0008340053414363052, ,1.75, ,0.7453344267217108, ,0.38619620007754946, ,0.0787534948266362
49, ,PASS, ,0.07352594, ,0.011251932542268122, ,0.021402154670802635, ,0.0008436549419833353, ,1.75, ,0.7456397100275993, ,0.38560437542090975, ,0.07479439195118467
50, ,PASS, ,0.073364926, ,0.011242181731327402, ,0.02164627548382686, ,0.0008410384618604375, ,1.75, ,0.7449563015080549, ,0.38531866696598027, ,0.07093732780963653
51, ,PASS, ,0.07334670400000001, ,0.011217315464413945, ,0.021480080031836088, ,0.0008389710731449463, ,1.75, ,0.7439747144024024, ,0.38566559866125183, ,0.0743046060284484
52, ,PASS, ,0.07314295000000001, ,0.011193120520599257, ,0.021293120351584666, ,0.0008349036158504814, ,1.75, ,0.7437984496127273, ,0.3854819289402257, ,0.06899859186547214
53, ,PASS, ,0.07321443000000002, ,0.011198991320639404, ,0.021159308949245937, ,0.0008358252051545391, ,1.75, ,0.7432904219820085, ,0.385971714862962, ,0.07305973347482704
54, ,PASS, ,0.07301700300000001, ,0.011200847207522745, ,0.021364544583110552, ,0.0008337992314374241, ,1.75, ,0.7445204165646568, ,0.3855227444337871, ,0.07359033489112467
55, ,PASS, ,0.07303293100000002, ,0.011180294099234796, ,0.0214350374457256, ,0.000832187340336142, ,1.75, ,0.7447639872133137, ,0.38650231627925963, ,0.07920246525581111
56, ,PASS, ,0.07355161399999997, ,0.011289894317658903, ,0.02149765261568131, ,0.0008468333231391368, ,1.75, ,0.7453250793411491, ,0.38486969653680536, ,0.07644741944041958
57, ,PASS, ,0.07367558900000001, ,0.011347987192433353, ,0.021134314779984082, ,0.0008530443229635541, ,1.75, ,0.7470796436495724, ,0.3837472704638681, ,0.07454949898981654
58, ,PASS, ,0.07389331499999997, ,0.011326730316348456, ,0.021084666701720375, ,0.0008534391407205017, ,1.75, ,0.7454187116012527, ,0.38572682190159385, ,0.07793718495540908
59, ,PASS, ,0.07374936299999998, ,0.01132697317442938, ,0.021438127694802148, ,0.0008521338096145151, ,1.75, ,0.7464055971397507, ,0.38395134793167485, ,0.07452909124303586
60, ,PASS, ,0.07369782400000002, ,0.01133273921675412, ,0.021062286503112183, ,0.0008516801948073922, ,1.75, ,0.7454730145824293, ,0.38497173527070877, ,0.07724332156486602
61, ,PASS, ,0.075035063, ,0.011557449751654944, ,0.020922839296891902, ,0.0008847402231269524, ,1.75, ,0.7475959230748813, ,0.3839309401848942, ,0.07744739903267281
62, ,PASS, ,0.07344236200000001, ,0.011239808835250172, ,0.02125136080961613, ,0.0008416979137427646, ,1.75, ,0.7446669607374614, ,0.38527785147241894, ,0.07144752147915348
63, ,PASS, ,0.07305875099999999, ,0.011228761656735945, ,0.02126962831856493, ,0.000836496727587415, ,1.75, ,0.7451511362440455, ,0.3849309197771474, ,0.07775351523438297
64, ,PASS, ,0.072986375, ,0.011171402280510702, ,0.02134446161131406, ,0.0008312100130223751, ,1.75, ,0.7433826459925722, ,0.38486969653680536, ,0.07003938695128671
65, ,PASS, ,0.07278057900000001, ,0.011090016445283762, ,0.02139377084369707, ,0.0008227914227417342, ,1.75, ,0.7429087638890435, ,0.38607375359686535, ,0.07397808207995756
66, ,PASS, ,0.072412487, ,0.011056755164822912, ,0.021509888868043513, ,0.0008162284289816303, ,1.75, ,0.7429276305296725, ,0.38533907471276097, ,0.06954960102855044
67, ,PASS, ,0.072240936, ,0.010986960841693847, ,0.021762355102344855, ,0.0008091596881148365, ,1.75, ,0.7424177795730181, ,0.38566559866125183, ,0.07083528907573315
68, ,PASS, ,0.07224543000000003, ,0.01096816823771461, ,0.021531849680700394, ,0.0008075937912568681, ,1.75, ,0.742862502767257, ,0.38617579233076876, ,0.07442705250913247
69, ,PASS, ,0.07307091600000001, ,0.011187864663924222, ,0.021681894127119856, ,0.0008334860853984879, ,1.75, ,0.7455345017379189, ,0.38491051203036675, ,0.08010040611416093
70, ,PASS, ,0.07199825900000001, ,0.011007357908713078, ,0.02146934730325912, ,0.0008079167173250819, ,1.75, ,0.7433430593576391, ,0.38609416134364605, ,0.07761066100691823
71, ,PASS, ,0.07149046900000003, ,0.010892506855256164, ,0.021690108170976104, ,0.0007937755158968926, ,1.75, ,0.7416054387675162, ,0.3858900838758393, ,0.07469235321728128
72, ,PASS, ,0.07162667200000003, ,0.010836390743340394, ,0.02156616248258199, ,0.0007911667333602315, ,1.75, ,0.7416584681341812, ,0.3868084324809698, ,0.07520254688679823
73, ,PASS, ,0.07149995299999999, ,0.010922324225503266, ,0.021627668084120737, ,0.0007962631930596794, ,1.75, ,0.743675051926186, ,0.385400297953103, ,0.07369237362502806
74, ,PASS, ,0.071492094, ,0.010896780439373956, ,0.02158519377912696, ,0.0007939340978778609, ,1.75, ,0.7429816840380358, ,0.3867676169874084, ,0.0776310687536989
75, ,PASS, ,0.071736794, ,0.010935307893623151, ,0.021516514450766314, ,0.0007996886819424627, ,1.75, ,0.7412609852285057, ,0.38535948245954166, ,0.07287606375380094
76, ,PASS, ,0.07142199300000002, ,0.010888137358147773, ,0.021626479282851375, ,0.0007927513405920669, ,1.75, ,0.7432251755395397, ,0.3862166078243301, ,0.07536580886104365
77, ,PASS, ,0.07201300700000002, ,0.010917039408551004, ,0.02179128983565642, ,0.000801197473481491, ,1.75, ,0.7408216897899317, ,0.3866247627599437, ,0.06997816371094467
78, ,PASS, ,0.07150709600000002, ,0.010870009649011374, ,0.021705751935429892, ,0.0007921333807814798, ,1.75, ,0.742343026154448, ,0.38719617966980263, ,0.07638619620007756
79, ,PASS, ,0.071414238, ,0.010885892128852404, ,0.02154539416260893, ,0.0007923534342602972, ,1.75, ,0.7424164442462413, ,0.38693087896165385, ,0.07224342360359992
80, ,PASS, ,0.07237903199999998, ,0.011038465956793466, ,0.021441462168567994, ,0.0008143891232402765, ,1.75, ,0.7425022854684749, ,0.38582886063549726, ,0.07263117079243281
81, ,PASS, ,0.07251394900000001, ,0.011099424319915759, ,0.021380597367053736, ,0.0008205418923649081, ,1.75, ,0.7428401343687714, ,0.38574722964837455, ,0.07587600253056061
82, ,PASS, ,0.07271511200000003, ,0.011131198620549917, ,0.021342370407257, ,0.000825271745520498, ,1.75, ,0.7429833750450958, ,0.3850737740046121, ,0.07587600253056061
83, ,PASS, ,0.07294655600000001, ,0.011164473837727019, ,0.021310355576029064, ,0.0008304045345288571, ,1.75, ,0.7441602788918904, ,0.38564519091447114, ,0.0781004469296545
84, ,PASS, ,0.07301303300000002, ,0.011215094843531085, ,0.021253076254688683, ,0.0008347783789932804, ,1.75, ,0.7442890036915406, ,0.38617579233076876, ,0.07952898920430196
85, ,PASS, ,0.07364089700000001, ,0.011207648048865329, ,0.02133492089449195, ,0.0008417394283873961, ,1.75, ,0.744166042878409, ,0.38574722964837455, ,0.0748556151915267
86, ,PASS, ,0.07349409199999998, ,0.011216745921568044, ,0.021419485237831885, ,0.0008406211440531216, ,1.75, ,0.7437795531703011, ,0.3855023366870064, ,0.0748556151915267
87, ,PASS, ,0.07352796000000002, ,0.011272078587350564, ,0.0212426467718618, ,0.0008452649105922944, ,1.75, ,0.7445691101399372, ,0.3855227444337871, ,0.07808003918287382
88, ,PASS, ,0.073869519, ,0.011266372406391367, ,0.02125703729460623, ,0.0008483135423468971, ,1.75, ,0.741945834433386, ,0.3859308993694006, ,0.07632497295973552
89, ,PASS, ,0.073702548, ,0.011293452999375887, ,0.021111067617354748, ,0.0008483580827032371, ,1.75, ,0.7419214040575822, ,0.385971714862962, ,0.07491683843186873
90, ,PASS, ,0.073621094, ,0.011306491031280409, ,0.021366586643762373, ,0.0008485634217222099, ,1.75, ,0.7430440479593718, ,0.3858492683822779, ,0.07654945817432297
91, ,PASS, ,0.07382959099999999, ,0.011237950147437874, ,0.021361513291565482, ,0.0008454478224709152, ,1.75, ,0.7408593278543355, ,0.38695128670843454, ,0.07628415746617416
92, ,PASS, ,0.07314301299999999, ,0.011193657630754542, ,0.021157831109365116, ,0.0008344132116974286, ,1.75, ,0.7414285274486581, ,0.3862370155711108, ,0.07442705250913247
93, ,PASS, ,0.073468802, ,0.01119713160819076, ,0.021423363882063635, ,0.0008384887682651856, ,1.75, ,0.7409404062923811, ,0.3866247627599437, ,0.0741209363074223
94, ,PASS, ,0.07334190100000003, ,0.01117861189223083, ,0.02138552858782474, ,0.0008354466095446695, ,1.75, ,0.7402336960901024, ,0.3870941409358993, ,0.07285565600702026
95, ,PASS, ,0.073271953, ,0.011205139653411175, ,0.021489911321687313, ,0.0008366007438700603, ,1.75, ,0.7407066661920422, ,0.38699210220199587, ,0.07583518703699925
96, ,PASS, ,0.073640219, ,0.011247941845502797, ,0.021363647849472464, ,0.0008440316365520126, ,1.75, ,0.7411826795833661, ,0.3870941409358993, ,0.0755086630885084
97, ,PASS, ,0.07344620000000002, ,0.011195469230131814, ,0.02114421772588315, ,0.0008377411933271694, ,1.75, ,0.7413527950798293, ,0.38737984939082876, ,0.07759025326013755
98, ,PASS, ,0.073384816, ,0.011209964312406435, ,0.02167143333748291, ,0.0008383893514721627, ,1.75, ,0.7409841741400502, ,0.38654313177282096, ,0.0752229546335789
99, ,PASS, ,0.073312342, ,0.01118392292794979, ,0.02173802144797045, ,0.0008355486494388108, ,1.75, ,0.7404069481710711, ,0.386665578253505, ,0.07589641027734127
100, ,PASS, ,0.072921987, ,0.011120432138126794, ,0.021283708638456363, ,0.0008259671934858523, ,1.8333333333333333, ,0.7389968697544285, ,0.38803289728781043, ,0.07287606375380094
101, ,PASS, ,0.073831397, ,0.011272017265710168, ,0.020788826748535747, ,0.0008477055917089936, ,1.75, ,0.7398745583368066, ,0.38786963531356505, ,0.07848819411848738
102, ,PASS, ,0.10825008999999997, ,0.01643579512067209, ,0.01699505683986041, ,0.0018214083852557052, ,1.75, ,0.7420530219480497, ,0.3741148139833881, ,0.06946797004142773
103, ,PASS, ,0.12550287999999998, ,0.0188996867928679, ,0.015012007306585584, ,0.002429469094786638, ,1.75, ,0.7359978581904543, ,0.3738291055284586, ,0.068753698904104
104, ,PASS, ,0.074310116, ,0.011300841025702732, ,0.021602800799412257, ,0.0008548264700910587, ,1.8333333333333333, ,0.7388744587411731, ,0.3901961184465623, ,0.0732025877022918
105, ,PASS, ,0.073323991, ,0.011136590459757345, ,0.02167413597728618, ,0.0008310802046592056, ,1.8333333333333333, ,0.7373891869205934, ,0.390849166343544, ,0.07303932572804636
106, ,PASS, ,0.073241731, ,0.01110027963094019, ,0.021463678112303833, ,0.0008274770277301915, ,1.8333333333333333, ,0.737852848415394, ,0.3900940797126589, ,0.07042713414011958
107, ,PASS, ,0.07347394399999999, ,0.011161996154249508, ,0.021604771126874964, ,0.00083496432179986, ,1.8333333333333333, ,0.739141545940941, ,0.3900940797126589, ,0.074773984204404
108, ,PASS, ,0.073878834, ,0.01124371031442084, ,0.021676921089141037, ,0.0008456114185042459, ,1.8333333333333333, ,0.7397179808526201, ,0.3901961184465623, ,0.07338625742331789
109, ,PASS, ,0.0740308, ,0.01124915011323236, ,0.021651060626823947, ,0.0008480627039103367, ,1.8333333333333333, ,0.7388296266688997, ,0.3896247015367033, ,0.07301891798126568
110, ,PASS, ,0.07417215500000002, ,0.011281804834305978, ,0.021498489102528523, ,0.0008520654556334162, ,1.8333333333333333, ,0.7397069270737395, ,0.3899512254851942, ,0.0731005489683884
111, ,PASS, ,0.07420368599999999, ,0.011314448943371327, ,0.021744377567314954, ,0.0008550738030422665, ,1.8333333333333333, ,0.7398203577194409, ,0.3889308381461603, ,0.07222301585681924
112, ,PASS, ,0.07424126799999997, ,0.011325518489388883, ,0.021220644056855986, ,0.0008563319160431039, ,1.8333333333333333, ,0.7401185414961067, ,0.3892165466010898, ,0.07263117079243281
113, ,PASS, ,0.074481045, ,0.011300907145600341, ,0.021375011065835392, ,0.0008574145490332097, ,1.8333333333333333, ,0.7385812416105308, ,0.38897165363972164, ,0.07510050815289483
114, ,PASS, ,0.07421651199999998, ,0.011290501703135032, ,0.02140442687185976, ,0.0008532708614599749, ,1.8333333333333333, ,0.7397035011608626, ,0.38940021632211586, ,0.07499846941899145
115, ,PASS, ,0.07417428699999998, ,0.011324163008909769, ,0.021796363291340996, ,0.0008554974063937129, ,1.8333333333333333, ,0.7417643528016856, ,0.38901246913328297, ,0.07748821452623415
116, ,PASS, ,0.074042474, ,0.011295514134195633, ,0.021260538208812067, ,0.0008522355433849073, ,1.8333333333333333, ,0.7411298509733987, ,0.38782881982000367, ,0.07248831656496806
117, ,PASS, ,0.07404681599999999, ,0.011264947795302509, ,0.02158522086134977, ,0.0008492484838166758, ,1.8333333333333333, ,0.7409569675393416, ,0.3892165466010898, ,0.07518213914001755
118, ,PASS, ,0.07354340600000002, ,0.01114824736136575, ,0.021384037668272078, ,0.000834480414904108, ,1.8333333333333333, ,0.7396078120460039, ,0.39017571069978163, ,0.07597804126446399
119, ,PASS, ,0.07319706999999999, ,0.011121240190704358, ,0.021888510676986186, ,0.0008290053982036768, ,1.8333333333333333, ,0.7387521393486824, ,0.38899206138650233, ,0.07167200669374095
120, ,PASS, ,0.072510453, ,0.011024486082774843, ,0.021387417231587113, ,0.0008139175417966023, ,1.8333333333333333, ,0.737462419593368, ,0.38905328462684435, ,0.07503928491255281
121, ,PASS, ,0.073160702, ,0.011066253705240892, ,0.021667772709434503, ,0.0008243996458045798, ,1.8333333333333333, ,0.7378911025206344, ,0.3896859247770454, ,0.07126385175812738
122, ,PASS, ,0.073000435, ,0.01102525704649872, ,0.021626659646190895, ,0.0008192600835731656, ,1.8333333333333333, ,0.7383468259564833, ,0.3904001959143691, ,0.07269239403277485
123, ,PASS, ,0.073136651, ,0.011075955769368337, ,0.02180642921322014, ,0.0008246745041629631, ,1.8333333333333333, ,0.739367395400679, ,0.389583886043142, ,0.07644741944041958
124, ,PASS, ,0.072404728, ,0.010965621173703161, ,0.021879340491500174, ,0.0008085781084422307, ,1.8333333333333333, ,0.738254705026439, ,0.3893798085753352, ,0.06926389257362095
125, ,PASS, ,0.072787394, ,0.011035691927577274, ,0.021574134839574707, ,0.0008178433101452309, ,1.8333333333333333, ,0.73847878829802, ,0.3895634782963613, ,0.0753249933674823
126, ,PASS, ,0.07307282000000001, ,0.011114172914195579, ,0.021600479062570153, ,0.0008270320792494255, ,1.8333333333333333, ,0.7377880021141486, ,0.3887879839186955, ,0.06781494255219281
127, ,PASS, ,0.073250539, ,0.011123827862270962, ,0.0213730700766515, ,0.0008300298845657576, ,1.8333333333333333, ,0.7367609525347502, ,0.38831860574273996, ,0.06908022285259484
128, ,PASS, ,0.07296257299999999, ,0.011059514945526388, ,0.021897619006632518, ,0.0008220942286216007, ,1.8333333333333333, ,0.7404594693132786, ,0.3882573825023979, ,0.07322299544907247
129, ,PASS, ,0.073496156, ,0.011164134341398386, ,0.021796680308646763, ,0.000835613606434474, ,1.8333333333333333, ,0.738923731933465, ,0.38862472194445014, ,0.07344748066365993
130, ,PASS, ,0.07394942499999999, ,0.011279378479952614, ,0.021617645399277564, ,0.0008495499042036428, ,1.8333333333333333, ,0.7387863809328161, ,0.38942062406889655, ,0.07244750107140671
131, ,PASS, ,0.073748968, ,0.011228805820541728, ,0.021626759976898433, ,0.0008434540719082804, ,1.8333333333333333, ,0.7396144954600907, ,0.3879512663006877, ,0.07332503418297585
132, ,PASS, ,0.073792657, ,0.011251684873885535, ,0.021814263629619805, ,0.0008457895048361085, ,1.8333333333333333, ,0.7400068759820306, ,0.3883594212363013, ,0.07256994755209077
133, ,PASS, ,0.074040384, ,0.011240307913118378, ,0.021436986388910433, ,0.0008475671187991567, ,1.8333333333333333, ,0.7398863025961367, ,0.3890941001204057, ,0.07397808207995756
134, ,PASS, ,0.073881612, ,0.011244552439368588, ,0.02160154862886472, ,0.0008463054285793554, ,1.8333333333333333, ,0.7395400372657215, ,0.3879920817942491, ,0.07334544192975653
135, ,PASS, ,0.07413837499999999, ,0.011254267996597374, ,0.021009775370727127, ,0.0008499642679220763, ,1.8333333333333333, ,0.7396030404583529, ,0.38831860574273996, ,0.07114140527744332
136, ,PASS, ,0.075573371, ,0.011569293750903188, ,0.021575866684700316, ,0.0008912353725459912, ,1.75, ,0.7435924082582512, ,0.38619620007754946, ,0.07418215954776433
137, ,PASS, ,0.07396964399999997, ,0.01116242421552119, ,0.021835110905348874, ,0.0008409984787780144, ,1.8333333333333333, ,0.7384258769001906, ,0.38868594518479216, ,0.0682843207281484
138, ,PASS, ,0.07312914, ,0.011080351979634619, ,0.021664622274831125, ,0.0008252631492837368, ,1.8333333333333333, ,0.7382649226763719, ,0.3888900226525989, ,0.07167200669374095
139, ,PASS, ,0.07283314, ,0.010951862511885577, ,0.02186684813189527, ,0.0008121116417484257, ,1.8333333333333333, ,0.7362111588788911, ,0.38978796351094874, ,0.07016183343197077
140, ,PASS, ,0.07275480600000003, ,0.010939377846709885, ,0.02188340597249036, ,0.000810312867145032, ,1.8333333333333333, ,0.7365871573342945, ,0.3896655170302647, ,0.06657006999857146
141, ,PASS, ,0.072795055, ,0.010906826844372051, ,0.02213499259949797, ,0.0008081752339649381, ,1.8333333333333333, ,0.7361942019275316, ,0.39027774943368504, ,0.0706924348482684
142, ,PASS, ,0.07237060499999998, ,0.01091495150911384, ,0.022167869253607073, ,0.0008044154369334025, ,1.8333333333333333, ,0.737834268973887, ,0.3891961388543091, ,0.07332503418297585
143, ,PASS, ,0.07233512200000002, ,0.010916609699619466, ,0.02223766283092182, ,0.0008038616027846395, ,1.8333333333333333, ,0.7355943685900234, ,0.38986959449807146, ,0.07024346441909349
144, ,PASS, ,0.07345179599999996, ,0.011166604433437224, ,0.021775164345054183, ,0.000835404991274594, ,1.8333333333333333, ,0.7391613466769419, ,0.388441052223424, ,0.07389645109283484
145, ,PASS, ,0.07268117999999997, ,0.010940351495215092, ,0.022069646697455158, ,0.0008092663334401174, ,1.8333333333333333, ,0.7352975159977467, ,0.3900940797126589, ,0.07044754188690026
146, ,PASS, ,0.0723144, ,0.01089041593497037, ,0.02169003801961185, ,0.0008017056489192182, ,1.8333333333333333, ,0.7355065041709123, ,0.3904001959143691, ,0.0686516601702006
147, ,PASS, ,0.07214776600000002, ,0.01090060462341606, ,0.0218005623727475, ,0.0008004945327558334, ,1.8333333333333333, ,0.7359538330357133, ,0.3900532642190976, ,0.07085569682251383
148, ,PASS, ,0.07248154800000002, ,0.010820594574530383, ,0.02198857592573621, ,0.0007979452372087513, ,1.8333333333333333, ,0.7343818085332068, ,0.391420583253403, ,0.06848839819595519
149, ,PASS, ,0.072839708, ,0.010964551576452378, ,0.021816224071080182, ,0.0008126826962625707, ,1.8333333333333333, ,0.7363025742655054, ,0.3904001959143691, ,0.0713454827452501
150, ,PASS, ,0.072868149, ,0.01099469598984946, ,0.021999170270769988, ,0.0008157433276450311, ,1.8333333333333333, ,0.7372524378480433, ,0.3896247015367033, ,0.06965163976245382
151, ,PASS, ,0.07313652200000001, ,0.011052599591444294, ,0.021824737113732375, ,0.0008227833753757258, ,1.8333333333333333, ,0.7377658804738582, ,0.39033897267402706, ,0.07150874471949552
152, ,PASS, ,0.07318417999999996, ,0.011069515535986873, ,0.021904764021244465, ,0.0008247357054945722, ,1.8333333333333333, ,0.7371050616642627, ,0.38997163323197487, ,0.07314136446194976
153, ,PASS, ,0.073408801, ,0.01107198232572919, ,0.02191429243876656, ,0.0008274249731946799, ,1.8333333333333333, ,0.7364402080155258, ,0.3901348952062203, ,0.06785575804575417
154, ,PASS, ,0.073394975, ,0.01110794140029419, ,0.021549032525928043, ,0.0008295848684433323, ,1.8333333333333333, ,0.7360693313303764, ,0.39025734168690435, ,0.07128425950490806
155, ,PASS, ,0.07375007399999998, ,0.011156838260628542, ,0.0216035530856105, ,0.0008377603189425038, ,1.8333333333333333, ,0.7378679697541631, ,0.38931858533499314, ,0.07071284259504908
156, ,PASS, ,0.07392296200000001, ,0.011176011682187516, ,0.02173190175220914, ,0.000841343781827554, ,1.8333333333333333, ,0.7379476941403378, ,0.38933899308177383, ,0.07159037570661823
157, ,PASS, ,0.073821785, ,0.011185315266642357, ,0.021750781332585054, ,0.0008408860507918244, ,1.8333333333333333, ,0.7371190175514124, ,0.38901246913328297, ,0.0690394073590335
158, ,PASS, ,0.07385044399999997, ,0.011153960551839178, ,0.021831590896818433, ,0.0008390019098421538, ,1.8333333333333333, ,0.7386280718038822, ,0.3892573620946511, ,0.07324340319585315
159, ,PASS, ,0.07392297399999997, ,0.011173599429015522, ,0.021768998145078673, ,0.0008414240330561428, ,1.8333333333333333, ,0.7379927510949403, ,0.3882573825023979, ,0.0706108038611457
160, ,PASS, ,0.07400883, ,0.011219553210839922, ,0.022045304801779558, ,0.0008457960107093054, ,1.8333333333333333, ,0.738581035461297, ,0.3889308381461603, ,0.0718964919083284
161, ,PASS, ,0.074313787, ,0.011266344612340379, ,0.02185827621511806, ,0.0008524642633486222, ,1.8333333333333333, ,0.7382388612307921, ,0.38942062406889655, ,0.07267198628599417
162, ,PASS, ,0.07432033700000001, ,0.011206217833888539, ,0.02177309318813902, ,0.0008481123956865688, ,1.8333333333333333, ,0.7394446017870331, ,0.3896859247770454, ,0.07408012081386094
163, ,PASS, ,0.07444620500000002, ,0.011268665608248473, ,0.02180470119683272, ,0.0008543333868106825, ,1.8333333333333333, ,0.7377655310171274, ,0.3892573620946511, ,0.07110058978388197
164, ,PASS, ,0.07471195199999998, ,0.011329318938177797, ,0.02169800988700231, ,0.0008620420422328186, ,1.8333333333333333, ,0.7387073739771226, ,0.38895124589294094, ,0.07283524826023959
165, ,PASS, ,0.07488952900000002, ,0.011407086975406048, ,0.021682750032489137, ,0.0008701985619453787, ,1.8333333333333333, ,0.7397551593294454, ,0.38897165363972164, ,0.07414134405420297
166, ,PASS, ,0.07440468399999998, ,0.011341283192140235, ,0.02158582645358258, ,0.0008592367156787055, ,1.8333333333333333, ,0.740305679946158, ,0.3895430705495806, ,0.07501887716577213
167, ,PASS, ,0.07450280999999999, ,0.0113106890781064, ,0.02186224294551132, ,0.0008581721414344755, ,1.8333333333333333, ,0.7383634539064896, ,0.389583886043142, ,0.07256994755209077
168, ,PASS, ,0.074646223, ,0.01125764629003536, ,0.021919208831615685, ,0.0008556172800810882, ,1.8333333333333333, ,0.7370127435875183, ,0.38942062406889655, ,0.06783535029897349
169, ,PASS, ,0.074336366, ,0.011287848337864004, ,0.021927108920838354, ,0.0008544093117949582, ,1.8333333333333333, ,0.7384786691100059, ,0.38901246913328297, ,0.06999857145772535
170, ,PASS, ,0.07365934399999999, ,0.01112840051651249, ,0.021722295473929107, ,0.0008343991041433674, ,1.8333333333333333, ,0.7352534830899409, ,0.3903797881675884, ,0.07071284259504908
171, ,PASS, ,0.073646548, ,0.011159995794633613, ,0.021453713693414422, ,0.0008366552402827759, ,1.8333333333333333, ,0.7364949210648918, ,0.3905634578886145, ,0.07277402501989755
172, ,PASS, ,0.07352672299999999, ,0.011053305649057262, ,0.021796475016530273, ,0.0008270567323914586, ,1.8333333333333333, ,0.7354962344771198, ,0.3905838656353952, ,0.06877410665088468
173, ,PASS, ,0.07330816799999999, ,0.011001425871600794, ,0.021957133745576625, ,0.0008204526132675432, ,1.8333333333333333, ,0.7326744627221508, ,0.3912573212791576, ,0.06585579886124773
174, ,PASS, ,0.073084649, ,0.01097948296422274, ,0.021722130890920593, ,0.0008164908424895054, ,1.8333333333333333, ,0.7333652764421157, ,0.3909512050774474, ,0.06601906083549315
175, ,PASS, ,0.07271712099999998, ,0.010967128040609819, ,0.02185768098632681, ,0.0008113113270615452, ,1.8333333333333333, ,0.7348620512102406, ,0.390910389583886, ,0.06983530948347993
176, ,PASS, ,0.07460645700000001, ,0.011247454431314065, ,0.021764921257627398, ,0.0008538005996014834, ,1.8333333333333333, ,0.7352966356522029, ,0.391420583253403, ,0.07073325034182976
177, ,PASS, ,0.10790449999999999, ,0.016476456901059106, ,0.017402910348156157, ,0.0018189380238196142, ,1.75, ,0.7457511719330023, ,0.37470663864002773, ,0.07293728699414298
178, ,PASS, ,0.12629867, ,0.01890775315990288, ,0.015058253387073737, ,0.002445581915670669, ,1.75, ,0.7345073170425017, ,0.37415562947694947, ,0.07026387216587417
179, ,PASS, ,0.06908325400000001, ,0.010465424087031942, ,0.02221647396867411, ,0.00073533303317343, ,1.8333333333333333, ,0.7361371302594972, ,0.3934613579314708, ,0.06803942776678026
180, ,PASS, ,0.06779987, ,0.01021539672334752, ,0.022562487754249915, ,0.0007041416998422381, ,1.8333333333333333, ,0.7347778397887641, ,0.3943797065366013, ,0.06559049815309892
181, ,PASS, ,0.06785553799999999, ,0.010245913115028347, ,0.02255906039588988, ,0.0007071535574418956, ,1.8333333333333333, ,0.736836561151598, ,0.3930736107426379, ,0.0697740862431379
182, ,PASS, ,0.067853577, ,0.010274819861447735, ,0.022262303296585784, ,0.000708811057507659, ,1.8333333333333333, ,0.7368577690793444, ,0.3939307361074264, ,0.07256994755209077
183, ,PASS, ,0.06856535600000002, ,0.010411917367311261, ,0.022419044723556665, ,0.0007264531894260909, ,1.8333333333333333, ,0.7381338463693681, ,0.392563417073121, ,0.07142711373237282
184, ,PASS, ,0.0684408, ,0.010390949324438369, ,0.02240202727576988, ,0.0007238700879693073, ,1.8333333333333333, ,0.7378575652211333, ,0.3918695536825779, ,0.06895777637191078
185, ,PASS, ,0.068735025, ,0.010452596719551087, ,0.02232605015232342, ,0.0007315133632410064, ,1.8333333333333333, ,0.7395027064838632, ,0.3912165057855962, ,0.07114140527744332
186, ,PASS, ,0.06839691200000003, ,0.010431040759385331, ,0.022488868217444544, ,0.0007260963146273804, ,1.8333333333333333, ,0.7399071515643126, ,0.39211444664394607, ,0.07575355604987653
187, ,PASS, ,0.06837245700000001, ,0.010451406111678883, ,0.022152499056651904, ,0.0007274392454743688, ,1.8333333333333333, ,0.7407555980467927, ,0.39158384522764844, ,0.07428419828166773
188, ,PASS, ,0.06862543100000001, ,0.01050158505112586, ,0.022393320073876042, ,0.0007337633523871963, ,1.8333333333333333, ,0.7415671339470973, ,0.39070631211607926, ,0.07405971306708026
189, ,PASS, ,0.06895960400000005, ,0.010493872721016274, ,0.022292604952143837, ,0.000736795566586873, ,1.8333333333333333, ,0.7384485299033525, ,0.39025734168690435, ,0.07020264892553213
190, ,PASS, ,0.068332058, ,0.010443407785441462, ,0.02229200697738822, ,0.0007264785343297488, ,1.8333333333333333, ,0.7409190142347575, ,0.39158384522764844, ,0.07683516662925247
191, ,PASS, ,0.067819562, ,0.010385044525877974, ,0.022114284529703473, ,0.0007170554989287737, ,1.8333333333333333, ,0.7398045823678978, ,0.3912165057855962, ,0.06859043692985857
192, ,PASS, ,0.06840395800000001, ,0.010409267478507029, ,0.02243712741470582, ,0.000724961654537623, ,1.8333333333333333, ,0.7408602967234995, ,0.3909716128242281, ,0.07401889757351891
193, ,PASS, ,0.068013774, ,0.010385235832268849, ,0.022393251622987283, ,0.0007192623674726015, ,1.8333333333333333, ,0.7407038848641502, ,0.3901144874594396, ,0.07379441235893144
194, ,PASS, ,0.06743243799999998, ,0.010292966448236275, ,0.02237779095242954, ,0.0007064075632894691, ,1.8333333333333333, ,0.7421691247272175, ,0.3912981367727189, ,0.07675353564212975
195, ,PASS, ,0.067385507, ,0.010296171495860082, ,0.022338121456541703, ,0.0007064018571462321, ,1.8333333333333333, ,0.7392875062061042, ,0.3904001959143691, ,0.06759045733760535
196, ,PASS, ,0.067207783, ,0.010235707899181963, ,0.02220050073961756, ,0.0007002669897257841, ,1.8333333333333333, ,0.7380001193595999, ,0.3908695740903247, ,0.07063121160792638
197, ,PASS, ,0.06695936699999999, ,0.010171821300330524, ,0.022464799296483744, ,0.0006930628809159205, ,1.8333333333333333, ,0.7388098412376745, ,0.39191036917613925, ,0.07399848982673823
198, ,PASS, ,0.06670434, ,0.010002653333437242, ,0.02245666352758107, ,0.0006787862975551267, ,1.8333333333333333, ,0.7334078789882623, ,0.39154302973408706, ,0.06685577845350095
199, ,PASS, ,0.06602501899999999, ,0.009912953456713254, ,0.02272326325721924, ,0.0006656079588880982, ,1.8333333333333333, ,0.7358727606441733, ,0.393257280463664, ,0.07159037570661823
200, ,PASS, ,0.06560159599999998, ,0.009911794280220328, ,0.022526802924511743, ,0.0006614368191996365, ,1.8333333333333333, ,0.7352800454288471, ,0.39266545580702433, ,0.07299851023448502
201, ,PASS, ,0.06604728699999998, ,0.009959276775161808, ,0.022600269658313094, ,0.0006693332106624623, ,1.8333333333333333, ,0.7377878036722977, ,0.39199200016326197, ,0.07191689965510908
202, ,PASS, ,0.06634760299999999, ,0.010025358861760944, ,0.022850406019958778, ,0.0006769779888612438, ,1.8333333333333333, ,0.7364900950307208, ,0.39109405930491214, ,0.06752923409726332
203, ,PASS, ,0.066426531, ,0.010014890240650944, ,0.022557565906512114, ,0.0006770537936479571, ,1.8333333333333333, ,0.73584834029639, ,0.3917062917083325, ,0.06630476929042264
204, ,PASS, ,0.06656932399999999, ,0.010089061309189124, ,0.022652377113242587, ,0.0006834303547621738, ,1.8333333333333333, ,0.7374574801741327, ,0.39107365155813145, ,0.06834554396849044
205, ,PASS, ,0.06654135399999998, ,0.010057939351585601, ,0.022590295802514232, ,0.0006810924372135255, ,1.8333333333333333, ,0.7359249591733582, ,0.390910389583886, ,0.06640680802432604
206, ,PASS, ,0.06634227499999999, ,0.010008063898809972, ,0.022705062995204178, ,0.0006755727091980123, ,1.8333333333333333, ,0.736714570889682, ,0.3917471072018938, ,0.07083528907573315
207, ,PASS, ,0.06622315599999999, ,0.00999268235066871, ,0.022524724718903693, ,0.0006732297451593998, ,1.8333333333333333, ,0.7348124889345561, ,0.39162466072120977, ,0.06863125242341993
208, ,PASS, ,0.06618948799999999, ,0.010010815036951526, ,0.022707151994326644, ,0.0006742231339258441, ,1.8333333333333333, ,0.7356838632023636, ,0.39127772902593827, ,0.06234566641497112
209, ,PASS, ,0.06602984599999999, ,0.010010438974193504, ,0.022697933877798414, ,0.0006725814018093468, ,1.8333333333333333, ,0.7382563107917995, ,0.39158384522764844, ,0.06940674680108569
210, ,PASS, ,0.06641426300000002, ,0.010061591045134906, ,0.022480373172894433, ,0.0006802007974162185, ,1.8333333333333333, ,0.7369054339672183, ,0.3905634578886145, ,0.07075365808861044
211, ,PASS, ,0.067421267, ,0.01027751087430029, ,0.02234611839640007, ,0.0007055487400744718, ,1.8333333333333333, ,0.7406309147054573, ,0.3905022346482725, ,0.07440664476235179
212, ,PASS, ,0.06655480999999999, ,0.010066013367553986, ,0.022617832322238324, ,0.0006819885621798744, ,1.8333333333333333, ,0.7376416902950095, ,0.3910532438113508, ,0.07183526866798637
213, ,PASS, ,0.06632170399999998, ,0.010089251555495353, ,0.022174235205342747, ,0.000681043705043149, ,1.8333333333333333, ,0.7375345789138965, ,0.3906654966225179, ,0.0731005489683884
214, ,PASS, ,0.066651829, ,0.01012891335950298, ,0.022588875169874085, ,0.0006872345385890708, ,1.8333333333333333, ,0.7377867252742164, ,0.39064508887573723, ,0.06887614538478806
215, ,PASS, ,0.06699996899999999, ,0.01017859776077303, ,0.02256649639188996, ,0.0006941750152342691, ,1.8333333333333333, ,0.7393910269563726, ,0.390787943103202, ,0.07577396379665721
216, ,PASS, ,0.06731571199999999, ,0.01024180267360893, ,0.022403408338380847, ,0.0007018685740976807, ,1.8333333333333333, ,0.7385307342562002, ,0.3900328564723169, ,0.0705087651272423
217, ,PASS, ,0.06750808300000001, ,0.010217412021462128, ,0.02233476077167813, ,0.0007020424183820974, ,1.8333333333333333, ,0.7396811436932668, ,0.390849166343544, ,0.07505969265933349
218, ,PASS, ,0.06716648, ,0.01018343511791435, ,0.022373840664068077, ,0.0006964171245831355, ,1.8333333333333333, ,0.7387358696516488, ,0.38980837125772944, ,0.0732025877022918
219, ,PASS, ,0.067978866, ,0.010406182947920119, ,0.02207763545050101, ,0.0007207407031552672, ,1.8333333333333333, ,0.7423999717851832, ,0.3884206444766433, ,0.07546784759494704
220, ,PASS, ,0.066995565, ,0.010174387782500339, ,0.022562508650374482, ,0.0006940705871516127, ,1.8333333333333333, ,0.7379777594255158, ,0.389706332523826, ,0.07410052856064162
221, ,PASS, ,0.06667044499999998, ,0.010122748604005534, ,0.022486746226117835, ,0.0006870969661171825, ,1.8333333333333333, ,0.7387482098788607, ,0.38989000224485215, ,0.07142711373237282
222, ,PASS, ,0.06667777100000001, ,0.010082579617560438, ,0.022514069108201872, ,0.0006843702713087373, ,1.8333333333333333, ,0.7366793517266141, ,0.3905430501418338, ,0.06677414746637823
223, ,PASS, ,0.06632836399999999, ,0.010048152546121823, ,0.022280464708618188, ,0.0006783407259009721, ,1.8333333333333333, ,0.7381055110395208, ,0.3905838656353952, ,0.0721822003632579
224, ,PASS, ,0.066292922, ,0.010078423122087617, ,0.0224980309014714, ,0.0006800801928460239, ,1.8333333333333333, ,0.7380811002090996, ,0.39025734168690435, ,0.07461072223015856
225, ,PASS, ,0.066139755, ,0.010020564753409913, ,0.022621689856860066, ,0.0006747755596261874, ,1.8333333333333333, ,0.737221469746293, ,0.39060427338217585, ,0.06818228199424502
226, ,PASS, ,0.06642706, ,0.010019838853598754, ,0.022456777752494845, ,0.00067737469130693, ,1.8333333333333333, ,0.7373947066217996, ,0.3912165057855962, ,0.07201893838901247
227, ,PASS, ,0.066379701, ,0.010066891320530383, ,0.022224204535438052, ,0.00068042591127386, ,1.8333333333333333, ,0.7370772070972804, ,0.3896655170302647, ,0.0707944735821718
228, ,PASS, ,0.06645491799999999, ,0.010058388046063984, ,0.022378499540458358, ,0.000680462888090436, ,1.8333333333333333, ,0.7365902196964816, ,0.38984918675129077, ,0.07038631864655823
229, ,PASS, ,0.06628957799999999, ,0.010020999511591229, ,0.022470231733617677, ,0.0006760216984717226, ,1.8333333333333333, ,0.7371195849031166, ,0.39068590436929856, ,0.07073325034182976
230, ,PASS, ,0.06583841499999998, ,0.009915730480139917, ,0.02240366135393155, ,0.0006647282439794059, ,1.8333333333333333, ,0.7352784603991158, ,0.3901961184465623, ,0.06577416787412502
231, ,PASS, ,0.06536497999999999, ,0.009917965422425136, ,0.022295321794004203, ,0.0006600570047309738, ,1.8333333333333333, ,0.7381936282592494, ,0.390216526193343, ,0.07379441235893144
232, ,PASS, ,0.06549129299999999, ,0.00995327477846461, ,0.02261088671427114, ,0.0006637330931210984, ,1.8333333333333333, ,0.7386323689422296, ,0.3900328564723169, ,0.07577396379665721
233, ,PASS, ,0.06584618499999999, ,0.0099631564821758, ,0.022729895387665556, ,0.0006679593113317945, ,1.8333333333333333, ,0.7367230184311433, ,0.3899512254851942, ,0.07150874471949552
234, ,PASS, ,0.065797315, ,0.009981669256749998, ,0.02242318983437073, ,0.000668888238312911, ,1.8333333333333333, ,0.7387791742003778, ,0.38940021632211586, ,0.07259035529887145
235, ,PASS, ,0.06540054299999998, ,0.009935734039703097, ,0.0222055799573274, ,0.0006615326490741792, ,1.8333333333333333, ,0.7369339018600527, ,0.3895430705495806, ,0.06969245525601518
236, ,PASS, ,0.066320798, ,0.010055526892878782, ,0.022614969542601174, ,0.0006788947756766478, ,1.8333333333333333, ,0.7363104543924807, ,0.38980837125772944, ,0.07001897920450603
237, ,PASS, ,0.06652039599999998, ,0.00999770316336301, ,0.022458278495051123, ,0.0006767224583141486, ,1.8333333333333333, ,0.7349739746459295, ,0.3908287585967633, ,0.06583539111446705
238, ,PASS, ,0.06574242999999999, ,0.00993033807022867, ,0.022356260997591887, ,0.0006643972119635741, ,1.8333333333333333, ,0.7356719102115987, ,0.39080835084998267, ,0.07216179261647722
239, ,PASS, ,0.065507306, ,0.00988116923686342, ,0.022767769001102018, ,0.0006588922330984707, ,1.8333333333333333, ,0.73605711508097, ,0.3909512050774474, ,0.06989653272382196
240, ,PASS, ,0.06581931599999999, ,0.00991079532401935, ,0.022786853259464092, ,0.0006637438891713224, ,1.8333333333333333, ,0.7356738779778651, ,0.39099202057100874, ,0.07220260811003858
241, ,PASS, ,0.06579494199999998, ,0.009966577417014066, ,0.02238115366765984, ,0.0006673609459055228, ,1.8333333333333333, ,0.7372186774041126, ,0.3912369135323769, ,0.07263117079243281
242, ,PASS, ,0.06562341099999998, ,0.009959505270507278, ,0.022536312752372403, ,0.0006653593585283507, ,1.8333333333333333, ,0.7367892663303758, ,0.3905022346482725, ,0.07201893838901247
243, ,PASS, ,0.06612837699999999, ,0.009979508150560257, ,0.022644458036325785, ,0.0006714793758189879, ,1.8333333333333333, ,0.7346166136668619, ,0.3909512050774474, ,0.06761086508438603
244, ,PASS, ,0.066175409, ,0.010022870629573497, ,0.02249243068898594, ,0.0006750552425910508, ,1.8333333333333333, ,0.7366919962498908, ,0.3905226423950532, ,0.07230464684394196
245, ,PASS, ,0.06618754799999998, ,0.010000355615270328, ,0.022200531971449562, ,0.0006741033846725436, ,1.8333333333333333, ,0.7362021576456426, ,0.39044101140793047, ,0.07140670598559214
246, ,PASS, ,0.06607698699999999, ,0.010007376996046346, ,0.022365117300361215, ,0.000673208029349813, ,1.8333333333333333, ,0.7370202300354672, ,0.3908287585967633, ,0.07173322993408297
247, ,PASS, ,0.066664066, ,0.010068237692996229, ,0.022645789025958655, ,0.0006830860111402086, ,1.8333333333333333, ,0.7373433482316776, ,0.39064508887573723, ,0.06654966225179078
248, ,PASS, ,0.066367967, ,0.01006374258991356, ,0.022737591550172444, ,0.0006797069746225685, ,1.8333333333333333, ,0.7362434584929581, ,0.390849166343544, ,0.07293728699414298
249, ,PASS, ,0.066557807, ,0.010085935489245627, ,0.0225014351915267, ,0.0006833830272932856, ,1.8333333333333333, ,0.7363068105553352, ,0.3909716128242281, ,0.07336584967653721
250, ,PASS, ,0.066825415, ,0.010099214581162579, ,0.022605134699985714, ,0.0006867555354425904, ,1.8333333333333333, ,0.7353122278094386, ,0.3905838656353952, ,0.07030468765943552
251, ,PASS, ,0.06768253499999999, ,0.010256051276619674, ,0.02228724463717067, ,0.0007064800234513096, ,1.8333333333333333, ,0.7373819002802535, ,0.3908287585967633, ,0.07654945817432297
252, ,PASS, ,0.09823193999999998, ,0.014815399768283732, ,0.01824417459786535, ,0.0014898576197593253, ,1.75, ,0.7414073137080006, ,0.3742780759576335, ,0.07144752147915348
253, ,PASS, ,0.13917320999999996, ,0.019967233489045527, ,0.013605202439562453, ,0.002849352299935566, ,1.75, ,0.7052703470650349, ,0.37362502806065184, ,0.06438644109303891
254, ,PASS, ,0.09717246999999998, ,0.014066069168163135, ,0.018309228496949045, ,0.0013999386057856808, ,1.75, ,0.715158634571965, ,0.3741760372237301, ,0.0645905185608457
255, ,PASS, ,0.09570754000000001, ,0.013839135092452081, ,0.018484184683128915, ,0.0013569328381443215, ,1.75, ,0.7142064983701176, ,0.37415562947694947, ,0.06524356645782739
