Channel, ,Pass/Fail, ,Amplitude, ,Sorting Function Response, ,Mean, ,Variance
0, ,PASS, ,0.041162549230913, ,0.028244233095821875, ,0.0015916694894239033, ,0.00023794708448099397
1, ,PASS, ,0.04059947296215399, ,0.027584111884348544, ,0.0015645861118571117, ,0.0002292466074954387
2, ,PASS, ,0.040774128368210996, ,0.027530759117747734, ,0.0015247663619695022, ,0.0002297852615830696
3, ,PASS, ,0.04060373348947, ,0.027393168297320938, ,0.001610168329775823, ,0.00022764437279339705
4, ,PASS, ,0.04039235687228, ,0.02726782809505989, ,0.0015804588090020594, ,0.00022543411742715843
5, ,PASS, ,0.040505833507658996, ,0.027267070856601273, ,0.0015320227689038385, ,0.0002260561606104049
6, ,PASS, ,0.040457903597564, ,0.027214395513759416, ,0.0015695038280693914, ,0.00022534265890615093
7, ,PASS, ,0.040304473526746, ,0.027093573167680553, ,0.0016141746274013166, ,0.00022350326821808918
8, ,PASS, ,0.040318291889789, ,0.027110718086106808, ,0.0016172693823069562, ,0.0002237109698561055
9, ,PASS, ,0.04025504538398599, ,0.027087048801631528, ,0.0016704887113433032, ,0.0002231687546589904
10, ,PASS, ,0.040276196068825994, ,0.027087566062100107, ,0.0015673263594202266, ,0.0002232867419488124
11, ,PASS, ,0.040249888119328, ,0.027183024089746727, ,0.0016040608162230122, ,0.00022393182279329215
12, ,PASS, ,0.040269913279523006, ,0.027205182790007238, ,0.0016205947952185678, ,0.00022422672761316336
13, ,PASS, ,0.040372466639372995, ,0.02727652843228053, ,0.001620970884136447, ,0.00022538641462556958
14, ,PASS, ,0.040436585789383, ,0.02743368126670362, ,0.0016011168306682986, ,0.00022704827303417173
15, ,PASS, ,0.041429893053404, ,0.02872305118559247, ,0.001751248233170875, ,0.00024362331174595413
16, ,PASS, ,0.04074043699804201, ,0.027852101253972847, ,0.001665085865166234, ,0.0002322529651455725
17, ,PASS, ,0.040512236844448005, ,0.027385888404842074, ,0.0016049206378160688, ,0.00022707002294960422
18, ,PASS, ,0.040341790108104, ,0.027297149016514404, ,0.0015876854861937347, ,0.00022537688561604868
19, ,PASS, ,0.040265277874937, ,0.02723465636725252, ,0.0015603244169200517, ,0.00022443210346885387
20, ,PASS, ,0.040336431234999, ,0.027366871905982894, ,0.0016304638867189023, ,0.00022596347864404498
21, ,PASS, ,0.040388826915305015, ,0.02737921198680869, ,0.0015674234887689252, ,0.00022631131451908667
22, ,PASS, ,0.040489587451028, ,0.02741414522099751, ,0.0016102437984292807, ,0.00022717295708096815
23, ,PASS, ,0.040819178600395994, ,0.027967900984537344, ,0.0017089481759845484, ,0.0002336652424579766
24, ,PASS, ,0.04072650097210599, ,0.02769894745163345, ,0.001577816179634245, ,0.0002308897071142075
25, ,PASS, ,0.040499745941283, ,0.02720589198448405, ,0.0015811393222077666, ,0.00022547328851209644
26, ,PASS, ,0.040274559829336004, ,0.026960171769023395, ,0.0015781606144100598, ,0.0002222086040892169
27, ,PASS, ,0.040188232323741, ,0.026856321087244107, ,0.0015783399597948198, ,0.00022087076241153025
28, ,PASS, ,0.04018338163643599, ,0.026699728325241576, ,0.0015538198053092814, ,0.00021954755574669246
29, ,PASS, ,0.040309390016517996, ,0.026823678242314485, ,0.0015728173911288546, ,0.0002212662422657256
30, ,PASS, ,0.040391182927229, ,0.027034406545857297, ,0.0015544217928815406, ,0.00022345449007067444
31, ,PASS, ,0.040419650810318, ,0.026914132979515934, ,0.0015848594496836134, ,0.00022260709593731987
32, ,PASS, ,0.04056290952949, ,0.027168087380001007, ,0.0015834295739738592, ,0.0002255057987427227
33, ,PASS, ,0.040773567987481, ,0.02728221576609878, ,0.0016048550768519897, ,0.00022764179661153498
34, ,PASS, ,0.041004644615944, ,0.027548248982052326, ,0.0015899329572833752, ,0.00023116826346564534
35, ,PASS, ,0.04177136032848899, ,0.028075251023552305, ,0.0015894370136838787, ,0.00023997801718740486
36, ,PASS, ,0.041366903656179, ,0.027785910369664903, ,0.0016641169202061456, ,0.0002352293877855088
37, ,PASS, ,0.04154248771078099, ,0.027941319019261692, ,0.0016830049476362948, ,0.00023757233404956573
38, ,PASS, ,0.041951109644233, ,0.028190589936359194, ,0.0016430071140942225, ,0.0002420155963828557
39, ,PASS, ,0.044791410608445006, ,0.030363025093577006, ,0.0017473782912701596, ,0.0002782473797116689
40, ,PASS, ,0.12488856510672, ,0.09565218988381095, ,0.005842092567355025, ,0.0024490145183303025
41, ,PASS, ,0.04688795622366601, ,0.03198751996808909, ,0.0018267447268631898, ,0.0003070535678204662
42, ,PASS, ,0.040972056995281, ,0.026209783148285013, ,0.0014743268237648168, ,0.00021988923118970876
43, ,PASS, ,0.040412018937497, ,0.025805280268324682, ,0.0014945923333311059, ,0.0002135844009147579
44, ,PASS, ,0.040328161478030006, ,0.025856325381847543, ,0.0014587462439153375, ,0.0002135657496730841
45, ,PASS, ,0.040231864629537, ,0.025794406647748666, ,0.001465291073888874, ,0.00021253247479494593
46, ,PASS, ,0.040258584157425996, ,0.02571189935679639, ,0.0015227720598541673, ,0.00021198622372283212
47, ,PASS, ,0.040205296979006, ,0.02561452097417253, ,0.0014775568085396542, ,0.00021089926686885583
48, ,PASS, ,0.040063823761773004, ,0.025364525044617243, ,0.0014818042673757816, ,0.00020811641014434988
49, ,PASS, ,0.04000239717024901, ,0.025357079030105992, ,0.0014837430130087376, ,0.00020773533632671083
50, ,PASS, ,0.040003833423138, ,0.025418438258500292, ,0.0015076228414255544, ,0.00020825711614894443
51, ,PASS, ,0.039906353488977, ,0.025308698401722417, ,0.0015252897384192428, ,0.0002068501765814248
52, ,PASS, ,0.040034388686528005, ,0.025611848900235813, ,0.0015425804852723145, ,0.00020999888033031844
53, ,PASS, ,0.040072635649514, ,0.025710494664924626, ,0.0014911580446213275, ,0.0002110009518734739
54, ,PASS, ,0.040094252331968, ,0.02577476807537892, ,0.0014131703593635633, ,0.00021162407368584512
55, ,PASS, ,0.040115517641437004, ,0.02575630990794065, ,0.0015625729501619469, ,0.00021160027192007
56, ,PASS, ,0.039872851293335, ,0.025573440009031823, ,0.0014900962505031846, ,0.00020883376193422452
57, ,PASS, ,0.039877422335095, ,0.02548501926935018, ,0.0015236715220186255, ,0.00020810511775067592
58, ,PASS, ,0.03970591502196, ,0.025463344551103797, ,0.001423611104130219, ,0.00020703968343712306
59, ,PASS, ,0.039755569159523996, ,0.025465823468332306, ,0.001531380141321293, ,0.00020731142753446866
60, ,PASS, ,0.04009061778845399, ,0.025574919802135426, ,0.001488568087431399, ,0.00020994536147186702
61, ,PASS, ,0.040152232859894, ,0.02562951978531266, ,0.0014733273432407886, ,0.0002107223174381059
62, ,PASS, ,0.03999530282267, ,0.025629592755455108, ,0.0014783814352702213, ,0.00020992789719055885
63, ,PASS, ,0.04023785348943, ,0.025850028381235148, ,0.001472883633604987, ,0.00021299063890576375
64, ,PASS, ,0.040288142475612, ,0.026068442370777028, ,0.0014837967844585727, ,0.00021506676627069238
65, ,PASS, ,0.04009284326184799, ,0.025952732476208818, ,0.0014821097264135113, ,0.00021307102157999436
66, ,PASS, ,0.040272780978175, ,0.026000420680417944, ,0.0015191650263627243, ,0.00021442358624432445
67, ,PASS, ,0.04020389871574101, ,0.02597036556769852, ,0.001506506439541773, ,0.00021379658607356152
68, ,PASS, ,0.040098373060937, ,0.025735875638594825, ,0.0014998995578503595, ,0.00021131612838942964
69, ,PASS, ,0.040142723704824995, ,0.025736965522862764, ,0.0014974976875596205, ,0.00021153493798233068
70, ,PASS, ,0.040101204801278996, ,0.025668866550902437, ,0.0014712946136891827, ,0.00021077156365906214
71, ,PASS, ,0.040029319130025, ,0.025637120178108083, ,0.0014665562310070494, ,0.00021015389039925227
72, ,PASS, ,0.040116093663638, ,0.025788885319446335, ,0.0013865575586592535, ,0.00021183527417573895
73, ,PASS, ,0.040299847541604, ,0.026191820263060755, ,0.0015397074819333907, ,0.00021617417670805598
74, ,PASS, ,0.040159822984872, ,0.02600750240591128, ,0.0014999604147302819, ,0.00021389473917066614
75, ,PASS, ,0.039749183481703, ,0.025342673975211626, ,0.0014283398212836616, ,0.0002062773541326213
76, ,PASS, ,0.039625842381988005, ,0.024979969593516893, ,0.0014540745984379167, ,0.00020269982410343914
77, ,PASS, ,0.039648965841647996, ,0.024849739464301333, ,0.00143305000144799, ,0.00020172812704082665
78, ,PASS, ,0.03963136336397101, ,0.024864776886222757, ,0.001359742537676487, ,0.00020178555833985193
79, ,PASS, ,0.039538066909001995, ,0.024842788197618374, ,0.0013894089618984192, ,0.00020113293908153565
80, ,PASS, ,0.039899632322734996, ,0.025292435864736906, ,0.0014227963044624763, ,0.0002066537019561749
81, ,PASS, ,0.040121416481452, ,0.025733097877879745, ,0.0014858747789826168, ,0.0002114375482615918
82, ,PASS, ,0.040170817441603, ,0.02594159878709417, ,0.0014833009964923408, ,0.00021341180095615754
83, ,PASS, ,0.040081421728202005, ,0.025579492095383315, ,0.0014768151463238131, ,0.00020993620410654723
84, ,PASS, ,0.040262130347097996, ,0.025475378421068673, ,0.0014544681251477767, ,0.00021001713559428182
85, ,PASS, ,0.040242029191925, ,0.02549122707176409, ,0.0014724401676897182, ,0.00021003726273412568
86, ,PASS, ,0.04021483396464, ,0.025537421815748057, ,0.0015090043886783434, ,0.00021029436924801815
87, ,PASS, ,0.04041296866116, ,0.025712109880788994, ,0.0014471416790562536, ,0.00021276901275720412
88, ,PASS, ,0.04054510945963799, ,0.026085770961119036, ,0.0014847737145109279, ,0.00021657992402957839
89, ,PASS, ,0.040635439516737995, ,0.026121132288240922, ,0.0014611654143125445, ,0.00021735479262054616
90, ,PASS, ,0.040445805041898, ,0.026026113759628683, ,0.0014635645645694347, ,0.00021554765104816163
91, ,PASS, ,0.04025597049499001, ,0.02581653421791726, ,0.0014771925838711134, ,0.00021280006517832462
92, ,PASS, ,0.04046183208105599, ,0.026007697212810103, ,0.001474244651955816, ,0.0002154742937459107
93, ,PASS, ,0.04051703972618101, ,0.02606496708490018, ,0.0014331104181970716, ,0.00021623817433394002
94, ,PASS, ,0.040397846074305, ,0.02604580281346717, ,0.0014890338108308789, ,0.00021544724849610776
95, ,PASS, ,0.040246850394569, ,0.02586273379073371, ,0.0015406189934614619, ,0.0002131293403877605
96, ,PASS, ,0.04021041200146201, ,0.025648056864538252, ,0.0014819377188877254, ,0.0002111760824032969
97, ,PASS, ,0.04016077780427199, ,0.0255849973184977, ,0.0014716866604969111, ,0.00021040252993221922
98, ,PASS, ,0.040115860103079, ,0.025515059360580118, ,0.0014308963466199518, ,0.00020960331404123303
99, ,PASS, ,0.040089129682794, ,0.025533791583083738, ,0.0014637416947226075, ,0.0002095886336776962
100, ,PASS, ,0.040053649070902, ,0.02566232026390164, ,0.0014325095125576072, ,0.00021048271080614453
101, ,PASS, ,0.040164467017454, ,0.02564913053552392, ,0.0014410017019331816, ,0.00021093838835033342
102, ,PASS, ,0.04026131391125301, ,0.025756905875421808, ,0.0013921206330170903, ,0.00021234040241164257
103, ,PASS, ,0.040155983532317, ,0.02559536520605538, ,0.0014870753175718733, ,0.00021046985820514954
104, ,PASS, ,0.040534373215301, ,0.025674900333305217, ,0.0014049237092845514, ,0.00021310503568178378
105, ,PASS, ,0.040609736417225, ,0.025621421246842684, ,0.0014366824593861076, ,0.00021305871797323226
106, ,PASS, ,0.040552136636019004, ,0.025634997945724745, ,0.001392582440069747, ,0.0002128755060701134
107, ,PASS, ,0.04065252054148401, ,0.02552378157011661, ,0.001420198989348511, ,0.00021244878873633933
108, ,PASS, ,0.040541414830318, ,0.02565285866216071, ,0.001353364753475578, ,0.00021296549829325962
109, ,PASS, ,0.040460291937911994, ,0.025494697002776755, ,0.0014903328562616788, ,0.00021124849023488985
110, ,PASS, ,0.040544046594603006, ,0.025497590514964044, ,0.0014270307555447283, ,0.00021168057621762242
111, ,PASS, ,0.04069025564278899, ,0.025599974826637607, ,0.0014053893478228057, ,0.0002133202831077028
112, ,PASS, ,0.04093707024281601, ,0.02570082449780202, ,0.0014086492633271438, ,0.0002154451292760825
113, ,PASS, ,0.041502881051143, ,0.026072740784421358, ,0.0014135951375846203, ,0.00022156093729931118
114, ,PASS, ,0.045752346226476004, ,0.02922185141897222, ,0.0015311421301069533, ,0.0002735615803039638
115, ,PASS, ,0.121341611554375, ,0.09212931404750331, ,0.005406175696482653, ,0.002290557113572048
116, ,PASS, ,0.04940067111662401, ,0.032793613532137375, ,0.0017929015843510911, ,0.0003315430982789731
117, ,PASS, ,0.043261614970051, ,0.02714548044602396, ,0.0014631241368795553, ,0.00024044946075419456
118, ,PASS, ,0.04275910828123901, ,0.026971633520012393, ,0.001496932475833712, ,0.00023618586877653463
119, ,PASS, ,0.04268914771201401, ,0.0269092500987402, ,0.0014728594690942404, ,0.00023523630777957133
120, ,PASS, ,0.042900010328417996, ,0.027194767815970036, ,0.0015261769387659317, ,0.00023889135892090211
121, ,PASS, ,0.04271452462618, ,0.02708953850403184, ,0.0014371097909742726, ,0.0002369509929302531
122, ,PASS, ,0.042674732525419, ,0.027018047420728865, ,0.0015363733388014656, ,0.0002360745843497164
123, ,PASS, ,0.042564109925927, ,0.026793406225158443, ,0.0014792619759363714, ,0.00023353687870480302
124, ,PASS, ,0.04188945294512501, ,0.026534860442563646, ,0.0014316792964327685, ,0.0002276112059406953
125, ,PASS, ,0.04206151407737701, ,0.026460986756059814, ,0.001546427345927301, ,0.00022790075183003823
126, ,PASS, ,0.042360801210157006, ,0.02651096621185398, ,0.0014385908498699283, ,0.0002299534263509248
127, ,PASS, ,0.042243953186837005, ,0.026566235631993458, ,0.001463289050074944, ,0.00022979928101918266
128, ,PASS, ,0.041876123130675014, ,0.026143154753896586, ,0.001459672689435859, ,0.00022418287840969783
129, ,PASS, ,0.042169062368729, ,0.026344378510991036, ,0.001500191564676865, ,0.00022747478645829833
130, ,PASS, ,0.042425989971576, ,0.026330356605373733, ,0.0014973819883728214, ,0.00022873033962545015
131, ,PASS, ,0.042444163500195004, ,0.02631704650635056, ,0.0014335614850489035, ,0.0002287257795112097
132, ,PASS, ,0.042774211502909, ,0.026390434877948777, ,0.0014683651817678366, ,0.00023115686961065732
133, ,PASS, ,0.042946064586978, ,0.026531892625866468, ,0.0014514095366568792, ,0.00023333512965363076
134, ,PASS, ,0.043041419828871004, ,0.026767371545928224, ,0.001425603759203693, ,0.0002359116557444239
135, ,PASS, ,0.042967965956105005, ,0.026739563751230787, ,0.0015771122686323825, ,0.00023526963846408187
136, ,PASS, ,0.04335592874511501, ,0.0270933454449084, ,0.0014600468334777534, ,0.000240527099790311
137, ,PASS, ,0.043293823354006, ,0.027116719051685834, ,0.0014686734690358882, ,0.00024038343947152237
138, ,PASS, ,0.043337310915315994, ,0.027211956452740327, ,0.0014814782512973905, ,0.00024149028421956213
139, ,PASS, ,0.04330710441892, ,0.02718384290098825, ,0.0015053965113884147, ,0.00024105422585822761
140, ,PASS, ,0.043365266149443, ,0.027281215721736047, ,0.0015039075920154834, ,0.0002422641257732473
141, ,PASS, ,0.043534266739237, ,0.02742464506256906, ,0.001501525220979969, ,0.00024447343575438206
142, ,PASS, ,0.043459915381139996, ,0.027358697388264394, ,0.0015378421941025008, ,0.00024346348847998332
143, ,PASS, ,0.043422140599778, ,0.027173379257659676, ,0.0014704452696219224, ,0.00024161524930709215
144, ,PASS, ,0.04318872021677501, ,0.02670493308957291, ,0.0015048769985181098, ,0.00023618940446685493
145, ,PASS, ,0.043193056108256994, ,0.026615747342260944, ,0.0014084181054124737, ,0.00023541326693862755
146, ,PASS, ,0.043068811675383, ,0.026488980665606184, ,0.001430410449858948, ,0.00023361949613339973
147, ,PASS, ,0.04307096618525999, ,0.02651668858805702, ,0.0014301132701154662, ,0.0002338732832202032
148, ,PASS, ,0.04323394235276, ,0.02720056915110475, ,0.001523861277486186, ,0.00024084906340916113
149, ,PASS, ,0.04334376985074499, ,0.027040915230824206, ,0.0014684697045107232, ,0.0002400240761197138
150, ,PASS, ,0.04309643686358001, ,0.02643359038599056, ,0.0014628288842910696, ,0.0002332593855431877
151, ,PASS, ,0.043003412904031, ,0.026529885683592876, ,0.0014338820131722038, ,0.00023362791363113302
152, ,PASS, ,0.043144520405212994, ,0.0265329558606318, ,0.0014541872196759667, ,0.00023444201615729056
153, ,PASS, ,0.043269474305933, ,0.02665723705545406, ,0.001487962016615193, ,0.00023619615418726968
154, ,PASS, ,0.043343301153981, ,0.02668574370303235, ,0.001467147015783203, ,0.00023685369836444587
155, ,PASS, ,0.043192910373566, ,0.026670332677142236, ,0.0014182084598113706, ,0.0002359163190337627
156, ,PASS, ,0.04375183762528499, ,0.027073074829013496, ,0.0014607848520562102, ,0.00024257389658509357
157, ,PASS, ,0.043958584572657, ,0.02739485788874187, ,0.001469056048793506, ,0.0002466095510309421
158, ,PASS, ,0.04370959008676, ,0.02705781543389315, ,0.0014472179524365563, ,0.00024218552281799467
159, ,PASS, ,0.043839094017621, ,0.027144611970608308, ,0.0014810123782188632, ,0.00024368927979809648
160, ,PASS, ,0.043904994643264, ,0.027324438502819334, ,0.0014447701282635013, ,0.00024566616073621895
161, ,PASS, ,0.044060727554344994, ,0.027520730377007703, ,0.0014763663942045971, ,0.00024831356450967
162, ,PASS, ,0.04406344081131401, ,0.027433484915528054, ,0.0015167954843660863, ,0.00024754694159065263
163, ,PASS, ,0.043945800967623, ,0.027253185682559848, ,0.0014856323893295087, ,0.00024524295922872185
164, ,PASS, ,0.043766925808786994, ,0.02702288140230653, ,0.0015080354492737944, ,0.00024221582546994646
165, ,PASS, ,0.043947592821083, ,0.027053128231507875, ,0.0015127407400889904, ,0.00024348213629533656
166, ,PASS, ,0.04388963798914901, ,0.0271729992515848, ,0.0014636379882951164, ,0.00024422899155391946
167, ,PASS, ,0.04395936216959, ,0.027203804597537407, ,0.0014734102792272122, ,0.0002448982732222151
168, ,PASS, ,0.044008821289266004, ,0.027100742545229844, ,0.0014381116403677278, ,0.0002442546783215446
169, ,PASS, ,0.044045298806584, ,0.02717260644934816, ,0.0013986523515724968, ,0.0002450791468956166
170, ,PASS, ,0.044143465916166996, ,0.02730970366115109, ,0.0014163508980789537, ,0.0002468776222729799
171, ,PASS, ,0.043978405668348, ,0.02722440598313426, ,0.0014524281543563267, ,0.0002451917082147439
172, ,PASS, ,0.044244330418528, ,0.02763074972231494, ,0.00148299327141766, ,0.0002503462601906722
173, ,PASS, ,0.044289616255096996, ,0.027736319526835303, ,0.0014231702480987612, ,0.0002515506096460301
174, ,PASS, ,0.044104074171881995, ,0.027636032649632453, ,0.001452309298292397, ,0.00024960174804654643
175, ,PASS, ,0.04403185403367499, ,0.02729939014074153, ,0.0014686152113046718, ,0.0002461546309075213
176, ,PASS, ,0.044000253633500006, ,0.02693916767167663, ,0.001414247077155763, ,0.0002427539944509637
177, ,PASS, ,0.043994671174160005, ,0.02679012636283712, ,0.0014492042577785073, ,0.00024139932003203893
178, ,PASS, ,0.043918985219151, ,0.026728709441423415, ,0.0014279750338003754, ,0.00024041176179596962
179, ,PASS, ,0.043764465136175004, ,0.026689785474451586, ,0.001441430828781431, ,0.00023921065390725572
180, ,PASS, ,0.043965796691567, ,0.026820818974131567, ,0.0014157674634499846, ,0.00024150810622322277
181, ,PASS, ,0.044147978703839005, ,0.02690638392335078, ,0.0013654933931824301, ,0.00024327211415204586
182, ,PASS, ,0.04395547517054501, ,0.026724853116897818, ,0.0014240243332501565, ,0.000240568465256065
183, ,PASS, ,0.043655327913643, ,0.02644005907182444, ,0.0013894223186268885, ,0.0002364387589299066
184, ,PASS, ,0.043822675152172, ,0.026379561062470375, ,0.001383651120151536, ,0.00023679000672409452
185, ,PASS, ,0.043802729697722004, ,0.026433690790920273, ,0.001358530114554558, ,0.00023715061436249137
186, ,PASS, ,0.044107897626519996, ,0.026919225330397933, ,0.0014404630764241557, ,0.0002431613929261282
187, ,PASS, ,0.044490393577417006, ,0.027202621053656433, ,0.0014590717969590406, ,0.0002478485983595042
188, ,PASS, ,0.04496900713579, ,0.02774732715013709, ,0.0014565405448619354, ,0.00025550214981916473
189, ,PASS, ,0.047729631397267006, ,0.029697383725328992, ,0.001565476585556007, ,0.00029011722144801374
190, ,PASS, ,0.10555800334315099, ,0.07994439297583485, ,0.00477155856170322, ,0.001728871362386881
191, ,PASS, ,0.04552505177439199, ,0.03143458782185774, ,0.0017696145825323467, ,0.00029283706867519607
192, ,PASS, ,0.0403785957879, ,0.026945455415093578, ,0.0014909917467023895, ,0.000222650570587933
193, ,PASS, ,0.040058580285807, ,0.02692441661292569, ,0.0015688974999190012, ,0.0002207349649500897
194, ,PASS, ,0.040013491519160005, ,0.02682293584119007, ,0.0015239796517786967, ,0.00021964792462923492
195, ,PASS, ,0.040309994629284, ,0.026994209064651477, ,0.001570676401760846, ,0.000222653938271084
196, ,PASS, ,0.040086302862696994, ,0.026735013441358417, ,0.0015325540361238313, ,0.0002193200422754603
197, ,PASS, ,0.040101378858550994, ,0.026757579215433737, ,0.0015274194141762989, ,0.00021960011768951135
198, ,PASS, ,0.039932904608095, ,0.02663513360738783, ,0.001530335933980526, ,0.0002176544624976016
199, ,PASS, ,0.039760695234617, ,0.026429497932793346, ,0.0014845432879685106, ,0.0002150201200436445
200, ,PASS, ,0.039819766215605, ,0.026579222468783217, ,0.0015276302898040476, ,0.00021658528261078334
201, ,PASS, ,0.039790806722865, ,0.02640874150316769, ,0.0014608922687661177, ,0.0002150370755163567
202, ,PASS, ,0.039555451135661, ,0.026263815125353623, ,0.0014958167980323896, ,0.0002125808380573836
203, ,PASS, ,0.039354558676384, ,0.025939935913439138, ,0.0014627502072053864, ,0.00020886120047251513
204, ,PASS, ,0.039297078034521, ,0.025736814033213717, ,0.0014251718311163477, ,0.0002069493158090274
205, ,PASS, ,0.03952952429993399, ,0.02588115311643664, ,0.0013823325395819744, ,0.00020933143032349433
206, ,PASS, ,0.039406883510659005, ,0.025894369890251564, ,0.0014763637246520331, ,0.00020879323285550474
207, ,PASS, ,0.039460239078954, ,0.025933307924821025, ,0.0014493221109699176, ,0.00020937047733136083
208, ,PASS, ,0.039568735367987995, ,0.02622228804789153, ,0.0014419603974652054, ,0.00021228975606580314
209, ,PASS, ,0.039669069020451, ,0.026214766080396253, ,0.0014589138763719286, ,0.00021275107790645194
210, ,PASS, ,0.03968386135632699, ,0.026234356104444283, ,0.001444871207928032, ,0.0002129670829575665
211, ,PASS, ,0.039627004572907, ,0.026293443731170027, ,0.0014692118876717896, ,0.00021315407521951975
212, ,PASS, ,0.039658355268155004, ,0.02615326877329878, ,0.001439131136651607, ,0.0002121730402746324
213, ,PASS, ,0.039703794771051, ,0.026117970613546503, ,0.001491733916499892, ,0.000212161071868326
214, ,PASS, ,0.039744778655621996, ,0.026054342518646665, ,0.0014787618263683916, ,0.00021182443963523135
215, ,PASS, ,0.03979732313059399, ,0.02613021005957126, ,0.0014404690677939816, ,0.00021270931322087719
216, ,PASS, ,0.03996601684751799, ,0.026090668523090454, ,0.0014179341649282746, ,0.00021329990990464327
217, ,PASS, ,0.040114659092276, ,0.02614198348438833, ,0.001439680443004896, ,0.00021450068173998422
218, ,PASS, ,0.040137644768861, ,0.026247931636296355, ,0.0014433305751201909, ,0.00021547715152833922
219, ,PASS, ,0.040180732416486, ,0.026369580462279333, ,0.0014852504036744468, ,0.00021671086717488488
220, ,PASS, ,0.04049388071592501, ,0.026583514784432993, ,0.0015060008477845242, ,0.000220162472211533
221, ,PASS, ,0.04062330508086599, ,0.02664172968080701, ,0.0014533037186116177, ,0.00022134606392277534
222, ,PASS, ,0.040698422804667005, ,0.026646839703108875, ,0.0014689747412608512, ,0.00022178916553758295
223, ,PASS, ,0.04130606650060499, ,0.02761201512835776, ,0.0015136213042857751, ,0.00023330924410757848
224, ,PASS, ,0.04124960830190201, ,0.027331102247708138, ,0.0014808714058343938, ,0.00023059003822642547
225, ,PASS, ,0.040993133217663014, ,0.026939258113257692, ,0.0015411693955493207, ,0.00022584619666536485
226, ,PASS, ,0.041062541987737, ,0.026947710891674307, ,0.0014716025240412752, ,0.0002262850450438107
227, ,PASS, ,0.04127618879615799, ,0.02714948700168103, ,0.001485877832376231, ,0.00022915603619978097
228, ,PASS, ,0.041349098535084006, ,0.02715434214756653, ,0.0014735302630574311, ,0.00022959804446224594
229, ,PASS, ,0.04149648909546799, ,0.027035772520004858, ,0.001483527740601105, ,0.00022942874025772155
230, ,PASS, ,0.04148743618587099, ,0.027140119662513496, ,0.001517836799974655, ,0.0002302575108228153
231, ,PASS, ,0.041844107342945996, ,0.02766622566114683, ,0.001514860860506723, ,0.00023674391948996397
232, ,PASS, ,0.041776536697281, ,0.027480421051631242, ,0.0015612952526668175, ,0.00023477278442672869
233, ,PASS, ,0.041666232923184, ,0.02720748512247343, ,0.0015653593661490819, ,0.0002317663765296788
234, ,PASS, ,0.041597021037847, ,0.027109881590648192, ,0.0015036112658087634, ,0.00023056614347785983
235, ,PASS, ,0.041696967518691, ,0.02700913265642987, ,0.0014554395388012896, ,0.00023026872934804374
236, ,PASS, ,0.041971731135166, ,0.027141915933058192, ,0.0015867371000871653, ,0.00023290428791070665
237, ,PASS, ,0.042320661687145, ,0.027407710328611255, ,0.0014904760022923127, ,0.00023713448565596006
238, ,PASS, ,0.04207836023939401, ,0.027047517304844507, ,0.0016134259504685417, ,0.00023267566265240588
239, ,PASS, ,0.04250469321825899, ,0.027467063803688116, ,0.0015942557025160425, ,0.00023865910635472291
240, ,PASS, ,0.042707350467488, ,0.027481948141532528, ,0.0014898990727030376, ,0.0002399256057710568
241, ,PASS, ,0.042971799327327, ,0.02770955027354122, ,0.001576047983295935, ,0.00024340308637181918
242, ,PASS, ,0.04265580035793501, ,0.027242803634864782, ,0.0014875153087467873, ,0.00023755828238354135
243, ,PASS, ,0.042841189135287006, ,0.027411109039957908, ,0.0015072315341505757, ,0.00024002404378792357
244, ,PASS, ,0.043094853418653004, ,0.027458901040123697, ,0.0015606137229918055, ,0.0002418746564357834
245, ,PASS, ,0.04319853199451901, ,0.027692646838763255, ,0.0016191806367513778, ,0.00024452150462929927
246, ,PASS, ,0.043289178729484, ,0.027477411368584982, ,0.0015763140549896492, ,0.00024313258534033958
247, ,PASS, ,0.043568180377097, ,0.0278593753611953, ,0.0015598478812718346, ,0.00024809431638487547
248, ,PASS, ,0.043725363738238, ,0.027923960472632424, ,0.0015354981779540917, ,0.0002495498622328787
249, ,PASS, ,0.043983274135261, ,0.028089056367241332, ,0.0015424543747118255, ,0.00025250689845907536
250, ,PASS, ,0.043749877207767005, ,0.027680264785908428, ,0.0015435644114843614, ,0.00024750441255567165
251, ,PASS, ,0.043860486993098004, ,0.028000851078535272, ,0.0015482160489519764, ,0.0002510074430498875
252, ,PASS, ,0.043719872284452996, ,0.02802667249804148, ,0.0015231664516854567, ,0.0002504217393627998
253, ,PASS, ,0.044090806522333006, ,0.028139371290415712, ,0.0015856103339925197, ,0.0002535591937244045
254, ,PASS, ,0.044511423105561, ,0.028230898362062558, ,0.0016028136760756464, ,0.0002568054927949233
255, ,PASS, ,0.04468235484864, ,0.02861854865060124, ,0.0015789195136020138, ,0.00026132728884290657
