Channel, ,Pass/Fail, ,Amplitude, ,Sorting Function Response, ,Mean, ,Variance, ,NPeaksRatio, ,PosIntegralRatio, ,ToT50, ,ToT99
0, ,PASS, ,0.07159416699999997, ,0.011211240687490347, ,0.031046759672210766, ,0.0008160192627418305, ,1.8333333333333333, ,0.7404790983976179, ,0.3883594212363013, ,0.0727332095263362
1, ,PASS, ,0.07904767396000006, ,0.011778605067602206, ,0.030890695987715152, ,0.000945878336202383, ,1.8333333333333333, ,0.7154498499593617, ,0.388379828983082, ,0.07101895879675925
2, ,PASS, ,0.07840009999000003, ,0.011822917741966029, ,0.030860994734322158, ,0.0009419195839863826, ,1.8333333333333333, ,0.7196966482020298, ,0.39023693394012365, ,0.07224342360359992
3, ,PASS, ,0.07772694606000001, ,0.011730192899326143, ,0.0309064135898649, ,0.0009264793008326227, ,1.8333333333333333, ,0.7219120366011024, ,0.3905838656353952, ,0.07356992714434399
4, ,PASS, ,0.07686367584, ,0.011563177896222517, ,0.030679723001479763, ,0.0009035115709141766, ,1.8333333333333333, ,0.7216789006874839, ,0.38831860574273996, ,0.07205975388257382
5, ,PASS, ,0.08219752300000002, ,0.011655125620434857, ,0.030863417934897247, ,0.0009728247693851785, ,1.75, ,0.6954705249146527, ,0.3879920817942491, ,0.07612089549192874
6, ,PASS, ,0.009471810000000011, ,0.0005998119666628089, ,0.03818778379828983, ,5.813097723303329e-06, ,1.1666666666666667, ,0.40778096314608453, ,0.4345421522009755, ,0.017938409420215913
7, ,PASS, ,0.07629385023999999, ,0.011517272193442857, ,0.03086120943253403, ,0.0008929595763002741, ,1.8333333333333333, ,0.7214317281452756, ,0.388441052223424, ,0.07154956021305688
8, ,PASS, ,0.07607572265000002, ,0.01163503356217996, ,0.031118348522934224, ,0.0008995166760096454, ,1.8333333333333333, ,0.7256197657257399, ,0.39070631211607926, ,0.07420256729454501
9, ,PASS, ,0.07670350500000002, ,0.011690913683302703, ,0.030891843833329928, ,0.0009112988501251296, ,1.8333333333333333, ,0.725356900222181, ,0.39080835084998267, ,0.07746780677945347
10, ,PASS, ,0.07825931791000004, ,0.011791265513780635, ,0.030703759192872594, ,0.0009378409935853938, ,1.8333333333333333, ,0.7211536713270331, ,0.3882777902491786, ,0.07146792922593416
11, ,PASS, ,0.07668540827, ,0.01166161668483543, ,0.031057627550386727, ,0.0009091042666755556, ,1.8333333333333333, ,0.7254020703991894, ,0.3906654966225179, ,0.07324340319585315
12, ,PASS, ,0.07655636255, ,0.01161619108363605, ,0.031030553897206176, ,0.0009036659864556455, ,1.8333333333333333, ,0.7246384886758687, ,0.3879920817942491, ,0.07089651231607519
13, ,PASS, ,0.07672204254000002, ,0.011635553435896314, ,0.030995919780282034, ,0.0009073092925492087, ,1.8333333333333333, ,0.7245873919024136, ,0.3884614599702047, ,0.07608007999836738
14, ,PASS, ,0.07686176081999999, ,0.011703747823265406, ,0.031010655074929082, ,0.0009143996525510038, ,1.8333333333333333, ,0.7242517377773852, ,0.3906654966225179, ,0.06899859186547214
15, ,PASS, ,0.07705718982000004, ,0.011699938825278935, ,0.030743147214971123, ,0.0009160561025301082, ,1.8333333333333333, ,0.7235227631607997, ,0.38813493602171384, ,0.07508010040611417
16, ,PASS, ,0.07680603805000001, ,0.011689916793936932, ,0.030701896919320418, ,0.00091236068359481, ,1.8333333333333333, ,0.7256172417668961, ,0.3882777902491786, ,0.07252913205852941
17, ,PASS, ,0.07742062824000003, ,0.011726928370891484, ,0.030854384205724374, ,0.000922575080098002, ,1.8333333333333333, ,0.7220417705434958, ,0.3879920817942491, ,0.06997816371094467
18, ,PASS, ,0.07888648683000003, ,0.011942894625496435, ,0.03055633744399829, ,0.0009570106907196002, ,1.8333333333333333, ,0.7206457366330081, ,0.3876451500989776, ,0.07371278137180874
19, ,PASS, ,0.07788343579000001, ,0.011804184497823594, ,0.030710995414275626, ,0.0009344486467270457, ,1.8333333333333333, ,0.7221457067630501, ,0.38897165363972164, ,0.07177404542764433
20, ,PASS, ,0.07761896609000002, ,0.011762634099907247, ,0.031030753399816126, ,0.0009276957109315344, ,1.8333333333333333, ,0.7201584978140517, ,0.3906654966225179, ,0.07359033489112467
21, ,PASS, ,0.07805272307000002, ,0.011813088220003019, ,0.03074447703176343, ,0.0009371585943840478, ,1.8333333333333333, ,0.7220137667369845, ,0.3887267606783535, ,0.07324340319585315
22, ,PASS, ,0.07788345986000002, ,0.01182460991344017, ,0.0306908399518871, ,0.0009360408056562903, ,1.8333333333333333, ,0.7243257354061319, ,0.38901246913328297, ,0.07265157853921349
23, ,PASS, ,0.07835507828000003, ,0.011851336419163108, ,0.03083964810699414, ,0.000943942129049455, ,1.8333333333333333, ,0.722216715885106, ,0.3893798085753352, ,0.07277402501989755
24, ,PASS, ,0.07819472815000005, ,0.011797031453037307, ,0.030734910690803655, ,0.0009379072007992186, ,1.8333333333333333, ,0.7216543208011323, ,0.3868084324809698, ,0.06989653272382196
25, ,PASS, ,0.07867033441000006, ,0.011908834554024913, ,0.030752582312539745, ,0.0009522729203914126, ,1.8333333333333333, ,0.723836958689487, ,0.38980837125772944, ,0.07159037570661823
26, ,PASS, ,0.07822879356000001, ,0.011893101443299607, ,0.030647575192801778, ,0.0009454701088291704, ,1.8333333333333333, ,0.7248100204238178, ,0.3879716740474684, ,0.07183526866798637
27, ,PASS, ,0.07931268963000002, ,0.012005725471848836, ,0.030382077814098282, ,0.0009678019158126175, ,1.8333333333333333, ,0.7222475126650449, ,0.38811452827493315, ,0.0736515581314667
28, ,PASS, ,0.08077595119999999, ,0.012284462867121137, ,0.030478386622189754, ,0.0010086774609406113, ,1.8333333333333333, ,0.7227524558610678, ,0.39029815718046573, ,0.0728148405134589
29, ,PASS, ,0.17452670999999992, ,0.026007445767558042, ,0.014297883884137042, ,0.004604074777544123, ,1.75, ,0.7635984674171571, ,0.426338237995143, ,0.21566906797820454
30, ,PASS, ,0.09039775200000003, ,0.013649057857077021, ,0.029727361560600806, ,0.0012536476007078618, ,1.8333333333333333, ,0.7200276440639128, ,0.390216526193343, ,0.07271280177955552
31, ,PASS, ,0.0815180518, ,0.012539813169602593, ,0.03020570029370564, ,0.0010390028544537983, ,1.8333333333333333, ,0.7315053993928815, ,0.3879104508071264, ,0.07622293422583212
32, ,PASS, ,0.08059936110000002, ,0.012479706324263332, ,0.030556772932958103, ,0.0010223198541801355, ,1.8333333333333333, ,0.7323058782156837, ,0.38831860574273996, ,0.07234546233750332
33, ,PASS, ,0.08085070159999998, ,0.012540986889482545, ,0.030299003830763456, ,0.0010306019090181144, ,1.8333333333333333, ,0.7326257940573767, ,0.3900940797126589, ,0.07369237362502806
34, ,PASS, ,0.08031848820000002, ,0.01246129399030931, ,0.03030092501703945, ,0.0010175423737625452, ,1.8333333333333333, ,0.7338920274128045, ,0.3887471684251342, ,0.0764270116936389
35, ,PASS, ,0.08076722089999996, ,0.012509541532124375, ,0.0303404564014665, ,0.0010269618525106485, ,1.8333333333333333, ,0.7325876620611789, ,0.3891757311075284, ,0.07285565600702026
36, ,PASS, ,0.080407567, ,0.012483066568000207, ,0.030552744055184995, ,0.001020390604465462, ,1.8333333333333333, ,0.7336826327239981, ,0.3900124487255362, ,0.07271280177955552
37, ,PASS, ,0.08067178349999998, ,0.012438807595620648, ,0.030375188217509643, ,0.0010197794860644144, ,1.8333333333333333, ,0.7315757511329083, ,0.38856349870410806, ,0.07675353564212975
38, ,PASS, ,0.08020032460000001, ,0.012420674194866376, ,0.03049462094379217, ,0.0010128294209694048, ,1.8333333333333333, ,0.7344934284637483, ,0.3899512254851942, ,0.07461072223015856
39, ,PASS, ,0.08030974850000001, ,0.012374383332244885, ,0.03044450531210506, ,0.0010101256540840842, ,1.8333333333333333, ,0.7323861317862809, ,0.3891145078671864, ,0.07487602293830738
40, ,PASS, ,0.08026268130000001, ,0.012399014070846592, ,0.030091950809777147, ,0.0010116182267927187, ,1.8333333333333333, ,0.732406519053299, ,0.3874206648843901, ,0.07193730740188976
41, ,PASS, ,0.08084160500000001, ,0.012484917626112028, ,0.030077246109147977, ,0.0010253957070464228, ,1.8333333333333333, ,0.7316229538484751, ,0.3885430909573274, ,0.07473316871084264
42, ,PASS, ,0.08034615919999999, ,0.012418403701474741, ,0.030077568911257322, ,0.0010145601874694923, ,1.8333333333333333, ,0.7335228512331974, ,0.3886451296912308, ,0.07297810248770434
43, ,PASS, ,0.08052598420000003, ,0.01249297786107713, ,0.03024105983000592, ,0.0010226056578184284, ,1.8333333333333333, ,0.7332743132344265, ,0.39044101140793047, ,0.0770800595906206
44, ,PASS, ,0.08022995800000002, ,0.012481410095165435, ,0.030110087099055733, ,0.0010176980763360217, ,1.8333333333333333, ,0.7333562636702614, ,0.3904818269014918, ,0.07108018203710129
45, ,PASS, ,0.080508151, ,0.012435220124470953, ,0.029963741636672928, ,0.001017560207992885, ,1.8333333333333333, ,0.732142359382372, ,0.3879308585539071, ,0.07277402501989755
46, ,PASS, ,0.080479341, ,0.012506697064381093, ,0.030054297301765065, ,0.001022959734213012, ,1.8333333333333333, ,0.734966468167991, ,0.3905634578886145, ,0.07620252647905144
47, ,PASS, ,0.0806380067, ,0.012435352481490596, ,0.03016985810186445, ,0.001019479690721137, ,1.8333333333333333, ,0.7322553839052587, ,0.3882777902491786, ,0.07387604334605416
48, ,PASS, ,0.08045964790000003, ,0.012487012626943308, ,0.030162925183210548, ,0.001021390503011588, ,1.8333333333333333, ,0.7336915561384605, ,0.3899308177384135, ,0.0713454827452501
49, ,PASS, ,0.080865973, ,0.012487546421650382, ,0.029960366689693887, ,0.0010264370585110346, ,1.8333333333333333, ,0.7322379277252391, ,0.38803289728781043, ,0.07228423909716128
50, ,PASS, ,0.080667535, ,0.012524464509572402, ,0.029906544478731253, ,0.0010265344807535142, ,1.8333333333333333, ,0.7337783449495731, ,0.3886451296912308, ,0.07408012081386094
51, ,PASS, ,0.0809168981, ,0.012515520896969227, ,0.029938214235051937, ,0.001029041948159673, ,1.8333333333333333, ,0.7320175623042188, ,0.3879920817942491, ,0.07444746025591314
52, ,PASS, ,0.08075941299999999, ,0.012467558815129877, ,0.030111308826594563, ,0.0010232928590245638, ,1.8333333333333333, ,0.7331922249065462, ,0.3885430909573274, ,0.07705965184383992
53, ,PASS, ,0.08119087900000001, ,0.012504574991824991, ,0.03008327571887941, ,0.0010318157529088726, ,1.8333333333333333, ,0.7308656925067998, ,0.3882777902491786, ,0.06885573763800738
54, ,PASS, ,0.08090666209999997, ,0.012561151898560313, ,0.030201507614829086, ,0.001033309998872559, ,1.8333333333333333, ,0.7350978090067464, ,0.39044101140793047, ,0.07608007999836738
55, ,PASS, ,0.0809990481, ,0.012507359749033956, ,0.030040369696650682, ,0.0010296390131590235, ,1.8333333333333333, ,0.7323543489148304, ,0.38778800432644234, ,0.07389645109283484
56, ,PASS, ,0.08092660499999997, ,0.012616741216680225, ,0.030087897231562626, ,0.001037643233531524, ,1.8333333333333333, ,0.7353495404900173, ,0.39031856492724637, ,0.07936572723005653
57, ,PASS, ,0.08121398499999997, ,0.012585373751189967, ,0.02997499448542173, ,0.0010384874829391481, ,1.8333333333333333, ,0.7326552705998155, ,0.38766555784575824, ,0.07424338278810637
58, ,PASS, ,0.08085845100000001, ,0.012577259026945637, ,0.030088368276254975, ,0.0010333042738898304, ,1.8333333333333333, ,0.7341791405863874, ,0.38831860574273996, ,0.07673312789534907
59, ,PASS, ,0.08121192099999999, ,0.012508202785381724, ,0.030015324248906964, ,0.0010326138180334406, ,1.8333333333333333, ,0.7329008727048785, ,0.3882777902491786, ,0.07554947858206976
60, ,PASS, ,0.082072381, ,0.012668904650969212, ,0.029753633618957165, ,0.0010571524966280622, ,1.8333333333333333, ,0.7347323610802869, ,0.38574722964837455, ,0.07271280177955552
61, ,PASS, ,0.08294461000000002, ,0.012737051950122886, ,0.029881464961833026, ,0.0010737490804342315, ,1.8333333333333333, ,0.7301415080694733, ,0.3879716740474684, ,0.07105977429032061
62, ,PASS, ,0.08111199200000001, ,0.012574600742413027, ,0.02993861905612008, ,0.001036752282332846, ,1.8333333333333333, ,0.7355077873905219, ,0.38848186771698534, ,0.0760596722515867
63, ,PASS, ,0.08141464200000001, ,0.01261686284559637, ,0.02985529696316769, ,0.0010440769985655808, ,1.8333333333333333, ,0.7317192318734208, ,0.3864002775453562, ,0.06850880594273587
64, ,PASS, ,0.08116173099999996, ,0.012580173111987357, ,0.030042964713206263, ,0.001038016792508635, ,1.8333333333333333, ,0.7348725611491251, ,0.388379828983082, ,0.07397808207995756
65, ,PASS, ,0.08147788199999999, ,0.012614134929414003, ,0.029897849060387338, ,0.0010447512173220417, ,1.8333333333333333, ,0.7339049864765477, ,0.3884002367298627, ,0.07679435113569111
66, ,PASS, ,0.08127411199999998, ,0.012622164145981019, ,0.030442231683359113, ,0.0010430211779772812, ,1.8333333333333333, ,0.7364327298748166, ,0.39284912552805046, ,0.07669231240178771
67, ,PASS, ,0.08130641699999999, ,0.012602980315004743, ,0.02981726228661701, ,0.0010414968664008571, ,1.8333333333333333, ,0.7346854596994173, ,0.38815534376849453, ,0.07603926450480603
68, ,PASS, ,0.08150362800000001, ,0.012663785800002526, ,0.02989237155508745, ,0.001048927496246813, ,1.8333333333333333, ,0.7351830226871138, ,0.3875022958715128, ,0.07681475888247179
69, ,PASS, ,0.08284866399999999, ,0.012836503242163419, ,0.030091958364398277, ,0.0010808800152273936, ,1.8333333333333333, ,0.7334383980223039, ,0.39015530295300094, ,0.07556988632885044
70, ,PASS, ,0.08107862, ,0.012655948471871754, ,0.02972946401211894, ,0.0010428881905755055, ,1.8333333333333333, ,0.7361722136571733, ,0.3885226832105467, ,0.0741209363074223
71, ,PASS, ,0.081317743, ,0.012635857497440766, ,0.029716337218863492, ,0.0010440873677824598, ,1.8333333333333333, ,0.7339037846159959, ,0.3880737127813718, ,0.07126385175812738
72, ,PASS, ,0.08117231899999998, ,0.012632760079795411, ,0.03010367016586743, ,0.0010425665067800758, ,1.8333333333333333, ,0.7368726455305262, ,0.38856349870410806, ,0.07465153772371992
73, ,PASS, ,0.08144633200000001, ,0.012618591314984802, ,0.02969480106852187, ,0.0010446118326179982, ,1.8333333333333333, ,0.7358779859498606, ,0.3883390134895206, ,0.07654945817432297
74, ,PASS, ,0.081049441, ,0.012648929391403515, ,0.029799628833961554, ,0.0010419389787579638, ,1.8333333333333333, ,0.7372988950897552, ,0.388441052223424, ,0.077182098324524
75, ,PASS, ,0.081445308, ,0.012676358981685206, ,0.029933330879022675, ,0.0010493994981626157, ,1.8333333333333333, ,0.735022905596663, ,0.3884002367298627, ,0.07440664476235179
76, ,PASS, ,0.08122689999999999, ,0.012734474951132103, ,0.030063330493934816, ,0.0010512163757875027, ,1.8333333333333333, ,0.7388696688085792, ,0.39072671986285995, ,0.0760596722515867
77, ,PASS, ,0.08162917499999997, ,0.012719605244352132, ,0.03002058309623967, ,0.0010551092742158788, ,1.8333333333333333, ,0.7366665275516207, ,0.39062468112895654, ,0.07493724617864941
78, ,PASS, ,0.081061173, ,0.012645738028536725, ,0.029838295229787353, ,0.0010419808706429612, ,1.8333333333333333, ,0.7380593513428367, ,0.3882573825023979, ,0.07573314830309585
79, ,PASS, ,0.08135003600000001, ,0.01266916783894581, ,0.029873815322835045, ,0.0010479609370483676, ,1.8333333333333333, ,0.7367250698589094, ,0.3888287994122569, ,0.07503928491255281
80, ,PASS, ,0.0813761108, ,0.01271712486814943, ,0.030005880401662213, ,0.001052132707537717, ,1.8333333333333333, ,0.7391319273065581, ,0.3884002367298627, ,0.07822289341033857
81, ,PASS, ,0.08174674900000001, ,0.012741102547731226, ,0.030010592536504763, ,0.0010588853306567896, ,1.8333333333333333, ,0.736484182910756, ,0.38886961490581823, ,0.07224342360359992
82, ,PASS, ,0.0814923261, ,0.012756505472556842, ,0.030009453029705514, ,0.0010564238611350677, ,1.8333333333333333, ,0.7383800059099421, ,0.3881757515152752, ,0.07577396379665721
83, ,PASS, ,0.08203056299999999, ,0.012828620346393656, ,0.029851698455162955, ,0.0010698420087076116, ,1.8333333333333333, ,0.7369399554648939, ,0.39070631211607926, ,0.07326381094263382
84, ,PASS, ,0.08185946599999999, ,0.012881892626213424, ,0.030179956169838165, ,0.0010715635542763921, ,1.8333333333333333, ,0.7402748640712036, ,0.39246137833921757, ,0.07744739903267281
85, ,PASS, ,0.082279162, ,0.012799324443346076, ,0.03005818288468276, ,0.0010708835438866826, ,1.8333333333333333, ,0.7370568119907537, ,0.39060427338217585, ,0.07585559478377993
86, ,PASS, ,0.081982683, ,0.012868769738871006, ,0.029892990705816205, ,0.0010724350852562763, ,1.8333333333333333, ,0.7392190570057366, ,0.39074712760964064, ,0.07524336238035959
87, ,PASS, ,0.08232377500000002, ,0.01289904221443505, ,0.03002195650727026, ,0.001079298992443646, ,1.8333333333333333, ,0.7369557463702029, ,0.3904001959143691, ,0.07463112997693924
88, ,PASS, ,0.082053235, ,0.012878393853011863, ,0.029870287488492887, ,0.0010741746009142329, ,1.8333333333333333, ,0.7386679539729515, ,0.3904206036611498, ,0.07234546233750332
89, ,PASS, ,0.08234159900000002, ,0.01290782814423351, ,0.029865533267040063, ,0.0010803818275100872, ,1.8333333333333333, ,0.7380713662477951, ,0.3905430501418338, ,0.07869227158629416
90, ,PASS, ,0.081941837, ,0.012880133468095478, ,0.029985500617855553, ,0.0010730865050122076, ,1.8333333333333333, ,0.7395262737736037, ,0.3904818269014918, ,0.07638619620007756
91, ,PASS, ,0.08238926100000003, ,0.012924702003691411, ,0.029971413331817104, ,0.0010823271026509772, ,1.8333333333333333, ,0.7389821007801347, ,0.39070631211607926, ,0.0753249933674823
92, ,PASS, ,0.08194800700000004, ,0.01291816347636916, ,0.030021789395720495, ,0.001076064289015783, ,1.8333333333333333, ,0.7402038067686905, ,0.390216526193343, ,0.07677394338891043
93, ,PASS, ,0.08214711799999999, ,0.012821077870964433, ,0.029780965361812614, ,0.0010706732088444602, ,1.8333333333333333, ,0.7379267207919454, ,0.3879104508071264, ,0.07671272014856839
94, ,PASS, ,0.08215306899999998, ,0.01287805558029386, ,0.029737515174179507, ,0.0010748678231184401, ,1.8333333333333333, ,0.7406240423016657, ,0.3889308381461603, ,0.07881471806697822
95, ,PASS, ,0.08221813300000003, ,0.012904303602436207, ,0.02977933718864227, ,0.0010786233110130804, ,1.8333333333333333, ,0.7384489887166145, ,0.3901348952062203, ,0.07473316871084264
96, ,PASS, ,0.082112939, ,0.012948553443169341, ,0.029921195081349158, ,0.0010808124548846987, ,1.9166666666666667, ,0.7412598277836493, ,0.3905022346482725, ,0.0763453807065162
97, ,PASS, ,0.08251475, ,0.012923071692420532, ,0.029805884268622476, ,0.0010841848586041064, ,1.8333333333333333, ,0.7391561433153807, ,0.3905634578886145, ,0.07465153772371992
98, ,PASS, ,0.08243318600000002, ,0.01294730945089254, ,0.029763186370095302, ,0.0010847814000304189, ,1.8333333333333333, ,0.7399819157345839, ,0.3884002367298627, ,0.0770800595906206
99, ,PASS, ,0.08463544199999999, ,0.013274380224937958, ,0.0295318724493343, ,0.0011420170227584771, ,1.8333333333333333, ,0.7379510444969604, ,0.3904206036611498, ,0.0764270116936389
100, ,PASS, ,0.19117190999999992, ,0.030968895247313482, ,0.007127185838433081, ,0.006013415146083069, ,1.8333333333333333, ,0.8053510860620131, ,0.43958286565580296, ,0.26101508132487095
101, ,PASS, ,0.09092330200000003, ,0.014178549222880333, ,0.028971912544295018, ,0.001311055429372923, ,1.8333333333333333, ,0.7373931765167466, ,0.3901961184465623, ,0.07852900961204873
102, ,PASS, ,0.08702340099999999, ,0.013740258938958924, ,0.02932429192757699, ,0.0012154737146814756, ,1.8333333333333333, ,0.7411965731289102, ,0.3900736719658782, ,0.07585559478377993
103, ,PASS, ,0.08660058299999998, ,0.01362068464907559, ,0.0293711215338687, ,0.0011991509060641102, ,1.8333333333333333, ,0.7386481168564811, ,0.3909716128242281, ,0.07793718495540908
104, ,PASS, ,0.08677529100000002, ,0.013670894182161787, ,0.02940444610018571, ,0.0012059815779756973, ,1.8333333333333333, ,0.7418156949227288, ,0.3905838656353952, ,0.07656986592110365
105, ,PASS, ,0.08638087200000003, ,0.0135439967945237, ,0.029292653629725926, ,0.0011896264224242506, ,1.8333333333333333, ,0.7397682991523474, ,0.3883390134895206, ,0.0756923328095345
106, ,PASS, ,0.086323385, ,0.013621703295089644, ,0.029329885133509315, ,0.0011952661665856773, ,1.8333333333333333, ,0.7423704894631825, ,0.38999204097875556, ,0.07740658353911145
107, ,PASS, ,0.08637857000000002, ,0.013610688429094419, ,0.029378348183775844, ,0.0011950696796489955, ,1.8333333333333333, ,0.740810579520999, ,0.39044101140793047, ,0.07712087508418196
108, ,PASS, ,0.08604388400000001, ,0.013578093080219957, ,0.029517447429211037, ,0.0011877235595732785, ,1.8333333333333333, ,0.7422544428319526, ,0.3899512254851942, ,0.07822289341033857
109, ,PASS, ,0.086444881, ,0.013523452274341522, ,0.029246929577610662, ,0.0011881167276974864, ,1.8333333333333333, ,0.7388025969098176, ,0.3880737127813718, ,0.07397808207995756
110, ,PASS, ,0.08592231100000002, ,0.013504831049308687, ,0.029491562520512233, ,0.0011794825071395091, ,1.8333333333333333, ,0.74144721822431, ,0.3879308585539071, ,0.07963102793820534
111, ,PASS, ,0.08650586299999996, ,0.01361328024044986, ,0.0293714840102202, ,0.0011970957017458795, ,1.8333333333333333, ,0.739647462856908, ,0.39074712760964064, ,0.0756923328095345
112, ,PASS, ,0.08617933199999998, ,0.013594096526361408, ,0.029550856590715702, ,0.0011909140087660692, ,1.8333333333333333, ,0.7420149880044205, ,0.39068590436929856, ,0.07840656313136467
113, ,PASS, ,0.08655246099999997, ,0.013607839906784767, ,0.029468887030485096, ,0.0011972224146729615, ,1.8333333333333333, ,0.7393843071456736, ,0.3904206036611498, ,0.07450868349625518
114, ,PASS, ,0.08645586700000003, ,0.013596769952657623, ,0.029314112832309547, ,0.0011950584344068863, ,1.8333333333333333, ,0.7403051212044994, ,0.3904001959143691, ,0.07534540111426298
115, ,PASS, ,0.08659630000000001, ,0.013604555447476878, ,0.029369225275863758, ,0.0011975666089330279, ,1.8333333333333333, ,0.7393933878680341, ,0.3905838656353952, ,0.07497806167221077
116, ,PASS, ,0.08655224600000001, ,0.013592943560955195, ,0.029416421854662148, ,0.0011957944774906915, ,1.8333333333333333, ,0.7397501033468121, ,0.3905634578886145, ,0.07563110956919246
117, ,PASS, ,0.08663768799999999, ,0.01356095568528287, ,0.02936083011957511, ,0.0011945450147207964, ,1.8333333333333333, ,0.7390907910453499, ,0.38860431419766944, ,0.07638619620007756
118, ,PASS, ,0.08635892000000002, ,0.01359532597516969, ,0.02932624220260607, ,0.0011935126093877088, ,1.8333333333333333, ,0.739657691927937, ,0.390216526193343, ,0.07444746025591314
119, ,PASS, ,0.08663986000000001, ,0.013589933109727004, ,0.02958374740971409, ,0.001196904314655708, ,1.8333333333333333, ,0.7386372087660078, ,0.3905226423950532, ,0.07418215954776433
120, ,PASS, ,0.086114396, ,0.013528122836852192, ,0.0293728585104304, ,0.0011840799779019254, ,1.8333333333333333, ,0.7407596148523561, ,0.39025734168690435, ,0.07736576804555009
121, ,PASS, ,0.086537118, ,0.013542933996665318, ,0.029425244676167837, ,0.0011914965102899015, ,1.8333333333333333, ,0.739199682472383, ,0.39025734168690435, ,0.07732495255198873
122, ,PASS, ,0.08602747000000001, ,0.013477645821947642, ,0.02937955518590437, ,0.001178709841678522, ,1.8333333333333333, ,0.7408272083161497, ,0.3880533050345911, ,0.07797800044897044
123, ,PASS, ,0.08654098600000001, ,0.013545279736492003, ,0.02928529393440338, ,0.001191124853871814, ,1.8333333333333333, ,0.7377350688301383, ,0.3882573825023979, ,0.07428419828166773
124, ,PASS, ,0.08565257300000007, ,0.013467400229708588, ,0.029394054013659927, ,0.0011728083102757305, ,1.8333333333333333, ,0.7404968257365013, ,0.38989000224485215, ,0.0748556151915267
125, ,PASS, ,0.086266007, ,0.013548722363737413, ,0.029380989315938452, ,0.0011879638328034484, ,1.8333333333333333, ,0.7389886738878245, ,0.39023693394012365, ,0.07571274055631518
126, ,PASS, ,0.086161278, ,0.013568116889612403, ,0.029418966625913756, ,0.0011882894004214078, ,1.8333333333333333, ,0.7400113639413153, ,0.3904206036611498, ,0.07497806167221077
127, ,PASS, ,0.086436121, ,0.013483247837982621, ,0.029121230441582827, ,0.0011848442035475885, ,1.8333333333333333, ,0.7397435351280895, ,0.38560437542090975, ,0.07391685883961552
128, ,PASS, ,0.08579548700000003, ,0.013523459432418066, ,0.029752000547666784, ,0.0011793526169583287, ,1.8333333333333333, ,0.7410216669619913, ,0.3905838656353952, ,0.07585559478377993
129, ,PASS, ,0.086188635, ,0.013575123855356884, ,0.029644715505403766, ,0.0011893957926462553, ,1.8333333333333333, ,0.739979175938437, ,0.3900124487255362, ,0.07677394338891043
130, ,PASS, ,0.08618339299999998, ,0.013521942212440515, ,0.029360820948382892, ,0.0011845396370123696, ,1.8333333333333333, ,0.7391994417503586, ,0.3854207056998837, ,0.07336584967653721
131, ,PASS, ,0.087580088, ,0.013693271509205091, ,0.02955795920261219, ,0.0012192688547260076, ,1.8333333333333333, ,0.7371454362110035, ,0.39023693394012365, ,0.07434542152200975
132, ,PASS, ,0.08741743899999999, ,0.013736760506858386, ,0.029461001018173096, ,0.0012208523762092713, ,1.8333333333333333, ,0.7403048963883614, ,0.39023693394012365, ,0.07818207791677721
133, ,PASS, ,0.08663335, ,0.013607607205169249, ,0.029574175334654392, ,0.001197956235870228, ,1.8333333333333333, ,0.7388959975294837, ,0.3906654966225179, ,0.07379441235893144
134, ,PASS, ,0.086380932, ,0.013622357986296034, ,0.029632377864502766, ,0.0011960618282058516, ,1.8333333333333333, ,0.7405363269022791, ,0.39070631211607926, ,0.07769229199404094
135, ,PASS, ,0.08675058999999997, ,0.01361402065270987, ,0.029627933048523496, ,0.0012004689459662648, ,1.8333333333333333, ,0.740053073009018, ,0.3908287585967633, ,0.0769780208567172
136, ,PASS, ,0.08643733799999999, ,0.013621478439776284, ,0.02967564569250628, ,0.001196856486788149, ,1.8333333333333333, ,0.7413599841927121, ,0.38991040999163284, ,0.07473316871084264
137, ,PASS, ,0.086681483, ,0.013541601344494319, ,0.029734580690420603, ,0.0011932117374737184, ,1.8333333333333333, ,0.7389517415547656, ,0.3882777902491786, ,0.07648823493398094
138, ,PASS, ,0.08641579099999998, ,0.013584703171024917, ,0.029618683715375807, ,0.0011932633449392178, ,1.8333333333333333, ,0.740892153884419, ,0.3897471480173874, ,0.07759025326013755
139, ,PASS, ,0.08715124899999999, ,0.013602817299932679, ,0.02944323751249974, ,0.0012050797315741532, ,1.8333333333333333, ,0.7371608414834251, ,0.3880533050345911, ,0.07424338278810637
140, ,PASS, ,0.08745599699999998, ,0.01384494387952608, ,0.029593390627785147, ,0.001230732758105211, ,1.8333333333333333, ,0.74153991051595, ,0.3904614191547111, ,0.0781004469296545
141, ,PASS, ,0.086586466, ,0.013649682720624952, ,0.029707708161161202, ,0.0012013176786671417, ,1.8333333333333333, ,0.7403226065589626, ,0.3906654966225179, ,0.07356992714434399
142, ,PASS, ,0.08615012400000002, ,0.01355582692259999, ,0.02957907897238322, ,0.0011870826006914453, ,1.8333333333333333, ,0.7426156095624133, ,0.38850227546376603, ,0.0781004469296545
143, ,PASS, ,0.08644467399999999, ,0.013606898229744325, ,0.02971274982125263, ,0.0011956315663130658, ,1.8333333333333333, ,0.7404668346319963, ,0.39031856492724637, ,0.07669231240178771
144, ,PASS, ,0.086139202, ,0.013574780478271781, ,0.029640742737935964, ,0.0011889143393111795, ,1.8333333333333333, ,0.7420287565538063, ,0.3899512254851942, ,0.07548825534172772
145, ,PASS, ,0.08654495799999996, ,0.013640909849437935, ,0.029617938932872796, ,0.0011998636210847763, ,1.8333333333333333, ,0.7409706847825146, ,0.39080835084998267, ,0.07730454480520806
146, ,PASS, ,0.08616699900000001, ,0.013608889420968115, ,0.029496573273420545, ,0.0011920001499574385, ,1.8333333333333333, ,0.7422557381522095, ,0.39025734168690435, ,0.07654945817432297
147, ,PASS, ,0.08664057399999998, ,0.013636217245213383, ,0.029589569957547805, ,0.0012010245912788926, ,1.8333333333333333, ,0.7403899332793111, ,0.38978796351094874, ,0.07818207791677721
148, ,PASS, ,0.08610398699999999, ,0.013559843371394806, ,0.029654313109616335, ,0.0011872344014339507, ,1.8333333333333333, ,0.7412135532356284, ,0.38862472194445014, ,0.07289647150058162
149, ,PASS, ,0.08658764099999998, ,0.013668563607525197, ,0.029647541159290625, ,0.0012029096507265309, ,1.8333333333333333, ,0.7408990275272708, ,0.3896247015367033, ,0.07650864268076162
150, ,PASS, ,0.08640859399999998, ,0.013598417866158856, ,0.02949251407364258, ,0.0011947619449594073, ,1.8333333333333333, ,0.7426325665707681, ,0.38897165363972164, ,0.07777392298116365
151, ,PASS, ,0.086653027, ,0.013610013691399093, ,0.029502087760444072, ,0.0011991009721272275, ,1.8333333333333333, ,0.7402622106836921, ,0.3892573620946511, ,0.07614130323870942
152, ,PASS, ,0.086754864, ,0.013678850565152369, ,0.029678582598506562, ,0.0012063787161962231, ,1.8333333333333333, ,0.7414460187804417, ,0.39031856492724637, ,0.07608007999836738
153, ,PASS, ,0.086877608, ,0.013763119735664115, ,0.030047675695236833, ,0.0012148191890981738, ,1.8333333333333333, ,0.7434715507381943, ,0.3934205424379094, ,0.07454949898981654
154, ,PASS, ,0.086741331, ,0.013682838935887646, ,0.029521626014218077, ,0.0012061071437214255, ,1.8333333333333333, ,0.7422717223435236, ,0.3888900226525989, ,0.0787534948266362
155, ,PASS, ,0.086816852, ,0.013690753609606383, ,0.02974253784061121, ,0.0012080578540056362, ,1.8333333333333333, ,0.7411896455823983, ,0.38989000224485215, ,0.0764270116936389
156, ,PASS, ,0.08689024899999999, ,0.01373572192890368, ,0.02964892558674721, ,0.0012132797172217412, ,1.8333333333333333, ,0.7431825131935116, ,0.39033897267402706, ,0.07944735821717924
157, ,PASS, ,0.08728039699999998, ,0.013776169915381886, ,0.029607810704120323, ,0.0012220305165623392, ,1.8333333333333333, ,0.7398894934807161, ,0.39099202057100874, ,0.07499846941899145
158, ,PASS, ,0.08712943599999998, ,0.013744000657380675, ,0.029500162874141346, ,0.0012173422007291275, ,1.9166666666666667, ,0.7422830485792616, ,0.3908287585967633, ,0.07783514622150568
159, ,PASS, ,0.08717803599999997, ,0.013744114948797783, ,0.02958128492292198, ,0.001218167423394203, ,1.8333333333333333, ,0.7409025226768627, ,0.390216526193343, ,0.07599844901124467
160, ,PASS, ,0.08700257299999999, ,0.01377531985956696, ,0.02947555567728577, ,0.0012182052131963679, ,1.9166666666666667, ,0.7431483571247441, ,0.39064508887573723, ,0.07556988632885044
161, ,PASS, ,0.08735162299999999, ,0.013759484732523492, ,0.029549380945268464, ,0.0012218643995634223, ,1.8333333333333333, ,0.7408055337884732, ,0.3905226423950532, ,0.07493724617864941
162, ,PASS, ,0.087019645, ,0.013732751208051383, ,0.029213173697730657, ,0.0012142498553816407, ,1.8333333333333333, ,0.7417434318814068, ,0.387808412073223, ,0.07238627783106467
163, ,PASS, ,0.08709758499999999, ,0.013678395182665764, ,0.029283414879784087, ,0.0012112009290397186, ,1.8333333333333333, ,0.7407941313062514, ,0.38774718883288095, ,0.07340666517009857
164, ,PASS, ,0.08707043699999997, ,0.013717672506350875, ,0.02942395703353197, ,0.0012141043101661494, ,1.8333333333333333, ,0.743286081739217, ,0.38860431419766944, ,0.07585559478377993
165, ,PASS, ,0.087322136, ,0.013747324994180393, ,0.029681333636760475, ,0.0012208978205851609, ,1.9166666666666667, ,0.7433829605543026, ,0.3905226423950532, ,0.07820248566355789
166, ,PASS, ,0.08736219, ,0.013815887619959938, ,0.029407162944405832, ,0.0012270377496328855, ,1.9166666666666667, ,0.7426859608387995, ,0.39015530295300094, ,0.07367196587824738
167, ,PASS, ,0.087258013, ,0.013692856139505317, ,0.02940787279491847, ,0.001214509155567851, ,1.8333333333333333, ,0.7413005702002087, ,0.3884614599702047, ,0.07508010040611417
168, ,PASS, ,0.08780614099999999, ,0.013848115583909595, ,0.029449669188587987, ,0.0012353729736024864, ,1.8333333333333333, ,0.7404858011244826, ,0.38766555784575824, ,0.07575355604987653
169, ,PASS, ,0.08754146, ,0.0137871534502687, ,0.029540655039925715, ,0.0012269335309663914, ,1.8333333333333333, ,0.7422640224055209, ,0.3879104508071264, ,0.0748556151915267
170, ,PASS, ,0.19165407999999995, ,0.03078962746883144, ,0.0055982102471990244, ,0.005991082153495088, ,1.8333333333333333, ,0.7997077640399107, ,0.4331340176731087, ,0.2521581192220567
171, ,PASS, ,0.09027033400000002, ,0.014158628111023726, ,0.029240268062896677, ,0.0012999745716577834, ,1.8333333333333333, ,0.7404634851297698, ,0.38984918675129077, ,0.07442705250913247
172, ,PASS, ,0.08814235100000002, ,0.014109571896908028, ,0.02923443537115916, ,0.001264301000961645, ,1.9166666666666667, ,0.749979884945767, ,0.38815534376849453, ,0.07679435113569111
173, ,PASS, ,0.0861773, ,0.013857306320942184, ,0.029415023957509237, ,0.0012144195947508408, ,1.9166666666666667, ,0.7518132373131878, ,0.39015530295300094, ,0.0806922307708006
174, ,PASS, ,0.08566116300000001, ,0.013797002749193805, ,0.02953575470589172, ,0.0012016667880368397, ,1.9166666666666667, ,0.7523959935400764, ,0.3905430501418338, ,0.07942695047039856
175, ,PASS, ,0.08591180299999998, ,0.013763362971793475, ,0.02948651522155405, ,0.0012027284601845017, ,1.9166666666666667, ,0.7498807252966171, ,0.3890941001204057, ,0.07914124201546907
176, ,PASS, ,0.08585606100000001, ,0.013797341296603764, ,0.029617230744435626, ,0.0012043996010463842, ,1.9166666666666667, ,0.7515650633647929, ,0.3901144874594396, ,0.0770800595906206
177, ,PASS, ,0.08611300400000002, ,0.01383376451785269, ,0.029504259184323384, ,0.0012110399455057574, ,1.9166666666666667, ,0.7517408251391612, ,0.3904614191547111, ,0.08244729699393889
178, ,PASS, ,0.08585056999999999, ,0.013723766064743006, ,0.029493819085378053, ,0.001197601011803894, ,1.8333333333333333, ,0.7515651215685739, ,0.38856349870410806, ,0.07730454480520806
179, ,PASS, ,0.086083782, ,0.01379972502460446, ,0.029580589671068143, ,0.0012076434708231144, ,1.9166666666666667, ,0.7485706161944164, ,0.38942062406889655, ,0.0762433419726128
180, ,PASS, ,0.08570424200000001, ,0.013712801576133147, ,0.029421852274940718, ,0.0011946669122087686, ,1.8333333333333333, ,0.7510819152402526, ,0.38829819799595927, ,0.07908001877512703
181, ,PASS, ,0.085935494, ,0.013621637731343754, ,0.029306937673712577, ,0.0011906061604971844, ,1.8333333333333333, ,0.7479355783838397, ,0.3857880451419359, ,0.07610048774514806
182, ,PASS, ,0.08547460500000001, ,0.013773299724324456, ,0.02967657948520357, ,0.0011968570516964483, ,1.9166666666666667, ,0.7527712610314871, ,0.39068590436929856, ,0.08344727658619212
183, ,PASS, ,0.08572822300000002, ,0.013740539622932155, ,0.02969609228261138, ,0.001197485556208585, ,1.9166666666666667, ,0.7507181457020506, ,0.3904818269014918, ,0.07916164976224975
184, ,PASS, ,0.08549284200000001, ,0.013691533860773684, ,0.02957420423918349, ,0.0011898706026448747, ,1.9166666666666667, ,0.7496250542409875, ,0.38978796351094874, ,0.07454949898981654
185, ,PASS, ,0.08557224299999998, ,0.01362843454647561, ,0.029666876979658988, ,0.0011857123143157646, ,1.8333333333333333, ,0.7498821455508669, ,0.3877063733393196, ,0.07854941735882941
186, ,PASS, ,0.08510694100000002, ,0.013686747924804453, ,0.02967855513041632, ,0.001184181739113605, ,1.9166666666666667, ,0.7517167890383972, ,0.3904818269014918, ,0.07734536029876941
187, ,PASS, ,0.08532769100000001, ,0.013638220548894867, ,0.029503977866916394, ,0.001182497584271618, ,1.8333333333333333, ,0.7487402868391888, ,0.3880737127813718, ,0.07822289341033857
188, ,PASS, ,0.08509317300000001, ,0.01360991326477819, ,0.029363426350253262, ,0.0011774253735979353, ,1.8333333333333333, ,0.7512369623992788, ,0.38515540499173484, ,0.07812085467643518
189, ,PASS, ,0.085596642, ,0.013680350230969666, ,0.029681462509703882, ,0.0011903061163271438, ,1.9166666666666667, ,0.7485710079620387, ,0.3904206036611498, ,0.07879431032019754
190, ,PASS, ,0.085438134, ,0.01365779634090855, ,0.029243785962346284, ,0.0011860164118344307, ,1.8333333333333333, ,0.7518513800909561, ,0.3855023366870064, ,0.07683516662925247
191, ,PASS, ,0.08544955200000001, ,0.013621184827395152, ,0.02949245623439032, ,0.001182994805697566, ,1.8333333333333333, ,0.7488685493992346, ,0.38850227546376603, ,0.07687598212281382
192, ,PASS, ,0.085349259, ,0.013686539741609103, ,0.029848014456641703, ,0.001187523808729946, ,1.9166666666666667, ,0.7507039062142535, ,0.3905430501418338, ,0.07952898920430196
193, ,PASS, ,0.08513610500000003, ,0.013529934988586506, ,0.029369473434602358, ,0.0011712868870090134, ,1.8333333333333333, ,0.7484690310860995, ,0.3866247627599437, ,0.0769780208567172
194, ,PASS, ,0.08506211900000002, ,0.013646955730505872, ,0.029939723013520544, ,0.0011798583925009204, ,1.9166666666666667, ,0.748008922700886, ,0.3928899410216118, ,0.07663108916144569
195, ,PASS, ,0.08540179099999999, ,0.013580844801853717, ,0.02975131042695292, ,0.0011799005954067118, ,1.9166666666666667, ,0.749718687526493, ,0.39025734168690435, ,0.07969225117854738
196, ,PASS, ,0.08529247000000002, ,0.01365732937874507, ,0.029696220489042878, ,0.0011842133865756167, ,1.9166666666666667, ,0.7493739034256629, ,0.3905634578886145, ,0.07803922368931246
197, ,PASS, ,0.08538805700000003, ,0.013623416352843672, ,0.02952907870825677, ,0.0011821817424269557, ,1.8333333333333333, ,0.7488137466649815, ,0.388379828983082, ,0.07832493214424195
198, ,PASS, ,0.08519405000000004, ,0.013623304458319043, ,0.029687610011313037, ,0.0011798957432617315, ,1.9166666666666667, ,0.7499120017558583, ,0.3909307973306667, ,0.07901879553478501
199, ,PASS, ,0.08528270500000003, ,0.013639717085626432, ,0.029600159492811577, ,0.001182560521130457, ,1.9166666666666667, ,0.7490142455465169, ,0.39031856492724637, ,0.07750862227301483
200, ,PASS, ,0.08511504699999999, ,0.013616851186242637, ,0.029555972729348384, ,0.0011781583407171714, ,1.9166666666666667, ,0.7481909851050439, ,0.38858390645088875, ,0.07493724617864941
201, ,PASS, ,0.085457251, ,0.013617296371189885, ,0.02989963881455032, ,0.0011831463468180046, ,1.9166666666666667, ,0.7484161966841538, ,0.3929103487683925, ,0.07861064059917144
202, ,PASS, ,0.08627625399999998, ,0.013765686110186432, ,0.02966838349869309, ,0.001206801447161035, ,1.9166666666666667, ,0.7454682316269848, ,0.39219607763106873, ,0.07536580886104365
203, ,PASS, ,0.08625843999999998, ,0.013685845448999038, ,0.029308960305431724, ,0.0011995598049678675, ,1.8333333333333333, ,0.7464741338908301, ,0.38776759657966164, ,0.07608007999836738
204, ,PASS, ,0.08511525499999997, ,0.013576898990268009, ,0.02984219271442828, ,0.001175452517270743, ,1.9166666666666667, ,0.7501850857072395, ,0.39023693394012365, ,0.0793861349768372
205, ,PASS, ,0.08551422500000001, ,0.013605243242883218, ,0.029868121237773312, ,0.0011834983804875274, ,1.9166666666666667, ,0.7483183795220587, ,0.3905634578886145, ,0.07803922368931246
206, ,PASS, ,0.085227988, ,0.013636934690523203, ,0.02961236305804698, ,0.0011813185698541062, ,1.9166666666666667, ,0.7491447961221496, ,0.3896859247770454, ,0.07869227158629416
207, ,PASS, ,0.08524940100000003, ,0.01362986190846662, ,0.029534516181429563, ,0.0011805462955323174, ,1.8333333333333333, ,0.7480795946981292, ,0.3880737127813718, ,0.07914124201546907
208, ,PASS, ,0.08514237600000003, ,0.013565380701043224, ,0.02967876681828269, ,0.0011744368733612367, ,1.8333333333333333, ,0.7488098345583699, ,0.38829819799595927, ,0.07636578845329688
209, ,PASS, ,0.08531739600000002, ,0.013606698105164194, ,0.029518670977301074, ,0.0011798144336069023, ,1.8333333333333333, ,0.7485868322542935, ,0.3880737127813718, ,0.07908001877512703
210, ,PASS, ,0.08584529000000002, ,0.013723552155977392, ,0.029561084528403912, ,0.001197639320156831, ,1.9166666666666667, ,0.74786384929467, ,0.39027774943368504, ,0.07663108916144569
211, ,PASS, ,0.08633572299999999, ,0.013678069350335342, ,0.029740879869132875, ,0.001201268638832045, ,1.9166666666666667, ,0.747874162168807, ,0.3909307973306667, ,0.07920246525581111
212, ,PASS, ,0.08509994900000002, ,0.013646357587439458, ,0.029665800518212895, ,0.0011804740049242454, ,1.9166666666666667, ,0.750898876154623, ,0.3901348952062203, ,0.07834533989102263
213, ,PASS, ,0.085482875, ,0.013581621030196602, ,0.029664630518531052, ,0.0011804515873325594, ,1.8333333333333333, ,0.7478167063776479, ,0.3879512663006877, ,0.07663108916144569
214, ,PASS, ,0.08519601700000001, ,0.013639803167156074, ,0.029601741221708337, ,0.0011812856641127884, ,1.9166666666666667, ,0.7493551965532267, ,0.38991040999163284, ,0.07659027366788433
215, ,PASS, ,0.08543335499999999, ,0.013637795273968394, ,0.029428013447845555, ,0.001184809197292392, ,1.8333333333333333, ,0.7487968730822404, ,0.3883594212363013, ,0.07695761310993653
216, ,PASS, ,0.08559521699999999, ,0.013642546112301682, ,0.029506036004657663, ,0.0011876141986855151, ,1.9166666666666667, ,0.749807366332444, ,0.38729821840370604, ,0.07756984551335687
217, ,PASS, ,0.08601152000000001, ,0.01374414536907584, ,0.029551968301017122, ,0.0012015636645959647, ,1.9166666666666667, ,0.7489052958996075, ,0.39025734168690435, ,0.0764270116936389
218, ,PASS, ,0.08587466900000001, ,0.013763140917986335, ,0.029823324317234754, ,0.0012013092654390629, ,1.9166666666666667, ,0.7501280245602315, ,0.39074712760964064, ,0.0782841166506806
219, ,PASS, ,0.08591807799999998, ,0.013774495706385568, ,0.02969151926665252, ,0.0012030711437813358, ,1.9166666666666667, ,0.7493901667021805, ,0.3905226423950532, ,0.08024326034162568
220, ,PASS, ,0.085647965, ,0.013688890021764781, ,0.029489806361760372, ,0.0011922704687025616, ,1.9166666666666667, ,0.7492966766771874, ,0.3879512663006877, ,0.07669231240178771
221, ,PASS, ,0.086074973, ,0.013776098944250916, ,0.029596702474308484, ,0.0012054609942096664, ,1.9166666666666667, ,0.7486732839010428, ,0.3900736719658782, ,0.07450868349625518
222, ,PASS, ,0.08585643499999998, ,0.013708631740166299, ,0.02964457605162405, ,0.0011966488156559994, ,1.8333333333333333, ,0.7496503996900112, ,0.3891145078671864, ,0.07475357645762332
223, ,PASS, ,0.08612278200000002, ,0.013776906484987262, ,0.029681259083007082, ,0.0012061515026468876, ,1.9166666666666667, ,0.7504693808982255, ,0.39044101140793047, ,0.07918205750903043
224, ,PASS, ,0.086118039, ,0.013814114006763186, ,0.029728273965221732, ,0.0012093237417620593, ,1.9166666666666667, ,0.7500662839762531, ,0.39025734168690435, ,0.07501887716577213
225, ,PASS, ,0.08638475899999999, ,0.013826228659206262, ,0.02964634038288239, ,0.0012141508453022056, ,1.9166666666666667, ,0.7494822008196659, ,0.3905838656353952, ,0.07601885675802535
226, ,PASS, ,0.08566375899999999, ,0.013746534784328381, ,0.029535305887299853, ,0.0011967048239701111, ,1.8333333333333333, ,0.7517420117912622, ,0.38813493602171384, ,0.08118201669353686
227, ,PASS, ,0.08633291299999998, ,0.013811247205524282, ,0.02965855771821575, ,0.0012121290028444408, ,1.9166666666666667, ,0.7486564142924269, ,0.39023693394012365, ,0.07481479969796535
228, ,PASS, ,0.08603850800000001, ,0.013826566964652103, ,0.029413049331534255, ,0.0012094491603944636, ,1.9166666666666667, ,0.7519903391161511, ,0.39033897267402706, ,0.08024326034162568
229, ,PASS, ,0.08633009499999998, ,0.013817706203948205, ,0.029483557886367626, ,0.0012124813890492898, ,1.8333333333333333, ,0.7498439689407546, ,0.3880737127813718, ,0.0772637293116467
230, ,PASS, ,0.08606115299999997, ,0.01388581782149236, ,0.029928187250125304, ,0.001214211979212284, ,1.9166666666666667, ,0.7523456489408662, ,0.3937470663864003, ,0.07859023285239077
231, ,PASS, ,0.08649427, ,0.013895194754029701, ,0.029512125202346483, ,0.0012215107626969944, ,1.9166666666666667, ,0.7515431781481137, ,0.3908899818371054, ,0.08095753147894941
232, ,PASS, ,0.08636913699999998, ,0.013886164436267534, ,0.029953830214922962, ,0.0012188821801118494, ,1.9166666666666667, ,0.7523930247714026, ,0.39286953327483115, ,0.0779167772086284
233, ,PASS, ,0.08670617499999997, ,0.013869236712982482, ,0.029662439166346196, ,0.0012222106194435217, ,1.9166666666666667, ,0.7501161828620201, ,0.3879716740474684, ,0.07665149690822637
234, ,PASS, ,0.086425241, ,0.013832027084781026, ,0.029772950392486685, ,0.0012154846457384718, ,1.9166666666666667, ,0.7495217995651876, ,0.3929919797555152, ,0.07656986592110365
235, ,PASS, ,0.086396174, ,0.013921294916469415, ,0.02940563558909451, ,0.0012230496171884843, ,1.9166666666666667, ,0.7526178471674972, ,0.3896042937899227, ,0.08059019203689721
236, ,PASS, ,0.08688182399999998, ,0.0139785774990851, ,0.029431879965045003, ,0.0012348311133432033, ,1.9166666666666667, ,0.7535331036865164, ,0.3909512050774474, ,0.07826370890389991
237, ,PASS, ,0.087386363, ,0.014010476821535035, ,0.02939884784735291, ,0.001244986176972185, ,1.9166666666666667, ,0.7506491797750557, ,0.389645109283484, ,0.07720250607130466
238, ,PASS, ,0.087102597, ,0.013982185249924813, ,0.029411049908271054, ,0.0012382073392676002, ,1.9166666666666667, ,0.7522100824938525, ,0.38813493602171384, ,0.07863104834595212
239, ,PASS, ,0.08726105099999999, ,0.014076893048874089, ,0.029396947473148916, ,0.0012489282316434452, ,1.9166666666666667, ,0.7520406380491619, ,0.39070631211607926, ,0.07779433072794432
240, ,PASS, ,0.08773486999999999, ,0.014091408968160725, ,0.02926718587836677, ,0.0012573074304691172, ,1.9166666666666667, ,0.7528841286126412, ,0.38829819799595927, ,0.07914124201546907
241, ,PASS, ,0.09084577100000002, ,0.014556511495221636, ,0.029010465007244753, ,0.0013447473597310749, ,1.9166666666666667, ,0.7494847166382688, ,0.3905022346482725, ,0.07520254688679823
242, ,PASS, ,0.18910023999999995, ,0.0309917042211147, ,0.0073073059681639, ,0.005954056436262469, ,1.8333333333333333, ,0.8082973533585168, ,0.4369298585743148, ,0.2615252749943879
243, ,PASS, ,0.11389663999999997, ,0.014402107530007237, ,0.028801167289238993, ,0.0016636351326035786, ,1.6666666666666667, ,0.6503522562184993, ,0.38860431419766944, ,0.07014142568519009
244, ,PASS, ,0.10996627000000002, ,0.013942320787390997, ,0.029262007094753167, ,0.0015548244487071494, ,1.6666666666666667, ,0.6508184892366937, ,0.3879920817942491, ,0.07126385175812738
245, ,PASS, ,0.11064083999999999, ,0.013986867955152185, ,0.029335277130874877, ,0.0015697620817390061, ,1.6666666666666667, ,0.6491209942735934, ,0.3909716128242281, ,0.07108018203710129
246, ,PASS, ,0.11002708, ,0.014108355595158079, ,0.029075759620824065, ,0.0015745783349915997, ,1.75, ,0.652958895145728, ,0.39031856492724637, ,0.07316177220873044
247, ,PASS, ,0.11087935999999998, ,0.014073819386292085, ,0.029066673193608294, ,0.0015827219857560656, ,1.6666666666666667, ,0.6493487963734682, ,0.38999204097875556, ,0.07150874471949552
248, ,PASS, ,0.11054427000000003, ,0.014159695907907893, ,0.02898082400787739, ,0.0015877841628176392, ,1.75, ,0.652063038481347, ,0.390787943103202, ,0.0739372665863962
249, ,PASS, ,0.11137483999999996, ,0.014155360184993812, ,0.02874206852880553, ,0.0015986768385536784, ,1.6666666666666667, ,0.6480175371250972, ,0.3884002367298627, ,0.06942715454786637
250, ,PASS, ,0.11123648999999997, ,0.014219771580239059, ,0.029054497175363767, ,0.0016046582720509672, ,1.75, ,0.6517801161576084, ,0.3905838656353952, ,0.0718964919083284
251, ,PASS, ,0.11193328999999996, ,0.014240986965644423, ,0.028960134075835184, ,0.0016171063161714292, ,1.6666666666666667, ,0.6507130007370404, ,0.38984918675129077, ,0.07210056937613518
252, ,PASS, ,0.11085808999999998, ,0.014093784763965158, ,0.02900565152711169, ,0.001584641960768413, ,1.6666666666666667, ,0.6541316656173135, ,0.3880124895410298, ,0.07408012081386094
253, ,PASS, ,0.11213404999999996, ,0.014240082018721258, ,0.02874707290341013, ,0.0016193723951555832, ,1.6666666666666667, ,0.6495838667648823, ,0.3882573825023979, ,0.07130466725168874
254, ,PASS, ,0.11228413999999994, ,0.014449814367758091, ,0.02888279977143323, ,0.0016463763702727697, ,1.75, ,0.6565161400881668, ,0.3907675353564213, ,0.07563110956919246
255, ,PASS, ,0.11352792999999996, ,0.014424633818435501, ,0.0286771843419522, ,0.0016612338801511887, ,1.6666666666666667, ,0.650546552872114, ,0.3890941001204057, ,0.07156996795983755
