Channel, ,Pass/Fail, ,Amplitude, ,Sorting Function Response, ,Mean, ,Variance, ,NPeaksRatio, ,IntegralRatio, ,ToT50, ,ToT99
0, ,PASS, ,0.03310738000000001, ,0.02041531138101832, ,-0.0007402197485153367, ,0.00013893090608539522, ,0.9166666666666666, ,0.3242105733871764, ,0.47660251831595274, ,0.048162282402399954
1, ,PASS, ,0.03654834999999999, ,0.02652654109620621, ,-0.0010000378445337856, ,0.00019957414892342657, ,0.9166666666666666, ,0.35821250631291, ,0.4764392563417073, ,0.06414154813167078
2, ,PASS, ,0.03635477999999999, ,0.02668386721233143, ,-0.0009087495702128532, ,0.00019970415331426602, ,0.9166666666666666, ,0.3632600615367402, ,0.47631680986102326, ,0.06852921368951655
3, ,PASS, ,0.03675259, ,0.026790289633726518, ,-0.0008666786728842279, ,0.00020269788137223976, ,0.9166666666666666, ,0.36398073321337954, ,0.4750923450541826, ,0.06081508540642028
4, ,PASS, ,0.03615198, ,0.026606370199712747, ,-0.0011590750333666665, ,0.00019799090484365537, ,1.0, ,0.3568267329464895, ,0.47578620844472563, ,0.07191689965510908
5, ,PASS, ,0.03629712, ,0.02684618821579128, ,-0.0008855142311381404, ,0.00020063506180880052, ,0.9166666666666666, ,0.36519726448908413, ,0.4763780331013653, ,0.07703924409705924
6, ,PASS, ,0.03661568, ,0.02689809110693528, ,-0.0009926569443480752, ,0.00020268982364069076, ,0.9166666666666666, ,0.36147481806350706, ,0.4759290626721904, ,0.062121181200383666
7, ,PASS, ,0.03638003000000001, ,0.026896098434377746, ,-0.0009921370355707032, ,0.00020143733554372792, ,0.9166666666666666, ,0.3633457031726304, ,0.47548009224301546, ,0.06783535029897349
8, ,PASS, ,0.03668845, ,0.02705979344683852, ,-0.0009310561094671544, ,0.00020431519213279508, ,1.0, ,0.3640696688776937, ,0.4759902859125324, ,0.07440664476235179
9, ,PASS, ,0.03669945, ,0.027151017856829184, ,-0.0010399523064835417, ,0.00020515800634667456, ,0.9166666666666666, ,0.36164578304274764, ,0.47619436338033916, ,0.0793861349768372
10, ,PASS, ,0.03684828999999999, ,0.027135964331363827, ,-0.0010231352417297615, ,0.00020582354549815318, ,0.9166666666666666, ,0.36080839298410083, ,0.47668414930307546, ,0.07046794963368094
11, ,PASS, ,0.03653763, ,0.0269836852464155, ,-0.0009088629787147206, ,0.00020291644660365332, ,1.0, ,0.3652962855685486, ,0.4755209077365768, ,0.06575376012734434
12, ,PASS, ,0.036506439999999994, ,0.02672686852774649, ,-0.0010608403171363853, ,0.00020086219500835783, ,0.9166666666666666, ,0.3593447125189505, ,0.47566376196404153, ,0.06363135446215383
13, ,PASS, ,0.03680279999999998, ,0.027136640037601818, ,-0.0010271892696067436, ,0.00020557064575037304, ,0.9166666666666666, ,0.36142810197281217, ,0.4759698781657517, ,0.07465153772371992
14, ,PASS, ,0.03646289000000001, ,0.02700822678753961, ,-0.0011535163025244387, ,0.00020266590167930504, ,0.9166666666666666, ,0.3583894367162959, ,0.47666374155629476, ,0.09473276055590703
15, ,PASS, ,0.03660096, ,0.02703322270928243, ,-0.0009597357088630848, ,0.00020362309972920748, ,1.0, ,0.3637490572191056, ,0.47580661619150627, ,0.07279443276667823
16, ,PASS, ,0.03645631999999999, ,0.02686671817926, ,-0.0009838281459562054, ,0.000201577299764931, ,0.9166666666666666, ,0.3623788668436907, ,0.47576580069794494, ,0.08101875471929144
17, ,PASS, ,0.03646039999999999, ,0.026649681031539772, ,-0.0008151555764168081, ,0.00020011838293139763, ,1.0, ,0.36602591570211257, ,0.47537805350911205, ,0.06277422909736537
18, ,PASS, ,0.0361832, ,0.026564962176839475, ,-0.0010442550521417935, ,0.00019783866129059836, ,0.9166666666666666, ,0.35979606296187505, ,0.4757249852043836, ,0.07183526866798637
19, ,PASS, ,0.03650105, ,0.0271033038552544, ,-0.00111998816330279, ,0.0002037473033907015, ,0.9166666666666666, ,0.3602205102642905, ,0.476398440848146, ,0.07165159894696027
20, ,PASS, ,0.036771859999999996, ,0.02757144909107206, ,-0.0009908800195914376, ,0.0002087654805928806, ,1.0, ,0.3661209352236685, ,0.47619436338033916, ,0.08303912165057856
21, ,PASS, ,0.03626355999999999, ,0.026721196707922036, ,-0.0010076580304483587, ,0.0001994472525455429, ,0.9166666666666666, ,0.36137063870502867, ,0.4760311014060937, ,0.06775371931185079
22, ,PASS, ,0.03641885999999999, ,0.02663101536552251, ,-0.0008610309283484016, ,0.000199574095106268, ,1.0, ,0.36365917423462146, ,0.4761739556335585, ,0.07352911165078263
23, ,PASS, ,0.03647648, ,0.026771440066739687, ,-0.001022905306626396, ,0.00020103551577859875, ,0.9166666666666666, ,0.3599132057496917, ,0.4764392563417073, ,0.0688353298912267
24, ,PASS, ,0.036713230000000006, ,0.02690066477972206, ,-0.0009208876592314449, ,0.00020321565589510963, ,0.9166666666666666, ,0.3627927731885213, ,0.47621477112711985, ,0.07146792922593416
25, ,PASS, ,0.03645563, ,0.026623739594850076, ,-0.000976949677353524, ,0.00019983214478674387, ,0.9166666666666666, ,0.36061177380156106, ,0.4759698781657517, ,0.06863125242341993
26, ,PASS, ,0.03649627999999999, ,0.026648012415529363, ,-0.0009066179761637521, ,0.00020018352532528115, ,0.9166666666666666, ,0.36255024582309753, ,0.47576580069794494, ,0.06303952980551418
27, ,PASS, ,0.0363943, ,0.026825344527635644, ,-0.0010038484940511421, ,0.00020085963931508154, ,0.9166666666666666, ,0.36188400479094124, ,0.47576580069794494, ,0.06842717495561315
28, ,PASS, ,0.03669918999999999, ,0.027548910595348607, ,-0.0010452238435950294, ,0.0002081982095221776, ,1.0, ,0.36501324556601794, ,0.4759698781657517, ,0.08044733780943246
29, ,PASS, ,0.03622736, ,0.026547256164021198, ,-0.0009986263945633768, ,0.0001979134773619455, ,0.9166666666666666, ,0.36078498452921054, ,0.4756841697108222, ,0.0690394073590335
30, ,PASS, ,0.03641477, ,0.026675819039392007, ,-0.001030301198751046, ,0.00019989228227294784, ,0.9166666666666666, ,0.35963655769368863, ,0.47619436338033916, ,0.0720801616293545
31, ,PASS, ,0.0363526, ,0.026717433641219302, ,-0.0009924093230750397, ,0.0001999293797719259, ,0.9166666666666666, ,0.3614385561737654, ,0.47611273239321644, ,0.07067202710148772
32, ,PASS, ,0.036602869999999996, ,0.02683334096917928, ,-0.0010042912881369772, ,0.00020216362263554354, ,0.9166666666666666, ,0.3605539493560488, ,0.47615354788677783, ,0.055182547294953165
33, ,PASS, ,0.03649652, ,0.02694815346001899, ,-0.0010187827913716054, ,0.00020248434515702312, ,0.9166666666666666, ,0.36186604315631266, ,0.4760515091528744, ,0.07220260811003858
34, ,PASS, ,0.03672379999999999, ,0.027048452029772952, ,-0.0010826760798759217, ,0.00020448491984033295, ,0.9166666666666666, ,0.3594993563824747, ,0.4764188485949266, ,0.06779453480541213
35, ,PASS, ,0.03676361, ,0.027031153093036827, ,-0.0011682661196710277, ,0.00020471376718940936, ,0.9166666666666666, ,0.3569388261646507, ,0.47660251831595274, ,0.0607946776596396
36, ,PASS, ,0.03691440000000001, ,0.027328833130500087, ,-0.0010079076682108536, ,0.00020777071751342403, ,0.9166666666666666, ,0.3628490445196995, ,0.47650047958204933, ,0.07054958062080366
37, ,PASS, ,0.03687538, ,0.027458903729878237, ,-0.0008624786061508962, ,0.00020853817984643007, ,1.0, ,0.3684820349274786, ,0.4759902859125324, ,0.07599844901124467
38, ,PASS, ,0.03699892999999999, ,0.027389714698102294, ,-0.0009880147335768667, ,0.0002088415010861309, ,1.0, ,0.3638545125809153, ,0.47629640211424257, ,0.0736515581314667
39, ,PASS, ,0.03702899999999999, ,0.02769073482668845, ,-0.00098522241546091, ,0.0002111321292773099, ,1.0, ,0.36587433971248895, ,0.4762759943674619, ,0.07730454480520806
40, ,PASS, ,0.03737939999999999, ,0.02774929046638666, ,-0.0009604994840921624, ,0.0002136861748884995, ,1.0, ,0.36602336043578915, ,0.47578620844472563, ,0.06854962143629721
41, ,PASS, ,0.037302329999999995, ,0.0278826038336558, ,-0.0011303945690904278, ,0.00021424649170998132, ,0.9166666666666666, ,0.3622929606860889, ,0.4763372176078039, ,0.07483520744474603
42, ,PASS, ,0.03752551, ,0.027674616597903056, ,-0.0010090061839554305, ,0.00021397797853981476, ,1.0, ,0.3629407707966974, ,0.47611273239321644, ,0.07063121160792638
43, ,PASS, ,0.037447499999999995, ,0.027752632715845944, ,-0.0010030735774780113, ,0.00021406819259078456, ,1.0, ,0.3638089204709435, ,0.47650047958204933, ,0.06605987632905451
44, ,PASS, ,0.036865060000000005, ,0.027401062552690657, ,-0.0009011205918246576, ,0.0002081265834407149, ,1.0, ,0.36694188769884584, ,0.47619436338033916, ,0.07012101793840941
45, ,PASS, ,0.03657446999999999, ,0.026999863013153623, ,-0.0009880616542519546, ,0.0002033008283427239, ,0.9166666666666666, ,0.363077325756404, ,0.4757045774576029, ,0.06859043692985857
46, ,PASS, ,0.036618259999999986, ,0.02675540663390078, ,-0.001014952355543765, ,0.0002018491953211165, ,0.9166666666666666, ,0.35980421352943737, ,0.4761739556335585, ,0.0703250954062162
47, ,PASS, ,0.03800980000000001, ,0.027996648240378338, ,-0.0008898356894757256, ,0.00021912571043843624, ,0.9166666666666666, ,0.3654426627090837, ,0.47615354788677783, ,0.07973306667210873
48, ,PASS, ,0.09439709999999998, ,0.08052639905389734, ,0.0017982401240791029, ,0.0015713015476436778, ,1.0, ,0.46160567359313326, ,0.44668476153547887, ,0.0706924348482684
49, ,PASS, ,0.05901638000000002, ,0.04735622623989789, ,-0.0018173008320238357, ,0.0005773810152422651, ,1.0, ,0.37573733707080365, ,0.47594947041897107, ,0.10007959021244464
50, ,PASS, ,0.04108769000000001, ,0.030058474433586797, ,-0.001098175246219465, ,0.00025416198883700537, ,1.0, ,0.3608875218312604, ,0.47619436338033916, ,0.06946797004142773
51, ,PASS, ,0.04022117, ,0.029303298894423454, ,-0.001104683788085957, ,0.00024260462718183487, ,0.9166666666666666, ,0.35961160318910856, ,0.4760106936593131, ,0.06157017203730536
52, ,PASS, ,0.04055212999999999, ,0.029542275930462193, ,-0.0009481505450909158, ,0.0002465526512644669, ,1.0, ,0.3632792375708492, ,0.47613314013999714, ,0.06240688965531316
53, ,PASS, ,0.040340070000000006, ,0.02957645633565693, ,-0.0011815872992387902, ,0.00024560001899487637, ,0.9166666666666666, ,0.3585223676006755, ,0.4764392563417073, ,0.07077406583539111
54, ,PASS, ,0.04037149999999999, ,0.029856074076040254, ,-0.000900995768249627, ,0.00024815577733320904, ,1.0, ,0.36779265027654695, ,0.47611273239321644, ,0.07295769474092366
55, ,PASS, ,0.04075514, ,0.030025883547982676, ,-0.0009424357502908099, ,0.00025186169015065573, ,1.0, ,0.36584537380579624, ,0.476398440848146, ,0.08250852023428093
56, ,PASS, ,0.04066382, ,0.029847462756149065, ,-0.0011018913720128153, ,0.000249803403543453, ,1.0, ,0.36102073185364747, ,0.4764188485949266, ,0.05871308748801045
57, ,PASS, ,0.04062442, ,0.02988864977931753, ,-0.0010951730319789384, ,0.0002498820414819216, ,1.0, ,0.3618193499857575, ,0.4760719168996551, ,0.06626395379686129
58, ,PASS, ,0.04059652, ,0.0298529484463001, ,-0.0009717356296810263, ,0.00024942106778160617, ,1.0, ,0.36477832756086315, ,0.47629640211424257, ,0.06648843901144874
59, ,PASS, ,0.040316920000000006, ,0.029631652459024917, ,-0.0011689916540478758, ,0.0002458866478078662, ,0.9166666666666666, ,0.3601649712257081, ,0.4755617232301382, ,0.08001877512703823
60, ,PASS, ,0.0405619, ,0.0297837199974515, ,-0.0010718866406808018, ,0.0002487153265552663, ,1.0, ,0.36251600948593515, ,0.4756433542172609, ,0.06367216995571519
61, ,PASS, ,0.04085417000000001, ,0.02995788103340779, ,-0.001202360144078692, ,0.0002518992533642641, ,0.9166666666666666, ,0.3593540099102629, ,0.47529642252198934, ,0.06771290381828943
62, ,PASS, ,0.04088227999999999, ,0.03017779638513496, ,-0.0009954081590171626, ,0.0002538960697919285, ,1.0, ,0.365370008617545, ,0.47611273239321644, ,0.06926389257362095
63, ,PASS, ,0.04080594, ,0.02995010732028277, ,-0.0009882517358829408, ,0.0002515098879269786, ,1.0, ,0.36428815418093335, ,0.4760923246464358, ,0.0681006510071223
64, ,PASS, ,0.04074572, ,0.030039653807473025, ,-0.0010323506365176214, ,0.000251967831694972, ,1.0, ,0.36427792894366107, ,0.4760515091528744, ,0.06603946858227383
65, ,PASS, ,0.04114912000000001, ,0.0300691112395576, ,-0.0011635742805248873, ,0.00025444026318146483, ,1.0, ,0.3589244936366026, ,0.47613314013999714, ,0.05552947899022469
66, ,PASS, ,0.040840669999999996, ,0.03000618334263454, ,-0.0010363047617395558, ,0.00025219467156383977, ,1.0, ,0.3634440219552879, ,0.4759698781657517, ,0.0653251974449501
67, ,PASS, ,0.040721639999999996, ,0.029924536282918517, ,-0.001055009798575539, ,0.00025088358970951655, ,1.0, ,0.3626926739835654, ,0.4764800718352687, ,0.07687598212281382
68, ,PASS, ,0.04054480999999999, ,0.030250704194698285, ,-0.0011248367251688737, ,0.00025245637212685605, ,1.0, ,0.364829569042133, ,0.4751739760413053, ,0.07679435113569111
69, ,PASS, ,0.04042281999999999, ,0.029984514103660997, ,-0.0009272002450970384, ,0.00024987022073201894, ,1.0, ,0.3684563119530858, ,0.4760106936593131, ,0.07324340319585315
70, ,PASS, ,0.0407593, ,0.029973985615336624, ,-0.0009773184445215396, ,0.00025157905136288447, ,1.0, ,0.3651293443190527, ,0.4759698781657517, ,0.06332523826044366
71, ,PASS, ,0.04047954999999999, ,0.030014380240601272, ,-0.0010897529211648736, ,0.00025014513684748247, ,1.0, ,0.3640701668912131, ,0.47578620844472563, ,0.06483541152221384
72, ,PASS, ,0.04066618999999999, ,0.029954584437272613, ,-0.0011243721179159604, ,0.00025081118865416557, ,1.0, ,0.36222606815198305, ,0.4755413154833575, ,0.07283524826023959
73, ,PASS, ,0.040757119999999994, ,0.03013745378183841, ,-0.0011856508295749065, ,0.00025291710147463866, ,1.0, ,0.3609887679698821, ,0.47625558662068124, ,0.06814146650068366
74, ,PASS, ,0.04085478000000001, ,0.030087070699263946, ,-0.0011208111481398335, ,0.00025307410434157514, ,1.0, ,0.36171061134232146, ,0.47629640211424257, ,0.07179445317442501
75, ,PASS, ,0.04065574999999999, ,0.030016983044828444, ,-0.0009675729085120705, ,0.00025117367127647607, ,1.0, ,0.36590196945663506, ,0.47613314013999714, ,0.06761086508438603
76, ,PASS, ,0.04064083, ,0.03009982990438082, ,-0.0011796697634742143, ,0.0002518162545638846, ,1.0, ,0.3615331405495973, ,0.4759290626721904, ,0.07512091589967551
77, ,PASS, ,0.040501680000000005, ,0.029944776311269638, ,-0.0011673598046978628, ,0.0002497641559511829, ,1.0, ,0.36167215210584713, ,0.4760515091528744, ,0.06846799044917451
78, ,PASS, ,0.04074353999999999, ,0.02997612384874928, ,-0.0010377880328972873, ,0.00025141324706871794, ,1.0, ,0.363785578191995, ,0.475888247178629, ,0.06771290381828943
79, ,PASS, ,0.04067929, ,0.02992799337568613, ,-0.0010434531613640532, ,0.00025066391824128393, ,1.0, ,0.363217311388567, ,0.4764392563417073, ,0.06779453480541213
80, ,PASS, ,0.04081351, ,0.029830222781856673, ,-0.0010162349750005096, ,0.0002505645464509387, ,1.0, ,0.3627046237608755, ,0.4759086549254097, ,0.0645905185608457
81, ,PASS, ,0.04113464, ,0.030320881379427386, ,-0.0010683338466561903, ,0.0002568266919592909, ,1.0, ,0.3637320360818215, ,0.4760719168996551, ,0.07387604334605416
82, ,PASS, ,0.04124891, ,0.03098307394943228, ,-0.0010638050429583067, ,0.00026335702466547553, ,1.0, ,0.3686501424870115, ,0.4756841697108222, ,0.07305973347482704
83, ,PASS, ,0.040309899999999996, ,0.029520918304606313, ,-0.0011770713452786672, ,0.00024496791366879905, ,0.9166666666666666, ,0.3598393889560292, ,0.475194383788086, ,0.06242729740209384
84, ,PASS, ,0.040432369999999995, ,0.0296927410020803, ,-0.001091003580539172, ,0.0002470936742264361, ,1.0, ,0.36234278010597976, ,0.47527601477520864, ,0.07583518703699925
85, ,PASS, ,0.040707690000000005, ,0.029726014652407685, ,-0.0010554317934327866, ,0.00024910599687560784, ,1.0, ,0.36151362644231666, ,0.47611273239321644, ,0.06516193547070467
86, ,PASS, ,0.040556629999999996, ,0.02981828019482668, ,-0.0011484154768270029, ,0.0002490396023755408, ,0.9166666666666666, ,0.36046582762072515, ,0.4763576253545846, ,0.07416175180098365
87, ,PASS, ,0.04054542999999999, ,0.02970618338063064, ,-0.0010471232007510049, ,0.000248077036935191, ,1.0, ,0.3624929339612499, ,0.47615354788677783, ,0.07775351523438297
88, ,PASS, ,0.04088997000000001, ,0.03001071774047787, ,-0.0009210151298953079, ,0.0002526810339701093, ,1.0, ,0.3671073349788855, ,0.4750515295606212, ,0.07371278137180874
89, ,PASS, ,0.04100159, ,0.030472596839995002, ,-0.0010769936444154197, ,0.00025736876795467273, ,1.0, ,0.36517002291205874, ,0.47631680986102326, ,0.06832513622170976
90, ,PASS, ,0.04169976, ,0.03150000251239096, ,-0.0010768618542478722, ,0.00027060975019282713, ,1.0, ,0.36984922418166716, ,0.47582702393828696, ,0.07297810248770434
91, ,PASS, ,0.04125086, ,0.030514379702730902, ,-0.0010441181418746552, ,0.00025930269198752847, ,1.0, ,0.36474216266909765, ,0.4765412950756107, ,0.08012081386094161
92, ,PASS, ,0.04090002, ,0.030451098633263805, ,-0.0010505984712556884, ,0.00025652619806309005, ,1.0, ,0.36638487951091153, ,0.4760719168996551, ,0.0590396114365013
93, ,PASS, ,0.04101085, ,0.030396766901864384, ,-0.0011484107136589044, ,0.0002567583965113785, ,1.0, ,0.36385533753075155, ,0.475255607028428, ,0.06608028407583519
94, ,PASS, ,0.041027850000000005, ,0.03027474517771246, ,-0.001172361526703536, ,0.0002557555352138903, ,1.0, ,0.3622751643002002, ,0.4750719373074019, ,0.05585600293871554
95, ,PASS, ,0.04113004, ,0.030264817959819272, ,-0.0009469365994571532, ,0.00025634284795100456, ,1.0, ,0.3661883670639966, ,0.47613314013999714, ,0.06881492214444603
96, ,PASS, ,0.04081063, ,0.03008676358068024, ,-0.0009812734164608876, ,0.00025290706982439157, ,1.0, ,0.3655670391894981, ,0.4763372176078039, ,0.07197812289545111
97, ,PASS, ,0.04038729, ,0.030113455189334244, ,-0.0010334609489602248, ,0.0002506289984463724, ,1.0, ,0.36706971652369713, ,0.4760923246464358, ,0.056794759290626724
98, ,PASS, ,0.04070678000000001, ,0.02974794478819194, ,-0.0011973116487418618, ,0.00024939999700785825, ,0.9166666666666666, ,0.35879561569192736, ,0.47580661619150627, ,0.06714148690843044
99, ,PASS, ,0.040517620000000004, ,0.029520173851250622, ,-0.0011928209926328028, ,0.0002462831384937944, ,0.9166666666666666, ,0.3585619373191368, ,0.4753372380155507, ,0.053549927552498926
100, ,PASS, ,0.04060668, ,0.029799050377002867, ,-0.0010070812020162845, ,0.00024917006163286125, ,1.0, ,0.36445523965560045, ,0.4755617232301382, ,0.06548845941919552
101, ,PASS, ,0.04067547, ,0.02983540545256363, ,-0.0011225135776820874, ,0.0002499312214320653, ,1.0, ,0.36164542902579905, ,0.4755617232301382, ,0.06512111997714333
102, ,PASS, ,0.04075769, ,0.029822967573189474, ,-0.0010310992100161214, ,0.00025032880625245615, ,1.0, ,0.3635186865580675, ,0.4755004999897961, ,0.058937572702597904
103, ,PASS, ,0.04067518999999999, ,0.02999892354959002, ,-0.0010952567729230012, ,0.0002513083077066148, ,1.0, ,0.36310367635705987, ,0.4760106936593131, ,0.07230464684394196
104, ,PASS, ,0.04077799, ,0.029889696314119932, ,-0.0009620306722311787, ,0.0002510594705068033, ,1.0, ,0.36586780378017586, ,0.4751331605477439, ,0.060141629762657904
105, ,PASS, ,0.04077452000000001, ,0.030116461617448707, ,-0.0011029618379216745, ,0.00025290336354658185, ,0.9166666666666666, ,0.36303452981654805, ,0.4762759943674619, ,0.07348829615722129
106, ,PASS, ,0.04079042, ,0.030001617248196655, ,-0.0009931511028346354, ,0.00025206352915008645, ,1.0, ,0.36554601593783237, ,0.4754392767494541, ,0.05497846982714639
107, ,PASS, ,0.04098261999999999, ,0.03006664413690947, ,-0.0009687456196812309, ,0.0002538031311766029, ,1.0, ,0.3652356674864909, ,0.4760311014060937, ,0.06834554396849044
108, ,PASS, ,0.04106185, ,0.030127659626978318, ,-0.00106103682863615, ,0.0002548491955568291, ,1.0, ,0.36350596127136287, ,0.47574539295116425, ,0.0607946776596396
109, ,PASS, ,0.04123682000000001, ,0.030332125526968873, ,-0.0010054694261341602, ,0.0002576358213706247, ,1.0, ,0.3651993212084025, ,0.47594947041897107, ,0.07073325034182976
110, ,PASS, ,0.04131184, ,0.030448776104308378, ,-0.000988081746903124, ,0.00025911532194984523, ,1.0, ,0.3660237714105599, ,0.47621477112711985, ,0.06344768474112773
111, ,PASS, ,0.041269920000000015, ,0.030160916881522264, ,-0.0010481525201526496, ,0.00025636160198742885, ,1.0, ,0.3630731512312516, ,0.47580661619150627, ,0.07305973347482704
112, ,PASS, ,0.041181390000000005, ,0.030386040002984598, ,-0.0010183012720148567, ,0.00025773218222613, ,1.0, ,0.3657845957941641, ,0.4755413154833575, ,0.07022305667231281
113, ,PASS, ,0.04088667, ,0.03007752370808652, ,-0.0011441410871206707, ,0.00025341390249774333, ,0.9166666666666666, ,0.3620561298919076, ,0.47566376196404153, ,0.068753698904104
114, ,PASS, ,0.04087606, ,0.030179929458656957, ,-0.0010071971631191194, ,0.00025406841239935347, ,1.0, ,0.36586325192834224, ,0.4756841697108222, ,0.06926389257362095
115, ,PASS, ,0.04097651000000001, ,0.03029477394031658, ,-0.0010287249066345578, ,0.00025580112381544943, ,1.0, ,0.36581994641293486, ,0.47578620844472563, ,0.06636599253076468
116, ,PASS, ,0.040943129999999994, ,0.03020151418498954, ,-0.001084008254933572, ,0.00025477562486973636, ,1.0, ,0.3638710792023193, ,0.4756229464704802, ,0.07765147650047959
117, ,PASS, ,0.040731679999999985, ,0.03010538648942519, ,-0.0010458324415828244, ,0.00025259283400590307, ,1.0, ,0.36529269053014707, ,0.4756433542172609, ,0.06891696087834942
118, ,PASS, ,0.04080902, ,0.03024738056532764, ,-0.0011257014832350355, ,0.0002543418162631817, ,1.0, ,0.3639297052026714, ,0.47584743168506766, ,0.0728148405134589
119, ,PASS, ,0.04102834, ,0.03028449232312912, ,-0.0011146904230525901, ,0.000256047472413459, ,0.9166666666666666, ,0.3633510076375457, ,0.47580661619150627, ,0.0645905185608457
120, ,PASS, ,0.04103124, ,0.030083672974712015, ,-0.0009908426362727285, ,0.00025436383319062117, ,1.0, ,0.3653104086270238, ,0.47539846125589275, ,0.06940674680108569
121, ,PASS, ,0.04134388, ,0.030448507078879906, ,-0.0010881521554662146, ,0.00025940700627383883, ,0.9166666666666666, ,0.36362912668557446, ,0.4757249852043836, ,0.06781494255219281
122, ,PASS, ,0.04371472000000001, ,0.032438289900992234, ,-0.0010584479939184906, ,0.0002921445354737965, ,1.0, ,0.3671148018288076, ,0.4759902859125324, ,0.054284606436603336
123, ,PASS, ,0.09989999999999996, ,0.0917145690916993, ,0.0046394913471153616, ,0.001896544864641351, ,1.0, ,0.5105067928619383, ,0.4442970551621396, ,0.18791453235648253
124, ,PASS, ,0.062074040000000025, ,0.049996116844359, ,-0.0016908327791269556, ,0.0006410362771442488, ,1.0, ,0.38098642217290846, ,0.4755004999897961, ,0.1008550845901104
125, ,PASS, ,0.047542650000000006, ,0.035080746787725006, ,-0.0011236450596926587, ,0.0003431684135929833, ,1.0, ,0.36609779425092936, ,0.4759086549254097, ,0.0673659721230179
126, ,PASS, ,0.047216540000000015, ,0.0347213223741048, ,-0.001215691078549417, ,0.00033746332209763614, ,1.0, ,0.3632906068119863, ,0.4760923246464358, ,0.07197812289545111
127, ,PASS, ,0.047821320000000014, ,0.03529172856777304, ,-0.0011751584106446807, ,0.0003473932400629364, ,1.0, ,0.3655075856568693, ,0.4757249852043836, ,0.07159037570661823
128, ,PASS, ,0.046721139999999994, ,0.034376395053260636, ,-0.0010938444650109179, ,0.00033056867181880317, ,1.0, ,0.365847421208956, ,0.4759086549254097, ,0.07199853064223179
129, ,PASS, ,0.04661139, ,0.03438570236562348, ,-0.0012026164163996653, ,0.00032985655961911, ,1.0, ,0.36483479394507834, ,0.4750719373074019, ,0.07352911165078263
130, ,PASS, ,0.04699913, ,0.03450394809927905, ,-0.0011602981363645634, ,0.0003337931030786422, ,1.0, ,0.3640087611883318, ,0.4760923246464358, ,0.0706924348482684
131, ,PASS, ,0.046902290000000006, ,0.034366346779328795, ,-0.0010441972390359375, ,0.0003316097080861167, ,1.0, ,0.3666337357895048, ,0.475194383788086, ,0.06744760311014061
132, ,PASS, ,0.04673854, ,0.034394312466077125, ,-0.001193297888818595, ,0.00033083820091865933, ,1.0, ,0.3640250253796578, ,0.4756229464704802, ,0.07148833697271484
133, ,PASS, ,0.04695897, ,0.03466426990178162, ,-0.0011536349425521923, ,0.000335019827302624, ,1.0, ,0.3657245014843095, ,0.4755413154833575, ,0.07667190465500703
134, ,PASS, ,0.04720815000000002, ,0.0347310056140313, ,-0.0012170041948123508, ,0.0003375978718185305, ,1.0, ,0.36343520121277234, ,0.4761739556335585, ,0.06830472847492908
135, ,PASS, ,0.04731235000000002, ,0.03482709787253401, ,-0.0011378581075896408, ,0.00033915380250658844, ,1.0, ,0.36591780307691824, ,0.47529642252198934, ,0.066345584783984
136, ,PASS, ,0.04685751, ,0.03460803981025706, ,-0.0012275042350156117, ,0.0003338739452563411, ,1.0, ,0.36432023566955135, ,0.4755004999897961, ,0.0670802636680884
137, ,PASS, ,0.046836340000000004, ,0.034346172663035246, ,-0.0010617653543805226, ,0.0003311466475541121, ,1.0, ,0.36568838873766757, ,0.4764800718352687, ,0.06840676720883247
138, ,PASS, ,0.046539830000000004, ,0.034318308387116005, ,-0.0011735468394522561, ,0.0003287744994734562, ,1.0, ,0.3654818605457832, ,0.4748066365992531, ,0.07491683843186873
139, ,PASS, ,0.046601729999999994, ,0.03453040246618337, ,-0.0012504638046162318, ,0.00033122610061043866, ,1.0, ,0.36425478900036684, ,0.4756841697108222, ,0.07822289341033857
140, ,PASS, ,0.046645849999999996, ,0.034430892014752947, ,-0.001164691160996714, ,0.0003305721843543294, ,1.0, ,0.3652128182730422, ,0.47584743168506766, ,0.06957000877533112
141, ,PASS, ,0.04694447, ,0.03448009354291422, ,-0.0011265326772923001, ,0.00033321541711571804, ,1.0, ,0.36509358305316836, ,0.4759086549254097, ,0.06924348482684027
142, ,PASS, ,0.0469068, ,0.034496853693506226, ,-0.0012176547027611677, ,0.00033310014201016667, ,1.0, ,0.3639581365117417, ,0.475194383788086, ,0.0638354319299606
143, ,PASS, ,0.046701690000000004, ,0.034439391845953196, ,-0.0010990957631476905, ,0.00033104304502778916, ,1.0, ,0.36675849690227413, ,0.47548009224301546, ,0.06867206791698129
144, ,PASS, ,0.04684449, ,0.034639831698678444, ,-0.0011444464861941589, ,0.0003341107137149574, ,1.0, ,0.36635693807910397, ,0.4757045774576029, ,0.06799861227321892
145, ,PASS, ,0.04679938, ,0.034565176391873134, ,-0.0013134212854839695, ,0.00033306284691861344, ,1.0, ,0.36272534281562885, ,0.4755413154833575, ,0.0662435460500806
146, ,PASS, ,0.047108940000000016, ,0.03488967768797279, ,-0.001261089972653619, ,0.00033833346548183267, ,1.0, ,0.36410652208019817, ,0.4759290626721904, ,0.06389665517030264
147, ,PASS, ,0.04678399, ,0.03490668091993942, ,-0.001156042816881288, ,0.0003362784937517153, ,1.0, ,0.3680480306689983, ,0.47582702393828696, ,0.07254953980531009
148, ,PASS, ,0.04670658000000001, ,0.03461941456144315, ,-0.0010539734446235788, ,0.0003328974244618182, ,1.0, ,0.368936072892794, ,0.47541886900267344, ,0.07573314830309585
149, ,PASS, ,0.046625990000000006, ,0.03441843014203867, ,-0.0011481817834329906, ,0.0003303463071742859, ,1.0, ,0.36608999093268063, ,0.47531683026877003, ,0.0664476235178874
150, ,PASS, ,0.046642369999999996, ,0.03422176154252656, ,-0.0012191854198893898, ,0.00032853795478396576, ,1.0, ,0.36253644532529544, ,0.4759290626721904, ,0.06905981510581417
151, ,PASS, ,0.04630902999999999, ,0.033998896302349105, ,-0.0011594022303626462, ,0.0003241609470124347, ,1.0, ,0.36434627958076143, ,0.4755209077365768, ,0.06914144609293688
152, ,PASS, ,0.04644135999999999, ,0.03414104192639024, ,-0.0011058242819534292, ,0.0003262854613456324, ,1.0, ,0.3654874620993396, ,0.4756841697108222, ,0.06552927491275688
153, ,PASS, ,0.04661633, ,0.03420463004694133, ,-0.0010658216762923208, ,0.00032803812653874856, ,1.0, ,0.3662384793099432, ,0.4751739760413053, ,0.06432521785269689
154, ,PASS, ,0.045904729999999984, ,0.03364400342276277, ,-0.001317833482377911, ,0.000318003937366799, ,1.0, ,0.36064610026482097, ,0.475255607028428, ,0.0756923328095345
155, ,PASS, ,0.046119259999999995, ,0.03391210492703889, ,-0.0010705944760311013, ,0.0003219101624023951, ,1.0, ,0.3665872661240908, ,0.47548009224301546, ,0.06816187424746434
156, ,PASS, ,0.04663968, ,0.034797035345010725, ,-0.0011875886702312198, ,0.00033406252674352585, ,1.0, ,0.36780594560348845, ,0.4750719373074019, ,0.07126385175812738
157, ,PASS, ,0.04745525000000001, ,0.03556430268391379, ,-0.001205296065590498, ,0.0003474929933338322, ,1.0, ,0.3690835923618946, ,0.47492908307993714, ,0.06377420868961858
158, ,PASS, ,0.04674188000000001, ,0.03447566635528898, ,-0.0011578340358360034, ,0.0003316788644108546, ,1.0, ,0.365254994652057, ,0.4756433542172609, ,0.07071284259504908
159, ,PASS, ,0.04655018, ,0.03428700266246477, ,-0.0011380201904042768, ,0.00032851557921991973, ,1.0, ,0.36628807033215743, ,0.4747250056121304, ,0.06610069182261587
160, ,PASS, ,0.04634761, ,0.03429478413634975, ,-0.001044937276790269, ,0.0003272251200627683, ,1.0, ,0.3688441640169977, ,0.4751739760413053, ,0.0732842186894145
161, ,PASS, ,0.046391069999999986, ,0.03400957232035617, ,-0.0010980838272688313, ,0.0003247748474433355, ,1.0, ,0.3654956922936661, ,0.4756229464704802, ,0.0696720475092345
162, ,PASS, ,0.046257240000000005, ,0.03402782198684646, ,-0.0009416995526621903, ,0.00032394542212931833, ,1.0, ,0.3692797034331057, ,0.4755209077365768, ,0.07487602293830738
163, ,PASS, ,0.04643058, ,0.03400426949907576, ,-0.0010666578157588625, ,0.00032500966440856687, ,1.0, ,0.3660372101106721, ,0.47539846125589275, ,0.07052917287402298
164, ,PASS, ,0.04672863999999999, ,0.03434904124854101, ,-0.001141241743433807, ,0.000330419789459777, ,1.0, ,0.3649945707483528, ,0.47580661619150627, ,0.0672639333891145
165, ,PASS, ,0.04735358000000002, ,0.03537209056361463, ,-0.0011722641135895181, ,0.0003451528156264656, ,1.0, ,0.3689477561969607, ,0.47541886900267344, ,0.0659782453419318
166, ,PASS, ,0.046768599999999994, ,0.03442415232071939, ,-0.0012309427240260404, ,0.00033150654719511715, ,1.0, ,0.3639301948318566, ,0.47539846125589275, ,0.07385563559927348
167, ,PASS, ,0.04712526, ,0.03468225955755482, ,-0.001223662347299034, ,0.00033655834970104025, ,1.0, ,0.36393820003746563, ,0.4756841697108222, ,0.06940674680108569
168, ,PASS, ,0.047232150000000014, ,0.03531080624083882, ,-0.0011104904420317942, ,0.00034353087687716586, ,1.0, ,0.3701251799686239, ,0.4755209077365768, ,0.08012081386094161
169, ,PASS, ,0.04702369000000001, ,0.035036291645486314, ,-0.0013062164341544052, ,0.00033935535881319634, ,1.0, ,0.3648271072885991, ,0.4759086549254097, ,0.07263117079243281
170, ,PASS, ,0.04757051000000001, ,0.035381022487613954, ,-0.001401689623477072, ,0.0003466882134151724, ,1.0, ,0.36304524779500874, ,0.4755004999897961, ,0.07022305667231281
171, ,PASS, ,0.04731965000000001, ,0.03532602552834916, ,-0.001135109889594089, ,0.0003442135427968077, ,1.0, ,0.369989903453939, ,0.4747658211056917, ,0.06626395379686129
172, ,PASS, ,0.047446450000000015, ,0.035290067219883293, ,-0.0013783666682312605, ,0.0003449437223860344, ,1.0, ,0.3639556307493447, ,0.47511275280096327, ,0.06699863268096569
173, ,PASS, ,0.04758860000000001, ,0.0353997884352406, ,-0.001181688377380053, ,0.00034706054010210264, ,1.0, ,0.3676238998649076, ,0.4757249852043836, ,0.07585559478377993
174, ,PASS, ,0.047365290000000004, ,0.0353618480731777, ,-0.001212055284790106, ,0.0003450085412476043, ,1.0, ,0.3678717030872388, ,0.47545968449623477, ,0.07140670598559214
175, ,PASS, ,0.04716685000000001, ,0.03537283614673845, ,-0.0012184003314218077, ,0.00034369528291588043, ,1.0, ,0.36850388805157025, ,0.47582702393828696, ,0.07363115038468603
176, ,PASS, ,0.04744882000000002, ,0.03554091941656169, ,-0.0011390664702761164, ,0.0003473282732372085, ,1.0, ,0.37002356006190756, ,0.4755209077365768, ,0.07140670598559214
177, ,PASS, ,0.047900970000000015, ,0.03542914839407006, ,-0.0012008063945633766, ,0.00034959754730995126, ,1.0, ,0.3663142382663695, ,0.47537805350911205, ,0.0677333115650701
178, ,PASS, ,0.046877829999999995, ,0.03490484335949127, ,-0.001100219720617946, ,0.0003371627529646554, ,1.0, ,0.369664615515764, ,0.47545968449623477, ,0.06879451439766536
179, ,PASS, ,0.04672784000000001, ,0.034652856335993805, ,-0.0011887775459684495, ,0.00033355053301814763, ,1.0, ,0.3663852700167516, ,0.475888247178629, ,0.07224342360359992
180, ,PASS, ,0.046374599999999995, ,0.03448337925974401, ,-0.0011590874471949547, ,0.0003295335022855969, ,1.0, ,0.36822571929851394, ,0.47499030632027917, ,0.06897818411869146
181, ,PASS, ,0.04651391999999999, ,0.03418038315304169, ,-0.0013479135615599683, ,0.00032763157801398514, ,1.0, ,0.36123429027376613, ,0.4755413154833575, ,0.06487622701577518
182, ,PASS, ,0.046304929999999994, ,0.03406910712948896, ,-0.0012918328550437746, ,0.0003249782183788581, ,1.0, ,0.3627561922989348, ,0.4750719373074019, ,0.06612109956939655
183, ,PASS, ,0.04611097, ,0.033778445995532494, ,-0.0011915352003020348, ,0.00032071977329525413, ,1.0, ,0.3641581305478502, ,0.47454133589110425, ,0.06957000877533112
184, ,PASS, ,0.04591321999999999, ,0.033397723264435714, ,-0.0011364317156792726, ,0.0003158732030091119, ,1.0, ,0.36353062168384087, ,0.4752351992816473, ,0.05830493255239689
185, ,PASS, ,0.04619901, ,0.03370610255402236, ,-0.001134600703046877, ,0.00032075167299919287, ,1.0, ,0.3644559292595903, ,0.474745413358911, ,0.07212097712291586
186, ,PASS, ,0.046192739999999996, ,0.033664610760434366, ,-0.0011357409048794924, ,0.00032036376768825953, ,1.0, ,0.3638412716330891, ,0.47537805350911205, ,0.07101895879675925
187, ,PASS, ,0.04606496999999999, ,0.033668744190828194, ,-0.0011615226672925048, ,0.00031945405259329007, ,1.0, ,0.3635658656227313, ,0.4755209077365768, ,0.06818228199424502
188, ,PASS, ,0.04577396999999998, ,0.033620860117266185, ,-0.001147385123568907, ,0.00031717102225537565, ,1.0, ,0.36485942017521084, ,0.47580661619150627, ,0.06795779677965756
189, ,PASS, ,0.045772219999999995, ,0.033751267844256805, ,-0.001155136984551336, ,0.00031829181145930226, ,1.0, ,0.36619540625719704, ,0.47499030632027917, ,0.07067202710148772
190, ,FAIL, ,0.007080838000000001, ,0.0010145267835510112, ,-0.00032156837057937594, ,1.8118981753243302e-06, ,0.9166666666666666, ,0.0824206117436478, ,0.5273565845594987, ,0.011632415664986429
191, ,PASS, ,0.04593288999999999, ,0.034192080742735304, ,-0.0012069747856166203, ,0.0003237045040701162, ,1.0, ,0.36710731108732847, ,0.47527601477520864, ,0.07471276096406196
192, ,PASS, ,0.046439669999999995, ,0.03436767168189612, ,-0.0010895274686230892, ,0.00032885226537662576, ,1.0, ,0.3691787665337281, ,0.47454133589110425, ,0.06503948899002061
193, ,PASS, ,0.046632230000000004, ,0.034744548651327735, ,-0.0012019389110426311, ,0.0003338522216482086, ,1.0, ,0.36741629836628803, ,0.47539846125589275, ,0.07505969265933349
194, ,PASS, ,0.04666477000000001, ,0.03490130594918381, ,-0.0012228911891594048, ,0.0003358175635258197, ,1.0, ,0.36877972664797865, ,0.47482704434603373, ,0.0737535968653701
195, ,PASS, ,0.04699148, ,0.03517285858651739, ,-0.001119607569233281, ,0.0003406818003002786, ,1.0, ,0.37156587971662114, ,0.47454133589110425, ,0.06373339319605723
196, ,PASS, ,0.04741065000000001, ,0.03553412168908567, ,-0.0012783851335687023, ,0.0003473127373341654, ,1.0, ,0.36861732117947504, ,0.4747045978653497, ,0.06405991714454808
197, ,PASS, ,0.049858040000000006, ,0.03759011469180568, ,-0.0013013104508071273, ,0.0003862690719449349, ,1.0, ,0.3701765136165378, ,0.4750515295606212, ,0.06787616579253485
198, ,PASS, ,0.09989999999999996, ,0.09455144101750874, ,0.005040950462643613, ,0.0019586333504916, ,1.0, ,0.5233031755015314, ,0.44403175445399073, ,0.24519907756984552
199, ,PASS, ,0.06970923000000001, ,0.05601160947792204, ,-0.001926139873880123, ,0.0008058886761398084, ,1.0, ,0.3798329017473227, ,0.47454133589110425, ,0.09126344360319177
200, ,PASS, ,0.05690808999999998, ,0.04379916747362143, ,-0.0015735547164343585, ,0.0005133666886020747, ,1.0, ,0.3716964264370997, ,0.47499030632027917, ,0.08150854064202771
201, ,PASS, ,0.05657664999999998, ,0.043442967131395005, ,-0.0014749322058733494, ,0.0005060092874928202, ,1.0, ,0.37276057665210577, ,0.47494949082671784, ,0.07795759270218976
202, ,PASS, ,0.056423239999999986, ,0.04343973658832052, ,-0.0014570185463561969, ,0.0005047156551265561, ,1.0, ,0.3737362133459882, ,0.4747250056121304, ,0.07193730740188976
203, ,PASS, ,0.05644541, ,0.0432233081736837, ,-0.001422085267035367, ,0.0005023611610170835, ,1.0, ,0.3731855968841363, ,0.474745413358911, ,0.071161813024224
204, ,PASS, ,0.05616578999999999, ,0.04280179239690589, ,-0.001540019412052815, ,0.0004949606013390444, ,1.0, ,0.3698425396857469, ,0.47501071406705986, ,0.06846799044917451
205, ,PASS, ,0.0561323, ,0.04295643588297855, ,-0.0015268586714556843, ,0.0004964246696709742, ,1.0, ,0.3709433628853936, ,0.47492908307993714, ,0.08136568641456297
206, ,PASS, ,0.05634753999999999, ,0.04305863717323407, ,-0.0014330283186057427, ,0.0004996862793873497, ,1.0, ,0.3719615908760207, ,0.47545968449623477, ,0.07128425950490806
207, ,PASS, ,0.056037239999999995, ,0.04269406099741309, ,-0.0015798149886737, ,0.0004925056929298088, ,1.0, ,0.36887762609352737, ,0.47503112181384055, ,0.06989653272382196
208, ,PASS, ,0.05590597, ,0.042375907541776836, ,-0.0014439705601926491, ,0.00048768773776476627, ,1.0, ,0.37084216256377256, ,0.4742352196893941, ,0.06803942776678026
209, ,PASS, ,0.05554316, ,0.04236239312543943, ,-0.0014044252117303723, ,0.000484345580547453, ,1.0, ,0.3723505929403516, ,0.47464337462500766, ,0.07728413705842738
210, ,PASS, ,0.05536742000000001, ,0.04221399428923086, ,-0.0014715121013856853, ,0.0004811191436489601, ,1.0, ,0.37076388609683825, ,0.47490867533315645, ,0.07487602293830738
211, ,PASS, ,0.05555022999999999, ,0.042130868170754614, ,-0.0015359796318442477, ,0.00048164009016312537, ,1.0, ,0.36897475531391283, ,0.4744188894104202, ,0.06687618620028163
212, ,PASS, ,0.055519620000000006, ,0.04221701842609679, ,-0.0015147242980755493, ,0.0004824739058834482, ,1.0, ,0.3692978739848125, ,0.4750719373074019, ,0.08130446317422094
213, ,PASS, ,0.05523441999999999, ,0.04219484320738459, ,-0.0013771924511744658, ,0.00047967444848445414, ,1.0, ,0.3729446913272945, ,0.4747862288524724, ,0.07671272014856839
214, ,PASS, ,0.054971589999999994, ,0.04183658949261713, ,-0.0015147309503887676, ,0.0004734269826799213, ,1.0, ,0.36945054666073823, ,0.4749698985734985, ,0.07210056937613518
215, ,PASS, ,0.05500489, ,0.04168659810283142, ,-0.00154046947450052, ,0.00047194585923504025, ,1.0, ,0.36830547293698246, ,0.4746025591314463, ,0.0721822003632579
216, ,PASS, ,0.05521921, ,0.04197684126099144, ,-0.0015075175880084075, ,0.0004769269997314075, ,1.0, ,0.37006844496087765, ,0.47407195771514865, ,0.07261076304565213
217, ,PASS, ,0.055391050000000004, ,0.04193689304580451, ,-0.0015519312328319825, ,0.00047793826641230505, ,1.0, ,0.3678671666115633, ,0.4747045978653497, ,0.07303932572804636
218, ,PASS, ,0.05530749000000001, ,0.041959453082051464, ,-0.0016332408591661395, ,0.0004773824505856763, ,1.0, ,0.3668075198931072, ,0.4747045978653497, ,0.07232505459072264
219, ,PASS, ,0.05520829, ,0.041835431124496135, ,-0.0015260844352156075, ,0.0004752801387690661, ,1.0, ,0.36872076776909946, ,0.4743984816636395, ,0.066345584783984
220, ,PASS, ,0.05536064, ,0.041878847100207985, ,-0.0013880492543009327, ,0.00047710831447911073, ,1.0, ,0.3702807500549341, ,0.4753372380155507, ,0.07163119120017959
221, ,PASS, ,0.05555341000000001, ,0.042071886508225104, ,-0.0015673311124262766, ,0.00048094467209312266, ,1.0, ,0.36754727194143144, ,0.47499030632027917, ,0.07373318911858942
222, ,PASS, ,0.05533937, ,0.04216482891245034, ,-0.0013176646266402723, ,0.00048032302080207453, ,1.0, ,0.3729608171244617, ,0.4754392767494541, ,0.08075345401114263
223, ,PASS, ,0.055774989999999997, ,0.04236239433729689, ,-0.0012027212226281094, ,0.00048624432365286594, ,1.0, ,0.374810703417663, ,0.47511275280096327, ,0.06461092630762638
224, ,PASS, ,0.05592967, ,0.042835787569946174, ,-0.0014852114483377883, ,0.0004931988521663549, ,1.0, ,0.37156362321309516, ,0.4750923450541826, ,0.07020264892553213
225, ,PASS, ,0.05609837999999999, ,0.04323152622519055, ,-0.0014801565486418642, ,0.0004992257677756082, ,1.0, ,0.37336600553983734, ,0.4747658211056917, ,0.0731005489683884
226, ,PASS, ,0.056027060000000004, ,0.043313707651218725, ,-0.001598486346605171, ,0.0004995600766808188, ,1.0, ,0.3713783572907967, ,0.47529642252198934, ,0.07750862227301483
227, ,PASS, ,0.05638127, ,0.043512561197858526, ,-0.0016092549225526008, ,0.0005049036078460662, ,1.0, ,0.37161486491381407, ,0.4744188894104202, ,0.07916164976224975
228, ,PASS, ,0.05603447000000001, ,0.043227722690652996, ,-0.0016057744174608672, ,0.000498539873589819, ,1.0, ,0.3713185091290483, ,0.4747045978653497, ,0.07416175180098365
229, ,PASS, ,0.056258079999999995, ,0.0430591019308344, ,-0.0015670139629803469, ,0.00049860189654125, ,1.0, ,0.3704871926075289, ,0.47462296687822697, ,0.07177404542764433
230, ,PASS, ,0.056307170000000004, ,0.04315038235823719, ,-0.0015445464092569536, ,0.0005001833875903651, ,1.0, ,0.3706857682129736, ,0.47511275280096327, ,0.07777392298116365
231, ,PASS, ,0.05647878, ,0.04371710153314357, ,-0.0013877883435031934, ,0.0005083104019313188, ,1.0, ,0.3759196254790467, ,0.47492908307993714, ,0.08212077304544806
232, ,PASS, ,0.056971509999999975, ,0.04421949298287777, ,-0.00140867288443093, ,0.0005187364105379183, ,1.0, ,0.37618839842928237, ,0.4751535682945246, ,0.07744739903267281
233, ,PASS, ,0.056081030000000004, ,0.04314125082902479, ,-0.0014812581351400995, ,0.0004979737099156127, ,1.0, ,0.3729175057638555, ,0.4747045978653497, ,0.07632497295973552
234, ,PASS, ,0.05602282, ,0.043061940316441207, ,-0.0013480655807024348, ,0.0004966024917182219, ,1.0, ,0.37462892392517644, ,0.4753372380155507, ,0.08393706250892839
235, ,PASS, ,0.05618571, ,0.042897623729763946, ,-0.0016210962690557328, ,0.0004960303253323854, ,1.0, ,0.3686755315460297, ,0.4749698985734985, ,0.07138629823881146
236, ,PASS, ,0.056549889999999985, ,0.04322887251632727, ,-0.001575480495296014, ,0.0005032953685790289, ,1.0, ,0.3706592525318143, ,0.47419440419583275, ,0.06952919328176976
237, ,PASS, ,0.05651402999999999, ,0.0432881913319926, ,-0.0015551928560641611, ,0.0005035093927325598, ,1.0, ,0.37064083419249266, ,0.4750515295606212, ,0.07161078345339891
238, ,PASS, ,0.05631627, ,0.043109074676489355, ,-0.0013896405738658391, ,0.000499719688018662, ,1.0, ,0.3735888445857948, ,0.47482704434603373, ,0.06781494255219281
239, ,PASS, ,0.05668295999999998, ,0.04359343207551239, ,-0.0014739627593314424, ,0.0005088149455748621, ,1.0, ,0.3730141973361801, ,0.4750719373074019, ,0.07993714413991551
240, ,PASS, ,0.057654389999999986, ,0.044615861165546014, ,-0.001565577376992306, ,0.0005297307512539816, ,1.0, ,0.37338309327620284, ,0.4748474520928144, ,0.07379441235893144
241, ,PASS, ,0.05642219999999999, ,0.043228199579570845, ,-0.0015812437650252033, ,0.0005021389388979653, ,1.0, ,0.3706417117532407, ,0.47456174363788495, ,0.07546784759494704
242, ,PASS, ,0.05637884, ,0.04299970421480169, ,-0.0012434187536989043, ,0.0004988781246624679, ,1.0, ,0.3756609371902862, ,0.47445970490398154, ,0.07091692006285585
243, ,PASS, ,0.056480459999999996, ,0.04311352437825072, ,-0.0014529272408726351, ,0.0005010586883117776, ,1.0, ,0.3724247836681372, ,0.4742964429297361, ,0.07142711373237282
244, ,PASS, ,0.05691405999999999, ,0.04347117120341331, ,-0.0013416049133691155, ,0.0005091989935979136, ,1.0, ,0.3738875285868491, ,0.4751331605477439, ,0.07277402501989755
245, ,PASS, ,0.05729430999999998, ,0.04387076299253403, ,-0.0014254132238117592, ,0.0005174076156643835, ,1.0, ,0.3734604463588347, ,0.4748066365992531, ,0.07691679761637518
246, ,PASS, ,0.057265809999999986, ,0.043715653060609365, ,-0.001661293923797473, ,0.0005152035484801415, ,1.0, ,0.36887943938379036, ,0.47454133589110425, ,0.06989653272382196
247, ,PASS, ,0.057328509999999985, ,0.04405618817978369, ,-0.0015021368372074042, ,0.0005198892816673185, ,1.0, ,0.3731200225202392, ,0.47454133589110425, ,0.07183526866798637
248, ,PASS, ,0.05719346999999998, ,0.043935351984320345, ,-0.001395337655762128, ,0.0005173240681981282, ,1.0, ,0.37458579200585457, ,0.4749698985734985, ,0.07501887716577213
249, ,PASS, ,0.05756546, ,0.044175040387838205, ,-0.0015913390228770835, ,0.0005235984659169298, ,1.0, ,0.37103522088516677, ,0.4750923450541826, ,0.07497806167221077
250, ,PASS, ,0.057629619999999986, ,0.044276808983841544, ,-0.001411050040203261, ,0.0005252030959931609, ,1.0, ,0.3748376280884549, ,0.47445970490398154, ,0.07730454480520806
251, ,PASS, ,0.05787435000000002, ,0.044403112373435555, ,-0.0015085114173180134, ,0.0005289671665944007, ,1.0, ,0.37247015693677255, ,0.4750719373074019, ,0.0738352278524928
252, ,PASS, ,0.05741671999999999, ,0.04404562393010209, ,-0.0013586941429766736, ,0.000520519685446075, ,1.0, ,0.3743283131713196, ,0.4755821309769188, ,0.08054937654333585
253, ,PASS, ,0.05720680999999998, ,0.043814444329605025, ,-0.0013741383363604824, ,0.0005159092282543511, ,1.0, ,0.3748615436006451, ,0.4743168506765168, ,0.06640680802432604
254, ,PASS, ,0.057395929999999984, ,0.044013457312407744, ,-0.0014038946748025553, ,0.0005198295348795475, ,1.0, ,0.3741703827379574, ,0.4748066365992531, ,0.0764270116936389
255, ,PASS, ,0.05714249999999999, ,0.043899800891299655, ,-0.0014663479573886248, ,0.0005162848500739859, ,1.0, ,0.373048572919248, ,0.475194383788086, ,0.07442705250913247
