Channel, ,Pass/Fail, ,Amplitude, ,Sorting Function Response, ,Mean, ,Variance, ,NPeaksRatio, ,PosIntegralRatio, ,ToT50, ,ToT99
64, ,PASS, ,0.011759720000000001, ,0.001334432434040542, ,0.03504141148650027, ,1.5630772409082324e-05, ,1.75, ,0.6119944747732114, ,0.5673149527560662, ,0.018162894634803372
65, ,PASS, ,0.019604340000000012, ,0.002224920006839957, ,0.035158905590702234, ,4.365205635912413e-05, ,1.75, ,0.6046729823342942, ,0.5584171751596906, ,0.01581600375502541
66, ,PASS, ,0.01982362, ,0.002159257352665031, ,0.03518344623824003, ,4.264027271983988e-05, ,1.75, ,0.589906187833537, ,0.5589069610824269, ,0.01510173261770168
67, ,PASS, ,0.011510600000000006, ,0.0012565063028846485, ,0.03476575273953592, ,1.4471498637256107e-05, ,1.75, ,0.5936462676825651, ,0.5587028836146201, ,0.019162874227056592
68, ,PASS, ,0.017498790000000004, ,0.0027788597547611237, ,0.035891352448317385, ,4.908676802453337e-05, ,1.8333333333333333, ,0.7858078847566617, ,0.5856207016183343, ,0.05248872471990368
69, ,PASS, ,0.029163849999999998, ,0.00476164390422118, ,0.036585684247872494, ,0.0001400947546798275, ,1.8333333333333333, ,0.7941172431581632, ,0.5824370931205486, ,0.12818105752943817
70, ,PASS, ,0.02864480000000001, ,0.004725452787813512, ,0.03663990351380584, ,0.00013649696527091016, ,1.9166666666666667, ,0.794171384615607, ,0.5788861451807106, ,0.10032448317381278
71, ,PASS, ,0.016225140000000002, ,0.002605907093443677, ,0.035833107431889145, ,4.282069572548378e-05, ,1.75, ,0.798604743281149, ,0.5898859206954961, ,0.07077406583539111
72, ,PASS, ,0.017168900000000004, ,0.0027873894267809456, ,0.035923025367441484, ,4.8416117975239677e-05, ,1.8333333333333333, ,0.8004838978791411, ,0.5868859819187363, ,0.09414093589926736
73, ,PASS, ,0.028189059999999988, ,0.004675198314362747, ,0.036625781816901695, ,0.00013302772231607934, ,1.8333333333333333, ,0.8012975081165454, ,0.5829881022836269, ,0.13367074141344054
74, ,PASS, ,0.028004849999999998, ,0.004623275640766376, ,0.03683473840901206, ,0.0001306744069680598, ,1.8333333333333333, ,0.8052770041051388, ,0.5898655129487154, ,0.15026223954613172
75, ,PASS, ,0.016803360000000003, ,0.00271050713590461, ,0.03589154915613967, ,4.617208621140224e-05, ,1.75, ,0.8043281929953954, ,0.5911103855023366, ,0.09785514581335075
76, ,PASS, ,0.01673999, ,0.0027378418462775398, ,0.035913417407808006, ,4.6321537000865615e-05, ,1.8333333333333333, ,0.8024998623966596, ,0.5871104671333238, ,0.06683537070672027
77, ,PASS, ,0.025950949999999987, ,0.004426157442513868, ,0.03670505014979286, ,0.00011614406355812796, ,1.9166666666666667, ,0.8201484365445927, ,0.5847431685067652, ,0.16364972143425643
78, ,PASS, ,0.02540586, ,0.004306259789812247, ,0.036563851030591205, ,0.0001105411903352289, ,1.75, ,0.810325856377564, ,0.5860696720475093, ,0.09524295422542398
79, ,PASS, ,0.014173329999999994, ,0.002363349118622071, ,0.035646772856064164, ,3.4083591659236414e-05, ,1.75, ,0.8229173259644238, ,0.5856615171118956, ,0.09379400420399583
80, ,PASS, ,0.015175949999999997, ,0.002290901787259559, ,0.03591078464868064, ,3.54457392569288e-05, ,1.75, ,0.7907387430546368, ,0.5955592743005245, ,0.06734556437623722
81, ,PASS, ,0.02380510999999997, ,0.0036844208313211125, ,0.03686314111977306, ,8.929012548419193e-05, ,1.8333333333333333, ,0.8032812949766369, ,0.6065794575620905, ,0.09883471765882329
82, ,PASS, ,0.022464919999999985, ,0.0035628914444495482, ,0.03640199051549969, ,8.139395453536304e-05, ,1.75, ,0.8052597009843822, ,0.5826819860819167, ,0.10626313748699007
83, ,PASS, ,0.011996690000000004, ,0.001795273280498724, ,0.0357998157702904, ,2.2013896751408398e-05, ,1.75, ,0.7945079007677902, ,0.598314320115916, ,0.06834554396849044
84, ,PASS, ,0.015535130000000012, ,0.0023190713654072407, ,0.0359875725513765, ,3.666174540114924e-05, ,1.75, ,0.7778839337177796, ,0.5864370114895614, ,0.049101038754311134
85, ,PASS, ,0.022595459999999994, ,0.0035916268614999275, ,0.0362460381288137, ,8.247248250607242e-05, ,1.8333333333333333, ,0.8024663753567857, ,0.5866206812105875, ,0.1106712107916165
86, ,PASS, ,0.021739199999999997, ,0.0034026760501032955, ,0.03631476959939593, ,7.509233696364593e-05, ,1.75, ,0.7976697185617111, ,0.5896206199873472, ,0.06640680802432604
87, ,PASS, ,0.012485, ,0.001878384528389666, ,0.03539306820534275, ,2.4002156830618314e-05, ,1.75, ,0.7926669091167378, ,0.5822330156527418, ,0.060937531887104344
88, ,PASS, ,0.01954027, ,0.002880064366913053, ,0.03628854025387237, ,5.7319849141141487e-05, ,1.75, ,0.7849223067760875, ,0.5930083059529397, ,0.08950837738005347
89, ,PASS, ,0.02273176999999998, ,0.003460932291533374, ,0.036438446812105875, ,7.995786366383375e-05, ,1.75, ,0.7929558565186704, ,0.5964980306524357, ,0.09867145568457787
90, ,PASS, ,0.02096117999999999, ,0.0031867584218402216, ,0.03626860624048489, ,6.788451907564133e-05, ,1.8333333333333333, ,0.7949554134366842, ,0.5932327911675271, ,0.08138609416134365
91, ,PASS, ,0.013616889999999993, ,0.0019498532419307013, ,0.035712550002448926, ,2.7099618304248275e-05, ,1.75, ,0.7704415499374752, ,0.594191955266219, ,0.03634619701638742
