Channel, ,Pass/Fail, ,Amplitude, ,Sorting Function Response, ,Mean, ,Variance, ,NPeaksRatio, ,PosIntegralRatio, ,ToT50, ,ToT99
50, ,PASS, ,0.06652170000000003, ,0.007895416682693673, ,0.026484873507846785, ,0.0005332209483066982, ,1.8333333333333333, ,0.6424129946392612, ,0.43827676986183955, ,0.03824411746699047
51, ,PASS, ,0.11914493000000001, ,0.01153972152323523, ,0.025926463129262667, ,0.0014006353632934525, ,1.5833333333333333, ,0.5805630322240138, ,0.4400930593253199, ,0.022224036244158283
52, ,PASS, ,0.01334505, ,0.001893019926052946, ,0.028262499872451583, ,2.5696996447479057e-05, ,1.9166666666666667, ,0.7297716947320159, ,0.4394196036815575, ,0.04475418869002674
53, ,PASS, ,0.07741770099999995, ,0.010042164553397107, ,0.026077244834693168, ,0.0007895164463258947, ,1.6666666666666667, ,0.6796346245513073, ,0.4439297157200873, ,0.03650945899063284
54, ,PASS, ,0.07338684900000002, ,0.008611905842997683, ,0.02645454567873819, ,0.0006419748828326995, ,1.6666666666666667, ,0.6375286411088255, ,0.44413379318789414, ,0.035836003346870475
55, ,PASS, ,0.12762814000000003, ,0.012841011373571848, ,0.024440787298891858, ,0.0016613708785381414, ,1.6666666666666667, ,0.5761107169715841, ,0.44158282484030936, ,0.01948939817554744
56, ,PASS, ,0.09368567000000003, ,0.008565320567710876, ,0.02667523584220118, ,0.0008180258430639668, ,1.5833333333333333, ,0.5612377900416085, ,0.44068488398195954, ,0.015428256566192526
57, ,PASS, ,0.09037060999999996, ,0.010909667001744852, ,0.025829803733331973, ,0.0010021801169967325, ,1.6666666666666667, ,0.6550915845848506, ,0.4400930593253199, ,0.027428011673231157
58, ,PASS, ,0.07476761899999998, ,0.008576187437878127, ,0.026553541790485094, ,0.0006517040793448513, ,1.75, ,0.6328820781958548, ,0.4410930389175731, ,0.031734046243954206
59, ,PASS, ,0.1328526, ,0.012635008793344896, ,0.02607355631809555, ,0.001711507436281271, ,1.5833333333333333, ,0.5733352409667535, ,0.44411338544111345, ,0.020591416501704048
60, ,PASS, ,0.12724015000000002, ,0.011731130657224432, ,0.026438745768576154, ,0.0015229277030926565, ,1.5833333333333333, ,0.5662734538647461, ,0.4442358319217975, ,0.0188771657721271
61, ,PASS, ,0.10058971000000004, ,0.011390814516504262, ,0.0257587956340891, ,0.001165836787906067, ,1.8333333333333333, ,0.6320639129059669, ,0.4434399297973511, ,0.02177506581498337
62, ,PASS, ,0.078827142, ,0.009040294630207498, ,0.02641103656235077, ,0.0007246818926984313, ,1.8333333333333333, ,0.634242012625643, ,0.44158282484030936, ,0.03326462725250505
63, ,PASS, ,0.00698507000000001, ,0.0004993031186262151, ,0.02865566997591886, ,3.5885372360839405e-06, ,1.6666666666666667, ,0.4669869285068088, ,0.4376441297116385, ,0.014489500214281342
64, ,PASS, ,0.13212968999999997, ,0.01307266074617122, ,0.025567489108181466, ,0.0017589146449062845, ,1.6666666666666667, ,0.5848212053254472, ,0.4443582784024816, ,0.021468949613273197
65, ,PASS, ,0.10374072999999998, ,0.012103968747193059, ,0.025738260681598336, ,0.0012761782593748044, ,1.8333333333333333, ,0.6418651133401878, ,0.4439705312136487, ,0.025346421501602007
66, ,PASS, ,0.08672503000000001, ,0.009884055794232793, ,0.026097784022815863, ,0.0008713860289280998, ,1.8333333333333333, ,0.6297100051775587, ,0.4439705312136487, ,0.0323870941409359
67, ,PASS, ,0.13979546999999995, ,0.012883109992357224, ,0.026287675316401703, ,0.001836685340691988, ,1.5833333333333333, ,0.568741486924441, ,0.4419297565355809, ,0.02046897002101998
68, ,PASS, ,0.14426557999999998, ,0.014097195347428456, ,0.02533267374114814, ,0.0020718530997581863, ,1.5833333333333333, ,0.5840032525650549, ,0.44288892063427276, ,0.020019999591845063
69, ,PASS, ,0.11602716999999999, ,0.012653288579283129, ,0.02529113616048652, ,0.001493816871443166, ,1.8333333333333333, ,0.621764580283672, ,0.4385216628232077, ,0.022244443990938962
70, ,PASS, ,0.08472590000000003, ,0.00966536426209084, ,0.02600715443659497, ,0.0008326336690816107, ,1.8333333333333333, ,0.6330913227108605, ,0.4400726515785392, ,0.03291769555723353
71, ,PASS, ,0.13831687, ,0.012960018843402048, ,0.026257436280994268, ,0.0018284009236103687, ,1.5833333333333333, ,0.5749647083776318, ,0.4401542825656619, ,0.02157098834717659
72, ,PASS, ,0.14415342999999997, ,0.013943654678920224, ,0.02562882373074019, ,0.002048602288977172, ,1.5833333333333333, ,0.5830185568076289, ,0.44133793187894127, ,0.021611803840737943
73, ,PASS, ,0.11750406000000002, ,0.013224708372304477, ,0.024669761491030798, ,0.0015776747790281387, ,1.6666666666666667, ,0.6233823739640042, ,0.4442358319217975, ,0.024183179935103365
74, ,PASS, ,0.08873337, ,0.010017401796783896, ,0.02852810594983776, ,0.000903257740084517, ,1.75, ,0.634831626394719, ,0.478867778208608, ,0.02850962225260709
75, ,PASS, ,0.14191541999999996, ,0.013559936303762295, ,0.025557696673741356, ,0.001961286653950179, ,1.5833333333333333, ,0.5772990526969957, ,0.4418685332952389, ,0.021856696802106078
76, ,PASS, ,0.14878117000000005, ,0.014573237588891612, ,0.025709249658374317, ,0.002209788353664414, ,1.5833333333333333, ,0.5845365747689765, ,0.4464398685741107, ,0.020224077059651843
77, ,PASS, ,0.12307198000000001, ,0.013413168291441086, ,0.025031418340788963, ,0.0016799044204795837, ,1.8333333333333333, ,0.6204003757536939, ,0.44023591355278463, ,0.022693414420113876
78, ,PASS, ,0.07319780299999998, ,0.009053578976596432, ,0.026334921008047185, ,0.0006725370420843315, ,1.6666666666666667, ,0.6559578976093265, ,0.44484806432521784, ,0.044488887981877924
79, ,PASS, ,0.13411393000000002, ,0.013294274151485935, ,0.02544411643629722, ,0.001816123412270186, ,1.6666666666666667, ,0.5810590428220755, ,0.4479704495826616, ,0.023101569355727433
80, ,PASS, ,0.14297703999999997, ,0.014087684110217526, ,0.025512055998653093, ,0.0020526549449645195, ,1.5833333333333333, ,0.5856586730200251, ,0.4450725495398053, ,0.02173425032142201
81, ,PASS, ,0.12149923999999998, ,0.01388268248826456, ,0.0246282793491643, ,0.0017136707324072783, ,1.8333333333333333, ,0.6292211585170163, ,0.4447460255913145, ,0.024162772188322686
82, ,PASS, ,0.07661571899999996, ,0.009117373660621425, ,0.026407495275632128, ,0.0007098869564317692, ,1.8333333333333333, ,0.6458661355971165, ,0.4452766270076121, ,0.040407338625742334
83, ,PASS, ,0.13588289000000003, ,0.013228232729838793, ,0.02615930412501786, ,0.0018310206271498993, ,1.5833333333333333, ,0.5827000302427693, ,0.4456235587028836, ,0.022877084141139977
84, ,PASS, ,0.14436147, ,0.014359121833732773, ,0.02588928487439032, ,0.0021118963580681505, ,1.5833333333333333, ,0.5896974587144571, ,0.45003163200751006, ,0.020326115793555234
85, ,PASS, ,0.12343342000000004, ,0.013938338280775755, ,0.024982251399583683, ,0.001748408566396667, ,1.6666666666666667, ,0.628575983874922, ,0.44580722842390974, ,0.024305626415787433
86, ,PASS, ,0.08183068, ,0.009614035798937727, ,0.026160491087037, ,0.0007992598739577836, ,1.6666666666666667, ,0.6384721851400628, ,0.4446235791106304, ,0.033856451909144714
87, ,PASS, ,0.14033517999999998, ,0.013539769125905052, ,0.02593225632089141, ,0.0019375524148400344, ,1.5833333333333333, ,0.5807736604772695, ,0.44411338544111345, ,0.019897553111160995
88, ,PASS, ,0.14756802000000002, ,0.014351093189859488, ,0.02548532042631783, ,0.002157688662000443, ,1.5833333333333333, ,0.584063693390553, ,0.4405828452480562, ,0.019550621415889473
89, ,PASS, ,0.12678312000000005, ,0.013615377358582, ,0.02925045525758658, ,0.0017532109863247652, ,1.6666666666666667, ,0.5967527921042333, ,0.5022346482724842, ,0.023468908797779638
90, ,PASS, ,0.07657944099999996, ,0.009328887137595826, ,0.026086772239740617, ,0.0007255907232954716, ,1.6666666666666667, ,0.6498256926509707, ,0.4430521826085182, ,0.0405297851064264
91, ,PASS, ,0.1352695, ,0.01339656761298051, ,0.026995571070672235, ,0.0018351679330649996, ,1.5833333333333333, ,0.5420254680754457, ,0.49511234464602766, ,0.019938368604722354
92, ,PASS, ,0.14232387999999996, ,0.013844196429359914, ,0.02540977713414012, ,0.002007853749424328, ,1.5833333333333333, ,0.585900868747568, ,0.43837880859574296, ,0.020224077059651843
93, ,PASS, ,0.12067888999999998, ,0.013517419587246076, ,0.024610873525438254, ,0.0016605707890294224, ,1.8333333333333333, ,0.6323220094680826, ,0.4342972592396074, ,0.022387298218403705
94, ,PASS, ,0.07853354899999998, ,0.009251388515572676, ,0.026315590579871023, ,0.0007388600394940795, ,1.8333333333333333, ,0.6439625698506012, ,0.43946041917511885, ,0.037386992102202
95, ,PASS, ,0.13531257000000002, ,0.013110731789391272, ,0.02582563634038081, ,0.001808340999843769, ,1.5833333333333333, ,0.5833386416949287, ,0.4412767086385992, ,0.022673006673333197
96, ,PASS, ,0.14238687999999997, ,0.013851869975579533, ,0.025469781196098037, ,0.0020095665172766885, ,1.5833333333333333, ,0.585623381285466, ,0.4380318769004714, ,0.020877124956633537
97, ,PASS, ,0.12302620000000006, ,0.013860502165799884, ,0.024623655361421196, ,0.0017332016322876358, ,1.75, ,0.6289232438670356, ,0.4388277790249179, ,0.023183200342850145
98, ,PASS, ,0.08950717, ,0.009886015018552333, ,0.025985006261198755, ,0.0008997923265211519, ,1.8333333333333333, ,0.6213655866784304, ,0.4384604395828657, ,0.02969327156588641
99, ,PASS, ,0.13646612000000002, ,0.01301484679768245, ,0.025938058049080632, ,0.0018126239984822042, ,1.6666666666666667, ,0.5806165379194077, ,0.4392971572008735, ,0.019815922124038286
100, ,PASS, ,0.14215751999999995, ,0.013841864414075223, ,0.025183089644292972, ,0.0020039188027637118, ,1.5833333333333333, ,0.5879531052361971, ,0.43209322258729416, ,0.020407746780677947
101, ,PASS, ,0.12643146000000002, ,0.014324851547506607, ,0.025830116556804963, ,0.0018409841859032018, ,1.75, ,0.6310330592565924, ,0.45450092855247853, ,0.023877063733393197
198, ,PASS, ,0.1900365000000001, ,0.037629502547608884, ,0.01919696368625126, ,0.007228161465307458, ,1.8333333333333333, ,0.8648519760102268, ,0.44284810514071143, ,0.05608048815330299
199, ,PASS, ,0.08112037, ,0.012073107290365754, ,0.024866006611849352, ,0.0010104434505311972, ,2.0, ,0.8566968164596783, ,0.4472153629517765, ,0.03704006040693047
200, ,PASS, ,0.07702865000000002, ,0.01181423558297853, ,0.024830266060372648, ,0.0009212280646102995, ,1.9166666666666667, ,0.8517728872935543, ,0.4460113058917165, ,0.04018285341115487
201, ,PASS, ,0.08182402, ,0.012442450849667977, ,0.024789129575574175, ,0.0010367784073444326, ,1.9166666666666667, ,0.8517290910926247, ,0.44817452705046834, ,0.042080773861757924
202, ,PASS, ,0.08914423999999993, ,0.01198697029789728, ,0.025085541407016795, ,0.0010949607799854667, ,1.9166666666666667, ,0.8431757945954007, ,0.45292953205036635, ,0.042835860492643006
203, ,PASS, ,0.08964764999999995, ,0.012186332300240575, ,0.024662429170478152, ,0.0011232530857084508, ,2.0, ,0.8417546311350247, ,0.4509499806126406, ,0.03761147731678945
204, ,PASS, ,0.07283767000000001, ,0.01011717432403511, ,0.025791742171874046, ,0.0007602484615446417, ,2.0, ,0.8382603706790445, ,0.44952143833799313, ,0.03434623783188098
205, ,PASS, ,0.06788608499999998, ,0.009294356096412187, ,0.026136138190627746, ,0.0006475852991577505, ,1.8333333333333333, ,0.8390000470137757, ,0.4480928960633456, ,0.03612171180179996
206, ,PASS, ,0.07501381000000003, ,0.009806752042136959, ,0.025973599742413422, ,0.000753880442686913, ,1.8333333333333333, ,0.8347205955172426, ,0.4509703883594212, ,0.03491765474173997
207, ,PASS, ,0.07697996000000004, ,0.01027095472966798, ,0.025700681382012612, ,0.0008056444629106281, ,2.0, ,0.8329615402129268, ,0.45292953205036635, ,0.0315503765229281
208, ,PASS, ,0.06387996999999998, ,0.008728372356814352, ,0.026034454159205935, ,0.0005701860040575283, ,1.8333333333333333, ,0.8302544417245032, ,0.44621538335952327, ,0.033019734291136915
209, ,PASS, ,0.06360378299999998, ,0.008638382041492797, ,0.025949496651511195, ,0.0005698255381668363, ,1.9166666666666667, ,0.8300483900664017, ,0.44495010305912125, ,0.03165241525683149
210, ,PASS, ,0.07112627, ,0.009552032790827602, ,0.025746052751515276, ,0.0006931244006574161, ,1.9166666666666667, ,0.8303904304964798, ,0.4489704291749148, ,0.0259994693985837
211, ,PASS, ,0.07654006000000003, ,0.010469088215415695, ,0.025018800531356508, ,0.0008104087572720687, ,1.9166666666666667, ,0.8345435871548631, ,0.44356237627803513, ,0.035509479398379624
212, ,PASS, ,0.11095559000000002, ,0.016715165214884177, ,0.022796973625946407, ,0.0018786209136378391, ,1.9166666666666667, ,0.8537967533939071, ,0.45215403767270057, ,0.04514193587885962
213, ,PASS, ,0.08363769, ,0.011681929113652506, ,0.024795913752986676, ,0.0009955832387213944, ,1.9166666666666667, ,0.845109810704713, ,0.446358237586988, ,0.03985632946266403
214, ,PASS, ,0.08149765000000003, ,0.01107180271810865, ,0.02463473921460175, ,0.0009119978107617992, ,1.9166666666666667, ,0.8370606122280401, ,0.44495010305912125, ,0.03450949980612641
215, ,PASS, ,0.10445776000000001, ,0.014293879887309562, ,0.023327719888369625, ,0.0015237756393162352, ,1.9166666666666667, ,0.8457085752140631, ,0.4497255158057999, ,0.03779514703781556
216, ,PASS, ,0.09622145, ,0.013681569862996328, ,0.02370288703071366, ,0.001337893734729737, ,1.9166666666666667, ,0.849000848020182, ,0.4458888594110324, ,0.0401624456643742
217, ,PASS, ,0.08741535999999998, ,0.012340008495921555, ,0.02431494496117079, ,0.0010900390749526035, ,1.9166666666666667, ,0.8458589718471032, ,0.4460317136384972, ,0.038774718883288095
218, ,PASS, ,0.11968426000000004, ,0.017058638334973304, ,0.023498209232260567, ,0.0020771528747455547, ,2.0, ,0.8452730842203654, ,0.45948041876696394, ,0.041652211179363685
219, ,PASS, ,0.10226757, ,0.013970760752126735, ,0.02403943337205363, ,0.0014528844934661184, ,2.0, ,0.8465178737613003, ,0.45076631089161445, ,0.04010122242403216
220, ,PASS, ,0.09175716999999999, ,0.012832405443071956, ,0.024654587291881594, ,0.0011987972809314666, ,2.0, ,0.850145770759942, ,0.4518683292177711, ,0.03765229281035081
221, ,PASS, ,0.09812825999999997, ,0.013674168841892565, ,0.024022298023783188, ,0.0013711968909579837, ,2.0, ,0.8508710239927003, ,0.4497459235525806, ,0.037509438582886065
222, ,PASS, ,0.07655205000000002, ,0.010022617665457416, ,0.025258958897104142, ,0.0007835049369131993, ,1.9166666666666667, ,0.8299817455454687, ,0.4477459643680741, ,0.03059121242423624
223, ,PASS, ,0.09158944999999995, ,0.012296567578839433, ,0.02438015468975633, ,0.0011418374100812443, ,1.9166666666666667, ,0.8430713796050732, ,0.44954184608477377, ,0.036672720964878266
224, ,PASS, ,0.08530486999999998, ,0.011762029224391374, ,0.02490684707139385, ,0.0010203490766138345, ,1.9166666666666667, ,0.8441920379190772, ,0.4493581763637477, ,0.03352992796065386
225, ,PASS, ,0.07220441999999999, ,0.009828591340649605, ,0.02572107080863656, ,0.0007250798460087813, ,2.0, ,0.84078654652007, ,0.4490520601620375, ,0.03675435195200098
226, ,PASS, ,0.08251285999999998, ,0.010813700885506787, ,0.025271644718903696, ,0.0009112076749112554, ,2.0, ,0.8336005958465125, ,0.44990918552682596, ,0.034285014591538945
227, ,PASS, ,0.11371036000000004, ,0.016137797826431512, ,0.02260208312877288, ,0.0018577613830077027, ,1.8333333333333333, ,0.850673444763397, ,0.4504397869431236, ,0.039672659741637924
228, ,PASS, ,0.19980000000000037, ,0.04353051286621182, ,0.026042819635313554, ,0.00885374746011966, ,1.8333333333333333, ,0.9231959623997347, ,0.45158262076284156, ,0.23201567314952756
229, ,PASS, ,0.19342720000000013, ,0.03791538854018793, ,0.02184740072896467, ,0.007427088697864619, ,1.8333333333333333, ,0.8569281163982442, ,0.44907246790881816, ,0.04761127323932165
230, ,PASS, ,0.19980000000000037, ,0.04314697428993033, ,0.023061563255239666, ,0.008809058452154345, ,2.0, ,0.9103709815687098, ,0.4447664333380951, ,0.1791596089875717
231, ,PASS, ,0.19980000000000037, ,0.045410038262388916, ,0.02400398468888393, ,0.009146854435976683, ,1.9166666666666667, ,0.9503405729009057, ,0.4381339156343748, ,0.38858390645088875
232, ,PASS, ,0.11589551000000003, ,0.0170407535678311, ,0.02191799000695904, ,0.00198980118128176, ,1.9166666666666667, ,0.8558462295698275, ,0.4481541193036877, ,0.04099916328238199
233, ,PASS, ,0.09187095, ,0.012852395269971123, ,0.023214499233596662, ,0.001185100600247293, ,1.9166666666666667, ,0.8465316422490478, ,0.4329503479520826, ,0.03573396461296708
234, ,PASS, ,0.11596864000000001, ,0.01610964885598224, ,0.022548686247137812, ,0.0019045805135460704, ,2.0, ,0.8496734871672323, ,0.4463786453337687, ,0.03742780759576335
235, ,PASS, ,0.12274026000000002, ,0.01757745608205979, ,0.02146799598332687, ,0.0021732813934199555, ,1.8333333333333333, ,0.8558980198525571, ,0.4492969531234056, ,0.0417338421664864
236, ,PASS, ,0.07562348000000002, ,0.009851809988152816, ,0.025275714574029103, ,0.0007659486030124364, ,1.8333333333333333, ,0.8386638874721175, ,0.4426440276729046, ,0.034611538540029796
237, ,PASS, ,0.09948264000000001, ,0.013622152186754341, ,0.023471232415195605, ,0.0013782469164787452, ,1.9166666666666667, ,0.851924563225887, ,0.44576641293034835, ,0.03693802167302708
238, ,PASS, ,0.09685861999999998, ,0.012588465885374076, ,0.024572846252226277, ,0.0012514576766533554, ,1.8333333333333333, ,0.852110890024041, ,0.4568070039386951, ,0.036795167445562334
239, ,PASS, ,0.07752119999999998, ,0.00973176501706347, ,0.02300176799673476, ,0.0007834385586868777, ,2.0, ,0.8431137892155479, ,0.41246097018428196, ,0.022652598926552518
240, ,PASS, ,0.08500311000000002, ,0.011281608908900492, ,0.025287724023787674, ,0.0009900452793637378, ,1.8333333333333333, ,0.8505878491129377, ,0.45337850247954126, ,0.04687659435521724
241, ,PASS, ,0.09505820999999999, ,0.012903367520383098, ,0.023151435061459766, ,0.0012565112538684366, ,1.9166666666666667, ,0.8490736334345494, ,0.4410930389175731, ,0.03683598293912369
242, ,PASS, ,0.08610154, ,0.011118778457091933, ,0.024365532801393853, ,0.0009784977642198832, ,1.8333333333333333, ,0.8378573624483798, ,0.44209301850982635, ,0.029672863819105732
243, ,PASS, ,0.066507001, ,0.008594793384998248, ,0.027283176643996248, ,0.0005819161954612299, ,2.0, ,0.8412231259871258, ,0.46990877737189035, ,0.029611640578763698
244, ,PASS, ,0.11316663000000002, ,0.01515254844508879, ,0.023402643042101177, ,0.0017630744564389015, ,2.0, ,0.8529701214351839, ,0.4499908165139487, ,0.035468663904818266
245, ,PASS, ,0.11341749999999999, ,0.015718610321202284, ,0.022471004633966653, ,0.0018037016221743548, ,1.9166666666666667, ,0.8574869651025125, ,0.447562294647048, ,0.037917593518499625
246, ,PASS, ,0.09286008999999999, ,0.012026047798310655, ,0.023908851341840776, ,0.0011252493559578537, ,1.9166666666666667, ,0.8455515752525231, ,0.4411950776514765, ,0.03687679843268505
247, ,PASS, ,0.07522467000000001, ,0.009416051234079247, ,0.02592175715099692, ,0.000721978262382921, ,1.9166666666666667, ,0.836612433503256, ,0.44641946082733003, ,0.03195853145854166
248, ,PASS, ,0.08208774000000002, ,0.010400350550237516, ,0.025469376614211958, ,0.0008747148898538977, ,2.0, ,0.8435195974080919, ,0.4487867594538887, ,0.03485643150139793
249, ,PASS, ,0.09784223000000003, ,0.012881147697351367, ,0.025079267041463238, ,0.0012903635366614213, ,2.0, ,0.8499469318122386, ,0.45660292647088835, ,0.03563192587906369
250, ,PASS, ,0.083167, ,0.010909153824552273, ,0.025299595760759984, ,0.000927892694408638, ,2.0, ,0.8451034701626718, ,0.45319483275851513, ,0.03328503499928573
251, ,PASS, ,0.06379760799999999, ,0.008482184313819693, ,0.02634137130042244, ,0.0005587794605234628, ,2.0, ,0.8372524754500017, ,0.44948062284443174, ,0.026652517295565396
252, ,PASS, ,0.14641101000000004, ,0.022411107731182496, ,0.02048811071080182, ,0.0033594307762278485, ,2.0, ,0.870737718834928, ,0.4510928348401053, ,0.04503989714495622
253, ,PASS, ,0.14762411000000003, ,0.02377663793615381, ,0.02030899360033469, ,0.0035608798120705183, ,1.8333333333333333, ,0.874342478391386, ,0.4522764841533846, ,0.04687659435521724
254, ,FAIL, ,0.0009566842000000159, ,8.377831568494925e-05, ,0.028939399857962084, ,8.36352214428632e-08, ,1.9166666666666667, ,0.5452289049513825, ,0.4376441297116385, ,0.00046937817595559277
