Channel, ,Pass/Fail, ,Amplitude, ,Sorting Function Response, ,Mean, ,Variance, ,NPeaksRatio, ,PosIntegralRatio, ,ToT50, ,ToT99
24, ,PASS, ,0.010723820000000002, ,0.0016798762990908069, ,0.028777629284300322, ,1.8035799098275105e-05, ,1.8333333333333333, ,0.7548592818590191, ,0.5134997244954185, ,0.04763168098610233
25, ,PASS, ,0.044112297, ,0.006814602876762177, ,0.029626231123752577, ,0.0003010369582859285, ,1.8333333333333333, ,0.7545142448588502, ,0.5229893267484337, ,0.05648864308891655
26, ,PASS, ,0.06275802200000001, ,0.009773395638163169, ,0.030142941031938125, ,0.0006138703422406649, ,1.8333333333333333, ,0.758227794348287, ,0.5266219056753944, ,0.05975388257382502
27, ,PASS, ,0.0612171145, ,0.009562264772399328, ,0.029940121543654212, ,0.0005867793474398904, ,1.8333333333333333, ,0.7582052159965808, ,0.5230913654823371, ,0.052366278239219605
28, ,PASS, ,0.04710669100000002, ,0.00721747570448589, ,0.02903600161337524, ,0.00034136411568473667, ,1.8333333333333333, ,0.7418041091764873, ,0.5135609477357604, ,0.04930511622211792
29, ,PASS, ,0.018850170000000003, ,0.0028597485444166845, ,0.028545390003265236, ,5.418101451808354e-05, ,1.9166666666666667, ,0.7348100809122863, ,0.5040305299891839, ,0.05414175220913859
30, ,PASS, ,0.015159180000000015, ,0.0024510153820034393, ,0.028958747337401277, ,3.721185481019717e-05, ,1.8333333333333333, ,0.7791245961382023, ,0.5195404175424991, ,0.04810105916205792
31, ,PASS, ,0.05130296900000002, ,0.008298884985747617, ,0.030307292187118633, ,0.0004264313085832009, ,1.8333333333333333, ,0.7825177716088717, ,0.5236423746454154, ,0.08524315830289178
32, ,PASS, ,0.070486165, ,0.011417488905227232, ,0.031048686257484543, ,0.0008064101592817513, ,1.9166666666666667, ,0.7844114264632068, ,0.5294789902246892, ,0.08634517662904839
33, ,PASS, ,0.06804021800000001, ,0.011270106670262252, ,0.031039345739780823, ,0.000769705406028362, ,1.9166666666666667, ,0.7950423505841714, ,0.5294177669843473, ,0.08675333156466195
34, ,PASS, ,0.051703716000000004, ,0.008629389276941776, ,0.02987071673398502, ,0.0004488715426697936, ,1.9166666666666667, ,0.7935634902163812, ,0.5203363196669456, ,0.05012142609334504
35, ,PASS, ,0.02145777999999999, ,0.003524091055006719, ,0.02888024853309116, ,7.604394623352969e-05, ,1.8333333333333333, ,0.7825615132977941, ,0.5107038631864655, ,0.053509112058937575
36, ,PASS, ,0.018277659999999994, ,0.0029602099416168185, ,0.029226455579069815, ,5.42277691446952e-05, ,1.8333333333333333, ,0.7816836217814246, ,0.5222138323707679, ,0.069957755964164
37, ,PASS, ,0.05276070100000001, ,0.008518841547057579, ,0.030122601338625744, ,0.00045036941369419896, ,1.8333333333333333, ,0.7835306698141411, ,0.524172976061713, ,0.08336564559906941
38, ,PASS, ,0.07089893700000002, ,0.011498280264618042, ,0.0313737611648946, ,0.0008181061536455236, ,1.9166666666666667, ,0.7864075715003576, ,0.5329687149241852, ,0.08887573722985245
39, ,PASS, ,0.068562132, ,0.011365022926446228, ,0.03097141272739332, ,0.0007824490146888443, ,1.9166666666666667, ,0.7943160205617409, ,0.5292545050101019, ,0.08626354564192568
40, ,PASS, ,0.05365907620000001, ,0.00894981668634808, ,0.02975186742280974, ,0.00048310308850754464, ,1.8333333333333333, ,0.7935005878576116, ,0.5208465133364625, ,0.05336625783147283
41, ,PASS, ,0.023594670000000012, ,0.003908546730711458, ,0.0285900606783535, ,9.275566725972567e-05, ,1.8333333333333333, ,0.7857725802258557, ,0.5084794187873717, ,0.05799881635068672
42, ,PASS, ,0.021008100000000002, ,0.0034663528066288937, ,0.028944964279912652, ,7.287905670329591e-05, ,1.8333333333333333, ,0.792221750205371, ,0.5211730372849533, ,0.07401889757351891
43, ,PASS, ,0.06041233000000001, ,0.009720470071155948, ,0.030455193712126693, ,0.0005893090099132837, ,1.9166666666666667, ,0.7829958861187171, ,0.5297238831860575, ,0.07314136446194976
44, ,PASS, ,0.078694475, ,0.012713899046379956, ,0.03126521334654395, ,0.0010035812153596038, ,1.9166666666666667, ,0.7843090926096752, ,0.5319279198383706, ,0.08461051815269076
45, ,PASS, ,0.07642278000000001, ,0.012679292859965606, ,0.030823230156588645, ,0.0009730779497682974, ,1.8333333333333333, ,0.7946634902438833, ,0.5277443317483317, ,0.0763453807065162
46, ,PASS, ,0.05899112534, ,0.009811348749622952, ,0.029673164583332176, ,0.0005821934366127344, ,1.9166666666666667, ,0.7926489240698295, ,0.5212342605252954, ,0.04963164017060876
47, ,PASS, ,0.02584237999999999, ,0.004283922866998689, ,0.02863630727372911, ,0.00011144034175792664, ,1.8333333333333333, ,0.7858821811750384, ,0.5106426399461236, ,0.05185608456970266
48, ,PASS, ,0.02358779999999999, ,0.0037880606093836375, ,0.028987555620905693, ,8.969809742487047e-05, ,1.9166666666666667, ,0.7806636832121776, ,0.5243158302891777, ,0.06857002918307789
49, ,PASS, ,0.06037396789999999, ,0.00960502647497163, ,0.030343480384060737, ,0.0005818490959680605, ,1.9166666666666667, ,0.7778018863743573, ,0.5291524662761985, ,0.06997816371094467
50, ,PASS, ,0.07792508600000003, ,0.012530895108328558, ,0.030763352955409076, ,0.0009789725953692997, ,1.8333333333333333, ,0.7801966734292921, ,0.5291728740229791, ,0.07691679761637518
51, ,PASS, ,0.07514293099999998, ,0.012303141779801243, ,0.03051025115513969, ,0.0009276966566058016, ,1.8333333333333333, ,0.7863328802234372, ,0.5259076345380707, ,0.0662435460500806
52, ,PASS, ,0.05892685004, ,0.009730984689680103, ,0.029380845753295647, ,0.0005761370836033597, ,1.9166666666666667, ,0.7866564439624152, ,0.5188261464051754, ,0.05159078386155384
53, ,PASS, ,0.027168019999999984, ,0.004381754831496412, ,0.02851916891532826, ,0.00011963658620416551, ,1.9166666666666667, ,0.7689443764392155, ,0.507132507499847, ,0.05401930572845452
54, ,PASS, ,0.026520469999999973, ,0.004362471449277573, ,0.029096947686373744, ,0.0001159562021880236, ,1.9166666666666667, ,0.7905547501652717, ,0.5198465337442093, ,0.07699842860349788
55, ,PASS, ,0.0610190301, ,0.009842013452284864, ,0.03025407337677843, ,0.0006017608177714965, ,1.8333333333333333, ,0.7800176209799509, ,0.5245199077569845, ,0.07371278137180874
56, ,PASS, ,0.077698305, ,0.012582323266289431, ,0.030897608837778825, ,0.000980020329803907, ,1.8333333333333333, ,0.779588803442857, ,0.5280300402032612, ,0.0649578580028979
57, ,PASS, ,0.07521668899999999, ,0.01234460896234049, ,0.030254703241260384, ,0.0009311505244800391, ,1.9166666666666667, ,0.7857668977482071, ,0.5205199893879717, ,0.06279463684414603
58, ,PASS, ,0.05944346870000001, ,0.009888213291634093, ,0.029450288314924186, ,0.0005902027886139287, ,1.8333333333333333, ,0.7892127750889071, ,0.5164180322850555, ,0.052223424011754865
59, ,PASS, ,0.02827049000000001, ,0.004742614298782006, ,0.028831457911675275, ,0.00013480049797460824, ,1.8333333333333333, ,0.7927117965189567, ,0.5122140364482357, ,0.055141731801391806
60, ,PASS, ,0.026366489999999985, ,0.004131954095613068, ,0.028730052117507805, ,0.00010902961243934711, ,1.8333333333333333, ,0.7607863029669252, ,0.5121528132078937, ,0.0604273382175874
61, ,PASS, ,0.0590821386, ,0.009256525418561121, ,0.029585995790005513, ,0.0005475574927498576, ,1.9166666666666667, ,0.7611103505734174, ,0.5208873288300239, ,0.05879471847513316
62, ,PASS, ,0.073875732, ,0.011601636220303808, ,0.029970189579518785, ,0.0008584540589308458, ,1.8333333333333333, ,0.7617234140595182, ,0.5223158711046714, ,0.05528458602885655
63, ,PASS, ,0.071026636, ,0.01128070451327578, ,0.029726651773351567, ,0.0008030604448134834, ,1.9166666666666667, ,0.7648670929893786, ,0.5199077569845514, ,0.049733678904512156
64, ,PASS, ,0.05579722940000001, ,0.008856975313032865, ,0.028922825049480624, ,0.0004962235836472666, ,1.8333333333333333, ,0.7609735297653679, ,0.5135201322421992, ,0.049815309891634865
65, ,PASS, ,0.026037309999999987, ,0.0040447487107960756, ,0.028460536504561127, ,0.00010583622184862048, ,1.9166666666666667, ,0.7477894963436222, ,0.5084386032938103, ,0.051509152874431134
66, ,PASS, ,0.029059079999999994, ,0.004563129648474427, ,0.028905177986163547, ,0.00013269318253578518, ,1.8333333333333333, ,0.7587594173397066, ,0.5135201322421992, ,0.061345686822717904
67, ,PASS, ,0.06071305199999998, ,0.009454827652784954, ,0.029494491830885084, ,0.000574371659588375, ,1.75, ,0.7551445511623859, ,0.5178057590661415, ,0.05334585008469215
68, ,PASS, ,0.07339760199999999, ,0.01145507327980545, ,0.030363159123956658, ,0.0008429391966643409, ,1.8333333333333333, ,0.7611974542838318, ,0.52709128385135, ,0.05454990714475215
69, ,PASS, ,0.07046831700000002, ,0.011139684369564678, ,0.029721174966163957, ,0.0007872248804766318, ,1.9166666666666667, ,0.7625519034325996, ,0.5192138935940083, ,0.05138670639374707
70, ,PASS, ,0.05682217789999999, ,0.009009562045734765, ,0.028981063802268933, ,0.0005138621338526578, ,1.8333333333333333, ,0.7605864097702575, ,0.5133160547743923, ,0.04977449439807351
71, ,PASS, ,0.02815005000000002, ,0.004349148768697026, ,0.028400427537397195, ,0.00012306561633690494, ,1.9166666666666667, ,0.746890770257326, ,0.5067855758045754, ,0.050264280320809776
72, ,PASS, ,0.025649619999999984, ,0.003998777202080946, ,0.028491282199546948, ,0.00010289401137535867, ,1.8333333333333333, ,0.7526297283784366, ,0.5112548723495439, ,0.05057039652251995
73, ,PASS, ,0.05585409974, ,0.00880770492356465, ,0.029299794869674496, ,0.0004928926841179438, ,1.8333333333333333, ,0.7616050462610466, ,0.5173567886369665, ,0.055488663496663336
74, ,PASS, ,0.06720442100000003, ,0.010491083409622156, ,0.029617598624293383, ,0.0007062626175376826, ,1.9166666666666667, ,0.7569220857652271, ,0.5202750964266035, ,0.05085610497744944
75, ,PASS, ,0.064076453, ,0.010301930173971924, ,0.029219840132670764, ,0.0006620094473743155, ,1.8333333333333333, ,0.7692063718036778, ,0.5141323646456195, ,0.0542233831962613
76, ,PASS, ,0.04862853100000003, ,0.007807740349111282, ,0.028721873878431052, ,0.00038151461562719636, ,1.8333333333333333, ,0.7660241725289175, ,0.5110916103752985, ,0.05154996836799249
77, ,PASS, ,0.023354870000000003, ,0.0037578974441100596, ,0.02832693614334401, ,8.830973894036785e-05, ,1.9166666666666667, ,0.7688913207783735, ,0.5020713862982388, ,0.04801942817493521
78, ,PASS, ,0.02608407999999998, ,0.004048802906022941, ,0.028572146347829636, ,0.00010570629220116197, ,1.8333333333333333, ,0.748663381646946, ,0.5085406420277138, ,0.05624375012754842
79, ,PASS, ,0.05533847798, ,0.008513343501934412, ,0.029321502015514783, ,0.00047176013254498, ,1.8333333333333333, ,0.7503566601280549, ,0.5186424766841493, ,0.05465194587865554
80, ,PASS, ,0.06628922200000002, ,0.010297622123650367, ,0.029411198941286913, ,0.0006834607178915814, ,1.8333333333333333, ,0.7546133460002371, ,0.518152690761413, ,0.05324381135078876
81, ,PASS, ,0.06263019500000001, ,0.0098974521497526, ,0.029047418249933673, ,0.0006211734153025241, ,1.8333333333333333, ,0.7590123460574109, ,0.5148874512765046, ,0.05234587049243893
82, ,PASS, ,0.048473180000000025, ,0.007589872729370278, ,0.028556536586110487, ,0.00037016839660996133, ,1.8333333333333333, ,0.7529192873627102, ,0.5123364829289199, ,0.04624395420501622
83, ,PASS, ,0.023217450000000004, ,0.003493292122319363, ,0.028310085883553396, ,8.16589540778215e-05, ,1.9166666666666667, ,0.7309227019673923, ,0.5054386645170507, ,0.04810105916205792
84, ,PASS, ,0.02771736, ,0.00462549762798314, ,0.029494525328462685, ,0.0001288736772414987, ,1.8333333333333333, ,0.8040500780090485, ,0.5260300810187547, ,0.06822309748780638
85, ,PASS, ,0.04829390900000002, ,0.00782261172641668, ,0.02982154744878676, ,0.000379054056151528, ,1.8333333333333333, ,0.783504031140332, ,0.5263361972204649, ,0.06636599253076468
86, ,PASS, ,0.0552574249, ,0.009037506721296872, ,0.029955208164007676, ,0.0005009104411893947, ,1.8333333333333333, ,0.7872107790836295, ,0.5256219260831412, ,0.07371278137180874
87, ,PASS, ,0.05234551820000001, ,0.00871657247422157, ,0.0296024485516418, ,0.0004580071867601513, ,1.9166666666666667, ,0.7913431471955926, ,0.5207036591089977, ,0.05330503459113079
88, ,PASS, ,0.042257871999999995, ,0.0072933274152816654, ,0.029542045578233093, ,0.0003101739536362786, ,1.9166666666666667, ,0.8100295037148535, ,0.5225199485724781, ,0.045346013346666394
89, ,PASS, ,0.02465753999999999, ,0.004487704859229917, ,0.029377204763576255, ,0.00011147747455933062, ,1.9166666666666667, ,0.8411131460190551, ,0.5211118140446114, ,0.20322034244199097
90, ,PASS, ,0.005445219999999994, ,0.0004978089656409046, ,0.02823296430950389, ,2.754076131549041e-06, ,1.5, ,0.4491580253510015, ,0.48860227342299134, ,0.02077508622273015
91, ,PASS, ,0.011235969999999991, ,0.0009851313653374083, ,0.028058460804881537, ,1.1271718338912419e-05, ,1.5, ,0.4193854732625516, ,0.49045937838003306, ,0.025183159527356586
92, ,PASS, ,0.01275070000000001, ,0.0011049729120595226, ,0.027706167128834103, ,1.4351855312883047e-05, ,1.4166666666666667, ,0.4052943180600176, ,0.48362278320850594, ,0.01936695169486337
93, ,PASS, ,0.01208707999999999, ,0.0010048833583914804, ,0.028000759223689314, ,1.2411189262121768e-05, ,1.4166666666666667, ,0.3991294092266929, ,0.49096957204955, ,0.01638742066488439
94, ,PASS, ,0.008891810000000014, ,0.0007282270527306358, ,0.02811386868900635, ,6.609564202302948e-06, ,1.25, ,0.37573273527563733, ,0.4967245566417012, ,0.025979061651803026
95, ,PASS, ,0.004324140000000001, ,0.00032801658362143003, ,0.0282826543311361, ,1.4618112988211201e-06, ,1.5, ,0.41305435664831025, ,0.4697455153976449, ,0.00955082549335728
96, ,PASS, ,0.003860450000000005, ,0.0003272630193818617, ,0.028379895345605193, ,1.2851438510087885e-06, ,1.3333333333333333, ,0.43438614781039997, ,0.5297442909328381, ,0.022591375686210485
97, ,PASS, ,0.008427499999999984, ,0.0007636544004080532, ,0.028093396148037797, ,6.520108173944251e-06, ,1.4166666666666667, ,0.433876372487668, ,0.48372482194240934, ,0.016469051652007103
98, ,PASS, ,0.010338069999999998, ,0.0009377202577119961, ,0.027946422297095982, ,9.825988660230487e-06, ,1.4166666666666667, ,0.43985701245317677, ,0.4961531397318422, ,0.03028509622252607
198, ,FAIL, ,0.034417033, ,0.0022332678955430028, ,0.027109365921307728, ,8.058446420687231e-05, ,1.1666666666666667, ,0.33681716011500057, ,0.4877451480582029, ,0.026591294055223362
199, ,FAIL, ,0.0271628436, ,0.0027679002731085403, ,0.02822577220709781, ,7.891714388605795e-05, ,1.9166666666666667, ,0.7421230069347174, ,0.4920919981224873, ,0.0006734556437623722
200, ,FAIL, ,0.02929003699999999, ,0.0031670248221395865, ,0.028060302101793836, ,9.803824792502107e-05, ,1.8333333333333333, ,0.7217725065817361, ,0.4902348931654456, ,0.001122426072937287
201, ,PASS, ,0.04349739599999998, ,0.006864298191656458, ,0.027603811200791827, ,0.00031137490332281445, ,1.8333333333333333, ,0.8343062945002583, ,0.4927246382726883, ,0.02989734903369319
202, ,PASS, ,0.038402952000000004, ,0.005433587462367503, ,0.02779953311014061, ,0.00021432132811127316, ,1.9166666666666667, ,0.7989347497208186, ,0.495153160139589, ,0.01479561641599151
203, ,PASS, ,0.048817748099999995, ,0.007368709944810788, ,0.02740027722413828, ,0.0003803847692515761, ,1.9166666666666667, ,0.8335563695067904, ,0.49164302769331236, ,0.023693394012367093
204, ,PASS, ,0.07195034, ,0.010459965631417772, ,0.026929599133372794, ,0.0007723369348278494, ,1.8333333333333333, ,0.8433563821742799, ,0.5019897553111161, ,0.027081079977959634
205, ,PASS, ,0.07827607000000003, ,0.011198424680985378, ,0.02631899487031285, ,0.0009137624263445672, ,1.8333333333333333, ,0.8449695317760898, ,0.49960204893777677, ,0.033489112467092505
206, ,PASS, ,0.07650134000000001, ,0.010634904987568168, ,0.026514670970150405, ,0.0008501138186095177, ,1.8333333333333333, ,0.8370859773838916, ,0.49835717638415544, ,0.026285177853513194
207, ,PASS, ,0.07981035, ,0.011597407858492226, ,0.026693511166259464, ,0.0009435314927636572, ,1.9166666666666667, ,0.8426961460011233, ,0.5057855962123222, ,0.03244831738127793
208, ,PASS, ,0.06609011599999998, ,0.009049320444622698, ,0.026813843241117526, ,0.0006236225343328184, ,1.8333333333333333, ,0.8300799697239972, ,0.4982755453970327, ,0.023897471480173873
209, ,PASS, ,0.06923071900000001, ,0.009871154623539937, ,0.026775847441766497, ,0.0007097104342558612, ,1.8333333333333333, ,0.835238309305312, ,0.4997449031652415, ,0.032529948368400646
210, ,PASS, ,0.06616204099999998, ,0.009157239998902552, ,0.026847202491765473, ,0.0006299117969032157, ,1.8333333333333333, ,0.8317007890660361, ,0.4989694087875758, ,0.02432603416256811
211, ,PASS, ,0.07936026000000003, ,0.011361019050191806, ,0.02600476516571621, ,0.0009346215640957819, ,1.8333333333333333, ,0.8420629365792774, ,0.4980918756760066, ,0.03528499418379217
212, ,PASS, ,0.09989999999999993, ,0.02296849985815042, ,0.030391678481663645, ,0.0023358672498789306, ,1.9166666666666667, ,0.9582204167406229, ,0.5191934858472276, ,0.46568437378829003
213, ,PASS, ,0.08991526, ,0.014369091969496034, ,0.026539864155813154, ,0.0013283953755736338, ,1.8333333333333333, ,0.8448955901470688, ,0.5058060039591029, ,0.035040101222424035
214, ,PASS, ,0.09989999999999993, ,0.022626008965470915, ,0.029731687504744805, ,0.002331787211681918, ,2.0, ,0.9571799242754524, ,0.511887512499745, ,0.4584396236811494
215, ,PASS, ,0.09826690999999996, ,0.017495035814063534, ,0.028563477221281212, ,0.0017450619898767617, ,1.9166666666666667, ,0.8415577450268404, ,0.5028468806759046, ,0.03483602375461725
216, ,PASS, ,0.09339579999999997, ,0.015954591078434652, ,0.027188325430419796, ,0.0015099660265441774, ,1.9166666666666667, ,0.8429989925300893, ,0.5050713250749985, ,0.03267280259586539
217, ,PASS, ,0.09067230999999998, ,0.014982577481372088, ,0.026711475287320676, ,0.001384133349399006, ,1.8333333333333333, ,0.8468904058473472, ,0.5067039448174527, ,0.04030529989183894
218, ,PASS, ,0.09783621999999995, ,0.01748916394932602, ,0.028405482883410552, ,0.0017486426318469835, ,1.8333333333333333, ,0.8446613659060246, ,0.5057039652251994, ,0.03577478010652844
219, ,PASS, ,0.09989999999999993, ,0.01913589039331872, ,0.029496329869798582, ,0.001943821380982256, ,1.8333333333333333, ,0.8781577824497867, ,0.5029285116630273, ,0.09350829574906634
220, ,PASS, ,0.09229897999999997, ,0.015633522576750457, ,0.026870396894145023, ,0.0014702654380837111, ,1.8333333333333333, ,0.8466666707660903, ,0.5053978490234893, ,0.03234627864737454
221, ,PASS, ,0.09695815999999999, ,0.01751767992586148, ,0.028095341736903343, ,0.0017209059757932186, ,1.9166666666666667, ,0.8479128333965825, ,0.5052549947960245, ,0.03697883716658844
222, ,PASS, ,0.07250551000000001, ,0.011145686138284337, ,0.027014872392311994, ,0.0008232714460469726, ,1.9166666666666667, ,0.8466860123182779, ,0.5049284708475337, ,0.031040182853411154
223, ,PASS, ,0.09097232999999999, ,0.01553760281265167, ,0.026749773041162432, ,0.0014348457339505996, ,1.9166666666666667, ,0.8604880839991857, ,0.5071529152466276, ,0.04420317952694843
224, ,PASS, ,0.046260787, ,0.007324896964018297, ,0.027817028201832614, ,0.0003513774712156267, ,1.9166666666666667, ,0.8325044995432314, ,0.5009285524785209, ,0.02642803208097794
225, ,PASS, ,0.03422156800000001, ,0.005442424981445046, ,0.027820268433093202, ,0.00019124448943604763, ,1.9166666666666667, ,0.8177284566120567, ,0.4918062896675578, ,0.02344850105099896
226, ,PASS, ,0.03382661400000002, ,0.0054046974280263, ,0.027983917019448582, ,0.00018955711296898793, ,1.8333333333333333, ,0.822350666852987, ,0.49545927634129916, ,0.02293830738148201
227, ,PASS, ,0.02546794000000001, ,0.004122236283080756, ,0.028006229933470746, ,0.000109188251715269, ,1.9166666666666667, ,0.812177852080507, ,0.49123487275769884, ,0.03567274137262505
228, ,PASS, ,0.035404104000000006, ,0.006358502106787459, ,0.02797926515724169, ,0.00023374377927477827, ,1.9166666666666667, ,0.8525487859459598, ,0.49168384318687375, ,0.03663190547131691
229, ,FAIL, ,0.039901606999999985, ,0.005590366555983512, ,0.027886304202281584, ,0.0002243516247266489, ,1.8333333333333333, ,0.6809827844305282, ,0.4956225383155446, ,0.04273382175873962
