Channel, ,Pass/Fail, ,Amplitude, ,Sorting Function Response, ,Mean, ,Variance
0, ,PASS, ,0.041247755750496, ,0.02969600353282999, ,-0.0022276139145359104, ,0.0002543255870024484
1, ,PASS, ,0.04483703213325099, ,0.03596890912968972, ,-0.0024721892840887205, ,0.00033528959164033005
2, ,PASS, ,0.045377720918644, ,0.03637087169489329, ,-0.002537460062536777, ,0.00034312576712791735
3, ,PASS, ,0.04529358746590301, ,0.036294612813871675, ,-0.0024883972579909657, ,0.00034172862565260646
4, ,PASS, ,0.045088540092571, ,0.03600990127545253, ,-0.0024788259867314357, ,0.0003376160251279646
5, ,PASS, ,0.045054672038314, ,0.0359781805787207, ,-0.002533859897655601, ,0.0003370567374860795
6, ,PASS, ,0.04493775122294, ,0.035945967645746375, ,-0.0025221203660357747, ,0.00033585500518849517
7, ,PASS, ,0.044907594417222, ,0.03587520467548481, ,-0.0024854322848179723, ,0.0003349015321213748
8, ,PASS, ,0.044903044702499006, ,0.035846318595557626, ,-0.0025358860525647176, ,0.0003345833247041839
9, ,PASS, ,0.044701704142283, ,0.035459576764165765, ,-0.0023907061765527596, ,0.0003296990439893809
10, ,PASS, ,0.044588330573012994, ,0.03550947518634036, ,-0.002503895300031517, ,0.00032922684487647256
11, ,PASS, ,0.044491540119881004, ,0.03543127907876468, ,-0.002570141330408512, ,0.0003278051642051418
12, ,PASS, ,0.044548135867431, ,0.03540601241988208, ,-0.002463617494125065, ,0.00032795352743265264
13, ,PASS, ,0.044651596509416996, ,0.0355298409244542, ,-0.0024906010032709584, ,0.00032986525182742636
14, ,PASS, ,0.044863086783700996, ,0.035656059711019615, ,-0.0024969508042178303, ,0.0003325188160382365
15, ,PASS, ,0.044856882344755, ,0.03574757351937851, ,-0.002476733240790597, ,0.0003334193505877916
16, ,PASS, ,0.045346543358384006, ,0.036107153642304234, ,-0.00253911543862172, ,0.0003404291535162415
17, ,PASS, ,0.045491089923436, ,0.03621856759386661, ,-0.002580157135549271, ,0.0003425742532155629
18, ,PASS, ,0.045263467730352, ,0.036058522171687764, ,-0.002479297828605715, ,0.0003394340690131091
19, ,PASS, ,0.045356892992797, ,0.03605447623176338, ,-0.002548850893920532, ,0.0003400289004845872
20, ,PASS, ,0.04587104937408001, ,0.03652483778946344, ,-0.002576897764765017, ,0.0003484050510395171
21, ,PASS, ,0.055889870818634, ,0.04496087730773229, ,-0.0030782659577873817, ,0.0005226058241882015
22, ,PASS, ,0.15730925232155096, ,0.11698909123610095, ,-0.0076312893417752195, ,0.003823913347471202
23, ,PASS, ,0.045558943292639, ,0.036124897631659623, ,-0.002549039635974272, ,0.0003422086992920897
24, ,PASS, ,0.04203134752079299, ,0.03316862964528445, ,-0.0023278225682583408, ,0.00029001130544565744
25, ,PASS, ,0.04209073326953, ,0.033284219476581264, ,-0.0023478871983016298, ,0.00029143035581605074
26, ,PASS, ,0.042098165509432, ,0.03322907981221834, ,-0.002365053649031335, ,0.0002909890435085703
27, ,PASS, ,0.042103027193257, ,0.03325128146510462, ,-0.0023125793764269538, ,0.00029121805144167903
28, ,PASS, ,0.04203537023476801, ,0.03301226867314404, ,-0.0022986575951049497, ,0.0002887768903237453
29, ,PASS, ,0.042130806161406, ,0.03323880177818866, ,-0.002347650419939987, ,0.00029125260903387236
30, ,PASS, ,0.042107956791055, ,0.033307063648870046, ,-0.002344786007998344, ,0.00029175730187467924
31, ,PASS, ,0.04205503972131401, ,0.0331687347438782, ,-0.002364075808901611, ,0.00029023963185010167
32, ,PASS, ,0.042186403938466996, ,0.033405516140556535, ,-0.0023949042113168588, ,0.00029320985234011744
33, ,PASS, ,0.04225665000439701, ,0.03344459000785642, ,-0.0023726091432396956, ,0.00029400800704006136
34, ,PASS, ,0.042390679306633, ,0.03358423405830465, ,-0.002405487237034025, ,0.00029623130763153027
35, ,PASS, ,0.04248665427288, ,0.03363342836005022, ,-0.0023874062129637633, ,0.00029729528021900375
36, ,PASS, ,0.04243869585563801, ,0.03349041096200636, ,-0.0023862784743938588, ,0.00029574489612662323
37, ,PASS, ,0.042467056193703, ,0.03357291097662127, ,-0.0023857004877047786, ,0.0002966696522054401
38, ,PASS, ,0.042572167049648994, ,0.03354365479669423, ,-0.0023817891013842734, ,0.0002971328803582532
39, ,PASS, ,0.042325579904771995, ,0.033419616540266345, ,-0.002392089032303798, ,0.0002943605638614272
40, ,PASS, ,0.042757186674661996, ,0.033639842537535124, ,-0.0024420971665753055, ,0.00029921149732007636
41, ,PASS, ,0.04272366758631501, ,0.033596411917196166, ,-0.0023786789859903674, ,0.00029864741086276664
42, ,PASS, ,0.042586658180186004, ,0.033459374481028245, ,-0.002411899731928554, ,0.00029652933915099035
43, ,PASS, ,0.04261283016074101, ,0.033516840630529246, ,-0.0023972617658271933, ,0.0002972157234114674
44, ,PASS, ,0.042729428209362, ,0.033610219785498247, ,-0.0024230772297050896, ,0.00029885997319644493
45, ,PASS, ,0.042789985877546996, ,0.033629704915599565, ,-0.0024336626226586357, ,0.0002994554765128103
46, ,PASS, ,0.042662637151108004, ,0.033595079759242356, ,-0.0024836274309114215, ,0.0002982770480529704
47, ,PASS, ,0.04273821913324201, ,0.03363392126583205, ,-0.0024468657640521856, ,0.0002991606114803544
48, ,PASS, ,0.042851543138533, ,0.03352316849462419, ,-0.002396137028933031, ,0.000299051258475174
49, ,PASS, ,0.04417773876135299, ,0.03505648387204665, ,-0.0024839917738565596, ,0.00032246062171055885
50, ,PASS, ,0.04300479887266201, ,0.03382938364068626, ,-0.0024173822617496775, ,0.00030277803875326434
51, ,PASS, ,0.042821799443155006, ,0.033741437403999146, ,-0.0024444004817762116, ,0.00030072474113312833
52, ,PASS, ,0.042942580279018996, ,0.03378532331134296, ,-0.0024813007192476732, ,0.0003019168484904458
53, ,PASS, ,0.04281869044923701, ,0.03379241157684514, ,-0.002427818247023663, ,0.0003011601082971349
54, ,PASS, ,0.042909457195664, ,0.03378787441047782, ,-0.0024542599584037985, ,0.00030178465494977457
55, ,PASS, ,0.042886350710254005, ,0.03382438820838833, ,-0.0023513106962967014, ,0.00030196498392022155
56, ,PASS, ,0.04288390351405501, ,0.0337609532812542, ,-0.0023903121933749817, ,0.00030138137390384184
57, ,PASS, ,0.04368950720526801, ,0.03478121205041521, ,-0.0024549911464041563, ,0.0003164076102408062
58, ,PASS, ,0.043087647970111, ,0.03395371864428481, ,-0.002431568094976588, ,0.0003045439615143504
59, ,PASS, ,0.042957775078766997, ,0.03366412499109967, ,-0.002437570729896905, ,0.0003010834487071486
60, ,PASS, ,0.043134863136184, ,0.03384981055837718, ,-0.002480298802254567, ,0.0003039150123510079
61, ,PASS, ,0.043233318064522, ,0.033913102749443445, ,-0.002415660288217952, ,0.00030521443447658535
62, ,PASS, ,0.04333365220027699, ,0.033841765685366405, ,-0.0024313003187338244, ,0.000305252143585163
63, ,PASS, ,0.043230343387796, ,0.0338926357382311, ,-0.002484519853305472, ,0.00030501843598443714
64, ,PASS, ,0.043367791381445996, ,0.03406904559399305, ,-0.0024781087504410684, ,0.00030755785676047655
65, ,PASS, ,0.043420249212008, ,0.03397291090629723, ,-0.0024395867054300465, ,0.0003072065390579822
66, ,PASS, ,0.043416371573548995, ,0.034112948519477056, ,-0.002447011302574608, ,0.00030834055789158974
67, ,PASS, ,0.043492855985172, ,0.03404058023855498, ,-0.0024723711206611687, ,0.00030829558736699276
68, ,PASS, ,0.04338427111517901, ,0.03401893897592802, ,-0.002526729002867622, ,0.00030729195049308063
69, ,PASS, ,0.043435074048017, ,0.03405397896906423, ,-0.0025117706943004253, ,0.0003079186693771752
70, ,PASS, ,0.04344598793217199, ,0.03399995742549657, ,-0.002546741477095149, ,0.00030749599862118647
71, ,PASS, ,0.04349627164540601, ,0.03408537656330469, ,-0.002431292511390299, ,0.0003086964974154327
72, ,PASS, ,0.043711522716155, ,0.034181303071346626, ,-0.00249403927323657, ,0.00031116365423294336
73, ,PASS, ,0.043718637000895, ,0.034362209301516594, ,-0.002516961074064205, ,0.0003128253035915202
74, ,PASS, ,0.04360047734096, ,0.03428536248677091, ,-0.002557470395008056, ,0.0003112923449116098
75, ,PASS, ,0.043629406859303, ,0.034293581769557845, ,-0.002536048673940623, ,0.00031153855640303263
76, ,PASS, ,0.04373915502961599, ,0.03408989838030467, ,-0.0025101148239424637, ,0.0003103916532606057
77, ,PASS, ,0.043688076828736, ,0.034172096666035524, ,-0.002539178591011028, ,0.00031082995955201785
78, ,PASS, ,0.043653315641067995, ,0.03411517102496804, ,-0.0024994029161298677, ,0.0003101462991135409
79, ,PASS, ,0.04367206645496499, ,0.034210012381256906, ,-0.002500288787897186, ,0.0003111416011404409
80, ,PASS, ,0.044086250162185994, ,0.034568492788090134, ,-0.002584345915175084, ,0.00031728079527622787
81, ,PASS, ,0.044150976245557, ,0.0345990484920478, ,-0.002599345379416957, ,0.00031811729855728624
82, ,PASS, ,0.04426099195846601, ,0.03466730796571361, ,-0.0025162549696743884, ,0.00031953145514797943
83, ,PASS, ,0.046062182611242, ,0.03622589663421584, ,-0.0026816224187257657, ,0.0003474214319711984
84, ,PASS, ,0.12285989611163202, ,0.0908264492771458, ,-0.0060201911743859955, ,0.0023215977747568606
85, ,PASS, ,0.06918471681466601, ,0.05387765088662888, ,-0.003632491018865919, ,0.0007763866292725538
86, ,PASS, ,0.04353709757317199, ,0.03422212553594639, ,-0.0024912711236452843, ,0.00031031722501781553
87, ,PASS, ,0.042600516964843, ,0.033371597397244525, ,-0.002437450274790343, ,0.00029613867435762697
88, ,PASS, ,0.04252093605014701, ,0.033374566248767494, ,-0.00245561947853679, ,0.0002956613956269754
89, ,PASS, ,0.042526375421217004, ,0.03335302025931825, ,-0.0024320075020861512, ,0.0002955339539594727
90, ,PASS, ,0.042668953190532, ,0.03347137839175524, ,-0.0024010910641544055, ,0.0002975830908193354
91, ,PASS, ,0.042636739922169, ,0.033502262772058145, ,-0.002430031744681806, ,0.0002976278210336483
92, ,PASS, ,0.042486570466821, ,0.03349520102520285, ,-0.002456071465891965, ,0.00029651156187184853
93, ,PASS, ,0.04254104640456201, ,0.033473283549169584, ,-0.002472070350947939, ,0.00029669802604603775
94, ,PASS, ,0.042619480842534, ,0.03343508019577222, ,-0.0024330442452304003, ,0.00029685282514232525
95, ,PASS, ,0.042492555554017, ,0.03347575805281901, ,-0.00245032651071581, ,0.000296393519545608
96, ,PASS, ,0.042556808242286, ,0.03326730719323492, ,-0.002503805324087871, ,0.0002950585099092048
97, ,PASS, ,0.042560092346838004, ,0.033428423176196716, ,-0.0024894461116362664, ,0.0002964593765851559
98, ,PASS, ,0.042487734640315, ,0.033269207917608776, ,-0.0023849460055107006, ,0.00029462979934403527
99, ,PASS, ,0.04248141540633899, ,0.033351768798802243, ,-0.0024797945749116296, ,0.00029521181119398555
100, ,PASS, ,0.04239572339213301, ,0.0333108895369016, ,-0.0025402407158032995, ,0.0002943108147622821
101, ,PASS, ,0.042517152814101, ,0.033341561342349675, ,-0.0024560397956380963, ,0.000295439799029996
102, ,PASS, ,0.042529966095371005, ,0.033382950579416815, ,-0.0025308234989430286, ,0.00029578064270436276
103, ,PASS, ,0.042365515463685, ,0.03328029188444751, ,-0.002502673702538291, ,0.0002938163250642145
104, ,PASS, ,0.04284939541051601, ,0.03356095282487295, ,-0.002500934232846957, ,0.00029956355250928456
105, ,PASS, ,0.042746372684723, ,0.03356828827937469, ,-0.0025333831520133365, ,0.00029903049961445174
106, ,PASS, ,0.042729291112586006, ,0.033426958935596794, ,-0.0025183964184207043, ,0.00029768853169911594
107, ,PASS, ,0.04291300447812001, ,0.03351709708957647, ,-0.002449162820063824, ,0.0002997276291293641
108, ,PASS, ,0.04283083003576499, ,0.03364779761567881, ,-0.0025993869243987012, ,0.00030026773135416023
109, ,PASS, ,0.04292929176883099, ,0.03355158464740507, ,-0.0025111392412279694, ,0.00030013997752176324
110, ,PASS, ,0.042924533014366, ,0.03359432407563451, ,-0.0025104566551913984, ,0.0003005219073206314
111, ,PASS, ,0.043338269612704, ,0.034269300777739035, ,-0.0025426157306570473, ,0.00030954333695839875
112, ,PASS, ,0.043341747019902, ,0.03419149181464885, ,-0.0025068069063882317, ,0.00030887716690684993
113, ,PASS, ,0.04286470192935901, ,0.033528561290411305, ,-0.0025218381373181362, ,0.0002995023102613316
114, ,PASS, ,0.04289930713104401, ,0.033578174132541584, ,-0.0024365510499590624, ,0.00030027000120483397
115, ,PASS, ,0.043006792254633996, ,0.03361093006823601, ,-0.0025011034707869795, ,0.0003012604189002031
116, ,PASS, ,0.04301188242847501, ,0.0337299605745714, ,-0.0024680571732986632, ,0.0003023572228413555
117, ,PASS, ,0.042978256922861, ,0.03365443788762932, ,-0.0025238245632511844, ,0.0003014588487738624
118, ,PASS, ,0.042978439560289, ,0.03371045572104957, ,-0.0024935087627409548, ,0.0003019715145160958
119, ,PASS, ,0.043108528621782, ,0.03394873842917342, ,-0.002449293448607163, ,0.00030510401132029263
120, ,PASS, ,0.043391783109855, ,0.03433652719958582, ,-0.00255110627935546, ,0.0003105762186258779
121, ,PASS, ,0.04300288869207, ,0.03369361214465236, ,-0.002529477290388628, ,0.0003019746056358987
122, ,PASS, ,0.04289911018072401, ,0.033532560014995154, ,-0.0024564014014639736, ,0.0002999306234079148
123, ,PASS, ,0.04294416276785501, ,0.03364143968710843, ,-0.002442253182760434, ,0.0003011444984919219
124, ,PASS, ,0.042432014422009987, ,0.03341465729764923, ,-0.0024332805598877467, ,0.0002955300393217355
125, ,PASS, ,0.042777848931539006, ,0.03355594401477199, ,-0.002402302749669143, ,0.0002992418544736044
126, ,PASS, ,0.04289115717222901, ,0.03363837148634983, ,-0.0025067136477561606, ,0.0003007756729461917
127, ,PASS, ,0.042921260869238004, ,0.03361560696845531, ,-0.0025202247168679254, ,0.0003007670772041955
128, ,PASS, ,0.042511981489460005, ,0.03324918307843794, ,-0.0024900525389181085, ,0.0002946718776432667
129, ,PASS, ,0.042840613664601, ,0.033539985044370155, ,-0.0024951515296313975, ,0.00029952044356197475
130, ,PASS, ,0.043072879198577003, ,0.03357460406120975, ,-0.0024248787326540963, ,0.0003015228359466181
131, ,PASS, ,0.043174035102254996, ,0.03370634794215436, ,-0.0025060727559605973, ,0.00030334624403372744
132, ,PASS, ,0.043288334345186995, ,0.0338082938574453, ,-0.002481446350349954, ,0.00030504208672544946
133, ,PASS, ,0.043267965912103, ,0.03375065405512698, ,-0.0025688090717507018, ,0.0003043193534926452
134, ,PASS, ,0.043263013353617, ,0.03381176310386549, ,-0.0025544540366278456, ,0.00030491891602313457
135, ,PASS, ,0.043194233591817996, ,0.033625307145409816, ,-0.002418110491737501, ,0.000302834348035851
136, ,PASS, ,0.043223337746551994, ,0.03385480475675692, ,-0.002554581723213043, ,0.0003050579539746167
137, ,PASS, ,0.04332200791198, ,0.033859448699030126, ,-0.0025115257723974695, ,0.0003057792745147362
138, ,PASS, ,0.043350335622037, ,0.03384191085678058, ,-0.0025095284437373685, ,0.00030584839704126055
139, ,PASS, ,0.04321363576599, ,0.033846043357482467, ,-0.0026148472309680143, ,0.0003048918511119528
140, ,PASS, ,0.044018117051661004, ,0.03438561220288391, ,-0.0025078782188198354, ,0.00031560747184179326
141, ,PASS, ,0.043709937567252, ,0.03427461749222022, ,-0.0025409990769433627, ,0.00031230342570648335
142, ,PASS, ,0.043397358187743006, ,0.033757097053262734, ,-0.0024800704931492263, ,0.00030554691281652047
143, ,PASS, ,0.043414584678754004, ,0.033931174526669404, ,-0.002571244216818746, ,0.00030705604121055244
144, ,PASS, ,0.043507403857294, ,0.03403406338054822, ,-0.0025294717336428567, ,0.0003086993928254957
145, ,PASS, ,0.04418298854347301, ,0.03453957687314724, ,-0.0025818466179235236, ,0.00031810276249252253
146, ,PASS, ,0.05858793034934601, ,0.04698837664531119, ,-0.0032959288134410945, ,0.0005739536398746475
147, ,PASS, ,0.13783608161122002, ,0.1016097006970743, ,-0.006843196936365152, ,0.0029158962443409
148, ,PASS, ,0.04403565758485299, ,0.034491454441997874, ,-0.0026502443395418317, ,0.0003166246245872387
149, ,PASS, ,0.04184749625143, ,0.032668420698898366, ,-0.0025164189360870606, ,0.00028509036164177333
150, ,PASS, ,0.041920424312813995, ,0.0327396209617839, ,-0.0024614376841065305, ,0.00028617185209252994
151, ,PASS, ,0.041825709294488, ,0.032612220250390164, ,-0.0025350222292316446, ,0.00028440870237896775
152, ,PASS, ,0.041768692055747, ,0.032493489103768196, ,-0.002457961524717097, ,0.00028295655917853714
153, ,PASS, ,0.04170589180300001, ,0.032465027857629336, ,-0.0025040457043446996, ,0.00028234965499337436
154, ,PASS, ,0.041685534078455, ,0.03247804836360188, ,-0.0024448961884157875, ,0.0002823204626094015
155, ,PASS, ,0.041624759489185995, ,0.03248268575586458, ,-0.002415023760859127, ,0.0002819170475535245
156, ,PASS, ,0.04179603012050401, ,0.03253555128498528, ,-0.0025315403726110667, ,0.00028351284944517493
157, ,PASS, ,0.041884530023097, ,0.0325145514568399, ,-0.002447257019717757, ,0.00028400386913140005
158, ,PASS, ,0.04177917931004099, ,0.032520311247078985, ,-0.0024585219342369677, ,0.00028331679587779155
159, ,PASS, ,0.041707131745935995, ,0.032451143307724445, ,-0.002446561797499369, ,0.0002822177571704352
160, ,PASS, ,0.041709533173564, ,0.032444960635272024, ,-0.002453309353403603, ,0.00028223773073523194
161, ,PASS, ,0.04173522575224001, ,0.03252688812504121, ,-0.0024451345718869487, ,0.00028311448153671437
162, ,PASS, ,0.041762459357739, ,0.03259495362257182, ,-0.0024619494457797917, ,0.0002838708552240926
163, ,PASS, ,0.04168696199353, ,0.03254579986241735, ,-0.002436082456513792, ,0.0002829637211356561
164, ,PASS, ,0.04170127345981399, ,0.032372787817665255, ,-0.0023978571591175535, ,0.00028158592953469113
165, ,PASS, ,0.04168989785639301, ,0.03244125178553592, ,-0.002439565632362034, ,0.00028211158575091233
166, ,PASS, ,0.041614681810621994, ,0.03248931100801726, ,-0.0024707048954927553, ,0.0002819579468350895
167, ,PASS, ,0.041596508383618995, ,0.03246228903972546, ,-0.0024399181198500666, ,0.00028160764751917756
168, ,PASS, ,0.041647609787855006, ,0.032479460214153065, ,-0.002417758875196836, ,0.00028212594179428957
169, ,PASS, ,0.041632118660300005, ,0.03248170854041242, ,-0.002439578475173678, ,0.00028203895427812427
170, ,PASS, ,0.04151694461963, ,0.032403020372179986, ,-0.0024745820416828463, ,0.00028058668864566164
171, ,PASS, ,0.041606297694131, ,0.032457407298419144, ,-0.002474495592173965, ,0.00028166694270776073
172, ,PASS, ,0.04160508108618, ,0.032484764597805256, ,-0.002464190151244523, ,0.0002818519043769629
173, ,PASS, ,0.04164346006111501, ,0.03258646190522496, ,-0.0025437313348904964, ,0.00028301278290522873
174, ,PASS, ,0.042292566077447004, ,0.033628251095945826, ,-0.002557768175164128, ,0.0002966903954324371
175, ,PASS, ,0.041544191977759, ,0.03242961599406898, ,-0.002466079587551711, ,0.00028099790255980934
176, ,PASS, ,0.04151442734986899, ,0.03232696730473146, ,-0.002427865064961158, ,0.00027994738946419593
177, ,PASS, ,0.041678344013335006, ,0.032427323838192065, ,-0.0024727610630837452, ,0.00028184317518513625
178, ,PASS, ,0.04156633401922701, ,0.032291370156036794, ,-0.002537090213793628, ,0.0002799540016792928
179, ,PASS, ,0.04151743435176, ,0.03227407923953352, ,-0.002513198725735767, ,0.00027943137313120824
180, ,PASS, ,0.041513791170983, ,0.032425318951718636, ,-0.00248748387046233, ,0.0002807519852268906
181, ,PASS, ,0.041632599948009, ,0.032403895635403905, ,-0.0025259939246121002, ,0.0002814132151665139
182, ,PASS, ,0.042247683391901006, ,0.03344285241120904, ,-0.002501726269096081, ,0.0002947473214225273
183, ,PASS, ,0.04164272676661, ,0.032545364188270844, ,-0.0025481379348851817, ,0.0002825765355517669
184, ,PASS, ,0.041592075749048, ,0.032272786854237144, ,-0.0025085064275018566, ,0.0002798481991433779
185, ,PASS, ,0.041454895108869, ,0.032218506529696635, ,-0.002431357567309578, ,0.00027863372396195703
186, ,PASS, ,0.041532365875438, ,0.032351308022427916, ,-0.002494487456489, ,0.00028024700492671584
187, ,PASS, ,0.04146601819699701, ,0.032260058970449014, ,-0.0024766572110728226, ,0.00027897808693594606
188, ,PASS, ,0.041527626062532, ,0.03238711669946996, ,-0.00254312651566639, ,0.00028050406997767117
189, ,PASS, ,0.04155193844331399, ,0.032427661681175016, ,-0.002502920524219009, ,0.00028103695353275213
190, ,PASS, ,0.041386205310284, ,0.03238807473792524, ,-0.002539048758484289, ,0.000279610709870823
191, ,PASS, ,0.04146896042493999, ,0.032336754391602385, ,-0.0024692950389283417, ,0.0002797180254767412
192, ,PASS, ,0.041467759001691, ,0.03228140294024791, ,-0.002529345333758463, ,0.0002792163804652849
193, ,PASS, ,0.04142286902951801, ,0.03238667780349902, ,-0.002518711118133149, ,0.00027981838953887813
194, ,PASS, ,0.04136957051358199, ,0.03226738508638198, ,-0.002481973103032718, ,0.00027842804188600015
195, ,PASS, ,0.041445111874945, ,0.032275283969458834, ,-0.0024739824025501586, ,0.0002789892210001364
196, ,PASS, ,0.041633166685554, ,0.032395327726784426, ,-0.002449009122016088, ,0.000281320502409477
197, ,PASS, ,0.041657264427896, ,0.03238447898245731, ,-0.0024344884964106026, ,0.000281359162332801
198, ,PASS, ,0.041668064067713, ,0.032294439950446806, ,-0.002442024100150674, ,0.0002807447752159705
199, ,PASS, ,0.041649021112228, ,0.03245838923865423, ,-0.0024623713966575784, ,0.00028192398026453264
200, ,PASS, ,0.041656477264767997, ,0.03231664798024786, ,-0.002432961351189719, ,0.0002808725091094282
201, ,PASS, ,0.041675150510856, ,0.032263717620984726, ,-0.0024441264649122485, ,0.00028053412765424734
202, ,PASS, ,0.041579712555881, ,0.032337004944778626, ,-0.0025116279891093077, ,0.0002804794030746678
203, ,PASS, ,0.041647076288285, ,0.03239085498771489, ,-0.0024961856195736968, ,0.0002813008959744607
204, ,PASS, ,0.04168169830972399, ,0.032376506047634764, ,-0.002521768313253878, ,0.00028141396435277987
205, ,PASS, ,0.04177014774717901, ,0.03240429827650939, ,-0.002522000372135088, ,0.0002822920945166245
206, ,PASS, ,0.041718357051037, ,0.03234411285811774, ,-0.0024756971243928946, ,0.00028139058638489297
207, ,PASS, ,0.04186462971444399, ,0.032561236988950054, ,-0.0025109159346271403, ,0.000284273789126689
208, ,PASS, ,0.044972671814632006, ,0.035068734129917054, ,-0.002659905651445023, ,0.0003287522283870601
209, ,PASS, ,0.13531867382969, ,0.09989177579509408, ,-0.006918647782604044, ,0.00281487950472338
210, ,PASS, ,0.06133074573119501, ,0.04779815804634027, ,-0.003364682411893238, ,0.0006109236274173845
211, ,PASS, ,0.042387269514456004, ,0.03350627440378961, ,-0.002489751656387819, ,0.0002960386086801505
212, ,PASS, ,0.041484538819626, ,0.032845278687323086, ,-0.002473314096113309, ,0.0002839947314152921
213, ,PASS, ,0.041502581352823996, ,0.03265738003105096, ,-0.00236860689871184, ,0.00028258517648082287
214, ,PASS, ,0.041267997240507004, ,0.03267571765073457, ,-0.002435847952166829, ,0.00028101959585844085
215, ,PASS, ,0.041664361817096, ,0.03296137191576845, ,-0.0024864059203392247, ,0.0002861947080736841
216, ,PASS, ,0.041689972391077, ,0.03290088979222995, ,-0.002527208937606522, ,0.00028580298282554646
217, ,PASS, ,0.041707768059511, ,0.03298618966712955, ,-0.0025280779214973343, ,0.0002867431081035049
218, ,PASS, ,0.04166833616178401, ,0.03291513966844503, ,-0.0025201815674841493, ,0.0002859060080274742
219, ,PASS, ,0.041626713613099, ,0.03294332565686951, ,-0.0024613934036863162, ,0.0002858343990865257
220, ,PASS, ,0.041591003841488006, ,0.032946635146924315, ,-0.0024853239530147867, ,0.00028561853794988924
221, ,PASS, ,0.04171681423196101, ,0.03287737948597871, ,-0.0024926160559510346, ,0.000285958411308056
222, ,PASS, ,0.041596573393775, ,0.03289118856659512, ,-0.0024979811521326674, ,0.00028517676030979916
223, ,PASS, ,0.041647981360975, ,0.032995035523361, ,-0.0025009781035995196, ,0.00028641451305444124
224, ,PASS, ,0.04177025271023101, ,0.033075594227629984, ,-0.002492484500866874, ,0.00028795086889295176
225, ,PASS, ,0.041788327418294, ,0.03292557951921479, ,-0.002344858500683982, ,0.00028686229179784124
226, ,PASS, ,0.041761480751611, ,0.032978417004781345, ,-0.0024320402252259866, ,0.0002870745295526125
227, ,PASS, ,0.04171493789725901, ,0.03299689762124507, ,-0.002450303630594942, ,0.00028694286476700875
228, ,PASS, ,0.041721170064682, ,0.03299335365771072, ,-0.0025087426314106625, ,0.00028687626640305823
229, ,PASS, ,0.041676163614031994, ,0.03293899711137109, ,-0.002398317438612769, ,0.0002861546424828329
230, ,PASS, ,0.041633204271701, ,0.032875953778995, ,-0.0025175711753607486, ,0.000285283821702374
231, ,PASS, ,0.04169299542419701, ,0.032963253525670054, ,-0.002470422470897221, ,0.0002864595412695109
232, ,PASS, ,0.04171112510802899, ,0.03287677413093579, ,-0.002537807566142612, ,0.00028582144720819226
233, ,PASS, ,0.041728040877952, ,0.032937137784325325, ,-0.0025008582260710845, ,0.0002864768406784003
234, ,PASS, ,0.041639478318046, ,0.032903366529795953, ,-0.0025432908882709166, ,0.00028557427305080655
235, ,PASS, ,0.041760140245726995, ,0.03292292306509582, ,-0.0024422933675638434, ,0.00028658559393793557
236, ,PASS, ,0.04280692003278201, ,0.03390075362021459, ,-0.002528652019736807, ,0.00030254887635430534
237, ,PASS, ,0.042839647879561, ,0.03394808501230087, ,-0.002545096889227845, ,0.0003031690732869682
238, ,PASS, ,0.041987508472689006, ,0.033052233247240166, ,-0.0025165298359678193, ,0.00028927081631925026
239, ,PASS, ,0.042095229458702005, ,0.033205611756875836, ,-0.0024763659626622705, ,0.00029132519186761136
240, ,PASS, ,0.042282340131199, ,0.03324236343413904, ,-0.002596535732554603, ,0.0002929830114368431
241, ,PASS, ,0.04234690196835701, ,0.03329490866449054, ,-0.002457479775374059, ,0.00029392717746557195
242, ,PASS, ,0.04226197961424, ,0.03301655150049445, ,-0.0025009815068354805, ,0.0002908947910618643
243, ,PASS, ,0.042419959450503995, ,0.03341104903774688, ,-0.0025238467468394377, ,0.00029540237803902944
244, ,PASS, ,0.042996616109543, ,0.03397683450889187, ,-0.002662625237139095, ,0.00030448395338561517
245, ,PASS, ,0.04341296828116999, ,0.034321518491035485, ,-0.002611014933233479, ,0.0003104770891070408
246, ,PASS, ,0.04266224097810001, ,0.033472220084619, ,-0.0024605280681769003, ,0.0002976550324307038
247, ,PASS, ,0.042721045656221, ,0.033587058640599264, ,-0.0025917399398413133, ,0.0002990725888726479
248, ,PASS, ,0.042901449085083, ,0.0336905826192674, ,-0.002633213080966064, ,0.000301254272736558
249, ,PASS, ,0.043041677777558005, ,0.03377787239570972, ,-0.0024968360238593126, ,0.00030307782861926566
250, ,PASS, ,0.042889510099124006, ,0.033535135344236223, ,-0.002508707865048585, ,0.0002998010986118346
251, ,PASS, ,0.043025986174444, ,0.033745038804216004, ,-0.0025199625098989618, ,0.00030262394843481893
252, ,PASS, ,0.042677758075997, ,0.033596857454381256, ,-0.002532489035486087, ,0.0002987958043531036
253, ,PASS, ,0.042904507607496006, ,0.03374972193381193, ,-0.002589102484923908, ,0.00030176103476872127
254, ,PASS, ,0.043169822611272994, ,0.03392898366322694, ,-0.0026214322650104883, ,0.00030524798405345295
255, ,PASS, ,0.043427055811787005, ,0.03410733030927526, ,-0.002621121197474668, ,0.0003086007861466205
