Channel, ,Pass/Fail, ,Amplitude, ,Sorting Function Response, ,Mean, ,Variance, ,NPeaksRatio, ,PosIntegralRatio, ,ToT50, ,ToT99
14, ,PASS, ,0.013932379999999994, ,0.002338274167462175, ,0.028150494737862495, ,3.293857531852516e-05, ,1.8333333333333333, ,0.7491295047981386, ,0.4496438848186772, ,0.07234546233750332
15, ,PASS, ,0.015102030000000002, ,0.0025853206265483643, ,0.02856852065366013, ,3.939902138948755e-05, ,1.9166666666666667, ,0.7909215475160205, ,0.4609089610416114, ,0.07224342360359992
16, ,PASS, ,0.009198439999999999, ,0.0012568896219037984, ,0.029037815237035983, ,1.1663434714217358e-05, ,1.8333333333333333, ,0.7337639948376693, ,0.4695006224362768, ,0.08424317871063856
17, ,PASS, ,0.009098000000000009, ,0.0012426373545332539, ,0.02902428846778637, ,1.1422917078566667e-05, ,1.8333333333333333, ,0.7408141449407862, ,0.46815371114875204, ,0.04716230281014673
18, ,PASS, ,0.009104939999999999, ,0.0012353119069287864, ,0.02906630723270954, ,1.1332443400864801e-05, ,1.8333333333333333, ,0.7265760396860712, ,0.4673169935307443, ,0.038795126630068774
19, ,PASS, ,0.009234339999999997, ,0.0011979366266594267, ,0.029030480906308036, ,1.1147308175775162e-05, ,1.8333333333333333, ,0.723447302950116, ,0.46954143792983816, ,0.030060611007938613
20, ,PASS, ,0.009347230000000002, ,0.001227609070374843, ,0.02899443217689435, ,1.1615730043679383e-05, ,1.9166666666666667, ,0.7368345951508586, ,0.4694189914491541, ,0.036305381522826065
21, ,PASS, ,0.0091094, ,0.001209590496783007, ,0.028942729309197772, ,1.109910366277998e-05, ,1.8333333333333333, ,0.7307940526432046, ,0.46715373155649886, ,0.05287647190873656
22, ,PASS, ,0.008986939999999999, ,0.001206162468981286, ,0.028941165200914266, ,1.0956710806666518e-05, ,1.8333333333333333, ,0.7336956174983652, ,0.4681945266423134, ,0.01718332278933083
23, ,PASS, ,0.008819689999999988, ,0.0012133833789333486, ,0.029073001335687028, ,1.0785774196608878e-05, ,1.9166666666666667, ,0.7437226451279704, ,0.4678475949470419, ,0.06793738903287688
24, ,PASS, ,0.008937359999999995, ,0.0012066775284446185, ,0.028849218516969043, ,1.0872686804462073e-05, ,1.8333333333333333, ,0.7337030976996604, ,0.46901083651354053, ,0.051488745127650455
25, ,PASS, ,0.008977890000000013, ,0.0012141317122554775, ,0.029030911473031162, ,1.0987096495561709e-05, ,1.8333333333333333, ,0.7365407887936186, ,0.4674802555049897, ,0.02867288422685251
26, ,PASS, ,0.009095169999999996, ,0.0011892587375679027, ,0.028773214474194408, ,1.0923555152763773e-05, ,1.8333333333333333, ,0.7361495661161584, ,0.4697046999040836, ,0.05152956062121181
27, ,PASS, ,0.008769429999999995, ,0.0011604967278634039, ,0.028888034589498176, ,1.0279670825136819e-05, ,1.8333333333333333, ,0.7374574123636932, ,0.46882716679251446, ,0.03695842941980776
28, ,PASS, ,0.008830590000000003, ,0.0012141172950178875, ,0.028838420238362483, ,1.0840947541850075e-05, ,1.9166666666666667, ,0.7287465050288343, ,0.4667455766208853, ,0.04261137527805555
29, ,PASS, ,0.008917000000000012, ,0.0011864996754848112, ,0.028997416375584173, ,1.0662882522160848e-05, ,1.8333333333333333, ,0.7298142907311644, ,0.46780677945348054, ,0.06138650231627926
30, ,PASS, ,0.008974429999999988, ,0.0012026232301807199, ,0.029275687896573543, ,1.0904396701643138e-05, ,1.9166666666666667, ,0.7350014466174507, ,0.46872512805861105, ,0.053162180363666045
31, ,PASS, ,0.008951880000000002, ,0.0011666551837211745, ,0.029039303102793824, ,1.0548782943843845e-05, ,1.8333333333333333, ,0.7244214908690766, ,0.46788841044060325, ,0.018020040407338626
32, ,PASS, ,0.008704460000000004, ,0.0011689389968646028, ,0.029189120463051773, ,1.0257206668427862e-05, ,1.8333333333333333, ,0.7252332902499956, ,0.46815371114875204, ,0.036672720964878266
33, ,PASS, ,0.00881773, ,0.0011349488675998654, ,0.028935911162833415, ,1.0090740905379986e-05, ,1.8333333333333333, ,0.7152273430956471, ,0.4706434562559948, ,0.021407726372931164
34, ,PASS, ,0.008606139999999995, ,0.001149801202571761, ,0.028988406437215567, ,1.0012856354749128e-05, ,1.9166666666666667, ,0.741253091057727, ,0.4695006224362768, ,0.038325748454113184
35, ,PASS, ,0.008760440000000012, ,0.0011684404604635856, ,0.028979525371318957, ,1.0314848023135778e-05, ,1.9166666666666667, ,0.7286257637702882, ,0.46743944001142834, ,0.049101038754311134
36, ,PASS, ,0.0087431, ,0.0011466078465268217, ,0.02919330829717761, ,1.0113786747840283e-05, ,1.9166666666666667, ,0.7150041525462327, ,0.46631701393849107, ,0.03663190547131691
37, ,PASS, ,0.008843989999999989, ,0.0011725962992604657, ,0.028993451841186915, ,1.0453509736059924e-05, ,1.8333333333333333, ,0.7199290050794783, ,0.46743944001142834, ,0.02561172220975082
38, ,PASS, ,0.008677029999999995, ,0.001167634039625078, ,0.028798551728332077, ,1.0195231896236347e-05, ,1.9166666666666667, ,0.7357268154788658, ,0.46829656537621683, ,0.03287688006367217
39, ,PASS, ,0.008535849999999987, ,0.0011111026697714704, ,0.02878688964000735, ,9.562996408046413e-06, ,1.8333333333333333, ,0.695391370317119, ,0.4663578294320524, ,0.01202016285381931
40, ,PASS, ,0.008552639999999993, ,0.001165531896818272, ,0.02854971204812147, ,1.0018334812962167e-05, ,1.9166666666666667, ,0.7390887972974185, ,0.4673782167710863, ,0.04583579926940266
41, ,PASS, ,0.008476169999999998, ,0.0011538107159346795, ,0.028578718410236528, ,9.81239975346813e-06, ,1.8333333333333333, ,0.7319790102153501, ,0.46870472031183036, ,0.06940674680108569
42, ,PASS, ,0.00838297, ,0.001108445173960661, ,0.02858337020081223, ,9.353440743580585e-06, ,1.9166666666666667, ,0.7139770124612915, ,0.46699046958225343, ,0.039509397767392505
43, ,PASS, ,0.008478520000000031, ,0.0011859972651607753, ,0.028366636323136265, ,1.0099609298871435e-05, ,1.9166666666666667, ,0.722704495038993, ,0.46417420052651986, ,0.03532580967735352
44, ,PASS, ,0.008447429999999992, ,0.0011256113006118714, ,0.028617146007428422, ,9.581928141220283e-06, ,1.9166666666666667, ,0.7069413116445965, ,0.4647660251831595, ,0.032938103304014206
45, ,PASS, ,0.008387810000000016, ,0.001118694379696523, ,0.028591897795963352, ,9.436980664881495e-06, ,1.9166666666666667, ,0.7222354055261024, ,0.46909246750066325, ,0.03481561600783657
46, ,PASS, ,0.008547070000000007, ,0.0010972112035269033, ,0.02853895513234424, ,9.440416759167757e-06, ,1.8333333333333333, ,0.7119806050960678, ,0.465561927307606, ,0.026836187016591496
47, ,PASS, ,0.008327290000000008, ,0.0011447365244214125, ,0.028537966561906904, ,9.57284318770765e-06, ,1.9166666666666667, ,0.7254721568915978, ,0.46537825758657986, ,0.0532029958572274
48, ,PASS, ,0.008384759999999998, ,0.0010887772326887923, ,0.0286462266072121, ,9.226698704429205e-06, ,1.8333333333333333, ,0.7164822652265085, ,0.46662313014020124, ,0.03518295544988878
49, ,PASS, ,0.008277920000000001, ,0.0011128738113273186, ,0.028669647310463054, ,9.280268624321955e-06, ,1.8333333333333333, ,0.7158024478479857, ,0.4663578294320524, ,0.031142221587314545
50, ,PASS, ,0.00825768000000001, ,0.0011113902708633874, ,0.02872198603069325, ,9.238667677292107e-06, ,1.9166666666666667, ,0.7294017175116269, ,0.46713332380971817, ,0.025856615171118955
51, ,PASS, ,0.008318080000000009, ,0.0011371677883553677, ,0.02858177339952246, ,9.532565094576685e-06, ,1.9166666666666667, ,0.7243555396628742, ,0.46456194771535275, ,0.04544805208056978
52, ,PASS, ,0.00826629000000001, ,0.0011250676782779084, ,0.02856937955592743, ,9.379454735389807e-06, ,1.9166666666666667, ,0.7294006607662805, ,0.46864349707148834, ,0.03808085549274504
53, ,PASS, ,0.008081119999999994, ,0.0011418143448824359, ,0.028662218450847946, ,9.29193340175303e-06, ,1.9166666666666667, ,0.748380388871175, ,0.4671741393032795, ,0.038366563947674535
54, ,PASS, ,0.008117070000000011, ,0.0011130653311823377, ,0.02855349935531928, ,9.112480894451608e-06, ,1.9166666666666667, ,0.7375040274722137, ,0.4667455766208853, ,0.03624415828248403
55, ,PASS, ,0.008226280000000002, ,0.0010938410991727298, ,0.028514125031734047, ,9.058182323713273e-06, ,1.9166666666666667, ,0.7345716867406551, ,0.4697251076508643, ,0.05703965225199486
56, ,PASS, ,0.008234890000000012, ,0.001076729653870597, ,0.02848926310952838, ,8.947333092459877e-06, ,1.9166666666666667, ,0.7337720651417017, ,0.46778637170669984, ,0.02332605457031489
57, ,PASS, ,0.008057760000000008, ,0.0011048772576954143, ,0.0284662926483133, ,8.948364376699555e-06, ,1.9166666666666667, ,0.7298517985664135, ,0.46666394563376257, ,0.03438705332544234
58, ,PASS, ,0.00799769999999999, ,0.0010870660576905657, ,0.028604640360400814, ,8.75852698294799e-06, ,1.9166666666666667, ,0.7243524913508826, ,0.466765984367666, ,0.022224036244158283
59, ,PASS, ,0.0077184400000000035, ,0.0011055572536896412, ,0.02856060086916594, ,8.599222670953857e-06, ,1.9166666666666667, ,0.7319767266921998, ,0.46158241668537375, ,0.04959082467704741
60, ,PASS, ,0.008175410000000004, ,0.0010202555237982427, ,0.028434744347870453, ,8.349975537232317e-06, ,1.8333333333333333, ,0.6422973319922528, ,0.46299055121324056, ,0.015754780514683375
61, ,PASS, ,0.008662480000000014, ,0.0010093858079196073, ,0.028541123845839886, ,8.767254504414899e-06, ,1.8333333333333333, ,0.6425456413171141, ,0.4637660455909063, ,0.022428113711965063
62, ,PASS, ,0.008058740000000005, ,0.0010552216970419479, ,0.02848737761066101, ,8.57814138058765e-06, ,1.9166666666666667, ,0.7206230548018987, ,0.4660108977367809, ,0.03138711454868268
63, ,PASS, ,0.007846570000000008, ,0.0010721731201032033, ,0.028582999078386156, ,8.481429509238945e-06, ,1.9166666666666667, ,0.7350308009896253, ,0.4674802555049897, ,0.07059039611436502
64, ,PASS, ,0.008074850000000001, ,0.0010438897676207102, ,0.0285108930078978, ,8.491021344204769e-06, ,1.8333333333333333, ,0.7106538533340712, ,0.4677251484663578, ,0.04112160976306606
65, ,PASS, ,0.007920239999999995, ,0.0010618854296987933, ,0.02851325630578968, ,8.482849365522498e-06, ,1.9166666666666667, ,0.721782558111342, ,0.46815371114875204, ,0.03185649272463827
66, ,PASS, ,0.00774538000000001, ,0.0010543972728742142, ,0.02845484023121977, ,8.244471501413579e-06, ,1.9166666666666667, ,0.7309737721895629, ,0.4676843329727965, ,0.04548886757413114
67, ,PASS, ,0.007843930000000006, ,0.001051036439181939, ,0.028512227924124, ,8.304733387035472e-06, ,1.8333333333333333, ,0.7242869761735543, ,0.46833738086977816, ,0.04108079426950471
68, ,PASS, ,0.00764428, ,0.001046123137134277, ,0.028634783781963637, ,8.055470987206267e-06, ,1.9166666666666667, ,0.7439749271250325, ,0.4685618660843656, ,0.06369257770249587
69, ,PASS, ,0.00783420999999999, ,0.0010743951388223908, ,0.028456702672598522, ,8.465532128068767e-06, ,1.9166666666666667, ,0.7300676756529256, ,0.46919450623456666, ,0.042529744290932835
70, ,PASS, ,0.007839140000000012, ,0.0010519257379795145, ,0.028496523527683112, ,8.322666529254837e-06, ,1.9166666666666667, ,0.7357601606741283, ,0.4673782167710863, ,0.0472847492908308
71, ,PASS, ,0.007928739999999997, ,0.001029792129264148, ,0.028456450738964512, ,8.234888384415615e-06, ,1.8333333333333333, ,0.7109103663012222, ,0.46709250831615684, ,0.022877084141139977
72, ,PASS, ,0.007759580000000002, ,0.0010516766362322096, ,0.028484095193363406, ,8.230440766108833e-06, ,1.9166666666666667, ,0.7277049909140049, ,0.46541907308014124, ,0.023387277810656925
73, ,PASS, ,0.007608669999999991, ,0.0010456519182795877, ,0.028647801214260936, ,8.011639527348145e-06, ,1.9166666666666667, ,0.7263693101820418, ,0.46539866533336055, ,0.027836166608844717
74, ,PASS, ,0.00752462000000001, ,0.001039749582577553, ,0.028485399219607768, ,7.855057273032684e-06, ,1.9166666666666667, ,0.7306360285714236, ,0.46678639211444667, ,0.034244199097977594
75, ,PASS, ,0.00755685, ,0.0010533784259520933, ,0.028550196843125656, ,8.03601153184032e-06, ,1.9166666666666667, ,0.7340105841949355, ,0.46815371114875204, ,0.05293769514907859
76, ,PASS, ,0.007572240000000004, ,0.0010075533166151308, ,0.02849734967368013, ,7.691874828585331e-06, ,1.9166666666666667, ,0.7302045314454091, ,0.46697006183547274, ,0.021285279892247096
77, ,PASS, ,0.007595139999999993, ,0.0010202811945215857, ,0.02839063417562907, ,7.788050243521617e-06, ,1.9166666666666667, ,0.7351467803074627, ,0.4688475745392951, ,0.048305136629864694
78, ,PASS, ,0.007727880000000006, ,0.0010830690223887988, ,0.028592952275259688, ,8.420878804248933e-06, ,1.9166666666666667, ,0.7308117150619656, ,0.46578641252219344, ,0.04481541193036877
79, ,PASS, ,0.012108539999999994, ,0.0020805320229825117, ,0.02792502977020877, ,2.5410811587035016e-05, ,1.8333333333333333, ,0.7627761408641467, ,0.4522152609130426, ,0.05130507540662436
112, ,PASS, ,0.007460810000000002, ,0.0009676381748961483, ,0.028456382137915553, ,7.291821725568045e-06, ,1.8333333333333333, ,0.7289927778018273, ,0.4684802350972429, ,0.053958082488112485
113, ,PASS, ,0.007448400000000008, ,0.0009623057323985692, ,0.028410080173057694, ,7.195361508698752e-06, ,1.8333333333333333, ,0.691436743359886, ,0.4693985837023734, ,0.024550519377155567
114, ,PASS, ,0.007694649999999997, ,0.0008887037541694616, ,0.028481673501765274, ,6.865972964956411e-06, ,1.8333333333333333, ,0.6521336994036095, ,0.4664190526723944, ,0.030734066651700986
115, ,PASS, ,0.007303760000000003, ,0.0009706192815175666, ,0.028521329468990428, ,7.115215718057639e-06, ,1.8333333333333333, ,0.7142747960293354, ,0.4681945266423134, ,0.020530193261362014
116, ,PASS, ,0.0076302200000000105, ,0.000958242335115232, ,0.02845639593579723, ,7.356841381562944e-06, ,1.8333333333333333, ,0.7092595383891194, ,0.46697006183547274, ,0.01581600375502541
117, ,PASS, ,0.007646470000000002, ,0.0009685912452918944, ,0.028615257319442464, ,7.4568989407145075e-06, ,1.8333333333333333, ,0.7001316923703597, ,0.46541907308014124, ,0.03146874553580539
118, ,PASS, ,0.0076323200000000015, ,0.0009729897098499323, ,0.028497055196424564, ,7.481890074544922e-06, ,1.8333333333333333, ,0.716613618513525, ,0.4692149139813473, ,0.02401991796085794
119, ,PASS, ,0.0078100600000000076, ,0.0009349277120509682, ,0.028449843857676377, ,7.350757912238537e-06, ,1.8333333333333333, ,0.6715572651903157, ,0.46780677945348054, ,0.027979020836309463
120, ,PASS, ,0.007683000000000002, ,0.0009794370857968307, ,0.02854710679251444, ,7.583333832066909e-06, ,1.8333333333333333, ,0.7214933034025064, ,0.4677659639599192, ,0.048692883818697574
121, ,PASS, ,0.007680840000000001, ,0.000929549732821021, ,0.02848086293463399, ,7.170047942942388e-06, ,1.8333333333333333, ,0.6528461192519809, ,0.465561927307606, ,0.03418297585763556
122, ,PASS, ,0.0073699399999999984, ,0.0009229484200541454, ,0.028533482143833805, ,6.83537950353648e-06, ,1.8333333333333333, ,0.6937906404887136, ,0.4663578294320524, ,0.029448378604518276
123, ,PASS, ,0.007575390000000001, ,0.0009205293420561425, ,0.02846009820064897, ,7.021120576904825e-06, ,1.8333333333333333, ,0.6886987811046941, ,0.46909246750066325, ,0.03865227240260403
124, ,PASS, ,0.007205850000000003, ,0.0009374430366579903, ,0.028453277926981085, ,6.8158353747364424e-06, ,1.8333333333333333, ,0.7254763564106228, ,0.46827615762943614, ,0.02453011163037489
125, ,PASS, ,0.007204610000000007, ,0.0009152518031562522, ,0.028450569345523563, ,6.652134872783239e-06, ,1.8333333333333333, ,0.7090344848756079, ,0.46625579069814904, ,0.05969265933348299
126, ,PASS, ,0.00732443000000001, ,0.0009517730410672698, ,0.02849681406461093, ,7.037111912328942e-06, ,1.9166666666666667, ,0.7310435762057859, ,0.4697046999040836, ,0.034223791351196915
127, ,PASS, ,0.007059250000000003, ,0.0009225041696418125, ,0.02851211240546112, ,6.558437771365623e-06, ,1.9166666666666667, ,0.7279545382836305, ,0.4689087977796372, ,0.03228505540703251
128, ,PASS, ,0.007093110000000007, ,0.0009135125589201051, ,0.028755863102385665, ,6.502519629852542e-06, ,1.8333333333333333, ,0.7037828188622908, ,0.4689292055264178, ,0.036387012509948774
129, ,PASS, ,0.007065969999999994, ,0.0009368968742433472, ,0.028798058288198203, ,6.6473385021760964e-06, ,1.8333333333333333, ,0.71284134070129, ,0.4642558315136426, ,0.04222362808922267
130, ,PASS, ,0.007347179999999995, ,0.000934855441732302, ,0.028757296847411278, ,6.906748759115603e-06, ,1.8333333333333333, ,0.6997369718749951, ,0.4672965857839636, ,0.03440746107222301
131, ,PASS, ,0.007299779999999988, ,0.0009216448489760619, ,0.0287103897555152, ,6.75718982165804e-06, ,1.8333333333333333, ,0.7066253134481116, ,0.46827615762943614, ,0.045815391522621984
132, ,PASS, ,0.007414230000000004, ,0.000903343951845018, ,0.028611294871737313, ,6.7672668335854165e-06, ,1.8333333333333333, ,0.7029899507741219, ,0.46694965408869205, ,0.01867308830432032
133, ,PASS, ,0.007075949999999994, ,0.0008905117138524466, ,0.028734822943001167, ,6.342484526484752e-06, ,1.8333333333333333, ,0.7068979209688524, ,0.4676435174792351, ,0.02134650313258913
134, ,PASS, ,0.007142779999999998, ,0.0009385486184815024, ,0.02871082279708578, ,6.729167024967293e-06, ,1.9166666666666667, ,0.7184922218761539, ,0.4676435174792351, ,0.07510050815289483
135, ,PASS, ,0.0071545399999999836, ,0.0008550483773593864, ,0.028942389418175143, ,6.147199453255594e-06, ,1.8333333333333333, ,0.6736086635651602, ,0.46619456745780696, ,0.05114181343237893
136, ,PASS, ,0.007329219999999997, ,0.0008806893049426454, ,0.028643596406603952, ,6.51221220676674e-06, ,1.8333333333333333, ,0.6873329205487968, ,0.4675618864921124, ,0.025305606008040653
137, ,PASS, ,0.0071145400000000095, ,0.0008874370768794115, ,0.028814974115426217, ,6.371840732115628e-06, ,1.8333333333333333, ,0.6880547869502929, ,0.4676435174792351, ,0.024346441909348787
138, ,PASS, ,0.00709274, ,0.0008953207751170327, ,0.02887323962633416, ,6.393535909715974e-06, ,1.8333333333333333, ,0.6941140364693096, ,0.46762310973245447, ,0.026958633497275567
139, ,PASS, ,0.007382319999999998, ,0.0009127881149584118, ,0.028840065166629254, ,6.808625163152834e-06, ,1.8333333333333333, ,0.7026903748634392, ,0.471072018938389, ,0.028774922960755903
140, ,PASS, ,0.006837140000000002, ,0.0008993269290082787, ,0.028745847537805354, ,6.201275472001962e-06, ,1.9166666666666667, ,0.7236813733830607, ,0.46678639211444667, ,0.0343258300851003
141, ,PASS, ,0.007094379999999987, ,0.00083615505581962, ,0.028695990831411607, ,5.972206816598368e-06, ,1.8333333333333333, ,0.6757322582737482, ,0.4667251688741046, ,0.025856615171118955
142, ,PASS, ,0.007084479999999994, ,0.000903606506515835, ,0.028673995808248812, ,6.4669257386327114e-06, ,1.9166666666666667, ,0.6987376430264315, ,0.4663986449256138, ,0.03526458643701149
143, ,PASS, ,0.0066538100000000065, ,0.0009440424646272526, ,0.028798498837166592, ,6.324687962539804e-06, ,1.9166666666666667, ,0.7430300725089726, ,0.4661741597110263, ,0.05734576845370502
176, ,PASS, ,0.007197419999999979, ,0.0008643395256146635, ,0.02884939996795984, ,6.293544376337419e-06, ,1.8333333333333333, ,0.6901834518284715, ,0.4697455153976449, ,0.0254484602355054
177, ,PASS, ,0.007019960000000009, ,0.0008570393429121412, ,0.028784270328564728, ,6.066242039258902e-06, ,1.8333333333333333, ,0.7060197140878002, ,0.46958225342339954, ,0.015713965021122017
178, ,PASS, ,0.00684912, ,0.0008726625767059691, ,0.02889316400338769, ,6.014294907577051e-06, ,1.8333333333333333, ,0.7231995232663634, ,0.47115364992551173, ,0.05969265933348299
179, ,PASS, ,0.006789479999999994, ,0.0008529055405059261, ,0.028848260634885006, ,5.856644822241049e-06, ,1.8333333333333333, ,0.7049811226603823, ,0.46660272239342054, ,0.03406052937695149
180, ,PASS, ,0.00699648999999998, ,0.0008701755258660575, ,0.02901663792555254, ,6.1069367920697815e-06, ,1.8333333333333333, ,0.6845628006304406, ,0.46827615762943614, ,0.03269321034264607
181, ,PASS, ,0.007001300000000009, ,0.0008494562263858537, ,0.028868194027060676, ,5.96939178266437e-06, ,1.8333333333333333, ,0.6804468597000609, ,0.46621497520458766, ,0.043672578110650805
182, ,PASS, ,0.006877049999999992, ,0.000839418864080228, ,0.02873254466337422, ,5.8186859854782485e-06, ,1.9166666666666667, ,0.6958070710463354, ,0.4664190526723944, ,0.015469072059753883
183, ,PASS, ,0.007196600000000001, ,0.0009245092849468932, ,0.028715306059672253, ,6.696812345764032e-06, ,1.8333333333333333, ,0.7188451393530363, ,0.4687863512989531, ,0.04257055978449419
184, ,PASS, ,0.007075600000000008, ,0.0008728525485787044, ,0.02859406497704129, ,6.195853158796147e-06, ,1.8333333333333333, ,0.6968808420254111, ,0.46837819636333955, ,0.023877063733393197
185, ,PASS, ,0.0072672600000000045, ,0.0008555593080519177, ,0.028905337745352137, ,6.270044171548542e-06, ,1.8333333333333333, ,0.676660213025572, ,0.4681128956551907, ,0.036672720964878266
186, ,PASS, ,0.006775579999999996, ,0.0008694659929631167, ,0.02888707174118896, ,5.9091954801488404e-06, ,1.8333333333333333, ,0.7043726165007257, ,0.46790881818738395, ,0.048856145792943
187, ,PASS, ,0.006716610000000001, ,0.0009080951429571148, ,0.028871459963061983, ,6.116988752073895e-06, ,1.8333333333333333, ,0.7056617604001405, ,0.46625579069814904, ,0.058427379033080956
188, ,PASS, ,0.007012279999999996, ,0.0008283811598909808, ,0.028941990332442196, ,5.832484693793071e-06, ,1.8333333333333333, ,0.6652352347345091, ,0.4687659435521724, ,0.02850962225260709
189, ,PASS, ,0.007127140000000004, ,0.0008484807658113212, ,0.02888486662741577, ,6.108967196897073e-06, ,1.8333333333333333, ,0.6790428213821388, ,0.469806738637987, ,0.030958551866288445
190, ,PASS, ,0.007034379999999989, ,0.0008702341740347869, ,0.029164536912103835, ,6.186718586902247e-06, ,1.8333333333333333, ,0.6959199167878163, ,0.4675618864921124, ,0.041978735127854536
191, ,PASS, ,0.006746990000000005, ,0.0008537672958832467, ,0.02916942013305851, ,5.778515951175631e-06, ,1.8333333333333333, ,0.7200019684768646, ,0.4669292463419114, ,0.06603946858227383
192, ,PASS, ,0.006776389999999997, ,0.0008475972801715517, ,0.0288887976886186, ,5.779286572673719e-06, ,1.8333333333333333, ,0.7031194576848521, ,0.46713332380971817, ,0.03440746107222301
193, ,PASS, ,0.006825589999999979, ,0.0008653675193728794, ,0.0289158094602151, ,5.923660887269727e-06, ,1.8333333333333333, ,0.6751651896576254, ,0.46650068365951713, ,0.027999428583090142
194, ,PASS, ,0.0069280699999999945, ,0.0008664810125110461, ,0.0291284177484133, ,6.03951270715874e-06, ,1.8333333333333333, ,0.7148802288350177, ,0.4700924470929165, ,0.03316258851860166
195, ,PASS, ,0.0069592099999999935, ,0.0008579527053459542, ,0.02895002480520806, ,6.025764984880244e-06, ,1.8333333333333333, ,0.6870553757314841, ,0.4663578294320524, ,0.043672578110650805
196, ,PASS, ,0.006755840000000006, ,0.0008884802384924134, ,0.02899262288116569, ,6.041303994326995e-06, ,1.8333333333333333, ,0.709210408881796, ,0.4672761780371829, ,0.04263178302483623
197, ,PASS, ,0.007089380000000003, ,0.0008571288344991535, ,0.0287981427389237, ,6.104978230806523e-06, ,1.8333333333333333, ,0.6776292244157056, ,0.4634191138956348, ,0.01777514744597049
198, ,PASS, ,0.007250159999999992, ,0.0008500868308019073, ,0.02906644680720802, ,6.191401711153551e-06, ,1.8333333333333333, ,0.6806493601615384, ,0.46317422093426663, ,0.027162710965082344
199, ,PASS, ,0.007281370000000013, ,0.0008902307159126173, ,0.028975816435174793, ,6.543309264323179e-06, ,1.8333333333333333, ,0.7150419259022162, ,0.46868431256504967, ,0.02116283341156303
200, ,PASS, ,0.006939000000000008, ,0.0008697485409879957, ,0.029267307087202304, ,6.058513645686608e-06, ,1.8333333333333333, ,0.6849007965821611, ,0.46527621885267645, ,0.02912185465602743
201, ,PASS, ,0.006949159999999999, ,0.0008933462934300701, ,0.029197923200138774, ,6.244261973108429e-06, ,1.8333333333333333, ,0.7130088180044174, ,0.4693985837023734, ,0.0308156976388237
202, ,PASS, ,0.0069851499999999955, ,0.0008636030265787412, ,0.029189282866880273, ,6.069597249969609e-06, ,1.8333333333333333, ,0.6943408701657934, ,0.46582722801575477, ,0.017958817166996592
203, ,PASS, ,0.0069112700000000145, ,0.0008465937773236734, ,0.029167549857553928, ,5.917996550760483e-06, ,1.8333333333333333, ,0.6989580029543281, ,0.46964347666374157, ,0.033509520213873184
204, ,PASS, ,0.007164650000000005, ,0.0008576228752388974, ,0.028994522655660094, ,6.17525337563322e-06, ,1.8333333333333333, ,0.6917002917849016, ,0.46866390481826903, ,0.03236668639415522
205, ,PASS, ,0.007185139999999996, ,0.000866458195313905, ,0.028982350735087044, ,6.269746908041104e-06, ,1.8333333333333333, ,0.6821574367837316, ,0.4701332625864778, ,0.024999489806330485
206, ,PASS, ,0.007006269999999988, ,0.0008374132258277567, ,0.028962716549050024, ,5.949896620047372e-06, ,1.8333333333333333, ,0.7091955985929702, ,0.4708067182302402, ,0.050692843003204015
207, ,PASS, ,0.0070228200000000025, ,0.0007704470595468698, ,0.029316174009305935, ,5.421255961354943e-06, ,1.8333333333333333, ,0.6283337931825818, ,0.46668435338054326, ,0.020795493969510827
208, ,PASS, ,0.007308610000000004, ,0.0008426016937551344, ,0.029051991093243, ,6.205289682289567e-06, ,1.8333333333333333, ,0.678989336486576, ,0.47094957245770497, ,0.028815738454317258
209, ,PASS, ,0.0068487099999999905, ,0.0008374189083958755, ,0.029189014784596238, ,5.7827205099295275e-06, ,1.8333333333333333, ,0.6963044290252225, ,0.46966388441052226, ,0.015040509377359646
210, ,PASS, ,0.007128990000000002, ,0.000870293408823362, ,0.02902031053284627, ,6.268625670094339e-06, ,1.8333333333333333, ,0.6878525397430427, ,0.4697046999040836, ,0.022040366523132182
211, ,PASS, ,0.007358579999999986, ,0.0009085016564388419, ,0.028921850074488276, ,6.748447236473047e-06, ,1.8333333333333333, ,0.7106007982454946, ,0.4722352605048877, ,0.03612171180179996
212, ,PASS, ,0.007109609999999999, ,0.000939221325104641, ,0.029108919531438137, ,6.7220933480403e-06, ,1.8333333333333333, ,0.722093153907066, ,0.46929654496847, ,0.027672904634599295
213, ,FAIL, ,0.0006007400000000024, ,2.2973653077864186e-05, ,0.02907709698312279, ,1.75981605912109e-08, ,1.25, ,0.3244306775999901, ,0.2845452133629926, ,0.0043264423175037245
