Channel, ,Pass/Fail, ,Amplitude, ,Sorting Function Response, ,Mean, ,Variance, ,NPeaksRatio, ,PosIntegralRatio, ,ToT50, ,ToT99
24, ,PASS, ,0.010006130000000002, ,0.0012949024282881217, ,0.03892409646762311, ,1.317270160860814e-05, ,1.75, ,0.6865583750271665, ,0.5668455745801106, ,0.06805983551356094
25, ,PASS, ,0.037189910000000014, ,0.005640534559723505, ,0.04093210790085916, ,0.0002136924660946132, ,1.8333333333333333, ,0.7626920939131556, ,0.5844166445582744, ,0.06318238403297892
26, ,PASS, ,0.06679606300000004, ,0.010041671015100206, ,0.04305036702924431, ,0.0006837499850195264, ,1.75, ,0.7537809884837566, ,0.5916205791718536, ,0.059713067080263665
27, ,PASS, ,0.07481901891, ,0.011365474946521193, ,0.043738579628783095, ,0.0008671731566797069, ,1.75, ,0.7584306711625848, ,0.5931103446868431, ,0.06057019244505214
28, ,PASS, ,0.06719347100000003, ,0.01034209272104652, ,0.04313386380359585, ,0.0007090106074312628, ,1.75, ,0.7668331054591319, ,0.5889471643435849, ,0.06308034529907552
29, ,PASS, ,0.041082540000000015, ,0.0063655751606899215, ,0.04123821829574907, ,0.00026678010798651723, ,1.9166666666666667, ,0.7769102748775897, ,0.5801514254811126, ,0.06401910165098672
30, ,PASS, ,0.014338339999999998, ,0.0016740313829447437, ,0.038974686340891004, ,2.4379469724628444e-05, ,1.8333333333333333, ,0.6399621580605114, ,0.5641517520050611, ,0.05328462684435011
31, ,PASS, ,0.011749619999999975, ,0.0015828856094451838, ,0.03913330843023612, ,1.891038433985059e-05, ,1.9166666666666667, ,0.7068386975649773, ,0.5690904267259852, ,0.06901899961225282
32, ,PASS, ,0.03975141000000001, ,0.006102149423609554, ,0.041291067920246526, ,0.00024732242490914277, ,1.75, ,0.7673764957583333, ,0.5861308952878512, ,0.06673333197281688
33, ,PASS, ,0.06741435900000003, ,0.01035420729730992, ,0.04320063686700272, ,0.0007117453185425503, ,1.75, ,0.7634318341934553, ,0.5932531989143078, ,0.060121222015877225
34, ,PASS, ,0.07538241049000002, ,0.011722495415551017, ,0.04403234126813739, ,0.0009012086143901966, ,1.8333333333333333, ,0.7688220554907689, ,0.5939062468112896, ,0.06436603334625823
35, ,PASS, ,0.06868215300000005, ,0.01080490559846833, ,0.04338776723985225, ,0.0007572809526036135, ,1.75, ,0.7764107489243743, ,0.5901512214036448, ,0.06399869390420604
36, ,PASS, ,0.04355056999999999, ,0.006891522216815388, ,0.04163337274076039, ,0.00030630053758434414, ,1.8333333333333333, ,0.7842414785534187, ,0.5817024142364442, ,0.06524356645782739
37, ,PASS, ,0.016452329999999977, ,0.002093593356814329, ,0.03933689794963368, ,3.500686300288153e-05, ,1.8333333333333333, ,0.6767075745480361, ,0.5652945858247791, ,0.052223424011754865
38, ,PASS, ,0.013005599999999999, ,0.0017520936997621858, ,0.0391424360466113, ,2.316209301934339e-05, ,1.9166666666666667, ,0.7084756186275155, ,0.5699067365972122, ,0.05583559519193486
39, ,PASS, ,0.04191162, ,0.006408381436313897, ,0.041411120551417324, ,0.00027383123644736347, ,1.75, ,0.7659799812362409, ,0.58609007979429, ,0.06179465725189282
40, ,PASS, ,0.06778522499999999, ,0.010388967143692885, ,0.04305875371665885, ,0.0007181513227495224, ,1.75, ,0.7629097721821348, ,0.5921919960817126, ,0.06359053896859247
41, ,PASS, ,0.07557089824000002, ,0.011708426538383374, ,0.04377158370584275, ,0.0009024078248795466, ,1.75, ,0.7677876235071409, ,0.5928450439786943, ,0.06232525866819044
42, ,PASS, ,0.06906167000000005, ,0.010855987720904871, ,0.043221829950001026, ,0.0007649468334854044, ,1.75, ,0.7773557015411833, ,0.5891716495581723, ,0.06489663476255586
43, ,PASS, ,0.046330239999999995, ,0.0072660517287210305, ,0.041392265198057186, ,0.0003435040686886345, ,1.8333333333333333, ,0.776928313853223, ,0.5809473276055591, ,0.05297851064263995
44, ,PASS, ,0.019747620000000014, ,0.002491506235846406, ,0.039149668500642845, ,5.001198054920901e-05, ,1.8333333333333333, ,0.6736403525867415, ,0.5658047794942961, ,0.051264259913063
45, ,PASS, ,0.014731959999999978, ,0.0019564916039312317, ,0.038995128612885455, ,2.9311368458047443e-05, ,1.9166666666666667, ,0.7020762560010395, ,0.5693149119405726, ,0.05706005999877554
46, ,PASS, ,0.04285277999999999, ,0.006406467144567008, ,0.04111427530254485, ,0.0002797977627227195, ,1.8333333333333333, ,0.7578812342488409, ,0.582600355094794, ,0.06424358686557417
47, ,PASS, ,0.06760514700000005, ,0.010047487496552505, ,0.042817222361176306, ,0.0006924829774490333, ,1.75, ,0.7503650255797014, ,0.5887022713822166, ,0.05650905083569723
48, ,PASS, ,0.07554401107000003, ,0.01132450024365535, ,0.04343778349503072, ,0.0008725311569677392, ,1.75, ,0.7543565809002376, ,0.5893757270259791, ,0.05571314871125079
49, ,PASS, ,0.06905861000000005, ,0.010488859206456284, ,0.043068942447297, ,0.0007389817850279965, ,1.75, ,0.7617360206327612, ,0.5859268178200445, ,0.05528458602885655
50, ,PASS, ,0.04635568999999999, ,0.0071330867046493236, ,0.04129163543764413, ,0.00033730930604429054, ,1.9166666666666667, ,0.772329350780082, ,0.5793759311034469, ,0.0542233831962613
51, ,PASS, ,0.02055947000000001, ,0.0025640486671074676, ,0.039106222516275185, ,5.358523743648092e-05, ,1.8333333333333333, ,0.6755486523465783, ,0.5661517111895675, ,0.05473357686577825
52, ,PASS, ,0.014871229999999968, ,0.0017797060801866382, ,0.03913632074590315, ,2.6880778538062675e-05, ,1.75, ,0.6401465398092048, ,0.5661721189363482, ,0.039182873818901655
53, ,PASS, ,0.04180608000000001, ,0.005921322682185966, ,0.040691114083181976, ,0.0002522891460964213, ,1.9166666666666667, ,0.7313681523098312, ,0.5790902226485174, ,0.057590661415073165
54, ,PASS, ,0.06639526599999998, ,0.009304789700590406, ,0.04229939414379299, ,0.0006298835481268926, ,1.75, ,0.7255366045794233, ,0.5848247994938879, ,0.04946837819636334
55, ,PASS, ,0.074181062, ,0.010528453042321008, ,0.04287515954347871, ,0.0007964873097618154, ,1.75, ,0.7292931608272942, ,0.5854982551376503, ,0.053570335299279605
56, ,PASS, ,0.067632221, ,0.009711951905432283, ,0.042370545940082854, ,0.0006701224847003586, ,1.8333333333333333, ,0.7381278290861776, ,0.5828248403093814, ,0.055182547294953165
57, ,PASS, ,0.04357967999999998, ,0.006283417190103389, ,0.040708816719046546, ,0.0002792968798417703, ,1.9166666666666667, ,0.7435255868597989, ,0.5756413134425828, ,0.058835533968694516
58, ,PASS, ,0.017863670000000005, ,0.0020209444009496227, ,0.039016273334217665, ,3.6623518246591134e-05, ,1.8333333333333333, ,0.6217524979783183, ,0.5628660639578784, ,0.05450909165119079
59, ,PASS, ,0.01633444999999998, ,0.0019699917976190246, ,0.0389722672331177, ,3.273583089806988e-05, ,1.75, ,0.6501957103685503, ,0.567641476704557, ,0.05373359727352503
60, ,PASS, ,0.04389699999999999, ,0.006180205806573681, ,0.04112424409216138, ,0.0002765480082718206, ,1.9166666666666667, ,0.7293600307203952, ,0.5794779698373502, ,0.0574682149343891
61, ,PASS, ,0.066721401, ,0.009342025364195166, ,0.04241348692475663, ,0.0006355293817354682, ,1.8333333333333333, ,0.724941108690943, ,0.584375829064713, ,0.052754025428052485
62, ,PASS, ,0.0736066352, ,0.010403290709716038, ,0.042765551263239526, ,0.0007809636326646068, ,1.75, ,0.7290337483381799, ,0.5853554009101855, ,0.053978490234893164
63, ,PASS, ,0.06814782000000001, ,0.009731705405059297, ,0.042400114431542214, ,0.0006764503349585112, ,1.8333333333333333, ,0.7354533884169564, ,0.5826207628415747, ,0.05332544233791147
64, ,PASS, ,0.04558838999999999, ,0.006541098253992968, ,0.040908654737454336, ,0.00030409209479225505, ,1.9166666666666667, ,0.7396157957781018, ,0.576131099365319, ,0.050203057080467746
65, ,PASS, ,0.01863052000000002, ,0.0020923365096486993, ,0.03884885388808392, ,3.958967444022298e-05, ,1.8333333333333333, ,0.6099783718219934, ,0.5632538111467112, ,0.044529703475439275
66, ,PASS, ,0.01356019, ,0.001601929753896887, ,0.03881553009203894, ,2.2040995029830844e-05, ,1.8333333333333333, ,0.6322087988888475, ,0.5638252280565703, ,0.04955000918348605
67, ,PASS, ,0.038582750000000034, ,0.005257877635073931, ,0.040367008654313176, ,0.00020665674043068708, ,1.9166666666666667, ,0.716512122140813, ,0.5747637803310136, ,0.059631436093140956
68, ,PASS, ,0.061809607999999995, ,0.008292222476465416, ,0.04159132919103692, ,0.000522709154277721, ,1.9166666666666667, ,0.7072826378297123, ,0.5801106099875513, ,0.05332544233791147
69, ,PASS, ,0.06979550400000002, ,0.009447845173787849, ,0.04238656543029734, ,0.0006726788077075814, ,1.8333333333333333, ,0.7109318573153185, ,0.5814167057815146, ,0.05587641068549622
70, ,PASS, ,0.063491445, ,0.008657464279351084, ,0.041934634289708374, ,0.0005607433501812974, ,1.9166666666666667, ,0.7171274218742735, ,0.5790085916613946, ,0.05420297544948062
71, ,PASS, ,0.04098723000000002, ,0.005639022558631906, ,0.04045086931634048, ,0.00023560581325267877, ,1.9166666666666667, ,0.7211841673066652, ,0.5720699577559641, ,0.0532029958572274
72, ,PASS, ,0.016756939999999977, ,0.0017650891955082826, ,0.038697496429664704, ,2.999560053342336e-05, ,1.8333333333333333, ,0.5818360148248951, ,0.5615191526703537, ,0.05077447399032673
73, ,PASS, ,0.013373000000000003, ,0.0015278794901867749, ,0.03872380229893268, ,2.072359812404183e-05, ,1.8333333333333333, ,0.6200660340714066, ,0.5637027815758862, ,0.048203097895961305
74, ,PASS, ,0.03831814000000003, ,0.005159183782668267, ,0.04031801071059774, ,0.00020143058678987114, ,1.9166666666666667, ,0.7085237595070247, ,0.5745188873696455, ,0.0569988367584335
75, ,PASS, ,0.06072987200000001, ,0.00807646507975732, ,0.041655956217832295, ,0.0005001548786571141, ,1.9166666666666667, ,0.7032543659222804, ,0.5802126487214546, ,0.04977449439807351
76, ,PASS, ,0.06790966200000001, ,0.009144734295517595, ,0.04210697648456154, ,0.0006334607763131295, ,1.9166666666666667, ,0.7094496581213572, ,0.5817228219832248, ,0.05593763392583825
77, ,PASS, ,0.06287211000000002, ,0.008497334737637299, ,0.04171582307116182, ,0.0005449996154308516, ,1.9166666666666667, ,0.7117382895243254, ,0.5787228832064651, ,0.054305014183384015
78, ,PASS, ,0.04090289000000001, ,0.00551473657351645, ,0.04047357338217587, ,0.00022994425320612194, ,1.9166666666666667, ,0.7119813459377712, ,0.5719475112752801, ,0.053162180363666045
79, ,PASS, ,0.017129869999999985, ,0.001767462254259008, ,0.03860044074753576, ,3.064401440174865e-05, ,1.75, ,0.5692276576594122, ,0.5602130568763902, ,0.04212158935531928
80, ,PASS, ,0.014096479999999995, ,0.0015841878150017945, ,0.03874441726577009, ,2.265724499216033e-05, ,1.8333333333333333, ,0.612907665283233, ,0.5633762576273954, ,0.039999183690128774
81, ,PASS, ,0.037170390000000025, ,0.004935806994412485, ,0.040100267116997615, ,0.0001868069439877407, ,1.9166666666666667, ,0.7036777889440976, ,0.5734372767902696, ,0.05695802126487214
82, ,PASS, ,0.05896156799999999, ,0.007649585280566863, ,0.04131303949715312, ,0.00045992301455982047, ,1.9166666666666667, ,0.6909449628219289, ,0.5783351360176323, ,0.047652088732883
83, ,PASS, ,0.06580884699999998, ,0.008640498150990175, ,0.041705542565661925, ,0.0005798534704429988, ,1.9166666666666667, ,0.6979437921875798, ,0.57917185363564, ,0.05171323034223791
84, ,PASS, ,0.060827478000000025, ,0.008040393425492943, ,0.04158043237995143, ,0.0004988331347074231, ,1.9166666666666667, ,0.7012236389010963, ,0.5768453705026428, ,0.05326421909756944
85, ,PASS, ,0.040861400000000006, ,0.005424819398833664, ,0.04030486563661966, ,0.00022584700872468354, ,1.9166666666666667, ,0.7039072916706397, ,0.5709475316830269, ,0.05057039652251995
86, ,PASS, ,0.018253320000000003, ,0.001894385633025878, ,0.03859454522479133, ,3.500194767650518e-05, ,1.8333333333333333, ,0.5714281585953012, ,0.5607028427991265, ,0.0474684190118569
87, ,PASS, ,0.010944999999999996, ,0.001150799074028245, ,0.038621059708781456, ,1.2771448451997376e-05, ,1.75, ,0.5692943693356349, ,0.5595191934858472, ,0.03787677802493827
88, ,PASS, ,0.03137013999999996, ,0.003942118815362162, ,0.03976854550049999, ,0.00012591746140135632, ,1.9166666666666667, ,0.6774891835499988, ,0.5702536682924838, ,0.05593763392583825
89, ,PASS, ,0.05299893000000003, ,0.006600192372624624, ,0.04092013927164752, ,0.0003566803661131784, ,1.9166666666666667, ,0.672077349580866, ,0.5754168282279953, ,0.05201934654394808
90, ,PASS, ,0.060428631000000024, ,0.007612312740474373, ,0.04132083958368197, ,0.0004691029247383162, ,1.9166666666666667, ,0.6766583587017803, ,0.5769474092365462, ,0.050611212016081306
91, ,PASS, ,0.05579294600000004, ,0.007069120714908655, ,0.040969971519968985, ,0.00040214827038805484, ,1.9166666666666667, ,0.6811065841459104, ,0.5748454113181364, ,0.050672435256423336
92, ,PASS, ,0.036580050000000024, ,0.004644173764590725, ,0.039791424644190936, ,0.00017301979718891558, ,1.9166666666666667, ,0.6852042839288663, ,0.5697842901165282, ,0.05408052896879655
93, ,PASS, ,0.015858259999999985, ,0.0014952603219394389, ,0.038661768840227755, ,2.3968467906936346e-05, ,1.6666666666666667, ,0.5206370337973363, ,0.557764127262709, ,0.03185649272463827
94, ,PASS, ,0.011590719999999985, ,0.00121404824133757, ,0.0386037747731679, ,1.4232963540013458e-05, ,1.75, ,0.5730703349505036, ,0.5615803759106957, ,0.03887675761719148
95, ,PASS, ,0.033131009999999995, ,0.004149971243314196, ,0.03993018397073529, ,0.00014002395404050824, ,1.9166666666666667, ,0.6758056019753261, ,0.5720903655027448, ,0.05461113038509418
96, ,PASS, ,0.05344544000000001, ,0.006630017983049059, ,0.04096975526866799, ,0.00036142340477723667, ,1.9166666666666667, ,0.6709692066965843, ,0.5778249423481153, ,0.050631619762861985
97, ,PASS, ,0.06043060200000001, ,0.007579066396846482, ,0.041291464828064735, ,0.00046708945974628424, ,1.9166666666666667, ,0.6756469977698654, ,0.5787228832064651, ,0.05091732821779148
98, ,PASS, ,0.05608684200000001, ,0.007090577060392023, ,0.04100468147711271, ,0.00040571099401238596, ,1.9166666666666667, ,0.6787516280577911, ,0.5766208852880553, ,0.05201934654394808
99, ,PASS, ,0.038664350000000014, ,0.004918356638898433, ,0.040134639627966776, ,0.00019375104559935023, ,1.9166666666666667, ,0.6850658345914595, ,0.571192424644395, ,0.05177445358257995
100, ,PASS, ,0.016251989999999984, ,0.001564552532256618, ,0.0385808728964715, ,2.573594984268577e-05, ,1.6666666666666667, ,0.5446692249272586, ,0.5605803963184425, ,0.04703985632946266
101, ,PASS, ,0.010940919999999986, ,0.0018092123178070263, ,0.03933671876818841, ,2.0222851259300324e-05, ,1.8333333333333333, ,0.7971738281457894, ,0.5904777453521357, ,0.0840186934960511
198, ,FAIL, ,0.026953479999999978, ,0.0022979618953281127, ,0.039420349564294604, ,6.242598239633324e-05, ,1.3333333333333333, ,0.45378758972425437, ,0.5502540764474194, ,0.03604008081467725
199, ,FAIL, ,0.022689359999999995, ,0.002235696241646052, ,0.03927579402563213, ,5.3664690532206e-05, ,1.8333333333333333, ,0.709317798969949, ,0.5565396624558683, ,0.0008571253647884737
200, ,FAIL, ,0.020196430000000005, ,0.0024732166887477995, ,0.039119201245688864, ,5.1929501659320086e-05, ,1.8333333333333333, ,0.7370266018264784, ,0.5574171955674374, ,0.002204036652313218
201, ,PASS, ,0.03127170999999998, ,0.0047403194043189835, ,0.039804716672312807, ,0.00015193461058903975, ,1.8333333333333333, ,0.8174568965544936, ,0.5606416195587846, ,0.024203587681884044
202, ,PASS, ,0.03415971999999999, ,0.004904245150791151, ,0.039755115601314256, ,0.00017117033574638908, ,1.8333333333333333, ,0.7988590001449783, ,0.5613762984428889, ,0.02273422991367523
203, ,PASS, ,0.042061350000000025, ,0.006232207740387082, ,0.04025264120589375, ,0.00026729187624714636, ,1.8333333333333333, ,0.8168641151615001, ,0.5629885104385625, ,0.02540764474194404
204, ,PASS, ,0.06964536841999999, ,0.009967277425258998, ,0.041329023725871925, ,0.0007046703291476767, ,1.8333333333333333, ,0.8342517087285193, ,0.5689883879920818, ,0.03028509622252607
205, ,PASS, ,0.08167180200000004, ,0.011345062320871516, ,0.04189727843987878, ,0.0009401890844225797, ,1.8333333333333333, ,0.8353549321049348, ,0.5706618232280973, ,0.033407481479969796
206, ,PASS, ,0.082656007, ,0.011112789425323982, ,0.0417995740444889, ,0.0009306996202160663, ,1.8333333333333333, ,0.8298748096920975, ,0.5711720168976143, ,0.029938164527254545
207, ,PASS, ,0.08354962000000003, ,0.011371970289635262, ,0.042026048786296205, ,0.0009641054153409378, ,1.8333333333333333, ,0.8386641899918275, ,0.5721719964898676, ,0.03338707373318912
208, ,PASS, ,0.06867285900000002, ,0.009292827252799516, ,0.0411578019179682, ,0.0006454803827718612, ,1.8333333333333333, ,0.8258625683011954, ,0.568784310524275, ,0.03167282300361217
209, ,PASS, ,0.06364321900000003, ,0.009005626811928838, ,0.04101418892273627, ,0.0005806810096194594, ,1.8333333333333333, ,0.8306342461776342, ,0.5674169914899696, ,0.03008101875471929
210, ,PASS, ,0.12522579999999997, ,0.005841609464432331, ,0.03654879504887656, ,0.0007383111203600871, ,0.8333333333333334, ,0.29045807446551414, ,0.4379910614069101, ,0.014142568519009815
211, ,PASS, ,0.06485818787000001, ,0.008670817236412073, ,0.04089450568494928, ,0.0005685742974749627, ,1.8333333333333333, ,0.8266226491383839, ,0.5683761555886615, ,0.03089732862594641
212, ,PASS, ,0.07365208200000001, ,0.009585099411741358, ,0.041142813266900675, ,0.0007130395632896012, ,1.8333333333333333, ,0.8270416084160735, ,0.569988367584335, ,0.028774922960755903
213, ,PASS, ,0.09333115, ,0.012043301147143299, ,0.04205619913081366, ,0.0011373727251167308, ,1.8333333333333333, ,0.8375216912316268, ,0.5730495296014367, ,0.031040182853411154
214, ,PASS, ,0.08217290700000003, ,0.010220272808630027, ,0.04150012122830147, ,0.0008473549495809521, ,1.8333333333333333, ,0.8311065849628643, ,0.572906675373972, ,0.030121834248280646
215, ,PASS, ,0.10341346, ,0.013391402409104743, ,0.0426867898603702, ,0.0014043848336827806, ,1.8333333333333333, ,0.8433002827448128, ,0.5751923430134079, ,0.033815636415583356
216, ,PASS, ,0.09025045000000002, ,0.01144933878975685, ,0.0417225171227526, ,0.0010435628174826502, ,1.8333333333333333, ,0.826881210584412, ,0.5713556866186404, ,0.02959123283198302
217, ,PASS, ,0.09873832999999999, ,0.012619902745083029, ,0.042332361099630615, ,0.0012612777171207945, ,1.8333333333333333, ,0.8388290346126246, ,0.5739066549662252, ,0.0323870941409359
218, ,PASS, ,0.10015709999999997, ,0.012662149968601249, ,0.042286931951388745, ,0.001282395981212658, ,1.8333333333333333, ,0.8361324932607536, ,0.573478092283831, ,0.03230546315381319
219, ,PASS, ,0.09535376999999996, ,0.012201072153512212, ,0.04207688362470154, ,0.0011755610670064441, ,1.8333333333333333, ,0.8329322861773467, ,0.571886288034938, ,0.029672863819105732
220, ,PASS, ,0.05908766600000002, ,0.007814906791543338, ,0.04048741508005959, ,0.00046762328796648455, ,1.8333333333333333, ,0.8119879887295035, ,0.5648864308891656, ,0.02144854186649252
221, ,PASS, ,0.063242846, ,0.008424659282820596, ,0.04078505499187771, ,0.0005386853152682153, ,1.8333333333333333, ,0.822197809347891, ,0.566314973163813, ,0.025713760943654212
222, ,PASS, ,0.05386482099999999, ,0.007073738988003503, ,0.04039374004069305, ,0.00038606011027685235, ,1.8333333333333333, ,0.8133876192471768, ,0.5647027611681394, ,0.023285239076753537
223, ,PASS, ,0.06716789933999998, ,0.009316114086190196, ,0.04104799258214138, ,0.0006333758682899327, ,1.8333333333333333, ,0.8320653749498624, ,0.5666619048590845, ,0.026877002510152855
224, ,PASS, ,0.052104486000000005, ,0.007309044181463757, ,0.04052620569770005, ,0.0003876454743695837, ,1.8333333333333333, ,0.8162678449317708, ,0.5637231893226669, ,0.021509765106834555
225, ,PASS, ,0.03806824000000002, ,0.00512530025739886, ,0.039790843857880454, ,0.00020031816372620878, ,1.8333333333333333, ,0.7973455814418894, ,0.5602130568763902, ,0.016550682639129812
226, ,PASS, ,0.038223770000000004, ,0.005178363032082559, ,0.03993614268198608, ,0.0002031750110731045, ,1.8333333333333333, ,0.7972676443748462, ,0.5602334646231709, ,0.017448623497479644
227, ,FAIL, ,0.02973537000000001, ,0.00319057555197069, ,0.03943992494030735, ,9.88575223171941e-05, ,1.9166666666666667, ,0.7252154423383691, ,0.5579069814901737, ,0.0017550662231383032
228, ,FAIL, ,0.02615597200000002, ,0.0022110699846148176, ,0.03930910581600375, ,6.215912144375872e-05, ,1.8333333333333333, ,0.7084503707755624, ,0.5564376237219648, ,0.000755086630885084
229, ,FAIL, ,0.028790669999999994, ,0.0012881001902998862, ,0.038252513577682085, ,3.7547063731895424e-05, ,0.75, ,0.2221153905286529, ,0.5418869002673414, ,0.015632334033999305
