Channel, ,Pass/Fail, ,Amplitude, ,Sorting Function Response, ,Mean, ,Variance, ,NPeaksRatio, ,PosIntegralRatio, ,ToT50, ,ToT99
7, ,PASS, ,0.014808810000000006, ,0.002277608244582752, ,0.03540947682781984, ,3.411049617800735e-05, ,1.8333333333333333, ,0.7460013860424755, ,0.4297463317075162, ,0.06167221077120875
8, ,PASS, ,0.09362613900000002, ,0.015530155730397115, ,0.032622143382359546, ,0.0014567614403107215, ,1.8333333333333333, ,0.7683398678482132, ,0.4464602763208914, ,0.15477235158466154
9, ,PASS, ,0.08699781600000002, ,0.014613782050332359, ,0.032429109030856516, ,0.0012747631943593213, ,1.8333333333333333, ,0.7760112513490465, ,0.44290932838105346, ,0.13765025203567274
10, ,PASS, ,0.017521340000000007, ,0.0028495105228391313, ,0.035177032528111676, ,5.036406087319174e-05, ,1.8333333333333333, ,0.7685732530083387, ,0.4226648435746209, ,0.046060284483990126
11, ,PASS, ,0.01377407000000001, ,0.0020773523677736303, ,0.03534587770963858, ,2.898824066967991e-05, ,2.0, ,0.7330400515530389, ,0.4175833146262321, ,0.03242790963449726
12, ,PASS, ,0.012873060000000013, ,0.0019028205597668433, ,0.03547576739046142, ,2.4850543109560882e-05, ,2.0, ,0.725549442533076, ,0.41609354911124263, ,0.025897430664680313
13, ,PASS, ,0.012986850000000012, ,0.0019164661612385634, ,0.03515177043244016, ,2.524138653658531e-05, ,2.0, ,0.7335679658330579, ,0.4187873716862921, ,0.038386971694455214
14, ,PASS, ,0.013810590000000005, ,0.002071615589335363, ,0.03536015706944756, ,2.8994824508609574e-05, ,2.0, ,0.7313480396219927, ,0.416705781514663, ,0.052264239505316216
15, ,PASS, ,0.013124160000000003, ,0.0019650858610997194, ,0.03532581479806535, ,2.613314019048099e-05, ,2.0, ,0.7377811938209411, ,0.41693026672925043, ,0.037570661823228095
16, ,PASS, ,0.01303193, ,0.0019145447888500155, ,0.034777395365604785, ,2.530575037995998e-05, ,2.0, ,0.7233198265028945, ,0.4153996857206996, ,0.04826432113630334
17, ,PASS, ,0.01294832000000001, ,0.0019214487591750434, ,0.03500187613824208, ,2.5239481182131182e-05, ,2.0, ,0.7312800734568208, ,0.4177873920940389, ,0.048203097895961305
18, ,PASS, ,0.012768050000000003, ,0.0019175647119107576, ,0.034804554995000105, ,2.4853870914445193e-05, ,2.0, ,0.7291747350780919, ,0.4161139568580233, ,0.04267259851839758
19, ,PASS, ,0.013001190000000013, ,0.0019167358534903111, ,0.034844354041754254, ,2.5281962060691583e-05, ,2.0, ,0.7276156271424196, ,0.41746086814554806, ,0.03440746107222301
20, ,PASS, ,0.012890170000000017, ,0.0019209531423418087, ,0.03486199230668762, ,2.51649859307018e-05, ,1.9166666666666667, ,0.738929592474077, ,0.41680782024856633, ,0.05040713454827452
21, ,PASS, ,0.012912090000000011, ,0.001913850214874371, ,0.0349130427905553, ,2.503138056278608e-05, ,2.0, ,0.7347001347028287, ,0.41703230546315384, ,0.055488663496663336
22, ,PASS, ,0.013024350000000014, ,0.0019242451400497257, ,0.03486394077386176, ,2.542080284693312e-05, ,2.0, ,0.7283100315924077, ,0.41703230546315384, ,0.04730515703761148
23, ,PASS, ,0.012899000000000004, ,0.001919677833771279, ,0.03494766824166854, ,2.508583946668211e-05, ,2.0, ,0.7263386362429669, ,0.4170527132099345, ,0.034713577273933184
24, ,PASS, ,0.01290442000000001, ,0.0019026957983298972, ,0.03473169137262505, ,2.4923940459108662e-05, ,2.0, ,0.7272841300628513, ,0.416767004755005, ,0.050713250749984694
25, ,PASS, ,0.012851030000000024, ,0.0018611914225873491, ,0.0347509870247546, ,2.4257263160241565e-05, ,1.9166666666666667, ,0.7302250588460243, ,0.41442011387522704, ,0.0403461153854003
26, ,PASS, ,0.012873689999999993, ,0.001874883631874272, ,0.03481842346013347, ,2.4488763527603034e-05, ,2.0, ,0.7156903575795858, ,0.4148078610640599, ,0.035040101222424035
27, ,PASS, ,0.012612780000000014, ,0.001887288056336423, ,0.034825663353400954, ,2.424573572344838e-05, ,1.8333333333333333, ,0.7323248496407047, ,0.42535866614967044, ,0.04546845982735046
28, ,PASS, ,0.01278103999999999, ,0.001825535795044563, ,0.03481138486561499, ,2.3672232417375388e-05, ,2.0, ,0.7249862496620242, ,0.41901185690087955, ,0.03648905124385217
29, ,PASS, ,0.012806530000000007, ,0.0018913529864345061, ,0.034792316715985386, ,2.4548070101112753e-05, ,2.0, ,0.7270711837784115, ,0.41793024632150366, ,0.04795820493459317
30, ,PASS, ,0.012730870000000009, ,0.0018743494175618486, ,0.03501702880941206, ,2.422723818115326e-05, ,2.0, ,0.7265129489967982, ,0.4177873920940389, ,0.06161098753086672
31, ,PASS, ,0.012654980000000007, ,0.0018887961713931185, ,0.03494072828697374, ,2.4230576240535597e-05, ,2.0, ,0.7249387330825913, ,0.4175220913858901, ,0.03612171180179996
32, ,PASS, ,0.012480080000000001, ,0.001858003770078248, ,0.03473175059549805, ,2.3461016463581083e-05, ,2.0, ,0.7320115003371145, ,0.4171343441970572, ,0.05052958102895859
33, ,PASS, ,0.012829989999999996, ,0.0019070240340289914, ,0.03504440731025898, ,2.4817519719817383e-05, ,1.9166666666666667, ,0.7255776707163158, ,0.41615477235158466, ,0.05467235362543622
34, ,PASS, ,0.012705220000000007, ,0.0019056164663219805, ,0.03494521578865738, ,2.4556805560997374e-05, ,2.0, ,0.7290133336508475, ,0.4152772392400155, ,0.04926430072855656
35, ,PASS, ,0.012871570000000013, ,0.0018585965246085178, ,0.03495687325340299, ,2.425995412194788e-05, ,1.9166666666666667, ,0.7460968890462398, ,0.42117507805963145, ,0.0582028938184935
36, ,PASS, ,0.012867540000000018, ,0.0018913039672477491, ,0.034876984079100434, ,2.4681945476571874e-05, ,2.0, ,0.7148445315212545, ,0.4158486561498745, ,0.040795085814575215
37, ,PASS, ,0.012871750000000012, ,0.001910443564926157, ,0.034905001467725155, ,2.495901528659119e-05, ,2.0, ,0.7303081879056565, ,0.4184404399910206, ,0.045733760535499275
38, ,PASS, ,0.012763570000000005, ,0.0019197146853333045, ,0.034667879699597975, ,2.4818352690664893e-05, ,2.0, ,0.7324441712196488, ,0.4180731005489684, ,0.05083569723066876
39, ,PASS, ,0.012543390000000008, ,0.0019134315480565415, ,0.03492638325115815, ,2.4355969550551687e-05, ,1.8333333333333333, ,0.7371776351649697, ,0.4217669027162711, ,0.0443256260076325
40, ,PASS, ,0.012782610000000007, ,0.0019210751682901953, ,0.034745311150996924, ,2.489564540314423e-05, ,2.0, ,0.7292313474113666, ,0.4163588498193914, ,0.05497846982714639
41, ,PASS, ,0.012664990000000004, ,0.0019089438750071362, ,0.034672633304422364, ,2.4509591069836178e-05, ,2.0, ,0.7347362993363844, ,0.41774657660047754, ,0.053080549376543336
42, ,PASS, ,0.012721939999999994, ,0.0018642213007819, ,0.034482442765657845, ,2.405602981750754e-05, ,1.9166666666666667, ,0.7331151223012748, ,0.4202771372012816, ,0.04971327115773148
43, ,PASS, ,0.012720590000000004, ,0.0019147150406620124, ,0.034562642974020945, ,2.4681202998598044e-05, ,1.9166666666666667, ,0.7288292460173248, ,0.41703230546315384, ,0.055243770535295195
44, ,PASS, ,0.012867960000000008, ,0.0018916823133772588, ,0.03473547744597049, ,2.4742384362760608e-05, ,2.0, ,0.7282691920255231, ,0.4173180139180833, ,0.059264096651088755
45, ,PASS, ,0.01307599000000001, ,0.001995896797619407, ,0.034555753072386286, ,2.6417836099617388e-05, ,1.9166666666666667, ,0.7341108561929875, ,0.4171547519438379, ,0.04591743025652538
46, ,PASS, ,0.012951010000000002, ,0.0019225826035323924, ,0.03468570256076407, ,2.526335254967529e-05, ,1.9166666666666667, ,0.7231747070918697, ,0.41709352870349586, ,0.055182547294953165
47, ,PASS, ,0.012689279999999997, ,0.0018583885266274653, ,0.034524940980184084, ,2.3924701976944732e-05, ,1.9166666666666667, ,0.7209796847427189, ,0.41613436460480396, ,0.03975429072876064
48, ,PASS, ,0.012750760000000017, ,0.0018450029338515264, ,0.034690100939368584, ,2.385151394283714e-05, ,2.0, ,0.7138910617267311, ,0.41823636252321383, ,0.03506050896920471
49, ,PASS, ,0.012605059999999998, ,0.0018747735082708522, ,0.03465420189241036, ,2.4015182349702547e-05, ,2.0, ,0.7346150408122017, ,0.41688945123568905, ,0.055958041672618926
50, ,PASS, ,0.012606820000000005, ,0.0018157826250348485, ,0.03463260046692925, ,2.3226009762202275e-05, ,2.0, ,0.7227184508483618, ,0.41662415052754026, ,0.05908042693006265
51, ,PASS, ,0.012730380000000006, ,0.0018470143271991746, ,0.034620336390073676, ,2.3881192161240134e-05, ,2.0, ,0.7200812221744937, ,0.41664455827432095, ,0.031427930042244034
52, ,PASS, ,0.012710360000000007, ,0.001863172061164685, ,0.03470232989000225, ,2.4036207621329287e-05, ,2.0, ,0.7132990684074737, ,0.416828227995347, ,0.03787677802493827
53, ,PASS, ,0.01274018, ,0.0019071847113216285, ,0.034897048239219616, ,2.464064077585863e-05, ,2.0, ,0.7284292047110859, ,0.41580784065631315, ,0.05879471847513316
54, ,PASS, ,0.01315057, ,0.0018657487675498633, ,0.034624221756086614, ,2.4904320266878553e-05, ,1.9166666666666667, ,0.7217429021765448, ,0.4176241301197935, ,0.05087651272423012
55, ,PASS, ,0.012591210000000002, ,0.0018897018740758119, ,0.034891775152956064, ,2.4142315263006897e-05, ,1.9166666666666667, ,0.7254802233934644, ,0.41701189771637315, ,0.04146854145833759
56, ,PASS, ,0.012619100000000005, ,0.001875260356340358, ,0.03467967858962062, ,2.4006885708404334e-05, ,2.0, ,0.7227753129475891, ,0.41588947164343587, ,0.05052958102895859
57, ,PASS, ,0.012782400000000006, ,0.0019258738876701052, ,0.034603954370931216, ,2.4990588147236198e-05, ,1.9166666666666667, ,0.7292004618523488, ,0.4275831105487643, ,0.023509724291340992
58, ,PASS, ,0.012658950000000006, ,0.0018902637569055939, ,0.034483635792330776, ,2.432804212442692e-05, ,2.0, ,0.7329814165730132, ,0.41772616885369684, ,0.05706005999877554
59, ,PASS, ,0.012826969999999997, ,0.0018615911846689972, ,0.03468558558968184, ,2.4245544500891633e-05, ,1.9166666666666667, ,0.7172412769927768, ,0.41690985898246974, ,0.03152996877614742
60, ,PASS, ,0.012560290000000012, ,0.001837343451066291, ,0.03478781231403441, ,2.3428169107309685e-05, ,2.0, ,0.7146827275143922, ,0.41439970612844634, ,0.03426460684475827
61, ,PASS, ,0.012664490000000011, ,0.0018817049952618656, ,0.03441333211342626, ,2.4139034533948e-05, ,2.0, ,0.7268024424709046, ,0.4179506540682843, ,0.045652129548376566
62, ,PASS, ,0.01290260000000001, ,0.0018840751601660764, ,0.03467988879206547, ,2.465260846346108e-05, ,2.0, ,0.7225569867050603, ,0.4181343237893104, ,0.04601946899042877
63, ,PASS, ,0.012616439999999996, ,0.0018656427448914144, ,0.034597026260484484, ,2.390170981086636e-05, ,2.0, ,0.72338860638731, ,0.4175424991326708, ,0.04514193587885962
64, ,PASS, ,0.012659290000000014, ,0.0018403877901447014, ,0.034405146224158696, ,2.3653117930088447e-05, ,2.0, ,0.7137206462806619, ,0.4172363829309606, ,0.042039958368196566
65, ,PASS, ,0.012579610000000015, ,0.0018417272225391963, ,0.034519035543152186, ,2.3504841152253272e-05, ,2.0, ,0.7179170131602877, ,0.4154609089610416, ,0.06120283259525316
66, ,PASS, ,0.012571330000000006, ,0.0018711330477154818, ,0.03445090198730638, ,2.3896117590014812e-05, ,2.0, ,0.7212222561544303, ,0.41690985898246974, ,0.04930511622211792
67, ,PASS, ,0.012758030000000007, ,0.0018343848499911292, ,0.03475563503724414, ,2.3737303556287183e-05, ,2.0, ,0.7183969158209166, ,0.4163384420726108, ,0.048203097895961305
68, ,PASS, ,0.01273239000000001, ,0.0018893821769076138, ,0.03459413958715129, ,2.4413523049410622e-05, ,2.0, ,0.7211656196870515, ,0.4181343237893104, ,0.048162282402399954
69, ,PASS, ,0.01260499, ,0.001874490224588832, ,0.034357588784106455, ,2.394910828874794e-05, ,2.0, ,0.7276159954850339, ,0.4192975653558091, ,0.039958368196567416
70, ,FAIL, ,0.002515369999999996, ,0.00010520616869717457, ,0.03596983231219771, ,2.804906148309678e-07, ,1.0, ,0.2950634292555492, ,0.39280831003448907, ,0.008122283218709822
71, ,PASS, ,0.014694020000000016, ,0.00253225452221811, ,0.034737520139180834, ,3.735960230976185e-05, ,1.8333333333333333, ,0.7958866394631181, ,0.43144017469031243, ,0.0787534948266362
72, ,FAIL, ,0.003868459999999997, ,0.00023339360265046757, ,0.035407886922307716, ,9.402998601978926e-07, ,1.1666666666666667, ,0.3425872606357024, ,0.42233831962613005, ,0.0095304177465766
73, ,PASS, ,0.060035246000000014, ,0.009137779089807669, ,0.033985263157384545, ,0.0005481669406932264, ,1.75, ,0.7317291768719105, ,0.4533172792391992, ,0.13965021122017918
74, ,PASS, ,0.01931798, ,0.0031426441690059087, ,0.034942483806657, ,6.079117383079977e-05, ,1.75, ,0.766922464335624, ,0.440909369196547, ,0.13660945694985815
75, ,PASS, ,0.010120600000000007, ,0.0014241999192014044, ,0.03486383085630906, ,1.4666670613402843e-05, ,1.9166666666666667, ,0.6998332760612682, ,0.41358339625721924, ,0.03038713495642946
76, ,PASS, ,0.00970909, ,0.0013210174114333445, ,0.034896852402604026, ,1.3046640034647162e-05, ,1.9166666666666667, ,0.6953286124229959, ,0.41188955327442295, ,0.0597742903206057
77, ,PASS, ,0.010064700000000006, ,0.001303529337925092, ,0.03511131505520295, ,1.3384612928479475e-05, ,1.9166666666666667, ,0.6919689016403104, ,0.4138691047121487, ,0.04985612538519622
78, ,PASS, ,0.009772680000000002, ,0.0013246426531041983, ,0.03497111837105365, ,1.3169303282261357e-05, ,1.9166666666666667, ,0.6847444496149705, ,0.41229770821003653, ,0.03169323075039285
79, ,PASS, ,0.00967206000000001, ,0.0013327669626085781, ,0.03495743951307116, ,1.3113222309500786e-05, ,1.9166666666666667, ,0.6869758529276941, ,0.4126650476520887, ,0.03906042733821759
112, ,PASS, ,0.00967264000000001, ,0.0012990268212603221, ,0.03494074451235689, ,1.2796480902067133e-05, ,1.9166666666666667, ,0.6920116248549965, ,0.41360380400399993, ,0.042937899226546394
113, ,PASS, ,0.009807590000000012, ,0.0013146266134859536, ,0.03508255405624375, ,1.3133298382515162e-05, ,1.9166666666666667, ,0.6851326598310029, ,0.41321605681516704, ,0.04316238444113386
114, ,PASS, ,0.009938140000000012, ,0.001352212188471434, ,0.03509352183098304, ,1.3707470220898165e-05, ,1.9166666666666667, ,0.676950732477493, ,0.4145425603559111, ,0.044509295728658596
115, ,PASS, ,0.00972600000000002, ,0.001330363464025311, ,0.03487471596477623, ,1.3154282263502491e-05, ,1.9166666666666667, ,0.6973306582825594, ,0.41411399767351686, ,0.04914185424787249
116, ,PASS, ,0.009893470000000012, ,0.00132676178986999, ,0.03489069438929818, ,1.3379712319289567e-05, ,1.9166666666666667, ,0.6724659971234586, ,0.41115487439031856, ,0.04055019285320708
117, ,PASS, ,0.009864230000000012, ,0.0013480330950120787, ,0.03472679624660721, ,1.3528966310892319e-05, ,1.9166666666666667, ,0.6834701760431623, ,0.4128895328666762, ,0.05279484092161384
118, ,PASS, ,0.00981259000000001, ,0.0013338284253777346, ,0.03497906356339667, ,1.3288685569351643e-05, ,1.9166666666666667, ,0.6872798420022479, ,0.4133997265361931, ,0.03938695128670843
119, ,PASS, ,0.009830920000000014, ,0.0013113403858446377, ,0.03480368123875023, ,1.3122904299653206e-05, ,1.9166666666666667, ,0.6871133313620893, ,0.4146445990898145, ,0.0455296830676925
120, ,PASS, ,0.009910370000000019, ,0.0013184631455708344, ,0.03475567365012959, ,1.3300275316455294e-05, ,1.9166666666666667, ,0.6862407028947403, ,0.4133589110426318, ,0.04828472888308402
121, ,PASS, ,0.00960488, ,0.001317692304494374, ,0.03477673638007387, ,1.288871592111197e-05, ,1.9166666666666667, ,0.6884459093910492, ,0.41264463990530803, ,0.046121507724332156
122, ,PASS, ,0.009665200000000027, ,0.0013136088434625632, ,0.035493531514050734, ,1.2928984011885394e-05, ,1.9166666666666667, ,0.6789449192287822, ,0.41293034836023756, ,0.043244015428256566
123, ,PASS, ,0.009865270000000013, ,0.0012815433575644579, ,0.03494167818350646, ,1.2877563973307273e-05, ,1.9166666666666667, ,0.6528444967605772, ,0.41162425256627416, ,0.025366829248382686
124, ,PASS, ,0.009621660000000021, ,0.0012381882221010796, ,0.03479829933756454, ,1.2137311413874313e-05, ,1.9166666666666667, ,0.6711316616758425, ,0.414991530785086, ,0.04057060059998775
125, ,PASS, ,0.009338140000000012, ,0.0012761353109506553, ,0.03474861569437358, ,1.2129703175205668e-05, ,1.9166666666666667, ,0.68363569808548, ,0.4142364441542009, ,0.0297953102997898
126, ,PASS, ,0.009634950000000017, ,0.001309912977448219, ,0.034682611573845425, ,1.2875846936805692e-05, ,1.9166666666666667, ,0.6822695284436546, ,0.41866492520560805, ,0.04646843941960368
127, ,PASS, ,0.009615590000000014, ,0.0012622068694474401, ,0.035021766546805166, ,1.2386058451337606e-05, ,1.9166666666666667, ,0.6833485928290031, ,0.41488949205118264, ,0.05124385216628232
128, ,PASS, ,0.00952556000000003, ,0.0012561598328410006, ,0.034942510014693576, ,1.2177168348819703e-05, ,1.9166666666666667, ,0.6833106979319639, ,0.41490989979796333, ,0.037386992102202
129, ,PASS, ,0.009715200000000031, ,0.0012913171651268692, ,0.034862297820452644, ,1.2769452793945583e-05, ,1.9166666666666667, ,0.6731029725086691, ,0.4126242321585274, ,0.04059100834676843
130, ,PASS, ,0.009760560000000026, ,0.001273463248272262, ,0.03490303590661415, ,1.2667708313659523e-05, ,1.9166666666666667, ,0.6659160712378391, ,0.41164466031305486, ,0.03318299626538234
131, ,PASS, ,0.00972961000000001, ,0.0012728038978555474, ,0.035050762705659065, ,1.2588263309096063e-05, ,1.9166666666666667, ,0.6703744110878201, ,0.4141548131670782, ,0.021713842574641335
132, ,PASS, ,0.00952695000000002, ,0.0012773742504463195, ,0.034685841792412395, ,1.2383231170023987e-05, ,1.9166666666666667, ,0.6824991568356721, ,0.41356298851043855, ,0.039550213260953856
133, ,PASS, ,0.009583750000000012, ,0.0012910380466190643, ,0.03474584728025958, ,1.2597353271563261e-05, ,1.9166666666666667, ,0.6860452196735838, ,0.41478745331727923, ,0.04187669639395114
134, ,PASS, ,0.009661450000000026, ,0.0012777909284168074, ,0.03494805169282259, ,1.2599243950711366e-05, ,1.9166666666666667, ,0.6746564687770554, ,0.4156445786820677, ,0.03561151813228301
135, ,PASS, ,0.009610850000000015, ,0.0012657026853886465, ,0.03481936186057427, ,1.2383037710905282e-05, ,1.9166666666666667, ,0.6739177451727376, ,0.4131344258280443, ,0.03408093712373217
136, ,PASS, ,0.00958115, ,0.0012455771415753427, ,0.03468852099855105, ,1.2146083560322243e-05, ,1.9166666666666667, ,0.6686360942356272, ,0.4142772596477623, ,0.02583620742433828
137, ,PASS, ,0.009351950000000026, ,0.001271184402433876, ,0.034706889744699085, ,1.2087349210929543e-05, ,1.9166666666666667, ,0.6848376381372697, ,0.41523642374645414, ,0.058774310728352486
138, ,PASS, ,0.009582880000000033, ,0.001267366601203035, ,0.034893519415318056, ,1.2373515786537135e-05, ,1.9166666666666667, ,0.6565815929194524, ,0.41203240750188774, ,0.020897532703414216
139, ,PASS, ,0.009303390000000009, ,0.0012592785649312855, ,0.034761655860288565, ,1.1923430937723906e-05, ,1.9166666666666667, ,0.6829036563555398, ,0.413726250484684, ,0.0343258300851003
140, ,PASS, ,0.009450120000000013, ,0.0012173969511916159, ,0.03486876328809616, ,1.1736935402683133e-05, ,1.9166666666666667, ,0.6752162844641022, ,0.4159506948837779, ,0.04397869431236097
141, ,PASS, ,0.009577210000000017, ,0.0012988675056132414, ,0.03496172341931797, ,1.2668714406440977e-05, ,1.9166666666666667, ,0.6883427093125745, ,0.41401195893961346, ,0.05303973388298198
142, ,PASS, ,0.009364730000000016, ,0.0012310158932547824, ,0.03468690140731821, ,1.1749261062475628e-05, ,1.9166666666666667, ,0.6831391683159463, ,0.4150527540254281, ,0.042039958368196566
143, ,PASS, ,0.009459920000000014, ,0.0012133334604721702, ,0.03503614086467623, ,1.1673841436968521e-05, ,1.9166666666666667, ,0.6681814840886691, ,0.41901185690087955, ,0.045427644333789104
176, ,PASS, ,0.009433100000000003, ,0.0012225545073781712, ,0.03495879986673742, ,1.1731487448510973e-05, ,1.9166666666666667, ,0.6549758295940703, ,0.41229770821003653, ,0.01638742066488439
177, ,PASS, ,0.009394490000000012, ,0.001210368469174518, ,0.03480171778841248, ,1.1605369031041895e-05, ,1.9166666666666667, ,0.6651836871961299, ,0.41264463990530803, ,0.026081100385706414
178, ,PASS, ,0.009428809999999992, ,0.0012010009279648933, ,0.03491975531213649, ,1.1536035459737586e-05, ,1.9166666666666667, ,0.6719672547979283, ,0.41264463990530803, ,0.04508071263851758
179, ,PASS, ,0.009462200000000025, ,0.0012300385529988326, ,0.034786335001734656, ,1.1861039131577802e-05, ,1.9166666666666667, ,0.6723786261196564, ,0.41246097018428196, ,0.04171343441970572
180, ,PASS, ,0.009419890000000021, ,0.0012595090131495889, ,0.0349307603287688, ,1.2088982385345474e-05, ,1.9166666666666667, ,0.6776571074623762, ,0.41411399767351686, ,0.03514213995632742
181, ,PASS, ,0.010146140000000008, ,0.0014016897365993636, ,0.03488635847737801, ,1.4452792573158769e-05, ,2.0, ,0.6865827641339579, ,0.41544050121426096, ,0.02624436235995184
182, ,PASS, ,0.009506430000000003, ,0.0012536907188535086, ,0.03493523687700251, ,1.2140917085552526e-05, ,1.9166666666666667, ,0.6769289467326652, ,0.41450174486234975, ,0.03971347523519928
183, ,PASS, ,0.009251450000000012, ,0.0011903018287251802, ,0.034874685022550554, ,1.119491781594127e-05, ,1.9166666666666667, ,0.667821859481604, ,0.4135017652700965, ,0.03316258851860166
184, ,PASS, ,0.009202700000000015, ,0.0011879040741561123, ,0.03497602133793188, ,1.1121767809314393e-05, ,1.9166666666666667, ,0.6820522385012744, ,0.41613436460480396, ,0.045325605599885715
185, ,PASS, ,0.009241260000000001, ,0.0011764151623619185, ,0.03485910235627844, ,1.1086485081029086e-05, ,1.9166666666666667, ,0.666269138974889, ,0.41393032795249074, ,0.03308095753147895
186, ,PASS, ,0.009199450000000008, ,0.0011944799169477057, ,0.034983239918981245, ,1.1201631606451896e-05, ,1.9166666666666667, ,0.6666644938395605, ,0.4135425807636579, ,0.040407338625742334
187, ,PASS, ,0.009082570000000009, ,0.001209277304368443, ,0.03477310846350074, ,1.1164807792975846e-05, ,1.9166666666666667, ,0.6766588272638525, ,0.4135017652700965, ,0.03857064141548132
188, ,PASS, ,0.009199510000000018, ,0.0011775812463231477, ,0.03484630682802392, ,1.1031370975124304e-05, ,1.9166666666666667, ,0.6555096851021168, ,0.4115018060855901, ,0.033489112467092505
189, ,PASS, ,0.00928078000000002, ,0.001207313585688067, ,0.03466366506091712, ,1.1425111742291886e-05, ,1.9166666666666667, ,0.6572625468253005, ,0.41442011387522704, ,0.03861145690904267
190, ,PASS, ,0.009088630000000004, ,0.001212605677490952, ,0.0348215712816065, ,1.1214945127398874e-05, ,1.9166666666666667, ,0.6733051603917707, ,0.41356298851043855, ,0.03855023366870064
191, ,PASS, ,0.009129350000000008, ,0.0011815315372366783, ,0.034802810389992035, ,1.0947688360217585e-05, ,1.9166666666666667, ,0.6797570321290896, ,0.4162976265790494, ,0.04877451480582029
192, ,PASS, ,0.0090147, ,0.0011878223653287003, ,0.03470348962755862, ,1.0896128697787572e-05, ,1.9166666666666667, ,0.6755804914864645, ,0.41476704557049854, ,0.04514193587885962
193, ,PASS, ,0.009035750000000023, ,0.0011642628160286846, ,0.03522319530458562, ,1.0729770657322812e-05, ,1.9166666666666667, ,0.6607487394142469, ,0.4162159955919267, ,0.03279524907654946
194, ,PASS, ,0.009006430000000013, ,0.0012001926889455283, ,0.03475893516683333, ,1.1004492597103754e-05, ,1.9166666666666667, ,0.6719968899621127, ,0.4159506948837779, ,0.03640742025672945
195, ,PASS, ,0.008982210000000004, ,0.0011715856721602428, ,0.03495720305075407, ,1.0736658684166969e-05, ,1.9166666666666667, ,0.6780081080578196, ,0.4151547927593314, ,0.038693087896165386
196, ,PASS, ,0.00905388000000001, ,0.0011638069118186467, ,0.034808183607681474, ,1.073140381832713e-05, ,1.9166666666666667, ,0.659624134496269, ,0.41413440542029756, ,0.024917858819207772
197, ,PASS, ,0.009229020000000011, ,0.001191768384986799, ,0.034810065734576845, ,1.1204728710394815e-05, ,1.9166666666666667, ,0.6714966832472069, ,0.41476704557049854, ,0.03779514703781556
198, ,PASS, ,0.009117250000000014, ,0.0011857247211873628, ,0.03483964883349319, ,1.100525081585458e-05, ,1.9166666666666667, ,0.6666814315113154, ,0.41533846248035755, ,0.04610109997755148
199, ,PASS, ,0.009377480000000004, ,0.0011893263683424105, ,0.034859653926654556, ,1.1354581827793191e-05, ,1.9166666666666667, ,0.669559900326033, ,0.4176037223730128, ,0.040060406930470804
200, ,PASS, ,0.009109540000000027, ,0.0011769634099348598, ,0.035001998003306056, ,1.0932285557456504e-05, ,1.9166666666666667, ,0.6523332847610084, ,0.415562947694945, ,0.0323870941409359
201, ,PASS, ,0.009158600000000027, ,0.0011908908665952246, ,0.03499909745372543, ,1.1117105162117243e-05, ,1.9166666666666667, ,0.668153762896041, ,0.4142568519009816, ,0.03975429072876064
202, ,PASS, ,0.00911294000000002, ,0.0011504678556656905, ,0.035066160248770434, ,1.0702318357151976e-05, ,1.9166666666666667, ,0.6550749550812303, ,0.4138078814718067, ,0.030734066651700986
203, ,PASS, ,0.008934410000000018, ,0.0011657100496109565, ,0.0350173220532234, ,1.0623064000872091e-05, ,1.9166666666666667, ,0.6559550053963272, ,0.4133589110426318, ,0.04152976469867962
204, ,PASS, ,0.008581040000000009, ,0.001112044159913115, ,0.034771839521642416, ,9.742032072291658e-06, ,1.9166666666666667, ,0.6745891570220471, ,0.4155833554417257, ,0.042876675986204364
205, ,PASS, ,0.008867159999999999, ,0.0011281894170953382, ,0.03484129818105752, ,1.0228500185529923e-05, ,1.9166666666666667, ,0.6492633486225899, ,0.4133997265361931, ,0.033836044162364035
206, ,PASS, ,0.00873897000000002, ,0.0011367740890407246, ,0.034932249473071976, ,1.0125343434811055e-05, ,1.9166666666666667, ,0.6697473444692135, ,0.41560376318850634, ,0.03528499418379217
207, ,PASS, ,0.008822980000000008, ,0.0011013357251990993, ,0.03479847446133752, ,9.912115122120706e-06, ,1.9166666666666667, ,0.6372122875815036, ,0.4116650680598355, ,0.025754576437215567
208, ,PASS, ,0.008760130000000005, ,0.001099689906378956, ,0.034805778829003486, ,9.832908020656442e-06, ,1.9166666666666667, ,0.643722219554523, ,0.4116650680598355, ,0.031142221587314545
209, ,PASS, ,0.008939140000000012, ,0.001117345006040331, ,0.03500788334095222, ,1.0185317195472087e-05, ,1.9166666666666667, ,0.6471549454091927, ,0.4135425807636579, ,0.03783596253137691
210, ,PASS, ,0.008891629999999998, ,0.0010936629567334301, ,0.03489470054733577, ,9.925163744900606e-06, ,1.9166666666666667, ,0.6504846788938542, ,0.41368543499112265, ,0.0335911512009959
211, ,PASS, ,0.008765870000000012, ,0.0011247610013576607, ,0.0349069909138589, ,1.0047034024675164e-05, ,1.9166666666666667, ,0.6632624419292865, ,0.4128895328666762, ,0.03724413787473725
212, ,PASS, ,0.008717470000000019, ,0.0010984326088183327, ,0.034791433853798896, ,9.770873790599966e-06, ,1.9166666666666667, ,0.6603914662616347, ,0.41452215260913045, ,0.039978775943348095
213, ,PASS, ,0.009146570000000007, ,0.0011246710622832576, ,0.03504435933389114, ,1.051512808972901e-05, ,1.9166666666666667, ,0.632614407668823, ,0.4109099814289504, ,0.031346299055121325
214, ,PASS, ,0.008745970000000013, ,0.001157661384722243, ,0.03504981550152038, ,1.0337432716989588e-05, ,1.9166666666666667, ,0.6685813921498802, ,0.41321605681516704, ,0.037897185771718946
215, ,PASS, ,0.009292060000000022, ,0.0012121726100048514, ,0.034931658066365986, ,1.1476318498130388e-05, ,1.9166666666666667, ,0.6599611128427668, ,0.4124201546907206, ,0.016305789677761678
