Channel, ,Pass/Fail, ,Amplitude, ,Sorting Function Response, ,Mean, ,Variance, ,NPeaksRatio, ,PosIntegralRatio, ,ToT50, ,ToT99
233, ,PASS, ,0.059649631941, ,0.006742932266637959, ,0.02677329257525779, ,0.000406992389233027, ,1.8333333333333333, ,0.5955497225157387, ,0.46417420052651986, ,0.053488704312156896
234, ,PASS, ,0.043746973, ,0.004774915399189163, ,0.02697144600608151, ,0.00021145002138182658, ,1.75, ,0.5616881368103022, ,0.45874573988285955, ,0.05573355645803147
235, ,PASS, ,0.02762184000000001, ,0.0028180299487500443, ,0.027239789161649763, ,7.905518218684857e-05, ,1.4166666666666667, ,0.4883840432121129, ,0.4517254749903063, ,0.04569294504193792
236, ,PASS, ,0.027080990000000006, ,0.002768126321628139, ,0.027200187878002487, ,7.610268834673123e-05, ,1.3333333333333333, ,0.4843558817082504, ,0.4460317136384972, ,0.04522356686598233
237, ,PASS, ,0.027289030000000006, ,0.002775043955870376, ,0.027420485179486132, ,7.687941092564024e-05, ,1.3333333333333333, ,0.48577108556846044, ,0.44437868614926224, ,0.05081528948388808
238, ,PASS, ,0.02753122000000001, ,0.002780713065818525, ,0.027473378922879127, ,7.77345599745126e-05, ,1.3333333333333333, ,0.48256999204315787, ,0.4476643333809514, ,0.04250933654415216
239, ,PASS, ,0.02700401000000001, ,0.0027568539733177798, ,0.027356447483928903, ,7.558277498732359e-05, ,1.3333333333333333, ,0.48644256108249034, ,0.4476235178873901, ,0.04957041693026673
240, ,PASS, ,0.02719341, ,0.0027745143376526325, ,0.02719696549090835, ,7.665907078450089e-05, ,1.3333333333333333, ,0.48310038322341103, ,0.4472357706985572, ,0.04757045774576029
241, ,PASS, ,0.027569030000000015, ,0.0028140270677830806, ,0.027210771580579992, ,7.881944912167299e-05, ,1.4166666666666667, ,0.49014140840436193, ,0.4454807044754189, ,0.04475418869002674
242, ,PASS, ,0.027203169999999995, ,0.0027878035209671415, ,0.027072320971612825, ,7.701454755766874e-05, ,1.4166666666666667, ,0.4917448147492818, ,0.4498887777800453, ,0.04846839860411012
243, ,PASS, ,0.027583080000000006, ,0.0028247305472788218, ,0.027307894180731006, ,7.90900001056476e-05, ,1.4166666666666667, ,0.4870787647461168, ,0.44780718760841615, ,0.0434889083896247
244, ,PASS, ,0.02739704000000001, ,0.0028087670622044814, ,0.027126385504173383, ,7.816203725271997e-05, ,1.3333333333333333, ,0.48242233874691903, ,0.44641946082733003, ,0.04399910205914165
245, ,PASS, ,0.02762222, ,0.002812892960216169, ,0.027331744325626007, ,7.88995798608068e-05, ,1.4166666666666667, ,0.48501100311764994, ,0.4492357298830636, ,0.0417338421664864
246, ,PASS, ,0.02739909, ,0.0027857719563592937, ,0.027404084890920593, ,7.744847279232564e-05, ,1.3333333333333333, ,0.4852657350538571, ,0.4489908369216955, ,0.04718271055692741
247, ,PASS, ,0.027575300000000004, ,0.002821423496238771, ,0.027352711646497014, ,7.900047258068769e-05, ,1.4166666666666667, ,0.487655010078474, ,0.4480316728230036, ,0.0472847492908308
248, ,PASS, ,0.02771169000000001, ,0.0028467448995587417, ,0.02729318851329565, ,8.008429633774353e-05, ,1.3333333333333333, ,0.4854797274104864, ,0.4496847003122385, ,0.051896900063264015
249, ,PASS, ,0.02812968000000001, ,0.0028328317622855425, ,0.027328400598559215, ,8.095661890932763e-05, ,1.3333333333333333, ,0.4789619987198142, ,0.4455623354625416, ,0.04234607456990674
250, ,PASS, ,0.02827284, ,0.0028200505231606096, ,0.027258451072018942, ,8.082977384928364e-05, ,1.3333333333333333, ,0.4815172818282387, ,0.45050101018346567, ,0.042488928797371484
251, ,PASS, ,0.02828305000000001, ,0.0028749077397950866, ,0.02725223557621273, ,8.253525390477361e-05, ,1.4166666666666667, ,0.48707667345469424, ,0.449276545376625, ,0.0438562478316769
252, ,PASS, ,0.02748138000000002, ,0.002815257675972629, ,0.027154983235444175, ,7.859777361715433e-05, ,1.4166666666666667, ,0.48873207912124, ,0.44825615803759106, ,0.04461133446256199
253, ,PASS, ,0.027872560000000005, ,0.002829704481091808, ,0.027343482665659884, ,8.006734824359629e-05, ,1.3333333333333333, ,0.48250911019551784, ,0.4485826819860819, ,0.0455296830676925
254, ,PASS, ,0.028486299999999996, ,0.0028467691577749397, ,0.02738115124283178, ,8.232475386667657e-05, ,1.3333333333333333, ,0.4786924175360485, ,0.4485826819860819, ,0.044080733046264364
255, ,PASS, ,0.02830869000000002, ,0.002869507132364482, ,0.02735225088324728, ,8.253764722239505e-05, ,1.3333333333333333, ,0.48101567297055886, ,0.4454398889818575, ,0.044448072488316566
