Channel, ,Pass/Fail, ,Amplitude, ,Sorting Function Response, ,Mean, ,Variance, ,NPeaksRatio, ,PosIntegralRatio, ,ToT50, ,ToT99
0, ,PASS, ,0.066871665, ,0.00933090339748189, ,0.02392416139546132, ,0.0006331157970225539, ,1.8333333333333333, ,0.7188627163074098, ,0.416828227995347, ,0.05624375012754842
1, ,PASS, ,0.07090170299999997, ,0.01101866121168242, ,0.02295807935487031, ,0.0007911028497320622, ,1.8333333333333333, ,0.7514586644706707, ,0.41652211179363685, ,0.08052896879655518
2, ,PASS, ,0.07146967099999997, ,0.011112402642266815, ,0.02284844308107998, ,0.0008039321399168971, ,1.8333333333333333, ,0.7495890166566505, ,0.4171955674373992, ,0.07538621660782432
3, ,PASS, ,0.07150610399999999, ,0.011100039954691469, ,0.023082685943715434, ,0.0008031698657703428, ,1.8333333333333333, ,0.7498077613721376, ,0.41905267239444094, ,0.07585559478377993
4, ,PASS, ,0.07164062600000001, ,0.01112747059888851, ,0.023015781543376666, ,0.00080677751476051, ,1.8333333333333333, ,0.7486940160570656, ,0.4184404399910206, ,0.07452909124303586
5, ,PASS, ,0.07183518299999998, ,0.011114912925219591, ,0.02309143612526275, ,0.0008077603533718117, ,1.8333333333333333, ,0.748526082254859, ,0.4192771576090284, ,0.0744882757494745
6, ,PASS, ,0.07188468699999999, ,0.011149145764730537, ,0.023105989347748004, ,0.000810621736743551, ,1.8333333333333333, ,0.7494110507772549, ,0.41960368155751926, ,0.07683516662925247
7, ,PASS, ,0.07162063499999999, ,0.011146234607811743, ,0.022927109553560133, ,0.0008082463872513166, ,1.9166666666666667, ,0.7493044404025275, ,0.41703230546315384, ,0.07520254688679823
8, ,PASS, ,0.07189639299999999, ,0.011173329163327235, ,0.022984848711230382, ,0.000813140356862224, ,1.8333333333333333, ,0.7487995636510733, ,0.4175220913858901, ,0.07475357645762332
9, ,PASS, ,0.07321899000000001, ,0.011450013199773046, ,0.023074307516662926, ,0.0008483180808057044, ,1.8333333333333333, ,0.751023655043512, ,0.4185220709781433, ,0.0769780208567172
10, ,PASS, ,0.072342232, ,0.01124170505105254, ,0.023122680446541907, ,0.0008227071734798225, ,1.8333333333333333, ,0.7493750822126879, ,0.4194404195832738, ,0.07450868349625518
11, ,PASS, ,0.071611797, ,0.011133258603887497, ,0.023153325611742617, ,0.0008068747488887148, ,1.8333333333333333, ,0.7498967407806977, ,0.41825677026999447, ,0.07746780677945347
12, ,PASS, ,0.07152303899999998, ,0.011078428186374467, ,0.02303767403861146, ,0.0008020123180641818, ,1.8333333333333333, ,0.7483660823560933, ,0.41819554702965245, ,0.07499846941899145
13, ,PASS, ,0.07165804699999997, ,0.01104687152273846, ,0.023166744427562704, ,0.0008008613611303949, ,1.8333333333333333, ,0.7478259854941083, ,0.419175118875125, ,0.07161078345339891
14, ,PASS, ,0.07169640199999998, ,0.011007806678702334, ,0.023096120148507173, ,0.000797850211137679, ,1.8333333333333333, ,0.7479858779142726, ,0.4181547315360911, ,0.07618211873227076
15, ,PASS, ,0.07185722599999998, ,0.011073179765106701, ,0.023504771436133956, ,0.0008043389502828433, ,1.8333333333333333, ,0.7478977909420438, ,0.42117507805963145, ,0.0768963898695945
16, ,PASS, ,0.07226714600000002, ,0.010990315396937197, ,0.02387937037023734, ,0.0008022881779605965, ,1.9166666666666667, ,0.7450796398758605, ,0.4279912654843779, ,0.07742699128589213
17, ,PASS, ,0.07282073300000001, ,0.011264084378841705, ,0.023393837126915777, ,0.0008296705337190842, ,1.8333333333333333, ,0.7494368030068217, ,0.4195424583171772, ,0.07434542152200975
18, ,PASS, ,0.07208875100000003, ,0.011090194605647148, ,0.023512425119956736, ,0.0008076765030947354, ,1.9166666666666667, ,0.7479404502579529, ,0.4256239668578192, ,0.0787534948266362
19, ,PASS, ,0.07151845099999998, ,0.011006819746324704, ,0.023743821190996103, ,0.0007948492217636176, ,1.9166666666666667, ,0.7459438147682492, ,0.4266647619436338, ,0.07867186383951348
20, ,PASS, ,0.07134324800000001, ,0.010919968858148289, ,0.023487080482173833, ,0.0007874199816795275, ,1.8333333333333333, ,0.7460192209340195, ,0.42107303932572804, ,0.07779433072794432
21, ,PASS, ,0.07138128599999999, ,0.010677353478562081, ,0.024178543664904798, ,0.0007707224386484562, ,1.8333333333333333, ,0.7421673399335855, ,0.43060345707230463, ,0.0781004469296545
22, ,PASS, ,0.071466883, ,0.010636202121058546, ,0.024295193027897385, ,0.0007693770552693155, ,1.8333333333333333, ,0.739583989952807, ,0.4321340380808555, ,0.0743046060284484
23, ,PASS, ,0.07219808300000001, ,0.010614532568950017, ,0.02475841082065672, ,0.0007761043137519064, ,1.8333333333333333, ,0.7371838162022273, ,0.4381135078875941, ,0.07650864268076162
24, ,PASS, ,0.07186719899999999, ,0.010647255071247636, ,0.025052080496806184, ,0.0007749385522575624, ,1.8333333333333333, ,0.7427537406684845, ,0.4411950776514765, ,0.08010040611416093
25, ,PASS, ,0.07215271400000002, ,0.010578151709048909, ,0.024844828603171366, ,0.000773373358054101, ,1.8333333333333333, ,0.738037308815584, ,0.4382359543682782, ,0.07838615538458399
26, ,PASS, ,0.07307399499999999, ,0.010886342981457135, ,0.024202040622375052, ,0.0008048273711016363, ,1.8333333333333333, ,0.7427705340020646, ,0.43039937960449787, ,0.08020244484806432
27, ,PASS, ,0.11082974999999999, ,0.01762359860577162, ,0.021774020624681128, ,0.001969223870275524, ,1.9166666666666667, ,0.7468177461079054, ,0.4355829472867901, ,0.06714148690843044
28, ,PASS, ,0.16433184, ,0.026059770992590103, ,0.018444979794902144, ,0.004314160410671272, ,1.8333333333333333, ,0.7393695888523, ,0.4362768106773331, ,0.0657945756209057
29, ,PASS, ,0.08054783000000001, ,0.01185821894828077, ,0.023954747769494505, ,0.0009663107298016312, ,1.8333333333333333, ,0.7385984407629459, ,0.43164425215811925, ,0.07659027366788433
30, ,PASS, ,0.078360488, ,0.011502789696366296, ,0.02428850910001837, ,0.0009131605162655667, ,1.8333333333333333, ,0.7366737176928579, ,0.43537886981898327, ,0.07824330115711925
31, ,PASS, ,0.07881963700000003, ,0.01141871418609689, ,0.024992608883430953, ,0.0009117064476095467, ,1.8333333333333333, ,0.7334781416937953, ,0.4414603783596253, ,0.07612089549192874
32, ,PASS, ,0.078796059, ,0.011429325051629816, ,0.024615465544866433, ,0.0009124113697983943, ,1.8333333333333333, ,0.7325702146101901, ,0.4388277790249179, ,0.07630456521295484
33, ,PASS, ,0.07907270800000002, ,0.01148431552098075, ,0.024462167602110164, ,0.0009199338934837371, ,1.8333333333333333, ,0.7331727376069891, ,0.4376441297116385, ,0.07144752147915348
34, ,PASS, ,0.07913600600000001, ,0.011501470508326636, ,0.024558081826636192, ,0.0009221672838130455, ,1.8333333333333333, ,0.7324308756242859, ,0.43733801350992835, ,0.07097814330319789
35, ,PASS, ,0.07923753900000002, ,0.01160180275445319, ,0.02476422689945103, ,0.000930699040426541, ,1.8333333333333333, ,0.7363488857176141, ,0.44160323258709006, ,0.07469235321728128
36, ,PASS, ,0.07891289000000003, ,0.011804321659307384, ,0.02362294004748883, ,0.0009413471777151601, ,1.9166666666666667, ,0.7391275938157471, ,0.4280116732311586, ,0.07428419828166773
37, ,PASS, ,0.07890430900000002, ,0.011723607267400649, ,0.023913808675251527, ,0.0009353752053824262, ,1.8333333333333333, ,0.7374996812102766, ,0.4313177282096284, ,0.07483520744474603
38, ,PASS, ,0.07840167099999999, ,0.011689024024848093, ,0.023615292379359606, ,0.0009262917387956423, ,1.8333333333333333, ,0.7388809382099959, ,0.42829738168608805, ,0.07942695047039856
39, ,PASS, ,0.07816770300000002, ,0.011613470478722842, ,0.023706257304218284, ,0.0009174716673842377, ,1.9166666666666667, ,0.738050581164172, ,0.4272361788534928, ,0.0737535968653701
40, ,PASS, ,0.07870721800000002, ,0.011698379015711248, ,0.023212548242525666, ,0.0009304129300058511, ,1.9166666666666667, ,0.7381012834142116, ,0.42609334503377483, ,0.075406624354605
41, ,PASS, ,0.07808687000000002, ,0.011763960482473442, ,0.022964115950327546, ,0.0009288887264309631, ,1.8333333333333333, ,0.7405997789407285, ,0.42115467031285075, ,0.07501887716577213
42, ,PASS, ,0.07799183900000001, ,0.011708169708101726, ,0.022886570933266667, ,0.0009233641995682422, ,1.8333333333333333, ,0.7383509926753906, ,0.4208281463643599, ,0.07326381094263382
43, ,PASS, ,0.07794291699999999, ,0.01166724740672661, ,0.022798643796881696, ,0.0009196823984837342, ,1.8333333333333333, ,0.7376452357601234, ,0.42115467031285075, ,0.07214138486969654
44, ,PASS, ,0.07812426799999997, ,0.011404638691801612, ,0.02357542125452542, ,0.0009011731240788535, ,1.8333333333333333, ,0.7324763812811449, ,0.4309707965143568, ,0.072365870084284
45, ,PASS, ,0.07810844999999998, ,0.0113528854912975, ,0.023810618849105118, ,0.0008976478558995884, ,1.8333333333333333, ,0.7325382743439914, ,0.43272586273749514, ,0.07501887716577213
46, ,PASS, ,0.07747432300000001, ,0.011371838117384537, ,0.023817776703842778, ,0.0008908693126291438, ,1.8333333333333333, ,0.7350543608257635, ,0.42905246831697313, ,0.07587600253056061
47, ,PASS, ,0.07766991200000001, ,0.011399108230151668, ,0.0236313164293994, ,0.0008952381247462933, ,1.8333333333333333, ,0.7343967132459834, ,0.4292361380379992, ,0.0737535968653701
48, ,PASS, ,0.07775444699999999, ,0.011493982836702164, ,0.02327002754833575, ,0.0009033043614984037, ,1.9166666666666667, ,0.7350335673387522, ,0.4249913267076182, ,0.07403930532029959
49, ,PASS, ,0.07808376299999997, ,0.011472644435495834, ,0.023374400532091184, ,0.0009057487641378555, ,1.8333333333333333, ,0.7331706369564245, ,0.4276851492826677, ,0.07252913205852941
50, ,PASS, ,0.07820904800000002, ,0.011559837131750576, ,0.023590923052774434, ,0.0009139433331178637, ,1.8333333333333333, ,0.7331852749260657, ,0.42780759576335176, ,0.07018224117875145
51, ,PASS, ,0.07804172700000002, ,0.011605665747540973, ,0.023171611264790514, ,0.000915475614037654, ,1.9166666666666667, ,0.7377835045793751, ,0.4219505724372972, ,0.0762433419726128
52, ,PASS, ,0.078045141, ,0.01153184372773583, ,0.023091092004530522, ,0.0009099350051841761, ,1.9166666666666667, ,0.7360606175184811, ,0.4229913675231118, ,0.07199853064223179
53, ,PASS, ,0.078211287, ,0.011598532302003549, ,0.023148982457092713, ,0.0009169062515305619, ,1.9166666666666667, ,0.7369207510633091, ,0.4249096957204955, ,0.07091692006285585
54, ,PASS, ,0.077967984, ,0.01179929097053815, ,0.022244156625436214, ,0.0009320616470723386, ,1.8333333333333333, ,0.7402416552704129, ,0.41521601599967345, ,0.07183526866798637
55, ,PASS, ,0.078357141, ,0.011817248014746732, ,0.02269606831764658, ,0.0009374474894967138, ,1.8333333333333333, ,0.7414064768005778, ,0.4183588090038979, ,0.07808003918287382
56, ,PASS, ,0.07842556300000003, ,0.011965022140127199, ,0.0223367367655354, ,0.0009508274980485025, ,1.9166666666666667, ,0.7442757585383024, ,0.4141956286606396, ,0.07744739903267281
57, ,PASS, ,0.07872591000000002, ,0.011988521595126882, ,0.02205391123068917, ,0.0009566016885835348, ,1.9166666666666667, ,0.7423846371214701, ,0.4132568723087284, ,0.07526377012714026
58, ,PASS, ,0.07886862, ,0.012071609676374809, ,0.022101823621348545, ,0.0009647745575680872, ,1.9166666666666667, ,0.7451244090492146, ,0.4129507561070182, ,0.0781004469296545
59, ,PASS, ,0.07870728, ,0.012008975199426203, ,0.021815250484410523, ,0.0009579314544321592, ,1.9166666666666667, ,0.7438750088596608, ,0.41264463990530803, ,0.07620252647905144
60, ,PASS, ,0.07925293000000003, ,0.012064641255174882, ,0.022156709937068635, ,0.0009687310715409742, ,1.9166666666666667, ,0.7421849655090927, ,0.41488949205118264, ,0.07348829615722129
61, ,PASS, ,0.08057660000000003, ,0.012295776346771299, ,0.021503614495432342, ,0.001003858326893, ,1.9166666666666667, ,0.740805140493932, ,0.4093589926736189, ,0.0679169812860962
62, ,PASS, ,0.07916796, ,0.012025750170080216, ,0.022101186366688435, ,0.000964881763115191, ,1.9166666666666667, ,0.7418240861065439, ,0.4128895328666762, ,0.07161078345339891
63, ,PASS, ,0.07911299000000004, ,0.011904976096098994, ,0.021854110143588908, ,0.0009542880923805262, ,1.9166666666666667, ,0.7363531978474097, ,0.410175302544846, ,0.06683537070672027
64, ,PASS, ,0.07921125000000002, ,0.011978868965469541, ,0.022269774081222833, ,0.0009614616453420147, ,1.8333333333333333, ,0.7394515409283569, ,0.4150119385318667, ,0.07348829615722129
65, ,PASS, ,0.07905978000000002, ,0.01197557040956898, ,0.022492329018183307, ,0.0009594740488061237, ,1.9166666666666667, ,0.7414030121183018, ,0.4184200322442399, ,0.07608007999836738
66, ,PASS, ,0.07878683000000002, ,0.011853687736563184, ,0.02217446437544132, ,0.0009462043090659664, ,1.8333333333333333, ,0.7380650047279724, ,0.4150119385318667, ,0.07305973347482704
67, ,PASS, ,0.07854020800000001, ,0.011780092579223241, ,0.022096209768514927, ,0.0009381029673844707, ,1.8333333333333333, ,0.7400126747228787, ,0.4109712046692925, ,0.06938633905430501
68, ,PASS, ,0.07865597400000002, ,0.011871736937199022, ,0.022195225114120126, ,0.0009464984895954149, ,1.9166666666666667, ,0.7398877547507475, ,0.4129711638537989, ,0.07275361727311687
69, ,PASS, ,0.07965906, ,0.012113169959909131, ,0.02223798318698394, ,0.0009776937880155603, ,1.9166666666666667, ,0.7414214881926277, ,0.41476704557049854, ,0.07518213914001755
70, ,PASS, ,0.07876109000000003, ,0.01189109215473664, ,0.022237926924124, ,0.0009490731748122079, ,1.8333333333333333, ,0.7401177565749633, ,0.41403236668639415, ,0.07499846941899145
71, ,PASS, ,0.07841152000000001, ,0.011786395251043724, ,0.02206467479594294, ,0.0009367503595454393, ,1.9166666666666667, ,0.7382340329564052, ,0.4133589110426318, ,0.07012101793840941
72, ,PASS, ,0.078869905, ,0.011840718425555157, ,0.022328411289769597, ,0.0009463857577318292, ,1.9166666666666667, ,0.7393202232889926, ,0.41348135752331583, ,0.0721822003632579
73, ,PASS, ,0.07872326000000002, ,0.01187090045758472, ,0.02250684289775719, ,0.0009469478274043097, ,1.9166666666666667, ,0.7406025139132784, ,0.4184608477378013, ,0.07305973347482704
74, ,PASS, ,0.07854846900000002, ,0.011842125729783005, ,0.022261470428542273, ,0.0009428199465032626, ,1.9166666666666667, ,0.7399783636936934, ,0.4130527948409216, ,0.07232505459072264
75, ,PASS, ,0.07877419900000002, ,0.011836160162520384, ,0.02233493748745944, ,0.0009450209336916163, ,1.8333333333333333, ,0.7385553818066579, ,0.4150731617722087, ,0.07442705250913247
76, ,PASS, ,0.07902950900000003, ,0.011827923463383024, ,0.022389020895369482, ,0.0009471817739964105, ,1.8333333333333333, ,0.7370745648707535, ,0.41521601599967345, ,0.07332503418297585
77, ,PASS, ,0.07893806, ,0.011868627949357311, ,0.02216842980747332, ,0.0009496914735588469, ,1.9166666666666667, ,0.7384954700944788, ,0.41272627089243075, ,0.07008020244484807
78, ,PASS, ,0.07922364000000001, ,0.011911515176993176, ,0.022447659445480706, ,0.0009564710482265761, ,1.9166666666666667, ,0.7397291639572159, ,0.4176037223730128, ,0.07197812289545111
79, ,PASS, ,0.07896909000000002, ,0.01183254500744571, ,0.022274529963898698, ,0.0009470785544558893, ,1.8333333333333333, ,0.7372393105758023, ,0.41490989979796333, ,0.07387604334605416
80, ,PASS, ,0.07956023000000001, ,0.01200542692361412, ,0.02218712244827657, ,0.0009682995782555285, ,1.9166666666666667, ,0.739809759729811, ,0.412522193424624, ,0.07118222077100467
81, ,PASS, ,0.08011196000000001, ,0.012032412609296293, ,0.02217845759727353, ,0.0009765638608164719, ,1.8333333333333333, ,0.7383758523295775, ,0.4151547927593314, ,0.07346788841044061
82, ,PASS, ,0.08006147999999999, ,0.01208214720528403, ,0.022157701632436074, ,0.0009800908352361666, ,1.8333333333333333, ,0.7392767115905152, ,0.41495071529152466, ,0.07132507499846942
83, ,PASS, ,0.08028382000000002, ,0.012152909634291439, ,0.021960832400397954, ,0.000988728467666033, ,1.9166666666666667, ,0.7413139530326536, ,0.4128895328666762, ,0.07669231240178771
84, ,PASS, ,0.08078089000000005, ,0.012191287759958529, ,0.022054276854737664, ,0.000997907809271358, ,1.8333333333333333, ,0.7388293287302498, ,0.4143180751413236, ,0.07442705250913247
85, ,PASS, ,0.08083773000000004, ,0.0121878658204564, ,0.021870795040672644, ,0.0009986296952295367, ,1.9166666666666667, ,0.7410379648813191, ,0.41290994061345687, ,0.07232505459072264
86, ,PASS, ,0.08070967000000004, ,0.012172164431146285, ,0.021898484449929596, ,0.0009954447431647678, ,1.8333333333333333, ,0.7390568276027191, ,0.41227730046325584, ,0.07259035529887145
87, ,PASS, ,0.08239643000000002, ,0.011646258037655398, ,0.02503593224642355, ,0.0009730050700408987, ,2.0, ,0.7243119734184574, ,0.4477051488745128, ,0.07087610456929451
88, ,PASS, ,0.08108689000000004, ,0.0122143754733059, ,0.022260923358927372, ,0.0010035170333651908, ,1.8333333333333333, ,0.7404317527371941, ,0.4147058223301565, ,0.07510050815289483
89, ,PASS, ,0.08134098000000002, ,0.012229343237182957, ,0.02199602043094835, ,0.0010079816919390254, ,1.8333333333333333, ,0.7388010963920161, ,0.4153996857206996, ,0.0718964919083284
90, ,PASS, ,0.08165264000000003, ,0.012063575942650647, ,0.023262709296708234, ,0.0009972141441115057, ,1.8333333333333333, ,0.7327173271937191, ,0.4295422542397094, ,0.07461072223015856
91, ,PASS, ,0.08236233000000004, ,0.01161647439647713, ,0.024762392441623645, ,0.0009696974286886743, ,2.0, ,0.7239785467993437, ,0.4450113262994633, ,0.07138629823881146
92, ,PASS, ,0.08194349000000005, ,0.011693344129880205, ,0.024189501588600237, ,0.0009719675397801943, ,1.8333333333333333, ,0.7317171694150943, ,0.4346441909348789, ,0.0731005489683884
93, ,PASS, ,0.08231280000000005, ,0.01167803647788922, ,0.02434907519240424, ,0.0009744838735713834, ,1.8333333333333333, ,0.7255957875496465, ,0.4396236811493643, ,0.07232505459072264
94, ,PASS, ,0.08199984000000003, ,0.011676547396912729, ,0.024132746837064553, ,0.0009706002609918392, ,1.8333333333333333, ,0.7266795370478141, ,0.4375012754841738, ,0.07110058978388197
95, ,PASS, ,0.08155878000000004, ,0.011637390214935943, ,0.024289325166200693, ,0.0009622625770043822, ,1.8333333333333333, ,0.7281731904809036, ,0.43733801350992835, ,0.07497806167221077
96, ,PASS, ,0.08203831000000004, ,0.011731634847341256, ,0.023973786652803006, ,0.0009755618977035543, ,1.8333333333333333, ,0.7299958218652883, ,0.43497071488336975, ,0.07693720536315585
97, ,PASS, ,0.08176848000000002, ,0.011667559961161108, ,0.024340893818636355, ,0.000967124865338977, ,1.8333333333333333, ,0.7277652331101422, ,0.43868492479745314, ,0.07238627783106467
98, ,PASS, ,0.011330300000000005, ,0.00035533957306117266, ,0.02790321571396502, ,4.389270575517784e-06, ,0.5833333333333334, ,0.25707072974481116, ,0.6185383971755678, ,0.011469153690741005
99, ,PASS, ,0.08151636000000005, ,0.011729430035347, ,0.0238956117974123, ,0.0009683595006279881, ,1.8333333333333333, ,0.7304790790513974, ,0.43405236627823923, ,0.0712434440113467
100, ,PASS, ,0.08157526000000005, ,0.011618878736737025, ,0.02384581838142079, ,0.0009604969921176336, ,1.8333333333333333, ,0.7267549498287067, ,0.43541968531254466, ,0.0731005489683884
101, ,PASS, ,0.08268457000000001, ,0.012041854620586535, ,0.023171421389645112, ,0.001006545333829991, ,1.8333333333333333, ,0.7318044134450857, ,0.4267668006775372, ,0.07256994755209077
102, ,PASS, ,0.12563970000000002, ,0.01967133647459512, ,0.020570222502397914, ,0.0024920198029403855, ,1.9166666666666667, ,0.74192214139979, ,0.4338482888104324, ,0.06283545233770739
103, ,PASS, ,0.15455005999999996, ,0.02433477463275539, ,0.01840240914103794, ,0.0037899430555484014, ,1.75, ,0.7377282499977864, ,0.433113609926328, ,0.06479459602865248
104, ,PASS, ,0.077877293, ,0.011084596412707023, ,0.02373904466498643, ,0.0008734295522758262, ,1.8333333333333333, ,0.7254382402694073, ,0.4280320809779392, ,0.06436603334625823
105, ,PASS, ,0.07604389199999999, ,0.010669574993126495, ,0.02450989715442542, ,0.0008218998023775017, ,1.8333333333333333, ,0.719094780273994, ,0.434256443746046, ,0.06308034529907552
106, ,PASS, ,0.075951532, ,0.010700644819349462, ,0.024088346637109445, ,0.0008233940409951974, ,1.8333333333333333, ,0.7244970604232472, ,0.4305014183384013, ,0.06648843901144874
107, ,PASS, ,0.07650780599999998, ,0.010764462819632755, ,0.024016813847472503, ,0.0008340205438986037, ,1.8333333333333333, ,0.7233027895327261, ,0.4309095732740148, ,0.06557009040631824
108, ,PASS, ,0.07645374099999999, ,0.010862526391470815, ,0.023929845421419974, ,0.0008406717403933294, ,1.8333333333333333, ,0.7258609344869565, ,0.42946062325258666, ,0.06783535029897349
109, ,PASS, ,0.07667067100000001, ,0.010960535562827218, ,0.023955773559417155, ,0.0008505108979486584, ,1.8333333333333333, ,0.7260257264966741, ,0.4297259239607355, ,0.06895777637191078
110, ,PASS, ,0.07650034599999998, ,0.011004021263629265, ,0.02350550227515765, ,0.0008513778843027961, ,1.9166666666666667, ,0.729066550045569, ,0.424623987265566, ,0.06867206791698129
111, ,PASS, ,0.07685595099999998, ,0.01096664188245049, ,0.023743225818554727, ,0.0008530622120178026, ,1.8333333333333333, ,0.7267726915703597, ,0.42988918593498093, ,0.06744760311014061
112, ,PASS, ,0.07687529199999997, ,0.011008417129492633, ,0.02385983013342585, ,0.0008565127129820377, ,1.8333333333333333, ,0.7276002154250342, ,0.4292565457847799, ,0.06985571723026061
113, ,PASS, ,0.07686866399999999, ,0.011111182666117464, ,0.023695976370686316, ,0.0008644007244584239, ,1.8333333333333333, ,0.7291218126070663, ,0.4285422746474562, ,0.06901899961225282
114, ,PASS, ,0.07701687799999997, ,0.011080644940009338, ,0.0236093255640089, ,0.0008631888451138748, ,1.8333333333333333, ,0.7278514455458982, ,0.42652190771616905, ,0.06552927491275688
115, ,PASS, ,0.07679051199999999, ,0.01111874489317761, ,0.023569562074386236, ,0.0008635756478650279, ,1.8333333333333333, ,0.7313861101729343, ,0.4249913267076182, ,0.07036591089977756
116, ,PASS, ,0.07693719300000001, ,0.01108655095918013, ,0.023478910754270322, ,0.000862741344283755, ,1.8333333333333333, ,0.7295714611588736, ,0.42486888022693414, ,0.06797820452643824
117, ,PASS, ,0.07693737299999999, ,0.01100488479215153, ,0.023981533113895635, ,0.0008568875740054085, ,1.8333333333333333, ,0.7266909500455354, ,0.4302769331238138, ,0.06965163976245382
118, ,PASS, ,0.076645886, ,0.010962731696287711, ,0.023715657982939124, ,0.0008499984056247577, ,1.8333333333333333, ,0.7265309293386992, ,0.427603518295545, ,0.0673659721230179
119, ,PASS, ,0.07637952899999999, ,0.010832320337195568, ,0.023832844962266075, ,0.0008372675376991059, ,1.8333333333333333, ,0.7236421475499901, ,0.4276443337891063, ,0.06571294463378298
120, ,PASS, ,0.07595647, ,0.010945360840325756, ,0.02332998702855044, ,0.0008413509095556829, ,1.9166666666666667, ,0.7279243154294752, ,0.4218281259566131, ,0.06516193547070467
121, ,PASS, ,0.07597149000000002, ,0.010913096424875814, ,0.023516460372808717, ,0.0008386587941206099, ,1.9166666666666667, ,0.7273828725765222, ,0.42362400767331276, ,0.06724352564233382
122, ,PASS, ,0.075476628, ,0.010942383470265991, ,0.02293769665455807, ,0.0008375141871200927, ,1.8333333333333333, ,0.7338833100993359, ,0.41493030754474397, ,0.06989653272382196
123, ,PASS, ,0.07563366099999999, ,0.010953201494073788, ,0.02311529863055856, ,0.0008394816633475683, ,1.8333333333333333, ,0.7307978572395826, ,0.4193587885961511, ,0.06905981510581417
124, ,PASS, ,0.07515108800000002, ,0.010854142380998372, ,0.023573486851349974, ,0.0008252242207791387, ,1.9166666666666667, ,0.7306303796375304, ,0.4229913675231118, ,0.07183526866798637
125, ,PASS, ,0.07546157, ,0.010904014279892056, ,0.023171155585620704, ,0.0008328944625028677, ,1.9166666666666667, ,0.729183865531162, ,0.42039958368196567, ,0.06508030448358197
126, ,PASS, ,0.07575642500000002, ,0.011069425511885252, ,0.022818304770861816, ,0.0008498729428777596, ,1.8333333333333333, ,0.732627473897842, ,0.41782820758760025, ,0.06765168057794739
127, ,PASS, ,0.075899588, ,0.011065029955905895, ,0.02295801108987572, ,0.0008509418055399802, ,1.8333333333333333, ,0.7321749356547376, ,0.4175833146262321, ,0.06475378053509112
128, ,PASS, ,0.07557221900000001, ,0.010996111696518733, ,0.023114163275565803, ,0.0008410701742647399, ,1.9166666666666667, ,0.7302437466606997, ,0.4202771372012816, ,0.06599865308871247
129, ,PASS, ,0.07600157900000001, ,0.01102972630124215, ,0.023457946783902367, ,0.0008479980158703525, ,1.9166666666666667, ,0.7296784556269854, ,0.42123630129997347, ,0.06685577845350095
130, ,PASS, ,0.07663803599999998, ,0.011220801819544742, ,0.023160892775861718, ,0.0008703678190935121, ,1.9166666666666667, ,0.7306984035374038, ,0.419807759025326, ,0.06538642068529214
131, ,PASS, ,0.07641447199999997, ,0.011183482058790734, ,0.023163545171976083, ,0.0008658114159175602, ,1.8333333333333333, ,0.7327735489821722, ,0.4180118773086264, ,0.06908022285259484
132, ,PASS, ,0.07652343099999998, ,0.011163023042462897, ,0.02323502621197527, ,0.0008655427394319095, ,1.8333333333333333, ,0.731508771336744, ,0.4188894104201955, ,0.06742719536335993
133, ,PASS, ,0.07657546299999998, ,0.011213413619488556, ,0.022847120532989124, ,0.000870592089063583, ,1.8333333333333333, ,0.7323968443097236, ,0.4146854145833758, ,0.06128446358237587
134, ,PASS, ,0.076400465, ,0.011214419730935442, ,0.023041459263504826, ,0.0008686692309037641, ,1.8333333333333333, ,0.7327097794691035, ,0.41607314136446194, ,0.06746801085692129
135, ,PASS, ,0.07649892099999997, ,0.011225717615972578, ,0.02295458370951613, ,0.0008703031151069321, ,1.8333333333333333, ,0.7329508904090029, ,0.4176037223730128, ,0.0689373686251301
136, ,PASS, ,0.077665137, ,0.011567606981090226, ,0.022704308470582232, ,0.0009109439037000948, ,1.8333333333333333, ,0.7387403068402753, ,0.4150323462786474, ,0.0746719454705006
137, ,PASS, ,0.07646344799999999, ,0.011157117453022036, ,0.023196994465235404, ,0.0008647307385792467, ,1.8333333333333333, ,0.731839759869868, ,0.4188690026734148, ,0.0665292545050101
138, ,PASS, ,0.07596080099999998, ,0.011113846534757015, ,0.023162233628762678, ,0.0008555677283035897, ,1.8333333333333333, ,0.7312642003358572, ,0.4195424583171772, ,0.06185588049223485
139, ,PASS, ,0.07549417, ,0.01095753181958744, ,0.023234642521703642, ,0.000838429329165147, ,1.8333333333333333, ,0.7288131060752421, ,0.4172159751841799, ,0.06522315871104671
140, ,PASS, ,0.074969017, ,0.01093921308524568, ,0.023065643554519295, ,0.000831446871396834, ,1.8333333333333333, ,0.7307121879147325, ,0.41562417093528703, ,0.06577416787412502
141, ,PASS, ,0.07504245100000001, ,0.010821318747049734, ,0.023129416238362482, ,0.0008233596118444427, ,1.8333333333333333, ,0.7285233484849628, ,0.41652211179363685, ,0.06457011081406502
142, ,PASS, ,0.07490378500000001, ,0.01085759489164536, ,0.023048638891920572, ,0.0008246929375835351, ,1.8333333333333333, ,0.7279887243548935, ,0.4145629681026918, ,0.06336605375400502
143, ,PASS, ,0.07451101500000003, ,0.010773142165660285, ,0.023434762803126466, ,0.0008134681445144295, ,1.8333333333333333, ,0.7279857526999188, ,0.4178894308279423, ,0.0666312932389135
144, ,PASS, ,0.07547810999999999, ,0.011134131619848785, ,0.022878214991265484, ,0.0008520575306850748, ,1.8333333333333333, ,0.7341736951317157, ,0.4143384828881043, ,0.06748841860370197
145, ,PASS, ,0.07475355199999999, ,0.010833952321373125, ,0.02302114350794882, ,0.0008210727780009804, ,1.8333333333333333, ,0.7285309199652016, ,0.4158282484030938, ,0.06524356645782739
146, ,PASS, ,0.07438798800000002, ,0.010802755619452086, ,0.023083634170976104, ,0.000814736131186505, ,1.8333333333333333, ,0.7284425907492176, ,0.4155425399481643, ,0.06683537070672027
147, ,PASS, ,0.074528203, ,0.010749430089110619, ,0.023068484179302462, ,0.0008122752265621175, ,1.8333333333333333, ,0.7287834099764422, ,0.4160119181241199, ,0.06887614538478806
148, ,PASS, ,0.07447106200000002, ,0.010773809082912799, ,0.023271806712393626, ,0.0008133164504849495, ,1.8333333333333333, ,0.7297001922434735, ,0.41578743290953246, ,0.06769249607150875
149, ,PASS, ,0.07446458600000003, ,0.010748523694144757, ,0.023062237085222752, ,0.0008116910144739137, ,1.8333333333333333, ,0.726938797191563, ,0.4157466174159711, ,0.06322319952654028
150, ,PASS, ,0.07469141700000002, ,0.010787457677660638, ,0.023047172403644827, ,0.0008171468573410785, ,1.8333333333333333, ,0.7284059412416429, ,0.41572620966919044, ,0.06534560519173079
151, ,PASS, ,0.07472766600000003, ,0.010799781465387162, ,0.023210325307218223, ,0.0008184810115177465, ,1.8333333333333333, ,0.7287528814839894, ,0.41607314136446194, ,0.0656925368870023
152, ,PASS, ,0.07513411200000004, ,0.010935023543780677, ,0.023145208831268752, ,0.0008326287671680238, ,1.8333333333333333, ,0.7298047078454442, ,0.41784861533438095, ,0.06895777637191078
153, ,PASS, ,0.07542784900000002, ,0.011004704689962976, ,0.023140804861186505, ,0.0008412952793853293, ,1.8333333333333333, ,0.7296037838039229, ,0.4159302871369972, ,0.06669251647925553
154, ,PASS, ,0.07533900199999999, ,0.011021746550730604, ,0.022742352918409828, ,0.0008419294711726477, ,1.8333333333333333, ,0.7317818379850118, ,0.4158282484030938, ,0.06971286300279586
155, ,PASS, ,0.07553829000000001, ,0.01106590052690148, ,0.023062977696618435, ,0.0008469883684205435, ,1.8333333333333333, ,0.7316076049838002, ,0.41617518009836535, ,0.06640680802432604
156, ,PASS, ,0.07588197099999999, ,0.011068729935342593, ,0.023168443278096362, ,0.0008510349068742253, ,1.8333333333333333, ,0.7308454898434381, ,0.4177057611069162, ,0.06563131364666028
157, ,PASS, ,0.075771364, ,0.01111487221396829, ,0.023107912949735722, ,0.0008537662206812747, ,1.8333333333333333, ,0.7318749159656722, ,0.4146445990898145, ,0.06724352564233382
158, ,PASS, ,0.075617667, ,0.011068309748446713, ,0.02328157610714067, ,0.0008480863055919122, ,1.8333333333333333, ,0.7309903515979614, ,0.41613436460480396, ,0.06785575804575417
159, ,PASS, ,0.07583442900000001, ,0.01107171609812442, ,0.022991781805983554, ,0.0008512809080824833, ,1.8333333333333333, ,0.7299178100549765, ,0.4163792575661721, ,0.06503948899002061
160, ,PASS, ,0.07566873099999999, ,0.01106785013648638, ,0.023128042322973, ,0.0008488874785755027, ,1.8333333333333333, ,0.7313099929605799, ,0.4167874125017857, ,0.0659782453419318
161, ,PASS, ,0.07569909400000001, ,0.011054712939098215, ,0.02300694659829391, ,0.0008483556923932972, ,1.8333333333333333, ,0.7311041327617835, ,0.4158690638966552, ,0.06589661435480909
162, ,PASS, ,0.07577041700000002, ,0.01113342754394357, ,0.022851849537723717, ,0.0008553135367218963, ,1.8333333333333333, ,0.7332984873477008, ,0.4157466174159711, ,0.0703250954062162
163, ,PASS, ,0.07578889800000001, ,0.011039241261157032, ,0.022933476610191628, ,0.0008480160825700971, ,1.8333333333333333, ,0.728664237068737, ,0.41280790187955346, ,0.06554968265953756
164, ,PASS, ,0.075925468, ,0.0111687140940658, ,0.022925014922511786, ,0.000859543230626543, ,1.8333333333333333, ,0.7321266753702573, ,0.41523642374645414, ,0.06485581926899452
165, ,PASS, ,0.076039689, ,0.011232781398008453, ,0.02306829460784474, ,0.0008659135637073453, ,1.8333333333333333, ,0.7330657086899559, ,0.4158690638966552, ,0.06881492214444603
166, ,PASS, ,0.07585613700000002, ,0.011174430188295443, ,0.022823960096140895, ,0.0008592039932782325, ,1.8333333333333333, ,0.7332879146681278, ,0.41448133711556906, ,0.06648843901144874
167, ,PASS, ,0.076054509, ,0.011173589020050605, ,0.022901351247954123, ,0.0008615209082813803, ,1.8333333333333333, ,0.7334171185436142, ,0.4160323258709006, ,0.07016183343197077
168, ,PASS, ,0.075421356, ,0.011047340086473708, ,0.023213820716169058, ,0.0008443408767995219, ,1.8333333333333333, ,0.7316054510133772, ,0.4167465970082243, ,0.06712107916164976
169, ,PASS, ,0.07573717800000003, ,0.011087810069739032, ,0.023084761024693375, ,0.0008514606847812385, ,1.8333333333333333, ,0.7337308815741366, ,0.41619558784514604, ,0.07001897920450603
170, ,PASS, ,0.07501335000000002, ,0.010852947753301045, ,0.023121667664659906, ,0.0008251879353389901, ,1.8333333333333333, ,0.7275701303840593, ,0.41605273361768125, ,0.06493745025611722
171, ,PASS, ,0.07501815200000002, ,0.010961367187446011, ,0.0230079445650701, ,0.0008338540223321462, ,1.8333333333333333, ,0.7298779565145359, ,0.41562417093528703, ,0.06571294463378298
172, ,PASS, ,0.07468536400000002, ,0.010822431007632196, ,0.022995840525295404, ,0.0008197511039387294, ,1.8333333333333333, ,0.7275556442397737, ,0.4159506948837779, ,0.06457011081406502
173, ,PASS, ,0.07447401600000002, ,0.010768006978589808, ,0.023291080845778658, ,0.0008128851474569824, ,1.8333333333333333, ,0.7284550284638656, ,0.4163180343258301, ,0.06599865308871247
174, ,PASS, ,0.074309552, ,0.010680730612599675, ,0.02333455178563703, ,0.0008044246057955914, ,1.8333333333333333, ,0.7255920765597608, ,0.41693026672925043, ,0.06479459602865248
175, ,PASS, ,0.07442483200000002, ,0.010739236749538271, ,0.02332828386849248, ,0.0008105152780387557, ,1.8333333333333333, ,0.7280374941018745, ,0.41588947164343587, ,0.06434562559947757
176, ,PASS, ,0.07650588099999998, ,0.011021771270944586, ,0.022997569526744355, ,0.000854668852780337, ,1.8333333333333333, ,0.7272974957490358, ,0.41644048080651414, ,0.06587620660802841
177, ,PASS, ,0.11407152999999998, ,0.01795310326174377, ,0.019573521625477028, ,0.002071346987503635, ,1.8333333333333333, ,0.7421464302205312, ,0.4171139364502765, ,0.06591702210158977
178, ,PASS, ,0.13973111, ,0.02186997787247705, ,0.017348729926940264, ,0.003088299403747593, ,1.8333333333333333, ,0.7329725153464312, ,0.4177057611069162, ,0.0611620171016918
179, ,PASS, ,0.07223478600000001, ,0.01050320239046126, ,0.02349359190034897, ,0.0007688678305527789, ,1.8333333333333333, ,0.7293841816615431, ,0.41693026672925043, ,0.06867206791698129
180, ,PASS, ,0.070733943, ,0.010240289723006451, ,0.023851140028509625, ,0.0007343616795982211, ,1.8333333333333333, ,0.7288246848959335, ,0.4158690638966552, ,0.06534560519173079
181, ,PASS, ,0.07069344499999998, ,0.010241763621884337, ,0.02353252499806126, ,0.0007340441201906806, ,1.8333333333333333, ,0.7296341116096537, ,0.4162159955919267, ,0.0633864615007857
182, ,PASS, ,0.07096007999999998, ,0.010263573322312265, ,0.023557442191526702, ,0.000738573157568962, ,1.8333333333333333, ,0.7296096905251245, ,0.4159915103773392, ,0.06430481010591621
183, ,PASS, ,0.071522458, ,0.010464531659303434, ,0.0231801481296096, ,0.0007584545046920543, ,1.8333333333333333, ,0.7315463834718342, ,0.4172363829309606, ,0.0694883777882084
184, ,PASS, ,0.071637464, ,0.01049208548680893, ,0.02330897306859044, ,0.0007617477100276515, ,1.8333333333333333, ,0.7321519582292021, ,0.4171139364502765, ,0.06710067141486908
185, ,PASS, ,0.072047072, ,0.0105735613471367, ,0.023371690238546152, ,0.0007721701363034703, ,1.8333333333333333, ,0.7339898817080585, ,0.41993020550601007, ,0.06699863268096569
186, ,PASS, ,0.07175766899999998, ,0.010557125742020858, ,0.023445469881839147, ,0.0007676372135987137, ,1.8333333333333333, ,0.7337408484911719, ,0.41739964490520604, ,0.07128425950490806
187, ,PASS, ,0.072203798, ,0.0105930145653644, ,0.023551622439888984, ,0.0007751901361631911, ,1.8333333333333333, ,0.733516386213554, ,0.4163384420726108, ,0.067549641844044
188, ,PASS, ,0.07221148399999999, ,0.010575409960401178, ,0.02307417818166976, ,0.0007741152129683437, ,1.8333333333333333, ,0.7283712371083116, ,0.41256300891818537, ,0.06022326074978061
189, ,PASS, ,0.07232899699999999, ,0.010619859075540958, ,0.023203505342564438, ,0.0007787810522226628, ,1.8333333333333333, ,0.7322094626165534, ,0.41609354911124263, ,0.06548845941919552
190, ,PASS, ,0.072237637, ,0.010631718718326622, ,0.02335794608207996, ,0.0007784282795410423, ,1.8333333333333333, ,0.7334953621572623, ,0.4155425399481643, ,0.06575376012734434
191, ,PASS, ,0.07198017300000001, ,0.010603065330872534, ,0.023471835844615416, ,0.0007733583301939188, ,1.8333333333333333, ,0.7332105160176703, ,0.41697108222281176, ,0.06997816371094467
192, ,PASS, ,0.071886037, ,0.010587014884312079, ,0.023247290401093856, ,0.0007713008909211369, ,1.8333333333333333, ,0.7341421153245357, ,0.41664455827432095, ,0.06871288341054264
193, ,PASS, ,0.071893893, ,0.01052902891791551, ,0.02330513656062121, ,0.0007670318499166499, ,1.8333333333333333, ,0.7322826844106104, ,0.41576702516275177, ,0.06783535029897349
194, ,PASS, ,0.07156899999999998, ,0.010512679603144073, ,0.023156434438072693, ,0.0007629028119634382, ,1.8333333333333333, ,0.7338826848981151, ,0.4146241913430338, ,0.07026387216587417
195, ,PASS, ,0.071522378, ,0.01045701902382956, ,0.023192810826697413, ,0.0007581002212710003, ,1.8333333333333333, ,0.7315771935975444, ,0.41660374278075957, ,0.06971286300279586
196, ,PASS, ,0.07161717600000002, ,0.01036876267343759, ,0.023434155886002325, ,0.0007524818669881671, ,1.8333333333333333, ,0.7292247560209879, ,0.4174200526519867, ,0.06724352564233382
197, ,PASS, ,0.071256268, ,0.010343401667518333, ,0.023541878461480377, ,0.0007470699237985987, ,1.8333333333333333, ,0.7304386026588598, ,0.4172159751841799, ,0.07348829615722129
198, ,PASS, ,0.07088570699999996, ,0.010253979278317974, ,0.02329823935648252, ,0.0007370406456708121, ,1.8333333333333333, ,0.7278374127622933, ,0.414991530785086, ,0.06526397420460807
199, ,PASS, ,0.07065200499999999, ,0.010198758966304804, ,0.023744440840839983, ,0.0007300997590077447, ,1.8333333333333333, ,0.7257883103937546, ,0.41744046039876737, ,0.06432521785269689
200, ,PASS, ,0.07035327299999998, ,0.010090234910422557, ,0.02359359664615008, ,0.000719708331265348, ,1.8333333333333333, ,0.7247047110194246, ,0.41652211179363685, ,0.061651803024428076
201, ,PASS, ,0.07058100299999999, ,0.010176956047817461, ,0.023630745906083547, ,0.0007281171716317107, ,1.8333333333333333, ,0.7273082444810729, ,0.4184812554845819, ,0.06530478969816943
202, ,PASS, ,0.07048282399999997, ,0.01011664740154438, ,0.023401216198771453, ,0.0007230516772546999, ,1.8333333333333333, ,0.7240732529119793, ,0.41407318217995553, ,0.05952939735923757
203, ,PASS, ,0.07074642499999999, ,0.010150425484067077, ,0.023413983375645393, ,0.000727911330887233, ,1.8333333333333333, ,0.7260841933950157, ,0.4171547519438379, ,0.06797820452643824
204, ,PASS, ,0.07050171899999995, ,0.01020139301173889, ,0.023485753307850857, ,0.0007288639105039118, ,1.8333333333333333, ,0.7276676478226292, ,0.4159915103773392, ,0.06854962143629721
205, ,PASS, ,0.07120209099999998, ,0.010210223329406543, ,0.02357964199151038, ,0.0007366609850443423, ,1.8333333333333333, ,0.7254596290237795, ,0.4180526928021877, ,0.0629170833248301
206, ,PASS, ,0.07087000799999998, ,0.010176089944707185, ,0.023512457028448397, ,0.0007310062498060301, ,1.8333333333333333, ,0.7238492672101979, ,0.4172976061713026, ,0.06246811289565519
207, ,PASS, ,0.07065368599999997, ,0.010149314624240196, ,0.023349200692108326, ,0.0007270769865397153, ,1.8333333333333333, ,0.7258519282391823, ,0.4164812963000755, ,0.06283545233770739
208, ,PASS, ,0.070702643, ,0.01019114980523178, ,0.023504492112895653, ,0.0007303706604235675, ,1.8333333333333333, ,0.7269424167520565, ,0.4163384420726108, ,0.06738637986979858
209, ,PASS, ,0.07080271499999997, ,0.010186291730718807, ,0.023535472868451663, ,0.0007310616877631515, ,1.8333333333333333, ,0.7244857406277103, ,0.41707312095671517, ,0.06487622701577518
210, ,PASS, ,0.07103643699999997, ,0.01026279456022108, ,0.02340730621473031, ,0.0007389331131747767, ,1.8333333333333333, ,0.7272301296456397, ,0.41652211179363685, ,0.0653251974449501
211, ,PASS, ,0.072037136, ,0.01058212136147814, ,0.02329456140031836, ,0.0007724623597401345, ,1.8333333333333333, ,0.7318972588409587, ,0.4171751596906186, ,0.07036591089977756
212, ,PASS, ,0.07110097800000001, ,0.01030450652919837, ,0.023647086020019997, ,0.0007424376279122028, ,1.8333333333333333, ,0.7280479813987822, ,0.4176853533601355, ,0.06781494255219281
213, ,PASS, ,0.071296498, ,0.010353860884350977, ,0.02330830117669027, ,0.0007481838730864243, ,1.8333333333333333, ,0.7288121112286378, ,0.4171139364502765, ,0.06620273055651925
214, ,PASS, ,0.07128098700000002, ,0.010389138757748292, ,0.023563196258178404, ,0.000750374338319783, ,1.8333333333333333, ,0.7297135097469472, ,0.4170527132099345, ,0.06824350523458705
215, ,PASS, ,0.071738025, ,0.010429389314770306, ,0.023450081443480746, ,0.0007582364698030044, ,1.8333333333333333, ,0.7290798510597786, ,0.41746086814554806, ,0.06926389257362095
216, ,PASS, ,0.07201405500000001, ,0.01049460603876424, ,0.02329094282381992, ,0.0007659177050865785, ,1.8333333333333333, ,0.7302622918162578, ,0.41746086814554806, ,0.06997816371094467
217, ,PASS, ,0.072035251, ,0.010498320898365082, ,0.023322914254402968, ,0.0007663009676113759, ,1.8333333333333333, ,0.7295521899550395, ,0.4175629068794514, ,0.0670802636680884
218, ,PASS, ,0.07199802899999999, ,0.010476059648243373, ,0.02340062845103161, ,0.0007641547838801372, ,1.8333333333333333, ,0.7281979129618624, ,0.4174200526519867, ,0.06659047774535214
219, ,PASS, ,0.073000045, ,0.010796303793244817, ,0.02305213862639538, ,0.000798671568859045, ,1.8333333333333333, ,0.7333721952889656, ,0.4163180343258301, ,0.06636599253076468
220, ,PASS, ,0.072123329, ,0.010441776412145028, ,0.023266655624783167, ,0.0007632521691426537, ,1.8333333333333333, ,0.7292420080460703, ,0.41744046039876737, ,0.06991694047060264
221, ,PASS, ,0.071754557, ,0.010368534083499806, ,0.02331643619609804, ,0.0007540561129493874, ,1.8333333333333333, ,0.7276133838814266, ,0.4172567906777413, ,0.06554968265953756
222, ,PASS, ,0.071576143, ,0.010409629441778043, ,0.023364350735760493, ,0.000755381101792464, ,1.8333333333333333, ,0.7285043270419486, ,0.4146445990898145, ,0.06542723617885349
223, ,PASS, ,0.07142857200000001, ,0.01037035580503816, ,0.02339569629054509, ,0.000751000566776318, ,1.8333333333333333, ,0.7273719388151524, ,0.41605273361768125, ,0.06799861227321892
224, ,PASS, ,0.07159531100000001, ,0.01032968247132476, ,0.023588921323034223, ,0.0007495651392387617, ,1.8333333333333333, ,0.7269418435565417, ,0.41774657660047754, ,0.066345584783984
225, ,PASS, ,0.071557793, ,0.010289823079297784, ,0.023458380661353848, ,0.0007460796666176669, ,1.8333333333333333, ,0.7250780397142182, ,0.4180118773086264, ,0.06381502418317994
226, ,PASS, ,0.07134130299999998, ,0.01033576269359582, ,0.023223565063774206, ,0.0007475935422852726, ,1.8333333333333333, ,0.7276367059670045, ,0.4151752005061121, ,0.06765168057794739
227, ,PASS, ,0.07132302599999998, ,0.010364851176234873, ,0.02347178534915614, ,0.0007490847879395356, ,1.8333333333333333, ,0.7275793473636059, ,0.41703230546315384, ,0.06901899961225282
228, ,PASS, ,0.07145734899999999, ,0.01030712835745853, ,0.023227529232178933, ,0.0007464131121751553, ,1.8333333333333333, ,0.7255502937763165, ,0.41707312095671517, ,0.0655088671659762
229, ,PASS, ,0.07154434199999998, ,0.010276788439681725, ,0.02347414826807616, ,0.0007451268771991234, ,1.8333333333333333, ,0.7260040870459624, ,0.41693026672925043, ,0.0659782453419318
230, ,PASS, ,0.07092122699999999, ,0.010270774492085579, ,0.023437287340605295, ,0.0007382599030669098, ,1.8333333333333333, ,0.7256036656384804, ,0.4171343441970572, ,0.07036591089977756
231, ,PASS, ,0.07075207799999997, ,0.010225250452756593, ,0.023494420773616864, ,0.0007331115752882791, ,1.8333333333333333, ,0.7282198439805551, ,0.41811391604252973, ,0.06389665517030264
232, ,PASS, ,0.07086860899999997, ,0.010263737093971157, ,0.023403264468827165, ,0.0007372067327324904, ,1.8333333333333333, ,0.726048581274397, ,0.4169506744760311, ,0.06352931572825045
233, ,PASS, ,0.07095279999999998, ,0.010262567054794626, ,0.02367246693283811, ,0.000737966750111264, ,1.8333333333333333, ,0.7257779444815639, ,0.41662415052754026, ,0.06493745025611722
234, ,PASS, ,0.07068262599999996, ,0.010252110592573463, ,0.023397376528193303, ,0.0007345704033631085, ,1.8333333333333333, ,0.7254325254586071, ,0.41607314136446194, ,0.06605987632905451
235, ,PASS, ,0.071001642, ,0.010288476166764142, ,0.023591214994449092, ,0.0007402644852233024, ,1.8333333333333333, ,0.7269517082175628, ,0.4167465970082243, ,0.06781494255219281
236, ,PASS, ,0.07143635300000001, ,0.010295271382708953, ,0.023350680171710783, ,0.0007455436281418176, ,1.8333333333333333, ,0.7259351397099949, ,0.4168486357421277, ,0.06697822493418501
237, ,PASS, ,0.07143725800000002, ,0.010313117515409467, ,0.023484884228158608, ,0.0007466661199866546, ,1.8333333333333333, ,0.7255467139019283, ,0.4171139364502765, ,0.06752923409726332
238, ,PASS, ,0.07103820699999999, ,0.010244452744100435, ,0.02362461439460419, ,0.0007375246156317354, ,1.8333333333333333, ,0.7262248355007308, ,0.41737923715842534, ,0.06867206791698129
239, ,PASS, ,0.07130873299999997, ,0.010200176468517742, ,0.023372001504601947, ,0.0007369241533557245, ,1.8333333333333333, ,0.7225022236156754, ,0.4180731005489684, ,0.06471296504152976
240, ,PASS, ,0.07127683900000001, ,0.010155354817157626, ,0.023715231187159447, ,0.0007326294488005524, ,1.9166666666666667, ,0.7228010581427758, ,0.41990979775922943, ,0.0655088671659762
241, ,PASS, ,0.071340959, ,0.010241093288053227, ,0.023399104714781332, ,0.0007404699590732824, ,1.8333333333333333, ,0.7238783148818342, ,0.4171343441970572, ,0.06457011081406502
242, ,PASS, ,0.07107240499999998, ,0.010231438861792959, ,0.02353990433809514, ,0.000736883121963538, ,1.8333333333333333, ,0.7253074427817147, ,0.4171343441970572, ,0.06981490173669926
243, ,PASS, ,0.07112939499999997, ,0.010233503793201162, ,0.023317607204036653, ,0.0007380079518458559, ,1.8333333333333333, ,0.7259825092113386, ,0.4163180343258301, ,0.06489663476255586
244, ,PASS, ,0.071657175, ,0.010285041167294359, ,0.023555510567947593, ,0.0007467534963347802, ,1.8333333333333333, ,0.7243820861462944, ,0.4178690230811616, ,0.0655088671659762
245, ,PASS, ,0.07170771299999999, ,0.0103405921846748, ,0.02326982253347891, ,0.0007517751308285142, ,1.8333333333333333, ,0.7259944311255604, ,0.41660374278075957, ,0.0672639333891145
246, ,PASS, ,0.07180343600000001, ,0.01026668541060537, ,0.023677180880818757, ,0.0007460787475692971, ,1.9166666666666667, ,0.7220027653738744, ,0.4202771372012816, ,0.06314156853941756
247, ,PASS, ,0.07180006300000001, ,0.010339611973365956, ,0.023708046029958574, ,0.0007511023854819259, ,1.9166666666666667, ,0.7262303411610869, ,0.4206240688965531, ,0.0681006510071223
248, ,PASS, ,0.071712617, ,0.010279988144396242, ,0.023664847180118773, ,0.0007459015970712979, ,1.9166666666666667, ,0.7239976522339766, ,0.4206240688965531, ,0.06548845941919552
249, ,PASS, ,0.071825626, ,0.010347538899391405, ,0.023570186774514803, ,0.0007528522328275827, ,1.8333333333333333, ,0.7253951376529709, ,0.418542478724924, ,0.06816187424746434
250, ,PASS, ,0.07197710799999998, ,0.010114048280124003, ,0.023129694458337582, ,0.0007373836340928323, ,1.9166666666666667, ,0.7230728010994248, ,0.42021591396093955, ,0.06573335238056366
251, ,PASS, ,0.07318339799999998, ,0.010632226160633985, ,0.02355200140948144, ,0.0007871769800079199, ,1.9166666666666667, ,0.7268777631883325, ,0.4201546907205975, ,0.06418236362523214
252, ,PASS, ,0.11613025, ,0.018067275608531042, ,0.019479936560682434, ,0.0021172718522067943, ,1.8333333333333333, ,0.7342991928460031, ,0.42117507805963145, ,0.06152935654374401
253, ,PASS, ,0.15666749, ,0.024083274191068035, ,0.01600477089855309, ,0.0038100357239415697, ,1.8333333333333333, ,0.7165118315408555, ,0.41860370196526603, ,0.06030489173690333
254, ,PASS, ,0.09813597000000002, ,0.015083047563009676, ,0.020620991078549422, ,0.0014940639630351938, ,1.8333333333333333, ,0.716496991059498, ,0.4188281871798535, ,0.06250892838921655
255, ,PASS, ,0.09623219000000004, ,0.01473312620717775, ,0.020881685947103122, ,0.0014308653006531217, ,1.8333333333333333, ,0.7152326165974342, ,0.4197261280382033, ,0.06157017203730536
