Channel, ,Pass/Fail, ,Amplitude, ,Sorting Function Response, ,Mean, ,Variance, ,NPeaksRatio, ,PosIntegralRatio, ,ToT50, ,ToT99
68, ,PASS, ,0.007476400000000001, ,0.0008207220864861288, ,0.03896137940123671, ,6.102209574830354e-06, ,1.6666666666666667, ,0.6151526534279238, ,0.5925389277769841, ,0.014754800922430155
69, ,PASS, ,0.01573059999999998, ,0.0018341994736743583, ,0.039342291592212406, ,2.879143355275698e-05, ,1.6666666666666667, ,0.6386764102377568, ,0.5887839023693394, ,0.022897491887920656
70, ,PASS, ,0.01766905000000001, ,0.002155233521222594, ,0.039479757749433686, ,3.803734258536337e-05, ,1.75, ,0.6579802512035464, ,0.5881308544723577, ,0.017713924205628458
71, ,PASS, ,0.012222379999999998, ,0.0012879078918317404, ,0.039201446579253486, ,1.5627473838287087e-05, ,1.5, ,0.5906153856677894, ,0.5813758902879533, ,0.019162874227056592
72, ,PASS, ,0.00814461000000001, ,0.0012622744959677904, ,0.03932175123711761, ,1.0470303216962363e-05, ,2.0, ,0.8087819269308454, ,0.6157629436133957, ,0.09750821411807922
73, ,PASS, ,0.02226361000000003, ,0.0036935478730052954, ,0.04086123607803923, ,8.32517500133712e-05, ,1.8333333333333333, ,0.8220815134941005, ,0.6075182139140017, ,0.1446297014346646
74, ,PASS, ,0.02608726000000001, ,0.004301118586664667, ,0.04097739525070917, ,0.00011355798420282664, ,1.8333333333333333, ,0.8176569929521753, ,0.60686516601702, ,0.13169118997571477
75, ,PASS, ,0.014030700000000007, ,0.0022990123555808317, ,0.04002462565396624, ,3.2621405247494536e-05, ,1.9166666666666667, ,0.8128556739548096, ,0.6089671639354299, ,0.0952225464786433
76, ,PASS, ,0.009035850000000012, ,0.0013684599848655208, ,0.039524199246545995, ,1.2610715032467337e-05, ,2.0, ,0.7979934328841528, ,0.6203955021326095, ,0.04352972388318606
77, ,PASS, ,0.021835900000000023, ,0.0036344735179282663, ,0.04072888274218894, ,8.045492124072994e-05, ,1.9166666666666667, ,0.8233298655058395, ,0.609089610416114, ,0.1396298034733985
78, ,PASS, ,0.025051279999999974, ,0.0041324078961525075, ,0.04101463878900431, ,0.00010490099978584431, ,1.8333333333333333, ,0.8205226273045264, ,0.607252913205853, ,0.1348135752331585
79, ,PASS, ,0.013594730000000006, ,0.0022787717045958545, ,0.04006114613395645, ,3.1329963541249004e-05, ,1.9166666666666667, ,0.8240041406580833, ,0.6055182547294953, ,0.13707883512581376
80, ,PASS, ,0.00918914000000002, ,0.0014980505840086692, ,0.03949164290892023, ,1.4007789255514807e-05, ,2.0, ,0.8159293558520739, ,0.6162527295361319, ,0.0472847492908308
81, ,PASS, ,0.02007485000000002, ,0.0033891448584879927, ,0.040621002051998936, ,6.909691456269232e-05, ,2.0, ,0.8347374108859211, ,0.6115997632701373, ,0.12963000755086632
82, ,PASS, ,0.022510670000000035, ,0.0037969653277919327, ,0.040934366643741976, ,8.671982337968035e-05, ,1.9166666666666667, ,0.8325780721744951, ,0.6070692434848268, ,0.10791616497622497
83, ,PASS, ,0.012116080000000008, ,0.0020545374112434446, ,0.039804360791208346, ,2.524813918229089e-05, ,2.0, ,0.8304422000374209, ,0.6117834329911634, ,0.06759045733760535
84, ,PASS, ,0.008782329999999998, ,0.0011568870763173887, ,0.0395989398695945, ,1.039032852590165e-05, ,1.8333333333333333, ,0.733552821595656, ,0.6192118528193302, ,0.028040244076651497
85, ,PASS, ,0.018260259999999987, ,0.0026867036648790376, ,0.04045749100038775, ,5.0112041972035647e-05, ,2.0, ,0.7904703692792016, ,0.6187220668965939, ,0.06426399461235485
86, ,PASS, ,0.02011502000000001, ,0.0030008486909045536, ,0.040585950900593866, ,6.170844752157896e-05, ,2.0, ,0.7963309392472407, ,0.6165996612314034, ,0.09230423868900635
87, ,PASS, ,0.011832569999999994, ,0.0017664058226501212, ,0.039851652637701275, ,2.1354622559791546e-05, ,2.0, ,0.7980997172493864, ,0.6196404155017244, ,0.038713495642946065
88, ,PASS, ,0.007455890000000014, ,0.000986241819815486, ,0.03948398849329606, ,7.532222016505627e-06, ,1.8333333333333333, ,0.7522593384080456, ,0.6196812309952858, ,0.05171323034223791
89, ,PASS, ,0.01721218, ,0.0025740840503103357, ,0.04042394603967266, ,4.531097230719331e-05, ,2.0, ,0.7991789982185448, ,0.6151303034631946, ,0.09093691965470092
90, ,PASS, ,0.019421220000000003, ,0.002874222078797022, ,0.04062540793330748, ,5.7041087167664896e-05, ,2.0, ,0.7891206587201942, ,0.6164159915103773, ,0.07305973347482704
91, ,PASS, ,0.011353309999999998, ,0.001719049051602166, ,0.039694223605640705, ,1.9934308493373326e-05, ,2.0, ,0.8035375380850321, ,0.6187424746433746, ,0.09830411624252566
