Channel, ,Pass/Fail, ,Amplitude, ,Sorting Function Response, ,Mean, ,Variance, ,NPeaksRatio, ,PosIntegralRatio, ,ToT50, ,ToT99
42, ,PASS, ,0.006618829999999999, ,0.0008054872025780196, ,0.03533637135344176, ,5.488530613175744e-06, ,1.8333333333333333, ,0.7001354856383851, ,0.5549478582069753, ,0.0230403461153854
43, ,PASS, ,0.008689660000000002, ,0.0011908281241722863, ,0.03526102361584458, ,1.0544955759023834e-05, ,1.8333333333333333, ,0.7539127779654045, ,0.5531723842370564, ,0.032550356115181325
44, ,PASS, ,0.008299169999999991, ,0.001170021044065224, ,0.0353655860266117, ,9.882043434355004e-06, ,1.8333333333333333, ,0.7596871636909919, ,0.550213260953858, ,0.03697883716658844
45, ,PASS, ,0.00842805, ,0.0011473746300243656, ,0.03542293024713781, ,9.848663122671037e-06, ,1.8333333333333333, ,0.7619506788718529, ,0.5514581335074794, ,0.06177424950511214
46, ,PASS, ,0.008463139999999997, ,0.001143321681603461, ,0.035470621652415255, ,9.870420440338437e-06, ,1.8333333333333333, ,0.7477945221781347, ,0.5521928123915838, ,0.03610130405501929
47, ,PASS, ,0.008527829999999986, ,0.0011706230648739456, ,0.035419834792555255, ,1.017220516736233e-05, ,1.8333333333333333, ,0.7498979954017642, ,0.5522744433787066, ,0.02591783841146099
48, ,PASS, ,0.008321860000000004, ,0.0011217343654472516, ,0.03541450235403359, ,9.4972970559969e-06, ,1.8333333333333333, ,0.7454135896600098, ,0.5471316911899757, ,0.03289728781045285
49, ,PASS, ,0.008751909999999984, ,0.0011822447775173997, ,0.035456573251770374, ,1.0540358314014207e-05, ,1.8333333333333333, ,0.7447430042051648, ,0.5519887349237771, ,0.030672843411358952
50, ,PASS, ,0.008909109999999991, ,0.0011759605687896482, ,0.03537358242301178, ,1.066676377757342e-05, ,1.75, ,0.7301455900428742, ,0.5494377665761924, ,0.03477480051427522
51, ,PASS, ,0.008465239999999988, ,0.0011735483764345738, ,0.035400521282830964, ,1.0113941858794696e-05, ,1.8333333333333333, ,0.7601702054990133, ,0.5504989694087876, ,0.04018285341115487
52, ,PASS, ,0.008450009999999997, ,0.0011754508812874401, ,0.03527940005714169, ,1.0089234019450588e-05, ,1.8333333333333333, ,0.7429369370636142, ,0.5471316911899757, ,0.0389583886043142
53, ,PASS, ,0.008415829999999985, ,0.0011575330300086476, ,0.03525893434256444, ,9.897545902412344e-06, ,1.9166666666666667, ,0.7537796950860772, ,0.5464582355462133, ,0.052325462745658254
54, ,PASS, ,0.008500799999999989, ,0.0011618866525207273, ,0.03537457123119936, ,1.004905728198605e-05, ,1.8333333333333333, ,0.7478989813034371, ,0.5514377257606987, ,0.0450603048917369
55, ,PASS, ,0.008324680000000001, ,0.0012093151064569705, ,0.03542371908756964, ,1.0219493585199475e-05, ,1.8333333333333333, ,0.7725616646300087, ,0.5474786228852473, ,0.06934552356074365
56, ,PASS, ,0.008178430000000014, ,0.0012149088351057931, ,0.03560779143997061, ,1.0094219797721487e-05, ,1.8333333333333333, ,0.7851859142458003, ,0.5479888165547642, ,0.0846717413930328
57, ,PASS, ,0.008569619999999986, ,0.001214964288298296, ,0.03537347664272158, ,1.0579785833301246e-05, ,1.8333333333333333, ,0.7554028809342956, ,0.5495398053100957, ,0.03730536111507928
58, ,PASS, ,0.00848413999999999, ,0.0011747535074903112, ,0.03539595300769372, ,1.0122777410356292e-05, ,1.9166666666666667, ,0.7516135390132737, ,0.5473561764045631, ,0.05130507540662436
59, ,PASS, ,0.008487450000000004, ,0.0012220924765628063, ,0.03545316976878023, ,1.0536186714656428e-05, ,1.8333333333333333, ,0.7701456442608176, ,0.5491112426277015, ,0.08391665476214771
60, ,PASS, ,0.008852199999999984, ,0.0012332631372321805, ,0.035366107170465906, ,1.1100493674121018e-05, ,1.8333333333333333, ,0.7548825572653235, ,0.5487439031856493, ,0.03626456602926471
61, ,PASS, ,0.00860984, ,0.0012324437682035263, ,0.03553958156670271, ,1.0747139316623127e-05, ,1.8333333333333333, ,0.7466777687024919, ,0.5444990918552682, ,0.052284647252096896
62, ,PASS, ,0.008606579999999992, ,0.0012274324732321903, ,0.0353635302336687, ,1.0748854802497788e-05, ,1.8333333333333333, ,0.7681946550014247, ,0.5510703863186466, ,0.0646721495479684
63, ,PASS, ,0.00877937999999999, ,0.0012405666838462147, ,0.035541151602620356, ,1.1070308525289662e-05, ,1.8333333333333333, ,0.7622706341710795, ,0.5492540968551662, ,0.04508071263851758
64, ,PASS, ,0.008559829999999994, ,0.0012485380059286532, ,0.03540944008754923, ,1.086111446597276e-05, ,1.9166666666666667, ,0.7523500488186994, ,0.5446215383359523, ,0.04569294504193792
65, ,PASS, ,0.008897859999999983, ,0.0012567936568025643, ,0.035332614898879615, ,1.135765943725699e-05, ,1.8333333333333333, ,0.7545340438477753, ,0.5493357278422889, ,0.027795351115283362
66, ,PASS, ,0.008575269999999996, ,0.0012459847341779583, ,0.035443694280116726, ,1.0829648995993645e-05, ,1.8333333333333333, ,0.7722876236676817, ,0.5484786024775005, ,0.04603987673720945
67, ,PASS, ,0.008866069999999976, ,0.0012372479010686263, ,0.03539560006999857, ,1.1145550887206423e-05, ,1.8333333333333333, ,0.7581481565081077, ,0.5486214567049652, ,0.04381543233811555
68, ,PASS, ,0.008769629999999994, ,0.0012251758059374938, ,0.035507157724332154, ,1.092572241183829e-05, ,1.8333333333333333, ,0.747876552117165, ,0.550723454623375, ,0.033897267402706065
69, ,PASS, ,0.00857372000000001, ,0.001250662588083673, ,0.03531636326952511, ,1.0902477468930784e-05, ,1.8333333333333333, ,0.7506868964413056, ,0.5432950347952082, ,0.056366196608232486
70, ,PASS, ,0.008756209999999993, ,0.0012725002273191073, ,0.03521691598028612, ,1.1316941397948266e-05, ,1.8333333333333333, ,0.775907030525561, ,0.5486622721985266, ,0.05985592130772841
71, ,PASS, ,0.008694770000000008, ,0.0012282799298613764, ,0.0355732310940593, ,1.082086572231084e-05, ,1.8333333333333333, ,0.7424852281807044, ,0.54756025387237, ,0.04008081467725148
72, ,PASS, ,0.009027329999999986, ,0.0012836512296611944, ,0.03555868348727577, ,1.176787236646871e-05, ,1.8333333333333333, ,0.7595322634175579, ,0.5480092243015449, ,0.028938184935001325
73, ,PASS, ,0.00900015999999999, ,0.0013249087958294313, ,0.035349359032264646, ,1.209853436027933e-05, ,1.8333333333333333, ,0.7744977471607988, ,0.5477031080998347, ,0.06695781718740434
74, ,PASS, ,0.008989669999999998, ,0.0012925162340081755, ,0.03538361543397073, ,1.1800110405797549e-05, ,1.8333333333333333, ,0.7568473689802767, ,0.547621477112712, ,0.03726454562151793
75, ,PASS, ,0.009307619999999996, ,0.0013435158184864288, ,0.03543471518581253, ,1.2704559073572174e-05, ,1.8333333333333333, ,0.7620679900626324, ,0.5497030672843412, ,0.025856615171118955
76, ,PASS, ,0.009144509999999991, ,0.0013287846442199681, ,0.035432277103732576, ,1.2352390702197472e-05, ,1.8333333333333333, ,0.770956267423365, ,0.5484377869839391, ,0.04991734862553825
77, ,PASS, ,0.009299009999999983, ,0.001348571099341348, ,0.035293841544662356, ,1.2746845377080102e-05, ,1.75, ,0.7487492096812047, ,0.5457235566621089, ,0.047754127466786395
78, ,PASS, ,0.00945295999999999, ,0.0013797241932559053, ,0.035354588749617354, ,1.3226504060940279e-05, ,1.75, ,0.7717574068504246, ,0.5482133017693517, ,0.03579518785330912
79, ,PASS, ,0.00930182999999999, ,0.00135997245372021, ,0.035483895156425374, ,1.2833002422357373e-05, ,1.8333333333333333, ,0.7699445305573234, ,0.5468255749882656, ,0.06295789881839146
112, ,PASS, ,0.009595539999999996, ,0.0013769068795434025, ,0.035324262445256216, ,1.3393283578558271e-05, ,1.75, ,0.7493959638100735, ,0.5436011509969184, ,0.04314197669435318
113, ,PASS, ,0.00977931, ,0.0014437611262842155, ,0.035215073129936124, ,1.4342672392280049e-05, ,1.8333333333333333, ,0.7638811288174386, ,0.5459276341299157, ,0.06063141568539417
114, ,PASS, ,0.009858490000000001, ,0.0014493240203082775, ,0.03540184391379768, ,1.4473013005710236e-05, ,1.9166666666666667, ,0.7610009749616501, ,0.5443154221342421, ,0.04722352605048877
115, ,PASS, ,0.009475259999999985, ,0.0014114781572841424, ,0.035407197125977015, ,1.359134329856292e-05, ,1.9166666666666667, ,0.7773457775756233, ,0.5485398257178425, ,0.06152935654374401
116, ,PASS, ,0.009666619999999987, ,0.0014603841625244814, ,0.03554172663047692, ,1.4324893377844947e-05, ,1.9166666666666667, ,0.7823735977242017, ,0.5480092243015449, ,0.07752903001979551
117, ,PASS, ,0.009852300000000001, ,0.001432165210238347, ,0.035423799426542314, ,1.4299524184139714e-05, ,1.75, ,0.7650965516233671, ,0.5488459419195527, ,0.06410073263810942
118, ,PASS, ,0.010024390000000001, ,0.0014426766738992573, ,0.035285719909593685, ,1.4689354735965335e-05, ,1.75, ,0.7569332479333879, ,0.5455398869410828, ,0.03983592171588335
119, ,PASS, ,0.009729469999999976, ,0.0014186133768129615, ,0.03559515341319565, ,1.4005812783686958e-05, ,1.75, ,0.761704668108416, ,0.5463153813187486, ,0.0315503765229281
120, ,PASS, ,0.00992377999999999, ,0.001413190224833961, ,0.03547892635905389, ,1.422383403949441e-05, ,1.8333333333333333, ,0.748480477830938, ,0.5455398869410828, ,0.038713495642946065
121, ,PASS, ,0.010369770000000007, ,0.001482170343606371, ,0.035261305344380725, ,1.5541452359908923e-05, ,1.9166666666666667, ,0.7457766605270234, ,0.5450909165119079, ,0.05293769514907859
122, ,PASS, ,0.00975193000000001, ,0.0014488982190024135, ,0.03538816548009224, ,1.435963160173813e-05, ,1.8333333333333333, ,0.7789509613179941, ,0.548825534172772, ,0.06369257770249587
123, ,PASS, ,0.009846299999999999, ,0.0014053410081912147, ,0.03531999825350503, ,1.4053183528388222e-05, ,1.75, ,0.7636857632571831, ,0.5470296524560724, ,0.05740699169404706
124, ,PASS, ,0.009549770000000003, ,0.001388603401931978, ,0.035334812736882916, ,1.3446088325655024e-05, ,1.9166666666666667, ,0.7683867617379854, ,0.5465602742801168, ,0.03336666598640844
125, ,PASS, ,0.009833639999999994, ,0.0014416981086121754, ,0.0354981642278729, ,1.4380190915241284e-05, ,1.75, ,0.7655653262564275, ,0.545274586232934, ,0.024407665149690824
126, ,PASS, ,0.00975516999999998, ,0.0014082257043284891, ,0.03552130407440664, ,1.3974382858553043e-05, ,1.8333333333333333, ,0.7658439568356559, ,0.5481112630354482, ,0.03824411746699047
127, ,PASS, ,0.009792069999999993, ,0.001473691926989614, ,0.035444796115793556, ,1.4648177605562286e-05, ,1.8333333333333333, ,0.7701786923077076, ,0.5478663700740801, ,0.04638680843248097
128, ,PASS, ,0.009961489999999983, ,0.0014352314872808746, ,0.03549191300177547, ,1.4547547092628055e-05, ,1.75, ,0.7680766195565123, ,0.5491112426277015, ,0.038325748454113184
129, ,PASS, ,0.00989319999999997, ,0.0014393079783822243, ,0.03544482233505439, ,1.4459175031293163e-05, ,1.9166666666666667, ,0.7496276967892656, ,0.5445603150956103, ,0.037591069570008774
130, ,PASS, ,0.010149329999999988, ,0.0014565956103728636, ,0.03562845177567804, ,1.5043157761449022e-05, ,1.75, ,0.7575482850042867, ,0.5470092447092917, ,0.032611579355523355
131, ,PASS, ,0.010077699999999988, ,0.0014538461724265107, ,0.03562889599702047, ,1.4886124879229605e-05, ,1.8333333333333333, ,0.7678718213052708, ,0.5504989694087876, ,0.051121405685598253
132, ,PASS, ,0.010019239999999992, ,0.0014569180470791173, ,0.035449141244872556, ,1.4845702123868926e-05, ,1.8333333333333333, ,0.7773997228707396, ,0.5489071651598947, ,0.07024346441909349
133, ,PASS, ,0.010176829999999991, ,0.0014443335322913591, ,0.03559277409950817, ,1.4952562142948568e-05, ,1.8333333333333333, ,0.7571182103834936, ,0.5489887961470175, ,0.03199934695210302
134, ,PASS, ,0.009944449999999994, ,0.0014453647825449895, ,0.035599502172608724, ,1.46271893365102e-05, ,1.8333333333333333, ,0.782330633449033, ,0.551111201812208, ,0.07344748066365993
135, ,PASS, ,0.01020732999999999, ,0.001487302504167376, ,0.03547537742556274, ,1.54028893220173e-05, ,1.8333333333333333, ,0.7720563377461057, ,0.5502336687006387, ,0.07324340319585315
136, ,PASS, ,0.01019166999999999, ,0.001447400812841211, ,0.03559765100140813, ,1.4989652526069035e-05, ,1.8333333333333333, ,0.7515499617017327, ,0.5461929348380645, ,0.04416236403338707
137, ,PASS, ,0.010148639999999993, ,0.0014951555101560556, ,0.03552612524234199, ,1.544101816793947e-05, ,1.8333333333333333, ,0.7704927605165812, ,0.5510907940654273, ,0.0901206097834738
138, ,PASS, ,0.010068679999999997, ,0.0014810651870384368, ,0.035603006339054305, ,1.5153193884819719e-05, ,1.8333333333333333, ,0.7757474566020198, ,0.5514581335074794, ,0.05791718536356401
139, ,PASS, ,0.010043119999999996, ,0.0014895509966928698, ,0.03554649485418664, ,1.5196436647457114e-05, ,1.8333333333333333, ,0.7750718471443203, ,0.5479888165547642, ,0.035448256158037594
140, ,PASS, ,0.009723779999999991, ,0.0014370901895041943, ,0.035627445936001305, ,1.4213320440444091e-05, ,1.75, ,0.782448563491677, ,0.5474990306320279, ,0.08459011040591008
141, ,PASS, ,0.00978950999999998, ,0.0014260952342966544, ,0.03555276379828983, ,1.4239765235428244e-05, ,1.8333333333333333, ,0.7672392130035619, ,0.5503969306748842, ,0.05420297544948062
142, ,PASS, ,0.01004581999999999, ,0.0014701661040305632, ,0.03561007660700802, ,1.5021372595848793e-05, ,1.75, ,0.766274113889404, ,0.5468867982286075, ,0.05465194587865554
143, ,PASS, ,0.009810159999999991, ,0.001435823011499083, ,0.03561492072243423, ,1.42916525568876e-05, ,1.8333333333333333, ,0.7625750983140474, ,0.5476418848594926, ,0.04063182384032979
176, ,PASS, ,0.009804010000000009, ,0.001440266349525274, ,0.03547633625619885, ,1.4359435439003764e-05, ,1.8333333333333333, ,0.7676891873290344, ,0.5497234750311218, ,0.035897226587212505
177, ,PASS, ,0.010001559999999986, ,0.0014702622151190005, ,0.0356373878851452, ,1.4944217406545941e-05, ,1.8333333333333333, ,0.7676851247008559, ,0.5467439440011428, ,0.037121691394053184
178, ,PASS, ,0.009692609999999997, ,0.001463995618815212, ,0.035482842998306154, ,1.4392101927455739e-05, ,1.8333333333333333, ,0.7907895288991276, ,0.5485398257178425, ,0.10224281137119651
179, ,PASS, ,0.010003599999999991, ,0.001456686790940428, ,0.035592687440256315, ,1.479022728958497e-05, ,1.75, ,0.762260025615541, ,0.5464990510397747, ,0.023591355278463705
180, ,PASS, ,0.009712279999999986, ,0.0014654288158908273, ,0.03550129405583559, ,1.4412443315133494e-05, ,1.9166666666666667, ,0.7785086272010551, ,0.5451929552458114, ,0.045264382359543685
181, ,PASS, ,0.009907039999999982, ,0.001427604910967597, ,0.03560818792881778, ,1.4378202061677532e-05, ,1.8333333333333333, ,0.7682697594453004, ,0.5503561151813229, ,0.04679496336809453
182, ,PASS, ,0.009907049999999976, ,0.0014517066662333748, ,0.0355072647015367, ,1.462271595563656e-05, ,1.8333333333333333, ,0.7736780734323059, ,0.5495398053100957, ,0.0434889083896247
183, ,PASS, ,0.009979470000000008, ,0.0014204416275972543, ,0.035515830959776326, ,1.4430890051781438e-05, ,1.8333333333333333, ,0.750862610324894, ,0.5493153200955082, ,0.04601946899042877
184, ,PASS, ,0.00960736999999999, ,0.001426847022192198, ,0.03544459303014224, ,1.3948859644293411e-05, ,1.8333333333333333, ,0.7759844157462283, ,0.548315340503255, ,0.08246770474071957
185, ,PASS, ,0.010042049999999997, ,0.0014071200278586527, ,0.03565329213220138, ,1.4355137716262279e-05, ,1.8333333333333333, ,0.7515233453153455, ,0.5504989694087876, ,0.02642803208097794
186, ,PASS, ,0.009944969999999994, ,0.0014238586322765495, ,0.03552641930246321, ,1.441948988407318e-05, ,1.8333333333333333, ,0.7659059519777666, ,0.5496826595375605, ,0.04279504499908165
187, ,PASS, ,0.009807639999999982, ,0.0014483932789018578, ,0.03553350482194241, ,1.446187026121494e-05, ,1.8333333333333333, ,0.7792590162929737, ,0.5496010285504378, ,0.06485581926899452
188, ,PASS, ,0.010146969999999998, ,0.0014955367770574952, ,0.03558477177547397, ,1.544164202250277e-05, ,1.8333333333333333, ,0.7761048168878308, ,0.5498255137650252, ,0.0594069508785535
189, ,PASS, ,0.01006638999999998, ,0.0015108955985391648, ,0.035548110437133934, ,1.5482263806572892e-05, ,1.8333333333333333, ,0.7772909755479168, ,0.5489683884002368, ,0.048182690149180626
190, ,PASS, ,0.010257879999999994, ,0.0015126360590806379, ,0.03532780128772882, ,1.5789162228803596e-05, ,1.8333333333333333, ,0.7744365287952093, ,0.5499275524989286, ,0.047325564784392156
191, ,PASS, ,0.010152329999999994, ,0.0015567869582765216, ,0.03558253232627905, ,1.605477840992226e-05, ,1.8333333333333333, ,0.7879317807827999, ,0.5479275933144222, ,0.08850839778780024
192, ,PASS, ,0.011000369999999988, ,0.0016309217879868685, ,0.035473817387604335, ,1.8254024223686996e-05, ,1.8333333333333333, ,0.7833729010602243, ,0.5469480214689496, ,0.05338666557825351
193, ,PASS, ,0.017153590000000014, ,0.0030506158128816387, ,0.035697808884716645, ,5.313658804844007e-05, ,1.9166666666666667, ,0.8337090919664937, ,0.5450705087651272, ,0.13785432950347953
194, ,PASS, ,0.009556289999999988, ,0.0013512684708953469, ,0.03558673909165119, ,1.319314340987748e-05, ,1.8333333333333333, ,0.7641677211406033, ,0.5544784800310197, ,0.08018203710128365
195, ,PASS, ,0.009598569999999987, ,0.0012738873961486712, ,0.03549492367543519, ,1.249452440629759e-05, ,1.8333333333333333, ,0.7401873679219859, ,0.5555600906103957, ,0.02810146731699353
196, ,PASS, ,0.009461729999999991, ,0.0012577931563455785, ,0.035518433554009105, ,1.217277297705161e-05, ,1.8333333333333333, ,0.7444964625933345, ,0.5546009265117039, ,0.050611212016081306
197, ,PASS, ,0.009501879999999997, ,0.0012581458381755682, ,0.035492635586416604, ,1.2235604076897254e-05, ,1.8333333333333333, ,0.7469991811781028, ,0.5558457990653252, ,0.047427603518295544
198, ,PASS, ,0.009336999999999977, ,0.0012796091973020052, ,0.03552097059876329, ,1.2214305673708896e-05, ,1.8333333333333333, ,0.7615277901295332, ,0.5543560335503357, ,0.06854962143629721
199, ,PASS, ,0.00938798, ,0.0012738479152086058, ,0.035503291340584886, ,1.2231941098598919e-05, ,1.8333333333333333, ,0.7536869854517891, ,0.553641762413012, ,0.03493806248852064
200, ,PASS, ,0.009483579999999991, ,0.001246573912476449, ,0.035706333549315315, ,1.207938193561757e-05, ,1.8333333333333333, ,0.7270716238377085, ,0.5520703659108998, ,0.033734005428460646
201, ,PASS, ,0.009294249999999993, ,0.0012852840999414878, ,0.035595649302055055, ,1.220428496976239e-05, ,1.8333333333333333, ,0.7568983467189068, ,0.553641762413012, ,0.04789698169425114
202, ,PASS, ,0.009190239999999988, ,0.0012930392485372584, ,0.03564499566049672, ,1.2141762659236272e-05, ,1.8333333333333333, ,0.756620563043069, ,0.5509683475847432, ,0.05381522826064774
203, ,PASS, ,0.009358829999999992, ,0.0012369350489737324, ,0.035701788376155584, ,1.1830128655608543e-05, ,1.8333333333333333, ,0.7482518638223262, ,0.5527642293014429, ,0.048243913389522664
204, ,PASS, ,0.009580559999999998, ,0.0012778007617180729, ,0.03542285914613987, ,1.2531429532013631e-05, ,1.8333333333333333, ,0.740064956504625, ,0.5529478990224689, ,0.042448113303810125
205, ,PASS, ,0.00938925999999998, ,0.0012732892240449212, ,0.035526833808697776, ,1.2184300316937841e-05, ,1.8333333333333333, ,0.7422416873334661, ,0.5509275320911818, ,0.02591783841146099
206, ,PASS, ,0.009244519999999992, ,0.0012990845372708873, ,0.03557271587518622, ,1.2263295076933138e-05, ,1.8333333333333333, ,0.7659649729568897, ,0.5534580926919859, ,0.07765147650047959
207, ,PASS, ,0.009528670000000006, ,0.0012926697045583676, ,0.0357056514391543, ,1.259186175057916e-05, ,1.8333333333333333, ,0.7407560439868631, ,0.5526825983143201, ,0.02989734903369319
208, ,PASS, ,0.009617599999999997, ,0.0013058179811632539, ,0.03552189647864329, ,1.2839210926227646e-05, ,1.8333333333333333, ,0.7521591604633093, ,0.5549070427134141, ,0.05610089590008367
209, ,PASS, ,0.00939417000000001, ,0.0013027653353196718, ,0.035863810793249115, ,1.2497715910283701e-05, ,1.8333333333333333, ,0.7514647305509867, ,0.5518866961898736, ,0.050713250749984694
210, ,PASS, ,0.00965445999999999, ,0.001306693682131809, ,0.03563533086814555, ,1.2878963746510787e-05, ,1.8333333333333333, ,0.754578240701151, ,0.552560151833636, ,0.04514193587885962
211, ,PASS, ,0.009525089999999976, ,0.0012965466968477197, ,0.035516270849778576, ,1.2588867679868182e-05, ,1.8333333333333333, ,0.7402261249154086, ,0.5508050856104978, ,0.037080875900491826
212, ,PASS, ,0.009482589999999985, ,0.0013298719453010979, ,0.03586213796800065, ,1.285477010357502e-05, ,1.8333333333333333, ,0.7637689145790466, ,0.5516213954817248, ,0.054774392359339605
213, ,PASS, ,0.009601839999999997, ,0.0013429579776750179, ,0.03546796065978245, ,1.3169621406024448e-05, ,1.8333333333333333, ,0.7751550159351109, ,0.5525193363400747, ,0.08991653231566703
214, ,PASS, ,0.00958064999999999, ,0.0013647231517270853, ,0.0356454418422073, ,1.3326296381890514e-05, ,1.8333333333333333, ,0.7634973251014079, ,0.5504173384216648, ,0.030366727209648784
215, ,PASS, ,0.009642729999999988, ,0.0013449441320001606, ,0.03552051369972041, ,1.3284799626893983e-05, ,1.8333333333333333, ,0.7631736233574052, ,0.553519315932328, ,0.042876675986204364
216, ,PASS, ,0.010005899999999998, ,0.0013897835578127685, ,0.035624882364645616, ,1.4209922614473044e-05, ,1.8333333333333333, ,0.7495182422162525, ,0.5521928123915838, ,0.0272035264586437
217, ,PASS, ,0.009942049999999984, ,0.0014456978659247407, ,0.035709914773576046, ,1.4627985237347961e-05, ,1.8333333333333333, ,0.7616666374714106, ,0.5485398257178425, ,0.026468847574539295
218, ,PASS, ,0.010014399999999979, ,0.001405207224207957, ,0.035608149089406335, ,1.4371140209819544e-05, ,1.8333333333333333, ,0.7624763945531483, ,0.5526417828207587, ,0.07648823493398094
219, ,PASS, ,0.010265619999999986, ,0.0014135561419388269, ,0.03575448357604946, ,1.4834221046305636e-05, ,1.8333333333333333, ,0.7534429490028158, ,0.5515397644946022, ,0.041244056243750125
220, ,PASS, ,0.01032803999999998, ,0.0014463456530279344, ,0.03560971452011183, ,1.5242042661869618e-05, ,1.8333333333333333, ,0.7592704079367742, ,0.5520499581641191, ,0.044550111222219954
221, ,PASS, ,0.01054468, ,0.0014404823504148155, ,0.03557010051121405, ,1.5514034132518454e-05, ,1.8333333333333333, ,0.736222173920211, ,0.5514377257606987, ,0.030836105385604374
222, ,PASS, ,0.010094819999999984, ,0.0013991944432139782, ,0.03559720278177996, ,1.4396507510013943e-05, ,1.8333333333333333, ,0.7580152591209142, ,0.552437705352952, ,0.07685557437603315
223, ,PASS, ,0.010265309999999986, ,0.0013944703548808167, ,0.03535004134813575, ,1.4630944781775596e-05, ,1.8333333333333333, ,0.7498252191438677, ,0.5545192955245811, ,0.04130527948409216
224, ,PASS, ,0.010218069999999989, ,0.0014200957273165196, ,0.03559416844656231, ,1.4815283803071465e-05, ,1.8333333333333333, ,0.7715249044477532, ,0.5541723638293096, ,0.07205975388257382
225, ,PASS, ,0.010196699999999996, ,0.0013982002922559333, ,0.035596469421236294, ,1.4581826626027092e-05, ,1.8333333333333333, ,0.7538493016534539, ,0.5530499377563723, ,0.039611436501295894
226, ,PASS, ,0.010347980000000003, ,0.0014139909251548283, ,0.035706924783779924, ,1.4925130741032663e-05, ,1.8333333333333333, ,0.7607561059950696, ,0.5532336074773985, ,0.04871329156547825
227, ,PASS, ,0.010166629999999986, ,0.0014442817843328066, ,0.03566846159792657, ,1.4954979509143426e-05, ,1.8333333333333333, ,0.7550918899189709, ,0.5498051060182445, ,0.04595824575008673
228, ,PASS, ,0.010489089999999986, ,0.0015022939210110062, ,0.03552668658129426, ,1.603432820846876e-05, ,1.8333333333333333, ,0.7775658722675807, ,0.5525397440868554, ,0.10416113956858024
229, ,PASS, ,0.010479049999999983, ,0.0015329248402713644, ,0.03560062189465521, ,1.6380255057629384e-05, ,1.8333333333333333, ,0.768107263058086, ,0.5504377461684455, ,0.034244199097977594
230, ,PASS, ,0.010340359999999993, ,0.00149115360747713, ,0.03563239233627885, ,1.5728269988583674e-05, ,1.8333333333333333, ,0.7715108425019541, ,0.5503152996877615, ,0.07922287300259179
231, ,PASS, ,0.010373259999999981, ,0.0014881234616189864, ,0.03560898588824718, ,1.57150235535487e-05, ,1.8333333333333333, ,0.7748880587040833, ,0.551111201812208, ,0.08012081386094161
232, ,PASS, ,0.010498979999999977, ,0.001422810335669402, ,0.03555843135466623, ,1.5235954395581678e-05, ,1.8333333333333333, ,0.7486295568157894, ,0.5529478990224689, ,0.049794902144854186
233, ,PASS, ,0.010491819999999992, ,0.001602206498150449, ,0.035461421706495785, ,1.711029029646339e-05, ,1.8333333333333333, ,0.788343410583852, ,0.5503969306748842, ,0.08479418787371687
234, ,PASS, ,0.010232169999999978, ,0.0014628415179430904, ,0.03566560010979367, ,1.5276994536758246e-05, ,1.8333333333333333, ,0.7600092386979895, ,0.551927511683435, ,0.03783596253137691
235, ,PASS, ,0.010340620000000012, ,0.001463924753241133, ,0.03568633044958266, ,1.545839068237877e-05, ,1.8333333333333333, ,0.7673565356020204, ,0.5529478990224689, ,0.07422297504132569
236, ,PASS, ,0.010536859999999985, ,0.0015700448143729292, ,0.03550783616722108, ,1.6808267171867948e-05, ,1.8333333333333333, ,0.7795343554476664, ,0.5490908348809208, ,0.024979082059549806
237, ,PASS, ,0.010766290000000008, ,0.0015220384772035294, ,0.035683587322095464, ,1.670439865497819e-05, ,1.8333333333333333, ,0.7702549376944102, ,0.5528254525417848, ,0.07093732780963653
238, ,PASS, ,0.010807059999999997, ,0.0014570930877085353, ,0.03566651674598477, ,1.6135223263767724e-05, ,1.8333333333333333, ,0.7475821150642238, ,0.5541927715760903, ,0.030162649741842004
239, ,PASS, ,0.010648169999999992, ,0.0014947839897101387, ,0.035593380718760836, ,1.6241161680674765e-05, ,1.8333333333333333, ,0.7580483734392234, ,0.5527234138078815, ,0.04875410705903961
240, ,PASS, ,0.010670269999999996, ,0.0015416167646409755, ,0.03582065145894982, ,1.6736840323380183e-05, ,1.8333333333333333, ,0.7653325806152211, ,0.5514581335074794, ,0.06299871431195282
241, ,PASS, ,0.010744150000000008, ,0.0014957498153885364, ,0.0355995824046448, ,1.6413481499964073e-05, ,1.8333333333333333, ,0.7547505253984265, ,0.5523560743658292, ,0.037529846329666744
242, ,PASS, ,0.010717469999999986, ,0.0014882572394277417, ,0.035764646388032895, ,1.6306762034367614e-05, ,1.8333333333333333, ,0.7676081645216383, ,0.5533968694516438, ,0.03606048856145793
243, ,PASS, ,0.010815849999999985, ,0.0015021698665438471, ,0.035594141687720654, ,1.6598768242313877e-05, ,1.8333333333333333, ,0.7694712525125981, ,0.5555804983571764, ,0.05091732821779148
244, ,PASS, ,0.011048519999999985, ,0.0015299800302285482, ,0.03563008248852064, ,1.7273292737913925e-05, ,1.8333333333333333, ,0.7541451450926535, ,0.5546621497520459, ,0.0408971245484786
245, ,PASS, ,0.010865800000000012, ,0.001536476635573882, ,0.03572399739474704, ,1.704746226807199e-05, ,1.8333333333333333, ,0.7641924551150896, ,0.5526621905675394, ,0.055182547294953165
246, ,PASS, ,0.010530369999999997, ,0.0015097279179810393, ,0.0356609665872125, ,1.6227490329707635e-05, ,1.8333333333333333, ,0.772985541333412, ,0.5528458602885655, ,0.08665129283075855
247, ,PASS, ,0.010844769999999993, ,0.0015144582280607346, ,0.03563860672455664, ,1.680736367713888e-05, ,1.8333333333333333, ,0.7632988254191861, ,0.5550907124344401, ,0.07456990673659722
248, ,PASS, ,0.011025739999999985, ,0.0015045282914030848, ,0.03551734204118283, ,1.6969487883004246e-05, ,1.8333333333333333, ,0.7590534375686581, ,0.5563968082284035, ,0.0401624456643742
249, ,PASS, ,0.011092819999999982, ,0.0014968019241968845, ,0.035473790943246056, ,1.6997359063878565e-05, ,1.8333333333333333, ,0.7569728636827525, ,0.5547029652456072, ,0.036387012509948774
250, ,PASS, ,0.010877169999999992, ,0.0015082055777595773, ,0.035568774930511624, ,1.6780375237205825e-05, ,1.8333333333333333, ,0.7648204568151727, ,0.5530907532499336, ,0.05701924450521418
251, ,PASS, ,0.010841799999999988, ,0.0014919136265981667, ,0.035544498152894836, ,1.6513119051934668e-05, ,1.8333333333333333, ,0.758625517833746, ,0.5528050447950041, ,0.04097875553560131
252, ,PASS, ,0.010719199999999991, ,0.0015016546756491654, ,0.03551301161629354, ,1.6423078435752222e-05, ,1.8333333333333333, ,0.7658291617719416, ,0.5515805799881635, ,0.043733801350992835
253, ,PASS, ,0.010735699999999994, ,0.0015141588904897562, ,0.03550467312116079, ,1.6615527933209403e-05, ,1.8333333333333333, ,0.7631580965814968, ,0.5525397440868554, ,0.06965163976245382
254, ,PASS, ,0.010830569999999973, ,0.0015006623636981318, ,0.035561664662557904, ,1.6633693912477905e-05, ,1.8333333333333333, ,0.7652816357922871, ,0.5549886737005367, ,0.05059080426930063
255, ,PASS, ,0.01125277999999998, ,0.0015265305755342475, ,0.03563046133364625, ,1.7567164482829822e-05, ,1.8333333333333333, ,0.7455585725596853, ,0.5532948307177404, ,0.025734168690434888
