Channel, ,Pass/Fail, ,Amplitude, ,Sorting Function Response, ,Mean, ,Variance, ,NPeaksRatio, ,PosIntegralRatio, ,ToT50, ,ToT99
7, ,PASS, ,0.016889050000000006, ,0.0026099714523559335, ,0.02961618991265484, ,4.425152582459257e-05, ,1.9166666666666667, ,0.7655101704572519, ,0.5598661251811188, ,0.01806085590089998
8, ,PASS, ,0.09818365000000005, ,0.017143733731822403, ,0.042632292518969, ,0.0017064938045385635, ,1.8333333333333333, ,0.8096255673043271, ,0.5576008652884635, ,0.20815901716291504
9, ,PASS, ,0.039311833000000004, ,0.006490578687057731, ,0.03189186965919063, ,0.0002586202452940358, ,2.0, ,0.8273264751626482, ,0.5716822105671313, ,0.18752678516764965
10, ,PASS, ,0.015464970000000005, ,0.0023231388498042675, ,0.02935922913981347, ,3.611730213529667e-05, ,1.75, ,0.7422250644052708, ,0.5505806003959103, ,0.05091732821779148
11, ,PASS, ,0.015769450000000004, ,0.0022892978430731426, ,0.029345427301891797, ,3.633861847374731e-05, ,1.75, ,0.7250070693975282, ,0.5500091834860513, ,0.04499908165139487
12, ,PASS, ,0.01498315, ,0.0021526119010286775, ,0.029237076447215363, ,3.240111462144488e-05, ,1.75, ,0.7167122994287556, ,0.5495398053100957, ,0.0369176139262464
13, ,PASS, ,0.014832549999999993, ,0.0021959319143626255, ,0.02910131564151752, ,3.2737433575207206e-05, ,1.75, ,0.7393506176547382, ,0.5501724454602968, ,0.06620273055651925
14, ,PASS, ,0.015732350000000003, ,0.002281401553265668, ,0.029229460082243218, ,3.608184043799672e-05, ,1.75, ,0.7250371576145406, ,0.5503765229281035, ,0.04883573804616232
15, ,PASS, ,0.014986769999999996, ,0.0021752613321794592, ,0.02923437477051489, ,3.277504388153947e-05, ,1.75, ,0.7266754771308679, ,0.550090814473174, ,0.03946858227383115
16, ,PASS, ,0.01481250999999999, ,0.0021493439006878903, ,0.0292483535540091, ,3.202504750951683e-05, ,1.75, ,0.7191860720566361, ,0.5493153200955082, ,0.04193791963429318
17, ,PASS, ,0.014619500000000004, ,0.0021589585656487664, ,0.02914620383032999, ,3.169217841958501e-05, ,1.75, ,0.7302593818697186, ,0.550029591232832, ,0.04959082467704741
18, ,PASS, ,0.014595279999999999, ,0.002128024252513925, ,0.02929075021815881, ,3.12407837068906e-05, ,1.75, ,0.7228935417749282, ,0.5496418440439991, ,0.043672578110650805
19, ,PASS, ,0.014584199999999978, ,0.002106599369520554, ,0.02934192825085202, ,3.0910400941792334e-05, ,1.75, ,0.723070493250402, ,0.5494989898165343, ,0.042937899226546394
20, ,PASS, ,0.014486019999999981, ,0.002132805346137472, ,0.029124446521091404, ,3.102604969163473e-05, ,1.75, ,0.7320824372158015, ,0.5506826391298136, ,0.05593763392583825
21, ,PASS, ,0.014570719999999992, ,0.002099836730950569, ,0.029274495293973593, ,3.0736815592805334e-05, ,1.75, ,0.7164212489892138, ,0.5489275729066754, ,0.042468521050590805
22, ,PASS, ,0.014692080000000003, ,0.002105087240490723, ,0.02922998651741801, ,3.109243165091757e-05, ,1.8333333333333333, ,0.7177879941363423, ,0.5502336687006387, ,0.048856145792943
23, ,PASS, ,0.014419329999999987, ,0.002150824102727989, ,0.028946243784208483, ,3.115106672256965e-05, ,1.75, ,0.7411689366892165, ,0.5503969306748842, ,0.05295810289585927
24, ,PASS, ,0.014850179999999998, ,0.0020891151430772782, ,0.029418896069672042, ,3.119863151217035e-05, ,1.75, ,0.7225329632045034, ,0.5513356870267954, ,0.05171323034223791
25, ,PASS, ,0.014660799999999998, ,0.0020974033281290026, ,0.029214580266117018, ,3.088088369627183e-05, ,1.75, ,0.7126596630668713, ,0.5493561355890696, ,0.04259096753127487
26, ,PASS, ,0.01455849, ,0.0021167071042142074, ,0.029048371324666845, ,3.09250944802128e-05, ,1.75, ,0.7280606156494478, ,0.5499683679924899, ,0.05120303667272096
27, ,PASS, ,0.014632599999999985, ,0.002031555743184271, ,0.02922576474582151, ,2.9886051439757745e-05, ,1.75, ,0.7036187695069747, ,0.5492745046019469, ,0.04138691047121487
28, ,PASS, ,0.014426789999999981, ,0.002043451725794473, ,0.02914285439868574, ,2.960342075128579e-05, ,1.8333333333333333, ,0.7383598725714193, ,0.5516418032285055, ,0.04361135487030877
29, ,PASS, ,0.014390339999999988, ,0.002102926068377391, ,0.029225741815677234, ,3.0403385997787468e-05, ,1.75, ,0.7332665561051791, ,0.5508050856104978, ,0.04895818452684639
30, ,PASS, ,0.014359839999999992, ,0.0020786130383235193, ,0.029191380928144325, ,2.998255174958035e-05, ,1.8333333333333333, ,0.7283291898970333, ,0.5514989490010408, ,0.051080590192036895
31, ,PASS, ,0.014345139999999992, ,0.002086036630904193, ,0.029280493973796454, ,3.006842799967905e-05, ,1.8333333333333333, ,0.7353088326633226, ,0.5517846574559703, ,0.049835717638415544
32, ,PASS, ,0.014418350000000003, ,0.0020881997852356033, ,0.02904362526172935, ,3.021065344961082e-05, ,1.75, ,0.7298932115372971, ,0.5509479398379625, ,0.04628476969857758
33, ,PASS, ,0.014291549999999976, ,0.0020498360722278055, ,0.029060473597069446, ,2.9431170966030094e-05, ,1.75, ,0.7202389862355401, ,0.5501724454602968, ,0.041631803432583006
34, ,PASS, ,0.014588109999999994, ,0.0020428915360841075, ,0.02910228668965939, ,3.0011941762167976e-05, ,1.75, ,0.6930968557800126, ,0.5486622721985266, ,0.036325789269606744
35, ,PASS, ,0.01426512999999999, ,0.0020529814925952417, ,0.02903556175547438, ,2.945626629546715e-05, ,1.75, ,0.7184400892274764, ,0.5498663292585866, ,0.05942735862533418
36, ,PASS, ,0.014334239999999991, ,0.002023049432449163, ,0.029514463937266585, ,2.924312929921991e-05, ,1.75, ,0.7091043611996207, ,0.5512132405461113, ,0.044958266157833514
37, ,PASS, ,0.014696919999999988, ,0.0021022686101394117, ,0.029353600040611414, ,3.1064449138154354e-05, ,1.8333333333333333, ,0.7325722389804243, ,0.5526009673271974, ,0.0407134548274525
38, ,PASS, ,0.014572849999999991, ,0.002116250336251422, ,0.029262854481541194, ,3.101415391532122e-05, ,1.75, ,0.7207066095654376, ,0.5501316299667354, ,0.04881533029938165
39, ,PASS, ,0.01438546, ,0.0020705510489388615, ,0.0293184374676027, ,2.9881664754529557e-05, ,1.75, ,0.7234909620796787, ,0.5513765025203567, ,0.04138691047121487
40, ,PASS, ,0.014482339999999996, ,0.002077462047623141, ,0.029039988176159666, ,3.0231740150746023e-05, ,1.75, ,0.7209637435246645, ,0.5504377461684455, ,0.04934593171567927
41, ,PASS, ,0.014361269999999988, ,0.0021023440031744433, ,0.029011261714046655, ,3.0336867443373637e-05, ,1.75, ,0.7308059180007141, ,0.5507846778637171, ,0.04320319993469521
42, ,PASS, ,0.014472999999999986, ,0.0021104556525233784, ,0.029039447116793533, ,3.0687024531365233e-05, ,1.75, ,0.7296914076913964, ,0.5509275320911818, ,0.04463174220934266
43, ,PASS, ,0.014468349999999998, ,0.0020775518332006057, ,0.02924719367257811, ,3.016869920369889e-05, ,1.8333333333333333, ,0.7285037541049316, ,0.5521315891512418, ,0.04179506540682843
44, ,PASS, ,0.01439893, ,0.0021007201539579076, ,0.029124391828330033, ,3.038211885689723e-05, ,1.8333333333333333, ,0.7260427034154461, ,0.5515805799881635, ,0.041162425256627416
45, ,PASS, ,0.014486569999999987, ,0.0022175157931290062, ,0.029249362835860493, ,3.2311130432599776e-05, ,1.8333333333333333, ,0.7605045606684259, ,0.553702985653354, ,0.05669272055672333
46, ,PASS, ,0.014471509999999979, ,0.0021635259048871738, ,0.02893498007571274, ,3.147360794318083e-05, ,1.8333333333333333, ,0.7479391341317099, ,0.5521111814044611, ,0.05116222117915961
47, ,PASS, ,0.014358339999999987, ,0.0021015418655477365, ,0.0289925697953103, ,3.0324467939980062e-05, ,1.75, ,0.7282157597693522, ,0.5516826187220669, ,0.0421011816085386
48, ,PASS, ,0.014393030000000008, ,0.0021210641706895083, ,0.028975072030570804, ,3.0695074134080714e-05, ,1.8333333333333333, ,0.7343486746777809, ,0.5504581539152262, ,0.039101242831778946
49, ,PASS, ,0.014596179999999983, ,0.0020998076188984065, ,0.02900035451256097, ,3.078720401640285e-05, ,1.75, ,0.7248081598555971, ,0.5509275320911818, ,0.04577457602906063
50, ,PASS, ,0.01443884999999999, ,0.0021114050399318376, ,0.029033250253464215, ,3.0688836628634096e-05, ,1.75, ,0.7281452064115295, ,0.5509071243444011, ,0.05285606416195588
51, ,PASS, ,0.014545219999999994, ,0.0021149570983018933, ,0.029131159938980838, ,3.090259402838752e-05, ,1.75, ,0.7283303471389811, ,0.5511724250525499, ,0.03777473929103488
52, ,PASS, ,0.014222539999999995, ,0.0021172177350694673, ,0.028905715445194997, ,3.0261957216463137e-05, ,1.8333333333333333, ,0.7369347157002551, ,0.5511928327993306, ,0.04871329156547825
53, ,PASS, ,0.014455549999999987, ,0.002068580877978387, ,0.029112653089732866, ,3.0053121879166666e-05, ,1.75, ,0.7243530027357996, ,0.5514989490010408, ,0.042876675986204364
54, ,PASS, ,0.014551019999999987, ,0.0020714305041148293, ,0.02897498402379543, ,3.026390485511572e-05, ,1.8333333333333333, ,0.7162240094680652, ,0.5507846778637171, ,0.04320319993469521
55, ,PASS, ,0.014575449999999983, ,0.0020927665361884958, ,0.029020813575845388, ,3.067269160632669e-05, ,1.75, ,0.7171582444124314, ,0.5505397849023489, ,0.04955000918348605
56, ,PASS, ,0.014278889999999992, ,0.002091915966971317, ,0.02882381823105651, ,3.00397184729388e-05, ,1.8333333333333333, ,0.7330939621817941, ,0.5515601722413829, ,0.0403461153854003
57, ,PASS, ,0.014704110000000006, ,0.0021279447238807944, ,0.029068753928491252, ,3.141117373625893e-05, ,1.75, ,0.7260773140369929, ,0.5503969306748842, ,0.05424379094304198
58, ,PASS, ,0.014900119999999989, ,0.0021486842904254564, ,0.029034972756678434, ,3.225011058069542e-05, ,1.75, ,0.7285853403268426, ,0.5512132405461113, ,0.042937899226546394
59, ,PASS, ,0.01483901, ,0.0021290324325315808, ,0.029199560958755942, ,3.1791742363881835e-05, ,1.75, ,0.720413902857627, ,0.5513152792800147, ,0.05259076345380707
60, ,PASS, ,0.014709509999999995, ,0.0021612582177681647, ,0.02919033820962837, ,3.191223105940974e-05, ,1.8333333333333333, ,0.7448982502627685, ,0.5528050447950041, ,0.06159057978408604
61, ,PASS, ,0.014783219999999982, ,0.0020801258568155247, ,0.029248577584743165, ,3.087681762363437e-05, ,1.8333333333333333, ,0.7304478917001576, ,0.5519683271769964, ,0.046550070406726395
62, ,PASS, ,0.014660509999999998, ,0.0021382190682399838, ,0.02919193239974694, ,3.1506178096703786e-05, ,1.8333333333333333, ,0.7274919608151877, ,0.551111201812208, ,0.03481561600783657
63, ,PASS, ,0.01467033999999999, ,0.002117315683961653, ,0.028766127856574356, ,3.12268327891709e-05, ,1.75, ,0.7270683946702724, ,0.5512744637864533, ,0.0455296830676925
64, ,PASS, ,0.014524599999999981, ,0.0021572591545797565, ,0.028913376121915878, ,3.146874250596399e-05, ,1.75, ,0.7388793129000475, ,0.5510091630783045, ,0.06150894879696333
65, ,PASS, ,0.014897419999999995, ,0.002048111546293325, ,0.02910095137140058, ,3.058952673723992e-05, ,1.75, ,0.7208871896020504, ,0.5514173180139181, ,0.050713250749984694
66, ,PASS, ,0.014789669999999998, ,0.0020867006845510646, ,0.028996550887532908, ,3.103117896749922e-05, ,1.75, ,0.7122858410466109, ,0.5505397849023489, ,0.041672618926144364
67, ,PASS, ,0.014803209999999987, ,0.002095362874534556, ,0.028964485786820676, ,3.119703065102144e-05, ,1.75, ,0.7129772152352998, ,0.5503969306748842, ,0.04240729781024877
68, ,PASS, ,0.014777499999999985, ,0.002104286746117358, ,0.029056673474827044, ,3.1198012977107055e-05, ,1.8333333333333333, ,0.7279302655664678, ,0.5519887349237771, ,0.04467255770290402
69, ,PASS, ,0.014754959999999987, ,0.0021751632028849045, ,0.028990648463500746, ,3.22021587212609e-05, ,1.8333333333333333, ,0.7328581380818022, ,0.5503357074345422, ,0.04787657394747046
70, ,PASS, ,0.014880209999999987, ,0.0021448603422301003, ,0.028837284041346094, ,3.208133878937643e-05, ,1.75, ,0.7250613830955198, ,0.5511520173057692, ,0.04095834778882063
71, ,PASS, ,0.014771749999999972, ,0.002110495340657438, ,0.029128756973122998, ,3.13056940265259e-05, ,1.75, ,0.7218320843192102, ,0.5508663088508398, ,0.04546845982735046
72, ,PASS, ,0.014895789999999999, ,0.0021509800310267817, ,0.02902570070835289, ,3.216619496107364e-05, ,1.8333333333333333, ,0.7304703975434402, ,0.5515601722413829, ,0.05034591130793249
73, ,PASS, ,0.022231710000000012, ,0.003791983752839212, ,0.030293218079835108, ,8.520318391425294e-05, ,2.0, ,0.8362016776689741, ,0.5639884900308157, ,0.14603783596253136
74, ,PASS, ,0.013058509999999985, ,0.0020426787817183645, ,0.029318950994265423, ,2.6848913205682973e-05, ,1.8333333333333333, ,0.778865672585659, ,0.5538050243872574, ,0.04587661476296402
75, ,PASS, ,0.011265909999999997, ,0.0015319329998005247, ,0.028817224887043122, ,1.7348525845745843e-05, ,1.8333333333333333, ,0.683202305028555, ,0.5481112630354482, ,0.048999000020407746
76, ,PASS, ,0.011142639999999992, ,0.0014873100919374535, ,0.028976618738393096, ,1.667917828445525e-05, ,1.8333333333333333, ,0.6791933846833144, ,0.5480500397951062, ,0.032631987102304034
77, ,PASS, ,0.011006930000000002, ,0.0015110779191911399, ,0.02878420318442481, ,1.672990273619407e-05, ,1.8333333333333333, ,0.6900596389430884, ,0.5485398257178425, ,0.03740739984898268
78, ,PASS, ,0.011044230000000006, ,0.0015025094876173067, ,0.028950976348441872, ,1.6686528916752094e-05, ,1.8333333333333333, ,0.6907829684476675, ,0.5481520785290096, ,0.04975408665129283
79, ,PASS, ,0.010995039999999987, ,0.0015081301114264133, ,0.028858281367319036, ,1.6670367396621824e-05, ,1.8333333333333333, ,0.6922519550033536, ,0.5491724658680435, ,0.035815595600089796
112, ,PASS, ,0.011015780000000003, ,0.0015127120042909752, ,0.028861741064468073, ,1.6741080209300062e-05, ,1.8333333333333333, ,0.6900966780043218, ,0.5489071651598947, ,0.04497867390461419
113, ,PASS, ,0.011385570000000001, ,0.0015221627634955952, ,0.028907012415052755, ,1.7441794652553434e-05, ,1.8333333333333333, ,0.6900431155806878, ,0.5504377461684455, ,0.02873410746719455
114, ,PASS, ,0.011129570000000002, ,0.0015335644579533665, ,0.028892763941552217, ,1.7174827283206893e-05, ,1.8333333333333333, ,0.7003270425743323, ,0.5491928736148242, ,0.0431215689475725
115, ,PASS, ,0.010992750000000023, ,0.001491131636100898, ,0.028926767550662234, ,1.6464448526420744e-05, ,1.8333333333333333, ,0.6931221670306946, ,0.5494989898165343, ,0.04008081467725148
116, ,PASS, ,0.010846970000000011, ,0.001511698259411005, ,0.028933382428113715, ,1.6480298960711298e-05, ,1.8333333333333333, ,0.699606499714299, ,0.5486214567049652, ,0.04226444358278403
117, ,PASS, ,0.010945860000000005, ,0.0015321797579018104, ,0.02874647990836922, ,1.6845050453671645e-05, ,1.8333333333333333, ,0.7049394978405609, ,0.5488459419195527, ,0.05257035570702639
118, ,PASS, ,0.011236010000000005, ,0.0015256375098913319, ,0.028967036077222914, ,1.7192790352290532e-05, ,1.8333333333333333, ,0.6884011589908141, ,0.5482337095161324, ,0.03438705332544234
119, ,PASS, ,0.010839860000000014, ,0.001512163701768211, ,0.028905603322789332, ,1.6466876221542363e-05, ,1.8333333333333333, ,0.6998494709547979, ,0.549009203893798, ,0.04457051896900063
120, ,PASS, ,0.010720459999999998, ,0.001504816568515079, ,0.028887692450358157, ,1.6194830720774506e-05, ,1.8333333333333333, ,0.7099559789873465, ,0.5492132813616049, ,0.03783596253137691
121, ,PASS, ,0.010984760000000003, ,0.0014715573324735637, ,0.02888383046999041, ,1.6223531685821123e-05, ,1.8333333333333333, ,0.6828759089910129, ,0.547805146833738, ,0.030917736372727087
122, ,PASS, ,0.010868240000000012, ,0.0014848613261015027, ,0.02876959134936022, ,1.6219760430615003e-05, ,1.8333333333333333, ,0.6846793115842666, ,0.548254117262913, ,0.034223791351196915
123, ,PASS, ,0.01073346000000001, ,0.0014815804659832196, ,0.028831067296585786, ,1.595121891569635e-05, ,1.8333333333333333, ,0.7183225345437847, ,0.5501724454602968, ,0.049447970449582664
124, ,PASS, ,0.010756950000000015, ,0.001503018678037499, ,0.02886514500663252, ,1.6211826273966157e-05, ,1.8333333333333333, ,0.7122146847341323, ,0.5498255137650252, ,0.04297871472010775
125, ,PASS, ,0.010820320000000015, ,0.0014519543097075557, ,0.028858950369992455, ,1.5808449106970947e-05, ,1.8333333333333333, ,0.6890355905704025, ,0.548315340503255, ,0.04014203791759352
126, ,PASS, ,0.010686290000000001, ,0.0015173401584277018, ,0.02867596098875533, ,1.626798277838033e-05, ,1.8333333333333333, ,0.711017788264982, ,0.5484581947307198, ,0.05010101834656436
127, ,PASS, ,0.010965550000000004, ,0.0015202421191830822, ,0.02886459904573376, ,1.6759255656010268e-05, ,1.8333333333333333, ,0.700322080131029, ,0.548254117262913, ,0.03614211954858064
128, ,PASS, ,0.010876780000000003, ,0.001436364630491942, ,0.029096229524499504, ,1.5657000166451796e-05, ,1.8333333333333333, ,0.6883762060714723, ,0.549519397563315, ,0.037917593518499625
129, ,PASS, ,0.010862940000000001, ,0.001496486109674276, ,0.02898000784820718, ,1.6330805694204327e-05, ,1.8333333333333333, ,0.6919483400675446, ,0.5470908756964143, ,0.04930511622211792
130, ,PASS, ,0.010642519999999985, ,0.00150194887898435, ,0.029038076120691418, ,1.604123338314015e-05, ,1.8333333333333333, ,0.7084302774565612, ,0.5487030876920879, ,0.03652986673741352
131, ,PASS, ,0.010688360000000001, ,0.0014611402235583523, ,0.028906911367931266, ,1.566845199499961e-05, ,1.8333333333333333, ,0.6944613121310449, ,0.5490296116405787, ,0.041631803432583006
132, ,PASS, ,0.010944649999999993, ,0.0014801300007382518, ,0.02904892601559152, ,1.6272225392332473e-05, ,1.8333333333333333, ,0.6953101782625768, ,0.5490500193873594, ,0.04259096753127487
133, ,PASS, ,0.010975050000000014, ,0.0014989087465569896, ,0.029073575183159527, ,1.655651285612661e-05, ,1.8333333333333333, ,0.6845612179751568, ,0.5480908552886676, ,0.04093794004203996
134, ,PASS, ,0.010623989999999979, ,0.0014996141483725569, ,0.02934961085365605, ,1.6004453520667318e-05, ,1.8333333333333333, ,0.7156109519284619, ,0.5496826595375605, ,0.058141670578151464
135, ,PASS, ,0.010748420000000015, ,0.0014837535435626558, ,0.028838408402481582, ,1.6007691662397357e-05, ,1.8333333333333333, ,0.7020074815490984, ,0.5490500193873594, ,0.04299912246688843
136, ,PASS, ,0.010775720000000003, ,0.0014184983901261417, ,0.0291216761978327, ,1.53164436417427e-05, ,1.8333333333333333, ,0.6851911994944107, ,0.5504581539152262, ,0.04295830697332707
137, ,PASS, ,0.01061695000000001, ,0.0014600142364289412, ,0.02868269079467766, ,1.554678525249884e-05, ,1.8333333333333333, ,0.7065655288163073, ,0.5496010285504378, ,0.053509112058937575
138, ,PASS, ,0.010735559999999998, ,0.001437295296418399, ,0.028818405211934447, ,1.551780032688183e-05, ,1.8333333333333333, ,0.6874200613650441, ,0.5485602334646231, ,0.034203383604416236
139, ,PASS, ,0.011071250000000005, ,0.0013925603148648453, ,0.028970774810514074, ,1.5428659914331258e-05, ,1.8333333333333333, ,0.6773335213785193, ,0.5498867370053673, ,0.037591069570008774
140, ,PASS, ,0.01036032000000001, ,0.0014002845405914311, ,0.028821815080712642, ,1.455725820874407e-05, ,1.8333333333333333, ,0.6940990846784214, ,0.5511928327993306, ,0.03040754270321014
141, ,PASS, ,0.010608780000000002, ,0.001545706385133405, ,0.028991430975490298, ,1.6519514392281766e-05, ,1.8333333333333333, ,0.7161250205922371, ,0.549396951082631, ,0.03604008081467725
142, ,PASS, ,0.010526620000000004, ,0.001420149660708363, ,0.028987909236750275, ,1.4974981734229971e-05, ,1.75, ,0.7167700071495785, ,0.5519683271769964, ,0.044468480235097245
143, ,PASS, ,0.010547130000000009, ,0.00146570590677442, ,0.028951261297932695, ,1.5510935545327384e-05, ,1.8333333333333333, ,0.7011037657730335, ,0.5502948919409808, ,0.04522356686598233
176, ,PASS, ,0.010518610000000012, ,0.001467273200133704, ,0.028788084923572987, ,1.5491233184408663e-05, ,1.8333333333333333, ,0.7055207931434756, ,0.549519397563315, ,0.052774433174833164
177, ,PASS, ,0.010910330000000013, ,0.0014479169165494295, ,0.02895263219873064, ,1.5883360650762706e-05, ,1.8333333333333333, ,0.6769169338016245, ,0.550723454623375, ,0.03185649272463827
178, ,PASS, ,0.010531079999999984, ,0.0013899686081763013, ,0.029116328851043857, ,1.4703159969053201e-05, ,1.8333333333333333, ,0.6720521402566911, ,0.5491724658680435, ,0.03357074345421522
179, ,PASS, ,0.010231279999999992, ,0.001398570492509127, ,0.029028187953103003, ,1.439580098466544e-05, ,1.75, ,0.6996219225986049, ,0.5504989694087876, ,0.039488990020611826
180, ,PASS, ,0.010516520000000008, ,0.001420304163838562, ,0.02879286422317912, ,1.4963566830576932e-05, ,1.75, ,0.6856106369028933, ,0.5480908552886676, ,0.011856900879573886
181, ,PASS, ,0.010938499999999993, ,0.0016373176669731314, ,0.029114358225954574, ,1.802833374698977e-05, ,1.8333333333333333, ,0.7599189107121292, ,0.5541315483357483, ,0.06354972347503113
182, ,PASS, ,0.010526420000000009, ,0.0014615674750789636, ,0.028990542129752456, ,1.5449411520863543e-05, ,1.75, ,0.7050885312863707, ,0.5503152996877615, ,0.03681557519234301
183, ,PASS, ,0.010611950000000005, ,0.0014402114484818593, ,0.02888705348747985, ,1.5292109142971972e-05, ,1.75, ,0.7093510879289279, ,0.5511724250525499, ,0.04669292463419114
184, ,PASS, ,0.010532949999999992, ,0.0014546927146546144, ,0.028937067743923597, ,1.538287774206892e-05, ,1.75, ,0.6954258561023537, ,0.5486826799453073, ,0.04048896961286504
185, ,PASS, ,0.010650369999999992, ,0.0013737180054817944, ,0.029016781233444217, ,1.4709898031975032e-05, ,1.75, ,0.6818617952940252, ,0.5507030468765943, ,0.043182792187914536
186, ,PASS, ,0.010426049999999996, ,0.001420397478177286, ,0.029191608242280773, ,1.4858994137389067e-05, ,1.75, ,0.6981118751799845, ,0.5509479398379625, ,0.042488928797371484
187, ,PASS, ,0.010400290000000003, ,0.0014067941082130408, ,0.028922916878431053, ,1.4639953042822791e-05, ,1.75, ,0.7027972835573837, ,0.5506214158894717, ,0.04042774637252301
188, ,PASS, ,0.010513129999999999, ,0.001410814108696716, ,0.028808159038182894, ,1.484333777788499e-05, ,1.75, ,0.6808269112921278, ,0.5495602130568764, ,0.007816167016999652
189, ,PASS, ,0.010235949999999997, ,0.0014029009183145987, ,0.028927045307034552, ,1.4407424478842963e-05, ,1.8333333333333333, ,0.7020942471691012, ,0.5497234750311218, ,0.02812187506377421
190, ,PASS, ,0.010181919999999987, ,0.001399709724029322, ,0.02897182751494868, ,1.4289567551936946e-05, ,1.75, ,0.7016951145368304, ,0.5506826391298136, ,0.04187669639395114
191, ,PASS, ,0.010381460000000009, ,0.0013807124952241883, ,0.028836635443766457, ,1.4358240992649925e-05, ,1.8333333333333333, ,0.6822140459711477, ,0.549519397563315, ,0.03281565682333014
192, ,PASS, ,0.010228590000000003, ,0.0013977251176002861, ,0.028853754131140184, ,1.4336976192111924e-05, ,1.75, ,0.6904252709721996, ,0.5499479602457092, ,0.03681557519234301
193, ,PASS, ,0.010221089999999995, ,0.0013650197105048527, ,0.028955599047366384, ,1.3991748357616189e-05, ,1.75, ,0.6851504015757564, ,0.5502948919409808, ,0.039121650578559625
194, ,PASS, ,0.010480340000000001, ,0.001435424348331365, ,0.02898748084835004, ,1.509630831260817e-05, ,1.75, ,0.7019497361130603, ,0.551233648292892, ,0.049427562702801985
195, ,PASS, ,0.010385939999999993, ,0.001402504942375213, ,0.02912114387685966, ,1.4633876557161827e-05, ,1.75, ,0.6913203198776369, ,0.5506826391298136, ,0.03412175261729353
196, ,PASS, ,0.010520230000000009, ,0.0014034813047468628, ,0.028961889636333955, ,1.4778778804172002e-05, ,1.75, ,0.6986491520207374, ,0.5502336687006387, ,0.02753005040713455
197, ,PASS, ,0.01051661000000001, ,0.0014063109441617427, ,0.029009682171180183, ,1.4836346943132167e-05, ,1.75, ,0.6779527116461601, ,0.549458174322973, ,0.026570886308442686
198, ,PASS, ,0.010289309999999982, ,0.0013936561628778515, ,0.028990307033325852, ,1.440210803299514e-05, ,1.75, ,0.6865273105833607, ,0.5496418440439991, ,0.0331217730250403
199, ,PASS, ,0.01032676, ,0.0014281017251432655, ,0.029087586164363993, ,1.4773336355629214e-05, ,1.75, ,0.6980795664066695, ,0.5501520377135161, ,0.03746862308932471
200, ,PASS, ,0.010193320000000002, ,0.0013781280525882035, ,0.02906649955062142, ,1.410190316478364e-05, ,1.75, ,0.6884486907217049, ,0.5502540764474194, ,0.04110120201628538
201, ,PASS, ,0.010336950000000004, ,0.0013811573160704097, ,0.029045440800595908, ,1.4306033219736905e-05, ,1.75, ,0.696447798724859, ,0.5510703863186466, ,0.039162466072120976
202, ,PASS, ,0.010233589999999994, ,0.0013525036903462191, ,0.02888060400583662, ,1.3868124319853343e-05, ,1.75, ,0.6995341729653165, ,0.5525193363400747, ,0.046141915471112835
203, ,PASS, ,0.01023718999999999, ,0.00134587327869495, ,0.028874835820085307, ,1.3846134483973563e-05, ,1.8333333333333333, ,0.6679141471595842, ,0.5478663700740801, ,0.04055019285320708
204, ,PASS, ,0.010303350000000006, ,0.001379998338708898, ,0.028906447803718295, ,1.4276807218922309e-05, ,1.75, ,0.6854218298103056, ,0.5494989898165343, ,0.031346299055121325
205, ,PASS, ,0.010133429999999992, ,0.0013488138710869822, ,0.028916279502867293, ,1.3701126485696091e-05, ,1.75, ,0.685996919340221, ,0.5502744841942001, ,0.04975408665129283
206, ,PASS, ,0.009898919999999992, ,0.0013384826545048472, ,0.028853268650843863, ,1.3304607439654862e-05, ,1.75, ,0.7025098795378812, ,0.5521928123915838, ,0.040876716801697924
207, ,PASS, ,0.009796150000000003, ,0.0013166700444367941, ,0.0288098010895696, ,1.293488711844341e-05, ,1.75, ,0.6877701304062782, ,0.5507030468765943, ,0.03769310830391216
208, ,PASS, ,0.009949529999999988, ,0.0012936012065464277, ,0.0291930176243342, ,1.2916425832281286e-05, ,1.75, ,0.6868114771945522, ,0.5514377257606987, ,0.049386747209240626
209, ,PASS, ,0.009822689999999981, ,0.0013016027813657252, ,0.029064043774412768, ,1.2864527241260632e-05, ,1.8333333333333333, ,0.6722873007367871, ,0.5497234750311218, ,0.053978490234893164
210, ,PASS, ,0.00990114999999998, ,0.0012673372426928171, ,0.029089938692271586, ,1.259139183576157e-05, ,1.75, ,0.6728971518715207, ,0.551111201812208, ,0.035815595600089796
211, ,PASS, ,0.009773439999999977, ,0.0012546967716004058, ,0.029067661462419136, ,1.2333291818977854e-05, ,1.8333333333333333, ,0.6537142837747149, ,0.5488663496663333, ,0.03634619701638742
212, ,PASS, ,0.009688880000000004, ,0.0012811651419230583, ,0.028787822089549196, ,1.2492212322394387e-05, ,1.8333333333333333, ,0.6842602845531888, ,0.5499275524989286, ,0.037550254076447416
213, ,PASS, ,0.009865190000000003, ,0.0013033530959652366, ,0.028869575261729355, ,1.2894603385020796e-05, ,1.8333333333333333, ,0.672895626414468, ,0.5501928532070774, ,0.0422848513295647
214, ,PASS, ,0.009944640000000001, ,0.0013361907543089256, ,0.028820903872369952, ,1.3340840638271454e-05, ,1.75, ,0.6879255373130271, ,0.5504989694087876, ,0.04387665557845758
215, ,PASS, ,0.00992341, ,0.0013996305713913008, ,0.028910834836431913, ,1.3941875121664093e-05, ,1.75, ,0.7160752181797242, ,0.5516418032285055, ,0.030040203261157937
