Channel, ,Pass/Fail, ,Amplitude, ,Sorting Function Response, ,Mean, ,Variance
0, ,FAIL, ,0.0013934993487322014, ,0.00043996576426160854, ,0.00014615444026912697, ,1.5396140663689403e-07
1, ,FAIL, ,0.0015373060646928002, ,0.0002873712163538602, ,5.588471838329891e-05, ,1.1341669654751544e-07
2, ,PASS, ,0.026111036090616997, ,0.020103285209879362, ,0.0015529643395991697, ,0.00011522655086081163
3, ,PASS, ,0.025874127332856996, ,0.019865483771298608, ,0.0014753447102058234, ,0.00011278748166319331
4, ,PASS, ,0.025987128441955, ,0.019927772087272907, ,0.001535167809846928, ,0.0001136970108890868
5, ,PASS, ,0.025957884809079994, ,0.01998494060161459, ,0.0015482875098427114, ,0.00011392817142392678
6, ,PASS, ,0.025998169199247002, ,0.020049982490975535, ,0.0015491912219461603, ,0.00011446297894892335
7, ,PASS, ,0.026095171410509998, ,0.020047220663739904, ,0.0015687878606797383, ,0.00011487157763786588
8, ,PASS, ,0.026279926479071, ,0.020239043486464825, ,0.001515803412742978, ,0.00011672881886756056
9, ,PASS, ,0.026324070578034, ,0.020247101116240323, ,0.0015070089343934188, ,0.00011702972043978755
10, ,PASS, ,0.026150309927920997, ,0.020109834191429077, ,0.0015723022361174967, ,0.00011545535673978658
11, ,PASS, ,0.026177019700593, ,0.020167955952097597, ,0.0015471712149797655, ,0.00011588215958248275
12, ,PASS, ,0.026767721312127003, ,0.020553732904925782, ,0.0016042039204343518, ,0.00012066666215050557
13, ,PASS, ,0.041989001513448, ,0.029743774388226417, ,0.003381861596012327, ,0.00026967720334556257
14, ,PASS, ,0.07132820969778901, ,0.04418735805999269, ,0.005974168363826857, ,0.0006737393102149933
15, ,PASS, ,0.023979314870971, ,0.01850753899255758, ,0.0013795344271936637, ,9.774230917166176e-05
16, ,PASS, ,0.022491682886378997, ,0.01728250318562742, ,0.0012088387440211843, ,8.582699336805326e-05
17, ,PASS, ,0.022471523117179, ,0.017297514940714045, ,0.0011855691701198278, ,8.57692656562466e-05
18, ,PASS, ,0.022677967660095, ,0.017407188359192693, ,0.00122319709148643, ,8.708714254284253e-05
19, ,PASS, ,0.022441681352173004, ,0.017299508454763125, ,0.0012185260090076548, ,8.566640369781341e-05
20, ,PASS, ,0.022434296599156002, ,0.017280667674948697, ,0.0012407195609391336, ,8.55348036642757e-05
21, ,PASS, ,0.022386306075161004, ,0.017239637533236683, ,0.0012435047695672002, ,8.516615811876563e-05
22, ,PASS, ,0.022492916154738002, ,0.017299414255723143, ,0.0011935448049980963, ,8.584099452023308e-05
23, ,PASS, ,0.022363067191192, ,0.017243794510297967, ,0.001183998888262874, ,8.509448177901062e-05
24, ,PASS, ,0.022330240014384, ,0.017268330353759197, ,0.0012673753619654405, ,8.510435065286673e-05
25, ,PASS, ,0.022411760279007, ,0.017284685142740463, ,0.0012788109250761106, ,8.554966854368389e-05
26, ,PASS, ,0.022410164796903005, ,0.017269187724843427, ,0.0011423082433108579, ,8.539775178841511e-05
27, ,PASS, ,0.022407388097794002, ,0.01724833958033194, ,0.0012053333399828093, ,8.52761663942306e-05
28, ,PASS, ,0.022246857651907995, ,0.01713736436619252, ,0.0011832295547817308, ,8.421030933738724e-05
29, ,PASS, ,0.022344338004322003, ,0.01720939753987308, ,0.0011763014487871848, ,8.486027063787983e-05
30, ,PASS, ,0.022313358974389998, ,0.017210863773771515, ,0.001182092983864158, ,8.47468513037164e-05
31, ,PASS, ,0.022216330005026, ,0.017117556305533087, ,0.0011414271100534212, ,8.395362834541118e-05
32, ,PASS, ,0.022334462265289998, ,0.017118663523059203, ,0.0012009258962573522, ,8.440176579926963e-05
33, ,PASS, ,0.022240725367308003, ,0.017127378252871944, ,0.0012175741350831826, ,8.410324339880326e-05
34, ,PASS, ,0.022312583772871, ,0.017116227034529943, ,0.0011987644235497519, ,8.427926367312307e-05
35, ,PASS, ,0.022356344725077, ,0.017146289769768456, ,0.0012584999015371288, ,8.459233755541457e-05
36, ,PASS, ,0.022259294186886002, ,0.017084920620960432, ,0.0011934791477928902, ,8.395961016422431e-05
37, ,PASS, ,0.022355669667024, ,0.017204354602997726, ,0.001178632366771556, ,8.48874538104124e-05
38, ,PASS, ,0.022284371439627002, ,0.017152145725809368, ,0.0011718469245318754, ,8.439111049061756e-05
39, ,PASS, ,0.022227799079314003, ,0.017124676589478673, ,0.0012296802875606274, ,8.400897889918429e-05
40, ,PASS, ,0.022503978947096, ,0.017328388100714253, ,0.0011692121619537826, ,8.60426703975339e-05
41, ,PASS, ,0.022839569328818997, ,0.017765217361353915, ,0.001312738131830846, ,8.947237903549593e-05
42, ,PASS, ,0.022400845869344002, ,0.017222058678692722, ,0.0011695125340980563, ,8.51663214080904e-05
43, ,PASS, ,0.022318661198192997, ,0.01714559446294581, ,0.0012048848272384807, ,8.451073534852903e-05
44, ,PASS, ,0.022430195815377998, ,0.017272428384826708, ,0.0011976704302864198, ,8.551482253147893e-05
45, ,PASS, ,0.022512160153802994, ,0.017297724945190177, ,0.0011881485353935428, ,8.592980467831452e-05
46, ,PASS, ,0.022405389646994005, ,0.017291932917966574, ,0.0011600053026027295, ,8.552570993031011e-05
47, ,PASS, ,0.022442697790676, ,0.017299308399131092, ,0.0012941663157469132, ,8.569413131177909e-05
48, ,PASS, ,0.022446381719630003, ,0.01726280389345427, ,0.001177192364565566, ,8.554601215310717e-05
49, ,PASS, ,0.023036451454008, ,0.01790544542782391, ,0.0013028365870370285, ,9.091685939152404e-05
50, ,PASS, ,0.022473628612193, ,0.01727714216933356, ,0.001196492713255562, ,8.574431937487698e-05
51, ,PASS, ,0.022442690473023004, ,0.017190690763146256, ,0.0011900829595521266, ,8.519892889964461e-05
52, ,PASS, ,0.022370143205847997, ,0.017270966113620723, ,0.0012080158058999525, ,8.529217888759114e-05
53, ,PASS, ,0.022384211331709, ,0.017283950630514404, ,0.0012181740012699649, ,8.539930126245094e-05
54, ,PASS, ,0.022432389531848, ,0.017249438224779107, ,0.0011666355618136963, ,8.540894838980128e-05
55, ,PASS, ,0.022362782399953006, ,0.017218315822565708, ,0.001237715176028354, ,8.502175703698506e-05
56, ,PASS, ,0.022352835617950005, ,0.01722559820083702, ,0.0011528069212867317, ,8.501594993611744e-05
57, ,PASS, ,0.022418065547292, ,0.01723125890034969, ,0.0012164798555835453, ,8.531417853933772e-05
58, ,PASS, ,0.022399530044328, ,0.017267479968291203, ,0.0011618976863691293, ,8.539553894943694e-05
59, ,PASS, ,0.022342051339521003, ,0.01724666535378242, ,0.0011605265397614348, ,8.505546689482881e-05
60, ,PASS, ,0.022484475250112997, ,0.017361712299421458, ,0.0011962943815775888, ,8.624995368138662e-05
61, ,PASS, ,0.022567901907663, ,0.01736847463011917, ,0.0012048677112231412, ,8.658263869759643e-05
62, ,PASS, ,0.022532173888905004, ,0.017355218329611843, ,0.0011681381927498807, ,8.638010118342027e-05
63, ,PASS, ,0.022539803787474, ,0.01732641107094204, ,0.001160621883402986, ,8.625661944667959e-05
64, ,PASS, ,0.022536113543647998, ,0.017424308115162955, ,0.0012032718801677658, ,8.671042524415327e-05
65, ,PASS, ,0.022679771510374997, ,0.01745550627724208, ,0.0012480202058540054, ,8.743027448366013e-05
66, ,PASS, ,0.022593075460221, ,0.017458607112150838, ,0.00118062960755575, ,8.710253277740074e-05
67, ,PASS, ,0.022570310067342003, ,0.017438019814268457, ,0.001234311491559969, ,8.694543855097262e-05
68, ,PASS, ,0.022620858066429, ,0.017422585834430064, ,0.0012088856534382406, ,8.707101193940878e-05
69, ,PASS, ,0.022621687209357998, ,0.01745149820388231, ,0.0011551501349155707, ,8.722415163797564e-05
70, ,PASS, ,0.022597300053061996, ,0.017470292441502094, ,0.0011666868290898297, ,8.72370766825411e-05
71, ,PASS, ,0.022673460766245, ,0.017555420388297372, ,0.0011947108229954837, ,8.795404494434099e-05
72, ,PASS, ,0.022777652534511, ,0.017585350431414067, ,0.0012044223026430026, ,8.847763862244499e-05
73, ,PASS, ,0.022680902118896, ,0.01756851670920945, ,0.001241202140395, ,8.804855376660747e-05
74, ,PASS, ,0.022823835990990998, ,0.01760857301321929, ,0.0012642612786064752, ,8.875861483085147e-05
75, ,PASS, ,0.024400482136406, ,0.0188271398788262, ,0.0013532320123340312, ,0.00010120403193376932
76, ,PASS, ,0.09041473484417002, ,0.058396084269993966, ,0.007485039511142529, ,0.0011300936417943243
77, ,PASS, ,0.032653117406766005, ,0.025222387065865878, ,0.002330198473695095, ,0.00017980498299725495
78, ,PASS, ,0.025314388244573, ,0.019635547469952514, ,0.0014211961014093083, ,0.0001096211144148313
79, ,PASS, ,0.024937264336499003, ,0.019422490188964296, ,0.0013801737514715134, ,0.00010681017317626046
80, ,PASS, ,0.025000032413482004, ,0.01947253500235438, ,0.0013908376382779908, ,0.00010734876234277676
81, ,PASS, ,0.024981500192444002, ,0.01939950829303465, ,0.0014069024017144187, ,0.00010684989798438843
82, ,PASS, ,0.025131506420841998, ,0.019466678338828133, ,0.0014471712099383477, ,0.0001078697653496599
83, ,PASS, ,0.025081768755597002, ,0.019501359921305753, ,0.0013914736570702893, ,0.00010783077859490676
84, ,PASS, ,0.024872685629275, ,0.019252833551944987, ,0.001412644690085285, ,0.0001056719353784884
85, ,PASS, ,0.024782558973665998, ,0.019307117983663125, ,0.0013968340923661547, ,0.00010559027852659179
86, ,PASS, ,0.024822027453234002, ,0.01926285477999835, ,0.0013510896681638031, ,0.00010547876674033429
87, ,PASS, ,0.024690949522608, ,0.01915479162347404, ,0.0013254629637316254, ,0.00010436911884235049
88, ,PASS, ,0.024749935872211, ,0.01930734673156242, ,0.001319082264593642, ,0.00010535759919237978
89, ,PASS, ,0.024787547104930998, ,0.019221763364286566, ,0.0013796842101163583, ,0.00010508443429510346
90, ,PASS, ,0.024749081307318996, ,0.019218809968048648, ,0.001367426243065209, ,0.00010491898601783215
91, ,PASS, ,0.024728535817156002, ,0.019268067747321073, ,0.0013066083178230837, ,0.00010501940091332797
92, ,PASS, ,0.024736172997863, ,0.019288769791114543, ,0.0013947891706919346, ,0.00010522106834355559
93, ,PASS, ,0.02472955909637, ,0.01924001721264121, ,0.0014037678129722691, ,0.00010490689687704896
94, ,PASS, ,0.024726896893532, ,0.019236201893246655, ,0.00130512308369109, ,0.00010482606610530514
95, ,PASS, ,0.024627234047702, ,0.01916712710177907, ,0.0014135006171443892, ,0.0001040853607213979
96, ,PASS, ,0.024615804929988, ,0.01915947638150215, ,0.0013394007360647718, ,0.00010398080705639418
97, ,PASS, ,0.024589910148608, ,0.019112124301007217, ,0.0013456955673284727, ,0.00010364546016483705
98, ,PASS, ,0.024507283838349003, ,0.01909307259838606, ,0.001308597346497848, ,0.00010315087182064907
99, ,PASS, ,0.024525391671081, ,0.019038328361296156, ,0.0013543960681985186, ,0.00010293967149453696
100, ,PASS, ,0.024435227514933, ,0.0190724907928835, ,0.0013678129804779436, ,0.00010276093469363865
101, ,PASS, ,0.024503331229520996, ,0.01904391850455702, ,0.0013765011026420687, ,0.0001028894484874631
102, ,PASS, ,0.024524153040764003, ,0.01911161953716518, ,0.0013852294067236088, ,0.0001033100411469266
103, ,PASS, ,0.024880571046771, ,0.0194969006354407, ,0.0014711155399076566, ,0.00010685602229171186
104, ,PASS, ,0.024880861103922, ,0.019417286118171815, ,0.001450767279546124, ,0.00010645635535975001
105, ,PASS, ,0.024760058448623994, ,0.019254830142786946, ,0.0013638265122323614, ,0.0001050546227087805
106, ,PASS, ,0.024723222475656004, ,0.01921717174063411, ,0.001398304479914231, ,0.0001047918936241477
107, ,PASS, ,0.024695607763137, ,0.01920594921750266, ,0.0013391045723233036, ,0.00010463030035170055
108, ,PASS, ,0.024695469668957998, ,0.019223418020556604, ,0.001422873024618278, ,0.00010466777682182276
109, ,PASS, ,0.024686324878108, ,0.019200509890819607, ,0.0014630311846833878, ,0.00010455319787213682
110, ,PASS, ,0.02469259413588199, ,0.019244012643869296, ,0.0013869629965126938, ,0.00010478270576232749
111, ,PASS, ,0.025121819146158998, ,0.019647048922602366, ,0.0015015354828221141, ,0.00010874093618073784
112, ,PASS, ,0.025114086003807, ,0.019612345870608297, ,0.001471026377745292, ,0.00010849451811538467
113, ,PASS, ,0.024787047684276, ,0.019293946611301883, ,0.001378145459242353, ,0.00010545373452960524
114, ,PASS, ,0.02477598224441, ,0.01924200004902233, ,0.0014367705345672468, ,0.00010514291849852342
115, ,PASS, ,0.024750968281046996, ,0.019220745658012444, ,0.0013403045768007624, ,0.00010487174139681095
116, ,PASS, ,0.024727819377446003, ,0.019256996259149724, ,0.001399249916802747, ,0.00010501638045486574
117, ,PASS, ,0.024695322207235998, ,0.019288370783051633, ,0.001376393018615317, ,0.0001050376833504843
118, ,PASS, ,0.024684661242953, ,0.019262221348222315, ,0.0014370808882035666, ,0.00010489455696941937
119, ,PASS, ,0.024719608739643996, ,0.01921649224759637, ,0.0014019692365839467, ,0.00010473194141868058
120, ,PASS, ,0.024792566418387, ,0.019309206495073908, ,0.001376499522655142, ,0.0001055124555348114
121, ,PASS, ,0.024745697345790997, ,0.019289022031961436, ,0.0013615771462760224, ,0.00010520095070863451
122, ,PASS, ,0.024724929867557, ,0.019256805935651294, ,0.0013449504371998303, ,0.0001049578731343455
123, ,PASS, ,0.024722184993037, ,0.019267797693521476, ,0.0013766582801969774, ,0.00010501659321919829
124, ,PASS, ,0.024456419690518, ,0.019047890118739138, ,0.0013971755142286359, ,0.00010269910698363258
125, ,PASS, ,0.024561347305445, ,0.01916505802198597, ,0.0014046094050510162, ,0.00010377379753530108
126, ,PASS, ,0.024628982830338004, ,0.01922582882171235, ,0.0013747844450506723, ,0.00010445173201099572
127, ,PASS, ,0.024696530381002002, ,0.019226929961470747, ,0.001410097909432838, ,0.00010469343058734942
128, ,PASS, ,0.024458181296828002, ,0.018972292139331652, ,0.0013049567725700551, ,0.0001023704832572151
129, ,PASS, ,0.024536641572671, ,0.019157522362555815, ,0.0013443246737932513, ,0.0001036792767177597
130, ,PASS, ,0.024767247812783, ,0.019191890492891474, ,0.001350211869491739, ,0.0001048598935274856
131, ,PASS, ,0.024651745428509002, ,0.01918637284183008, ,0.0013378752420855045, ,0.00010436313126085836
132, ,PASS, ,0.025010928543142, ,0.01944633130483366, ,0.0014008472554608122, ,0.0001073177935058557
133, ,PASS, ,0.024792746436208005, ,0.019295646867407, ,0.0013667599233245552, ,0.00010559774951336001
134, ,PASS, ,0.024667777015439, ,0.019261061127755934, ,0.0013806392787534558, ,0.00010484634583148735
135, ,PASS, ,0.024714289215563005, ,0.019213222082333056, ,0.001360083341694312, ,0.00010481658446711295
136, ,PASS, ,0.024936321149503997, ,0.019387270914638214, ,0.0014189425325630677, ,0.0001066773100595013
137, ,PASS, ,0.025504246257735, ,0.01994609724247312, ,0.00139069638628876, ,0.00011209028059901187
138, ,PASS, ,0.046327124848733, ,0.03105936796763854, ,0.0037413046307301417, ,0.0003100988559557975
139, ,PASS, ,0.07212152292854801, ,0.04418944837979369, ,0.006011565098528295, ,0.0006811321113389616
140, ,PASS, ,0.027369518225097998, ,0.02130665116005316, ,0.0016293714450148044, ,0.0001282472759037097
141, ,PASS, ,0.026520081291056, ,0.02055302545430913, ,0.0015533725694777286, ,0.0001199669152340594
142, ,PASS, ,0.026320718939202, ,0.02053680916154671, ,0.001485543446418088, ,0.0001189826755046524
143, ,PASS, ,0.026215900988587997, ,0.02047288321734022, ,0.001521297140812365, ,0.00011812271062750776
144, ,PASS, ,0.026202434866966003, ,0.020395650349057187, ,0.0015349002288606744, ,0.00011761468505923581
145, ,PASS, ,0.026093393067183994, ,0.02035904693196418, ,0.0015479080017669934, ,0.00011699183325752647
146, ,PASS, ,0.026078266342797005, ,0.020298953817655556, ,0.0015417491176265162, ,0.00011653384735489823
147, ,PASS, ,0.025981635933175, ,0.02029392164596931, ,0.001498667574002556, ,0.000116087707553765
148, ,PASS, ,0.025896543748079003, ,0.020201448093315432, ,0.001567970902538551, ,0.00011513057203904545
149, ,PASS, ,0.025967749979115003, ,0.02023567987417542, ,0.0015246198307974509, ,0.00011563315993861211
150, ,PASS, ,0.025956142770617002, ,0.02023747637006514, ,0.0015053951391026605, ,0.00011555420014576715
151, ,PASS, ,0.025924390343291, ,0.020141450313261387, ,0.001488017041308986, ,0.0001148306349565868
152, ,PASS, ,0.025915869245880005, ,0.020221249897500345, ,0.0015056317243730586, ,0.00011528440960701826
153, ,PASS, ,0.025890161427112, ,0.020196550460552205, ,0.001490778690352643, ,0.00011509429463705134
154, ,PASS, ,0.025912912511534, ,0.02017054811014465, ,0.0014757867261108375, ,0.00011500313883926582
155, ,PASS, ,0.025786721281274, ,0.02008127087772685, ,0.0015036606370401094, ,0.00011392270416986391
156, ,PASS, ,0.025859898219135, ,0.020197570995755483, ,0.0014991730086300207, ,0.00011492488321615086
157, ,PASS, ,0.025918007053763008, ,0.02018392213170095, ,0.0015163105292913227, ,0.00011513297285126353
158, ,PASS, ,0.025899378408747002, ,0.020153641053481396, ,0.0015129925149220413, ,0.00011481215404491872
159, ,PASS, ,0.025788858890458004, ,0.020137368735942213, ,0.0015216924827569755, ,0.00011425224402779603
160, ,PASS, ,0.025811304217008, ,0.020108222864172288, ,0.0014888051986140505, ,0.00011422000588764641
161, ,PASS, ,0.025824256781740995, ,0.020104472778547697, ,0.0014629067166201922, ,0.00011423879133328693
162, ,PASS, ,0.025752288634961998, ,0.020107179766224382, ,0.001459762637961598, ,0.00011392042965902779
163, ,PASS, ,0.025706301712849, ,0.020042283980619375, ,0.0014529812361798076, ,0.00011338085354663629
164, ,PASS, ,0.02572803417676, ,0.020044197710411323, ,0.0014731825526295619, ,0.0001134840455042763
165, ,PASS, ,0.025863611858215, ,0.02015905095443815, ,0.0015399778639445159, ,0.00011471805822086233
166, ,PASS, ,0.026173922240244, ,0.020462901600133882, ,0.001511408693237375, ,0.00011771278511830674
167, ,PASS, ,0.025764081637385007, ,0.020074622096160195, ,0.001489888005957573, ,0.00011379852140119855
168, ,PASS, ,0.025669552664696, ,0.020028092178803532, ,0.0014773768709322225, ,0.00011309285211935162
169, ,PASS, ,0.025679821335660998, ,0.02002105670084224, ,0.0015251996009802047, ,0.00011311204388213631
170, ,PASS, ,0.02568994019236, ,0.019963794118687102, ,0.0014714477454434761, ,0.0001128271512713269
171, ,PASS, ,0.025662852530227, ,0.019988160816260096, ,0.0014927571786132413, ,0.00011287320011513283
172, ,PASS, ,0.025625828376511, ,0.01997711960091557, ,0.0015149718630748821, ,0.00011259446413519835
173, ,PASS, ,0.025633861507695005, ,0.020013468247759358, ,0.0015050973400728654, ,0.0001128424455083152
174, ,PASS, ,0.026086413004594, ,0.02043109481104853, ,0.0015862693333332342, ,0.00011706321215943591
175, ,PASS, ,0.025552833716125004, ,0.019926929146555035, ,0.0014634608533954485, ,0.00011199330774605434
176, ,PASS, ,0.025528439126836, ,0.01993658356507854, ,0.0014786361806645202, ,0.00011204119949620835
177, ,PASS, ,0.025581360532394005, ,0.019926346785141876, ,0.0015187771236144126, ,0.00011220742234248902
178, ,PASS, ,0.025531138156278, ,0.019907809179246724, ,0.001466417707016148, ,0.0001118750614791933
179, ,PASS, ,0.025511641522709003, ,0.01987783497299074, ,0.0014357637533899208, ,0.00011158926241448124
180, ,PASS, ,0.025436900934702, ,0.019916075277955435, ,0.0014898925249417117, ,0.00011148228411343332
181, ,PASS, ,0.025511708129993996, ,0.01988743576899241, ,0.0014779854762040385, ,0.00011158939221881467
182, ,PASS, ,0.025395704254727, ,0.01989069899412871, ,0.0015011925559894421, ,0.00011110349160259049
183, ,PASS, ,0.025431981405410996, ,0.019829617491978774, ,0.0015051670420009036, ,0.00011092454147425302
184, ,PASS, ,0.025373392057868004, ,0.019827317754118452, ,0.0014728439984039038, ,0.00011068804846355674
185, ,PASS, ,0.025380362793940004, ,0.019829575083554325, ,0.001516268268996129, ,0.00011076640754575371
186, ,PASS, ,0.025398953446044002, ,0.01986017699003284, ,0.0015261477263404824, ,0.00011101811431469675
187, ,PASS, ,0.025458580452154003, ,0.019807704584188596, ,0.0014826917330034875, ,0.00011088259547131681
188, ,PASS, ,0.025461110784175997, ,0.01990845987469208, ,0.0015186103012603776, ,0.00011147542595113625
189, ,PASS, ,0.025456965956680996, ,0.019856783617797823, ,0.0015767304787829936, ,0.00011119603916439944
190, ,PASS, ,0.025420906020726997, ,0.019850915200876344, ,0.0015147400683198193, ,0.00011099709590617438
191, ,PASS, ,0.025368272549463, ,0.01983618947393052, ,0.0014773241874266308, ,0.0001106789273078708
192, ,PASS, ,0.025287818960094, ,0.01974859976982252, ,0.001542156217241413, ,0.00010992340492543304
193, ,PASS, ,0.025365655150504998, ,0.01979735191343904, ,0.0015522863806306417, ,0.0001104724308051976
194, ,PASS, ,0.025285678793818996, ,0.019741229077107375, ,0.0014816789877793032, ,0.00010977736198997442
195, ,PASS, ,0.025260483448868998, ,0.019787068535228002, ,0.0014733156083914071, ,0.00010995701523116227
196, ,PASS, ,0.025383301475781002, ,0.019807767841697476, ,0.0014901420197882293, ,0.00011065320773537321
197, ,PASS, ,0.025355517053176, ,0.019823177575839755, ,0.0014906299131255002, ,0.0001106386100427782
198, ,PASS, ,0.025320110451393, ,0.01980020297791162, ,0.0015192589861738536, ,0.00011033750386847999
199, ,PASS, ,0.025501998428365, ,0.019912196289829955, ,0.0015171668615315147, ,0.00011175107997867122
200, ,PASS, ,0.028393539903649005, ,0.02207371107033595, ,0.0018011637446400633, ,0.00013748141881124557
201, ,PASS, ,0.09999999997600005, ,0.07297890762726525, ,0.00865162844541039, ,0.0015564427630131222
202, ,PASS, ,0.032973222663835, ,0.025175973786229787, ,0.0023459675934056705, ,0.00018067841137883164
203, ,PASS, ,0.027746107155304, ,0.02144038270369099, ,0.0018601957175756912, ,0.0001301957415317123
204, ,PASS, ,0.027401617913046003, ,0.02121954690515531, ,0.0017889763413724078, ,0.000127240985453971
205, ,PASS, ,0.027365776734566007, ,0.02120931082818385, ,0.0018008436414255976, ,0.0001270148586654218
206, ,PASS, ,0.027324616797563005, ,0.021105443378219246, ,0.001810862354073704, ,0.00012619589388339247
207, ,PASS, ,0.027351877837233002, ,0.021196835720462815, ,0.0017854171415625664, ,0.00012687196791380415
208, ,PASS, ,0.027396445233038004, ,0.021158196034290075, ,0.0017882060728495255, ,0.00012677834900200712
209, ,PASS, ,0.027387994151442996, ,0.02111863202866637, ,0.0017825094765863806, ,0.00012650896315026354
210, ,PASS, ,0.027159624756696997, ,0.02099997421720482, ,0.001808255025105498, ,0.0001247622223861596
211, ,PASS, ,0.027183591482478002, ,0.021061804369829514, ,0.0018057811939761088, ,0.0001252551602887142
212, ,PASS, ,0.027267874452925008, ,0.02103287424965708, ,0.0018039625816495882, ,0.00012540739636003934
213, ,PASS, ,0.027231939183471, ,0.020987307303705842, ,0.001818138021623621, ,0.0001250446184938426
214, ,PASS, ,0.027059870958762, ,0.020990080928673105, ,0.0018095797175263029, ,0.00012425924001454173
215, ,PASS, ,0.027179004230395, ,0.021003109443811965, ,0.00179686874385218, ,0.00012484138436745054
216, ,PASS, ,0.027264058023681, ,0.021098429884278968, ,0.0017955120543793144, ,0.00012581949259517653
217, ,PASS, ,0.027302680782423004, ,0.021090786427812123, ,0.0018012973248187167, ,0.0001259166797892821
218, ,PASS, ,0.027216554652008, ,0.021028553643914802, ,0.0018125078551565615, ,0.00012516257436784935
219, ,PASS, ,0.027183813264252, ,0.020987374725094442, ,0.001750897397723036, ,0.0001247289668946597
220, ,PASS, ,0.027104665118788, ,0.020967807077894793, ,0.0017531733209634112, ,0.00012424488507749862
221, ,PASS, ,0.027144940799312005, ,0.020918636901248774, ,0.0017470571693534466, ,0.0001242076127629743
222, ,PASS, ,0.027036493817775002, ,0.020911892117409788, ,0.001764394216699054, ,0.00012372150639546907
223, ,PASS, ,0.027133606068566005, ,0.02092411679466294, ,0.001714348566294782, ,0.0001241604460999634
224, ,PASS, ,0.027083686680891, ,0.02093617824212074, ,0.001690801678247434, ,0.00012404920674281584
225, ,PASS, ,0.027116724345972003, ,0.020982082535712047, ,0.0018061908671139493, ,0.00012449765253239888
226, ,PASS, ,0.027089457022398, ,0.02093885671660334, ,0.001779731305684571, ,0.00012413534338111284
227, ,PASS, ,0.027172284430053, ,0.020978182947160962, ,0.001715129049412259, ,0.00012471351715775584
228, ,PASS, ,0.027607513940865004, ,0.021333499846087345, ,0.0018725530604989924, ,0.00012871926863969915
229, ,PASS, ,0.027307903227495, ,0.02104983938356777, ,0.001749627529338367, ,0.0001257373274810048
230, ,PASS, ,0.026975424595009997, ,0.020867833727943763, ,0.0017076713542924843, ,0.0001231865638426644
231, ,PASS, ,0.027017554509573, ,0.02087502872207431, ,0.0017302829306537677, ,0.0001234176270242346
232, ,PASS, ,0.027011377811646, ,0.02082520787892637, ,0.0017341410757143742, ,0.00012310977613256709
233, ,PASS, ,0.026977244631761, ,0.020819632701782727, ,0.0017290323069757527, ,0.00012294922011327284
234, ,PASS, ,0.026936303830408, ,0.02075952178050673, ,0.00167494404348061, ,0.000122386498534895
235, ,PASS, ,0.027070600635504, ,0.020834932836642298, ,0.0017045376671428454, ,0.00012345670783788293
236, ,PASS, ,0.027745673653641, ,0.021404853747773553, ,0.0018035788937204229, ,0.00012986139925468912
237, ,PASS, ,0.027543492081016998, ,0.021308707194200784, ,0.0017533936111611029, ,0.00012835831398675418
238, ,PASS, ,0.027038077361759998, ,0.02090692003199184, ,0.0017003480997516303, ,0.00012375027115128518
239, ,PASS, ,0.027129613558763, ,0.020955678222117257, ,0.001735483569169647, ,0.00012442293149069337
240, ,PASS, ,0.027224780230823, ,0.021019827987426673, ,0.0017290483026681375, ,0.00012524516407842127
241, ,PASS, ,0.027235924669577, ,0.021085721096819277, ,0.0017469051690672864, ,0.00012569981434420053
242, ,PASS, ,0.027091867209215, ,0.020942974369083992, ,0.0017211716212105475, ,0.000124232746078613
243, ,PASS, ,0.027187595552704003, ,0.020920299071188187, ,0.001704789624512251, ,0.00012445349787475993
244, ,PASS, ,0.027182814886616002, ,0.020995774377109533, ,0.0016619723787685034, ,0.00012486905923319642
245, ,PASS, ,0.027196059452978004, ,0.02105147828796613, ,0.001780008976589348, ,0.00012528550011711633
246, ,PASS, ,0.027239094056390002, ,0.020950398141287536, ,0.0017191983627434192, ,0.00012486610986802004
247, ,PASS, ,0.027297978500097998, ,0.02105268872731048, ,0.0017802633908950022, ,0.00012574231895904839
248, ,PASS, ,0.02728766275072, ,0.0211015277516379, ,0.0017298851453397314, ,0.00012599873578994023
249, ,PASS, ,0.027324916147061, ,0.021108109300491184, ,0.0017782565834998853, ,0.00012618912038507072
250, ,PASS, ,0.027122111707557003, ,0.020982109151921106, ,0.0017667468254319598, ,0.00012458288068596774
251, ,PASS, ,0.027169180501636, ,0.02095256624392843, ,0.0017389602733420154, ,0.00012458242796819545
252, ,PASS, ,0.026909012480035, ,0.020814904022619943, ,0.0017583016566409908, ,0.00012253577326337757
253, ,PASS, ,0.026960334038473997, ,0.020862589797499824, ,0.001780830473335553, ,0.0001230612238858565
254, ,PASS, ,0.027120272615559, ,0.020961106835674505, ,0.0017917170979727638, ,0.00012442037710490346
255, ,PASS, ,0.02708576155234, ,0.020986194858251837, ,0.0017622428967749354, ,0.00012434474079047104
