Channel, ,Pass/Fail, ,Amplitude, ,Sorting Function Response, ,Mean, ,Variance, ,NPeaksRatio, ,PosIntegralRatio, ,ToT50, ,ToT99
86, ,PASS, ,0.049097559999999964, ,0.008242360423071976, ,0.039245477886369666, ,0.00040702298056340797, ,1.8333333333333333, ,0.7936110490888466, ,0.49445929674904593, ,0.06930470806718231
87, ,PASS, ,0.09840519599999999, ,0.013604189566554646, ,0.042921784480124896, ,0.0013457107209553863, ,1.6666666666666667, ,0.7215147226059886, ,0.5271320993449113, ,0.09869186343135854
88, ,PASS, ,0.07081915400000001, ,0.010868371750828061, ,0.04224233729389197, ,0.0007749451044899495, ,1.8333333333333333, ,0.7674634982748803, ,0.5313769106752924, ,0.22538315544580723
89, ,PASS, ,0.04862319, ,0.008273320466733266, ,0.039990738863900734, ,0.00040502539246856106, ,1.75, ,0.8062244000413126, ,0.5086426807616171, ,0.2185669680210608
90, ,PASS, ,0.10343854999999996, ,0.013353341593827955, ,0.044280764639380826, ,0.0013922941920324005, ,1.75, ,0.7035001671507554, ,0.5415603763188507, ,0.06522315871104671
91, ,PASS, ,0.073504624, ,0.010673239835198344, ,0.04007560959623273, ,0.0007876307512035121, ,1.75, ,0.7306333726771536, ,0.49831636089059406, ,0.14760923246464358
92, ,PASS, ,0.043546360000000006, ,0.008155618327390184, ,0.03906459357564132, ,0.00035821829805331813, ,1.8333333333333333, ,0.843223546227907, ,0.4951735678863697, ,0.2883002387706373
93, ,PASS, ,0.088225907, ,0.010113829037167383, ,0.04377439402991776, ,0.0009041224117156475, ,1.75, ,0.6672708224834034, ,0.5464378277994326, ,0.03585641109365115
94, ,PASS, ,0.07549607891999999, ,0.010843056647785215, ,0.0419632591132834, ,0.000823993576473809, ,1.8333333333333333, ,0.741197188085785, ,0.5261525274994387, ,0.10685496214362972
95, ,PASS, ,0.03958204000000003, ,0.007212600715860638, ,0.03963351759698782, ,0.0002888301192254011, ,1.75, ,0.8408813031207779, ,0.5047856166200689, ,0.11605885594171547
96, ,PASS, ,0.08446205400000002, ,0.009030678379068818, ,0.04350105065978246, ,0.000770909567611323, ,1.75, ,0.6348481660286204, ,0.5488459419195527, ,0.03289728781045285
97, ,PASS, ,0.0729786237, ,0.010576970397889462, ,0.04219945968980225, ,0.0007780067052311404, ,1.75, ,0.74891493969208, ,0.5316013958898798, ,0.14060937531887105
98, ,PASS, ,0.04088009000000002, ,0.006954246029962189, ,0.04000165338217588, ,0.000287479960196818, ,1.8333333333333333, ,0.8169552581181672, ,0.512581375890288, ,0.19499602048937778
99, ,FAIL, ,0.00024677000000000726, ,8.062799669704163e-06, ,0.03890370022183222, ,2.1229142875061976e-09, ,0.9166666666666666, ,0.3263093001458228, ,0.36527825962735455, ,0.0009999795922532194
100, ,PASS, ,0.07862191720000002, ,0.010862278364929503, ,0.04271563916058856, ,0.0008612944839236381, ,1.75, ,0.7276395943128234, ,0.5363972163833391, ,0.09085528866757821
101, ,PASS, ,0.03991003000000003, ,0.006971584476756151, ,0.03990738501091815, ,0.0002805797477752868, ,1.75, ,0.8225492506821545, ,0.506050896920471, ,0.2695251117324136
102, ,PASS, ,0.09420054000000004, ,0.010533803316984855, ,0.044072631462174244, ,0.0010018446176695895, ,1.75, ,0.6508733361145309, ,0.5500091834860513, ,0.03908083508499827
103, ,PASS, ,0.07975389968000003, ,0.011076721273425539, ,0.042836737902002, ,0.0008896364047102477, ,1.75, ,0.7306926001350169, ,0.533805432542193, ,0.11091610375298463
104, ,PASS, ,0.04027986000000003, ,0.007329919213376638, ,0.03928586098059224, ,0.0002976541788286774, ,1.8333333333333333, ,0.8362513936379422, ,0.4948470439378788, ,0.21017938409420217
105, ,PASS, ,0.096160414, ,0.011362169435935826, ,0.04373674960927328, ,0.0011028047452408584, ,1.75, ,0.6731933566437636, ,0.5411726291300177, ,0.044141956286606394
106, ,PASS, ,0.07931142400000003, ,0.01122219702880183, ,0.04222187517011897, ,0.0008954051663114355, ,1.8333333333333333, ,0.7348814496592064, ,0.5259892655251933, ,0.10395706210077345
107, ,PASS, ,0.05046320999999997, ,0.008357952848067533, ,0.04037843674516846, ,0.00042600672312736944, ,1.8333333333333333, ,0.80387336894104, ,0.5122344441950164, ,0.21499561233444214
108, ,PASS, ,0.11887385000000006, ,0.013854503346645279, ,0.045344493055245405, ,0.0016634126120627277, ,1.75, ,0.6678977933658854, ,0.5467847594947042, ,0.0422848513295647
109, ,PASS, ,0.08760825800000001, ,0.011586174701984643, ,0.04319931059235527, ,0.0010237242569123414, ,1.75, ,0.7129172257757098, ,0.5366421093447072, ,0.06769249607150875
110, ,PASS, ,0.049222680000000005, ,0.008339988911083859, ,0.040180215344992956, ,0.000414208996550001, ,1.8333333333333333, ,0.8123116162495394, ,0.510867125160711, ,0.25062753821350586
111, ,PASS, ,0.011687190000000028, ,0.0006595243082460036, ,0.03829700126201507, ,8.173321293905577e-06, ,1.1666666666666667, ,0.28733535758426826, ,0.47050060202853006, ,0.014060937531887105
112, ,PASS, ,0.08509835400000003, ,0.011382937460466315, ,0.04296519874725006, ,0.0009770738927017855, ,1.75, ,0.7165270373566868, ,0.5362951776494357, ,0.07497806167221077
113, ,PASS, ,0.05445276000000001, ,0.009241834048151683, ,0.04043982016142528, ,0.0005087221780571277, ,1.8333333333333333, ,0.8163165166530783, ,0.5099895920491418, ,0.21954653986653333
114, ,PASS, ,0.1225644, ,0.014416611728325012, ,0.04593132543390993, ,0.0017863785121477746, ,1.75, ,0.672041360908956, ,0.5509275320911818, ,0.04363176261708945
115, ,PASS, ,0.08695968800000003, ,0.011398344607188523, ,0.042885452036244165, ,0.0009985303186721246, ,1.75, ,0.7079649694552956, ,0.533172792391992, ,0.06603946858227383
116, ,PASS, ,0.06146158200000002, ,0.009889981573118567, ,0.040857381272953616, ,0.0006130471891969125, ,1.8333333333333333, ,0.7899556342944902, ,0.5159690618558805, ,0.17493520540397134
117, ,PASS, ,0.12092741, ,0.014322219940056119, ,0.04397534761061529, ,0.001742605576841697, ,1.5833333333333333, ,0.6664360625883451, ,0.5311728332074855, ,0.04681537111487521
118, ,PASS, ,0.08454187000000002, ,0.011150079594801158, ,0.0420738358611661, ,0.0009494796536536186, ,1.75, ,0.707780116336307, ,0.5203567274137263, ,0.06436603334625823
119, ,PASS, ,0.06165181500000001, ,0.010272242179104567, ,0.040757253677924946, ,0.0006386299069872531, ,1.8333333333333333, ,0.8044270548194514, ,0.5108263096671497, ,0.2017305769270015
120, ,PASS, ,0.11982313000000006, ,0.014126394338657922, ,0.04517869660635824, ,0.0017080791297907753, ,1.75, ,0.6709849632065867, ,0.5453562172200568, ,0.04716230281014673
121, ,PASS, ,0.0827947505, ,0.010962409789985292, ,0.04342052472623008, ,0.0009164055064396597, ,1.75, ,0.7163399361320517, ,0.5427848411256914, ,0.08222281177935144
122, ,PASS, ,0.05748499700000004, ,0.009607783271222813, ,0.03957772237811474, ,0.0005572989745632569, ,1.8333333333333333, ,0.8026853452338584, ,0.4954184608477378, ,0.18105752943817474
123, ,PASS, ,0.12310405000000002, ,0.014444362718468594, ,0.04571455186257505, ,0.0017952326441255943, ,1.75, ,0.6698514900546119, ,0.5486214567049652, ,0.045346013346666394
124, ,PASS, ,0.08558646500000001, ,0.011124452319007725, ,0.03965500803489725, ,0.0009585554275203543, ,1.75, ,0.6884463936565207, ,0.48868390441011406, ,0.03159119201648946
125, ,PASS, ,0.04616034999999999, ,0.008249128985243888, ,0.038981383994204206, ,0.00038437225868898035, ,1.8333333333333333, ,0.8224455794909356, ,0.4948266361910981, ,0.08238607375359687
126, ,PASS, ,0.11105741000000002, ,0.014338250619244609, ,0.04566838850137997, ,0.0016042447938686983, ,1.75, ,0.7077732463529653, ,0.5538050243872574, ,0.08491663435440093
127, ,PASS, ,0.0742937504, ,0.01086814151101602, ,0.04205941851066305, ,0.0008122723945716778, ,1.75, ,0.7471624627378669, ,0.5271729148384727, ,0.1589763474214812
198, ,PASS, ,0.19979999999999998, ,0.042061044250609726, ,0.005523510519377259, ,0.008658364123661548, ,2.0, ,0.9309822934161078, ,0.4972143425644375, ,0.42280769780208566
199, ,PASS, ,0.12229072999999999, ,0.01795099480408985, ,0.03326652940839984, ,0.0022775994008269055, ,1.9166666666666667, ,0.8543700612416883, ,0.48074529091243035, ,0.04012163017081284
200, ,PASS, ,0.10115437000000005, ,0.013485199325110234, ,0.035636209791636904, ,0.0014120514876307549, ,2.0, ,0.8360486182951218, ,0.484888063508908, ,0.030856513132385053
201, ,PASS, ,0.08945950000000003, ,0.012766931490559016, ,0.03541443512281382, ,0.0011766864653459746, ,2.0, ,0.8347939134722661, ,0.4868880226934144, ,0.0308156976388237
202, ,PASS, ,0.08986077, ,0.013163975845299757, ,0.03594028324038285, ,0.001206507317106325, ,1.8333333333333333, ,0.8377356979872651, ,0.4959490622640354, ,0.034693169527152505
203, ,PASS, ,0.085113566, ,0.012142365963628185, ,0.03553466860698762, ,0.0010658479886196447, ,2.0, ,0.8324024989780837, ,0.4851329564702761, ,0.03018305748862268
204, ,PASS, ,0.09282591999999999, ,0.013445399500278668, ,0.03278132395704169, ,0.001284204141624866, ,2.0, ,0.8386117384261581, ,0.4488887981877921, ,0.03459113079324912
205, ,PASS, ,0.10469824, ,0.015472739604672537, ,0.03532335254201956, ,0.001655733634028117, ,2.0, ,0.8404194984922995, ,0.49660211016101713, ,0.03328503499928573
206, ,PASS, ,0.1057126, ,0.015436855415647027, ,0.03436998745396135, ,0.0016787608584320354, ,2.0, ,0.8401314563312535, ,0.48876553539723677, ,0.03555029489194098
207, ,PASS, ,0.12041310999999998, ,0.01811583451237672, ,0.03516786913446665, ,0.0022344656439497648, ,2.0, ,0.8383575855827292, ,0.5013367074141344, ,0.036325789269606744
208, ,PASS, ,0.08498163900000001, ,0.012261006162418042, ,0.035360367494234816, ,0.0010820716647429714, ,2.0, ,0.8310632247274262, ,0.47880655496826596, ,0.03185649272463827
209, ,PASS, ,0.08925500600000001, ,0.012934304808948678, ,0.03573382717548622, ,0.0012003690806803, ,1.9166666666666667, ,0.823028340294511, ,0.4894798065345605, ,0.030142241995061325
210, ,PASS, ,0.08142222500000001, ,0.01198185958035967, ,0.03610465125728047, ,0.001003336194938253, ,1.9166666666666667, ,0.829884228592888, ,0.48794922552600967, ,0.03528499418379217
211, ,PASS, ,0.084171189, ,0.01218669214461479, ,0.03587914773082183, ,0.0010543552249375778, ,2.0, ,0.8323210722648418, ,0.4898675537233934, ,0.030040203261157937
212, ,PASS, ,0.089508432, ,0.013691623831366597, ,0.035818845121548544, ,0.0012596360455237009, ,2.0, ,0.8375182834690664, ,0.4871737311483439, ,0.034223791351196915
213, ,PASS, ,0.10459528000000004, ,0.015952580711913394, ,0.035002697221036314, ,0.0017134357280899756, ,2.0, ,0.8432122164589186, ,0.48784718679210626, ,0.035529887145160303
214, ,FAIL, ,0.0008505500000000055, ,8.147018530364407e-05, ,0.039151990208975335, ,7.024787503703319e-08, ,1.6666666666666667, ,0.5251363741618378, ,0.48843901144874596, ,0.010979367768004735
215, ,PASS, ,0.13259515, ,0.020590572712950683, ,0.03431939529825922, ,0.002784199491126843, ,2.0, ,0.8511417469903179, ,0.4991122630150405, ,0.0434889083896247
216, ,PASS, ,0.10071547000000003, ,0.015278891285476775, ,0.035117425580034285, ,0.0015816158350409303, ,2.0, ,0.8489159311112602, ,0.48870431215689475, ,0.039652251994857245
217, ,PASS, ,0.12425244999999996, ,0.018421212827001467, ,0.034509135890287965, ,0.0023547386547652194, ,2.0, ,0.8473491432706253, ,0.5012754841737924, ,0.03824411746699047
218, ,PASS, ,0.12099969000000002, ,0.018010033371607278, ,0.035311900307952906, ,0.002254396779002871, ,1.8333333333333333, ,0.8503793841509114, ,0.5063161976286198, ,0.03814207873308708
219, ,PASS, ,0.12049195999999998, ,0.017991894393588018, ,0.03409468920456726, ,0.002224463657675958, ,2.0, ,0.8506077032430336, ,0.49631640170608765, ,0.0405297851064264
220, ,PASS, ,0.06659649768, ,0.0093400065272933, ,0.036726969950613246, ,0.0006420446229040085, ,2.0, ,0.828025395358408, ,0.4859900818350646, ,0.027346380686108448
221, ,PASS, ,0.07538375800000002, ,0.010608289624767954, ,0.036349761421317926, ,0.0008195051822595376, ,2.0, ,0.8329561272325564, ,0.48825534172771984, ,0.029774902553009124
222, ,PASS, ,0.06857598140000001, ,0.009708619430485862, ,0.0367023171533234, ,0.0006844796003147466, ,2.0, ,0.8231513998044357, ,0.4863778290238975, ,0.026877002510152855
223, ,PASS, ,0.084541973, ,0.011710834125992085, ,0.03531732109710006, ,0.0010308527162565097, ,2.0, ,0.8325637224711148, ,0.4792147099038795, ,0.029325932123834206
224, ,PASS, ,0.13655478000000004, ,0.020230806505228325, ,0.03405267096385788, ,0.002833538851941767, ,1.9166666666666667, ,0.8517308748634727, ,0.5026019877145365, ,0.03722373012795657
225, ,PASS, ,0.11342477000000002, ,0.016263727208038037, ,0.0346776832813963, ,0.0019336517177180644, ,2.0, ,0.8466157076636194, ,0.5005203975429073, ,0.033427889226750475
226, ,PASS, ,0.11150936000000006, ,0.015514087478863486, ,0.033121471318870645, ,0.001797142321252682, ,1.8333333333333333, ,0.8455758482788134, ,0.4772963817064958, ,0.035121732209546744
227, ,PASS, ,0.15973510000000013, ,0.025022604064900214, ,0.031980831314462985, ,0.004094408395306602, ,2.0, ,0.8727075362978687, ,0.4955000918348605, ,0.07905961102834635
228, ,PASS, ,0.1231325, ,0.0178418945943645, ,0.034152453266380285, ,0.0022828862411346735, ,1.8333333333333333, ,0.8475413777910018, ,0.5006224362768107, ,0.03483602375461725
229, ,PASS, ,0.11111715000000003, ,0.015598073991634943, ,0.03428784493052714, ,0.0017879949472879388, ,2.0, ,0.8441943420371655, ,0.48831656496806186, ,0.03165241525683149
230, ,PASS, ,0.08489511600000002, ,0.011590628515448077, ,0.036488080035285, ,0.001022135118232252, ,1.9166666666666667, ,0.8342651786391669, ,0.4931532009550825, ,0.028162690557335564
231, ,PASS, ,0.15228885000000006, ,0.023017519900270567, ,0.03374613420195506, ,0.003574950635306927, ,2.0, ,0.8550755276848139, ,0.5038672680149384, ,0.03704006040693047
232, ,PASS, ,0.10156259000000001, ,0.014140368084193345, ,0.03585044060013388, ,0.0015037635615876488, ,1.9166666666666667, ,0.8428410219302492, ,0.4972755658047795, ,0.03038713495642946
233, ,PASS, ,0.11417015, ,0.01574892659984882, ,0.03485413378310525, ,0.0018657439876067425, ,2.0, ,0.849834227080859, ,0.49241852207097814, ,0.030550396930674885
234, ,PASS, ,0.13572192, ,0.0186400866603467, ,0.033804969831452425, ,0.0026280364565843756, ,2.0, ,0.8621201384234531, ,0.49670414889492054, ,0.0369176139262464
235, ,PASS, ,0.19686508000000016, ,0.03273374025487536, ,0.022316417950858203, ,0.0065631885871659254, ,2.0, ,0.9384716790458519, ,0.5102344850105099, ,0.4442358319217975
