Channel, ,Pass/Fail, ,Amplitude, ,Sorting Function Response, ,Mean, ,Variance, ,NPeaksRatio, ,PosIntegralRatio, ,ToT50, ,ToT99
0, ,PASS, ,0.04469139000000001, ,0.006994882530975198, ,0.03182947015877227, ,0.00031557196508460355, ,1.9166666666666667, ,0.7396659198665897, ,0.4156445786820677, ,0.08140650190812432
1, ,PASS, ,0.04381837000000001, ,0.006888809686757435, ,0.03182256360768147, ,0.00030471236216382053, ,1.9166666666666667, ,0.7400601182452361, ,0.41444052162200773, ,0.07571274055631518
2, ,PASS, ,0.04392550000000001, ,0.006920543947210454, ,0.031737784709495724, ,0.0003068846736099468, ,1.9166666666666667, ,0.7406740597694152, ,0.4146854145833758, ,0.07979428991245077
3, ,PASS, ,0.04394692, ,0.006909658125508109, ,0.03179040837044142, ,0.000306670499842586, ,1.8333333333333333, ,0.739454675166241, ,0.41409358992673617, ,0.0744882757494745
4, ,PASS, ,0.04376827, ,0.006881239497689587, ,0.03180314241668537, ,0.0003041002736751061, ,1.8333333333333333, ,0.7396129727708689, ,0.41490989979796333, ,0.0736515581314667
5, ,PASS, ,0.043809207, ,0.0068944054579680135, ,0.031382035603559115, ,0.00030511238231903235, ,1.8333333333333333, ,0.7409408845613136, ,0.4138895124589294, ,0.08152894838880839
6, ,PASS, ,0.04383117600000001, ,0.006882207289305395, ,0.03143167028366768, ,0.00030456344840420346, ,1.8333333333333333, ,0.7407667719333949, ,0.41444052162200773, ,0.07544743984816636
7, ,PASS, ,0.04379604, ,0.006875193819055579, ,0.031638371847309235, ,0.0003040193560846495, ,1.8333333333333333, ,0.7399926477042836, ,0.4146241913430338, ,0.07952898920430196
8, ,PASS, ,0.043886362, ,0.006917703370675962, ,0.03151943564723169, ,0.00030658027748865107, ,1.8333333333333333, ,0.7410237018369267, ,0.41405277443317484, ,0.08110038570641416
9, ,PASS, ,0.043850180000000016, ,0.006907145802295017, ,0.03156420350013265, ,0.0003058488861884586, ,1.9166666666666667, ,0.7422185421753223, ,0.4143792983816657, ,0.08375339278790228
10, ,PASS, ,0.043956937, ,0.006901765450416509, ,0.03162929391400176, ,0.00030631048198520605, ,1.8333333333333333, ,0.7409856779314953, ,0.41458337584947247, ,0.08087590049182669
11, ,PASS, ,0.04515800100000001, ,0.007091779881251842, ,0.03182033590722638, ,0.0003233174886740402, ,1.8333333333333333, ,0.7390163630907833, ,0.41709352870349586, ,0.0776310687536989
12, ,PASS, ,0.04404487100000002, ,0.006908502324528404, ,0.03174130546029673, ,0.0003072548380513084, ,1.8333333333333333, ,0.7403902928821675, ,0.41523642374645414, ,0.08067182302401991
13, ,PASS, ,0.043949109, ,0.006906429694741966, ,0.031855888503091775, ,0.0003063124315205446, ,1.8333333333333333, ,0.7413829883877899, ,0.4151752005061121, ,0.08224321952613212
14, ,PASS, ,0.043732009, ,0.006892855360424683, ,0.03160719205118263, ,0.0003043746904932802, ,1.8333333333333333, ,0.7409474756599094, ,0.41439970612844634, ,0.08252892798106161
15, ,PASS, ,0.043808076, ,0.006838324130441681, ,0.031757372766270074, ,0.00030262394975121584, ,1.8333333333333333, ,0.7396647814396274, ,0.41405277443317484, ,0.07401889757351891
16, ,PASS, ,0.043690307, ,0.006868748101890341, ,0.031718997901471396, ,0.0003031343816027477, ,1.8333333333333333, ,0.7408699214351588, ,0.4132568723087284, ,0.07501887716577213
17, ,PASS, ,0.04353599800000001, ,0.006833417790632126, ,0.031612536152731574, ,0.0003006329920784988, ,1.8333333333333333, ,0.7419280788183772, ,0.4133997265361931, ,0.07367196587824738
18, ,PASS, ,0.043652884, ,0.006868497277872057, ,0.03172894612375258, ,0.0003028596408825863, ,1.8333333333333333, ,0.7400074965196093, ,0.41329768780228976, ,0.07024346441909349
19, ,PASS, ,0.044515477000000025, ,0.007013040717445885, ,0.031799137366972104, ,0.00031499617560878566, ,1.8333333333333333, ,0.7403615900700532, ,0.41542009346748027, ,0.07685557437603315
20, ,PASS, ,0.04362883000000001, ,0.006908445920450305, ,0.031853076880063676, ,0.00030445123522871, ,1.8333333333333333, ,0.7434363517609315, ,0.41368543499112265, ,0.08101875471929144
21, ,PASS, ,0.04344024699999999, ,0.006847926963803733, ,0.031758248960021225, ,0.0003006019103715458, ,1.8333333333333333, ,0.7418699446705512, ,0.4134201342829738, ,0.07783514622150568
22, ,PASS, ,0.04356394600000001, ,0.006864182835779397, ,0.0316949856688639, ,0.0003019871550087282, ,1.8333333333333333, ,0.7403001044536047, ,0.41323646456194774, ,0.07212097712291586
23, ,PASS, ,0.043382545999999994, ,0.006865195098586823, ,0.03153053312850758, ,0.00030099873066865245, ,1.8333333333333333, ,0.7449595147406597, ,0.4127874941327728, ,0.07926368849615315
24, ,PASS, ,0.0435259, ,0.006847691845866276, ,0.03176707476398441, ,0.0003012816698795003, ,1.8333333333333333, ,0.7412425792199613, ,0.4126038244117467, ,0.08138609416134365
25, ,PASS, ,0.04340983, ,0.0068711369258639635, ,0.031623933704822346, ,0.0003014753956461683, ,1.8333333333333333, ,0.7442916071158647, ,0.41229770821003653, ,0.08163098712271179
26, ,PASS, ,0.04336646399999999, ,0.0068419532596843595, ,0.03158345190914471, ,0.000300014612433496, ,1.8333333333333333, ,0.7449112224761332, ,0.4137058427379033, ,0.08248811248750025
27, ,PASS, ,0.04372327500000002, ,0.006840507636128277, ,0.031738767825350504, ,0.0003022881141941517, ,1.8333333333333333, ,0.7429962941895979, ,0.413093610334483, ,0.08099834697251077
28, ,PASS, ,0.043463375000000005, ,0.006881729408499687, ,0.03159027383828902, ,0.0003023656764601911, ,1.8333333333333333, ,0.7443663999372869, ,0.41321605681516704, ,0.07724332156486602
29, ,PASS, ,0.043760621000000006, ,0.006853201035699075, ,0.031425025432583006, ,0.0003028975347105296, ,1.9166666666666667, ,0.7386080231504031, ,0.40664476235178876, ,0.072365870084284
30, ,PASS, ,0.044862852, ,0.00699081369519913, ,0.031630216511050795, ,0.0003168674689295082, ,1.8333333333333333, ,0.7393607039717925, ,0.4126650476520887, ,0.06832513622170976
31, ,PASS, ,0.075928140054, ,0.011039770704911227, ,0.031095192662503053, ,0.0008396567135396378, ,1.75, ,0.7018895353052106, ,0.4322768923083202, ,0.059345727638211464
32, ,PASS, ,0.09735088200000003, ,0.013904189076027158, ,0.030165428615762945, ,0.0013543842199364787, ,1.75, ,0.6936408925508375, ,0.4338686965572131, ,0.05742739944082774
33, ,PASS, ,0.046413264999999995, ,0.00734439617940274, ,0.03129146192424644, ,0.0003456382962720915, ,1.8333333333333333, ,0.7453701551701378, ,0.4066651700985694, ,0.0748556151915267
34, ,PASS, ,0.045503768, ,0.0072379807364436385, ,0.031163180914267057, ,0.000333977035538111, ,1.8333333333333333, ,0.7500740669505617, ,0.40823656660068164, ,0.08036570682230974
35, ,PASS, ,0.045411266000000006, ,0.007209185087132642, ,0.03136017013918083, ,0.00033198231256873184, ,1.8333333333333333, ,0.7474820520208532, ,0.40739984898267384, ,0.07191689965510908
36, ,PASS, ,0.045340115, ,0.007204648519271188, ,0.031131876460072243, ,0.00033117655710935206, ,1.8333333333333333, ,0.7477891686219589, ,0.4084610518152691, ,0.0765290504275423
37, ,PASS, ,0.045402110000000016, ,0.007233738292447159, ,0.031311031552621375, ,0.0003330351308370282, ,1.8333333333333333, ,0.7481395341141255, ,0.4080120813860942, ,0.07630456521295484
38, ,PASS, ,0.04520976900000002, ,0.007237393344104592, ,0.031064576751494866, ,0.00033161767485496356, ,1.8333333333333333, ,0.7532024254758023, ,0.40876716801697927, ,0.08473296463337483
39, ,PASS, ,0.044973738000000006, ,0.007184882707946595, ,0.0313114375537234, ,0.00032747981068200984, ,1.8333333333333333, ,0.7507063947893098, ,0.40948143915430296, ,0.07544743984816636
40, ,PASS, ,0.045291604, ,0.007200794174295174, ,0.031048551601599965, ,0.00033048823396246614, ,1.8333333333333333, ,0.7499205741730405, ,0.408910022244444, ,0.07934531948327585
41, ,PASS, ,0.045468796000000006, ,0.007176742142194757, ,0.030942508633293196, ,0.0003308085345649926, ,1.8333333333333333, ,0.7446923268074757, ,0.40813452786677823, ,0.07289647150058162
42, ,PASS, ,0.044997498000000004, ,0.007161368417057822, ,0.031025636707618213, ,0.0003267170979610689, ,1.8333333333333333, ,0.7500170901724371, ,0.4081549356135589, ,0.0831003448909206
43, ,PASS, ,0.045129515, ,0.0071562688781524626, ,0.031092925861717108, ,0.0003274805217648157, ,1.8333333333333333, ,0.7493344461572871, ,0.40856309054917245, ,0.07812085467643518
44, ,PASS, ,0.04493085600000002, ,0.0071702628802241125, ,0.031117695623354626, ,0.00032647690490862896, ,1.8333333333333333, ,0.7515747877008352, ,0.4087263525234179, ,0.0768963898695945
45, ,PASS, ,0.04481476000000001, ,0.007127794963624461, ,0.030959486656802922, ,0.00032375672251175243, ,1.8333333333333333, ,0.7488221015051345, ,0.4090936919654701, ,0.07012101793840941
46, ,PASS, ,0.044806459000000014, ,0.007124190722735986, ,0.03122446349523479, ,0.00032355995569839765, ,1.8333333333333333, ,0.7479954875918788, ,0.40823656660068164, ,0.07620252647905144
47, ,PASS, ,0.04470130200000001, ,0.007093794643275225, ,0.03125284745535806, ,0.00032142893207118256, ,1.8333333333333333, ,0.7477305866144736, ,0.4092773616864962, ,0.07020264892553213
48, ,PASS, ,0.044613108000000005, ,0.007076995877642754, ,0.031090456989653275, ,0.00032002503263972413, ,1.8333333333333333, ,0.7498039461733803, ,0.4103793800126528, ,0.07499846941899145
49, ,PASS, ,0.044593641999999996, ,0.007099929574702351, ,0.031096017326177016, ,0.0003209991635949068, ,1.8333333333333333, ,0.7502510233230751, ,0.40905287647190874, ,0.07734536029876941
50, ,PASS, ,0.044694948000000005, ,0.0070764704176528555, ,0.031149085541927714, ,0.00032068610404050867, ,1.8333333333333333, ,0.7487208952583146, ,0.408848799004102, ,0.0793861349768372
51, ,PASS, ,0.044814427000000004, ,0.007013341989797074, ,0.031034577413318096, ,0.0003185464206743124, ,1.8333333333333333, ,0.7452596663307616, ,0.4049917348625538, ,0.07110058978388197
52, ,PASS, ,0.04486724900000001, ,0.007124918100653381, ,0.031011025072549537, ,0.00032407918505940585, ,1.8333333333333333, ,0.747075215789649, ,0.408399828574927, ,0.07330462643619517
53, ,PASS, ,0.044768654000000005, ,0.007121153793716453, ,0.03102470733809514, ,0.00032319287129530997, ,1.8333333333333333, ,0.7491944230024848, ,0.40952225464786435, ,0.07534540111426298
54, ,PASS, ,0.04487377900000001, ,0.007140478549684301, ,0.03120516479377972, ,0.0003247454345589602, ,1.8333333333333333, ,0.7490997086579405, ,0.40866512928307586, ,0.07695761310993653
55, ,PASS, ,0.044928791, ,0.007171282179361048, ,0.03101654490353258, ,0.0003264833818419139, ,1.8333333333333333, ,0.7491931727792931, ,0.40915491520581215, ,0.07456990673659722
56, ,PASS, ,0.044810312000000005, ,0.00713775176368274, ,0.031056422100365296, ,0.0003240020683465333, ,1.8333333333333333, ,0.7478700994633608, ,0.40946103140752227, ,0.07056998836758434
57, ,PASS, ,0.044801090000000016, ,0.007144461982943824, ,0.031189651913838493, ,0.0003242436607222744, ,1.8333333333333333, ,0.7497214959419651, ,0.4098079631027938, ,0.07950858145752128
58, ,PASS, ,0.045201667999999987, ,0.007101350636628069, ,0.0310895935094794, ,0.0003252399988485837, ,1.8333333333333333, ,0.7450141003621936, ,0.4103997877594335, ,0.07618211873227076
59, ,PASS, ,0.04563685900000001, ,0.007317339261013202, ,0.0313458154022775, ,0.0003379564572035677, ,1.8333333333333333, ,0.7503558715935764, ,0.41605273361768125, ,0.08273300544886839
60, ,PASS, ,0.045323127, ,0.007155100416447008, ,0.030941006543131772, ,0.0003285079528965526, ,1.8333333333333333, ,0.7465730901593525, ,0.4096855166221098, ,0.07359033489112467
61, ,PASS, ,0.045317094000000016, ,0.007196040036363145, ,0.031040841913063, ,0.0003303396182579408, ,1.8333333333333333, ,0.7489639758602321, ,0.4102161180384074, ,0.07677394338891043
62, ,PASS, ,0.04522608199999999, ,0.0071801079982680115, ,0.03105367678153507, ,0.00032903380867446594, ,1.8333333333333333, ,0.747146702784023, ,0.40868553702985655, ,0.07440664476235179
63, ,PASS, ,0.045124416000000014, ,0.007179096757906397, ,0.031088074141752207, ,0.0003282586807870999, ,1.8333333333333333, ,0.7477660307609845, ,0.40942021591396094, ,0.07379441235893144
64, ,PASS, ,0.045138924000000004, ,0.007183800678878802, ,0.030791540863880328, ,0.0003284453949799661, ,1.8333333333333333, ,0.7482141689476097, ,0.40948143915430296, ,0.07303932572804636
65, ,PASS, ,0.04513663800000001, ,0.007160019037636705, ,0.031013049366135383, ,0.0003275330672742513, ,1.8333333333333333, ,0.7464462895571311, ,0.4079916736393135, ,0.0705087651272423
66, ,PASS, ,0.045355898000000006, ,0.0071754553136324185, ,0.03107310857353932, ,0.00032984655850542904, ,1.8333333333333333, ,0.7464611696862549, ,0.40915491520581215, ,0.07546784759494704
67, ,PASS, ,0.04591449800000001, ,0.007463464061955422, ,0.03138652252658109, ,0.0003456620015250507, ,1.8333333333333333, ,0.7528225339407846, ,0.4196444970510806, ,0.08048815330299382
68, ,PASS, ,0.04507030599999999, ,0.007168121864037023, ,0.031055972683741148, ,0.0003272196009039874, ,1.8333333333333333, ,0.7485759903657506, ,0.4105018264933369, ,0.07695761310993653
69, ,PASS, ,0.04511663899999999, ,0.007151307943735106, ,0.03104636467868003, ,0.00032701611415052054, ,1.8333333333333333, ,0.747166330065467, ,0.4084202363217077, ,0.07683516662925247
70, ,PASS, ,0.044962683, ,0.0071293317373327504, ,0.03110377335360503, ,0.0003248204092146126, ,1.8333333333333333, ,0.7471538403872491, ,0.4092365461929348, ,0.07367196587824738
71, ,PASS, ,0.04487203199999999, ,0.007121225921415135, ,0.031228639859390624, ,0.00032361200700856954, ,1.8333333333333333, ,0.7482049780992489, ,0.41023652578518804, ,0.07559029407563111
72, ,PASS, ,0.04509406200000001, ,0.00711237779024037, ,0.03098685264570111, ,0.000325091875187717, ,1.8333333333333333, ,0.7457188694968493, ,0.4091753229525928, ,0.07369237362502806
73, ,PASS, ,0.04515568200000001, ,0.0070998840880178654, ,0.03096021681720781, ,0.0003249255632506843, ,1.8333333333333333, ,0.7470683203303736, ,0.40915491520581215, ,0.07385563559927348
74, ,PASS, ,0.04488992400000001, ,0.007126959769656688, ,0.031126348889451233, ,0.0003240123067128157, ,1.8333333333333333, ,0.7473671151704216, ,0.4098283708495745, ,0.07744739903267281
75, ,PASS, ,0.04496388100000001, ,0.007092196190967539, ,0.03118424699322463, ,0.0003231270748417374, ,1.8333333333333333, ,0.7430113386265044, ,0.407705965184384, ,0.0647741882818718
76, ,PASS, ,0.04480177600000001, ,0.007134677800762709, ,0.031062919708291666, ,0.00032380919086280385, ,1.8333333333333333, ,0.7477959663256387, ,0.40948143915430296, ,0.0715291524662762
77, ,PASS, ,0.04475675500000001, ,0.00718030357959252, ,0.03127118710840595, ,0.00032524485870285934, ,1.8333333333333333, ,0.7502010305827572, ,0.4153792779739189, ,0.0760596722515867
78, ,PASS, ,0.04468495400000001, ,0.0071121423676454255, ,0.031074341165078262, ,0.00032198449825237007, ,1.8333333333333333, ,0.7462185431341656, ,0.4122568927164752, ,0.07181486092120569
79, ,PASS, ,0.044472529999999996, ,0.007038684712086369, ,0.031116030732597295, ,0.00031721786838977004, ,1.8333333333333333, ,0.7468936004044927, ,0.40978755535601313, ,0.07432501377522907
80, ,PASS, ,0.04479517800000002, ,0.007052549967960424, ,0.031025797340870596, ,0.00032007912761734255, ,1.8333333333333333, ,0.7463021407515656, ,0.4096242933817677, ,0.06946797004142773
81, ,PASS, ,0.044569333, ,0.007076636349858897, ,0.030985700973041364, ,0.00031959794275826915, ,1.8333333333333333, ,0.7463912792617544, ,0.4087467602701986, ,0.0727332095263362
82, ,PASS, ,0.044627256000000004, ,0.0070479131039411095, ,0.030813173013816045, ,0.00031870656408694104, ,1.8333333333333333, ,0.7452667742064818, ,0.4088079835105406, ,0.06830472847492908
83, ,PASS, ,0.04468445, ,0.00709566540088604, ,0.031094143106263135, ,0.00032137161655186673, ,1.8333333333333333, ,0.7476944967510413, ,0.40913450745903146, ,0.07536580886104365
84, ,PASS, ,0.044775059, ,0.00709072081099971, ,0.031043450170200607, ,0.0003217397947781803, ,1.8333333333333333, ,0.7469643009450613, ,0.40897124548478603, ,0.07205975388257382
85, ,PASS, ,0.044813067000000005, ,0.007116517241754064, ,0.03107957303259117, ,0.0003231730022692867, ,1.8333333333333333, ,0.7487439838192751, ,0.40895083773800533, ,0.07734536029876941
86, ,PASS, ,0.04497813100000001, ,0.007144503982727392, ,0.031145076315789475, ,0.0003255426909878445, ,1.8333333333333333, ,0.7471098728345585, ,0.408910022244444, ,0.08056978429011653
87, ,PASS, ,0.04522840500000001, ,0.007152430130921604, ,0.03112254481124875, ,0.0003277756237311965, ,1.8333333333333333, ,0.7437078782229464, ,0.4089916532315667, ,0.06832513622170976
88, ,PASS, ,0.045322463, ,0.007198065378245106, ,0.030906361355972325, ,0.00033044317477289384, ,1.8333333333333333, ,0.748212919261568, ,0.40931817718005753, ,0.07901879553478501
89, ,PASS, ,0.045265043000000005, ,0.007163164259506702, ,0.031013751139772658, ,0.00032848869005487006, ,1.8333333333333333, ,0.7472220046950511, ,0.4091753229525928, ,0.0763453807065162
90, ,PASS, ,0.04533234000000001, ,0.007192807472761891, ,0.03116222275422951, ,0.0003304467694696327, ,1.8333333333333333, ,0.7486800056109064, ,0.40905287647190874, ,0.07979428991245077
91, ,PASS, ,0.045485554000000004, ,0.007194383559239816, ,0.030972662864635417, ,0.00033156849772150607, ,1.8333333333333333, ,0.7480963215813659, ,0.4100324483173813, ,0.07577396379665721
92, ,PASS, ,0.046054441999999994, ,0.007229632837975167, ,0.031057755029407563, ,0.00033732625519630266, ,1.8333333333333333, ,0.7436702004427421, ,0.4088079835105406, ,0.06836595171527111
93, ,PASS, ,0.049309922, ,0.007805630681799963, ,0.030672380082651374, ,0.0003896504442411521, ,1.8333333333333333, ,0.7434216563496509, ,0.4103793800126528, ,0.07340666517009857
94, ,PASS, ,0.15359083, ,0.02248236564942035, ,0.02675390899134712, ,0.003457522523377179, ,1.75, ,0.703588400824738, ,0.43272586273749514, ,0.0607946776596396
95, ,PASS, ,0.048181167999999996, ,0.007654459702731914, ,0.030515274526540275, ,0.0003741046042718443, ,1.8333333333333333, ,0.7480721870710373, ,0.4066855778453501, ,0.07187608416154773
96, ,PASS, ,0.04465294400000001, ,0.007063484148360521, ,0.031061738636762513, ,0.00032036292593878396, ,1.75, ,0.7498020673503878, ,0.40605293769514905, ,0.07428419828166773
97, ,PASS, ,0.044387123, ,0.007019502418761271, ,0.03087390390481827, ,0.0003165732684516915, ,1.75, ,0.7504356164984978, ,0.4050529581028959, ,0.07559029407563111
98, ,PASS, ,0.04432089900000001, ,0.007016910795744544, ,0.030810993051570375, ,0.0003158868277807558, ,1.75, ,0.7475944410098886, ,0.40497132711577316, ,0.06512111997714333
99, ,PASS, ,0.044146117, ,0.00701154388157821, ,0.03105788535540091, ,0.00031429464097384253, ,1.8333333333333333, ,0.7497188454706198, ,0.40644068488398194, ,0.0732842186894145
100, ,PASS, ,0.044059732, ,0.006974822925687191, ,0.031076343132997283, ,0.000311992047943824, ,1.8333333333333333, ,0.7483241964681084, ,0.4059100834676843, ,0.07203934613579314
101, ,PASS, ,0.043913109000000006, ,0.006998750963220156, ,0.030840753989714496, ,0.0003121272652145574, ,1.8333333333333333, ,0.7510078353266862, ,0.4054611130385094, ,0.07299851023448502
102, ,PASS, ,0.04436150999999999, ,0.0069575606510609905, ,0.030938305104997853, ,0.00031343692139461685, ,1.8333333333333333, ,0.743612942695413, ,0.4057672292402196, ,0.060937531887104344
103, ,PASS, ,0.044434789999999995, ,0.006980158241079344, ,0.03111333174812759, ,0.0003147412616593022, ,1.8333333333333333, ,0.7489315147695353, ,0.4073386257423318, ,0.06840676720883247
104, ,PASS, ,0.044419819, ,0.007030473497912353, ,0.03105218164037469, ,0.0003172060091049945, ,1.8333333333333333, ,0.7471424322286458, ,0.40599171445480703, ,0.06861084467663925
105, ,PASS, ,0.04426515, ,0.007027082221374833, ,0.030647139186343136, ,0.00031570039214171507, ,1.8333333333333333, ,0.7500315855606842, ,0.405869267974123, ,0.07112099753066264
106, ,PASS, ,0.044360589, ,0.007033959952623814, ,0.03093321884267668, ,0.0003167422772742063, ,1.8333333333333333, ,0.7489873867031511, ,0.40664476235178876, ,0.07210056937613518
107, ,PASS, ,0.044432376000000016, ,0.007063671591760163, ,0.030904075350298973, ,0.00031851903051940516, ,1.8333333333333333, ,0.7499162185372447, ,0.40664476235178876, ,0.06887614538478806
108, ,PASS, ,0.04454611800000002, ,0.0070482359073116415, ,0.03107474616150691, ,0.00031880703344226745, ,1.8333333333333333, ,0.748440474198348, ,0.4076651496908226, ,0.07422297504132569
109, ,PASS, ,0.044534808999999995, ,0.007028334921856727, ,0.03092325878124936, ,0.0003178656641237777, ,1.8333333333333333, ,0.748064996683201, ,0.40609375318871044, ,0.07191689965510908
110, ,PASS, ,0.044377661, ,0.007078339540970546, ,0.030865949287361482, ,0.00031871198634944445, ,1.8333333333333333, ,0.7510582953066223, ,0.4080528968796555, ,0.07432501377522907
111, ,PASS, ,0.04455221300000001, ,0.007044435168021105, ,0.030737573362176283, ,0.0003185849584148254, ,1.8333333333333333, ,0.7463783739674998, ,0.40664476235178876, ,0.06479459602865248
112, ,PASS, ,0.044581766, ,0.007050665179965024, ,0.030981022935654374, ,0.00031910136915265676, ,1.8333333333333333, ,0.7471740967601737, ,0.40660394685822737, ,0.0697740862431379
113, ,PASS, ,0.04462905100000001, ,0.007059013333429931, ,0.030949713256056003, ,0.0003196672925334168, ,1.8333333333333333, ,0.7476107538682912, ,0.4058284524805616, ,0.07259035529887145
114, ,PASS, ,0.044434736, ,0.006998333385456154, ,0.030990262504234607, ,0.0003155196091482468, ,1.8333333333333333, ,0.7487637368318967, ,0.40739984898267384, ,0.06932511581396299
115, ,PASS, ,0.04436071200000001, ,0.0070079988224073094, ,0.03114699332360564, ,0.0003155404813552068, ,1.8333333333333333, ,0.7483035505656424, ,0.40729781024877043, ,0.06989653272382196
116, ,PASS, ,0.04428487700000001, ,0.007017482390926668, ,0.030807383429113693, ,0.00031537977657185713, ,1.8333333333333333, ,0.750501141634864, ,0.4055223362788514, ,0.07767188424726026
117, ,PASS, ,0.04440502400000001, ,0.007052112470208532, ,0.031034293360339586, ,0.00031786030765817465, ,1.8333333333333333, ,0.7488421846452817, ,0.40784881941184875, ,0.07214138486969654
118, ,PASS, ,0.044091983, ,0.006980629637174921, ,0.031050363084630925, ,0.0003125475658131964, ,1.8333333333333333, ,0.7501145695815118, ,0.4071753637680864, ,0.07524336238035959
119, ,PASS, ,0.044153765000000005, ,0.006981645296275992, ,0.031062297744127672, ,0.0003130018457828472, ,1.8333333333333333, ,0.7481457564669247, ,0.4068692475663762, ,0.06910063059937552
120, ,PASS, ,0.044140736000000014, ,0.006997114061521499, ,0.031234003924613785, ,0.00031351859159088884, ,1.8333333333333333, ,0.7484781191879913, ,0.4067876165792535, ,0.06832513622170976
121, ,PASS, ,0.044757435000000005, ,0.007104729748431332, ,0.030944304412358934, ,0.00032264856531435867, ,1.8333333333333333, ,0.7501432461411783, ,0.40699169404706026, ,0.07261076304565213
122, ,PASS, ,0.044174701999999996, ,0.006988078182541387, ,0.031006404629497355, ,0.0003132784177052682, ,1.8333333333333333, ,0.7458487575662829, ,0.4064202771372013, ,0.06734556437623722
123, ,PASS, ,0.04397979000000001, ,0.006974983721916339, ,0.03114699546335789, ,0.0003112987547696243, ,1.8333333333333333, ,0.7482509904858187, ,0.4067672088324728, ,0.07073325034182976
124, ,PASS, ,0.04358423, ,0.006868972558724713, ,0.03105475939082876, ,0.00030396110897119676, ,1.8333333333333333, ,0.7489674379160901, ,0.4071141405277443, ,0.07105977429032061
125, ,PASS, ,0.043883050000000014, ,0.006970906645183149, ,0.03103687934409502, ,0.0003105390281656635, ,1.8333333333333333, ,0.7493059801259158, ,0.40652231587110466, ,0.07416175180098365
126, ,PASS, ,0.04412755, ,0.006974369558936764, ,0.030997154171343442, ,0.000312375643567248, ,1.8333333333333333, ,0.7475956495723783, ,0.4076651496908226, ,0.07410052856064162
127, ,PASS, ,0.04419906000000001, ,0.006995394980741231, ,0.030929960322238322, ,0.0003137521813719851, ,1.8333333333333333, ,0.747352509509865, ,0.40737944123589315, ,0.06757004959082467
128, ,PASS, ,0.04398587999999999, ,0.0069215684525150666, ,0.031211989910205913, ,0.00030917390366247736, ,1.8333333333333333, ,0.7457262455234576, ,0.40693047080671824, ,0.07144752147915348
129, ,PASS, ,0.04446757, ,0.007051090878494103, ,0.03140221417440461, ,0.00031804203188631145, ,1.8333333333333333, ,0.7479322937600347, ,0.40764474194404193, ,0.075406624354605
130, ,PASS, ,0.04437419000000002, ,0.00700383809161348, ,0.03120650195444991, ,0.0003153787052321922, ,1.8333333333333333, ,0.7466195075349471, ,0.4076651496908226, ,0.07175363768086365
131, ,PASS, ,0.04396863000000001, ,0.006946990397086479, ,0.03127944403542785, ,0.0003101588523235742, ,1.8333333333333333, ,0.7472792960964624, ,0.4064202771372013, ,0.0765290504275423
132, ,PASS, ,0.04451681000000002, ,0.007021586304791646, ,0.031150146094161342, ,0.0003172950013809787, ,1.8333333333333333, ,0.7465510326784283, ,0.4072569947552091, ,0.07097814330319789
133, ,PASS, ,0.04443983, ,0.006930694763754619, ,0.030866922111385482, ,0.00031230495568721725, ,1.75, ,0.744927661823806, ,0.398073508703904, ,0.06899859186547214
134, ,PASS, ,0.04422505, ,0.007009432810086979, ,0.03120348253892778, ,0.0003146435648134507, ,1.8333333333333333, ,0.7476690883593522, ,0.40748147996979656, ,0.07093732780963653
135, ,PASS, ,0.04458075999999998, ,0.006996704304279755, ,0.03117040539009408, ,0.00031656687464161906, ,1.8333333333333333, ,0.7454110779386962, ,0.4060121222015877, ,0.07167200669374095
136, ,PASS, ,0.04423594000000002, ,0.0069958832056973294, ,0.031080659535111528, ,0.00031401538854374656, ,1.8333333333333333, ,0.7486036636807692, ,0.4080120813860942, ,0.07210056937613518
137, ,PASS, ,0.04469047000000001, ,0.0069924116472255965, ,0.03109955100569376, ,0.000316935669075654, ,1.75, ,0.7466560951057463, ,0.40442031795269484, ,0.07303932572804636
138, ,PASS, ,0.04435857000000001, ,0.007009949431549721, ,0.031182268547172508, ,0.00031554133349962827, ,1.8333333333333333, ,0.7477590450328545, ,0.40831819758780435, ,0.07387604334605416
139, ,PASS, ,0.04454982000000001, ,0.006997684075803633, ,0.03127115548437787, ,0.00031618169789549515, ,1.8333333333333333, ,0.7469137945127153, ,0.40691006305993754, ,0.07008020244484807
140, ,PASS, ,0.04404899, ,0.007003818825932503, ,0.031227168707169243, ,0.0003131869974717611, ,1.8333333333333333, ,0.7482588263760501, ,0.40764474194404193, ,0.07293728699414298
141, ,PASS, ,0.04429746000000001, ,0.006975266543769783, ,0.03112072947858207, ,0.0003135552422176524, ,1.8333333333333333, ,0.7440505660620195, ,0.40574682149343894, ,0.06730474888267586
142, ,PASS, ,0.04397375000000002, ,0.006974892427118905, ,0.03135095441746087, ,0.0003110512856645585, ,1.75, ,0.7499644639331094, ,0.4104814187465562, ,0.07248831656496806
143, ,PASS, ,0.04441599, ,0.006986001187681104, ,0.03113458084059509, ,0.0003149156342929968, ,1.8333333333333333, ,0.745812032668571, ,0.40699169404706026, ,0.06938633905430501
144, ,PASS, ,0.044537910000000014, ,0.006979562049217207, ,0.03117562804432563, ,0.0003154618714920108, ,1.8333333333333333, ,0.7468554276613095, ,0.4063182384032979, ,0.07083528907573315
145, ,PASS, ,0.04431782000000002, ,0.007026023310151734, ,0.031196388568396564, ,0.00031598988956359865, ,1.8333333333333333, ,0.7471221410116567, ,0.4080324891328748, ,0.07003938695128671
146, ,PASS, ,0.04456873000000001, ,0.007053859945076141, ,0.031206683135854372, ,0.0003189793562710743, ,1.8333333333333333, ,0.746751038240736, ,0.4073182179955511, ,0.07010061019162875
147, ,PASS, ,0.04447638000000001, ,0.007053477569954762, ,0.03123423124772964, ,0.0003184870096030409, ,1.8333333333333333, ,0.7477212523414224, ,0.40652231587110466, ,0.07267198628599417
148, ,PASS, ,0.044622860000000014, ,0.007083234813547259, ,0.031120732087916575, ,0.0003210408656946622, ,1.8333333333333333, ,0.7459278074260792, ,0.4105834574804596, ,0.07003938695128671
149, ,PASS, ,0.04440491000000001, ,0.007157612224073227, ,0.031452827999224504, ,0.0003224301063143894, ,1.9166666666666667, ,0.7484073641103419, ,0.4181547315360911, ,0.06975367849635722
150, ,PASS, ,0.04444979000000001, ,0.006972365948557708, ,0.030998938899614293, ,0.00031500752730428266, ,1.75, ,0.7450984511569345, ,0.40074692353217284, ,0.06738637986979858
151, ,PASS, ,0.044251210000000006, ,0.0069654106869892615, ,0.031083081530376932, ,0.0003130144844488445, ,1.75, ,0.74548406156376, ,0.4030734066651701, ,0.06650884675822942
152, ,PASS, ,0.044562140000000014, ,0.00704356901743269, ,0.03105513371869962, ,0.00031895588392240554, ,1.9166666666666667, ,0.7441510635170879, ,0.4055631517724128, ,0.06777412705863145
153, ,PASS, ,0.044488550000000016, ,0.007034889993044988, ,0.031152825000306115, ,0.000317741709407538, ,1.8333333333333333, ,0.7482474086054204, ,0.4073182179955511, ,0.07656986592110365
154, ,PASS, ,0.044636430000000005, ,0.0070448414192884334, ,0.031087367009856943, ,0.0003195460313711527, ,1.75, ,0.7475886034837842, ,0.4063794616436399, ,0.07840656313136467
155, ,PASS, ,0.04530477000000001, ,0.0071697725672949224, ,0.03116966474602559, ,0.00032954045926867324, ,1.8333333333333333, ,0.7469085008349028, ,0.4075631109569193, ,0.07252913205852941
156, ,PASS, ,0.08618591900000003, ,0.012542442808319497, ,0.030426962523295444, ,0.0010831763398339174, ,1.75, ,0.7029636712327259, ,0.43144017469031243, ,0.0566314973163813
157, ,PASS, ,0.08191422, ,0.0118305287851154, ,0.030471109175016838, ,0.0009710448924135908, ,1.75, ,0.7013063543940699, ,0.4301544866431297, ,0.05654986632925859
158, ,PASS, ,0.04375627000000001, ,0.006855212155622486, ,0.03111736580641211, ,0.00030436529960242297, ,1.8333333333333333, ,0.7444622560250441, ,0.4000326523948491, ,0.06263137486990061
159, ,PASS, ,0.04265739999999999, ,0.006755320022588452, ,0.03126870895022551, ,0.00029266210507097396, ,1.8333333333333333, ,0.7491679209914954, ,0.40578763698700027, ,0.07093732780963653
160, ,PASS, ,0.042754370000000014, ,0.006723996115842642, ,0.031288855721924046, ,0.00029219571214887175, ,1.8333333333333333, ,0.7453194707695946, ,0.40497132711577316, ,0.07099855104997857
161, ,PASS, ,0.042562130000000004, ,0.006728059108776142, ,0.031113866381706493, ,0.0002908025025333398, ,1.8333333333333333, ,0.7452558777108083, ,0.40397134752351993, ,0.07581477929021857
162, ,PASS, ,0.042465420000000004, ,0.006691552649513308, ,0.031272414379706535, ,0.0002884533882108332, ,1.75, ,0.7479580247740483, ,0.40523662782392195, ,0.07183526866798637
163, ,PASS, ,0.04241008000000001, ,0.0067554282834323305, ,0.03143425858084529, ,0.0002905992753363289, ,1.8333333333333333, ,0.7494296478830872, ,0.40905287647190874, ,0.07754943776657619
164, ,PASS, ,0.04224003, ,0.0067256571485814105, ,0.03122226179792249, ,0.0002884868173503822, ,1.8333333333333333, ,0.7515333426307342, ,0.40697128630027957, ,0.0718964919083284
165, ,PASS, ,0.04251853, ,0.006681677448202014, ,0.03125605757821269, ,0.00028854768647280156, ,1.8333333333333333, ,0.7478511565421713, ,0.40660394685822737, ,0.06844758270239383
166, ,PASS, ,0.042172799999999996, ,0.006777282284914836, ,0.031567802257913107, ,0.0002901309234874902, ,1.8333333333333333, ,0.752406657193161, ,0.4159506948837779, ,0.07614130323870942
167, ,PASS, ,0.0421954, ,0.006643660541991247, ,0.031407706574355626, ,0.0002842255964725239, ,1.8333333333333333, ,0.7498165161709242, ,0.4035427848411257, ,0.07034550315299688
168, ,PASS, ,0.04208051000000001, ,0.006673787867566153, ,0.031202483211771187, ,0.0002852564616096873, ,1.8333333333333333, ,0.7486139712917925, ,0.4030121834248281, ,0.07622293422583212
169, ,PASS, ,0.04217999, ,0.006591001177111633, ,0.031057353354625415, ,0.0002816090596097842, ,1.75, ,0.7475056372220104, ,0.3980939164506847, ,0.0679169812860962
170, ,PASS, ,0.041997709999999994, ,0.0066394376141316845, ,0.03124853398849003, ,0.0002832305804007301, ,1.8333333333333333, ,0.7493684506863714, ,0.4038284932960552, ,0.06808024326034162
171, ,PASS, ,0.042546070000000005, ,0.00666594122716, ,0.03136867421583233, ,0.00028792031058891065, ,1.8333333333333333, ,0.7460781025770372, ,0.4068692475663762, ,0.06961082426889247
172, ,PASS, ,0.042202420000000004, ,0.00665343977971568, ,0.031099464399502053, ,0.0002850143386628221, ,1.8333333333333333, ,0.7464955168641406, ,0.4001755066223138, ,0.07877390257341686
173, ,PASS, ,0.04203831, ,0.006728465036042212, ,0.03148986661476297, ,0.0002869127408747016, ,1.9166666666666667, ,0.7491600463904425, ,0.41484867655762125, ,0.06765168057794739
174, ,PASS, ,0.041908769999999984, ,0.006623504619606436, ,0.03139232479337156, ,0.0002819787989219557, ,1.8333333333333333, ,0.7470438927584586, ,0.4030529989183894, ,0.06748841860370197
175, ,PASS, ,0.041887259999999996, ,0.006607639926235804, ,0.031254234040733866, ,0.00028112168797381215, ,1.75, ,0.7459763066401461, ,0.40105303973388295, ,0.07436582926879043
176, ,PASS, ,0.041843950000000005, ,0.006618202683104966, ,0.031426763206261095, ,0.00028113621987721466, ,1.75, ,0.7470986743150722, ,0.40491010387543114, ,0.068753698904104
177, ,PASS, ,0.042024420000000014, ,0.006624205615316065, ,0.031458541628334113, ,0.00028276320107304423, ,1.8333333333333333, ,0.7462200564036859, ,0.40664476235178876, ,0.06571294463378298
178, ,PASS, ,0.04181723, ,0.006622753185163666, ,0.03140627904369299, ,0.000281154837917479, ,1.8333333333333333, ,0.7495849683371528, ,0.40739984898267384, ,0.07928409624293382
179, ,PASS, ,0.04184830999999999, ,0.0066408270525632395, ,0.03146286624640313, ,0.0002820805788404286, ,1.8333333333333333, ,0.7481083514687759, ,0.40646109263076263, ,0.07659027366788433
180, ,PASS, ,0.04202095, ,0.006693084676719119, ,0.03150198754351952, ,0.0002852991780207068, ,1.8333333333333333, ,0.7463631661307353, ,0.4091957306993735, ,0.07099855104997857
181, ,PASS, ,0.04172616999999999, ,0.006602836618916764, ,0.031379308987163526, ,0.00027955186704524084, ,1.8333333333333333, ,0.7492501372020705, ,0.40609375318871044, ,0.07503928491255281
182, ,PASS, ,0.04179381000000001, ,0.006538249154097271, ,0.031123714251137732, ,0.0002774143482723312, ,1.8333333333333333, ,0.7454400763200097, ,0.40209383481969757, ,0.07067202710148772
183, ,PASS, ,0.04198811999999998, ,0.006583123253607286, ,0.031162008344523585, ,0.00028063531063174895, ,1.8333333333333333, ,0.7484074078559037, ,0.4086243137895145, ,0.07534540111426298
184, ,PASS, ,0.04192006000000001, ,0.006659838342721217, ,0.031246735861513032, ,0.00028338618879906015, ,1.8333333333333333, ,0.7495557639721213, ,0.40688965531315685, ,0.0755086630885084
185, ,PASS, ,0.041715599999999985, ,0.006573343381544377, ,0.031220694503377482, ,0.0002783702206002514, ,1.8333333333333333, ,0.7458736397918225, ,0.40515499683679923, ,0.06891696087834942
186, ,PASS, ,0.04180568999999999, ,0.006587675511994991, ,0.03151544136446195, ,0.0002795354151644407, ,1.8333333333333333, ,0.7458267718566602, ,0.4067876165792535, ,0.06844758270239383
187, ,PASS, ,0.04196043999999999, ,0.006642933872569475, ,0.03129991464480317, ,0.000283417632632357, ,1.9166666666666667, ,0.758250059008213, ,0.4023387277810657, ,0.06646803126466806
188, ,PASS, ,0.04209654, ,0.006612107253779646, ,0.031163111539764497, ,0.0002826828444905753, ,1.75, ,0.7443644180382798, ,0.4013387481888125, ,0.06936593130752433
189, ,PASS, ,0.04181443, ,0.006637044950646438, ,0.03129292744352156, ,0.00028144353370184567, ,1.8333333333333333, ,0.7482686311806852, ,0.40856309054917245, ,0.07212097712291586
190, ,PASS, ,0.04185356999999999, ,0.006682493034161295, ,0.031277724527662705, ,0.0002836148002671297, ,1.9166666666666667, ,0.7475938093560323, ,0.4116650680598355, ,0.07201893838901247
191, ,PASS, ,0.042197540000000006, ,0.006611888390786618, ,0.03103956113140548, ,0.00028285053390012286, ,1.8333333333333333, ,0.7459149417465105, ,0.3985224791330789, ,0.07648823493398094
192, ,PASS, ,0.042411790000000005, ,0.0066483074081470335, ,0.031194668143711354, ,0.00028611666554694416, ,1.75, ,0.7473456748843821, ,0.3981551396910267, ,0.07859023285239077
193, ,PASS, ,0.04218032, ,0.006639173674514413, ,0.031222192918920023, ,0.00028424921523431934, ,1.75, ,0.7450472106365407, ,0.40264484398277584, ,0.06879451439766536
194, ,PASS, ,0.04210667, ,0.0066216570438982075, ,0.031237934675006632, ,0.0002829833436254659, ,1.8333333333333333, ,0.747013636887927, ,0.40407338625742334, ,0.06650884675822942
195, ,PASS, ,0.04188967, ,0.006652594720140791, ,0.03111562785045203, ,0.0002826761036345088, ,1.8333333333333333, ,0.7477750342780192, ,0.4082569743474623, ,0.07497806167221077
196, ,PASS, ,0.042154889999999993, ,0.0065926685809413205, ,0.03127961889798167, ,0.00028177239650189844, ,1.8333333333333333, ,0.7456368137609483, ,0.40348156160078363, ,0.06281504459092671
197, ,PASS, ,0.042127229999999995, ,0.006595405800439932, ,0.03128490078610641, ,0.000282028786366824, ,1.8333333333333333, ,0.7442077536537404, ,0.4071549560213057, ,0.06799861227321892
198, ,PASS, ,0.04183819, ,0.006605168769940585, ,0.03138632860635497, ,0.00028006395412766196, ,1.8333333333333333, ,0.7474982460479652, ,0.4079508581457521, ,0.07052917287402298
199, ,PASS, ,0.04170981, ,0.006602940476167376, ,0.03145346164343585, ,0.00027938902105356016, ,1.8333333333333333, ,0.7471846119857978, ,0.40744066447623517, ,0.07156996795983755
200, ,PASS, ,0.04154826999999998, ,0.006598428385804533, ,0.031356570731617725, ,0.00027803967909009356, ,1.8333333333333333, ,0.7470971902602983, ,0.40701210179384095, ,0.06973327074957654
201, ,PASS, ,0.042244430000000006, ,0.00664140048935392, ,0.03127033601150997, ,0.000284896522654659, ,1.75, ,0.7407234777961508, ,0.40866512928307586, ,0.06779453480541213
202, ,PASS, ,0.04189613, ,0.0067062134450503975, ,0.03145126618232281, ,0.0002850874876774763, ,1.8333333333333333, ,0.7476255073563367, ,0.4117875145405196, ,0.07210056937613518
203, ,PASS, ,0.042065160000000004, ,0.006622468242807205, ,0.03152496096834758, ,0.000282493242766626, ,1.8333333333333333, ,0.7446323802368024, ,0.40656313136466604, ,0.06630476929042264
204, ,PASS, ,0.041675790000000004, ,0.006599442127613025, ,0.03123138268790433, ,0.0002792396987847667, ,1.8333333333333333, ,0.7484104953062576, ,0.4034203383604416, ,0.07546784759494704
205, ,PASS, ,0.04215217, ,0.006627226438862994, ,0.03127302543213404, ,0.00028348421817215734, ,1.8333333333333333, ,0.7469451013601218, ,0.407195771514867, ,0.0763453807065162
206, ,PASS, ,0.04194633, ,0.006647839684544053, ,0.03120510981082019, ,0.00028286143299196344, ,1.8333333333333333, ,0.7474961653845469, ,0.40793045039897147, ,0.07381482010571212
207, ,PASS, ,0.042064649999999995, ,0.006471768271238823, ,0.031203981782616682, ,0.0002754908078128923, ,1.75, ,0.7421451316396337, ,0.3939307361074264, ,0.07038631864655823
208, ,PASS, ,0.04186389000000001, ,0.00678211390901138, ,0.03137348157894737, ,0.00028792239733224927, ,1.8333333333333333, ,0.7591854992846958, ,0.4084202363217077, ,0.07481479969796535
209, ,PASS, ,0.04169011, ,0.006619493183485031, ,0.031358454179710615, ,0.0002800102075280413, ,1.8333333333333333, ,0.7483832212090196, ,0.407073325034183, ,0.0762433419726128
210, ,PASS, ,0.04172840999999999, ,0.006554610399897465, ,0.031064850873247483, ,0.00027756886995109864, ,1.75, ,0.7443566610094553, ,0.4038489010428359, ,0.06554968265953756
211, ,PASS, ,0.04168327000000001, ,0.006569494185049637, ,0.03117395367502704, ,0.00027776277463600977, ,1.75, ,0.7486708508362859, ,0.4037468623089325, ,0.07546784759494704
212, ,PASS, ,0.04190241000000001, ,0.007032258934188411, ,0.03178799476357625, ,0.00029871964074801766, ,1.8333333333333333, ,0.7742533771952151, ,0.42060366114977243, ,0.07330462643619517
213, ,PASS, ,0.042157099999999996, ,0.0069573119051200725, ,0.031579780077549434, ,0.000297357888462875, ,1.9166666666666667, ,0.770259591505632, ,0.41203240750188774, ,0.07259035529887145
214, ,PASS, ,0.04193903, ,0.00657719962893629, ,0.03151807703352993, ,0.0002799676819851886, ,1.75, ,0.7452945856214727, ,0.4058488602273423, ,0.0637538009428379
215, ,PASS, ,0.04157085, ,0.006871729224158226, ,0.031591516130487135, ,0.0002898400465838206, ,1.8333333333333333, ,0.7708567592266453, ,0.41201199975510705, ,0.07552907083528908
216, ,PASS, ,0.04244126999999999, ,0.006670837827791917, ,0.031435940151425486, ,0.00028719138950672923, ,1.8333333333333333, ,0.7448588293623384, ,0.40599171445480703, ,0.06897818411869146
217, ,PASS, ,0.042060009999999995, ,0.0066076141015602875, ,0.031370605379890205, ,0.00028180392780598917, ,1.8333333333333333, ,0.7445729767298568, ,0.40478765739474704, ,0.07130466725168874
218, ,PASS, ,0.04803516700000002, ,0.007597144511336611, ,0.031217862223015855, ,0.0003693668259471887, ,1.8333333333333333, ,0.7439541851418789, ,0.4109303891757311, ,0.07395767433317688
219, ,PASS, ,0.14541871, ,0.021011884428576936, ,0.028639346435460504, ,0.003056588876380071, ,1.6666666666666667, ,0.6989727677105664, ,0.443888900226526, ,0.05634578886145181
220, ,PASS, ,0.04889603700000002, ,0.007575296361900292, ,0.03129378007869227, ,0.00037366581719236154, ,1.8333333333333333, ,0.7325810269614338, ,0.41727719842452193, ,0.08089630823860737
221, ,PASS, ,0.046766499, ,0.007614448066158951, ,0.031905821829962655, ,0.0003583190487305766, ,1.8333333333333333, ,0.7579701725243432, ,0.42421583232995247, ,0.08685537029856534
222, ,PASS, ,0.046723804000000015, ,0.0074635709335140205, ,0.03152943886414563, ,0.00035115626385134137, ,1.8333333333333333, ,0.7514617017445293, ,0.41188955327442295, ,0.08648803085651313
223, ,PASS, ,0.04618361700000001, ,0.0071929624031789, ,0.03137473584743168, ,0.00033508649031491704, ,1.8333333333333333, ,0.7345738672922664, ,0.41199159200832636, ,0.07963102793820534
224, ,PASS, ,0.04677727100000001, ,0.007255908852077027, ,0.03165720310177344, ,0.0003420742027884011, ,1.8333333333333333, ,0.7324134629475604, ,0.4167874125017857, ,0.06969245525601518
225, ,PASS, ,0.04650655800000001, ,0.007207586515195041, ,0.03180758141752209, ,0.0003378942766435156, ,1.8333333333333333, ,0.730906234556973, ,0.41570580192240975, ,0.0706108038611457
226, ,PASS, ,0.04658577400000001, ,0.0072212785795132085, ,0.03128966531683027, ,0.00033909787877476315, ,1.8333333333333333, ,0.7341564685487091, ,0.4134405420297545, ,0.07703924409705924
227, ,PASS, ,0.04654756700000001, ,0.007196746997906315, ,0.0313249044343993, ,0.0003378205933803416, ,1.8333333333333333, ,0.7310818805546537, ,0.4108487581886084, ,0.07446786800269382
228, ,PASS, ,0.046538704000000014, ,0.007244836494297686, ,0.03149513671676089, ,0.00033995044611369855, ,1.8333333333333333, ,0.7331659007361879, ,0.4163180343258301, ,0.06997816371094467
229, ,PASS, ,0.046479196, ,0.007251442559000509, ,0.0314382174467868, ,0.0003398389280337733, ,1.75, ,0.7335621959228582, ,0.4168690434889084, ,0.07203934613579314
230, ,PASS, ,0.04672272100000002, ,0.007243030040600649, ,0.03155792400889777, ,0.00034138894666318266, ,1.8333333333333333, ,0.7299740869582083, ,0.4160323258709006, ,0.07279443276667823
231, ,PASS, ,0.04679911300000002, ,0.007236879955192568, ,0.03152001049896941, ,0.0003413437609463607, ,1.8333333333333333, ,0.7300493292244244, ,0.4161139568580233, ,0.07528417787392094
232, ,PASS, ,0.04681196300000001, ,0.0072052305081410604, ,0.03128132336421706, ,0.00034019474227066186, ,1.8333333333333333, ,0.7294839555083693, ,0.4115834370727128, ,0.07756984551335687
233, ,PASS, ,0.04665036800000001, ,0.007262769883223696, ,0.0316751326111712, ,0.0003409115667322244, ,1.8333333333333333, ,0.7347811158221041, ,0.4206444766433338, ,0.07452909124303586
234, ,PASS, ,0.04661966600000001, ,0.007224764281030634, ,0.03151353513458909, ,0.00033954294042431174, ,1.8333333333333333, ,0.7318353941910626, ,0.41660374278075957, ,0.07044754188690026
235, ,PASS, ,0.04641301600000001, ,0.007364702401757693, ,0.03172879985673761, ,0.0003444592517127101, ,1.75, ,0.7397817554712947, ,0.4238280851411196, ,0.07899838778800433
236, ,PASS, ,0.04669268400000002, ,0.007287313947433948, ,0.031615253565641516, ,0.0003431161346257009, ,1.75, ,0.7350353754795522, ,0.417971061815065, ,0.07805963143609314
237, ,PASS, ,0.04684289100000001, ,0.007280805713672448, ,0.03144095577131079, ,0.00034377119241113963, ,1.8333333333333333, ,0.7328828400688082, ,0.41488949205118264, ,0.08132487092100162
238, ,PASS, ,0.04678633900000001, ,0.007274721330753228, ,0.031586021776698434, ,0.00034305186467649363, ,1.8333333333333333, ,0.7342094327593498, ,0.4172567906777413, ,0.07844737862492603
239, ,PASS, ,0.046794950000000016, ,0.007270969613334282, ,0.03167420118140446, ,0.00034286025964097496, ,1.8333333333333333, ,0.7335958958128183, ,0.4166853737678823, ,0.07863104834595212
240, ,PASS, ,0.04705640700000001, ,0.007310724892501909, ,0.031391724257260056, ,0.00034711723931170953, ,1.8333333333333333, ,0.7317076925947354, ,0.413787473725026, ,0.07614130323870942
241, ,PASS, ,0.04736240000000003, ,0.00734151250345062, ,0.031530705890287954, ,0.0003503373479941312, ,1.8333333333333333, ,0.7314171657206623, ,0.41905267239444094, ,0.0779984081957511
242, ,PASS, ,0.04703884000000001, ,0.007262253940793911, ,0.031443254256239665, ,0.0003445665131638888, ,1.75, ,0.7323511106591116, ,0.412522193424624, ,0.07701883635027856
243, ,PASS, ,0.04733384900000001, ,0.007344058641746022, ,0.03155667461092631, ,0.0003503054011824072, ,1.8333333333333333, ,0.7315289767479378, ,0.4176241301197935, ,0.07526377012714026
244, ,PASS, ,0.047556869000000015, ,0.007376584313880575, ,0.031405819152058125, ,0.0003535322381287213, ,1.8333333333333333, ,0.7328190388884143, ,0.4189710414073182, ,0.07091692006285585
245, ,PASS, ,0.04806742900000001, ,0.0074419720302695575, ,0.03170420378420848, ,0.0003605400359095683, ,1.75, ,0.7316139960954068, ,0.4189914491540989, ,0.07242709332462603
246, ,PASS, ,0.04860329400000002, ,0.007527507678567482, ,0.03148299262506887, ,0.00036839863147742377, ,1.8333333333333333, ,0.7324390141091397, ,0.4188485949266342, ,0.07654945817432297
247, ,PASS, ,0.04815340000000001, ,0.007406804857955829, ,0.03081824418105753, ,0.00035937008176638064, ,1.75, ,0.72747021141455, ,0.4085222750556111, ,0.07595763351768331
248, ,PASS, ,0.04815693500000002, ,0.007444375694717436, ,0.03143799563498704, ,0.0003613948739958108, ,1.8333333333333333, ,0.7313534586007193, ,0.41780779984081956, ,0.07446786800269382
249, ,PASS, ,0.04846713500000001, ,0.00751411982593359, ,0.03144566989694088, ,0.0003671703528607433, ,1.75, ,0.7319655022859111, ,0.4183588090038979, ,0.07736576804555009
250, ,PASS, ,0.048405239, ,0.007436861500517289, ,0.03116467591110386, ,0.00036306762199998706, ,1.8333333333333333, ,0.7269225934799476, ,0.4110120201628538, ,0.0671823024019918
251, ,PASS, ,0.048186008000000016, ,0.007527034717841001, ,0.03151857687700251, ,0.00036545141607096087, ,1.8333333333333333, ,0.7361753196033325, ,0.41862410971204667, ,0.07742699128589213
252, ,PASS, ,0.04777560400000001, ,0.007452881356813283, ,0.03140283761004877, ,0.00035867852626468707, ,1.8333333333333333, ,0.7346894232144668, ,0.4171751596906186, ,0.08352890757331483
253, ,PASS, ,0.048039937000000005, ,0.007476307457568081, ,0.03155403612130365, ,0.0003620649283667816, ,1.8333333333333333, ,0.7308960232872213, ,0.4168486357421277, ,0.07212097712291586
254, ,PASS, ,0.04868319800000001, ,0.007668057914775989, ,0.031743990344033794, ,0.00037540309630023017, ,1.8333333333333333, ,0.7370788326710214, ,0.4230525907634538, ,0.0765290504275423
255, ,PASS, ,0.04882342900000002, ,0.007581512369743209, ,0.03137947755621314, ,0.00037300954768561446, ,1.8333333333333333, ,0.7336108918473487, ,0.41831799351033655, ,0.07722291381808534
