Channel, ,Pass/Fail, ,Amplitude, ,Sorting Function Response, ,Mean, ,Variance
36, ,PASS, ,0.0063107222375705999, ,0.0041413661215418509, ,0.00049124566540962157, ,6.1319609336205257e-06
37, ,PASS, ,0.0097839248305894005, ,0.0063936174270844588, ,0.00046378376778594192, ,1.4684616434719679e-05
38, ,PASS, ,0.0102563515342762, ,0.006365803028233856, ,0.00049033195077297976, ,1.5369551015681272e-05
39, ,PASS, ,0.0076915146905225992, ,0.0050602640871058747, ,0.00069477483768910222, ,9.1185173757492608e-06
40, ,PASS, ,0.0076347203069611017, ,0.0050760782484572881, ,0.00047521086676872683, ,9.1056785472962558e-06
41, ,PASS, ,0.010675397086400397, ,0.0069730006788455189, ,0.00047947685607077905, ,1.7500743971219074e-05
42, ,PASS, ,0.010968668599684501, ,0.0071020906115286083, ,0.00069615748158357899, ,1.8289820612478428e-05
43, ,PASS, ,0.0079390978379644019, ,0.0051728349433657521, ,0.00070623556017186868, ,9.6350413500946876e-06
44, ,PASS, ,0.0086468479165091993, ,0.0054640823582153327, ,0.00066029604066390019, ,1.1051974403794532e-05
45, ,PASS, ,0.011167254136363203, ,0.0074344266555238766, ,0.00080160327372215726, ,1.9526268422525169e-05
46, ,PASS, ,0.0111681915463419, ,0.0073380201175227821, ,0.00050720440656956732, ,1.9259126888054537e-05
47, ,PASS, ,0.0074181496086318018, ,0.0048514320382108973, ,0.00068309550049430626, ,8.441559385319567e-06
48, ,PASS, ,0.0086612002151087962, ,0.0055171497971598675, ,0.00069516430446762067, ,1.1212650226818027e-05
49, ,PASS, ,0.012606574680306095, ,0.0084877045912893773, ,0.00063259934831683075, ,2.5198677024441888e-05
50, ,PASS, ,0.012861575887026203, ,0.008620274755109918, ,0.00064776728356130545, ,2.6143785965133939e-05
51, ,PASS, ,0.008747709101325201, ,0.0057022623337452732, ,0.00045670044358622048, ,1.171546547451645e-05
52, ,PASS, ,0.0079206990964688015, ,0.0051429427108125921, ,0.00042140502312472416, ,9.5530348028797823e-06
53, ,PASS, ,0.0126467203454338, ,0.0084032472145425009, ,0.00085034220518546749, ,2.4984629766500074e-05
54, ,PASS, ,0.013385332107008303, ,0.0088311298799078116, ,0.00075292046409260031, ,2.7779453779465795e-05
55, ,PASS, ,0.0088813475947587019, ,0.0058112621839796572, ,0.00071250277887615775, ,1.2112171570784766e-05
56, ,PASS, ,0.010613697062317101, ,0.005906639400477906, ,0.00038510417721185374, ,1.4877159467669155e-05
57, ,PASS, ,0.0162621929507221, ,0.0089282836687556971, ,0.00054033363716575965, ,3.4451778446202849e-05
58, ,PASS, ,0.016683536614104103, ,0.0092973711164371208, ,0.00035522326801268583, ,3.6838299872844765e-05
59, ,PASS, ,0.0110327409958019, ,0.0061852982467787984, ,0.00059419920388879041, ,1.6160471551407813e-05
