Channel, ,Pass/Fail, ,Amplitude, ,Sorting Function Response, ,Mean, ,Variance, ,NPeaksRatio, ,PosIntegralRatio, ,ToT50, ,ToT99
0, ,PASS, ,0.05372205775000002, ,0.00871088097356661, ,0.029397943623640333, ,0.00047349300023126706, ,1.75, ,0.7546628700906399, ,0.5345197036795167, ,0.10707944735821717
1, ,PASS, ,0.05313387950000001, ,0.008651913385412345, ,0.02933882244543989, ,0.0004653321996806703, ,1.75, ,0.7563918631257148, ,0.5349278586151303, ,0.11716087426787208
2, ,PASS, ,0.05347035824000001, ,0.008734387917534418, ,0.02940575805236628, ,0.0004726293415046882, ,1.75, ,0.7544890343451193, ,0.5351931593232792, ,0.10614069100630599
3, ,PASS, ,0.053199635470000006, ,0.008665183195312174, ,0.02934043582049346, ,0.00046636992606272196, ,1.75, ,0.7556358384248243, ,0.5354176445378666, ,0.11279361645680701
4, ,PASS, ,0.05325287195000001, ,0.008581511169157363, ,0.029521917008999816, ,0.0004627600290796296, ,1.75, ,0.7494087173794711, ,0.5341931797310259, ,0.08144731740168568
5, ,PASS, ,0.053076696150000005, ,0.0086271932337029, ,0.0295039913079529, ,0.0004633318355595024, ,1.75, ,0.7545988748356397, ,0.5345401114262974, ,0.10865084386032937
6, ,PASS, ,0.05292130230000001, ,0.008568192827922056, ,0.02931416390316524, ,0.0004590330777351605, ,1.8333333333333333, ,0.7550089829313716, ,0.5348666353747883, ,0.1099365319075121
7, ,PASS, ,0.05289954609000001, ,0.00858937013447071, ,0.029266889283892164, ,0.0004599420551880395, ,1.8333333333333333, ,0.7534535502427439, ,0.5324993367482296, ,0.1082630966714965
8, ,PASS, ,0.05298423613000001, ,0.008571559975978003, ,0.029406343243872573, ,0.000459432091090235, ,1.75, ,0.7539497681015386, ,0.5347237811473236, ,0.11003857064141548
9, ,PASS, ,0.05280283476000001, ,0.008554756994763995, ,0.029408544095426623, ,0.00045722754475305586, ,1.75, ,0.7541638253368039, ,0.5344176649456134, ,0.10963041570580193
10, ,PASS, ,0.05261228658999999, ,0.008496909708475213, ,0.029384537348850024, ,0.0004525166628350223, ,1.75, ,0.7508981583241139, ,0.5346013346666395, ,0.09571233240137957
11, ,PASS, ,0.05251544037, ,0.008538194481515089, ,0.02935169021195486, ,0.00045359903937072544, ,1.75, ,0.7545243424975887, ,0.5347645966408848, ,0.1146507214138487
12, ,PASS, ,0.05252558739999999, ,0.0084473534400808, ,0.029368187389216545, ,0.00044882028230115625, ,1.75, ,0.7501601352478889, ,0.534887043121569, ,0.08789616538437992
13, ,PASS, ,0.0523238508, ,0.008486077291210342, ,0.02932687801169364, ,0.000449178873518441, ,1.75, ,0.7553406522543552, ,0.5351115283361564, ,0.11116099671435277
14, ,PASS, ,0.052071124199999985, ,0.008474015875147494, ,0.029279787122568925, ,0.00044658096765092794, ,1.8333333333333333, ,0.7551476289079203, ,0.5348666353747883, ,0.11448745943960327
15, ,PASS, ,0.05233164658, ,0.008459759257246667, ,0.029307667767759837, ,0.0004479685135400527, ,1.8333333333333333, ,0.7541098950291417, ,0.5351523438297178, ,0.1068753698904104
16, ,PASS, ,0.05204977398, ,0.008452877236004182, ,0.02930091679457562, ,0.00044523894015496243, ,1.75, ,0.7542486878992336, ,0.5352135670700598, ,0.1098344931736087
17, ,PASS, ,0.05220914257999999, ,0.008443954944342996, ,0.029404416428909612, ,0.0004459199167888144, ,1.75, ,0.7514288387888963, ,0.5346829656537622, ,0.09312054856023347
18, ,PASS, ,0.05211147177999999, ,0.008369621312411236, ,0.029415859007346785, ,0.00044128028734053055, ,1.75, ,0.7505633734096097, ,0.5353972367910859, ,0.08965123160751821
19, ,PASS, ,0.05208248119999999, ,0.008424161634560256, ,0.02949401534370727, ,0.00044426087334518467, ,1.75, ,0.7520665879416578, ,0.5348054121344462, ,0.09756943735842126
20, ,PASS, ,0.05172042918999999, ,0.008412356237665428, ,0.02931324068896553, ,0.00044053187767717326, ,1.8333333333333333, ,0.7551007270932959, ,0.5346829656537622, ,0.11250790800187752
21, ,PASS, ,0.051900036579999996, ,0.008417850228891152, ,0.02936965245278668, ,0.000442221757828824, ,1.8333333333333333, ,0.7538688775989739, ,0.5353564212975246, ,0.10546723536254363
22, ,PASS, ,0.05184747299999999, ,0.008400203203871675, ,0.02951453402136691, ,0.0004409207619377846, ,1.8333333333333333, ,0.7554582159451448, ,0.5369890410399788, ,0.10785494173588295
23, ,PASS, ,0.0519798806, ,0.00842360771651893, ,0.02957958889655313, ,0.0004431323618000801, ,1.8333333333333333, ,0.7528095836140225, ,0.5358462072202608, ,0.09761025285198262
24, ,PASS, ,0.05334087358000001, ,0.008648720714873884, ,0.029870535639007368, ,0.00046723236584075015, ,1.8333333333333333, ,0.7539052517921255, ,0.5361931389155323, ,0.11240586926797412
25, ,PASS, ,0.09726281, ,0.014167819140868319, ,0.028983854616232325, ,0.0013916773154962693, ,1.75, ,0.6966385070227857, ,0.5177037203322381, ,0.09518173098508194
26, ,PASS, ,0.09477738, ,0.013898050185391335, ,0.02906758632791168, ,0.0013313360252949474, ,1.75, ,0.7007037621495023, ,0.5214791534866635, ,0.09701842819534295
27, ,PASS, ,0.04303819800000003, ,0.00739054035403198, ,0.02968377876937205, ,0.00032277843173418315, ,2.0, ,0.7977627746311408, ,0.5470092447092917, ,0.1445480704475419
28, ,PASS, ,0.041550460000000004, ,0.007104179042220374, ,0.02973450739097161, ,0.0002998509137730107, ,2.0, ,0.7949381869631972, ,0.5480704475418869, ,0.12367094549090835
29, ,PASS, ,0.041326512999999995, ,0.007135875873185329, ,0.02964988964584396, ,0.00029912230229061623, ,2.0, ,0.7940460968440545, ,0.544641946082733, ,0.11944654190730801
30, ,PASS, ,0.041334983999999984, ,0.007054867206495489, ,0.029551209191281808, ,0.0002961209909839855, ,2.0, ,0.7929498750028676, ,0.5449684700312238, ,0.10405910083467684
31, ,PASS, ,0.041089020999999996, ,0.0070943724722446495, ,0.02966885790345095, ,0.0002960381804574211, ,2.0, ,0.799854685015162, ,0.5479684088079835, ,0.1438950225505602
32, ,PASS, ,0.040924244999999984, ,0.007015225769190036, ,0.029605189956919246, ,0.0002918546220345035, ,2.0, ,0.8003758927941629, ,0.5488459419195527, ,0.12960959980408562
33, ,PASS, ,0.040872566000000006, ,0.0069951368740238705, ,0.029812254375053568, ,0.00029050759909494804, ,1.9166666666666667, ,0.7982534395547953, ,0.5484581947307198, ,0.12765045611314055
34, ,PASS, ,0.040812694000000004, ,0.0070120655077901, ,0.029815738677312707, ,0.00029058131497404775, ,2.0, ,0.8007463689037849, ,0.548315340503255, ,0.1355686618640436
35, ,PASS, ,0.040764974, ,0.0069964707365166665, ,0.029783708980265704, ,0.0002897351430184575, ,2.0, ,0.7992348956116042, ,0.5480704475418869, ,0.1311197730658558
36, ,PASS, ,0.040962271, ,0.007044741051417759, ,0.029670067529050426, ,0.0002928492327574791, ,2.0, ,0.7960517242848413, ,0.5472541376706598, ,0.11856900879573887
37, ,PASS, ,0.041198353, ,0.0070401956359103565, ,0.030026635756311097, ,0.00029466303113138574, ,2.0, ,0.7957079412377095, ,0.5477847390869575, ,0.1262219138384931
38, ,PASS, ,0.04125828200000001, ,0.007051538391551856, ,0.029654128895614373, ,0.0002954766657895913, ,2.0, ,0.7936642944735912, ,0.5466623130140201, ,0.11526295381726903
39, ,PASS, ,0.041152138000000005, ,0.007045218659146335, ,0.029735930483765636, ,0.0002945495934590208, ,2.0, ,0.798084820869391, ,0.5471520989367564, ,0.13001775473969918
40, ,PASS, ,0.041373615999999995, ,0.007135767120396334, ,0.029347182556641697, ,0.0002994914371422641, ,2.0, ,0.7981434540454504, ,0.5450501010183466, ,0.13771147527601477
41, ,PASS, ,0.041823753000000005, ,0.007109960799446026, ,0.029579386488194116, ,0.00030173729973485776, ,2.0, ,0.7955966567174002, ,0.5472541376706598, ,0.12163017081284055
42, ,PASS, ,0.041730740999999995, ,0.007160911680909572, ,0.02952118444131752, ,0.0003033513064817243, ,2.0, ,0.7966211199040562, ,0.5479684088079835, ,0.1393645027652497
43, ,PASS, ,0.042007704, ,0.007147938904723902, ,0.029629408037366585, ,0.0003047359312540214, ,2.0, ,0.792254658617919, ,0.5483765637435971, ,0.11654864186445174
44, ,PASS, ,0.042034116999999996, ,0.007221524352542512, ,0.02944913179157568, ,0.00030827893824379005, ,2.0, ,0.7951995056523569, ,0.5471316911899757, ,0.13673190343054223
45, ,PASS, ,0.042162213, ,0.007226650406342598, ,0.029372119305769266, ,0.00030946054003809173, ,2.0, ,0.7948562725751926, ,0.547050060202853, ,0.1360380400399992
46, ,PASS, ,0.04227808500000001, ,0.007226583071269694, ,0.029593285930103463, ,0.0003099492691579788, ,2.0, ,0.7950491171106095, ,0.5462949735719679, ,0.13444623579110632
47, ,PASS, ,0.042119184000000004, ,0.007208552473851488, ,0.029573504719515926, ,0.0003079686993333781, ,2.0, ,0.7922945565542656, ,0.5457439644088896, ,0.11560988551254056
48, ,PASS, ,0.041757509, ,0.007207558300218414, ,0.02948705555551927, ,0.00030542345204046586, ,2.0, ,0.7979616914653351, ,0.5462949735719679, ,0.14460929368788392
49, ,PASS, ,0.041708142000000004, ,0.007148349646936665, ,0.029449511376175994, ,0.00030282279937346267, ,2.0, ,0.7971552515579574, ,0.5493561355890696, ,0.13581355482541171
50, ,PASS, ,0.03733470000000001, ,0.006167886594280207, ,0.029643797101671397, ,0.0002343184756700627, ,1.9166666666666667, ,0.7916583206636131, ,0.5512132405461113, ,0.07965143568498602
