Channel, ,Pass/Fail, ,Amplitude, ,Sorting Function Response, ,Mean, ,Variance, ,NPeaksRatio, ,PosIntegralRatio, ,ToT50, ,ToT99
0, ,PASS, ,0.09660400000000001, ,0.015073074903238901, ,0.020476066348850026, ,0.0014716772454169283, ,1.9166666666666667, ,0.7261394169177697, ,0.4160323258709006, ,0.06434562559947757
1, ,PASS, ,0.09466501000000006, ,0.014803738858465533, ,0.02053383487867595, ,0.00141730201889228, ,1.9166666666666667, ,0.7261227958006481, ,0.41544050121426096, ,0.061651803024428076
2, ,PASS, ,0.09479678000000001, ,0.01482157539120976, ,0.020460068154935618, ,0.0014203280653252563, ,1.9166666666666667, ,0.7267110622121296, ,0.41533846248035755, ,0.06275382135058469
3, ,PASS, ,0.09455051000000007, ,0.014692539938236188, ,0.020605627591906293, ,0.001404397065169125, ,1.9166666666666667, ,0.7271223849075115, ,0.41615477235158466, ,0.062039550213260956
4, ,PASS, ,0.09357179, ,0.014644833456152065, ,0.020533201488867576, ,0.0013856877092245767, ,1.9166666666666667, ,0.7265870012903634, ,0.4148282688108406, ,0.06057019244505214
5, ,PASS, ,0.09303484000000004, ,0.014557268230335953, ,0.020638689826350483, ,0.0013693072654238144, ,1.9166666666666667, ,0.7272652646545759, ,0.41613436460480396, ,0.06295789881839146
6, ,PASS, ,0.09225001000000004, ,0.014466032078203009, ,0.020692619634415627, ,0.001349283769462911, ,1.9166666666666667, ,0.7292139359390876, ,0.4158690638966552, ,0.06546805167241485
7, ,PASS, ,0.09205295000000001, ,0.0144325845295072, ,0.020870228989183896, ,0.001343484589939267, ,1.9166666666666667, ,0.729422622707627, ,0.41478745331727923, ,0.0623660741617518
8, ,PASS, ,0.09191394000000003, ,0.014371439473366034, ,0.02071038495616416, ,0.0013356408552020551, ,1.9166666666666667, ,0.7271001644356266, ,0.4146241913430338, ,0.059162057917185366
9, ,PASS, ,0.09186464000000004, ,0.014392601083646891, ,0.020706870220424074, ,0.0013367477599311468, ,1.9166666666666667, ,0.7282584355256594, ,0.41576702516275177, ,0.06187628823901553
10, ,PASS, ,0.09135647, ,0.014323640771445562, ,0.020594726322850556, ,0.0013238514077202853, ,1.8333333333333333, ,0.728197650812763, ,0.4135221730168772, ,0.061733434011550785
11, ,PASS, ,0.09156314000000002, ,0.01433298505731052, ,0.021096294108936556, ,0.0013270078201113153, ,1.9166666666666667, ,0.7283678638640201, ,0.41531805473357686, ,0.06018244525621926
12, ,PASS, ,0.09152311999999999, ,0.01430587635893098, ,0.020893804716924147, ,0.0013238278144289029, ,1.9166666666666667, ,0.7295791432006571, ,0.41562417093528703, ,0.06246811289565519
13, ,PASS, ,0.09120901000000001, ,0.014309334474311711, ,0.020947056363441564, ,0.0013195428087333563, ,1.9166666666666667, ,0.7297197565030888, ,0.41542009346748027, ,0.06512111997714333
14, ,PASS, ,0.09106377, ,0.014300111956242312, ,0.020912277374829084, ,0.0013168225989790918, ,1.9166666666666667, ,0.7291196917653837, ,0.4156649864288484, ,0.0623660741617518
15, ,PASS, ,0.09144954000000002, ,0.01434929368696101, ,0.020817092540233874, ,0.0013268205809804261, ,1.9166666666666667, ,0.7292066591746067, ,0.4155833554417257, ,0.0630191220587335
16, ,PASS, ,0.09427483000000003, ,0.014769736400941199, ,0.02050665602355054, ,0.0014078233384789934, ,1.9166666666666667, ,0.7285243136523398, ,0.4155221322013836, ,0.06161098753086672
17, ,PASS, ,0.18118746000000002, ,0.028565483369449512, ,0.013649859555927428, ,0.005230927266395423, ,1.75, ,0.7211251650687315, ,0.41562417093528703, ,0.06589661435480909
18, ,PASS, ,0.09604121000000003, ,0.015013693026395674, ,0.020822510280769785, ,0.001459021782081372, ,1.8333333333333333, ,0.7415708785844705, ,0.41562417093528703, ,0.06659047774535214
19, ,PASS, ,0.08044387000000001, ,0.01229956179044867, ,0.022353942374502563, ,0.0010018172690033325, ,1.9166666666666667, ,0.7403165153061403, ,0.41535887022713824, ,0.07277402501989755
20, ,PASS, ,0.07947788000000003, ,0.012122692730806002, ,0.022257497595968657, ,0.0009757701075827748, ,1.9166666666666667, ,0.7405696805625643, ,0.4153996857206996, ,0.0732842186894145
21, ,PASS, ,0.07925627000000003, ,0.01207711871668519, ,0.02255010794812351, ,0.0009691145952986634, ,1.9166666666666667, ,0.7405690420260274, ,0.41572620966919044, ,0.07432501377522907
22, ,PASS, ,0.07951354000000002, ,0.012172645568567075, ,0.02222534912384972, ,0.0009801773858512497, ,1.9166666666666667, ,0.7418774790997619, ,0.4159915103773392, ,0.0748556151915267
23, ,PASS, ,0.07913975800000002, ,0.012118458772395816, ,0.022172655075800497, ,0.0009715062080954218, ,1.9166666666666667, ,0.7416990514060534, ,0.41272627089243075, ,0.07544743984816636
24, ,PASS, ,0.078772827, ,0.012038828635853049, ,0.022399772304522357, ,0.0009604004145234843, ,1.9166666666666667, ,0.7407357874418076, ,0.41521601599967345, ,0.07301891798126568
25, ,PASS, ,0.07857606400000001, ,0.011974079468566753, ,0.022419351522813824, ,0.0009531290368962762, ,1.9166666666666667, ,0.739242509857891, ,0.4150731617722087, ,0.07156996795983755
26, ,PASS, ,0.07824383000000001, ,0.01190522481730641, ,0.022299931808336566, ,0.0009434194776909681, ,1.9166666666666667, ,0.7390174591506011, ,0.41323646456194774, ,0.0717128221873023
27, ,PASS, ,0.07802924400000003, ,0.01187024594852796, ,0.022405971944735825, ,0.0009381870598725959, ,1.9166666666666667, ,0.7375844680417462, ,0.4147058223301565, ,0.06857002918307789
28, ,PASS, ,0.077800327, ,0.011867365029605318, ,0.022500287599220424, ,0.0009350426479415346, ,1.9166666666666667, ,0.7399539844584665, ,0.4157466174159711, ,0.07252913205852941
29, ,PASS, ,0.07781720400000003, ,0.01186922557711499, ,0.022457633443058303, ,0.0009354027718591352, ,1.9166666666666667, ,0.7398394891649993, ,0.4151343850125508, ,0.07195771514867043
30, ,PASS, ,0.077454169, ,0.011773158544647014, ,0.022453797721985264, ,0.0009233647311500477, ,1.9166666666666667, ,0.7399726513529938, ,0.41560376318850634, ,0.07122303626456603
31, ,PASS, ,0.07713093500000001, ,0.011763692229685771, ,0.02270246896020489, ,0.0009188035089634703, ,1.9166666666666667, ,0.7402380045236991, ,0.41644048080651414, ,0.0744882757494745
32, ,PASS, ,0.07665133699999999, ,0.011604488441552195, ,0.02235015886461501, ,0.0009009297733632292, ,1.9166666666666667, ,0.7376412745000154, ,0.4148282688108406, ,0.07183526866798637
33, ,PASS, ,0.07655339799999998, ,0.011592344737705294, ,0.022627375751596908, ,0.000898669292370245, ,1.9166666666666667, ,0.7379020728296395, ,0.4158282484030938, ,0.07146792922593416
34, ,PASS, ,0.07634612299999999, ,0.011507866074484816, ,0.022517118481990162, ,0.000889579620652812, ,1.9166666666666667, ,0.7375827515616953, ,0.415562947694945, ,0.07361074263790535
35, ,PASS, ,0.07615272099999999, ,0.01152451677333359, ,0.022531075407073324, ,0.0008889723540768391, ,1.9166666666666667, ,0.7374736111903089, ,0.41490989979796333, ,0.07191689965510908
36, ,PASS, ,0.07651206299999999, ,0.011651328981856817, ,0.02274118630523867, ,0.0009026536865860574, ,1.9166666666666667, ,0.7390472870562078, ,0.41529764698679617, ,0.07159037570661823
37, ,PASS, ,0.076572816, ,0.011662315162664142, ,0.022636537408807986, ,0.0009041500894660976, ,1.9166666666666667, ,0.7389161071581679, ,0.4151752005061121, ,0.0697740862431379
38, ,PASS, ,0.076593502, ,0.011669926530213232, ,0.022430693891267523, ,0.000905213565881497, ,1.9166666666666667, ,0.7401116901657335, ,0.41493030754474397, ,0.07156996795983755
39, ,PASS, ,0.076216748, ,0.011625852558619407, ,0.022419170586437012, ,0.0008975119260039544, ,1.9166666666666667, ,0.739918148365487, ,0.41488949205118264, ,0.07248831656496806
40, ,PASS, ,0.07698272099999999, ,0.011706816934404661, ,0.022425049382706477, ,0.0009126611804009043, ,1.9166666666666667, ,0.7387059836897556, ,0.415501724454603, ,0.07118222077100467
41, ,PASS, ,0.07716946399999998, ,0.011779559184040236, ,0.022298944889802247, ,0.0009203592833829028, ,1.9166666666666667, ,0.7393322316075442, ,0.4150119385318667, ,0.07071284259504908
42, ,PASS, ,0.077475256, ,0.011806737607074866, ,0.022575275463635438, ,0.0009260699933002611, ,1.9166666666666667, ,0.7398497075245772, ,0.4153792779739189, ,0.0718964919083284
43, ,PASS, ,0.077243393, ,0.01184136110295261, ,0.022379565476402522, ,0.0009262603085499931, ,1.9166666666666667, ,0.7411056713488811, ,0.4150731617722087, ,0.07397808207995756
44, ,PASS, ,0.07749668800000001, ,0.011821273457825812, ,0.022512631308977366, ,0.0009276790886288076, ,1.9166666666666667, ,0.7391581193134482, ,0.41525683149323483, ,0.07081488132895247
45, ,PASS, ,0.07736907400000001, ,0.011812125989871044, ,0.022428844351774453, ,0.0009254497423542118, ,1.9166666666666667, ,0.7395289675074428, ,0.41560376318850634, ,0.06871288341054264
46, ,PASS, ,0.07749460899999999, ,0.01184926440743754, ,0.02226425070727128, ,0.0009298468684252243, ,1.9166666666666667, ,0.7397635459160937, ,0.4147058223301565, ,0.0718964919083284
47, ,PASS, ,0.07786294199999999, ,0.011872177647086462, ,0.022351409249009205, ,0.0009359127413788594, ,1.9166666666666667, ,0.7408002744276021, ,0.4141956286606396, ,0.07118222077100467
48, ,PASS, ,0.07775701600000003, ,0.011917654814423456, ,0.022410574496557218, ,0.0009382876083225334, ,1.9166666666666667, ,0.7413720156604612, ,0.4154609089610416, ,0.0721822003632579
49, ,PASS, ,0.07780898700000001, ,0.011920126768998075, ,0.02231186678385951, ,0.0009393789108931375, ,1.9166666666666667, ,0.7401920342590232, ,0.414297667394543, ,0.07034550315299688
50, ,PASS, ,0.07816314300000003, ,0.0119816185355329, ,0.02226730813379319, ,0.0009482578199953727, ,1.9166666666666667, ,0.7416535244866294, ,0.41497112303830536, ,0.07295769474092366
51, ,PASS, ,0.07817663500000001, ,0.012021525223110969, ,0.022322824523286464, ,0.0009515559747855771, ,1.9166666666666667, ,0.7422034176506186, ,0.4148282688108406, ,0.07240668557784535
52, ,PASS, ,0.076887442, ,0.011704444511069445, ,0.02233645384251138, ,0.000911296406812002, ,1.9166666666666667, ,0.7396519761750384, ,0.4147466378237179, ,0.06744760311014061
53, ,PASS, ,0.07646997799999998, ,0.011658020650530636, ,0.02252417156161099, ,0.0009027270481394708, ,1.9166666666666667, ,0.7387887222998505, ,0.41615477235158466, ,0.07112099753066264
54, ,PASS, ,0.07654580400000001, ,0.01167754062571984, ,0.022400340820079183, ,0.0009053140791712239, ,1.9166666666666667, ,0.7398699322830941, ,0.4145425603559111, ,0.07093732780963653
55, ,PASS, ,0.07681864999999999, ,0.011673614673391166, ,0.022440519471923024, ,0.0009082860447574765, ,1.9166666666666667, ,0.7399559795117077, ,0.4150323462786474, ,0.06938633905430501
56, ,PASS, ,0.07648128299999997, ,0.01167398693844721, ,0.022386502876496395, ,0.0009042215890485246, ,1.9166666666666667, ,0.7406481006084673, ,0.41542009346748027, ,0.07228423909716128
57, ,PASS, ,0.07653462899999998, ,0.01168723499202955, ,0.022340257106471296, ,0.0009057087548355296, ,1.9166666666666667, ,0.7409968594591897, ,0.4146650068365952, ,0.07101895879675925
58, ,PASS, ,0.076804363, ,0.01176647432751162, ,0.022528699335448255, ,0.0009150688472155335, ,1.9166666666666667, ,0.7412199090778714, ,0.4146650068365952, ,0.0705087651272423
59, ,PASS, ,0.07726584199999999, ,0.011871058975627945, ,0.02257591126320483, ,0.0009286447050487301, ,1.9166666666666667, ,0.7413821628170149, ,0.4150731617722087, ,0.06834554396849044
60, ,PASS, ,0.076054443, ,0.0115920643112886, ,0.022513815166670066, ,0.000892842145598379, ,1.9166666666666667, ,0.7390392797638266, ,0.4146854145833758, ,0.06871288341054264
61, ,PASS, ,0.076386966, ,0.011613729214040285, ,0.022480161084122773, ,0.0008983453176854225, ,1.9166666666666667, ,0.7392706649169178, ,0.4152772392400155, ,0.06999857145772535
62, ,PASS, ,0.076562831, ,0.011644103093368307, ,0.02248230988387992, ,0.0009029150666117145, ,1.9166666666666667, ,0.7400058683729026, ,0.414991530785086, ,0.07287606375380094
63, ,PASS, ,0.07662979399999997, ,0.011701996428189525, ,0.022404872453194835, ,0.0009082911550275946, ,1.9166666666666667, ,0.7408160959418901, ,0.4151343850125508, ,0.07138629823881146
64, ,PASS, ,0.077086728, ,0.011786389458298463, ,0.022666207900642842, ,0.0009198621631388851, ,1.9166666666666667, ,0.7405471610514593, ,0.41646088855329483, ,0.068753698904104
65, ,PASS, ,0.07722438399999998, ,0.011785953920460475, ,0.02235626955320504, ,0.0009218324842512549, ,1.9166666666666667, ,0.7402885781071709, ,0.4150323462786474, ,0.06934552356074365
66, ,PASS, ,0.077189472, ,0.011811804147287427, ,0.022274554159892657, ,0.000923319950634058, ,1.9166666666666667, ,0.7405473087382014, ,0.4146241913430338, ,0.07005979469806739
67, ,PASS, ,0.07733644499999999, ,0.011826110361165654, ,0.02232476878549213, ,0.0009262227855904357, ,1.9166666666666667, ,0.7427363232433535, ,0.41490989979796333, ,0.07216179261647722
68, ,PASS, ,0.07768327, ,0.011907700123855374, ,0.02224438473016265, ,0.0009367634962233301, ,1.9166666666666667, ,0.74128719838604, ,0.4143384828881043, ,0.06691700169384299
69, ,PASS, ,0.07799047800000002, ,0.011985321862076013, ,0.02222768778238077, ,0.0009466864666853122, ,1.9166666666666667, ,0.742459296832724, ,0.41529764698679617, ,0.07077406583539111
70, ,PASS, ,0.078192554, ,0.012011907043307405, ,0.022357471492608316, ,0.0009510301495154737, ,1.9166666666666667, ,0.7436867573421336, ,0.4151752005061121, ,0.0728148405134589
71, ,PASS, ,0.078410267, ,0.012055485402695592, ,0.022441042429665926, ,0.000957084408717886, ,1.9166666666666667, ,0.743924374627184, ,0.41495071529152466, ,0.06997816371094467
72, ,PASS, ,0.07828512600000004, ,0.01208744759999165, ,0.02238762921353442, ,0.0009582631959273378, ,1.9166666666666667, ,0.7450001147469747, ,0.41476704557049854, ,0.07222301585681924
73, ,PASS, ,0.07850798200000002, ,0.01209126212195142, ,0.022107122375200506, ,0.0009612702486011425, ,1.9166666666666667, ,0.7426588510980298, ,0.414358890634885, ,0.06710067141486908
74, ,PASS, ,0.07806143500000001, ,0.012065149529863107, ,0.02226309952449542, ,0.0009539521049936093, ,1.9166666666666667, ,0.7443302038354486, ,0.4146650068365952, ,0.07301891798126568
75, ,PASS, ,0.07776025799999998, ,0.011991328230678906, ,0.022171066661883638, ,0.0009444421588307766, ,1.9166666666666667, ,0.743017548681121, ,0.4148078610640599, ,0.06767208832472807
76, ,PASS, ,0.07760325399999998, ,0.0119004460585485, ,0.022077052327883106, ,0.0009353374605523214, ,1.9166666666666667, ,0.7424239801973673, ,0.41478745331727923, ,0.07046794963368094
77, ,PASS, ,0.077451222, ,0.011880715731294867, ,0.022234422227487196, ,0.0009319156645331131, ,1.9166666666666667, ,0.7424194482521214, ,0.41448133711556906, ,0.07022305667231281
78, ,PASS, ,0.07713520800000001, ,0.011805457180052352, ,0.022482743888510442, ,0.0009220747047684504, ,1.9166666666666667, ,0.7425991293291625, ,0.41570580192240975, ,0.06942715454786637
79, ,PASS, ,0.07672298099999998, ,0.011728116130050367, ,0.02240094533005653, ,0.0009112697905024612, ,1.9166666666666667, ,0.7432653269551119, ,0.41442011387522704, ,0.07369237362502806
80, ,PASS, ,0.07733583299999999, ,0.011854406121414463, ,0.02231388088383094, ,0.000928673960075075, ,1.9166666666666667, ,0.7426397235878827, ,0.41478745331727923, ,0.0682026897410257
81, ,PASS, ,0.07774890300000002, ,0.011891459129839063, ,0.022220448584655418, ,0.0009361453838973494, ,1.9166666666666667, ,0.7428609090174465, ,0.4153792779739189, ,0.07038631864655823
82, ,PASS, ,0.077764369, ,0.011922108693670469, ,0.022222109104730516, ,0.0009389897336715362, ,1.9166666666666667, ,0.7423405722511248, ,0.4145629681026918, ,0.0695904165221118
83, ,PASS, ,0.077546391, ,0.011918525233789636, ,0.022341040127027204, ,0.000936345487157484, ,1.9166666666666667, ,0.7436960520044199, ,0.41476704557049854, ,0.06818228199424502
84, ,PASS, ,0.077439847, ,0.011895261778993728, ,0.022372797660108978, ,0.0009331149849197383, ,1.9166666666666667, ,0.7445803485567846, ,0.4163588498193914, ,0.07173322993408297
85, ,PASS, ,0.077722066, ,0.011887353446084485, ,0.022391392427956573, ,0.0009356743047986964, ,1.9166666666666667, ,0.7435181572841574, ,0.41521601599967345, ,0.06914144609293688
86, ,PASS, ,0.07792753, ,0.011957663188852259, ,0.022269578805664787, ,0.0009437679755300545, ,1.9166666666666667, ,0.7433296210283992, ,0.41497112303830536, ,0.0704067263933389
87, ,PASS, ,0.078527859, ,0.012103702634695417, ,0.022056135289319403, ,0.0009628249185166092, ,1.9166666666666667, ,0.7447138445519, ,0.41478745331727923, ,0.07195771514867043
88, ,PASS, ,0.07878344000000001, ,0.012086522528715008, ,0.022143286414775618, ,0.0009644344776662166, ,1.9166666666666667, ,0.7446604169098147, ,0.4151956082528928, ,0.07197812289545111
89, ,PASS, ,0.07867537000000001, ,0.012138326897310142, ,0.02204546774259301, ,0.0009672855894957061, ,1.9166666666666667, ,0.7459138531007313, ,0.4146650068365952, ,0.07165159894696027
90, ,PASS, ,0.07885212, ,0.01213641277808645, ,0.02213429642469542, ,0.000969155807503246, ,1.9166666666666667, ,0.7469403718365331, ,0.4147466378237179, ,0.07501887716577213
91, ,PASS, ,0.08105541000000005, ,0.012507636914179837, ,0.02192980962584437, ,0.0010267746316733526, ,1.9166666666666667, ,0.7449421506905163, ,0.41476704557049854, ,0.06765168057794739
92, ,PASS, ,0.17940214999999995, ,0.02848779659195433, ,0.013503748763902776, ,0.005166801799297834, ,1.8333333333333333, ,0.7307565727388862, ,0.4148282688108406, ,0.06548845941919552
93, ,PASS, ,0.09598921000000002, ,0.015083259617924996, ,0.02057678968757781, ,0.0014652270567974827, ,1.8333333333333333, ,0.7417467793231972, ,0.4136242117507806, ,0.06559049815309892
94, ,PASS, ,0.07987951000000001, ,0.012288510497862185, ,0.02214764016611498, ,0.0009936667026954752, ,1.8333333333333333, ,0.7441480293120186, ,0.41542009346748027, ,0.07234546233750332
95, ,PASS, ,0.07891341000000002, ,0.01222974798424762, ,0.022118494777382914, ,0.0009771948154462715, ,1.9166666666666667, ,0.7445199960864297, ,0.4150119385318667, ,0.07330462643619517
96, ,PASS, ,0.07898279000000001, ,0.012206006937285508, ,0.02209799951854003, ,0.0009759340699464653, ,1.8333333333333333, ,0.7427193037606892, ,0.4151752005061121, ,0.06665170098569417
97, ,PASS, ,0.07889940900000003, ,0.012222288778788469, ,0.022250871183272996, ,0.0009762836880575887, ,1.8333333333333333, ,0.7457358266507398, ,0.414991530785086, ,0.07446786800269382
98, ,PASS, ,0.07880953, ,0.012203050701937763, ,0.022216315021447317, ,0.0009736466262493986, ,1.8333333333333333, ,0.7439158259385544, ,0.4151547927593314, ,0.07165159894696027
99, ,PASS, ,0.07881571000000002, ,0.012172001714912622, ,0.02203446846724067, ,0.0009710832305000358, ,1.8333333333333333, ,0.7434105768635194, ,0.4146854145833758, ,0.06840676720883247
100, ,PASS, ,0.078197058, ,0.012076133535884648, ,0.022251236397343322, ,0.0009560344445163772, ,1.8333333333333333, ,0.7432536494162727, ,0.41450174486234975, ,0.07008020244484807
101, ,PASS, ,0.07786551400000001, ,0.012061448593688866, ,0.022254314685323975, ,0.0009509074631901354, ,1.8333333333333333, ,0.7435784969236322, ,0.414991530785086, ,0.06981490173669926
102, ,PASS, ,0.07793563, ,0.011952181791871361, ,0.022367921629982655, ,0.0009428475784982285, ,1.8333333333333333, ,0.7427463670045074, ,0.4166853737678823, ,0.07020264892553213
103, ,PASS, ,0.07752920700000002, ,0.011978854698502373, ,0.022124532530103876, ,0.0009403102533499847, ,1.8333333333333333, ,0.7418349975208484, ,0.4158690638966552, ,0.06630476929042264
104, ,PASS, ,0.07779530800000001, ,0.012005664931651287, ,0.0222527062289088, ,0.0009456893679290178, ,1.8333333333333333, ,0.7426890207004172, ,0.4142364441542009, ,0.06936593130752433
105, ,PASS, ,0.07768472600000002, ,0.012008092223730582, ,0.022044811979147774, ,0.0009446278733504521, ,1.8333333333333333, ,0.7423003983113369, ,0.4143180751413236, ,0.06812105875390298
106, ,PASS, ,0.07769337700000001, ,0.011981707444213537, ,0.02219746692661252, ,0.0009424258532851126, ,1.8333333333333333, ,0.7436491860117457, ,0.414297667394543, ,0.07012101793840941
107, ,PASS, ,0.077725749, ,0.012006463665966782, ,0.021889044135435604, ,0.0009453154179982426, ,1.8333333333333333, ,0.7426500287268809, ,0.41282830962633416, ,0.0671823024019918
108, ,PASS, ,0.077769766, ,0.012024003995240586, ,0.022145984908721047, ,0.0009468876820019817, ,1.8333333333333333, ,0.7433425513475224, ,0.41533846248035755, ,0.07016183343197077
109, ,PASS, ,0.07779830500000001, ,0.012036121486604115, ,0.022158258301236713, ,0.0009480628906080094, ,1.8333333333333333, ,0.7414921329214449, ,0.4146241913430338, ,0.06344768474112773
