Channel, ,Pass/Fail, ,Amplitude, ,Sorting Function Response, ,Mean, ,Variance
0, ,PASS, ,0.067553060441648, ,0.044683886933494676, ,0.0056221097110297205, ,0.0006460403925514482
1, ,PASS, ,0.06637216983166702, ,0.044055520498477135, ,0.005525051799734938, ,0.0006260968489362535
2, ,PASS, ,0.06617743399255302, ,0.04391834784969287, ,0.00550431856914283, ,0.0006225326632042086
3, ,PASS, ,0.06536354179328002, ,0.04339849666789045, ,0.0054347714057116575, ,0.0006077306902044601
4, ,PASS, ,0.06484728102506201, ,0.04296673560802264, ,0.005350018097541974, ,0.0005969970140906802
5, ,PASS, ,0.06455965077138401, ,0.042830313659751665, ,0.0053493021411078635, ,0.0005925972457184383
6, ,PASS, ,0.06435653939125602, ,0.04256522169851949, ,0.005331332478205959, ,0.0005871567059844114
7, ,PASS, ,0.06420508597769001, ,0.04243733124038735, ,0.005306041185242397, ,0.0005840298277867783
8, ,PASS, ,0.06439118378061198, ,0.042461948158768865, ,0.005321348078398968, ,0.0005862394719983408
9, ,PASS, ,0.063845073490334, ,0.04232591121643953, ,0.005213653600686786, ,0.0005797557346537064
10, ,PASS, ,0.06330909729169198, ,0.04174773022160474, ,0.005208441444323193, ,0.0005670231307012567
11, ,PASS, ,0.063186835275897, ,0.04163189919532224, ,0.0051720949185296745, ,0.0005644353201630603
12, ,PASS, ,0.064072867419981, ,0.04247700592087209, ,0.005208900095227871, ,0.0005842473158690207
13, ,PASS, ,0.097813241380915, ,0.06488359322478472, ,0.007963824849052356, ,0.0013600044857867628
14, ,PASS, ,0.09999999997600005, ,0.08460545952344428, ,0.007216267289995409, ,0.0018469358448966763
15, ,PASS, ,0.048590605499585, ,0.037162036119408805, ,0.0027287221706436397, ,0.000396571682173907
16, ,PASS, ,0.045029255103898005, ,0.0345557002955013, ,0.002410932547718946, ,0.00034225618264786215
17, ,PASS, ,0.044944394811973, ,0.03441085270731275, ,0.002382096929916136, ,0.0003400943908741441
18, ,PASS, ,0.04520566786194001, ,0.0347068888052811, ,0.0024580747914109526, ,0.00034486435568983664
19, ,PASS, ,0.044865325401463, ,0.034468897047978134, ,0.0024502894370259727, ,0.0003399968229737771
20, ,PASS, ,0.044743822449333, ,0.03434148379672872, ,0.0024105981996464126, ,0.0003377580892466185
21, ,PASS, ,0.044803330703616986, ,0.034331377771379304, ,0.002410002907313623, ,0.0003380950188067843
22, ,PASS, ,0.044751991297529006, ,0.03427222328610463, ,0.00241695213338482, ,0.0003371773885467554
23, ,PASS, ,0.044557217092777, ,0.03416121808506918, ,0.0023907871466000707, ,0.00033466437888149566
24, ,PASS, ,0.04453797247595501, ,0.03412425039187965, ,0.0024367008969080816, ,0.000334124576167643
25, ,PASS, ,0.044556710664286, ,0.03411709013667146, ,0.002423448450047277, ,0.00033413895997575806
26, ,PASS, ,0.044458422865797, ,0.03405777932903993, ,0.0025092401897275516, ,0.00033287048455458995
27, ,PASS, ,0.044543473505788, ,0.034086711325931676, ,0.0024857530333418157, ,0.00033372058389582305
28, ,PASS, ,0.044548636192633995, ,0.03405860733302719, ,0.0024776549737622793, ,0.0003335303668349428
29, ,PASS, ,0.044735021528286, ,0.034174497090861115, ,0.002476884894253638, ,0.0003359711853432513
30, ,PASS, ,0.044769475193077994, ,0.03424104297178486, ,0.0025384845518269727, ,0.000336881010924155
31, ,PASS, ,0.044796570516108, ,0.03429252455289263, ,0.002482455381346377, ,0.00033748760526315397
32, ,PASS, ,0.04501100346857401, ,0.03451909992289204, ,0.0025135674753808913, ,0.00034119281815251127
33, ,PASS, ,0.045179301714344006, ,0.034616149209559445, ,0.002570588588122644, ,0.0003433553056800722
34, ,PASS, ,0.045231606839074, ,0.034692619657243136, ,0.0026068737667691794, ,0.00034449547028572085
35, ,PASS, ,0.045199569715951, ,0.0345867937119939, ,0.002583129190072523, ,0.0003432219204316449
36, ,PASS, ,0.04515553277994799, ,0.034565811620169196, ,0.00252185147489713, ,0.0003427446688846667
37, ,PASS, ,0.045398198891330996, ,0.03464749966432833, ,0.002561837978488831, ,0.00034539394820476567
38, ,PASS, ,0.045281341276399004, ,0.034606076181847495, ,0.002542155327418122, ,0.00034408094236677145
39, ,PASS, ,0.04514893547302501, ,0.03444253523812109, ,0.0025949329516329576, ,0.00034149085540314086
40, ,PASS, ,0.045249258521257996, ,0.03456620965498014, ,0.002582418087578528, ,0.0003435129461718971
41, ,PASS, ,0.045656660795200005, ,0.03472598262142306, ,0.0025549965617313393, ,0.000348134074453152
42, ,PASS, ,0.04619950980946601, ,0.03509352517736511, ,0.002603400200232529, ,0.0003558149924285755
43, ,PASS, ,0.046325524437919, ,0.03523746249536341, ,0.002646131937682062, ,0.0003583144138073125
44, ,PASS, ,0.046377213453309, ,0.035150858763963795, ,0.002612905016768998, ,0.00035772629247163344
45, ,PASS, ,0.046368818817004, ,0.03527427972920405, ,0.0026147249775245007, ,0.0003589450050064323
46, ,PASS, ,0.046507567531046005, ,0.035280138889018146, ,0.0026148219111947466, ,0.00036000973889885665
47, ,PASS, ,0.047077886195418, ,0.03586425239809027, ,0.0027522825143369467, ,0.00037021566716438837
48, ,PASS, ,0.046570189666674006, ,0.03530597942576322, ,0.0026353030318538007, ,0.0003608622399503758
49, ,PASS, ,0.046584703087069995, ,0.035277286256070614, ,0.0025686595688625526, ,0.00036064024927432516
50, ,PASS, ,0.04661472031683499, ,0.03525182106268087, ,0.002607814212705812, ,0.00036055579273653416
51, ,PASS, ,0.0464135895227, ,0.035107796953006164, ,0.0026318276872130198, ,0.0003576804407131607
52, ,PASS, ,0.046572534714511005, ,0.035312452704638744, ,0.0026797067498535855, ,0.0003608942885907148
53, ,PASS, ,0.046660979986536996, ,0.035375048192024555, ,0.0026631761887726787, ,0.00036204071893876534
54, ,PASS, ,0.046718195641258994, ,0.03543778443755963, ,0.0026779185370436037, ,0.00036309377136684696
55, ,PASS, ,0.047546079025384005, ,0.036181044743807074, ,0.002820624110774159, ,0.0003769343667858502
56, ,PASS, ,0.04694285033455599, ,0.03552532629480422, ,0.0026284604925521106, ,0.00036566911943752194
57, ,PASS, ,0.046922263791846996, ,0.03546660027744472, ,0.0026518362557263267, ,0.00036503757257948764
58, ,PASS, ,0.04694028434071001, ,0.03546203716690509, ,0.002655866144010476, ,0.00036516231851764464
59, ,PASS, ,0.046936264616583, ,0.035391974952601324, ,0.0026383213962516854, ,0.00036439335101723727
60, ,PASS, ,0.04737183705402, ,0.035700364968150426, ,0.0026397259153991847, ,0.00037098822923839475
61, ,PASS, ,0.04745616906090701, ,0.035674436076752435, ,0.002669419507765505, ,0.00037143436904289723
62, ,PASS, ,0.04739255887477099, ,0.03571964692952046, ,0.0026065462780280324, ,0.00037134345556975526
63, ,PASS, ,0.04741369155939801, ,0.0357133282502487, ,0.002627794921005856, ,0.0003714463768099421
64, ,PASS, ,0.04753965308088501, ,0.03602265026525627, ,0.0027428048528422315, ,0.0003755581234772349
65, ,PASS, ,0.047732618797364, ,0.036097407055152485, ,0.0027205693540151535, ,0.0003778286935314132
66, ,PASS, ,0.047878358384887, ,0.03624727336151654, ,0.00273151132312884, ,0.00038046173386722726
67, ,PASS, ,0.048073095081107006, ,0.03636895764537618, ,0.0028098107115281093, ,0.00038321710824296596
68, ,PASS, ,0.048013842214885, ,0.03635913202560256, ,0.0027691315302424825, ,0.0003826706173827966
69, ,PASS, ,0.048062540304325, ,0.036398891498204355, ,0.0028225681561500956, ,0.0003835378841387313
70, ,PASS, ,0.048070720294328, ,0.03630190497696263, ,0.0027452834119778636, ,0.0003825034665546367
71, ,PASS, ,0.048184616273609, ,0.036419115931771544, ,0.00271889256260391, ,0.0003846070871157945
72, ,PASS, ,0.048013502490844, ,0.036454392595362275, ,0.002810488211107379, ,0.00038376102854265813
73, ,PASS, ,0.047701462089883, ,0.036196389418419135, ,0.0027951713478306887, ,0.00037863903404487754
74, ,PASS, ,0.047644147821828, ,0.036204319396754364, ,0.002782218870523535, ,0.0003781984268710688
75, ,PASS, ,0.047642438798469994, ,0.03616170606608652, ,0.002789350423982902, ,0.00037778746785980735
76, ,PASS, ,0.047559154832146004, ,0.036015619993232224, ,0.0027148044448345172, ,0.0003757741765985108
77, ,PASS, ,0.047627068837946, ,0.03606014503644924, ,0.002685369109855404, ,0.00037690550781804496
78, ,PASS, ,0.047505203271040006, ,0.035991652326578624, ,0.0027707764815351425, ,0.00037529117832549113
79, ,PASS, ,0.04743032385538999, ,0.03590692870968333, ,0.002678420097111713, ,0.00037384955678757144
80, ,PASS, ,0.04783672438511001, ,0.03638087679132308, ,0.0027881368848046545, ,0.00038203696197562957
81, ,PASS, ,0.047966849496122996, ,0.03635991030731183, ,0.002714918885384143, ,0.00038278389033343495
82, ,PASS, ,0.04791341911971901, ,0.03623626270542682, ,0.0026845061240787205, ,0.0003810912709398307
83, ,PASS, ,0.047927230033171994, ,0.03629915036769626, ,0.0027186208028820245, ,0.000381963873893247
84, ,PASS, ,0.04776778560151899, ,0.03605831316279048, ,0.002641744833816328, ,0.0003784715690102521
85, ,PASS, ,0.047792468447417996, ,0.03607716209410215, ,0.0026454424523231048, ,0.00037889764690941086
86, ,PASS, ,0.047771611339541, ,0.036054256889015514, ,0.0027060568717271892, ,0.0003785737001398191
87, ,PASS, ,0.048121104889561006, ,0.036312273852353506, ,0.0026354350785373903, ,0.00038412502066550324
88, ,PASS, ,0.055471006110867, ,0.04255617292423385, ,0.0034324383654036872, ,0.0005170058581835335
89, ,PASS, ,0.09999999997600005, ,0.08265970666974007, ,0.007843631530172956, ,0.0017898370086162781
90, ,PASS, ,0.046782232339489, ,0.035592951457026435, ,0.0029052878936340785, ,0.00036450091978047793
91, ,PASS, ,0.04398725374952201, ,0.0335209950287411, ,0.00270154282041364, ,0.00032308396699569516
92, ,PASS, ,0.04367276040098599, ,0.03336463881402518, ,0.0027370216238206332, ,0.00031924304986907277
93, ,PASS, ,0.04367503674551201, ,0.033365068118980365, ,0.0026858251719331237, ,0.00031921248177322746
94, ,PASS, ,0.043591373369501, ,0.03330339741534971, ,0.0026592704527982265, ,0.0003179900680648758
95, ,PASS, ,0.043646107394075, ,0.03335172630473192, ,0.00272264663641573, ,0.0003188835183878401
96, ,PASS, ,0.043595977581404995, ,0.03328782629647827, ,0.002657876720932856, ,0.00031782427729606385
97, ,PASS, ,0.04375676521508799, ,0.033403417057737264, ,0.0027088327864772705, ,0.00032008579313367084
98, ,PASS, ,0.043562304860708, ,0.03328069229700543, ,0.002671100595101565, ,0.00031752163011731263
99, ,PASS, ,0.043428521744857, ,0.03313201611315693, ,0.0026911988154326985, ,0.000315110434706695
100, ,PASS, ,0.043299627301802, ,0.03303319383750325, ,0.0026979322369889533, ,0.00031312975811769844
101, ,PASS, ,0.043364999678499, ,0.0331305774144837, ,0.0026406597306811485, ,0.00031459551208764673
102, ,PASS, ,0.043257962331553004, ,0.03305861245441222, ,0.0026791055612218105, ,0.0003130973149329012
103, ,PASS, ,0.043241545862749003, ,0.03303136300955826, ,0.00268467363891893, ,0.00031275755155585723
104, ,PASS, ,0.04352046282069, ,0.03326811193710013, ,0.002706210857661967, ,0.00031707040627251045
105, ,PASS, ,0.0436399425388, ,0.03341899952757914, ,0.002718126975126774, ,0.00031933229947300805
106, ,PASS, ,0.043677751211162005, ,0.033382778873066586, ,0.002696750583482231, ,0.00031934645901524484
107, ,PASS, ,0.043416253309483, ,0.03316252282019259, ,0.002640507845314157, ,0.0003151844212936556
108, ,PASS, ,0.043275596963624006, ,0.033335005639366956, ,0.002774891865324576, ,0.0003156811984057733
