Channel, ,Pass/Fail, ,Amplitude, ,Sorting Function Response, ,Mean, ,Variance, ,NPeaksRatio, ,PosIntegralRatio, ,ToT50, ,ToT99
15, ,PASS, ,0.02266041999999998, ,0.0034965728571539957, ,0.02950988888492071, ,8.045697217636201e-05, ,1.8333333333333333, ,0.7881992014445256, ,0.6011305891716495, ,0.03659108997775556
16, ,PASS, ,0.14472063999999996, ,0.02257427204058387, ,0.03731072548233709, ,0.0032735128634488616, ,1.75, ,0.7578651492541144, ,0.5831309565110916, ,0.17199648986755373
17, ,PASS, ,0.07117581099999999, ,0.010838048242950996, ,0.03233826622856675, ,0.0007724755253369505, ,1.75, ,0.7468773365930083, ,0.587416583335034, ,0.14854798881655476
18, ,PASS, ,0.018612129999999984, ,0.002648852578965266, ,0.02947091781208546, ,5.035605340102953e-05, ,2.0, ,0.773143568873043, ,0.6157017203730536, ,0.03116262933409522
19, ,PASS, ,0.01768571999999998, ,0.0025289507882666875, ,0.02910289852390767, ,4.567456934415345e-05, ,2.0, ,0.7760196160197795, ,0.6172118936348238, ,0.03212179343278709
20, ,PASS, ,0.01693124999999998, ,0.0023638155154198535, ,0.029154412651374455, ,4.091432436027421e-05, ,1.9166666666666667, ,0.7649238823446741, ,0.619354707046795, ,0.037509438582886065
21, ,PASS, ,0.017002769999999983, ,0.0023230972678370595, ,0.02919204932225872, ,4.034427528409264e-05, ,1.9166666666666667, ,0.7721453549511914, ,0.6195383767678211, ,0.06381502418317994
22, ,PASS, ,0.01782774999999999, ,0.0025431146275470043, ,0.029074517974531124, ,4.631758787200447e-05, ,2.0, ,0.7862499594311094, ,0.6174771943429725, ,0.10440603252994837
23, ,PASS, ,0.017155709999999994, ,0.0024210827306567276, ,0.02898716967143527, ,4.256347158439611e-05, ,1.9166666666666667, ,0.7700186906604367, ,0.6213750739780821, ,0.04528479010632436
24, ,PASS, ,0.016801759999999985, ,0.0023649716619200843, ,0.02906044009877349, ,4.060091890022287e-05, ,1.9166666666666667, ,0.770196369249179, ,0.6181098344931736, ,0.022979122875043365
25, ,PASS, ,0.016384679999999985, ,0.0023506318505657586, ,0.02903497529683067, ,3.945422005366545e-05, ,1.9166666666666667, ,0.779576398597156, ,0.6212934429909593, ,0.07197812289545111
26, ,PASS, ,0.016612329999999984, ,0.002390407467543514, ,0.0290347705732536, ,4.060706605489879e-05, ,2.0, ,0.7768374396162468, ,0.6159874288279831, ,0.046203138711454865
27, ,PASS, ,0.016533579999999985, ,0.002312370729714525, ,0.029193838561049765, ,3.904448149630411e-05, ,1.9166666666666667, ,0.7680533049734861, ,0.6159466133344218, ,0.06365176220893451
28, ,PASS, ,0.01637233999999998, ,0.002336884153954666, ,0.028876813345850075, ,3.915701126232364e-05, ,2.0, ,0.7731866377684745, ,0.618150649986735, ,0.03801963225240301
29, ,PASS, ,0.016329599999999986, ,0.0023278916548254303, ,0.029161983332993194, ,3.8894763894505144e-05, ,2.0, ,0.7806920556530867, ,0.6193138915532336, ,0.05944776637211485
30, ,PASS, ,0.016478659999999985, ,0.002355155159472795, ,0.02891505805881512, ,3.9644389203214384e-05, ,2.0, ,0.7870269620858323, ,0.6174159711026306, ,0.08963082386073754
31, ,PASS, ,0.01635059999999998, ,0.002326757678547301, ,0.028947335204587653, ,3.894482753775347e-05, ,2.0, ,0.7729294115011304, ,0.6173139323687271, ,0.03885634987041081
32, ,PASS, ,0.01657408999999998, ,0.0022523304300822943, ,0.029039370978755526, ,3.818523982979299e-05, ,1.9166666666666667, ,0.7591099756437261, ,0.6171302626477011, ,0.022673006673333197
33, ,PASS, ,0.01618412999999999, ,0.0022531311324377906, ,0.028853536002938707, ,3.7373940829211964e-05, ,1.9166666666666667, ,0.7730857888568271, ,0.6187424746433746, ,0.07593722577090263
34, ,PASS, ,0.01649010999999998, ,0.002288449292062492, ,0.02897649338054325, ,3.8595960019032985e-05, ,1.9166666666666667, ,0.7657755310922207, ,0.6197424542356278, ,0.030346319462868105
35, ,PASS, ,0.016328889999999985, ,0.0022661799415187103, ,0.029162980200608146, ,3.789270329767616e-05, ,1.9166666666666667, ,0.7644504334832052, ,0.6174976020897532, ,0.03981551396910267
36, ,PASS, ,0.01650268999999998, ,0.002264973051492639, ,0.029392140525499474, ,3.8187741976841e-05, ,1.9166666666666667, ,0.7508993924865616, ,0.614538478806555, ,0.05408052896879655
37, ,PASS, ,0.016358869999999984, ,0.0023478382123057182, ,0.0290840383569723, ,3.931296133211854e-05, ,2.0, ,0.779240127938885, ,0.6173343401155078, ,0.081426909654905
38, ,PASS, ,0.016428089999999985, ,0.0023570096452776735, ,0.02910828113487479, ,3.953859805761624e-05, ,1.9166666666666667, ,0.7746242620627922, ,0.6153956041713434, ,0.03767270055713149
39, ,PASS, ,0.016347329999999986, ,0.0023294735126731464, ,0.029001864937654324, ,3.9017262353237336e-05, ,2.0, ,0.7804089063398431, ,0.6218036366604763, ,0.02732597293932777
40, ,PASS, ,0.01622423999999998, ,0.0023421460940837497, ,0.028881802756882506, ,3.8814013376075744e-05, ,2.0, ,0.781695018676674, ,0.6163343605232546, ,0.05314177261688537
41, ,PASS, ,0.016232459999999987, ,0.002298978136438424, ,0.02870661439399195, ,3.816984761177107e-05, ,2.0, ,0.7804334504637406, ,0.6161302830554478, ,0.07424338278810637
42, ,PASS, ,0.01655338999999998, ,0.0022925845572963695, ,0.02885451812820146, ,3.877621001341019e-05, ,2.0, ,0.7625818948851715, ,0.6166404767249648, ,0.021019979184098283
43, ,PASS, ,0.016399089999999984, ,0.002291092754768833, ,0.02888354878859614, ,3.840892617722141e-05, ,2.0, ,0.7585619825998268, ,0.6147017407808004, ,0.015122140364482357
44, ,PASS, ,0.016345239999999987, ,0.0023403180806461366, ,0.028906556188445124, ,3.911907610903769e-05, ,2.0, ,0.7873974115088297, ,0.6180282035060509, ,0.05659068182281994
45, ,PASS, ,0.01639405999999998, ,0.0023637194156557314, ,0.028530713488092073, ,3.957661890147541e-05, ,2.0, ,0.7799906448191345, ,0.614028285137038, ,0.060039591028754516
46, ,PASS, ,0.016239959999999987, ,0.002364791270706759, ,0.028890892624436226, ,3.923061574033776e-05, ,2.0, ,0.7909104145371705, ,0.619354707046795, ,0.06871288341054264
47, ,PASS, ,0.016246049999999984, ,0.0023734722214846554, ,0.028512131792208312, ,3.934578664570576e-05, ,2.0, ,0.7733440560186183, ,0.6115793555233566, ,0.0554274402563213
48, ,PASS, ,0.016382509999999986, ,0.002359502506180141, ,0.02891813515316013, ,3.952663483649415e-05, ,2.0, ,0.7798726992938319, ,0.616436399257158, ,0.07520254688679823
49, ,PASS, ,0.016016249999999982, ,0.0023385987595884554, ,0.028631459421032214, ,3.8237252122513696e-05, ,2.0, ,0.7882376833465572, ,0.6161302830554478, ,0.05195812330360605
50, ,PASS, ,0.016243799999999982, ,0.0023419119347159512, ,0.028752303406869236, ,3.888971394573313e-05, ,2.0, ,0.7708653310695034, ,0.6152527499438787, ,0.0401624456643742
51, ,PASS, ,0.016219059999999987, ,0.0022687406234908657, ,0.02889282339401236, ,3.766362389252089e-05, ,2.0, ,0.7716235836865638, ,0.6185383971755678, ,0.03030550396930675
52, ,PASS, ,0.016398039999999982, ,0.0023042193608612542, ,0.028994687307197804, ,3.855368285134158e-05, ,2.0, ,0.7622947887828356, ,0.6137425766821085, ,0.04630517744535826
53, ,PASS, ,0.016648589999999984, ,0.0024934247518414642, ,0.02893903559396746, ,4.233181055923117e-05, ,2.0, ,0.7877213007046817, ,0.6108650843860329, ,0.04438684924797453
54, ,PASS, ,0.016275339999999985, ,0.002345917327144369, ,0.028872063097487796, ,3.8958260425648476e-05, ,2.0, ,0.7821130780820837, ,0.6147833717679231, ,0.07783514622150568
55, ,PASS, ,0.01595606999999999, ,0.0022953290786922927, ,0.02893666212852798, ,3.741982031370587e-05, ,2.0, ,0.780448242319874, ,0.6142323626048448, ,0.07905961102834635
56, ,PASS, ,0.016188169999999984, ,0.0023243428363716543, ,0.028891607440868546, ,3.846494383403317e-05, ,2.0, ,0.7808549240238296, ,0.6158241668537376, ,0.04473378094324606
57, ,PASS, ,0.015795629999999984, ,0.0023379921638711897, ,0.02878033971388338, ,3.7720113662954135e-05, ,2.0, ,0.7818494577119249, ,0.6156200893859309, ,0.040448154119303685
58, ,PASS, ,0.016250019999999976, ,0.0023743642740566644, ,0.028672188636966585, ,3.940148934886222e-05, ,2.0, ,0.7816408900632472, ,0.6142731780984062, ,0.044039917552703006
59, ,PASS, ,0.016206939999999982, ,0.0023174977919502345, ,0.02842142808024325, ,3.834491098173445e-05, ,2.0, ,0.7890642727288442, ,0.6177833105446827, ,0.06289667557804943
60, ,PASS, ,0.01611027999999998, ,0.0023710724236079596, ,0.028698800128364718, ,3.911152895996184e-05, ,2.0, ,0.7884561501503187, ,0.6153343809310015, ,0.09167159853880533
61, ,PASS, ,0.016366089999999976, ,0.002379781753734914, ,0.028914419695312332, ,3.984468605692542e-05, ,2.0, ,0.7873855421711854, ,0.6196608232485051, ,0.061243648088814516
62, ,PASS, ,0.01644184999999998, ,0.002351859164737048, ,0.028791509800820386, ,3.9544005004484036e-05, ,2.0, ,0.7722091075046563, ,0.6180282035060509, ,0.04436644150119385
63, ,PASS, ,0.01632462999999998, ,0.0022847918515818723, ,0.0285717060808963, ,3.808288671156029e-05, ,2.0, ,0.7774134495727836, ,0.6181914654802964, ,0.06205995796004163
64, ,PASS, ,0.016218059999999986, ,0.0023096994704119786, ,0.02869308969408787, ,3.830050858134925e-05, ,2.0, ,0.7848263715611626, ,0.6162527295361319, ,0.04075427032101386
65, ,PASS, ,0.015901179999999984, ,0.002286932755434219, ,0.028765909163894605, ,3.716766950400373e-05, ,2.0, ,0.7784241465495775, ,0.6167016999653069, ,0.04099916328238199
66, ,PASS, ,0.01652017999999999, ,0.002355066389022732, ,0.028790974526234147, ,3.968935199068977e-05, ,2.0, ,0.7686478730120216, ,0.6151915267035367, ,0.01420379175935185
67, ,PASS, ,0.01586607999999999, ,0.0023014508993641665, ,0.028922837570253657, ,3.7299797247662544e-05, ,2.0, ,0.7822535992455951, ,0.615354788677782, ,0.04687659435521724
68, ,PASS, ,0.015991449999999977, ,0.0023737340986491914, ,0.028773250626517817, ,3.865501349396038e-05, ,2.0, ,0.7954094860988654, ,0.6143344013387482, ,0.04832554437664537
69, ,PASS, ,0.016065929999999985, ,0.002334114396182269, ,0.028371277122099543, ,3.829776651994222e-05, ,2.0, ,0.7851516536613894, ,0.6158445746005183, ,0.05161119160833452
70, ,PASS, ,0.016268809999999988, ,0.0023182475357338317, ,0.028404325094793976, ,3.854064517591189e-05, ,2.0, ,0.7775973984664071, ,0.6178649415318055, ,0.041999142874635215
71, ,PASS, ,0.01619640999999998, ,0.0022917204042704445, ,0.028469287042101173, ,3.797808222896349e-05, ,2.0, ,0.776148026754463, ,0.6203342788922676, ,0.03724413787473725
72, ,PASS, ,0.01613841999999998, ,0.0023353099418903164, ,0.028201910407542694, ,3.852417860100736e-05, ,2.0, ,0.7761765829287258, ,0.6148650027550459, ,0.04959082467704741
73, ,PASS, ,0.01627005999999999, ,0.002310404105375747, ,0.028576111616293535, ,3.842369541685571e-05, ,2.0, ,0.7725800026108586, ,0.6149670414889492, ,0.039264504806024364
74, ,PASS, ,0.016210699999999988, ,0.0023528295875310376, ,0.028761709451847913, ,3.8885806444171714e-05, ,2.0, ,0.7750813804982783, ,0.6126405583559519, ,0.036223750535703356
75, ,PASS, ,0.01613939999999999, ,0.002305527905025081, ,0.028861319909389595, ,3.805703085970122e-05, ,2.0, ,0.7753517914015341, ,0.6143139935919675, ,0.022815860900797943
76, ,PASS, ,0.015889949999999993, ,0.0022882328301762995, ,0.028507617143323595, ,3.716701002463574e-05, ,2.0, ,0.7735699238334942, ,0.6148854105018265, ,0.06242729740209384
77, ,PASS, ,0.01588576999999999, ,0.0022692654663238423, ,0.028724595921715872, ,3.683784875315209e-05, ,2.0, ,0.7741901484128397, ,0.6154976429052468, ,0.044080733046264364
78, ,PASS, ,0.01617983999999999, ,0.002303142418613362, ,0.02862213975673965, ,3.8112511749087913e-05, ,2.0, ,0.7713935348530722, ,0.6183547274545418, ,0.036672720964878266
79, ,PASS, ,0.016164079999999983, ,0.002273763740219266, ,0.028800355830697323, ,3.753556412769668e-05, ,2.0, ,0.7672693633381885, ,0.6141915471112834, ,0.032142201179567766
112, ,PASS, ,0.01816012999999998, ,0.002644857134687471, ,0.02872679986326809, ,4.900509941689005e-05, ,2.0, ,0.7775158577079482, ,0.613334421746495, ,0.023611763025244384
113, ,PASS, ,0.07761721199999996, ,0.01219085411546569, ,0.032570531495153154, ,0.0009483806297504565, ,1.75, ,0.7624623194555504, ,0.5851105079488174, ,0.15348666353747883
114, ,PASS, ,0.015411859999999982, ,0.0022034777100385116, ,0.028554895416215986, ,3.467662025172535e-05, ,1.9166666666666667, ,0.7688098785147105, ,0.6171302626477011, ,0.047794942960347746
115, ,PASS, ,0.013338779999999984, ,0.0018412213634740858, ,0.028273456073141356, ,2.510562990687035e-05, ,1.9166666666666667, ,0.7537905795737362, ,0.6171914858880431, ,0.040366523132180976
116, ,PASS, ,0.012851659999999984, ,0.001829396565494956, ,0.028489025610293657, ,2.4050896183857906e-05, ,1.9166666666666667, ,0.7813250754962845, ,0.617007816167017, ,0.05738658394726638
117, ,PASS, ,0.013146379999999989, ,0.0018245343206258243, ,0.028345268421664856, ,2.4525298032211516e-05, ,1.9166666666666667, ,0.7551924758503221, ,0.6154364196649048, ,0.04679496336809453
118, ,PASS, ,0.01295178999999998, ,0.0018043759745155915, ,0.028124246435787016, ,2.3896366135514254e-05, ,1.9166666666666667, ,0.7677382994759391, ,0.6186200281626906, ,0.04065223158711047
119, ,PASS, ,0.01330371999999998, ,0.0017676215411204829, ,0.028216040397951055, ,2.4129552139528125e-05, ,1.9166666666666667, ,0.7265149849901521, ,0.6171506703944818, ,0.028387175771923023
120, ,PASS, ,0.013075089999999984, ,0.0017564271494668298, ,0.028247609770820994, ,2.3550625774903805e-05, ,1.9166666666666667, ,0.7417065224172285, ,0.6177424950511214, ,0.03159119201648946
121, ,PASS, ,0.013035789999999985, ,0.001783017573417199, ,0.028347230930797322, ,2.3787461143589173e-05, ,1.9166666666666667, ,0.7680099573479531, ,0.6183751352013224, ,0.07095773555641721
122, ,PASS, ,0.01280899999999998, ,0.0017649191537789858, ,0.02840330777412705, ,2.3171248921306394e-05, ,1.9166666666666667, ,0.7715646065030329, ,0.618660843656252, ,0.05920287341074672
123, ,PASS, ,0.012728269999999986, ,0.0017285238188135203, ,0.028232806928225943, ,2.252934245123265e-05, ,1.9166666666666667, ,0.7551487318902331, ,0.6177833105446827, ,0.02175465806820269
124, ,PASS, ,0.012636229999999984, ,0.0017280275816697946, ,0.02854183644599089, ,2.2338278067697837e-05, ,1.9166666666666667, ,0.7569785082523138, ,0.6177220873043408, ,0.025754576437215567
125, ,PASS, ,0.012516269999999982, ,0.001752329169999175, ,0.02821296807146792, ,2.243483965269638e-05, ,1.9166666666666667, ,0.7622649559016468, ,0.6169874084202364, ,0.03267280259586539
126, ,PASS, ,0.012724279999999984, ,0.0017700567770134606, ,0.028230721809963052, ,2.3033198759288458e-05, ,1.9166666666666667, ,0.7719548907219009, ,0.6159874288279831, ,0.038468602681577924
127, ,PASS, ,0.01281707999999998, ,0.0017686577383488832, ,0.028122222921368942, ,2.3208502295149412e-05, ,1.9166666666666667, ,0.7571925997848586, ,0.6203546866390481, ,0.033897267402706065
128, ,PASS, ,0.012656919999999981, ,0.001757963267778241, ,0.028551079849594898, ,2.2731281975869554e-05, ,1.9166666666666667, ,0.758666962597929, ,0.6167833309524295, ,0.045243974612763006
129, ,PASS, ,0.01275196999999998, ,0.001734479841717204, ,0.028036673610946704, ,2.261093372648688e-05, ,1.9166666666666667, ,0.771587910138552, ,0.6208240648150037, ,0.03934613579314708
130, ,PASS, ,0.01285026999999999, ,0.001786912427315236, ,0.02824862477296381, ,2.3482384702502682e-05, ,1.9166666666666667, ,0.7709300567447709, ,0.6177833105446827, ,0.06940674680108569
131, ,PASS, ,0.012507919999999985, ,0.0017421627340944558, ,0.02816325768474112, ,2.2312921993811294e-05, ,1.9166666666666667, ,0.7657242499177292, ,0.6181710577335157, ,0.04175424991326707
132, ,PASS, ,0.013000379999999985, ,0.0016877170509120585, ,0.028409202915858852, ,2.2437017453543926e-05, ,1.9166666666666667, ,0.7272916858146825, ,0.6178649415318055, ,0.013591559355931511
133, ,PASS, ,0.012725259999999988, ,0.0016980572575832312, ,0.028495927714944583, ,2.2130719564340275e-05, ,1.8333333333333333, ,0.7573872216304006, ,0.6205179486132936, ,0.05791718536356401
134, ,PASS, ,0.012692969999999984, ,0.0016804802123238025, ,0.028064717224750506, ,2.188819467225829e-05, ,1.9166666666666667, ,0.7620688436615299, ,0.6232525866819044, ,0.047345972531172835
135, ,PASS, ,0.012885659999999976, ,0.0017000376668031122, ,0.028332757504336635, ,2.2414084346175266e-05, ,1.9166666666666667, ,0.7370751014727851, ,0.6175588253300953, ,0.02561172220975082
136, ,PASS, ,0.012924969999999987, ,0.0017943543134824544, ,0.028282103199934686, ,2.3766489303194156e-05, ,1.9166666666666667, ,0.75589110523194, ,0.6196812309952858, ,0.045672537295157245
137, ,PASS, ,0.012669479999999976, ,0.0017285297347347955, ,0.02796654675945388, ,2.2459568678683052e-05, ,1.9166666666666667, ,0.7505275321852812, ,0.6175996408236567, ,0.04720311830370809
138, ,PASS, ,0.012710689999999986, ,0.0017053682632790581, ,0.02813748436419664, ,2.219446466609982e-05, ,1.9166666666666667, ,0.756411197735432, ,0.6193138915532336, ,0.0415501724454603
139, ,PASS, ,0.012915579999999975, ,0.001677282970130881, ,0.028738503017285352, ,2.2180435278943028e-05, ,1.8333333333333333, ,0.736278136953452, ,0.6177629027979021, ,0.02175465806820269
140, ,PASS, ,0.012612399999999989, ,0.0017658017121322115, ,0.028322767303728485, ,2.279757716995355e-05, ,2.0, ,0.7741905882922174, ,0.6173751556090692, ,0.01789759392665456
141, ,PASS, ,0.012852359999999986, ,0.0016872068044424438, ,0.02837192401542825, ,2.2173150969512932e-05, ,1.8333333333333333, ,0.7285207450749899, ,0.6155792738923695, ,0.011428338197179649
142, ,PASS, ,0.012904239999999977, ,0.0017150882490906303, ,0.028240167227199433, ,2.261261251464264e-05, ,1.9166666666666667, ,0.7300577660983382, ,0.6139262464031346, ,0.019693475643354216
143, ,PASS, ,0.012519339999999983, ,0.0016523360639188358, ,0.028332249312463, ,2.119228722164545e-05, ,1.9166666666666667, ,0.7516716184735832, ,0.6205179486132936, ,0.024795412338523705
176, ,PASS, ,0.012502779999999984, ,0.001762338193873081, ,0.028331669513683384, ,2.2553761770523623e-05, ,2.0, ,0.7534680175351167, ,0.6156404971327116, ,0.021101610171220996
177, ,PASS, ,0.012920959999999981, ,0.0017344259134685449, ,0.02842369566008856, ,2.2924910518916922e-05, ,1.9166666666666667, ,0.7552746341663998, ,0.6175384175833146, ,0.03857064141548132
178, ,PASS, ,0.012642379999999984, ,0.001684183682515096, ,0.028466849792249126, ,2.1784807581014255e-05, ,1.9166666666666667, ,0.7527251928286578, ,0.6179261647721475, ,0.02732597293932777
179, ,PASS, ,0.012467569999999983, ,0.0016200965846022665, ,0.02851060152649945, ,2.069481916807757e-05, ,1.9166666666666667, ,0.7261076944476359, ,0.617456786596192, ,0.03234627864737454
180, ,PASS, ,0.012738679999999981, ,0.0016116897374171915, ,0.02868188936756392, ,2.1060686145237515e-05, ,1.9166666666666667, ,0.7292800802143151, ,0.6189465521111814, ,0.04193791963429318
181, ,PASS, ,0.012849479999999983, ,0.0016808785919045595, ,0.028602233522377084, ,2.2153134539737803e-05, ,1.9166666666666667, ,0.7417600866530414, ,0.6191302218322076, ,0.03952980551417318
182, ,PASS, ,0.01262489999999998, ,0.0016464746975401539, ,0.028437406404563163, ,2.1277311195433534e-05, ,1.8333333333333333, ,0.7364214917492172, ,0.615109895716414, ,0.02193832778922879
183, ,PASS, ,0.012736669999999981, ,0.0016323306585195457, ,0.028148618754107048, ,2.1341067316957887e-05, ,1.9166666666666667, ,0.7239754789288179, ,0.6172527091283851, ,0.02524438276769862
184, ,PASS, ,0.012936429999999978, ,0.0017787295897375584, ,0.028372921847105152, ,2.3552473157014983e-05, ,2.0, ,0.7648291827204389, ,0.6171506703944818, ,0.03338707373318912
185, ,PASS, ,0.01320016999999999, ,0.0018610422157465203, ,0.028278434354196844, ,2.506369508966832e-05, ,2.0, ,0.7612375384625681, ,0.6128854513173201, ,0.05416215995591927
186, ,PASS, ,0.012338229999999978, ,0.0016326945880834648, ,0.028530284434603367, ,2.0663236348780725e-05, ,1.9166666666666667, ,0.753578563366652, ,0.6185792126691292, ,0.02793820534274811
187, ,PASS, ,0.01255139999999999, ,0.0016510453333070988, ,0.028300071972000563, ,2.122701343462634e-05, ,1.8333333333333333, ,0.7352063213575439, ,0.617069039407359, ,0.017509846737821678
188, ,PASS, ,0.01249450999999998, ,0.001680918994344471, ,0.0285217563019122, ,2.1486089771145413e-05, ,1.8333333333333333, ,0.759524156574082, ,0.6191302218322076, ,0.06157017203730536
189, ,PASS, ,0.012378579999999986, ,0.0016706756208075134, ,0.028459689888777773, ,2.1197018870990058e-05, ,1.9166666666666667, ,0.7407355733216879, ,0.6173139323687271, ,0.01599967347605151
190, ,PASS, ,0.01236091999999998, ,0.0016116621625415503, ,0.0285677890434889, ,2.0431932859251202e-05, ,1.9166666666666667, ,0.7401159393506653, ,0.6174363788494113, ,0.02106079467765964
191, ,PASS, ,0.011986099999999979, ,0.0016515905072093323, ,0.028528009377563716, ,2.0237755817603033e-05, ,2.0, ,0.7613384420399533, ,0.6195179690210404, ,0.03887675761719148
192, ,PASS, ,0.012548379999999974, ,0.0016754879520778916, ,0.028588831460786505, ,2.151979889134025e-05, ,1.9166666666666667, ,0.7449563826765284, ,0.6170486316605783, ,0.041244056243750125
193, ,PASS, ,0.01233165999999999, ,0.0016864999280410383, ,0.028484495521315885, ,2.129879450846372e-05, ,1.9166666666666667, ,0.7659007384245099, ,0.6163139527764739, ,0.07434542152200975
194, ,PASS, ,0.01239415999999998, ,0.0016225950386088513, ,0.028581736281300372, ,2.063503228997541e-05, ,2.0, ,0.7201735934669841, ,0.6149670414889492, ,0.018938389012469133
195, ,PASS, ,0.012144589999999983, ,0.0016597217569904918, ,0.02845046556111099, ,2.0596324341934848e-05, ,1.9166666666666667, ,0.7539120820475705, ,0.6144772555662129, ,0.029958572274035224
196, ,PASS, ,0.012642329999999986, ,0.001647178432816213, ,0.0284079629987143, ,2.135084927537617e-05, ,1.9166666666666667, ,0.7523437118591166, ,0.6193751147935757, ,0.027264749698985735
197, ,PASS, ,0.012289589999999993, ,0.0016389645190795987, ,0.028604402836676795, ,2.0640110393354443e-05, ,1.9166666666666667, ,0.75268062107756, ,0.6197628619824085, ,0.05712128323911757
198, ,PASS, ,0.01268385999999998, ,0.0016056298594559833, ,0.02854412050856104, ,2.0867845040050886e-05, ,1.9166666666666667, ,0.7082718994996526, ,0.6138037999224506, ,0.024305626415787433
199, ,PASS, ,0.012103159999999981, ,0.0016600671186154023, ,0.02836243263933388, ,2.0601147433895043e-05, ,1.9166666666666667, ,0.7564345196377249, ,0.615232342197098, ,0.052672394440929776
200, ,PASS, ,0.012424099999999987, ,0.0016094404060544702, ,0.028492115953960114, ,2.0507131345741194e-05, ,1.9166666666666667, ,0.7389456141623313, ,0.6162731372829126, ,0.023917879226954552
201, ,PASS, ,0.012259559999999975, ,0.001593538478102034, ,0.02844708903144833, ,2.0037842264676303e-05, ,1.8333333333333333, ,0.7501085570574589, ,0.6251913226260688, ,0.032631987102304034
202, ,PASS, ,0.01243354999999998, ,0.0016029709195502615, ,0.028572430537335963, ,2.044438157117361e-05, ,2.0, ,0.7425743940498258, ,0.6208240648150037, ,0.027162710965082344
203, ,PASS, ,0.012221099999999985, ,0.0016068131625338491, ,0.028121715724168887, ,2.0089383291375537e-05, ,1.9166666666666667, ,0.7452206620565845, ,0.61890573661762, ,0.027162710965082344
204, ,PASS, ,0.012181939999999981, ,0.0015812543203622383, ,0.02835931179588171, ,1.9741391986245627e-05, ,1.9166666666666667, ,0.7409496927160374, ,0.6160078365747638, ,0.025264790514479295
205, ,PASS, ,0.012057729999999989, ,0.001592423498176223, ,0.028327367798616346, ,1.9678842052692107e-05, ,1.9166666666666667, ,0.7481453220215892, ,0.6170282239137976, ,0.04218281259566131
206, ,PASS, ,0.012279219999999983, ,0.0016379835582091518, ,0.028166320321013846, ,2.062188457855235e-05, ,1.9166666666666667, ,0.7500411737550865, ,0.6238852268321055, ,0.030468765943552172
207, ,PASS, ,0.011934549999999988, ,0.0015834294683249467, ,0.028499093130752422, ,1.93635978696217e-05, ,1.9166666666666667, ,0.749263509849823, ,0.6179873880124895, ,0.05710087549233689
208, ,PASS, ,0.012007969999999986, ,0.0016271825407348885, ,0.028397421576090275, ,2.0004324641140176e-05, ,2.0, ,0.750079220584616, ,0.6161098753086671, ,0.03742780759576335
209, ,PASS, ,0.012158069999999986, ,0.0015860474962899748, ,0.028330229716944544, ,1.97665832645069e-05, ,1.9166666666666667, ,0.7473176670571627, ,0.617069039407359, ,0.014754800922430155
210, ,PASS, ,0.011978029999999983, ,0.0015220279403190392, ,0.028409661380175904, ,1.8639451102026277e-05, ,1.8333333333333333, ,0.7139121047143809, ,0.6139466541499153, ,0.03806044774596437
211, ,PASS, ,0.011727679999999983, ,0.0015400358974676095, ,0.028424340736923723, ,1.8506364724960915e-05, ,1.8333333333333333, ,0.7466749479402497, ,0.6190281830983041, ,0.03863186465582335
212, ,PASS, ,0.012018299999999982, ,0.0015313011215563827, ,0.02824705599865308, ,1.888077420105576e-05, ,1.8333333333333333, ,0.7266892541247925, ,0.6185179894287872, ,0.017754739699189812
213, ,PASS, ,0.01213431999999999, ,0.0015423258070988183, ,0.028759810477133108, ,1.9230494152118398e-05, ,1.9166666666666667, ,0.7262314879918891, ,0.6155588661455889, ,0.026877002510152855
214, ,PASS, ,0.012288619999999986, ,0.0016592355995364988, ,0.02855655965592538, ,2.087889649048928e-05, ,1.9166666666666667, ,0.7521862418421881, ,0.6182322809738576, ,0.06581498336768637
215, ,PASS, ,0.010193609999999985, ,0.0011724577810819673, ,0.028214561274259697, ,1.2310048568922886e-05, ,1.75, ,0.6819361958305422, ,0.623089324707659, ,0.03030550396930675
