Channel, ,Pass/Fail, ,Amplitude, ,Sorting Function Response, ,Mean, ,Variance, ,NPeaksRatio, ,PosIntegralRatio, ,ToT50, ,ToT99
41, ,PASS, ,0.042115320000000005, ,0.007806349862008324, ,0.026422180842105267, ,0.0003316709952667174, ,1.9166666666666667, ,0.8236644596933879, ,0.4622558723291361, ,0.1094671537315565
42, ,PASS, ,0.10087555, ,0.015676057514766233, ,0.0239280820858758, ,0.0015854076591075971, ,1.8333333333333333, ,0.722424713012837, ,0.4605824370931205, ,0.06577416787412502
43, ,PASS, ,0.12653111, ,0.016022072896330758, ,0.023361423325034183, ,0.0020252461496450525, ,1.75, ,0.6316578239774296, ,0.46048039835921717, ,0.02867288422685251
44, ,PASS, ,0.046696745000000005, ,0.008641754603952645, ,0.026220493899900003, ,0.00040713789600263533, ,1.9166666666666667, ,0.820007682974146, ,0.46086814554805006, ,0.12109956939654293
45, ,PASS, ,0.10305403999999997, ,0.015621683447695838, ,0.023817121924858676, ,0.0016128259452373483, ,1.75, ,0.7107957704390316, ,0.45864370114895614, ,0.05854982551376502
46, ,PASS, ,0.12412878000000008, ,0.015879524288499446, ,0.023578452131793225, ,0.0019687724455861176, ,1.75, ,0.6358343021252291, ,0.46041917511887515, ,0.02830554478480031
47, ,PASS, ,0.047745257, ,0.008925659159697603, ,0.02612536879967756, ,0.0004298071316601419, ,1.9166666666666667, ,0.8239687014218765, ,0.45866410889573683, ,0.14052774433174833
48, ,PASS, ,0.10373084, ,0.015571182507493335, ,0.024098695259280423, ,0.0016180518243160559, ,1.75, ,0.7066631576592444, ,0.46074569906736595, ,0.05324381135078876
49, ,PASS, ,0.12302889999999998, ,0.01571372670635646, ,0.023300488961245685, ,0.0019318390861431784, ,1.75, ,0.6351773000005888, ,0.45921511805881515, ,0.029346339870614885
50, ,PASS, ,0.04744264399999999, ,0.008893185780867445, ,0.02608941680439175, ,0.000425650310212903, ,1.9166666666666667, ,0.8255668502739814, ,0.45982735046223544, ,0.14289504295830696
51, ,PASS, ,0.10412521, ,0.01571824901833839, ,0.023881262281177932, ,0.001639957632831294, ,1.75, ,0.7093794754209222, ,0.4601946899042877, ,0.05457031489153283
52, ,PASS, ,0.12365864000000001, ,0.015666833156468125, ,0.023201505880696312, ,0.0019357884605217459, ,1.75, ,0.6322796307714568, ,0.45864370114895614, ,0.028040244076651497
53, ,PASS, ,0.05016315799999999, ,0.009429274719679637, ,0.02580672473716863, ,0.00047705268562682723, ,1.9166666666666667, ,0.8281139732043579, ,0.4599906124364809, ,0.14858880431011612
54, ,PASS, ,0.10723132000000005, ,0.015916269408225367, ,0.02377110630823861, ,0.0017092788354875878, ,1.75, ,0.7015759764038001, ,0.460174282157507, ,0.05038672680149385
55, ,PASS, ,0.12608009000000003, ,0.01585914977938541, ,0.023390710087141078, ,0.001997181474399734, ,1.75, ,0.6291497255816679, ,0.4606028448399012, ,0.0259994693985837
56, ,PASS, ,0.050411336999999994, ,0.009426500445128591, ,0.026166064575518868, ,0.0004788859055986098, ,1.9166666666666667, ,0.8251111488128942, ,0.4608885532948307, ,0.14211954858064121
57, ,PASS, ,0.10881238000000003, ,0.016036083239848998, ,0.02375531033142181, ,0.0017471141347997902, ,1.75, ,0.6981183023361681, ,0.460235505397849, ,0.04514193587885962
58, ,PASS, ,0.12661955, ,0.015900379638232955, ,0.02343191648415338, ,0.0020110291768976885, ,1.75, ,0.6287926093951406, ,0.46066406808024324, ,0.026877002510152855
59, ,PASS, ,0.048850927, ,0.00918636470047335, ,0.02609385478400441, ,0.0004527881975394301, ,1.9166666666666667, ,0.8270857510337494, ,0.4598681659557968, ,0.1430583049325524
60, ,PASS, ,0.10969337000000003, ,0.016146334500403273, ,0.02386013927062713, ,0.0017734317616993431, ,1.75, ,0.6976283366942059, ,0.4605620293463399, ,0.04683577886165589
61, ,PASS, ,0.12761289, ,0.016008901035846058, ,0.02321973870247546, ,0.0020410163592881675, ,1.6666666666666667, ,0.6286624816464016, ,0.46003142793004226, ,0.026856594763372175
62, ,PASS, ,0.05057094229999999, ,0.009622060870088392, ,0.025869793400861204, ,0.0004906452749812019, ,1.9166666666666667, ,0.8335686658143077, ,0.4610518152690761, ,0.15967021081202423
63, ,PASS, ,0.11282537000000002, ,0.01639213569241339, ,0.023475129182057512, ,0.0018522392322114017, ,1.75, ,0.6918784777861137, ,0.4593171567927185, ,0.046917409848778596
64, ,PASS, ,0.129005, ,0.01608770026938056, ,0.02303547067243526, ,0.0020726977594733983, ,1.75, ,0.6242985516760169, ,0.4592763412991572, ,0.025570906716189466
65, ,PASS, ,0.049136086700000005, ,0.009268076823029957, ,0.026015714381277935, ,0.0004588939676890287, ,1.9166666666666667, ,0.8262682272811561, ,0.4604395828656558, ,0.1554458072284239
66, ,PASS, ,0.11359558, ,0.016378385389951042, ,0.023609109911838535, ,0.0018628996101283616, ,1.75, ,0.6877988893141809, ,0.45913348707169244, ,0.044121548539825715
67, ,PASS, ,0.12911541, ,0.016051493916287515, ,0.023459167247607188, ,0.0020697111895472786, ,1.6666666666666667, ,0.6232487499958244, ,0.46084773780126936, ,0.02620354686639048
68, ,PASS, ,0.046742158000000006, ,0.008833065073848118, ,0.02599734665576213, ,0.00041647543879929467, ,1.9166666666666667, ,0.8294451122891434, ,0.45874573988285955, ,0.14216036407420257
69, ,PASS, ,0.11367729999999998, ,0.0164070188157201, ,0.023831469057570255, ,0.0018668873136992077, ,1.75, ,0.688274320929641, ,0.4607252913205853, ,0.04393787881879962
70, ,PASS, ,0.12979001, ,0.016054310787581693, ,0.023112812427909635, ,0.002081587977684353, ,1.6666666666666667, ,0.6228833368717306, ,0.46074569906736595, ,0.02624436235995184
71, ,PASS, ,0.045204782, ,0.008531922029945682, ,0.02609471149717353, ,0.00038857191105000295, ,1.9166666666666667, ,0.8269968157870613, ,0.4622966878226975, ,0.1541397114344605
72, ,PASS, ,0.11735751, ,0.016572949120139943, ,0.023452726595579683, ,0.0019468512269361596, ,1.75, ,0.6792288139316899, ,0.4593171567927185, ,0.040815493561355894
73, ,PASS, ,0.13181812000000004, ,0.01609954350164978, ,0.023409008104324402, ,0.0021188005067237577, ,1.6666666666666667, ,0.616996953606622, ,0.46288851247933716, ,0.024795412338523705
74, ,PASS, ,0.047457059999999995, ,0.008731617346788565, ,0.025969144837717596, ,0.00041753909244803716, ,1.9166666666666667, ,0.8121369927131782, ,0.46082733005448867, ,0.15213975224995407
75, ,FAIL, ,0.00870961, ,0.00039140761755027776, ,0.02784329039427767, ,3.560825718573796e-06, ,0.8333333333333334, ,0.30423507346738043, ,0.45917430256525377, ,0.007734536029876941
76, ,PASS, ,0.13237190999999998, ,0.016102767203513665, ,0.02279545465419073, ,0.0021294583443968516, ,1.6666666666666667, ,0.6137904915708815, ,0.45666414971123037, ,0.024775004591743026
77, ,PASS, ,0.046860514000000006, ,0.008689313123170245, ,0.02605646522005673, ,0.0004103995710064339, ,1.9166666666666667, ,0.8174622541458296, ,0.45909267157813105, ,0.15522132201383645
78, ,PASS, ,0.11930858999999996, ,0.016321942592801855, ,0.023578096329258585, ,0.001948084660006599, ,1.75, ,0.6655841999062649, ,0.46031713638497174, ,0.03369318993489929
79, ,PASS, ,0.13327498, ,0.016219082843592175, ,0.022909181982816676, ,0.002159410376574924, ,1.6666666666666667, ,0.6160365545454486, ,0.4592559335523765, ,0.02506071304667252
80, ,PASS, ,0.046692255999999994, ,0.008600403581053333, ,0.026139018730862638, ,0.0004043557240020024, ,1.9166666666666667, ,0.8144378994984954, ,0.46048039835921717, ,0.13977265770086325
81, ,PASS, ,0.12130612999999998, ,0.01648883363334596, ,0.023505080839166543, ,0.00199992863352318, ,1.75, ,0.6633015108795258, ,0.4609089610416114, ,0.03442786881900369
82, ,PASS, ,0.13632528000000002, ,0.0165457116620769, ,0.02301493801187731, ,0.002252136103025637, ,1.6666666666666667, ,0.6147348867250348, ,0.4605416215995592, ,0.0242444031754454
83, ,PASS, ,0.051377485499999986, ,0.009268856948993104, ,0.02580966548946144, ,0.0004790447688952365, ,1.9166666666666667, ,0.8036539682842592, ,0.46082733005448867, ,0.16754760106936592
84, ,PASS, ,0.12746555000000004, ,0.01713488418969724, ,0.02324564461602824, ,0.0021836985415041835, ,1.75, ,0.6579825484137007, ,0.4609089610416114, ,0.031815677231076915
85, ,PASS, ,0.14138428000000003, ,0.017169541706080586, ,0.02268993391604253, ,0.0024253457192780887, ,1.6666666666666667, ,0.6156349000312951, ,0.45907226383135036, ,0.024468888390032858
198, ,PASS, ,0.19980000000000006, ,0.03887738344531024, ,0.03537369580720802, ,0.007852888722903822, ,1.9166666666666667, ,0.923532332564565, ,0.4690516520071019, ,0.17769025121936288
199, ,PASS, ,0.11409414000000001, ,0.014057878176039214, ,0.02569950911830024, ,0.0016413960647413445, ,2.0, ,0.8756092356605764, ,0.4693169527152507, ,0.04624395420501622
200, ,PASS, ,0.11508077, ,0.013737675074294362, ,0.025945597678997165, ,0.0016178660596609508, ,2.0, ,0.865891381599758, ,0.4721740372645456, ,0.03761147731678945
201, ,PASS, ,0.11118046000000001, ,0.013988361428597496, ,0.025822146589857146, ,0.0015940800376288693, ,2.0, ,0.8591729764498399, ,0.4698883696251097, ,0.03526458643701149
202, ,PASS, ,0.08917223, ,0.01104173571523487, ,0.026229702201485686, ,0.0010074819407084347, ,2.0, ,0.848594705608903, ,0.4685006428440236, ,0.03250954062161997
203, ,PASS, ,0.08892206000000002, ,0.011404029109450951, ,0.02622947737260464, ,0.0010320494052687387, ,2.0, ,0.8458845750891485, ,0.46956184567661885, ,0.02969327156588641
204, ,PASS, ,0.07672227, ,0.009806811112411868, ,0.0264076392473623, ,0.0007671522391628779, ,2.0, ,0.8465033098063347, ,0.4676027019856738, ,0.031325891308340646
205, ,PASS, ,0.07753226999999997, ,0.010000857293454027, ,0.026495261711128346, ,0.0007882683551715974, ,2.0, ,0.845495146196799, ,0.4689292055264178, ,0.030244280728964713
206, ,PASS, ,0.07428838, ,0.009411413545879684, ,0.02652249614999694, ,0.0007104607221022456, ,2.0, ,0.8465268640705083, ,0.46788841044060325, ,0.0284075835187037
207, ,PASS, ,0.07358798999999998, ,0.009458697682955937, ,0.026440325805187653, ,0.0007084191392318863, ,2.0, ,0.8473329372025916, ,0.4671741393032795, ,0.03138711454868268
208, ,PASS, ,0.06635669500000002, ,0.00860728905949006, ,0.02652368825340299, ,0.0005801592899098978, ,2.0, ,0.8375474602969261, ,0.46578641252219344, ,0.02899940817534336
209, ,PASS, ,0.06551644300000002, ,0.008502232520121486, ,0.026537682212097714, ,0.000565609947220383, ,2.0, ,0.8372873159067586, ,0.46535784983979916, ,0.028387175771923023
210, ,PASS, ,0.06652498200000004, ,0.008360626124001288, ,0.026628872939307362, ,0.0005662077626447056, ,2.0, ,0.8403231606214336, ,0.4659292667496582, ,0.027979020836309463
211, ,PASS, ,0.07426793, ,0.009607019027186131, ,0.02640842466117018, ,0.0007252324565411436, ,2.0, ,0.8448084991481926, ,0.4666435378869819, ,0.031019775106630478
212, ,PASS, ,0.10869077000000002, ,0.013230981945883936, ,0.025989745481414257, ,0.0014740949165891939, ,2.0, ,0.8598230299948947, ,0.4710516111916083, ,0.03693802167302708
213, ,PASS, ,0.08502358999999998, ,0.010500026147704815, ,0.026369072035958452, ,0.0009109151510668949, ,2.0, ,0.8479626807649138, ,0.4693781759555927, ,0.02969327156588641
214, ,PASS, ,0.08329259, ,0.010398814541138068, ,0.026285705628925946, ,0.000878481029164743, ,2.0, ,0.8453357264725556, ,0.4680108569212873, ,0.029550417338421665
215, ,PASS, ,0.10350957999999999, ,0.012581292798590781, ,0.026071743779086137, ,0.0013361857257314126, ,2.0, ,0.8565868752668243, ,0.4695006224362768, ,0.03363196669455725
216, ,PASS, ,0.09987204999999999, ,0.01219250778207416, ,0.026023047205318256, ,0.0012407533730348103, ,2.0, ,0.8549997549609161, ,0.46990877737189035, ,0.0335911512009959
217, ,PASS, ,0.09271368000000002, ,0.011540855570032654, ,0.02609862783831473, ,0.0010899085992541703, ,2.0, ,0.8490516920876957, ,0.46797004142772597, ,0.031427930042244034
218, ,PASS, ,0.10846803000000002, ,0.012974293120809915, ,0.026081429536793328, ,0.0014305649566701635, ,2.0, ,0.8587316097223153, ,0.47260259994693987, ,0.03418297585763556
219, ,PASS, ,0.09948553000000002, ,0.011987732563078687, ,0.026175161026540276, ,0.001210573496914957, ,2.0, ,0.8542280190185472, ,0.4710516111916083, ,0.03116262933409522
220, ,PASS, ,0.09638972000000003, ,0.011494608659758026, ,0.026070461936478845, ,0.0011324411376255528, ,2.0, ,0.8521568426543391, ,0.4685006428440236, ,0.030754474398481665
221, ,PASS, ,0.09879803000000001, ,0.011873188502318305, ,0.026044642873828083, ,0.0011995400589482844, ,2.0, ,0.8560363163423458, ,0.46954143792983816, ,0.028652476480071836
222, ,PASS, ,0.07564299999999999, ,0.008804669320616987, ,0.02649865636991082, ,0.0006744877081503668, ,2.0, ,0.8336862817509606, ,0.4672761780371829, ,0.02057100875492337
223, ,PASS, ,0.09239955000000001, ,0.011243513396925399, ,0.02621849619254709, ,0.0010512589011051443, ,2.0, ,0.8489035985657174, ,0.4703373400542846, ,0.02483622783208506
224, ,PASS, ,0.10257609999999999, ,0.01149387546297598, ,0.026129265440595698, ,0.001197682307208156, ,2.0, ,0.8468878016078784, ,0.46997000061223243, ,0.02093834819697557
225, ,PASS, ,0.09572335, ,0.010043258027208391, ,0.026295849958041677, ,0.0009734762631691436, ,2.0, ,0.8547298854524429, ,0.4693577682088121, ,0.02334646231709557
226, ,PASS, ,0.11216140999999999, ,0.012388672352035324, ,0.02611112418156915, ,0.0014160486345552684, ,2.0, ,0.8712812726843238, ,0.47027611681394255, ,0.03130548356155997
227, ,PASS, ,0.19980000000000006, ,0.04200361307930478, ,0.035953218901859166, ,0.008468818770295358, ,2.0, ,0.9714108023699701, ,0.4681333034019714, ,0.43995020509785515
