Channel, ,Pass/Fail, ,Amplitude, ,Sorting Function Response, ,Mean, ,Variance, ,NPeaksRatio, ,PosIntegralRatio, ,ToT50, ,ToT99
42, ,PASS, ,0.009150189999999985, ,0.0008254635893526538, ,0.03538687580947328, ,7.86635604373301e-06, ,1.6666666666666667, ,0.5551981917875407, ,0.632599334707455, ,0.010591620579171854
43, ,PASS, ,0.00767408000000001, ,0.0007549324551153363, ,0.035520567630864676, ,6.042382038325215e-06, ,1.6666666666666667, ,0.5902960171888904, ,0.6245382747290872, ,0.012836472725046427
44, ,PASS, ,0.007902129999999983, ,0.000816336379750846, ,0.03531733547396992, ,6.6719068636352786e-06, ,1.6666666666666667, ,0.6511024765148077, ,0.6252729536131916, ,0.019550621415889473
45, ,PASS, ,0.008008119999999994, ,0.0008391426973114986, ,0.03522093790432848, ,6.994316137005354e-06, ,1.6666666666666667, ,0.6208362194483045, ,0.6316401706087631, ,0.02324442358319218
46, ,PASS, ,0.008522379999999989, ,0.0011194119209417697, ,0.035428415087651266, ,9.886806497799265e-06, ,1.8333333333333333, ,0.7377133180260138, ,0.635007448827575, ,0.028856553947878616
47, ,FAIL, ,0.0013389899999999913, ,5.714801621295084e-05, ,0.03463268730536112, ,8.556491253120987e-08, ,1.0, ,0.4101882392781402, ,0.4552560151833636, ,0.014469092467500663
48, ,PASS, ,0.008417669999999992, ,0.0011175133314870315, ,0.03541664660925287, ,9.746864502598281e-06, ,1.8333333333333333, ,0.7526708481647862, ,0.634619701638742, ,0.08120242444031754
49, ,PASS, ,0.007976279999999988, ,0.000799953397832731, ,0.035187675685802326, ,6.641376798419866e-06, ,1.6666666666666667, ,0.6178444436089988, ,0.6356604967245566, ,0.009183486051305076
50, ,PASS, ,0.007793930000000001, ,0.0008327969730015186, ,0.03551639712577294, ,6.753258764478229e-06, ,1.5833333333333333, ,0.6581279511575481, ,0.6272320973041366, ,0.02912185465602743
51, ,PASS, ,0.007614159999999988, ,0.0008402015448514757, ,0.03519647306626395, ,6.6709462928906074e-06, ,1.6666666666666667, ,0.6543964907950574, ,0.6343544009305933, ,0.03195853145854166
52, ,PASS, ,0.00763573, ,0.0008288562827068166, ,0.03549091137711475, ,6.5767908995738474e-06, ,1.5833333333333333, ,0.6541552211360728, ,0.6427623926042325, ,0.0311830370808759
53, ,PASS, ,0.007582019999999988, ,0.0008152927200711808, ,0.035229030958755944, ,6.439139349076176e-06, ,1.6666666666666667, ,0.6615008692619844, ,0.6306605987632905, ,0.03206057019244505
54, ,PASS, ,0.0077078599999999935, ,0.0008533827695089467, ,0.03533402870472031, ,6.837901001379492e-06, ,1.6666666666666667, ,0.6616998739840004, ,0.6354360115099692, ,0.025713760943654212
55, ,PASS, ,0.007969989999999996, ,0.000792686094311954, ,0.0350086581396298, ,6.573205298849112e-06, ,1.6666666666666667, ,0.5956093950535261, ,0.6234158486561499, ,0.012285463561968123
56, ,PASS, ,0.007575989999999998, ,0.0007892483034312447, ,0.03544706783473806, ,6.22555763711853e-06, ,1.6666666666666667, ,0.6496705020991761, ,0.6356809044713373, ,0.03646864349707149
57, ,PASS, ,0.007767909999999989, ,0.0008461666030679201, ,0.03551022284810514, ,6.832736550324677e-06, ,1.75, ,0.6769305239529277, ,0.6357625354584601, ,0.01222424032162609
58, ,PASS, ,0.00744031999999999, ,0.0009193674767348443, ,0.03533596936572723, ,7.063114132303326e-06, ,1.8333333333333333, ,0.7119892507483231, ,0.6228648394930716, ,0.06197832697291892
59, ,PASS, ,0.008398719999999988, ,0.0009251561048948481, ,0.03533982859819187, ,8.077946149450551e-06, ,1.6666666666666667, ,0.6495294526776658, ,0.6471908736556397, ,0.019979184098283708
60, ,PASS, ,0.008069890000000003, ,0.0008430847675799682, ,0.0355887524336238, ,7.085051274038893e-06, ,1.6666666666666667, ,0.6514073923778558, ,0.6331095283769719, ,0.03061162017101692
61, ,PASS, ,0.008424669999999967, ,0.0009347727548908333, ,0.03536871965898655, ,8.171890336865511e-06, ,1.6666666666666667, ,0.6654454422387123, ,0.6283137078835126, ,0.009979388175751515
62, ,PASS, ,0.008108889999999994, ,0.0009355208910471574, ,0.03526913375176017, ,7.836210143584314e-06, ,1.6666666666666667, ,0.6410871445074501, ,0.6134772759739597, ,0.027183118711863023
63, ,PASS, ,0.007923210000000007, ,0.0009389080493688607, ,0.03525922742168527, ,7.7102899902838e-06, ,1.9166666666666667, ,0.6850959491166814, ,0.632089141037938, ,0.024305626415787433
64, ,PASS, ,0.008388700000000006, ,0.0008301888165502509, ,0.03553044418317994, ,7.2328991648779765e-06, ,1.6666666666666667, ,0.6027852646705711, ,0.6328034121752617, ,0.016509867145568458
65, ,PASS, ,0.007941759999999996, ,0.0008470179258635418, ,0.0352450194067468, ,6.998189983019862e-06, ,1.5833333333333333, ,0.6416234268724599, ,0.6199669394502153, ,0.042856268239423685
66, ,PASS, ,0.007729140000000002, ,0.0008655596453973799, ,0.035723751256096815, ,6.960493989280851e-06, ,1.6666666666666667, ,0.6779329782320032, ,0.6337625762739536, ,0.05128466765984368
67, ,PASS, ,0.007951889999999996, ,0.0008386765551937248, ,0.03528324243199118, ,6.94248478247378e-06, ,1.75, ,0.6199337382944512, ,0.6336809452868308, ,0.01548947980653456
68, ,PASS, ,0.008328749999999992, ,0.0009086476324254507, ,0.03542308480439175, ,7.873988043033406e-06, ,1.6666666666666667, ,0.659039344017951, ,0.6323748494928675, ,0.01687720658762066
69, ,PASS, ,0.024632880000000017, ,0.0026889546818180676, ,0.028385962086896185, ,6.967718141988609e-05, ,1.9166666666666667, ,0.571472592857687, ,0.4868472071998531, ,0.02791779759596743
70, ,PASS, ,0.00705094999999999, ,0.0008682908770269824, ,0.03433215103834616, ,6.386589137973424e-06, ,1.75, ,0.7707123686220436, ,0.64298687781882, ,0.025387236995163365
71, ,PASS, ,0.008412909999999982, ,0.0009315147039329769, ,0.035281220060815084, ,8.143350394237581e-06, ,1.75, ,0.6472341265076035, ,0.6302932593212384, ,0.016652721373033204
72, ,PASS, ,0.007385389999999995, ,0.0008168720080215745, ,0.03526471228811656, ,6.25915098520282e-06, ,1.6666666666666667, ,0.6400694954075172, ,0.6187424746433746, ,0.0391420583253403
73, ,PASS, ,0.007623140000000007, ,0.0008773427444085994, ,0.03593172273402583, ,6.947219452730375e-06, ,1.6666666666666667, ,0.6644684842794432, ,0.6269259811024265, ,0.04026448439827759
74, ,PASS, ,0.008398759999999991, ,0.0010199574690010402, ,0.03667364750780596, ,8.880252428815975e-06, ,1.75, ,0.6799127987279873, ,0.6382726883124834, ,0.017530254484602353
75, ,PASS, ,0.01436482000000001, ,0.0014277275139334157, ,0.03471710167608824, ,2.1015741558371595e-05, ,1.5833333333333333, ,0.5301988485579134, ,0.5372339340013469, ,0.037550254076447416
76, ,PASS, ,0.009626860000000008, ,0.0009798604038524152, ,0.03419963709210016, ,9.764472610885387e-06, ,1.8333333333333333, ,0.5251766414861683, ,0.628476969857758, ,0.022244443990938962
77, ,PASS, ,0.009511500000000006, ,0.0007393262371438215, ,0.03470605164098692, ,7.34762702681846e-06, ,1.5833333333333333, ,0.36051785268551245, ,0.43160343666455786, ,0.021305687639027775
78, ,PASS, ,0.007878100000000006, ,0.0009728076697469466, ,0.03457081977306586, ,7.943516702071154e-06, ,1.75, ,0.5794200947414323, ,0.6333748290851207, ,0.04755004999897961
79, ,PASS, ,0.007790379999999996, ,0.0008797978004977877, ,0.03537067100304075, ,7.11230994754189e-06, ,1.8333333333333333, ,0.6963362339919006, ,0.6224770923042386, ,0.03352992796065386
112, ,PASS, ,0.007481819999999997, ,0.0008397636629864588, ,0.035437747167812894, ,6.539610607687464e-06, ,1.75, ,0.6831986058158568, ,0.6353135650292852, ,0.03526458643701149
113, ,PASS, ,0.0073363299999999985, ,0.0007431169873401113, ,0.035336714541744044, ,5.679878206472993e-06, ,1.5833333333333333, ,0.6352723340786861, ,0.6300687741066509, ,0.024285218669006754
114, ,PASS, ,0.009175260000000001, ,0.0011820485863226857, ,0.03555130226199465, ,1.1242432280992535e-05, ,1.8333333333333333, ,0.7454889045881645, ,0.6295381726903533, ,0.03128507581477929
115, ,PASS, ,0.008193509999999973, ,0.0008943689557122347, ,0.035173953061978326, ,7.613851584459077e-06, ,1.75, ,0.6742300869941815, ,0.6330074896430685, ,0.024877043325646414
116, ,PASS, ,0.007730329999999997, ,0.0008933803578027462, ,0.035700102759739595, ,7.152036658195008e-06, ,1.6666666666666667, ,0.6999512259417944, ,0.6292728719822045, ,0.07826370890389991
117, ,PASS, ,0.008090529999999999, ,0.0009341500951771254, ,0.0353727048437787, ,7.833761630906617e-06, ,1.8333333333333333, ,0.6759982699813197, ,0.6342115467031285, ,0.02273422991367523
118, ,PASS, ,0.00855193999999999, ,0.0009354785187065551, ,0.03549116807248832, ,8.319586061290094e-06, ,1.6666666666666667, ,0.5931850965893654, ,0.6300687741066509, ,0.02920348564315014
119, ,PASS, ,0.006241899999999995, ,0.0007242617881630488, ,0.03537688662313014, ,4.691352067561734e-06, ,1.9166666666666667, ,0.7433076214127983, ,0.6151915267035367, ,0.008020244484806432
120, ,PASS, ,0.008909619999999983, ,0.0008667163907433614, ,0.03484039664925206, ,8.00224472643481e-06, ,1.6666666666666667, ,0.5454003824872634, ,0.6247423521968939, ,0.010367135364584397
121, ,PASS, ,0.008194449999999992, ,0.0008585633197518197, ,0.035484279035121725, ,7.3108656440115095e-06, ,1.6666666666666667, ,0.6631225783939109, ,0.6389665517030265, ,0.04436644150119385
122, ,PASS, ,0.007863439999999979, ,0.0009956907382270108, ,0.03512877011020183, ,8.116606348921764e-06, ,1.75, ,0.7148124911760461, ,0.6342931776902512, ,0.030917736372727087
123, ,PASS, ,0.007981679999999988, ,0.0009318568157236916, ,0.03539919406583539, ,7.72535445423301e-06, ,1.75, ,0.6874039861538856, ,0.6337625762739536, ,0.03212179343278709
124, ,PASS, ,0.010674449999999981, ,0.0007159658872780292, ,0.03533029971735271, ,7.989384661864668e-06, ,1.5, ,0.37774819006133503, ,0.5563968082284035, ,0.02771372012816065
125, ,PASS, ,0.007565300000000004, ,0.0008534530177038696, ,0.03526387925083161, ,6.733561709213973e-06, ,1.75, ,0.6836628893440868, ,0.6311299769392461, ,0.027999428583090142
126, ,PASS, ,0.007870899999999993, ,0.000863910938255477, ,0.03539036917062917, ,7.091830667792477e-06, ,1.6666666666666667, ,0.6808560437791572, ,0.6356604967245566, ,0.040693047080671826
127, ,PASS, ,0.007164440000000001, ,0.0007286855282908757, ,0.03605596942531785, ,5.438791591535685e-06, ,1.6666666666666667, ,0.6479420251735236, ,0.6221301606089672, ,0.04808065141527724
128, ,PASS, ,0.009025159999999997, ,0.0006689952539405728, ,0.03611211588681863, ,6.213130338764395e-06, ,1.4166666666666667, ,0.5452328270907374, ,0.5259076345380707, ,0.006979449398991857
129, ,PASS, ,0.008014629999999995, ,0.0008768811985707072, ,0.03565553015856819, ,7.3098581546067396e-06, ,1.75, ,0.6593844887283707, ,0.6384359502867288, ,0.015183363604824392
130, ,PASS, ,0.008080420000000001, ,0.0009128093444892735, ,0.0355127762729332, ,7.673398951491847e-06, ,1.6666666666666667, ,0.6863010405095963, ,0.6343135854370319, ,0.062447705148874516
131, ,PASS, ,0.0073845399999999985, ,0.0008518352011455224, ,0.035393239376951484, ,6.539117833627651e-06, ,1.75, ,0.6375867474907067, ,0.6191914450725495, ,0.02057100875492337
132, ,PASS, ,0.010024800000000004, ,0.0009589444347671747, ,0.035402609564294606, ,9.96550099700799e-06, ,1.5833333333333333, ,0.6126601673522462, ,0.6305585600293871, ,0.03371359768167997
133, ,PASS, ,0.00758843, ,0.0009134982453494041, ,0.0361043346952103, ,7.229646028008579e-06, ,1.9166666666666667, ,0.6789999286642355, ,0.6278851452011184, ,0.01638742066488439
134, ,PASS, ,0.009035460000000006, ,0.001062389786068964, ,0.03583630171098549, ,9.961092225596173e-06, ,1.6666666666666667, ,0.6834981155717189, ,0.633170751617314, ,0.05195812330360605
135, ,PASS, ,0.020902880000000002, ,0.003430255410840316, ,0.03677122388890023, ,7.283336945712377e-05, ,1.9166666666666667, ,0.8044791629995725, ,0.6072937286994143, ,0.07405971306708026
136, ,PASS, ,0.009624769999999987, ,0.0011129326030083987, ,0.03607537461745679, ,1.1076820877410571e-05, ,1.75, ,0.699080877203614, ,0.6298034733985021, ,0.04063182384032979
137, ,PASS, ,0.009227969999999992, ,0.0011108096152591008, ,0.03533691493112385, ,1.0626483025945201e-05, ,1.75, ,0.6972453352513021, ,0.6323544417460868, ,0.02324442358319218
138, ,PASS, ,0.009060799999999987, ,0.001071592032889717, ,0.03557834531152425, ,1.0008314843328393e-05, ,1.8333333333333333, ,0.7050270995402134, ,0.6214158894716434, ,0.025591314462970142
139, ,PASS, ,0.00958515, ,0.0010865018187862657, ,0.035417403051978526, ,1.0780823472699613e-05, ,1.6666666666666667, ,0.6539557011268523, ,0.6350482643211363, ,0.046203138711454865
140, ,PASS, ,0.008811179999999991, ,0.001126990021527079, ,0.03483201689761433, ,1.0232288992327752e-05, ,1.8333333333333333, ,0.746209663930883, ,0.6334768678190241, ,0.03308095753147895
141, ,PASS, ,0.009480780000000018, ,0.0011031876558981238, ,0.03497988971755678, ,1.0813390149429251e-05, ,1.6666666666666667, ,0.6895064274158187, ,0.6367829227974939, ,0.035040101222424035
142, ,PASS, ,0.008811409999999988, ,0.0010745792623360541, ,0.03549700115691516, ,9.82160982796434e-06, ,1.75, ,0.7000415194038656, ,0.6313544621538336, ,0.01340788963490541
143, ,PASS, ,0.008555239999999988, ,0.001024620632563425, ,0.03576221671639354, ,9.099573997619057e-06, ,1.6666666666666667, ,0.7172990126449367, ,0.6328238199220424, ,0.040407338625742334
176, ,PASS, ,0.009057479999999979, ,0.0010450613463164594, ,0.03596965583477888, ,9.855084219187003e-06, ,1.75, ,0.7214375165809656, ,0.6373339319605722, ,0.042039958368196566
177, ,PASS, ,0.009055609999999999, ,0.0010618218984824524, ,0.03553399191996082, ,9.979184726339005e-06, ,1.75, ,0.7118759057228085, ,0.6365992530764678, ,0.06348850023468909
178, ,PASS, ,0.013255350000000013, ,0.0010749510347136946, ,0.03429847042978715, ,1.4757100914799669e-05, ,1.5833333333333333, ,0.37481175980998066, ,0.5034591130793249, ,0.004897859227362707
179, ,PASS, ,0.008832260000000001, ,0.0011513092169066607, ,0.035643340131629966, ,1.0572459903966696e-05, ,1.9166666666666667, ,0.663499764520714, ,0.628476969857758, ,0.011856900879573886
180, ,PASS, ,0.008717669999999993, ,0.0010983833715140373, ,0.03560900917675149, ,9.89271719359957e-06, ,1.8333333333333333, ,0.7475991135611396, ,0.6309667149650007, ,0.04999897961266097
181, ,PASS, ,0.009251729999999993, ,0.0011052367238039743, ,0.03554849218791453, ,1.0612546275576814e-05, ,1.6666666666666667, ,0.7020719598331245, ,0.6238852268321055, ,0.026856594763372175
182, ,PASS, ,0.009138599999999983, ,0.0011116725751008014, ,0.03565096839513479, ,1.054845634221129e-05, ,1.75, ,0.7238952205869509, ,0.6358441664455827, ,0.056774351543846045
183, ,PASS, ,0.00921087999999999, ,0.0010736220983893813, ,0.03550924261831391, ,1.0266316091604727e-05, ,1.75, ,0.6937191466040282, ,0.6353951960164078, ,0.025938246158241668
184, ,PASS, ,0.009087169999999992, ,0.001077672939674112, ,0.03557056115160915, ,1.0095570042107061e-05, ,1.8333333333333333, ,0.7080010095698993, ,0.622395461317116, ,0.03889716536397216
185, ,PASS, ,0.00908123999999999, ,0.0010526637161885608, ,0.03560776574518887, ,9.93927579500923e-06, ,1.75, ,0.6858151364722231, ,0.6315585396216403, ,0.022611783432991164
186, ,PASS, ,0.009593029999999995, ,0.001135754329294914, ,0.03587761873778086, ,1.1300174831411667e-05, ,1.75, ,0.7049382600768899, ,0.6348033713597682, ,0.007897798004122365
187, ,PASS, ,0.009899279999999996, ,0.0011770334559076195, ,0.0355330918585335, ,1.2080001801116969e-05, ,1.75, ,0.6900942404997856, ,0.6344564396644966, ,0.04483581967714945
188, ,PASS, ,0.010866470000000017, ,0.0011581688698136892, ,0.03511736805350911, ,1.3050906547372701e-05, ,1.75, ,0.6099073774078221, ,0.6288443092998102, ,0.019713883390134895
189, ,PASS, ,0.009409999999999988, ,0.0011361688735926799, ,0.035678316932307504, ,1.1104006367702382e-05, ,1.75, ,0.7104718049025173, ,0.6344564396644966, ,0.045815391522621984
190, ,PASS, ,0.009187979999999984, ,0.0011074501119803942, ,0.03566418859757964, ,1.057317339834968e-05, ,1.75, ,0.7143646970505068, ,0.6349666333340136, ,0.0323870941409359
191, ,PASS, ,0.00945693999999999, ,0.0011462048552104776, ,0.035522634991326706, ,1.1238018924449137e-05, ,1.75, ,0.6971902936933797, ,0.6343952164241546, ,0.035468663904818266
192, ,PASS, ,0.00939634999999998, ,0.0011251941378382444, ,0.035628198053713186, ,1.1002149975310309e-05, ,1.75, ,0.7201001611213537, ,0.6342115467031285, ,0.06452929532050367
193, ,PASS, ,0.009961249999999994, ,0.0011327100351096397, ,0.03585948624170935, ,1.1705891298562783e-05, ,1.6666666666666667, ,0.7217721390887734, ,0.6490275708659007, ,0.060957939633885024
194, ,PASS, ,0.009572139999999986, ,0.0011255768825686068, ,0.03550830912532397, ,1.1182019961916147e-05, ,1.75, ,0.7025595379465659, ,0.635007448827575, ,0.04103997877594335
195, ,PASS, ,0.009453799999999995, ,0.001081064711681035, ,0.03531971729332054, ,1.0605628066170592e-05, ,1.75, ,0.6985097794411718, ,0.637538009428379, ,0.033734005428460646
196, ,PASS, ,0.009552539999999991, ,0.0011327606808446892, ,0.03561711254709087, ,1.1161757222604234e-05, ,1.8333333333333333, ,0.7027449666746457, ,0.6197220464888472, ,0.029815718046570478
197, ,PASS, ,0.009441149999999978, ,0.0010521412255231233, ,0.035603784124405624, ,1.0314001376078457e-05, ,1.6666666666666667, ,0.6880276813770179, ,0.6210485500295913, ,0.016530274892349137
198, ,PASS, ,0.009529790000000003, ,0.0011102500525334276, ,0.03561579226974959, ,1.1003110527092508e-05, ,1.75, ,0.6921527722186226, ,0.6340074692353217, ,0.02612191587926777
199, ,PASS, ,0.010695260000000005, ,0.0011369553336214198, ,0.035247858480235095, ,1.2614746624774811e-05, ,1.75, ,0.7090169052449447, ,0.6430276933123814, ,0.029162670149588784
200, ,PASS, ,0.009774809999999991, ,0.0009899777700026716, ,0.03614610977531071, ,1.0042348464020439e-05, ,1.75, ,0.6379865496372625, ,0.6421297524540316, ,0.01253035652333626
201, ,PASS, ,0.009489129999999995, ,0.0011366607408034744, ,0.03561562367768005, ,1.1213771327888429e-05, ,1.75, ,0.684876560342192, ,0.6339462459949797, ,0.02867288422685251
202, ,PASS, ,0.009348869999999999, ,0.0011430228229441864, ,0.03563581603620334, ,1.1099376680089562e-05, ,1.75, ,0.7220109547316899, ,0.6348033713597682, ,0.06859043692985857
203, ,PASS, ,0.009460509999999981, ,0.0011729406888666908, ,0.03575504528356564, ,1.15205869716862e-05, ,1.8333333333333333, ,0.7257499637976956, ,0.6355788657374339, ,0.028611660986510478
204, ,PASS, ,0.009026359999999994, ,0.0011299715912264337, ,0.035674063147690865, ,1.0608270158487675e-05, ,1.8333333333333333, ,0.7144609999713838, ,0.6359666129262668, ,0.026183139119609802
205, ,PASS, ,0.009550289999999982, ,0.0011453910709226297, ,0.03593593481786086, ,1.1351911317144007e-05, ,1.75, ,0.7018735453146137, ,0.6370890389992041, ,0.012836472725046427
206, ,PASS, ,0.00965366999999999, ,0.0011234066147237385, ,0.035777596015387436, ,1.123154173653681e-05, ,1.8333333333333333, ,0.7033998637222606, ,0.6382930960592641, ,0.02604028489214506
207, ,PASS, ,0.009500020000000008, ,0.0011190136858440119, ,0.03561561087896165, ,1.1021026684048155e-05, ,1.75, ,0.7017715038816779, ,0.6353951960164078, ,0.04263178302483623
208, ,PASS, ,0.00952670999999999, ,0.001158162426105729, ,0.03567240515438461, ,1.1463907035042959e-05, ,1.75, ,0.721603114174309, ,0.6342319544499092, ,0.041999142874635215
209, ,PASS, ,0.01022760000000001, ,0.0010196836224429142, ,0.035159819694904185, ,1.0794820647045638e-05, ,1.5833333333333333, ,0.616363122105107, ,0.630374890308361, ,0.049733678904512156
210, ,PASS, ,0.00932541, ,0.0011429691776708706, ,0.03591251610803861, ,1.1057785197941678e-05, ,1.75, ,0.7168330641314123, ,0.6342727699434706, ,0.052325462745658254
211, ,PASS, ,0.00929140999999999, ,0.001088553038415495, ,0.03569024874859697, ,1.050627791303299e-05, ,1.6666666666666667, ,0.701211591403988, ,0.6280075916818024, ,0.042937899226546394
212, ,PASS, ,0.010039059999999978, ,0.00111419010413691, ,0.03590783111528336, ,1.1611345497693285e-05, ,1.75, ,0.6148356252579075, ,0.6273953592783821, ,0.007795759270218975
213, ,PASS, ,0.008994029999999986, ,0.0010744981392398216, ,0.03573783845880696, ,1.0049383979207171e-05, ,1.8333333333333333, ,0.704485482006834, ,0.6381910573253607, ,0.05622334238076774
214, ,PASS, ,0.00877031999999998, ,0.001158901780301328, ,0.035496311683435026, ,1.0477569390901033e-05, ,1.8333333333333333, ,0.7545416297808358, ,0.6249668374114814, ,0.0770800595906206
215, ,PASS, ,0.010368740000000005, ,0.0011064486181836884, ,0.0358654634236036, ,1.1905585889305098e-05, ,1.6666666666666667, ,0.6191502640699228, ,0.640639986939042, ,0.009489602253015244
216, ,PASS, ,0.010731319999999999, ,0.0010897378547837864, ,0.03545391949715312, ,1.2164094409693986e-05, ,1.75, ,0.6877800141186711, ,0.6331503438705333, ,0.0256321299565315
217, ,PASS, ,0.008438569999999989, ,0.0009789528490797288, ,0.035618101277116794, ,8.588786333888058e-06, ,1.5833333333333333, ,0.6803393947027864, ,0.6330891206301912, ,0.0672639333891145
218, ,PASS, ,0.00947617999999998, ,0.0011357450813493319, ,0.035696890728148405, ,1.1170112316242388e-05, ,1.75, ,0.7040150032820193, ,0.637027815758862, ,0.03079528989204302
219, ,PASS, ,0.009450380000000001, ,0.0011328942210921938, ,0.03562648061794657, ,1.1059663904786377e-05, ,1.75, ,0.6980843036087441, ,0.6240688965531316, ,0.036305381522826065
220, ,PASS, ,0.00969513, ,0.0010900302037237836, ,0.03547843381808534, ,1.098239891340132e-05, ,1.6666666666666667, ,0.6803937566830022, ,0.633987061488541, ,0.0311830370808759
221, ,PASS, ,0.009285679999999994, ,0.0010940425110360656, ,0.03569543083488092, ,1.0552810527102185e-05, ,1.9166666666666667, ,0.686671117302766, ,0.6273137282912593, ,0.012938511458949817
222, ,PASS, ,0.009556279999999983, ,0.0011635812975193931, ,0.03572405695740903, ,1.1481875565503162e-05, ,1.8333333333333333, ,0.7062824769266277, ,0.6223546458235546, ,0.03657068223097488
223, ,PASS, ,0.009686380000000001, ,0.0011326334980523809, ,0.03566778131385073, ,1.140497012957143e-05, ,1.75, ,0.6799915747879915, ,0.6343952164241546, ,0.04030529989183894
224, ,PASS, ,0.01019924999999999, ,0.0011165604201343686, ,0.036001037991061406, ,1.1844554386712234e-05, ,1.6666666666666667, ,0.5619384827111588, ,0.6234158486561499, ,0.04110120201628538
225, ,PASS, ,0.009409110000000005, ,0.0011544315629617942, ,0.03546078036264566, ,1.1286769333475206e-05, ,1.75, ,0.701445375619491, ,0.6343339931838126, ,0.030713658904920307
226, ,PASS, ,0.010401559999999994, ,0.001280605547374279, ,0.03619019498091876, ,1.3770327634392061e-05, ,1.8333333333333333, ,0.7258804504894358, ,0.6349462255872329, ,0.038284932960551826
227, ,PASS, ,0.01148024000000001, ,0.0011630505685671715, ,0.035809022685047244, ,1.3916543261264127e-05, ,1.75, ,0.56667640341336, ,0.6300891818534315, ,0.014387461480377952
228, ,PASS, ,0.010124609999999996, ,0.0011509404423998763, ,0.03561587735270708, ,1.2094492909168913e-05, ,1.75, ,0.670790547439552, ,0.6343135854370319, ,0.01289769596538846
229, ,PASS, ,0.009399739999999993, ,0.0012343927825258154, ,0.03531480639599192, ,1.2062032710904068e-05, ,1.8333333333333333, ,0.6897263102572989, ,0.6308646762310973, ,0.01699965306830473
230, ,PASS, ,0.013633320000000008, ,0.002076998885534206, ,0.03631859847737801, ,2.900879717224899e-05, ,1.9166666666666667, ,0.789641083331843, ,0.6216403746862309, ,0.052264239505316216
231, ,PASS, ,0.035637090000000024, ,0.005119619305688393, ,0.03911015511744659, ,0.0001862440520345592, ,1.8333333333333333, ,0.8033771348688055, ,0.6208240648150037, ,0.08483500336727821
232, ,PASS, ,0.019211540000000023, ,0.0028215182295080214, ,0.03677591423991348, ,5.5741016087525864e-05, ,1.8333333333333333, ,0.7786696198236123, ,0.6203955021326095, ,0.025101528540233873
