Channel, ,Pass/Fail, ,Amplitude, ,Sorting Function Response, ,Mean, ,Variance, ,NPeaksRatio, ,PosIntegralRatio, ,ToT50, ,ToT99
0, ,PASS, ,0.06880190300000004, ,0.004385578611502522, ,0.027684248723087286, ,0.0003120342492036115, ,1.0, ,0.4674639341616221, ,0.4070529172874023, ,0.027366788432889123
1, ,PASS, ,0.06823439700000004, ,0.004307099246612177, ,0.029284933475439277, ,0.00030094846489751154, ,1.0833333333333333, ,0.4760860467042944, ,0.43997061284463584, ,0.028611660986510478
2, ,PASS, ,0.06793931600000003, ,0.004282960657885025, ,0.027708183707679433, ,0.0003033688090460356, ,0.9166666666666666, ,0.4634306585888219, ,0.41062427297402093, ,0.02950960184486031
3, ,PASS, ,0.06736634600000002, ,0.004411677648050754, ,0.02766095439154303, ,0.00030924435234321924, ,1.0833333333333333, ,0.46615387576041406, ,0.4102161180384074, ,0.02928511663027285
4, ,PASS, ,0.06656508600000001, ,0.004287480654805118, ,0.027800266284361545, ,0.0002964556306556051, ,1.0, ,0.4682847652764692, ,0.410175302544846, ,0.02989734903369319
5, ,PASS, ,0.066110099, ,0.00422060150820494, ,0.02759139291667517, ,0.00028917472417804084, ,1.0, ,0.47007642374365916, ,0.4047468419011857, ,0.02867288422685251
6, ,PASS, ,0.066005032, ,0.004286028775273297, ,0.027861396851492828, ,0.00029485908098377445, ,1.0833333333333333, ,0.46829468485471065, ,0.40991000183669724, ,0.02789738984918675
7, ,PASS, ,0.065507282, ,0.004223814388125256, ,0.027749283506867204, ,0.00028824530953687, ,1.0833333333333333, ,0.47463191351554584, ,0.4087875757637599, ,0.029958572274035224
8, ,PASS, ,0.065077834, ,0.004606835974782978, ,0.02692305294340932, ,0.00031052941417905307, ,1.0833333333333333, ,0.47120630097403365, ,0.4101344870512847, ,0.030223872982184038
9, ,PASS, ,0.064993166, ,0.004235235072447314, ,0.027906894450725497, ,0.0002859089817211504, ,1.0833333333333333, ,0.4744710674520477, ,0.41074671945470503, ,0.029040223668904717
10, ,PASS, ,0.06467179299999999, ,0.0042185327948533365, ,0.02770190483724822, ,0.0002841231217727919, ,1.0, ,0.47852001882425993, ,0.4104814187465562, ,0.03089732862594641
11, ,PASS, ,0.064038918, ,0.004193769291916985, ,0.027694423061366092, ,0.00027972466299559497, ,1.0, ,0.4810208117011867, ,0.41044060325299486, ,0.030244280728964713
12, ,PASS, ,0.06356466449999999, ,0.004229169266626377, ,0.028002701547111285, ,0.0002795526719409226, ,1.0833333333333333, ,0.4812096915508812, ,0.41493030754474397, ,0.029958572274035224
13, ,PASS, ,0.06296130400000001, ,0.0041792189775236915, ,0.027666242967286384, ,0.0002731723667229916, ,1.0833333333333333, ,0.48535775442722784, ,0.4079916736393135, ,0.0309993673598498
14, ,PASS, ,0.063046239, ,0.0041583441494579855, ,0.02778076463419114, ,0.0002726899616495696, ,1.0833333333333333, ,0.4821097338203449, ,0.4098079631027938, ,0.029652456072325056
15, ,PASS, ,0.06328516900000002, ,0.004262006489015539, ,0.027681088066161916, ,0.0002804460181373487, ,1.0833333333333333, ,0.4913720827094165, ,0.4062978306565172, ,0.031407522295463355
16, ,PASS, ,0.06285759969999999, ,0.0043274026923429305, ,0.027918026295789884, ,0.00028314313603637294, ,1.25, ,0.4934961434949355, ,0.40995081733025857, ,0.030427950449990818
17, ,PASS, ,0.06198488150000002, ,0.004126644111287153, ,0.027895986503540745, ,0.0002669905690450181, ,1.25, ,0.4836137785888418, ,0.4163996653129528, ,0.03185649272463827
18, ,PASS, ,0.06124359702000001, ,0.004075075767364385, ,0.027826066237015574, ,0.00026032282879695696, ,1.0833333333333333, ,0.48802995816466616, ,0.4100120405706006, ,0.031223852574437258
19, ,PASS, ,0.06139603200000002, ,0.004145911175124843, ,0.027846783367482298, ,0.00026478651209363625, ,1.1666666666666667, ,0.4904940134457314, ,0.41033856451909145, ,0.030734066651700986
20, ,PASS, ,0.06171634200000001, ,0.004192701411769028, ,0.027806482121793437, ,0.0002685561190667797, ,1.25, ,0.4903383070831245, ,0.4109916124160731, ,0.030366727209648784
21, ,PASS, ,0.06157858490000001, ,0.004185454200938203, ,0.02768494234546234, ,0.0002678838313874128, ,1.25, ,0.4931708632335331, ,0.4100732638109426, ,0.03157078426970878
22, ,PASS, ,0.06128115380000001, ,0.004154456837341706, ,0.027696121668741455, ,0.000264817730458771, ,1.25, ,0.49890987464547987, ,0.40442031795269484, ,0.030836105385604374
23, ,PASS, ,0.061885635500000015, ,0.004309752932604995, ,0.028254823669108795, ,0.0002734397580695245, ,1.25, ,0.5037061270676613, ,0.42070569988367584, ,0.031121813840533866
24, ,PASS, ,0.06174357530000001, ,0.004270088110710713, ,0.027842136203750947, ,0.0002745319720041072, ,1.25, ,0.49989081721967094, ,0.410052856064162, ,0.032958511050794885
25, ,PASS, ,0.06039314912000002, ,0.004085298838297233, ,0.02767323182384033, ,0.00025684079230022064, ,1.25, ,0.495088989279029, ,0.407073325034183, ,0.03061162017101692
26, ,PASS, ,0.0598584556, ,0.004127070266606617, ,0.028161218703087694, ,0.0002577413288247404, ,1.1666666666666667, ,0.5004162540323882, ,0.4174200526519867, ,0.031366706801902004
27, ,PASS, ,0.05964488630000001, ,0.00402608336819543, ,0.027874116167425158, ,0.00024955512667186147, ,1.25, ,0.49045851903908455, ,0.4133385032958511, ,0.030509581437113527
28, ,PASS, ,0.05970686536000002, ,0.004039471189858305, ,0.028143705066631296, ,0.0002511721602320024, ,1.1666666666666667, ,0.4951639997975234, ,0.4104814187465562, ,0.030468765943552172
29, ,PASS, ,0.05912351343999998, ,0.003950931155625647, ,0.028000732372400562, ,0.00024305958200728973, ,1.0833333333333333, ,0.4930200364752557, ,0.402889736944144, ,0.030734066651700986
30, ,PASS, ,0.058664462559999984, ,0.003900466989828774, ,0.028132272143221566, ,0.00023986355322638283, ,1.25, ,0.47893676824622095, ,0.42644027672904633, ,0.029264708883492172
31, ,PASS, ,0.058953604820000005, ,0.004009320774694621, ,0.027767077373727064, ,0.00024551261215514225, ,1.25, ,0.4915517052495666, ,0.4084610518152691, ,0.030529989183894206
32, ,PASS, ,0.058605101799999976, ,0.00391515766262675, ,0.02789031559009, ,0.00023837833531568256, ,1.1666666666666667, ,0.4899110043298805, ,0.404093794004204, ,0.02873410746719455
33, ,PASS, ,0.05853094189999999, ,0.003910930139160842, ,0.027927037644741942, ,0.0002377476328111886, ,1.0833333333333333, ,0.48060701622915886, ,0.4093589926736189, ,0.029366747617395564
34, ,PASS, ,0.05867589477999998, ,0.003953873419505184, ,0.027734321783228915, ,0.0002410490332634582, ,1.25, ,0.49773502391047386, ,0.40195098059223283, ,0.030427950449990818
35, ,PASS, ,0.058706101919999996, ,0.0039619269378954915, ,0.028157357220056734, ,0.00024195102792513198, ,1.1666666666666667, ,0.48510364247931625, ,0.42105263157894735, ,0.030713658904920307
36, ,PASS, ,0.0591119856, ,0.004104127415934124, ,0.02787048315197649, ,0.0002520595598708404, ,1.3333333333333333, ,0.5029732469793559, ,0.40942021591396094, ,0.02948919409807963
37, ,PASS, ,0.05917235246000001, ,0.004138919093301974, ,0.027855731110997733, ,0.0002541179299317968, ,1.3333333333333333, ,0.5056407983465545, ,0.41015489479806533, ,0.03250954062161997
38, ,PASS, ,0.05908109499999999, ,0.00410220096471157, ,0.027800644675414786, ,0.00025282671719042326, ,1.4166666666666667, ,0.5006531761947511, ,0.4104610109997755, ,0.030917736372727087
39, ,PASS, ,0.058568995080000005, ,0.004186862273362708, ,0.02767589688516561, ,0.000255052577582444, ,1.4166666666666667, ,0.5034248778113032, ,0.41042019550621417, ,0.031142221587314545
40, ,PASS, ,0.05868615197999999, ,0.00403074546278675, ,0.027400019082467704, ,0.0002467458391703382, ,1.4166666666666667, ,0.49960739296106904, ,0.4125017856778433, ,0.0309993673598498
41, ,PASS, ,0.05836870673999999, ,0.00409853947837411, ,0.028285276023958698, ,0.00024662690060664336, ,1.25, ,0.48139680743708363, ,0.44866431297320464, ,0.030142241995061325
42, ,PASS, ,0.05822623581999998, ,0.003997054292301092, ,0.027373804211138546, ,0.00024082558531838888, ,1.1666666666666667, ,0.5054311855626848, ,0.3997265361931389, ,0.03048917369033285
43, ,PASS, ,0.058312834179999995, ,0.004036703729232199, ,0.02758101593722577, ,0.000244682984863675, ,1.25, ,0.5014974139001912, ,0.41042019550621417, ,0.03197893920532234
44, ,PASS, ,0.057694319439999996, ,0.0039415865115226285, ,0.027522435531519767, ,0.0002369295568990306, ,1.3333333333333333, ,0.49881960184254837, ,0.41033856451909145, ,0.028468806759045735
45, ,PASS, ,0.05839752289999999, ,0.004027383760725189, ,0.02756088054753985, ,0.00024577542193867486, ,1.3333333333333333, ,0.4995808113991319, ,0.41495071529152466, ,0.03057080467745556
46, ,PASS, ,0.058155774239999986, ,0.00402862320169064, ,0.027501412486888022, ,0.0002445134195329782, ,1.4166666666666667, ,0.5026542202140492, ,0.4121752617293525, ,0.032244239913471154
47, ,PASS, ,0.05848703425999998, ,0.004104808016035324, ,0.02716949110712026, ,0.00024730556025880253, ,1.25, ,0.5103072194210444, ,0.3997061284463582, ,0.031101406093753187
48, ,PASS, ,0.05844322715999998, ,0.004075989490020505, ,0.027517267843717476, ,0.0002472051167623547, ,1.25, ,0.5092381576304992, ,0.40360400808146774, ,0.03287688006367217
49, ,PASS, ,0.05838644771999999, ,0.004187639851159926, ,0.02790051336789045, ,0.0002558381902264218, ,1.3333333333333333, ,0.5175043599149148, ,0.4262770147548009, ,0.03226464766025183
50, ,PASS, ,0.057894499899999986, ,0.0040703141401941, ,0.027406375808044735, ,0.0002449994996099564, ,1.3333333333333333, ,0.5081362915012951, ,0.4104814187465562, ,0.02930552437705353
51, ,PASS, ,0.05769962999999998, ,0.004236637848553509, ,0.028601728490030818, ,0.00024918088177274043, ,1.3333333333333333, ,0.5048195708971999, ,0.4492561376298443, ,0.03159119201648946
52, ,PASS, ,0.05731772303999999, ,0.003966066471633556, ,0.027638444421950573, ,0.00023741613212566623, ,1.3333333333333333, ,0.49419949472193186, ,0.4222975041325687, ,0.03167282300361217
53, ,PASS, ,0.05696675169999999, ,0.003908596945630295, ,0.027504040294891945, ,0.0002317577070824797, ,1.25, ,0.500575480248009, ,0.4105630497336789, ,0.029468786351298952
54, ,PASS, ,0.05680139096, ,0.0038896558660123574, ,0.027624414550315304, ,0.0002309442814297402, ,1.4166666666666667, ,0.49869823222892606, ,0.4127874941327728, ,0.028611660986510478
55, ,PASS, ,0.057038598899999994, ,0.003906393071357608, ,0.027761336315177243, ,0.00023189181463995585, ,1.25, ,0.4968597191016797, ,0.4132568723087284, ,0.02912185465602743
56, ,PASS, ,0.06122108190000002, ,0.004191344065779057, ,0.027621654589498175, ,0.00026640908492556403, ,1.25, ,0.49654982662090036, ,0.41033856451909145, ,0.03185649272463827
57, ,PASS, ,0.16010255, ,0.014896823976225002, ,0.02239357532792678, ,0.002455719626157041, ,1.8333333333333333, ,0.6090448222752738, ,0.41015489479806533, ,0.03526458643701149
58, ,PASS, ,0.065202242, ,0.004446199104967559, ,0.027250090107140672, ,0.00030150444794750815, ,1.25, ,0.4967082983993949, ,0.40607334544192975, ,0.029162670149588784
59, ,PASS, ,0.057499285920000004, ,0.003700953458378579, ,0.027649983906654966, ,0.00022140963726103482, ,1.0833333333333333, ,0.4765869123095814, ,0.4042570559784494, ,0.029346339870614885
60, ,PASS, ,0.05725831796, ,0.003697634541788568, ,0.027794705449276546, ,0.00022110215628741295, ,1.0, ,0.472434120036046, ,0.4155833554417257, ,0.02661170180200404
61, ,PASS, ,0.05714100112, ,0.003706629551146893, ,0.02760110116854758, ,0.00022065278486192575, ,1.0, ,0.47688447495204583, ,0.41209363074222977, ,0.027774943368502683
62, ,PASS, ,0.05665107524, ,0.0036878224736439894, ,0.027601598671251608, ,0.00021800334151912356, ,1.0, ,0.479618073218413, ,0.41029774902553007, ,0.02971367931266709
63, ,PASS, ,0.05693974518, ,0.0037061447458759575, ,0.027622847626783128, ,0.00021990002076228377, ,1.0, ,0.47961313097180963, ,0.41029774902553007, ,0.02722393420542438
64, ,PASS, ,0.05676979028, ,0.003694395673022637, ,0.027629775607844735, ,0.0002182272375099011, ,1.0833333333333333, ,0.4791765190723524, ,0.40656313136466604, ,0.02832595253158099
65, ,PASS, ,0.05717277155999999, ,0.0037397486383982733, ,0.027817931229158585, ,0.00022288312929797847, ,1.0833333333333333, ,0.4781634005195092, ,0.40948143915430296, ,0.02848921450582641
66, ,PASS, ,0.05647701937999999, ,0.003601092911011296, ,0.02788595251117324, ,0.0002124277913817683, ,1.0833333333333333, ,0.4785345797965107, ,0.41042019550621417, ,0.02920348564315014
67, ,PASS, ,0.05661117618000001, ,0.003669958789635397, ,0.02774151795453154, ,0.00021740312746604254, ,1.1666666666666667, ,0.4750375275530269, ,0.4151139772657701, ,0.02808105957021285
68, ,PASS, ,0.056451663980000004, ,0.0036925190275123245, ,0.027697022634231953, ,0.00021689611751547362, ,1.0833333333333333, ,0.479244849797648, ,0.40995081733025857, ,0.028060651823432176
69, ,PASS, ,0.0567621419, ,0.0036847595421608806, ,0.027862230633456463, ,0.00021889799639383177, ,1.1666666666666667, ,0.4789479444942334, ,0.4102161180384074, ,0.028468806759045735
70, ,PASS, ,0.056689962999999996, ,0.003753853941346203, ,0.027711019129201448, ,0.00022162750562364558, ,1.1666666666666667, ,0.4803596569489387, ,0.413787473725026, ,0.02730556519254709
71, ,PASS, ,0.05676361086000001, ,0.0037694483622832614, ,0.027658015745801106, ,0.00022324374019169326, ,1.1666666666666667, ,0.4900195986346241, ,0.4087263525234179, ,0.029468786351298952
72, ,PASS, ,0.05776898664, ,0.0038546287067370345, ,0.0276707616103753, ,0.00023126561786346352, ,1.25, ,0.492775471624872, ,0.41035897226587215, ,0.030040203261157937
73, ,PASS, ,0.05749883749999999, ,0.0038446351730247047, ,0.027779049189812454, ,0.00023189644879662973, ,1.25, ,0.4911960029194203, ,0.4181547315360911, ,0.028244321544458276
74, ,PASS, ,0.05672291073999999, ,0.0038034267871931795, ,0.027614993219934287, ,0.00022397042805231775, ,1.25, ,0.4951473810041654, ,0.40209383481969757, ,0.02781575886206404
75, ,PASS, ,0.05645142142, ,0.003791303216979829, ,0.027688159567559847, ,0.00022288687871343038, ,1.1666666666666667, ,0.4958960133513692, ,0.4071141405277443, ,0.029672863819105732
76, ,PASS, ,0.05658202296000001, ,0.00360801548288143, ,0.02801763994449093, ,0.0002132248956138827, ,1.0833333333333333, ,0.48276770238778066, ,0.41229770821003653, ,0.027570865900695903
77, ,PASS, ,0.05673216324000001, ,0.003723391907385271, ,0.027728298255545805, ,0.00021997221161675334, ,1.1666666666666667, ,0.4870202888384928, ,0.40527744331748333, ,0.028223913797677597
78, ,PASS, ,0.056635187899999995, ,0.003715926460622294, ,0.027757290094487866, ,0.00021956391989028708, ,1.0833333333333333, ,0.4853073658401934, ,0.4100324483173813, ,0.02673414828268811
79, ,PASS, ,0.05719734266, ,0.0039117672987462986, ,0.027459906081916695, ,0.00023240447290982522, ,1.25, ,0.4989876932057341, ,0.40774678067794534, ,0.02828513703801963
80, ,PASS, ,0.0570994681, ,0.0037944777131873695, ,0.027796337269239402, ,0.0002263578640608444, ,1.25, ,0.4873031610632198, ,0.41272627089243075, ,0.030060611007938613
81, ,PASS, ,0.057188682059999975, ,0.0038280236588927085, ,0.02766813500561213, ,0.00022895005087364493, ,1.1666666666666667, ,0.4837570365764154, ,0.4151752005061121, ,0.028387175771923023
82, ,PASS, ,0.056811283860000006, ,0.003821969160891287, ,0.027582309153486664, ,0.00022608129712952635, ,1.1666666666666667, ,0.48989285451150305, ,0.4113997673516867, ,0.02891777718822065
83, ,PASS, ,0.056686920919999995, ,0.0038192991365534534, ,0.027546218269831228, ,0.00022498536261327307, ,1.25, ,0.4889990576778426, ,0.41025693353196874, ,0.027999428583090142
84, ,PASS, ,0.056560998000000015, ,0.0037674492280417205, ,0.02745972810371217, ,0.00022199152063858923, ,1.1666666666666667, ,0.4903351683235754, ,0.4106650884675823, ,0.027774943368502683
85, ,PASS, ,0.056015989320000015, ,0.0037202553636694826, ,0.02738522363257893, ,0.00021639579036623413, ,1.1666666666666667, ,0.48678103322602145, ,0.4080733046264362, ,0.028448399012265056
86, ,PASS, ,0.05565209622, ,0.00363205604656852, ,0.027850905401114262, ,0.00021220794268896902, ,1.1666666666666667, ,0.474095545257371, ,0.4256647823513806, ,0.02889736944143997
87, ,PASS, ,0.05722049213999999, ,0.003934708345365524, ,0.027503891587110467, ,0.00023385801772686073, ,1.3333333333333333, ,0.4995039452274157, ,0.41015489479806533, ,0.030142241995061325
88, ,PASS, ,0.056007606540000004, ,0.003703887417946948, ,0.027693176707210054, ,0.00021561188281716553, ,1.0833333333333333, ,0.4845435842401904, ,0.410175302544846, ,0.02950960184486031
89, ,PASS, ,0.05589995796000001, ,0.003657502315995805, ,0.027589330472439336, ,0.00021266954648322786, ,1.0833333333333333, ,0.48276179981382455, ,0.4067876165792535, ,0.02791779759596743
90, ,PASS, ,0.05580725632000001, ,0.003812351608167464, ,0.028204306248035757, ,0.00022183559073934948, ,1.25, ,0.49275879568590464, ,0.43495030713658905, ,0.028652476480071836
91, ,PASS, ,0.05543592172, ,0.0036262885553326966, ,0.027394432318932266, ,0.0002092338953057581, ,1.1666666666666667, ,0.48448556523511593, ,0.4041958327381074, ,0.025101528540233873
92, ,PASS, ,0.055432898519999996, ,0.003686846429940016, ,0.027684210056937615, ,0.00021291352510390075, ,1.1666666666666667, ,0.49042849524236826, ,0.4068284320728148, ,0.02810146731699353
93, ,PASS, ,0.055599988080000017, ,0.0037200434461580594, ,0.027579133096059263, ,0.0002159026141889259, ,1.1666666666666667, ,0.48348341692850594, ,0.4102161180384074, ,0.028958592681782004
94, ,PASS, ,0.055460711180000004, ,0.00367476314886832, ,0.02762829127895349, ,0.00021275104827445394, ,1.1666666666666667, ,0.4859956860561321, ,0.4105426419868982, ,0.029040223668904717
95, ,PASS, ,0.0554818804, ,0.003687516325440945, ,0.02756140400297953, ,0.00021223965635833823, ,1.1666666666666667, ,0.4875922834495702, ,0.40986918634313585, ,0.027081079977959634
96, ,PASS, ,0.05575201768000001, ,0.0037218199622181727, ,0.02739427976612722, ,0.00021599964726786157, ,1.1666666666666667, ,0.4903480213326192, ,0.4103997877594335, ,0.026999448990836922
97, ,PASS, ,0.05582640506000001, ,0.003678389376154736, ,0.02790559624375013, ,0.0002145349035083132, ,1.25, ,0.4864026813629241, ,0.4188485949266342, ,0.02912185465602743
98, ,PASS, ,0.05614193898, ,0.0038358092388132365, ,0.027756672119140426, ,0.00022509873624642244, ,1.3333333333333333, ,0.4905891608208536, ,0.4259504908063101, ,0.03018305748862268
99, ,PASS, ,0.05595452814, ,0.003845736658209963, ,0.028078602696475583, ,0.00022426822993904674, ,1.25, ,0.47249676397587254, ,0.4580314687455358, ,0.029938164527254545
100, ,PASS, ,0.05569558823999999, ,0.0038417073316001807, ,0.027580961910981406, ,0.00022151886515037016, ,1.3333333333333333, ,0.49825037184283016, ,0.41027734127874943, ,0.029815718046570478
101, ,PASS, ,0.055496336420000014, ,0.0039985507944526495, ,0.027274535290912432, ,0.0002300339163818036, ,1.3333333333333333, ,0.5007037721044151, ,0.41027734127874943, ,0.030162649741842004
102, ,PASS, ,0.05571717396, ,0.0038180177195937964, ,0.027496975556825374, ,0.00022159660626826927, ,1.25, ,0.49851640902050165, ,0.41235893145037855, ,0.02989734903369319
103, ,PASS, ,0.055663215599999996, ,0.0038196053556073346, ,0.02756419715801718, ,0.00022182398488714198, ,1.25, ,0.5034614488425486, ,0.4104610109997755, ,0.031060590600191833
104, ,PASS, ,0.056111626219999995, ,0.0038585128532014706, ,0.02742893095998041, ,0.00022574277248519224, ,1.4166666666666667, ,0.49832919869341485, ,0.4126650476520887, ,0.03008101875471929
105, ,PASS, ,0.05644060654, ,0.003874931346819787, ,0.027445881879961637, ,0.0002277366449727498, ,1.25, ,0.49982274325573206, ,0.41035897226587215, ,0.02869329197363319
106, ,PASS, ,0.05535581758000001, ,0.0037737254121043215, ,0.027310691831187117, ,0.00021726767723809085, ,1.25, ,0.5035274805981347, ,0.40272647496989855, ,0.029917756780473866
107, ,PASS, ,0.054724152840000005, ,0.0037277957708466807, ,0.027717641447929636, ,0.00021271933304112917, ,1.25, ,0.497593541828045, ,0.41025693353196874, ,0.029611640578763698
108, ,PASS, ,0.04593983499999998, ,0.0024854165291808314, ,0.028240753394624597, ,0.00012015287741579045, ,0.8333333333333334, ,0.4066213742352572, ,0.41029774902553007, ,0.026550478561662007
