Channel, ,Pass/Fail, ,Amplitude, ,Sorting Function Response, ,Mean, ,Variance, ,NPeaksRatio, ,PosIntegralRatio, ,ToT50, ,ToT99
29, ,PASS, ,0.02686057999999999, ,0.004383863130978262, ,0.03811703643497071, ,0.00011870858458571152, ,1.9166666666666667, ,0.7730463605677218, ,0.4881941184873778, ,0.08152894838880839
30, ,PASS, ,0.063312937, ,0.009755664703050336, ,0.03505662710520194, ,0.0006227228921314784, ,1.75, ,0.687573342202349, ,0.45715393563396667, ,0.10699781637109447
31, ,PASS, ,0.08260102500000001, ,0.010568733228972097, ,0.03276455264182364, ,0.0008833458367215425, ,1.6666666666666667, ,0.6038043912585936, ,0.4354809085528867, ,0.04930511622211792
32, ,PASS, ,0.069922496, ,0.009481301168864064, ,0.03390958273549519, ,0.0006698615131571825, ,1.75, ,0.6273979631167433, ,0.44170527132099346, ,0.06373339319605723
33, ,PASS, ,0.03765653, ,0.006001581460862121, ,0.03652869335727842, ,0.0002274093498787513, ,1.8333333333333333, ,0.7097557953016875, ,0.4640313462990551, ,0.09130425909675313
34, ,PASS, ,0.03412391, ,0.005778163352314839, ,0.037308316403542784, ,0.00019855625662979908, ,1.9166666666666667, ,0.7538203763550609, ,0.4768678190241015, ,0.096508234525826
35, ,PASS, ,0.07522833065999998, ,0.01029975089700712, ,0.03387760532136079, ,0.0007828816413209945, ,1.75, ,0.6313181527511716, ,0.44658272280157546, ,0.05377441276708639
36, ,PASS, ,0.091308402, ,0.01067389382925323, ,0.03202315155407441, ,0.0009882945760425563, ,1.5833333333333333, ,0.5708977589740405, ,0.4276851492826677, ,0.026774963776249463
37, ,PASS, ,0.07877439669999997, ,0.00978962308938581, ,0.033036832378277994, ,0.0007806967024888249, ,1.6666666666666667, ,0.5940872409689105, ,0.4347054141752209, ,0.03575437235974776
38, ,PASS, ,0.04330893000000002, ,0.006670555974641217, ,0.036024373346462316, ,0.0002910573432121919, ,1.75, ,0.6876287619003439, ,0.45782739127772903, ,0.09930409583477888
39, ,PASS, ,0.03791866000000001, ,0.006402121708122621, ,0.03727898367563927, ,0.0002445081868671965, ,1.9166666666666667, ,0.7610144681133054, ,0.4790310401828534, ,0.07926368849615315
40, ,PASS, ,0.07441051294, ,0.010279808859550337, ,0.033678225831615685, ,0.0007726644271423778, ,1.75, ,0.636063255431646, ,0.4467868002693823, ,0.059651843839921635
41, ,PASS, ,0.08924277800000002, ,0.010403926988387813, ,0.03179671742368523, ,0.0009416327439160808, ,1.5833333333333333, ,0.5698120546200272, ,0.4271545478663701, ,0.02771372012816065
42, ,PASS, ,0.07584049790000001, ,0.009585488041183612, ,0.033009826286830884, ,0.000735695560293753, ,1.6666666666666667, ,0.6002510742631639, ,0.43576661700781616, ,0.039591028754515215
43, ,PASS, ,0.03792084999999999, ,0.005958963564634488, ,0.0362569164341544, ,0.0002276962291851591, ,1.75, ,0.7026715670371052, ,0.4633987061488541, ,0.09495724577049448
44, ,PASS, ,0.037766629999999995, ,0.006396064980843386, ,0.03723412143833799, ,0.00024345611107654956, ,1.9166666666666667, ,0.7656535705829858, ,0.4810718148609212, ,0.07989632864635415
45, ,PASS, ,0.07323054870000001, ,0.010325351705449699, ,0.03375036632458522, ,0.0007636035728464012, ,1.75, ,0.6448274627961578, ,0.44872553621354666, ,0.06648843901144874
46, ,PASS, ,0.08916239400000003, ,0.010397601867132752, ,0.031973143581437116, ,0.0009402165261984881, ,1.5833333333333333, ,0.5705046827257457, ,0.42741984857451887, ,0.02793820534274811
47, ,PASS, ,0.07428701075999998, ,0.009502736576041495, ,0.033070941908042696, ,0.0007141437734740605, ,1.6666666666666667, ,0.6044125590349708, ,0.4369502663210955, ,0.042039958368196566
48, ,PASS, ,0.03090838000000001, ,0.004975169869586668, ,0.03665703786983939, ,0.0001548948648588914, ,1.8333333333333333, ,0.7175779147332843, ,0.4689496132731985, ,0.10122242403216261
49, ,PASS, ,0.039848809999999985, ,0.0067147695490402505, ,0.03681804798963286, ,0.00026958359169277225, ,1.9166666666666667, ,0.7500762892661907, ,0.4769902655047856, ,0.08554927450460195
50, ,PASS, ,0.08127977169999998, ,0.010768048639752538, ,0.033190039616681294, ,0.0008848633501145081, ,1.75, ,0.6193564522424083, ,0.44409297769433276, ,0.04457051896900063
51, ,PASS, ,0.09595736800000002, ,0.010722170675475729, ,0.031131832756044572, ,0.0010445593158267675, ,1.5, ,0.5558658013935932, ,0.4238484928879003, ,0.023468908797779638
52, ,PASS, ,0.08372458000000002, ,0.009898790644012233, ,0.03208903815852738, ,0.0008401200619444777, ,1.6666666666666667, ,0.5765666166718472, ,0.4304401950980592, ,0.027489234913573194
53, ,PASS, ,0.04395624000000001, ,0.006491038682624789, ,0.03572709007489643, ,0.0002878949340801199, ,1.75, ,0.6653516841164364, ,0.45490908348809206, ,0.09389604293789923
54, ,PASS, ,0.03559511999999997, ,0.006030736252532636, ,0.03699637901634661, ,0.000216296106844216, ,1.9166666666666667, ,0.7589593859926027, ,0.4806024366849656, ,0.07914124201546907
55, ,PASS, ,0.07802892696000001, ,0.010583840030789857, ,0.03332172029383074, ,0.0008345191402972505, ,1.75, ,0.6282451454009425, ,0.4452766270076121, ,0.04791738944103181
56, ,PASS, ,0.09352648300000002, ,0.010488827462097266, ,0.03135841609003898, ,0.000995903551013034, ,1.5, ,0.5571396614741684, ,0.42401175486214565, ,0.02385665598661252
57, ,PASS, ,0.08122342819999998, ,0.009675694712630143, ,0.03249792964127263, ,0.0007964868584585647, ,1.6666666666666667, ,0.5781609524374615, ,0.43029734087059446, ,0.03018305748862268
58, ,PASS, ,0.039518389999999994, ,0.005957458492980678, ,0.03589314542295055, ,0.00023741949774334632, ,1.75, ,0.6782103906517706, ,0.4586028856553948, ,0.09730413665027245
59, ,PASS, ,0.03338985, ,0.005691944879917757, ,0.037274072201791804, ,0.0001917496656895199, ,1.9166666666666667, ,0.7702423149073166, ,0.48399012265055813, ,0.0752229546335789
60, ,PASS, ,0.0771981274, ,0.010558089143431823, ,0.03329714159988572, ,0.0008236528444840349, ,1.75, ,0.6320999532367988, ,0.4467868002693823, ,0.0504275422950552
61, ,PASS, ,0.09361526400000003, ,0.01048843601195648, ,0.03143319373716659, ,0.0009968097038322834, ,1.5, ,0.5565392281719845, ,0.42366482316687415, ,0.023019938368604723
62, ,PASS, ,0.08028636229999997, ,0.009622105930832832, ,0.0325230370163466, ,0.0007828198140829266, ,1.6666666666666667, ,0.5806155168792565, ,0.4313789514499704, ,0.029611640578763698
63, ,PASS, ,0.03698806999999997, ,0.005837128076119387, ,0.036130064251341805, ,0.00021763258495916405, ,1.75, ,0.7001985236433189, ,0.464419093487888, ,0.11595681720781209
64, ,PASS, ,0.04764526000000001, ,0.00793942011826954, ,0.03622241882777903, ,0.00038161551028042243, ,1.9166666666666667, ,0.734830717462816, ,0.4735821717924124, ,0.12756882512601783
65, ,PASS, ,0.08982442200000004, ,0.011197720401244804, ,0.032401135066650065, ,0.0010183851970192045, ,1.75, ,0.5957337622253736, ,0.43952164241546093, ,0.03289728781045285
66, ,PASS, ,0.10026423000000002, ,0.010911971863105921, ,0.030864245701609765, ,0.0011116428602147373, ,1.5833333333333333, ,0.5471408118118238, ,0.42117507805963145, ,0.021264872145466417
67, ,PASS, ,0.086864305, ,0.010131001726963549, ,0.03200265291159364, ,0.0008922616698582319, ,1.5833333333333333, ,0.5705440660867239, ,0.4286034978877982, ,0.02540764474194404
68, ,PASS, ,0.040528930000000005, ,0.006129560231989439, ,0.03577091391094059, ,0.00025065843039377353, ,1.75, ,0.6763072811654208, ,0.460113058917165, ,0.10379380012652803
69, ,PASS, ,0.042861040000000045, ,0.007273957888972437, ,0.036564033697475566, ,0.00031469754599958215, ,1.9166666666666667, ,0.7479514409149385, ,0.4781126915777229, ,0.11003857064141548
70, ,PASS, ,0.087469009, ,0.01104880652190906, ,0.032503732829252875, ,0.0009780859326651982, ,1.75, ,0.6005655650546969, ,0.44003183608497787, ,0.034203383604416236
71, ,PASS, ,0.09787453499999998, ,0.01070241237529089, ,0.030943247086103548, ,0.0010642818192012217, ,1.5833333333333333, ,0.5486633274206109, ,0.4205832534029918, ,0.02055060100814269
72, ,PASS, ,0.08364222300000002, ,0.00992169812030285, ,0.032203134999204096, ,0.0008411635773055181, ,1.6666666666666667, ,0.5766202410930736, ,0.4301544866431297, ,0.028652476480071836
73, ,PASS, ,0.036482909999999966, ,0.005749764527092205, ,0.036327380454480515, ,0.00021147430568057397, ,1.8333333333333333, ,0.7008774192218322, ,0.46574559702863205, ,0.10681414665006837
74, ,PASS, ,0.03752350999999998, ,0.0064994985837676395, ,0.03684507133425848, ,0.0002470539380763908, ,1.9166666666666667, ,0.760461605880329, ,0.48715332340156325, ,0.11571192424644396
75, ,PASS, ,0.08628146999999999, ,0.0109439090112544, ,0.03268775374208118, ,0.0009556284875241421, ,1.75, ,0.6010668915940431, ,0.44195016428236156, ,0.03526458643701149
76, ,PASS, ,0.09760317400000001, ,0.010631844758236884, ,0.031016389071665887, ,0.0010543971493164773, ,1.5833333333333333, ,0.5475784477127179, ,0.42033836044162365, ,0.021019979184098283
77, ,PASS, ,0.08252634900000001, ,0.009867775594828574, ,0.0324099637526377, ,0.0008253068444104621, ,1.6666666666666667, ,0.5792046038198844, ,0.43105242750147954, ,0.02928511663027285
78, ,PASS, ,0.03639828999999997, ,0.005934849764540609, ,0.03641386265647639, ,0.00021769577689062047, ,1.9166666666666667, ,0.7234289720345918, ,0.47115364992551173, ,0.10275300504071345
79, ,PASS, ,0.07496951509999998, ,0.012222156022018284, ,0.03872651079488174, ,0.0009458792952828517, ,1.8333333333333333, ,0.8294580101257655, ,0.4997040876716802, ,0.0595906205995796
80, ,PASS, ,0.10210578999999997, ,0.013618569219889465, ,0.032093873687047206, ,0.0014064790187558874, ,1.75, ,0.6239770432159479, ,0.44911328340237955, ,0.03657068223097488
81, ,PASS, ,0.10573120999999999, ,0.01135483203308057, ,0.030605135056857205, ,0.001220449113964738, ,1.5833333333333333, ,0.5425883732110678, ,0.4208689618579213, ,0.0200812228321871
82, ,PASS, ,0.09278472, ,0.01049099820670859, ,0.03143588925463767, ,0.0009881010562102035, ,1.5, ,0.5597643111945148, ,0.42578722883206466, ,0.023570947531683026
83, ,PASS, ,0.054212184, ,0.007943221406021972, ,0.0351227012426277, ,0.0004347023116076126, ,1.75, ,0.6600584282950164, ,0.45521519968980223, ,0.08567172098528601
84, ,PASS, ,0.12223168000000004, ,0.010478376671058312, ,0.04116988786569662, ,0.0013570338178667792, ,1.8333333333333333, ,0.6260147053966896, ,0.5061529356543744, ,0.0323870941409359
85, ,PASS, ,0.09954354999999998, ,0.013659291267105982, ,0.03250380672833208, ,0.0013750149363307962, ,1.75, ,0.635604655220335, ,0.45368461868125143, ,0.04420317952694843
86, ,PASS, ,0.1031019, ,0.011149892300436816, ,0.03080925092590233, ,0.0011683141593361146, ,1.5833333333333333, ,0.5448893068965573, ,0.4214607865145609, ,0.02144854186649252
87, ,PASS, ,0.08965578500000007, ,0.010281129465749559, ,0.03171048269823065, ,0.0009351402897945873, ,1.5, ,0.5648283200822453, ,0.4266851696904145, ,0.0258157996775576
88, ,PASS, ,0.04807849, ,0.007310267405458154, ,0.03566518489316545, ,0.0003545652707715953, ,1.75, ,0.6796098676142444, ,0.4610109997755148, ,0.10516111916083346
89, ,PASS, ,0.15150101999999996, ,0.009591002526373413, ,0.04247855657578417, ,0.0015642680398773663, ,1.8333333333333333, ,0.5346020215144324, ,0.5086018652680557, ,0.027570865900695903
90, ,PASS, ,0.09824285899999999, ,0.013594250256240267, ,0.032817340660945694, ,0.0013508545530400227, ,1.75, ,0.6386574304921002, ,0.4568070039386951, ,0.04418277178016775
91, ,PASS, ,0.10272814999999999, ,0.011033404064852792, ,0.03078677826305626, ,0.0011522075959517577, ,1.5833333333333333, ,0.5420657287960893, ,0.4208485541111406, ,0.019428174935205406
92, ,PASS, ,0.08856148800000004, ,0.010132754883065571, ,0.03191817658109018, ,0.0009104237971675002, ,1.5, ,0.5633889348179026, ,0.4268688394114406, ,0.024081141201199977
93, ,PASS, ,0.044546169999999996, ,0.006950167949286113, ,0.035823989622660764, ,0.0003125160485558121, ,1.8333333333333333, ,0.6932950316766565, ,0.4655415195608253, ,0.11373237280871819
94, ,PASS, ,0.13074858000000003, ,0.00836889225599665, ,0.04141521830799372, ,0.0011832984807570522, ,1.9166666666666667, ,0.5450893248595312, ,0.5095406216199669, ,0.022407705965184384
95, ,PASS, ,0.08924182900000005, ,0.01464935965484729, ,0.034290390243627684, ,0.0013223576864802749, ,1.9166666666666667, ,0.7256337353947853, ,0.4718679210628354, ,0.1030795289892043
96, ,PASS, ,0.10392393, ,0.011794783626710211, ,0.03108255188992837, ,0.0012437459851062404, ,1.5833333333333333, ,0.5602429249207155, ,0.4300932634027877, ,0.023019938368604723
97, ,PASS, ,0.08933654800000003, ,0.010717723931906287, ,0.03200738413940246, ,0.0009700809399732863, ,1.6666666666666667, ,0.5805815734915802, ,0.43288912471174057, ,0.029774902553009124
98, ,PASS, ,0.049200649999999985, ,0.007728153622561524, ,0.03562954133180955, ,0.0003835179811805362, ,1.75, ,0.6948113331838963, ,0.46415379277973917, ,0.11907920246525582
99, ,PASS, ,0.13239808, ,0.005905807612868217, ,0.042142726550478564, ,0.0008615947519635431, ,1.4166666666666667, ,0.4427307117574928, ,0.512193628701455, ,0.02036693128711659
100, ,PASS, ,0.08339630200000003, ,0.014523152007115351, ,0.034855155963000754, ,0.0012247145321252176, ,1.9166666666666667, ,0.7630011490178441, ,0.47703108099834696, ,0.13299728576967818
101, ,PASS, ,0.09713784100000002, ,0.011616736517213169, ,0.0316520703073823, ,0.001143686151715811, ,1.6666666666666667, ,0.5786429535943012, ,0.4338686965572131, ,0.02920348564315014
102, ,PASS, ,0.08122202199999999, ,0.010425447666216947, ,0.03265333612665048, ,0.0008566161656113628, ,1.6666666666666667, ,0.6052138229740169, ,0.4380114691536907, ,0.044448072488316566
103, ,PASS, ,0.03936642, ,0.006468414472327412, ,0.03658118884655415, ,0.00025641939344897384, ,1.9166666666666667, ,0.7314023962964156, ,0.4722556682516683, ,0.08881451398951042
198, ,PASS, ,0.16843052999999997, ,0.020306056021070332, ,0.04272070798869411, ,0.003547029815124686, ,2.0, ,0.9083810597953964, ,0.5264178282075876, ,0.14846635782943204
199, ,PASS, ,0.09274025999999998, ,0.008928611531212043, ,0.039843309712863005, ,0.0008751773916962481, ,1.9166666666666667, ,0.8694282764777103, ,0.520683251362217, ,0.02444848064325218
200, ,PASS, ,0.1997999999999997, ,0.03022775878366393, ,0.09102992960856093, ,0.006340070440282437, ,1.8333333333333333, ,0.9737743238080235, ,0.7848003101977511, ,0.7323932164649701
201, ,PASS, ,0.09270080000000001, ,0.006989552130182694, ,0.04004259347380666, ,0.0006892897317891186, ,1.9166666666666667, ,0.8344399571693831, ,0.5242750147956164, ,0.009918164935409481
202, ,PASS, ,0.079065671, ,0.007660381543782748, ,0.039837380072447505, ,0.0006416014724407251, ,1.9166666666666667, ,0.847272238170191, ,0.5197036795167446, ,0.013265035407440664
203, ,PASS, ,0.06498699302000001, ,0.007207356470256198, ,0.03951215613130345, ,0.0004949244787813081, ,2.0, ,0.8609308360559639, ,0.5174996428644313, ,0.036774759698781655
204, ,PASS, ,0.06381316536000002, ,0.0077655346598013856, ,0.03962334223015857, ,0.0005192482280650695, ,2.0, ,0.8656173534735068, ,0.5167649639803269, ,0.06020285300299994
205, ,PASS, ,0.06535240724, ,0.008103311868637553, ,0.03966397946817412, ,0.0005541058113622231, ,2.0, ,0.8662475831155219, ,0.5166833329932042, ,0.06381502418317994
206, ,PASS, ,0.062042524000000016, ,0.00763893251042652, ,0.03950257653129528, ,0.000496047490764079, ,2.0, ,0.8648718556229306, ,0.5169078182077916, ,0.06420277137201282
207, ,PASS, ,0.06935898610000002, ,0.008389683631036291, ,0.03984957093896043, ,0.0006081867993275644, ,2.0, ,0.8648744513183653, ,0.5178873900532642, ,0.0656109058998796
208, ,PASS, ,0.05265412900000003, ,0.006572511081640971, ,0.03940946478214731, ,0.00036242533925905974, ,2.0, ,0.8610139905539269, ,0.515683353400951, ,0.07163119120017959
209, ,PASS, ,0.054047375000000016, ,0.0068506560607018, ,0.039397465728658605, ,0.00038765963875952286, ,2.0, ,0.8606079910664063, ,0.5153364217056795, ,0.06895777637191078
210, ,PASS, ,0.04988535300000001, ,0.006186810414742907, ,0.03934221058121263, ,0.0003232898194025386, ,2.0, ,0.8573302301349723, ,0.5154996836799249, ,0.07105977429032061
211, ,PASS, ,0.054575308, ,0.006902763239043729, ,0.03941085643211363, ,0.0003940132001865818, ,2.0, ,0.8598832293412247, ,0.515622130160609, ,0.06683537070672027
212, ,PASS, ,0.058724281, ,0.0074247658645673455, ,0.03946674069876125, ,0.00045560824582759535, ,2.0, ,0.8628253557187125, ,0.5160711005897839, ,0.0706108038611457
213, ,PASS, ,0.06903131637999999, ,0.008701373420989707, ,0.039639186717618013, ,0.000626825827496438, ,2.0, ,0.8662199161063614, ,0.5174792351176507, ,0.07748821452623415
214, ,PASS, ,0.06873945875999998, ,0.008641695217844761, ,0.039788853678700435, ,0.0006200858336102912, ,2.0, ,0.8647904909091255, ,0.5171323034223791, ,0.07103936654353993
215, ,PASS, ,0.078162406, ,0.009894578509930438, ,0.040003273128507585, ,0.0008060748208148385, ,2.0, ,0.866946207646224, ,0.5183567682292198, ,0.07265157853921349
216, ,PASS, ,0.06548439352000002, ,0.008292803650103799, ,0.03973796245913349, ,0.0005670212034241499, ,2.0, ,0.865449599594721, ,0.5169894491949144, ,0.07371278137180874
217, ,PASS, ,0.07409644800000002, ,0.009592457938231545, ,0.039830251286300286, ,0.0007409703709189296, ,2.0, ,0.8691511692868241, ,0.5173976041305279, ,0.07648823493398094
218, ,PASS, ,0.07303198000000002, ,0.009333040857612331, ,0.039862563992775664, ,0.0007109285653802871, ,2.0, ,0.8683043710003563, ,0.5176424970918961, ,0.07710046733740128
219, ,PASS, ,0.07072657499999999, ,0.009149722147067883, ,0.039784873271157734, ,0.0006746640136346093, ,2.0, ,0.8689946363580117, ,0.5173771963837472, ,0.08087590049182669
220, ,PASS, ,0.04884460600000001, ,0.006461036007152001, ,0.03928519339401237, ,0.0003303687456275722, ,2.0, ,0.8588872026545918, ,0.5141731801391808, ,0.07159037570661823
221, ,PASS, ,0.051604383000000024, ,0.00680278912009795, ,0.03929120310830392, ,0.0003669697431561793, ,2.0, ,0.8617618785304144, ,0.5148874512765046, ,0.07803922368931246
222, ,PASS, ,0.04576677999999999, ,0.005914139677790612, ,0.039126760972225054, ,0.000283458310665995, ,2.0, ,0.8580922952345392, ,0.5147241893022592, ,0.08110038570641416
223, ,PASS, ,0.05703581799999999, ,0.0075419276761313995, ,0.03945391178771862, ,0.00044919752403273206, ,2.0, ,0.8649775155520086, ,0.5153364217056795, ,0.08093712373216873
224, ,PASS, ,0.07923460699999998, ,0.01050276161878219, ,0.03996862364584396, ,0.0008665733877395241, ,2.0, ,0.8699392409706143, ,0.5174792351176507, ,0.07995755188669619
225, ,PASS, ,0.07102665040000002, ,0.009297887689956109, ,0.039840468705332546, ,0.0006882759493324395, ,2.0, ,0.8647598686054312, ,0.516887410461011, ,0.07738617579233077
226, ,PASS, ,0.07036797260000004, ,0.00910399582618604, ,0.03974020006877411, ,0.0006676970177209642, ,2.0, ,0.8648588566596641, ,0.5173567886369665, ,0.0744882757494745
227, ,PASS, ,0.09303934999999997, ,0.012538912579887417, ,0.0403480439304504, ,0.001213064406704182, ,1.9166666666666667, ,0.8696513236181592, ,0.5180710597742904, ,0.08350849982653415
228, ,PASS, ,0.07561454199999999, ,0.010228099553687853, ,0.03993066015571111, ,0.000805637034517987, ,2.0, ,0.8670395169923153, ,0.5162139548172486, ,0.0760596722515867
229, ,PASS, ,0.07514962699999998, ,0.010126045069692008, ,0.03994204028999408, ,0.0007927128036604328, ,2.0, ,0.8663353710919323, ,0.5162751780575907, ,0.0812432399338789
230, ,PASS, ,0.058974609000000025, ,0.007745309508525014, ,0.039424606316809864, ,0.0004769167104783548, ,2.0, ,0.8603631958297603, ,0.5154996836799249, ,0.0755086630885084
231, ,PASS, ,0.09108104999999998, ,0.01246675728497725, ,0.04023720704385624, ,0.001180275187891881, ,1.9166666666666667, ,0.8698106039495543, ,0.5176016815983348, ,0.08307993714413991
232, ,PASS, ,0.06769180558, ,0.00922774593572612, ,0.039625160875084185, ,0.000651049595715624, ,1.9166666666666667, ,0.8702617209594463, ,0.5157649843880737, ,0.0829983061570172
233, ,PASS, ,0.06537119168000004, ,0.008690372243850077, ,0.03961275866553744, ,0.0005918810277269373, ,2.0, ,0.8687417801852126, ,0.5168670027142304, ,0.08644721536295177
234, ,PASS, ,0.06526054300000003, ,0.008717668342375256, ,0.03958323510520194, ,0.0005928969238590142, ,2.0, ,0.8652969164097518, ,0.5162343625640293, ,0.07536580886104365
235, ,PASS, ,0.07415218400000001, ,0.00994547477814189, ,0.03974083357441685, ,0.0007682220780280188, ,1.9166666666666667, ,0.8625838886648964, ,0.5160302850962225, ,0.0770800595906206
236, ,PASS, ,0.06254240600000001, ,0.008506972483230717, ,0.039487458642680766, ,0.0005550480992109709, ,2.0, ,0.8622126333763259, ,0.5147445970490399, ,0.07695761310993653
237, ,PASS, ,0.074458237, ,0.009929937876836478, ,0.03973737534213588, ,0.0007699097872646316, ,1.9166666666666667, ,0.8636383989318267, ,0.5166221097528622, ,0.07699842860349788
238, ,PASS, ,0.06751907936, ,0.008914585721307036, ,0.03971742401359157, ,0.0006275875833534907, ,2.0, ,0.8606223724357511, ,0.5159078386155385, ,0.07614130323870942
239, ,PASS, ,0.07812511299999998, ,0.010416421169251703, ,0.03997521189036959, ,0.0008476037195593091, ,1.9166666666666667, ,0.8603958770436912, ,0.5161527315769066, ,0.07342707291687925
240, ,PASS, ,0.05952186000000001, ,0.00777214127316701, ,0.03953084344319504, ,0.0004827242499861165, ,2.0, ,0.8622961061242792, ,0.5159282463623192, ,0.07410052856064162
241, ,PASS, ,0.08907798, ,0.011491499728181634, ,0.04035688314675211, ,0.0010631948158214817, ,2.0, ,0.8723062911273749, ,0.5209485520703659, ,0.08405950898961245
242, ,PASS, ,0.07474823500000004, ,0.009253256638677161, ,0.040134703930532034, ,0.0007201773955873578, ,2.0, ,0.8673023791333627, ,0.5197036795167446, ,0.07801881594253178
243, ,PASS, ,0.12936332, ,0.016900557046562455, ,0.041704566128099425, ,0.0022563209235932752, ,2.0, ,0.8760306094629636, ,0.5274382155466215, ,0.08795738862472194
244, ,PASS, ,0.09923237999999995, ,0.011823878930701708, ,0.04078489438878798, ,0.001219560972469104, ,2.0, ,0.8726995745762955, ,0.5237648211260995, ,0.08393706250892839
245, ,PASS, ,0.09244711999999998, ,0.01249549221425559, ,0.040294948032672806, ,0.0012004392207761836, ,2.0, ,0.8867640106089553, ,0.51986694149099, ,0.10387543111365075
246, ,PASS, ,0.10765264000000002, ,0.014537610528968637, ,0.04068125837350054, ,0.0016230820742082611, ,2.0, ,0.8929736027477626, ,0.521642415460909, ,0.11475276014775208
