Channel, ,Pass/Fail, ,Amplitude, ,Sorting Function Response, ,Mean, ,Variance, ,NPeaksRatio, ,PosIntegralRatio, ,ToT50, ,ToT99
0, ,PASS, ,0.027964889999999975, ,0.003977514967430111, ,0.033953351575273974, ,0.00011285943908682767, ,1.8333333333333333, ,0.672542394307658, ,0.4422766882308524, ,0.044141956286606394
1, ,PASS, ,0.030199899999999977, ,0.004762563947989892, ,0.03398804137425767, ,0.00014520491093518608, ,1.9166666666666667, ,0.7438703824404491, ,0.44688883900328563, ,0.0653251974449501
2, ,PASS, ,0.030226080000000006, ,0.004670820051298656, ,0.033853373605436624, ,0.00014294004937810012, ,1.75, ,0.7320769448051998, ,0.4396849043897063, ,0.06432521785269689
3, ,PASS, ,0.02991503999999999, ,0.004694138977877999, ,0.03422038683108508, ,0.00014189556279853597, ,1.9166666666666667, ,0.738910560858114, ,0.44613375237240055, ,0.0673659721230179
4, ,PASS, ,0.02983266999999999, ,0.004633270794689801, ,0.03371943254076447, ,0.00013992274185288813, ,1.75, ,0.7306957458468437, ,0.4389706332523826, ,0.0721822003632579
5, ,PASS, ,0.030218929999999998, ,0.004635502910045323, ,0.033771235042346075, ,0.00014186069345358665, ,1.8333333333333333, ,0.7272654279339514, ,0.4425011734454399, ,0.06438644109303891
6, ,PASS, ,0.030144049999999978, ,0.004668148183960976, ,0.03402063593314422, ,0.00014234923674032778, ,1.9166666666666667, ,0.733916553232847, ,0.445092957286586, ,0.05910083467684333
7, ,PASS, ,0.03028231, ,0.0046407110028947145, ,0.03414487868145548, ,0.00014180229756534968, ,1.9166666666666667, ,0.7353567864675918, ,0.4551335687026795, ,0.06293749107161078
8, ,PASS, ,0.030412359999999982, ,0.004646437399572722, ,0.03419956890920593, ,0.00014306977642795, ,1.8333333333333333, ,0.7336429695294331, ,0.44743984816636395, ,0.06322319952654028
9, ,PASS, ,0.030121469999999977, ,0.004669228210928594, ,0.03424030550172445, ,0.00014175918443986899, ,1.9166666666666667, ,0.7316762950982216, ,0.45466419052672397, ,0.0619987347196996
10, ,PASS, ,0.03007044999999998, ,0.004673038501046302, ,0.03397161438419624, ,0.00014197467038294903, ,1.9166666666666667, ,0.7319730056393591, ,0.4467255770290402, ,0.061815064998673494
11, ,PASS, ,0.030599159999999997, ,0.004748425747267704, ,0.03396697846145997, ,0.00014696347072227258, ,1.9166666666666667, ,0.7376226680659739, ,0.4442970551621396, ,0.06034570723046469
12, ,PASS, ,0.03018889, ,0.00468255626575438, ,0.03399514776698435, ,0.00014316348041461534, ,1.8333333333333333, ,0.7307840852763585, ,0.4404808065141528, ,0.06728434113589518
13, ,PASS, ,0.030454939999999993, ,0.00472980410398472, ,0.03439200412399747, ,0.00014554628230352662, ,1.9166666666666667, ,0.7301987095784434, ,0.4497663312993612, ,0.06701904042774637
14, ,PASS, ,0.03051311999999999, ,0.0047330284037217195, ,0.0341975126772923, ,0.00014542763519009996, ,2.0, ,0.7269360718588709, ,0.4544397053121365, ,0.07324340319585315
15, ,PASS, ,0.03059251, ,0.004725488630328931, ,0.03393091967898614, ,0.00014636716108915162, ,1.8333333333333333, ,0.7296192256101797, ,0.44150119385318665, ,0.06040693047080672
16, ,PASS, ,0.030814270000000022, ,0.004794216050480166, ,0.03399654747352095, ,0.00014959657477994222, ,1.8333333333333333, ,0.7383410210189928, ,0.43856247831676903, ,0.0635701312218118
17, ,PASS, ,0.03051679999999999, ,0.004755740539931827, ,0.03386012935838044, ,0.00014686404353054502, ,1.8333333333333333, ,0.7377025599443677, ,0.44113385441113445, ,0.058141670578151464
18, ,PASS, ,0.03067975999999999, ,0.004831822904907391, ,0.03383503825840289, ,0.00014992993957405943, ,1.75, ,0.7451722944287318, ,0.4406440684883982, ,0.06705985592130773
19, ,PASS, ,0.03045194, ,0.004796941006074179, ,0.03426305390134895, ,0.00014698085642263743, ,2.0, ,0.7378179346257598, ,0.453460133466664, ,0.06520275096426603
20, ,PASS, ,0.030649650000000004, ,0.004752366353015928, ,0.03412759462378319, ,0.00014728407971839337, ,1.9166666666666667, ,0.7331413545843611, ,0.44290932838105346, ,0.06148854105018265
21, ,PASS, ,0.030502480000000005, ,0.004789277693448896, ,0.033973752590763455, ,0.00014772230842649648, ,1.8333333333333333, ,0.7444447629148565, ,0.4455215199689802, ,0.06440684883981959
22, ,PASS, ,0.03089478999999999, ,0.0047805439110258415, ,0.03404727949796943, ,0.00014961811363080655, ,1.8333333333333333, ,0.7295345323355936, ,0.44456235587028836, ,0.06177424950511214
23, ,PASS, ,0.03083839999999999, ,0.004795567171306241, ,0.034064321997510257, ,0.00014917201601231838, ,1.9166666666666667, ,0.7333676115779488, ,0.4509091651190792, ,0.0635701312218118
24, ,PASS, ,0.030623490000000017, ,0.0047248159598663525, ,0.033849890359992654, ,0.00014648641788998483, ,1.75, ,0.7285361134822784, ,0.4377053529519806, ,0.06695781718740434
25, ,PASS, ,0.031033200000000004, ,0.0047269038926228526, ,0.03419101479786127, ,0.00014796553561675227, ,1.9166666666666667, ,0.7267339499729574, ,0.45070508765127243, ,0.06401910165098672
26, ,PASS, ,0.030715230000000007, ,0.00475633623593471, ,0.0336878262666068, ,0.00014786244286769742, ,1.8333333333333333, ,0.728740801851758, ,0.4452562192608314, ,0.06836595171527111
27, ,PASS, ,0.031078469999999993, ,0.004804838908165838, ,0.03404127872941368, ,0.00015102950638247684, ,1.9166666666666667, ,0.7262711168914738, ,0.44984796228648394, ,0.05552947899022469
28, ,PASS, ,0.031040730000000002, ,0.004814883813618274, ,0.033877321825268876, ,0.0001509808480983211, ,1.9166666666666667, ,0.728982800989229, ,0.44792963408910025, ,0.06183547274545417
29, ,PASS, ,0.030965399999999994, ,0.004838015317378812, ,0.034109332276076, ,0.00015137490433076171, ,1.9166666666666667, ,0.7365220445558635, ,0.4465623150547948, ,0.05701924450521418
30, ,PASS, ,0.03174575, ,0.0049554903059976715, ,0.03400098535295198, ,0.0001588531144133836, ,1.9166666666666667, ,0.7317845304722161, ,0.4489908369216955, ,0.07224342360359992
31, ,PASS, ,0.03179437000000001, ,0.004856711362658977, ,0.03387697128466766, ,0.0001558693387681965, ,1.9166666666666667, ,0.718880478607934, ,0.446868431256505, ,0.040693047080671826
32, ,PASS, ,0.03123053, ,0.004792580773301781, ,0.03395637819513887, ,0.00015164824382477344, ,1.8333333333333333, ,0.728360685220372, ,0.4425011734454399, ,0.06487622701577518
33, ,PASS, ,0.03131191000000001, ,0.0048367780089336385, ,0.033809072765657845, ,0.00015345954465429638, ,1.75, ,0.7310936990843749, ,0.4393583804412155, ,0.0667129242260362
34, ,PASS, ,0.03154050999999999, ,0.004852360097187364, ,0.03390000032529948, ,0.00015476482114994155, ,1.8333333333333333, ,0.7317137831856815, ,0.4477051488745128, ,0.0689373686251301
35, ,PASS, ,0.03150779000000001, ,0.00488380764512338, ,0.033865443124221954, ,0.0001550633741962927, ,1.9166666666666667, ,0.7254335646160173, ,0.445154180526928, ,0.0667129242260362
36, ,PASS, ,0.03166772000000001, ,0.004961097472999312, ,0.03404357051141813, ,0.00015880158627022976, ,1.8333333333333333, ,0.7388395465300407, ,0.44856227423930123, ,0.06518234321748535
37, ,PASS, ,0.03177299999999999, ,0.004849038197576749, ,0.03410334512030366, ,0.00015617526572184293, ,1.8333333333333333, ,0.7279230806218441, ,0.44235831921797514, ,0.06071304667251689
38, ,PASS, ,0.03208200000000001, ,0.005005809655609884, ,0.033791259049203076, ,0.0001622995450243165, ,1.9166666666666667, ,0.7339005828613487, ,0.44497051080590194, ,0.06154976429052468
39, ,PASS, ,0.03181381999999999, ,0.0049324578950408525, ,0.03410195707659027, ,0.00015857495078854463, ,1.9166666666666667, ,0.7293942488979888, ,0.4533989102263219, ,0.06934552356074365
40, ,PASS, ,0.03194563, ,0.004898176679036511, ,0.033773743425236216, ,0.00015819541132436292, ,1.9166666666666667, ,0.7253030767032532, ,0.4473990326728026, ,0.06020285300299994
41, ,PASS, ,0.032125829999999994, ,0.004985802005032629, ,0.03363745793800126, ,0.00016207548005186203, ,1.8333333333333333, ,0.7312056236580968, ,0.4439093079733067, ,0.06340686924756637
42, ,PASS, ,0.03187100999999999, ,0.004946444703076728, ,0.03368124174547458, ,0.00015907277316772563, ,1.9166666666666667, ,0.7307523275358868, ,0.44937858411052833, ,0.06030489173690333
43, ,PASS, ,0.03169000999999999, ,0.004933403541999151, ,0.03405080383237077, ,0.00015790357702193613, ,1.8333333333333333, ,0.7295016310825015, ,0.45466419052672397, ,0.06895777637191078
44, ,PASS, ,0.031846410000000006, ,0.004939673875489069, ,0.03389875301606089, ,0.0001584691944830159, ,2.0, ,0.7246978599314678, ,0.4534397257198833, ,0.06154976429052468
45, ,PASS, ,0.03191012999999999, ,0.00491483363184124, ,0.03384984136548234, ,0.00015859713232273373, ,1.9166666666666667, ,0.7344689091912603, ,0.45074590314483376, ,0.06075386216607824
46, ,PASS, ,0.031978820000000005, ,0.00493731254911385, ,0.0336843414283382, ,0.00015965733880612167, ,1.9166666666666667, ,0.729361935228296, ,0.4443582784024816, ,0.059223281157527397
47, ,PASS, ,0.03230131999999999, ,0.004948345302459083, ,0.033660097330870796, ,0.00016163516582554942, ,1.8333333333333333, ,0.7281772882816446, ,0.44531744250117344, ,0.05889675720903655
48, ,PASS, ,0.03215966, ,0.004958438809368465, ,0.033851792834431946, ,0.0001612743400977677, ,1.8333333333333333, ,0.7276854539753292, ,0.44623579110630396, ,0.06503948899002061
49, ,PASS, ,0.031953869999999995, ,0.004969210485612674, ,0.03346303046468439, ,0.00016056948375325417, ,1.9166666666666667, ,0.7341286918506096, ,0.4454602967286382, ,0.06646803126466806
50, ,PASS, ,0.032291159999999985, ,0.004923947800921374, ,0.03352697015407849, ,0.00016082141856533518, ,1.8333333333333333, ,0.7239470626391147, ,0.4420317952694843, ,0.061325279075937225
51, ,PASS, ,0.03232202000000001, ,0.004936193833059235, ,0.03376539430644272, ,0.00016177337538041483, ,1.8333333333333333, ,0.7219485408915459, ,0.4393583804412155, ,0.05342748107181486
52, ,PASS, ,0.03187527000000001, ,0.00490008179547467, ,0.03347596920409788, ,0.00015834537675113832, ,1.8333333333333333, ,0.727505207846227, ,0.44150119385318665, ,0.060876308646762314
53, ,PASS, ,0.03220935999999999, ,0.005000033320734869, ,0.03372961484969694, ,0.0001625211920645145, ,1.9166666666666667, ,0.732554146795399, ,0.4489908369216955, ,0.06016203750943858
54, ,PASS, ,0.032347730000000005, ,0.004996781074900557, ,0.03384906288851248, ,0.00016298673520312053, ,1.9166666666666667, ,0.7228555365274498, ,0.45246015387441074, ,0.05538662476275994
55, ,PASS, ,0.032254299999999986, ,0.005022950099096802, ,0.033614413680333056, ,0.00016415607362795428, ,1.8333333333333333, ,0.7354609417275683, ,0.4427052509132467, ,0.06534560519173079
56, ,PASS, ,0.032701129999999995, ,0.005028243360856344, ,0.03388670490255301, ,0.0001662966359360459, ,1.9166666666666667, ,0.7286285539281634, ,0.4464806840676721, ,0.05448868390441011
57, ,PASS, ,0.032580330000000005, ,0.005035889720071847, ,0.033820227954123386, ,0.00016573351065043935, ,1.9166666666666667, ,0.7305904490112982, ,0.4489704291749148, ,0.0595906205995796
58, ,PASS, ,0.03266728999999999, ,0.004966992360345206, ,0.033551595443154225, ,0.00016437052082292233, ,1.8333333333333333, ,0.7198072499688524, ,0.4452766270076121, ,0.06534560519173079
59, ,PASS, ,0.03245979, ,0.00501104896075704, ,0.033802517152098935, ,0.0001640345398152103, ,1.9166666666666667, ,0.7291958054802675, ,0.451113242586886, ,0.061325279075937225
60, ,PASS, ,0.03297112999999999, ,0.005083401238283492, ,0.033754765638660436, ,0.00016927342181085163, ,1.9166666666666667, ,0.7234544109186767, ,0.4501336707414134, ,0.05697842901165282
61, ,PASS, ,0.033050430000000006, ,0.005127530137254569, ,0.03395256969918981, ,0.0001712541425862739, ,1.9166666666666667, ,0.7357887761734262, ,0.45370502642803207, ,0.05426419868982266
62, ,PASS, ,0.03328042, ,0.0050889249233407475, ,0.0336362417879227, ,0.00017131720751387345, ,1.9166666666666667, ,0.7255323936294905, ,0.44633782984020737, ,0.05361115079284096
63, ,PASS, ,0.03303462999999999, ,0.005081605771467762, ,0.03364990130629987, ,0.00017011669800295613, ,1.8333333333333333, ,0.7358077361783513, ,0.44707250872431176, ,0.05830493255239689
64, ,PASS, ,0.03331936, ,0.005182077395308003, ,0.03351728040570601, ,0.0001744419465958619, ,1.9166666666666667, ,0.7312095486838339, ,0.44650109181445274, ,0.0561621191404257
65, ,PASS, ,0.03340362, ,0.005114062850491107, ,0.03376625421909757, ,0.00017295023846958206, ,1.8333333333333333, ,0.7220725845193754, ,0.4455827432093223, ,0.057202914226240284
66, ,PASS, ,0.03326777000000001, ,0.005177024580985546, ,0.03385317361176302, ,0.0001739945822848878, ,1.9166666666666667, ,0.7284431143184901, ,0.4477051488745128, ,0.0609783473806657
67, ,PASS, ,0.03346742000000002, ,0.005100698746205038, ,0.033906942292402195, ,0.0001724023992192837, ,1.9166666666666667, ,0.7217856154742854, ,0.4557049856125385, ,0.05279484092161384
68, ,PASS, ,0.03382168999999999, ,0.005245243867095625, ,0.033719987910450805, ,0.0001790457704145025, ,1.9166666666666667, ,0.7290979941075718, ,0.4497459235525806, ,0.059325319891430785
69, ,PASS, ,0.04187509999999999, ,0.0066451099250704705, ,0.03373776328544316, ,0.0002796313945157588, ,2.0, ,0.7454243881001711, ,0.4563988490030816, ,0.06789657353931552
70, ,PASS, ,0.12391334999999999, ,0.018985033053076653, ,0.03328043482255464, ,0.0023515406409369563, ,1.75, ,0.7385173760514535, ,0.4730311626293341, ,0.06544764392563417
71, ,PASS, ,0.03448561, ,0.0051842348477689065, ,0.03329810193138916, ,0.00018161762077117716, ,1.8333333333333333, ,0.7156451144459859, ,0.4405420297544948, ,0.05567233321768943
72, ,PASS, ,0.032133430000000004, ,0.004884548536885168, ,0.03360761902144854, ,0.00015905535927978896, ,1.9166666666666667, ,0.7163000887336133, ,0.4451337727801473, ,0.056366196608232486
73, ,PASS, ,0.03201322, ,0.004886130405764463, ,0.03351302998000041, ,0.00015804082397499267, ,1.9166666666666667, ,0.7192458656405956, ,0.4435827840248158, ,0.05497846982714639
74, ,PASS, ,0.03171131999999999, ,0.004829490474620227, ,0.03380341317871064, ,0.00015529812227766936, ,1.9166666666666667, ,0.7159133417194151, ,0.4439093079733067, ,0.05585600293871554
75, ,PASS, ,0.0318286, ,0.004899553463302282, ,0.03365936521397522, ,0.00015848827134748556, ,1.8333333333333333, ,0.728421813094398, ,0.44882757494745007, ,0.0609783473806657
76, ,PASS, ,0.032184729999999995, ,0.004823439534316205, ,0.03376085271116916, ,0.00015703386580726686, ,1.9166666666666667, ,0.7125011876298041, ,0.4494398073508704, ,0.05371318952674435
77, ,PASS, ,0.03214310999999999, ,0.004850759101390335, ,0.03376523955551928, ,0.0001581368234560507, ,1.8333333333333333, ,0.7160313716208646, ,0.4508275341319565, ,0.05771310789575723
78, ,PASS, ,0.03186900999999999, ,0.00478292592142845, ,0.03356328245443971, ,0.00015487569460531845, ,1.8333333333333333, ,0.7092035271098098, ,0.44286851288749207, ,0.05748862268116977
79, ,PASS, ,0.031701579999999986, ,0.004816334069778704, ,0.03337465403216261, ,0.0001552756897125238, ,1.75, ,0.7160000060721425, ,0.4340727740250199, ,0.060121222015877225
80, ,PASS, ,0.03231546, ,0.004890042780877587, ,0.03345717066692516, ,0.00016027966825606823, ,1.8333333333333333, ,0.7172905422383871, ,0.4442562396685782, ,0.0606110079386135
81, ,PASS, ,0.032285390000000004, ,0.004876658008224003, ,0.03313467179506541, ,0.00015987896605230707, ,1.75, ,0.7177823917199189, ,0.44021550580600394, ,0.06114160935491112
82, ,PASS, ,0.03212680999999999, ,0.004890188101025342, ,0.033595530632640154, ,0.0001594476445746179, ,1.8333333333333333, ,0.7185464910984316, ,0.4427664741535887, ,0.058876349462255874
83, ,PASS, ,0.03235649999999998, ,0.004944807687161464, ,0.033689075764576235, ,0.00016177713046294965, ,1.9166666666666667, ,0.7168564958005653, ,0.4484602355053979, ,0.06232525866819044
84, ,PASS, ,0.032425879999999976, ,0.004885921434905692, ,0.03328576635558458, ,0.00016058279975401157, ,1.8333333333333333, ,0.7103188612537193, ,0.43901144874594394, ,0.04706026407624334
85, ,PASS, ,0.03254486999999999, ,0.004906731822789231, ,0.03347628185159487, ,0.00016243439281450102, ,1.8333333333333333, ,0.7142665759098928, ,0.4410930389175731, ,0.04803983592171588
86, ,PASS, ,0.03228106, ,0.004851205892658813, ,0.03345946387604335, ,0.00015851352526169887, ,1.9166666666666667, ,0.708066090567148, ,0.44123589314503786, ,0.04603987673720945
87, ,PASS, ,0.032262719999999995, ,0.004788674306866908, ,0.033625208382277914, ,0.0001562378076137827, ,1.9166666666666667, ,0.7030497391638778, ,0.4506438644109304, ,0.057958000857125366
88, ,PASS, ,0.032367279999999984, ,0.004838626578283683, ,0.03360838774127058, ,0.00015823836180969006, ,1.9166666666666667, ,0.7081603899499004, ,0.44990918552682596, ,0.05906001918328197
89, ,PASS, ,0.03240355, ,0.004942546044004777, ,0.03353317231464664, ,0.0001624708189436937, ,1.75, ,0.7193800539994752, ,0.44141956286606393, ,0.05744780718760842
90, ,PASS, ,0.03239233, ,0.004896845778733971, ,0.03358329415787433, ,0.0001609405567382371, ,1.8333333333333333, ,0.7197847216090202, ,0.44376645374584195, ,0.05314177261688537
91, ,PASS, ,0.03241388999999999, ,0.0048737767827089305, ,0.03335513031652415, ,0.0001600158921009157, ,1.8333333333333333, ,0.7107436543355827, ,0.4376849452051999, ,0.05799881635068672
92, ,PASS, ,0.03240074000000001, ,0.004866562038368478, ,0.03330993113895635, ,0.0001602685914748786, ,1.75, ,0.7122422109086833, ,0.4372767902695863, ,0.055264178282075874
93, ,PASS, ,0.03242165999999999, ,0.0049565758984472345, ,0.0336356976180078, ,0.00016199692772834084, ,1.9166666666666667, ,0.71682021362691, ,0.4505826411705884, ,0.05828452480561621
94, ,PASS, ,0.03257754999999999, ,0.004948689202780878, ,0.03360852888390033, ,0.0001628210416526146, ,1.9166666666666667, ,0.714726277603401, ,0.44958266157833515, ,0.06069263892573621
95, ,PASS, ,0.032205679999999993, ,0.004947150598971751, ,0.033648382423215856, ,0.00016087728661030835, ,1.9166666666666667, ,0.727678481915362, ,0.4519295524581131, ,0.05687639027774943
96, ,PASS, ,0.03246177999999999, ,0.004963084939973973, ,0.03372348645537846, ,0.0001635107545871495, ,1.8333333333333333, ,0.7243200191813336, ,0.4459296749045938, ,0.0616313952776474
97, ,PASS, ,0.032790230000000004, ,0.0049262600324080676, ,0.03320344547478623, ,0.00016396456845526155, ,1.75, ,0.7184315916258027, ,0.43995020509785515, ,0.058386563539519605
98, ,PASS, ,0.032980079999999995, ,0.005070423351064048, ,0.03340376052958103, ,0.0001695692747961514, ,1.8333333333333333, ,0.724083625303742, ,0.44133793187894127, ,0.05818248607171282
99, ,PASS, ,0.03242447999999999, ,0.004933956624941604, ,0.03349501619395522, ,0.00016193566207225207, ,1.9166666666666667, ,0.7174083164224802, ,0.44568478194322564, ,0.05552947899022469
100, ,PASS, ,0.03227347999999999, ,0.004836355117134751, ,0.03349954856860064, ,0.00015846840602558765, ,1.8333333333333333, ,0.7137104746443175, ,0.44497051080590194, ,0.05442746066406808
101, ,PASS, ,0.03233051, ,0.004901294067310614, ,0.03361851785922736, ,0.00016003575144724654, ,1.9166666666666667, ,0.7138493019247694, ,0.4496234770718965, ,0.05487643109324299
102, ,PASS, ,0.03224473, ,0.004881647989313924, ,0.03367935447419441, ,0.00015921788850529223, ,1.9166666666666667, ,0.7117569308598302, ,0.4468072080161629, ,0.04912144650109181
103, ,PASS, ,0.03197117, ,0.004853486746852363, ,0.033407568180649376, ,0.00015714623924238975, ,1.9166666666666667, ,0.7159617974732609, ,0.4446848023509724, ,0.05701924450521418
104, ,PASS, ,0.03249595999999999, ,0.004863487797960711, ,0.03366182835166629, ,0.00015985232948457736, ,1.9166666666666667, ,0.7063463182345924, ,0.4497255158057999, ,0.058060039591028755
105, ,PASS, ,0.03275009999999999, ,0.004987837464462852, ,0.03366974296789862, ,0.00016518419249315048, ,1.9166666666666667, ,0.7178107939082512, ,0.44790922634231956, ,0.060039591028754516
106, ,PASS, ,0.03335012000000001, ,0.005133386563019181, ,0.03337281231342217, ,0.00017315056029853322, ,1.9166666666666667, ,0.7242102256198805, ,0.4473174016856799, ,0.06308034529907552
107, ,PASS, ,0.032688269999999985, ,0.004952021321325508, ,0.03366350202281586, ,0.00016396033995823953, ,1.8333333333333333, ,0.7142332374435546, ,0.44911328340237955, ,0.04563172180159589
108, ,PASS, ,0.032519389999999995, ,0.004955789211868378, ,0.03339591092365462, ,0.0001632409317411728, ,1.9166666666666667, ,0.7184761701690972, ,0.44450113262994634, ,0.05614171139364503
109, ,PASS, ,0.032616839999999994, ,0.004899091165623784, ,0.033381689533682986, ,0.00016141091428587936, ,1.9166666666666667, ,0.7166080726952573, ,0.45003163200751006, ,0.05854982551376502
110, ,PASS, ,0.03246443999999998, ,0.00494487876954172, ,0.033374934688475744, ,0.00016253397998301121, ,1.9166666666666667, ,0.7153682542720541, ,0.4456031509561029, ,0.05793759311034469
111, ,PASS, ,0.03250216, ,0.0048659601748629565, ,0.03354826230648354, ,0.00015981509420598066, ,1.9166666666666667, ,0.7082791036807349, ,0.44911328340237955, ,0.05054998877573927
112, ,PASS, ,0.03260810999999999, ,0.004927713173780954, ,0.03366010050101018, ,0.00016228493326743562, ,1.9166666666666667, ,0.7125574682713552, ,0.4492561376298443, ,0.060529376951490785
113, ,PASS, ,0.03246906, ,0.004920911242526829, ,0.033548503197893924, ,0.00016158113831297183, ,1.9166666666666667, ,0.7151765252783278, ,0.4442562396685782, ,0.05665190506316198
114, ,PASS, ,0.03269113999999998, ,0.004931749072665576, ,0.033758325747637805, ,0.00016294995645740946, ,1.9166666666666667, ,0.7125777737335819, ,0.449337768616967, ,0.05444786841084876
115, ,PASS, ,0.03283321, ,0.0048366291895432095, ,0.033323123055856003, ,0.0001607082181015888, ,1.9166666666666667, ,0.6949422747508786, ,0.44121548539825717, ,0.05828452480561621
116, ,PASS, ,0.03264252999999999, ,0.004889933948959677, ,0.033295186373339315, ,0.00016169258047640269, ,1.9166666666666667, ,0.7114454636470433, ,0.4452766270076121, ,0.056407012101793844
117, ,PASS, ,0.03298155999999999, ,0.0049267214024705155, ,0.033572278714924186, ,0.00016470472348965764, ,1.9166666666666667, ,0.7104497976762665, ,0.4455623354625416, ,0.048937776780065716
118, ,PASS, ,0.032813699999999994, ,0.004947774584343168, ,0.033277613545846005, ,0.00016452503188630924, ,1.9166666666666667, ,0.7097968513754795, ,0.4484602355053979, ,0.057182506479459605
119, ,PASS, ,0.03278137, ,0.004928207317030158, ,0.033411829619191445, ,0.00016364778982515648, ,1.8333333333333333, ,0.7122474193539327, ,0.4429705516213955, ,0.047815350707128425
120, ,PASS, ,0.03287219999999998, ,0.004928113105744496, ,0.033482386247831675, ,0.0001640991984444852, ,1.9166666666666667, ,0.7102684982182611, ,0.4430521826085182, ,0.05338666557825351
121, ,PASS, ,0.03259521000000001, ,0.004964845380551207, ,0.03352576692475664, ,0.0001634858481712835, ,1.9166666666666667, ,0.7171786555827127, ,0.44452154037672703, ,0.06028448399012265
122, ,PASS, ,0.03238892999999999, ,0.004878576648986241, ,0.033661653610334484, ,0.00015996160198164554, ,1.8333333333333333, ,0.7207542758288712, ,0.45035815595600087, ,0.05303973388298198
123, ,PASS, ,0.03264080999999999, ,0.004871874246570252, ,0.0334150921030183, ,0.0001611927751448546, ,1.8333333333333333, ,0.7111295517166608, ,0.4431134058488602, ,0.0528356564151752
124, ,PASS, ,0.032582749999999994, ,0.004883179695647054, ,0.03351219973265852, ,0.0001610496582784446, ,1.9166666666666667, ,0.7078124296660422, ,0.44484806432521784, ,0.05087651272423012
125, ,PASS, ,0.0323469, ,0.004921648593478525, ,0.03346099723230138, ,0.0001615175720539602, ,1.8333333333333333, ,0.72279032647863, ,0.44160323258709006, ,0.05695802126487214
126, ,PASS, ,0.033097749999999995, ,0.004971566118860554, ,0.033298950492643004, ,0.00016715566457240828, ,1.75, ,0.7123698412018181, ,0.4385828860635497, ,0.05414175220913859
127, ,PASS, ,0.03288613, ,0.004879071019668645, ,0.03346359449623477, ,0.00016263579875746637, ,1.8333333333333333, ,0.6963349313341551, ,0.44823575029081036, ,0.05999877553519316
128, ,PASS, ,0.032662210000000004, ,0.004896160426846755, ,0.03357050520683251, ,0.00016205032141899448, ,1.9166666666666667, ,0.7084738510558607, ,0.44370523050549987, ,0.05342748107181486
129, ,PASS, ,0.032970089999999994, ,0.004955264193461519, ,0.03352064457133527, ,0.00016557660553191754, ,1.8333333333333333, ,0.720418202872511, ,0.4363992571580172, ,0.06075386216607824
130, ,PASS, ,0.033289080000000006, ,0.004898258003565904, ,0.0336519941907308, ,0.00016534719047772822, ,1.9166666666666667, ,0.7032652269845465, ,0.44233791147119444, ,0.053162180363666045
131, ,PASS, ,0.033422839999999995, ,0.005024988637699285, ,0.03370931693006265, ,0.0001702357262245745, ,1.9166666666666667, ,0.7098463416733439, ,0.445154180526928, ,0.054692761372216896
132, ,PASS, ,0.03379489999999999, ,0.005128296771276286, ,0.03364785370931205, ,0.00017554231325676804, ,1.8333333333333333, ,0.7170255385454338, ,0.4496847003122385, ,0.0706924348482684
133, ,PASS, ,0.04063632000000001, ,0.006269005041576973, ,0.03338602782249342, ,0.0002575445105818404, ,1.9166666666666667, ,0.7276219645966107, ,0.4443582784024816, ,0.05116222117915961
134, ,PASS, ,0.13638762000000004, ,0.021153286194796783, ,0.03124299194261342, ,0.002894503383326062, ,1.8333333333333333, ,0.7386150297543157, ,0.46162323217893514, ,0.05734576845370502
135, ,PASS, ,0.032397569999999994, ,0.004796303914566061, ,0.03350251832819738, ,0.00015795840132141884, ,1.8333333333333333, ,0.7119215640962988, ,0.4410930389175731, ,0.051407114140527746
136, ,PASS, ,0.028699549999999983, ,0.004183890250442377, ,0.03360118354543785, ,0.00012195343279386316, ,1.75, ,0.6950002225014895, ,0.4423175037244138, ,0.06248852064243587
137, ,PASS, ,0.028936930000000003, ,0.0041835991678372975, ,0.03382784856227424, ,0.00012285052589007867, ,1.75, ,0.6873172440101964, ,0.43958286565580296, ,0.05410093671557723
138, ,PASS, ,0.028681899999999993, ,0.004159415985836415, ,0.03382558027448419, ,0.00012073306687142303, ,1.8333333333333333, ,0.687415203002882, ,0.44121548539825717, ,0.05961102834636028
139, ,PASS, ,0.02855272999999999, ,0.0041488394749432155, ,0.033646062640354274, ,0.00012040409444134614, ,1.8333333333333333, ,0.6898427015072942, ,0.4458276361706904, ,0.05361115079284096
140, ,PASS, ,0.028371309999999986, ,0.004147263041188108, ,0.03370201462602804, ,0.00011947997052387532, ,1.75, ,0.7022515616487832, ,0.44329707556988635, ,0.05689679802453011
141, ,PASS, ,0.028623239999999984, ,0.004167687434904711, ,0.03371986624456644, ,0.00012113849665612658, ,1.8333333333333333, ,0.6946775810726152, ,0.4438480847329646, ,0.05432542193016469
142, ,PASS, ,0.028836289999999997, ,0.004162459526614415, ,0.033540299483684005, ,0.00012228934394892648, ,1.8333333333333333, ,0.6963429139288126, ,0.4321952613211975, ,0.05501928532070774
143, ,PASS, ,0.02873562999999999, ,0.00420815192938605, ,0.03372871571927103, ,0.00012302615324995866, ,1.75, ,0.7016444741217336, ,0.43748086773739314, ,0.055488663496663336
144, ,PASS, ,0.02876360999999999, ,0.004218550099177229, ,0.03391125848962266, ,0.0001229767400073241, ,1.8333333333333333, ,0.6933651302908226, ,0.4474806636599253, ,0.05367237403318299
145, ,PASS, ,0.028346449999999992, ,0.00418342424314342, ,0.033734569967347604, ,0.00012035322780507381, ,1.8333333333333333, ,0.6979084209865303, ,0.44366441501193854, ,0.0544070529172874
146, ,PASS, ,0.028685609999999993, ,0.0041710509462781035, ,0.03378891066978225, ,0.00012133951882292593, ,1.8333333333333333, ,0.6969094033727149, ,0.4442766474153589, ,0.05044795004183588
147, ,PASS, ,0.028523389999999992, ,0.00413527363564256, ,0.033798264859084506, ,0.0001198958926078603, ,1.8333333333333333, ,0.6893398478347368, ,0.442684843166466, ,0.05850901002020367
148, ,PASS, ,0.02857621999999999, ,0.004146843089944752, ,0.033872750718964915, ,0.0001202117304508468, ,1.8333333333333333, ,0.6894829687125741, ,0.4446439868574111, ,0.05544784800310198
149, ,PASS, ,0.02851431, ,0.004168216093376633, ,0.03373965510724271, ,0.00012108223808031848, ,1.75, ,0.7023770647934637, ,0.43607273320952633, ,0.05252954021346503
150, ,PASS, ,0.028434600000000004, ,0.004133619814600001, ,0.0336611811846697, ,0.00011937056732660607, ,1.75, ,0.6882203378279645, ,0.44209301850982635, ,0.05044795004183588
151, ,PASS, ,0.028632969999999997, ,0.004075699123343015, ,0.03379790565335401, ,0.00011863267609071613, ,1.75, ,0.6774779284651818, ,0.4412767086385992, ,0.05501928532070774
152, ,PASS, ,0.028333349999999993, ,0.004188782422665175, ,0.03371309612824228, ,0.00012069938169290675, ,1.8333333333333333, ,0.7029061762979519, ,0.44366441501193854, ,0.055243770535295195
153, ,PASS, ,0.028611759999999993, ,0.004181822901169507, ,0.03377483281830983, ,0.00012118659989721243, ,1.8333333333333333, ,0.692915198393161, ,0.4468480235097243, ,0.0566314973163813
154, ,PASS, ,0.028401129999999993, ,0.0041228609657614525, ,0.03369066945572539, ,0.00011919713717277149, ,1.75, ,0.6958181609785983, ,0.4371135282953409, ,0.05495806208036571
155, ,PASS, ,0.02853986999999998, ,0.0041192262863810865, ,0.03380227563233403, ,0.0001193920735816776, ,1.8333333333333333, ,0.6834938025604659, ,0.44419501642823617, ,0.05212138527785147
156, ,PASS, ,0.028644600000000006, ,0.0041600552814320384, ,0.0339193104510112, ,0.0001214564763608539, ,1.8333333333333333, ,0.6931814801837926, ,0.4399910205914165, ,0.058447786779861635
157, ,PASS, ,0.028647800000000005, ,0.004171610439586747, ,0.03377619792473623, ,0.00012124714586586057, ,1.8333333333333333, ,0.6932832773964743, ,0.44254198893900126, ,0.05581518744515418
158, ,PASS, ,0.028559389999999994, ,0.004183226065477093, ,0.033687375339686944, ,0.00012102294490481166, ,1.8333333333333333, ,0.691229945972647, ,0.441480786106406, ,0.04671333238097182
159, ,PASS, ,0.02838769, ,0.004177616928625233, ,0.03363171484847248, ,0.00012054194368169999, ,1.75, ,0.7006695789946776, ,0.43825636211505886, ,0.0569988367584335
160, ,PASS, ,0.028930719999999986, ,0.004152014033275717, ,0.03367801061733434, ,0.00012212614598926656, ,1.8333333333333333, ,0.6861997390330428, ,0.44703169323075037, ,0.05522336278851452
161, ,PASS, ,0.028615399999999982, ,0.004191646661928993, ,0.033745800270198564, ,0.00012166521395024388, ,1.8333333333333333, ,0.6897503098994617, ,0.437868614926226, ,0.052264239505316216
162, ,PASS, ,0.02906146999999999, ,0.004355181720956422, ,0.03376710762127303, ,0.0001281929775557367, ,1.9166666666666667, ,0.7082765397100508, ,0.4417256790677741, ,0.05491724658680435
163, ,PASS, ,0.028696969999999992, ,0.004180564223932825, ,0.03371879399828575, ,0.00012162389595552137, ,1.8333333333333333, ,0.6970511713232697, ,0.44703169323075037, ,0.051427521887308425
164, ,PASS, ,0.028589850000000003, ,0.004191085229805538, ,0.03397879865492541, ,0.0001211712846601973, ,1.9166666666666667, ,0.6882021636071083, ,0.44817452705046834, ,0.05661108956960062
165, ,PASS, ,0.028800299999999984, ,0.004134853897973423, ,0.033759836793942975, ,0.0001211826835096927, ,1.75, ,0.6827098745243457, ,0.4434603375441318, ,0.04834595212342605
166, ,PASS, ,0.028781519999999998, ,0.00418419712847029, ,0.033930615789473685, ,0.00012266105508152973, ,1.8333333333333333, ,0.7028976378529702, ,0.4489704291749148, ,0.053162180363666045
167, ,PASS, ,0.02855886999999999, ,0.004129086327436959, ,0.033657573111977306, ,0.0001202185920942256, ,1.75, ,0.6874166106481836, ,0.4355421317932287, ,0.05095814371135283
168, ,PASS, ,0.028970669999999987, ,0.004195856385791572, ,0.03397734000163262, ,0.00012352928384958329, ,1.75, ,0.6878311412935687, ,0.44078692271586295, ,0.053570335299279605
169, ,PASS, ,0.028691129999999978, ,0.004207993111092536, ,0.033715876365380294, ,0.0001224706034891899, ,1.8333333333333333, ,0.6955462304321365, ,0.44458276361706905, ,0.06193751147935756
170, ,PASS, ,0.02875349000000001, ,0.004203048992364602, ,0.033724188215138465, ,0.00012286731591572097, ,1.75, ,0.6968130018572701, ,0.4393175649476541, ,0.04961123242382808
171, ,PASS, ,0.029638119999999997, ,0.004412242461400437, ,0.03371362149956123, ,0.00013221729855715023, ,1.9166666666666667, ,0.7016554590824029, ,0.4480112650762229, ,0.054774392359339605
172, ,PASS, ,0.028650239999999993, ,0.004151399460469152, ,0.03390462248831656, ,0.00012061167112251325, ,1.8333333333333333, ,0.6870433914263273, ,0.44482765657843715, ,0.05279484092161384
173, ,PASS, ,0.0283725, ,0.004090906117647637, ,0.03344916323911756, ,0.00011840325644094302, ,1.8333333333333333, ,0.6981163565064726, ,0.43241974653578497, ,0.05420297544948062
174, ,PASS, ,0.028663169999999995, ,0.004072013734011551, ,0.0338532890616518, ,0.00011833486952420502, ,1.9166666666666667, ,0.6746073628446941, ,0.44786841084875817, ,0.05997836778841248
175, ,PASS, ,0.02860758, ,0.004062201926319652, ,0.0338480405416216, ,0.00011836246775051617, ,1.75, ,0.6796546673415589, ,0.4388073712781372, ,0.055264178282075874
176, ,PASS, ,0.028897129999999997, ,0.004238327848294646, ,0.03394200421583233, ,0.0001246095577463109, ,1.8333333333333333, ,0.7031384718579138, ,0.4446848023509724, ,0.06832513622170976
177, ,PASS, ,0.028587499999999995, ,0.004193239137525359, ,0.03353292272218934, ,0.00012203072165117771, ,1.75, ,0.7035658723463409, ,0.436725781106508, ,0.05859064100732638
178, ,PASS, ,0.028564859999999997, ,0.004201194220675849, ,0.03385511430093264, ,0.00012146011882857318, ,1.9166666666666667, ,0.695612166339111, ,0.446868431256505, ,0.06150894879696333
179, ,PASS, ,0.02865445999999999, ,0.0041344529716772155, ,0.03356821006550886, ,0.00012016978923563234, ,1.8333333333333333, ,0.6904482011256945, ,0.44066447623517885, ,0.05161119160833452
180, ,PASS, ,0.02864332000000001, ,0.0041335873967184526, ,0.03378359523479113, ,0.00012003592101223472, ,1.8333333333333333, ,0.680532011082611, ,0.4468480235097243, ,0.05822330156527418
181, ,PASS, ,0.028801680000000007, ,0.004173280049088526, ,0.033542916828840225, ,0.00012210445441253516, ,1.8333333333333333, ,0.6933928055119792, ,0.43505234587049246, ,0.05583559519193486
182, ,PASS, ,0.02868464, ,0.004110606011928336, ,0.033692982457296794, ,0.00011989666451932054, ,1.75, ,0.6803989336580278, ,0.4415624170935287, ,0.0542233831962613
183, ,PASS, ,0.028710829999999996, ,0.004140595650167069, ,0.03349839729087161, ,0.0001207438514012129, ,1.75, ,0.6896533188857674, ,0.4411950776514765, ,0.0514479296340891
184, ,PASS, ,0.02878263000000001, ,0.0041093048626189435, ,0.03370232874676027, ,0.00011999243109172104, ,1.8333333333333333, ,0.6792561717318109, ,0.4410114079304504, ,0.05248872471990368
185, ,PASS, ,0.028917860000000007, ,0.004084386434513176, ,0.03367840250464276, ,0.00012035845270159372, ,1.75, ,0.6717109343356797, ,0.4363176261708945, ,0.05048876553539724
186, ,PASS, ,0.028999670000000005, ,0.004108698939614136, ,0.03369283533927879, ,0.00012128771445263542, ,1.75, ,0.6766231711860171, ,0.4414399706128446, ,0.04936633946245995
187, ,PASS, ,0.029091180000000005, ,0.004214796858864138, ,0.033845619719801635, ,0.0001239739659497595, ,1.9166666666666667, ,0.685156493727139, ,0.44717454745821517, ,0.053876451500989776
188, ,PASS, ,0.029011659999999984, ,0.004220120231214637, ,0.03374779106140691, ,0.00012385360623348623, ,1.8333333333333333, ,0.6948070349553539, ,0.4442562396685782, ,0.0507948817371074
189, ,PASS, ,0.02905033, ,0.004181128972588312, ,0.033589721023448496, ,0.00012351657432986345, ,1.8333333333333333, ,0.6837284593635121, ,0.44086855370298567, ,0.04920307748821453
190, ,PASS, ,0.02910741999999999, ,0.004167958468711258, ,0.0338369881975878, ,0.00012349212627850624, ,1.75, ,0.6854907497880393, ,0.4388685945184792, ,0.05306014162976266
191, ,PASS, ,0.028874359999999995, ,0.004211332181402897, ,0.03390398083835024, ,0.000123378481376987, ,1.8333333333333333, ,0.6882447674598619, ,0.44413379318789414, ,0.05489683884002367
192, ,PASS, ,0.029354770000000002, ,0.0041759624234800775, ,0.03363331943082794, ,0.0001247641174497352, ,1.75, ,0.6857870175487455, ,0.43921552621375076, ,0.0561621191404257
193, ,PASS, ,0.029283330000000003, ,0.004214879318525812, ,0.03398690165649681, ,0.00012532557321969046, ,1.8333333333333333, ,0.6776867445749679, ,0.4444399093896043, ,0.049794902144854186
194, ,PASS, ,0.02892206999999999, ,0.004105769641758373, ,0.03350585556131507, ,0.00012088508215539823, ,1.75, ,0.6763871910601569, ,0.43911348747984735, ,0.0557947796983735
195, ,PASS, ,0.029336139999999986, ,0.004142968223869508, ,0.033529617542295054, ,0.00012406025354578203, ,1.75, ,0.6768807116254582, ,0.4351135691108345, ,0.05383563600742842
196, ,PASS, ,0.029675080000000006, ,0.004261173354126082, ,0.03374808498846962, ,0.0001289108572520158, ,1.75, ,0.6925876715280889, ,0.4351339768576151, ,0.051121405685598253
197, ,PASS, ,0.036081240000000014, ,0.005412618840118503, ,0.033460299895308264, ,0.00019783728964531053, ,1.8333333333333333, ,0.7123267133460847, ,0.44492969531234056, ,0.06234566641497112
198, ,PASS, ,0.12442252, ,0.0193495153626649, ,0.031044757191689965, ,0.0024154286649712936, ,1.9166666666666667, ,0.7372868637315464, ,0.4572967898614314, ,0.059733474827044344
199, ,PASS, ,0.031167169999999984, ,0.004501834364732705, ,0.03342086522356687, ,0.00014273545469106015, ,1.75, ,0.6874753077754457, ,0.44041958327381076, ,0.05867227199444909
200, ,PASS, ,0.02812400000000001, ,0.004011912341339193, ,0.03384857966143548, ,0.00011484240757461567, ,1.75, ,0.6830091539925791, ,0.440909369196547, ,0.05093773596457215
201, ,PASS, ,0.028275250000000005, ,0.003956498078145397, ,0.03356031076059672, ,0.00011415303873102666, ,1.75, ,0.6725213339094144, ,0.4356237627803514, ,0.0530193261362013
202, ,PASS, ,0.028273269999999993, ,0.0039820531971284275, ,0.03370156217669027, ,0.000114538329151817, ,1.8333333333333333, ,0.6673329339113139, ,0.4497051080590192, ,0.05689679802453011
203, ,PASS, ,0.028835090000000004, ,0.003999717856081975, ,0.033652236871900575, ,0.00011755392070226953, ,1.75, ,0.6767320999434772, ,0.43660333462582396, ,0.04873369931225893
204, ,PASS, ,0.028195559999999988, ,0.003966275342962785, ,0.03369064576151507, ,0.00011402980776197652, ,1.75, ,0.6702926767772324, ,0.4380726923940328, ,0.05038672680149385
205, ,PASS, ,0.02813628999999999, ,0.004012847788786306, ,0.033713239009407966, ,0.00011453946496673795, ,1.9166666666666667, ,0.6730813404297699, ,0.4426440276729046, ,0.056407012101793844
206, ,PASS, ,0.02806073999999999, ,0.003944142361061246, ,0.03386043138364523, ,0.00011272933854618777, ,1.75, ,0.6676015502125228, ,0.4392971572008735, ,0.060468153711148755
207, ,PASS, ,0.028546520000000006, ,0.00394023471117527, ,0.03372057468643497, ,0.00011465347415803951, ,1.75, ,0.6680002940107769, ,0.43588906348850026, ,0.04593783800330605
208, ,PASS, ,0.028154989999999984, ,0.003978453165139695, ,0.033884896698434724, ,0.00011426415700627151, ,1.75, ,0.6779157352077221, ,0.43409318177180056, ,0.050998959204914186
209, ,PASS, ,0.028291790000000015, ,0.004018328649758145, ,0.033759493657476373, ,0.0001153681648243793, ,1.75, ,0.678049761598018, ,0.4440521622007714, ,0.049815309891634865
210, ,PASS, ,0.02817142999999999, ,0.00394638034334002, ,0.03374999281341197, ,0.00011351874649468663, ,1.75, ,0.6722673863900765, ,0.43241974653578497, ,0.05328462684435011
211, ,PASS, ,0.028095279999999993, ,0.00404000953499485, ,0.0338913158282484, ,0.00011505351448880387, ,1.8333333333333333, ,0.6841198621552849, ,0.4502561172220975, ,0.060080406522315874
212, ,PASS, ,0.028087789999999998, ,0.003935708286788941, ,0.0337522836409461, ,0.00011244888107449877, ,1.8333333333333333, ,0.6709865621212832, ,0.44623579110630396, ,0.05369278177996367
213, ,PASS, ,0.02817403, ,0.003970236333102917, ,0.03361404744127671, ,0.00011376473038244195, ,1.8333333333333333, ,0.6786797120309637, ,0.44446031713638495, ,0.05040713454827452
214, ,PASS, ,0.02802424, ,0.0038837773550915774, ,0.033581725786208445, ,0.00011071981235044078, ,1.75, ,0.6735627173889471, ,0.43654211138548193, ,0.04844799085732944
215, ,PASS, ,0.028092089999999986, ,0.003964574837370932, ,0.033601673283606456, ,0.0001132924746967189, ,1.75, ,0.6757464374827417, ,0.4393379726944348, ,0.045346013346666394
216, ,PASS, ,0.028155879999999977, ,0.003971885263849818, ,0.03364658724250525, ,0.00011384198245703079, ,1.75, ,0.675321073126137, ,0.4417664945613355, ,0.05738658394726638
217, ,PASS, ,0.028221059999999982, ,0.0040058180825591596, ,0.033855388739617555, ,0.00011504112448603847, ,1.75, ,0.6780681215041134, ,0.43997061284463584, ,0.06073345441929757
218, ,PASS, ,0.028324699999999984, ,0.003926603199348676, ,0.03360090752596886, ,0.00011300317195461411, ,1.8333333333333333, ,0.6560761018028446, ,0.44199097977592294, ,0.04914185424787249
219, ,PASS, ,0.028222519999999984, ,0.003983012404459039, ,0.03381688878777984, ,0.00011395047809250853, ,1.75, ,0.6766021822814698, ,0.44382767698618397, ,0.044141956286606394
220, ,PASS, ,0.02818813000000001, ,0.00393964140385254, ,0.033771782343625635, ,0.00011300502684988735, ,1.75, ,0.6711538148080327, ,0.4419093487888002, ,0.061815064998673494
221, ,PASS, ,0.028299249999999988, ,0.003977020240415613, ,0.03363540558253913, ,0.0001147349091758823, ,1.75, ,0.6830062591244431, ,0.4368074120936307, ,0.05538662476275994
222, ,PASS, ,0.027739559999999986, ,0.00393483921940075, ,0.03363183981449358, ,0.00011098432406650126, ,1.75, ,0.6727046406603286, ,0.43958286565580296, ,0.05530499377563723
223, ,PASS, ,0.028131209999999976, ,0.0038960848700097914, ,0.03351310373441358, ,0.0001116670282503802, ,1.8333333333333333, ,0.6640669594919847, ,0.4419093487888002, ,0.05463153813187486
224, ,PASS, ,0.02836069000000001, ,0.003925181410844643, ,0.03381706490602233, ,0.00011376963364368504, ,1.75, ,0.666885737252475, ,0.43170547539846127, ,0.0507948817371074
225, ,PASS, ,0.028534189999999987, ,0.003972936846841705, ,0.03342876850676517, ,0.00011530788645370215, ,1.75, ,0.6745755011546037, ,0.4326850472439338, ,0.0484888063508908
226, ,PASS, ,0.029194199999999997, ,0.00409781123309287, ,0.033676686591906285, ,0.00012182257540335799, ,1.75, ,0.6874688450271792, ,0.4310116120079182, ,0.048141874655619275
227, ,PASS, ,0.028293699999999995, ,0.003938542023233278, ,0.033611207033734006, ,0.00011349186211312385, ,1.75, ,0.6748756404727669, ,0.43633803391767517, ,0.05789677761678333
228, ,PASS, ,0.02823010999999998, ,0.004000046945412849, ,0.033545396810677336, ,0.00011500299435920355, ,1.75, ,0.6812160007948259, ,0.4371543437889023, ,0.053590743046060284
229, ,PASS, ,0.028089889999999992, ,0.0039244906605786015, ,0.03369933928634109, ,0.00011229756893625859, ,1.75, ,0.6626663348149304, ,0.440276729046346, ,0.05408052896879655
230, ,PASS, ,0.02814640999999999, ,0.004015801905221447, ,0.033485241056509046, ,0.00011488521683004019, ,1.75, ,0.6827857199246286, ,0.43662374237260465, ,0.04801942817493521
231, ,PASS, ,0.02808601999999999, ,0.004010164866100666, ,0.033902277201689764, ,0.00011395800745384285, ,1.8333333333333333, ,0.6832304743363647, ,0.4507254953980531, ,0.051876492316483336
232, ,PASS, ,0.028162640000000003, ,0.00398798335973253, ,0.03378091859023285, ,0.00011432842109876223, ,1.8333333333333333, ,0.6763016850695065, ,0.44170527132099346, ,0.05324381135078876
233, ,PASS, ,0.028077979999999975, ,0.0039022249229229, ,0.03361601289953266, ,0.00011127071061561706, ,1.8333333333333333, ,0.6670050775574634, ,0.44078692271586295, ,0.05124385216628232
234, ,PASS, ,0.028808449999999996, ,0.004160746557474927, ,0.033814028098406154, ,0.00012140657727109621, ,1.8333333333333333, ,0.6824846808973957, ,0.4438072692394033, ,0.04952960143670537
235, ,PASS, ,0.02824859, ,0.0039700531121583255, ,0.034008805350094894, ,0.0001134889107595146, ,1.8333333333333333, ,0.6680636372631833, ,0.44662353829513685, ,0.04891736903328504
236, ,PASS, ,0.02832707999999998, ,0.003955045782040288, ,0.033824197787392096, ,0.00011387796983877806, ,1.75, ,0.6666747624076926, ,0.44080733046264364, ,0.05293769514907859
237, ,PASS, ,0.028576779999999986, ,0.004006882158951201, ,0.033778756930674884, ,0.00011635700062868208, ,1.8333333333333333, ,0.6702962763904323, ,0.44199097977592294, ,0.05177445358257995
238, ,PASS, ,0.028391100000000002, ,0.003925210572176948, ,0.03349460784698271, ,0.00011377471666221477, ,1.8333333333333333, ,0.667098418944751, ,0.4333176873941348, ,0.056060080406522314
239, ,PASS, ,0.028536139999999984, ,0.003986781939077371, ,0.03376962792494031, ,0.00011563977169969804, ,1.8333333333333333, ,0.664541686807848, ,0.44152160159996734, ,0.04428481051407114
240, ,PASS, ,0.028380059999999985, ,0.003995087230826398, ,0.03357759360033468, ,0.0001150199291713055, ,1.75, ,0.674205326805654, ,0.44368482275871923, ,0.05608048815330299
241, ,PASS, ,0.028436479999999983, ,0.0039534281277327984, ,0.03371288306483541, ,0.00011432160490048848, ,1.8333333333333333, ,0.6708152171860251, ,0.4389706332523826, ,0.05536621701597927
242, ,PASS, ,0.0285576, ,0.0039726950276745675, ,0.033584492243831754, ,0.00011549911958451013, ,1.75, ,0.6648631476637511, ,0.4379502459133487, ,0.04871329156547825
243, ,PASS, ,0.028209179999999993, ,0.0039998487713148005, ,0.03388705266688435, ,0.0001142820739183623, ,1.8333333333333333, ,0.6710495272370082, ,0.44778677986163545, ,0.05003979510622232
244, ,PASS, ,0.028654409999999977, ,0.004019315253137076, ,0.0336069929625926, ,0.00011741570612275613, ,1.8333333333333333, ,0.6762937582906335, ,0.43825636211505886, ,0.05489683884002367
245, ,PASS, ,0.028776669999999994, ,0.004065419005894536, ,0.03375627616558846, ,0.00011902612458736543, ,1.75, ,0.6765824347209631, ,0.438501255076427, ,0.05212138527785147
246, ,PASS, ,0.02866090999999999, ,0.003968941472179377, ,0.03360838416073141, ,0.00011569510700711893, ,1.75, ,0.6583162967501218, ,0.4389502255056019, ,0.05214179302463215
247, ,PASS, ,0.028791399999999998, ,0.003954640557427647, ,0.03365011532866676, ,0.00011559789685917278, ,1.75, ,0.6508004635038606, ,0.436664557866166, ,0.04232566682312606
248, ,PASS, ,0.028803279999999994, ,0.003978376787848409, ,0.033576749420011834, ,0.00011633584871498584, ,1.8333333333333333, ,0.6591107944555847, ,0.4437868614926226, ,0.05179486132936063
249, ,PASS, ,0.029084979999999986, ,0.00401066522407317, ,0.03363929662476276, ,0.0001180852359930541, ,1.8333333333333333, ,0.6661201346160845, ,0.43497071488336975, ,0.0516315993551152
250, ,PASS, ,0.02870559999999998, ,0.003965769775769714, ,0.03336797761351809, ,0.00011605906898720184, ,1.75, ,0.6628413436457515, ,0.43788902267300667, ,0.0554274402563213
251, ,PASS, ,0.028823079999999994, ,0.003968984353860129, ,0.033612967343319526, ,0.0001163486480353218, ,1.8333333333333333, ,0.6643738419852536, ,0.44466439460419177, ,0.047835758453909104
252, ,PASS, ,0.02846266999999999, ,0.003974286987033124, ,0.033602480026121914, ,0.0001149981561734235, ,1.75, ,0.6680478532208473, ,0.43688904308075344, ,0.048121466908838596
253, ,PASS, ,0.028876339999999993, ,0.003990584090059878, ,0.03361846289524704, ,0.00011731943648262983, ,1.75, ,0.6675557515849545, ,0.4389094100120406, ,0.04681537111487521
254, ,PASS, ,0.02879640999999999, ,0.004007319033119158, ,0.033472190484683986, ,0.00011758328330228146, ,1.75, ,0.6666464709911775, ,0.43780739168588395, ,0.05948858186567621
255, ,PASS, ,0.028869429999999998, ,0.0040369962432580805, ,0.03361791318503704, ,0.00011826798331840824, ,1.8333333333333333, ,0.671492183413139, ,0.4442562396685782, ,0.055958041672618926
