Channel, ,Pass/Fail, ,Amplitude, ,Sorting Function Response, ,Mean, ,Variance, ,NPeaksRatio, ,PosIntegralRatio, ,ToT50, ,ToT99
0, ,PASS, ,0.07118426599999998, ,0.010931190746706329, ,0.033036728814860916, ,0.0007889950081796049, ,1.8333333333333333, ,0.6938019480406846, ,0.4230525907634538, ,0.08730434072774025
1, ,PASS, ,0.070751371, ,0.010910380593343842, ,0.033126834544682765, ,0.000782469389522351, ,1.8333333333333333, ,0.6965630698061521, ,0.4235015611926287, ,0.09340625701516296
2, ,PASS, ,0.07083658699999999, ,0.010933014621639986, ,0.03308507894714394, ,0.0007849243333190458, ,1.8333333333333333, ,0.6961433805807358, ,0.42362400767331276, ,0.09071243444011347
3, ,PASS, ,0.07057579099999998, ,0.010894347122703875, ,0.033242120063855844, ,0.0007791652847658364, ,1.8333333333333333, ,0.6964615801154543, ,0.4238280851411196, ,0.09436542111385482
4, ,PASS, ,0.07052959999999998, ,0.010890805565191956, ,0.03312680001591804, ,0.000778559701405603, ,1.8333333333333333, ,0.6948967598325883, ,0.4226648435746209, ,0.09010020203669312
5, ,PASS, ,0.07049789699999998, ,0.010885941375443436, ,0.03305671711883431, ,0.0007778285327227775, ,1.8333333333333333, ,0.6959603139820267, ,0.42329748372482195, ,0.09193689924695414
6, ,PASS, ,0.07056709099999998, ,0.010855202831753433, ,0.033240321199383686, ,0.0007765323747761023, ,1.8333333333333333, ,0.6944495043332526, ,0.4229505520295504, ,0.08787575763759924
7, ,PASS, ,0.07023666999999997, ,0.010810402718010795, ,0.033104591021142424, ,0.0007693406445321147, ,1.8333333333333333, ,0.6953536027822934, ,0.42309340625701514, ,0.08669210832431991
8, ,PASS, ,0.07011226100000001, ,0.010788139824446352, ,0.03311215293530744, ,0.0007666723150362875, ,1.8333333333333333, ,0.6953718341321509, ,0.42309340625701514, ,0.0911409971225077
9, ,PASS, ,0.06991141700000002, ,0.010823389635996824, ,0.033180133780535095, ,0.0007669138456402999, ,1.8333333333333333, ,0.6971042119518578, ,0.4228893287892084, ,0.09514091549152058
10, ,PASS, ,0.069893578, ,0.010780079272438153, ,0.03311884517001694, ,0.0007636456417088359, ,1.8333333333333333, ,0.6955434347479472, ,0.42282810554886635, ,0.09107977388216568
11, ,PASS, ,0.06979225699999997, ,0.010739163220158035, ,0.03319014408859003, ,0.0007597964018414174, ,1.8333333333333333, ,0.6947493882264583, ,0.4226444358278402, ,0.0879165731311606
12, ,PASS, ,0.06964644999999997, ,0.010724839059024036, ,0.0333701540084488, ,0.0007570946175929477, ,1.8333333333333333, ,0.6946304915816321, ,0.4227056590681823, ,0.08916144568478195
13, ,PASS, ,0.06954429700000003, ,0.010708295175739546, ,0.03319419683386054, ,0.000754697448620154, ,1.8333333333333333, ,0.6950230631045464, ,0.422787290055305, ,0.09228383094222567
14, ,PASS, ,0.06928774200000001, ,0.010693181679060285, ,0.03323653848292892, ,0.0007510069200399149, ,1.8333333333333333, ,0.6953216201370249, ,0.42272606681496294, ,0.09056958021264871
15, ,PASS, ,0.06881025800000001, ,0.010661186063478368, ,0.03323420890061427, ,0.0007433907723252436, ,1.8333333333333333, ,0.6974558717367761, ,0.42282810554886635, ,0.09552866268035347
16, ,PASS, ,0.06877159500000003, ,0.010634246475619443, ,0.03316228503338708, ,0.0007409299214010283, ,1.8333333333333333, ,0.6955468580378379, ,0.42280769780208566, ,0.09069202669333279
17, ,PASS, ,0.06876919600000003, ,0.010608885965628588, ,0.03312740265110916, ,0.0007393954568691695, ,1.8333333333333333, ,0.6947205871374942, ,0.4226852513214016, ,0.08710026325993347
18, ,PASS, ,0.06872154700000002, ,0.010604733585183164, ,0.033344507627844334, ,0.0007386482804021135, ,1.8333333333333333, ,0.6951138446339165, ,0.42246076610681416, ,0.088651252015265
19, ,PASS, ,0.06858630000000003, ,0.010538231456800098, ,0.03329512294779698, ,0.0007323601194971904, ,1.8333333333333333, ,0.6931896942021725, ,0.4229709597763311, ,0.08436562519132262
20, ,PASS, ,0.068531817, ,0.010548642250800214, ,0.033180167246852105, ,0.0007325075991595083, ,1.8333333333333333, ,0.6948524332609242, ,0.4227056590681823, ,0.08734515622130161
21, ,PASS, ,0.068507139, ,0.01057712657224642, ,0.033240397888145146, ,0.000734501737646131, ,1.8333333333333333, ,0.6944362875118079, ,0.42207301891798127, ,0.08856962102814228
22, ,PASS, ,0.06874812699999999, ,0.010602123973383325, ,0.0334844874844595, ,0.0007387329332881483, ,1.8333333333333333, ,0.6937702214141138, ,0.42164445623558705, ,0.08646762310973245
23, ,PASS, ,0.06890859600000002, ,0.010562075547129127, ,0.03327357669096549, ,0.0007376323746156829, ,1.8333333333333333, ,0.6940616616399998, ,0.4225832125874982, ,0.0876308646762311
24, ,PASS, ,0.06882008000000005, ,0.010563654530670215, ,0.03303342303969307, ,0.0007370073296351241, ,1.8333333333333333, ,0.6925728904164017, ,0.4220526111712006, ,0.08416154772351585
25, ,PASS, ,0.06894925600000001, ,0.010592018663169757, ,0.033240427761249774, ,0.0007404309148798734, ,1.8333333333333333, ,0.693651478965188, ,0.4219505724372972, ,0.08959000836717618
26, ,PASS, ,0.06863477, ,0.010561040829655319, ,0.0331818031804453, ,0.0007349565847491087, ,1.8333333333333333, ,0.6941862948251116, ,0.4217464949694904, ,0.08946756188649212
27, ,PASS, ,0.07015728599999999, ,0.010719275221954377, ,0.03302352746041918, ,0.0007626660746454868, ,1.75, ,0.6900128988082781, ,0.42033836044162365, ,0.08961041611395686
28, ,PASS, ,0.06875150900000002, ,0.010577182044311038, ,0.03342014444007265, ,0.0007372055051825488, ,1.8333333333333333, ,0.6939724627906182, ,0.42154241750168364, ,0.09067161894655211
29, ,PASS, ,0.06871518100000001, ,0.010557697306467337, ,0.03328772492269546, ,0.0007354290929608084, ,1.8333333333333333, ,0.6938142092002748, ,0.42201179567763925, ,0.09034509499806126
30, ,PASS, ,0.06883891899999998, ,0.010570241871223867, ,0.033332569711883434, ,0.0007375039259753116, ,1.8333333333333333, ,0.6921494827127793, ,0.4212158935531928, ,0.08754923368910839
31, ,PASS, ,0.06868425499999999, ,0.010549431004962877, ,0.03306542948811249, ,0.0007344106498481354, ,1.8333333333333333, ,0.6933945428713132, ,0.4219505724372972, ,0.09075324993367483
32, ,PASS, ,0.06875266900000002, ,0.010551431765756606, ,0.033095411863186465, ,0.0007355599555919866, ,1.8333333333333333, ,0.6922769102591574, ,0.4209914083386053, ,0.0872635252341789
33, ,PASS, ,0.068632893, ,0.010556548162303794, ,0.03309654112030367, ,0.0007345570728116582, ,1.8333333333333333, ,0.69349664020826, ,0.4209097773514826, ,0.09087569641435889
34, ,PASS, ,0.06859383100000001, ,0.010523569702685795, ,0.033362978093610336, ,0.0007318630406887118, ,1.8333333333333333, ,0.692693662839063, ,0.42123630129997347, ,0.09016142527703516
35, ,PASS, ,0.069762705, ,0.01064126863847396, ,0.03298803700426522, ,0.0007530505796048412, ,1.8333333333333333, ,0.6896675026403686, ,0.42033836044162365, ,0.089283892165466
36, ,PASS, ,0.068697136, ,0.010538075832404688, ,0.03308044051472419, ,0.0007340629498216099, ,1.8333333333333333, ,0.6922600686844917, ,0.4205832534029918, ,0.08875329074916838
37, ,PASS, ,0.068130135, ,0.010484129111051729, ,0.03326494604303994, ,0.0007242789200265433, ,1.8333333333333333, ,0.69667743998194, ,0.42207301891798127, ,0.08924307667190466
38, ,PASS, ,0.06806033799999998, ,0.010468498308411215, ,0.03310844109281443, ,0.0007223230356383831, ,1.8333333333333333, ,0.6939125295551798, ,0.42150160200812226, ,0.0885492132813616
39, ,PASS, ,0.067956463, ,0.01046917276798962, ,0.03312729241619559, ,0.0007213237811597406, ,1.8333333333333333, ,0.6942796688927608, ,0.4213791555274382, ,0.09071243444011347
40, ,PASS, ,0.06837340700000002, ,0.010519974145357385, ,0.03312176035231934, ,0.0007290034723007745, ,1.8333333333333333, ,0.6934548872081988, ,0.4214199710209996, ,0.08828391257321279
41, ,PASS, ,0.06839904200000001, ,0.010487764557437435, ,0.03312804521058754, ,0.0007270447832687327, ,1.8333333333333333, ,0.6938437905785705, ,0.42237913511969144, ,0.08738597171486297
42, ,PASS, ,0.06806584000000002, ,0.010505573895973492, ,0.03299528042364442, ,0.0007248016535580991, ,1.8333333333333333, ,0.6946235780453122, ,0.42164445623558705, ,0.08893696047019449
43, ,PASS, ,0.06817008199999999, ,0.01047041236287477, ,0.03286551922789331, ,0.0007236545019473871, ,1.8333333333333333, ,0.6933639896113306, ,0.422154649905104, ,0.08597783718699618
44, ,PASS, ,0.06818209900000001, ,0.010476645113606632, ,0.03285493574802555, ,0.0007239135655164216, ,1.8333333333333333, ,0.6937044149133458, ,0.4221750576518847, ,0.0855900899981633
45, ,PASS, ,0.068796452, ,0.010497677941052528, ,0.03298860043601151, ,0.000731907829394937, ,1.8333333333333333, ,0.69310746017135, ,0.42233831962613005, ,0.08889614497663313
46, ,PASS, ,0.06853476400000001, ,0.010517218104760362, ,0.032926208707046795, ,0.000730730310491063, ,1.8333333333333333, ,0.6919373433463242, ,0.4214811942613416, ,0.08581457521275077
47, ,PASS, ,0.068412716, ,0.010522182347971285, ,0.03286641612824228, ,0.0007298336345161163, ,1.8333333333333333, ,0.6938500041778622, ,0.42113426256607006, ,0.08712067100671415
48, ,PASS, ,0.06885687600000004, ,0.010539815525347449, ,0.03299543834501337, ,0.0007357112426989598, ,1.8333333333333333, ,0.6918078539937443, ,0.4217056794759291, ,0.08548805126425991
49, ,PASS, ,0.068612209, ,0.010515535290417002, ,0.032878353280259585, ,0.0007311430531679802, ,1.8333333333333333, ,0.6934226837444345, ,0.4218485337033938, ,0.09140629783065651
50, ,PASS, ,0.06852495, ,0.010514998086227058, ,0.032777283416583335, ,0.0007304401372313953, ,1.8333333333333333, ,0.69240167736765, ,0.42144037876778023, ,0.08891655272341381
51, ,PASS, ,0.068667263, ,0.010525720155575374, ,0.032631647607803925, ,0.0007328195307216745, ,1.8333333333333333, ,0.6924186857362231, ,0.42107303932572804, ,0.08838595130711618
52, ,PASS, ,0.068955286, ,0.010538263875949874, ,0.03274982754194812, ,0.000736936070846522, ,1.8333333333333333, ,0.690390986072503, ,0.42097100059182463, ,0.08412073222995449
53, ,PASS, ,0.06891495200000002, ,0.010552583775691345, ,0.032894918195649075, ,0.000737313636068074, ,1.8333333333333333, ,0.6918957540776884, ,0.42117507805963145, ,0.08822268933287075
54, ,PASS, ,0.06894753800000002, ,0.010546055834867306, ,0.03286149372531173, ,0.0007372101130284466, ,1.8333333333333333, ,0.6909982154462502, ,0.4214607865145609, ,0.08671251607110059
55, ,PASS, ,0.06903309900000003, ,0.010567036380117217, ,0.03290806137605355, ,0.0007396835849594836, ,1.8333333333333333, ,0.6925990459394842, ,0.42107303932572804, ,0.08816146609252873
56, ,PASS, ,0.06906369000000001, ,0.010567042475370984, ,0.03295148767441481, ,0.0007397721058190217, ,1.8333333333333333, ,0.6913985016043341, ,0.42115467031285075, ,0.0885492132813616
57, ,PASS, ,0.06913947400000002, ,0.01057442348542523, ,0.03301822802563213, ,0.0007412379178007006, ,1.8333333333333333, ,0.6915653385059459, ,0.42144037876778023, ,0.0876308646762311
58, ,PASS, ,0.06880870100000001, ,0.010570331122999566, ,0.03282822127250464, ,0.000737304983523853, ,1.8333333333333333, ,0.6924356797851291, ,0.42119548580641214, ,0.08965123160751821
59, ,PASS, ,0.06869461700000001, ,0.0105533142291357, ,0.03281387737762494, ,0.000734915905186284, ,1.8333333333333333, ,0.6944067255250629, ,0.42209342666476196, ,0.09183486051305076
60, ,PASS, ,0.06889693000000001, ,0.010605287218784884, ,0.032827146352380564, ,0.0007406835943282699, ,1.8333333333333333, ,0.6934674973877708, ,0.42164445623558705, ,0.09044713373196465
61, ,PASS, ,0.06876984400000001, ,0.010515759656577351, ,0.03294976385524785, ,0.0007329009944745581, ,1.8333333333333333, ,0.6916816261576932, ,0.42237913511969144, ,0.08118201669353686
62, ,PASS, ,0.06838362700000002, ,0.010558016596687569, ,0.03300213669190425, ,0.0007318540577295382, ,1.8333333333333333, ,0.6955030437727387, ,0.42172608722270977, ,0.09238586967612906
63, ,PASS, ,0.068447357, ,0.010535216575503612, ,0.03286106710209996, ,0.0007310336688384953, ,1.8333333333333333, ,0.6941304528347999, ,0.42197098018407786, ,0.08538601253035652
64, ,PASS, ,0.068824485, ,0.010584425245514341, ,0.03286852088526765, ,0.0007383923301397367, ,1.8333333333333333, ,0.693560265867382, ,0.42207301891798127, ,0.08736556396808229
65, ,PASS, ,0.069732926, ,0.010676016487538256, ,0.03276915798779617, ,0.000754610496419684, ,1.8333333333333333, ,0.6923266638054463, ,0.4225423970939369, ,0.08730434072774025
66, ,PASS, ,0.096559042, ,0.013164432778412649, ,0.0298231356203453, ,0.0012954544241331732, ,1.75, ,0.640936442128928, ,0.40607334544192975, ,0.07089651231607519
67, ,PASS, ,0.14719459000000001, ,0.018419546743283426, ,0.02467441869239403, ,0.002771455050511108, ,1.6666666666666667, ,0.6131841198363647, ,0.39444092977694334, ,0.057202914226240284
68, ,PASS, ,0.071613044, ,0.010957625401793857, ,0.032769919661578335, ,0.0007954582497491684, ,1.8333333333333333, ,0.6917959736429591, ,0.42162404848880636, ,0.08677373931144262
69, ,PASS, ,0.07046706099999997, ,0.01082585908971919, ,0.03280847665092549, ,0.0007731718642964597, ,1.8333333333333333, ,0.6935845547443529, ,0.4221138344115426, ,0.08918185343156262
70, ,PASS, ,0.070484803, ,0.010835208346883281, ,0.032864484429542255, ,0.000774140862453531, ,1.8333333333333333, ,0.6930871105268958, ,0.42154241750168364, ,0.09010020203669312
71, ,PASS, ,0.07059056899999999, ,0.010812204319707136, ,0.0326991717536989, ,0.0007735083954547427, ,1.8333333333333333, ,0.6921983962706881, ,0.4212771167935348, ,0.08814105834574805
72, ,PASS, ,0.07070704600000001, ,0.010847464726429718, ,0.03272711039523683, ,0.0007775397074993566, ,1.8333333333333333, ,0.6929528870728958, ,0.42119548580641214, ,0.09032468725128058
73, ,PASS, ,0.07105430899999998, ,0.010822121591135478, ,0.032704910485786005, ,0.0007795030370851205, ,1.8333333333333333, ,0.6892805946247534, ,0.42123630129997347, ,0.08491663435440093
74, ,PASS, ,0.07066044599999999, ,0.010877812479344589, ,0.032490442441664456, ,0.0007790818544501537, ,1.8333333333333333, ,0.693352739291828, ,0.4205832534029918, ,0.09310014081345279
75, ,PASS, ,0.070388732, ,0.010814888086623215, ,0.03250348593679721, ,0.0007715659687059311, ,1.8333333333333333, ,0.692696794332397, ,0.42107303932572804, ,0.08785534989081856
76, ,PASS, ,0.07036064300000001, ,0.010794557837630595, ,0.032644522976184163, ,0.0007698952404990354, ,1.8333333333333333, ,0.6925261584737835, ,0.42117507805963145, ,0.09375318871043448
77, ,PASS, ,0.07102089389999998, ,0.01087676304264773, ,0.03267897055251934, ,0.000783217058314764, ,1.8333333333333333, ,0.6917929937794077, ,0.4200730597334748, ,0.08785534989081856
78, ,PASS, ,0.07159124599999997, ,0.010920364262630865, ,0.0326077976875778, ,0.0007925586584698716, ,1.75, ,0.6908544854810696, ,0.4204608069223077, ,0.09061039570621007
79, ,PASS, ,0.07037041900000002, ,0.010798453363517355, ,0.03265261949935716, ,0.0007704440397642674, ,1.8333333333333333, ,0.693980836721887, ,0.4212975245403155, ,0.09342666476194364
80, ,PASS, ,0.070404911, ,0.010849011924117335, ,0.032486142640313465, ,0.0007743177642404973, ,1.8333333333333333, ,0.6944548399018662, ,0.4209914083386053, ,0.09452868308810024
81, ,PASS, ,0.07042660799999999, ,0.01085044024473299, ,0.032627424055692744, ,0.0007745954549255102, ,1.8333333333333333, ,0.694015903731526, ,0.42076692312401787, ,0.08961041611395686
82, ,PASS, ,0.07034656299999999, ,0.010831372101984647, ,0.032558211728638195, ,0.0007723369198767986, ,1.8333333333333333, ,0.6947686815727985, ,0.4209914083386053, ,0.09538580845288872
83, ,PASS, ,0.070662245, ,0.010831191966542718, ,0.03269630471861799, ,0.0007757245142360617, ,1.8333333333333333, ,0.6931799777847303, ,0.4212771167935348, ,0.09056958021264871
84, ,PASS, ,0.07068020999999998, ,0.010865380545667425, ,0.03264858913932369, ,0.000778418331417482, ,1.8333333333333333, ,0.693223863878763, ,0.4209301850982633, ,0.08720230199383686
85, ,PASS, ,0.071300884, ,0.010924668519198575, ,0.032688289914246646, ,0.0007895957768750903, ,1.8333333333333333, ,0.6926807895284413, ,0.42125670904675416, ,0.0900389787963511
86, ,PASS, ,0.072542004, ,0.011045093813088745, ,0.032703424031468746, ,0.000812666585077444, ,1.75, ,0.689764541588444, ,0.419746535784984, ,0.0904063182384033
87, ,PASS, ,0.07106010699999998, ,0.010906729296512645, ,0.03262166676722924, ,0.0007856131474798355, ,1.8333333333333333, ,0.6934010963197759, ,0.421011816085386, ,0.08893696047019449
88, ,PASS, ,0.07101281199999998, ,0.010910979301096161, ,0.03253039888843085, ,0.000785363986677649, ,1.8333333333333333, ,0.6931603170825962, ,0.4209301850982633, ,0.09112058937572702
89, ,PASS, ,0.07107852199999999, ,0.010928641302948535, ,0.03264310783177894, ,0.0007872989537269978, ,1.8333333333333333, ,0.6934978233847885, ,0.420950592845044, ,0.08912063019122059
90, ,PASS, ,0.07124244500000002, ,0.010937576339823063, ,0.0326585080094896, ,0.0007900493257543015, ,1.8333333333333333, ,0.6922353188484508, ,0.4206444766433338, ,0.08965123160751821
91, ,PASS, ,0.071451977, ,0.010926630480894602, ,0.03263378272949532, ,0.000791379816791024, ,1.8333333333333333, ,0.6934203396749901, ,0.42193016469051653, ,0.08977367808820229
92, ,PASS, ,0.07126778, ,0.010931439541560445, ,0.0324032840748148, ,0.0007897258679254347, ,1.8333333333333333, ,0.6922655483577494, ,0.4209097773514826, ,0.08989612456888635
93, ,PASS, ,0.071587978, ,0.011007131804284528, ,0.03265092349205118, ,0.0007988395698033828, ,1.8333333333333333, ,0.6927441526827878, ,0.42105263157894735, ,0.0917940450194894
94, ,PASS, ,0.0721399799, ,0.011010329289749656, ,0.03263596588600232, ,0.000805127423993577, ,1.8333333333333333, ,0.6916528241479223, ,0.4213791555274382, ,0.08997775555600906
95, ,PASS, ,0.07197355799999999, ,0.01102778436005594, ,0.03258182387726781, ,0.0008047596754065172, ,1.8333333333333333, ,0.691770292089985, ,0.4205220301626497, ,0.08810024285218669
96, ,PASS, ,0.06426849200000001, ,0.010082706259864425, ,0.03387595841944042, ,0.0006535736088072033, ,1.9166666666666667, ,0.7179062127779527, ,0.43321564866023143, ,0.07344748066365993
