Channel, ,Pass/Fail, ,Amplitude, ,Sorting Function Response, ,Mean, ,Variance, ,NPeaksRatio, ,PosIntegralRatio, ,ToT50, ,ToT99
6, ,PASS, ,0.010384439999999998, ,0.0017719036082219188, ,0.028998371662619128, ,1.8558203837236777e-05, ,1.9166666666666667, ,0.7799999198478131, ,0.4826840268565948, ,0.027060672231178955
7, ,PASS, ,0.02418112, ,0.004246868534192481, ,0.02848166480173874, ,0.00010371965066775661, ,1.9166666666666667, ,0.7755895558903625, ,0.47611273239321644, ,0.11387522703618294
8, ,PASS, ,0.013409200000000013, ,0.0023228254533084127, ,0.02867569288443093, ,3.144170401169426e-05, ,1.9166666666666667, ,0.7734624436019515, ,0.4789494091957307, ,0.09314095630701415
9, ,PASS, ,0.007996980000000018, ,0.001071154660455815, ,0.02948622410971205, ,8.709564483149743e-06, ,1.8333333333333333, ,0.7275634194104864, ,0.49872451582620764, ,0.0341421603640742
10, ,PASS, ,0.007927180000000006, ,0.0009908932913820453, ,0.029215584922552607, ,7.988389747076957e-06, ,1.8333333333333333, ,0.7190691434176887, ,0.5010714067059856, ,0.026672925042346075
11, ,PASS, ,0.007940350000000006, ,0.000980481221103308, ,0.029646030942633825, ,7.933706054268118e-06, ,1.8333333333333333, ,0.7006951539092005, ,0.4974592355258056, ,0.02612191587926777
12, ,PASS, ,0.007878530000000019, ,0.0009791474984548933, ,0.02951796204567254, ,7.837372748345771e-06, ,1.8333333333333333, ,0.7272112709482081, ,0.5003571355686619, ,0.06157017203730536
13, ,PASS, ,0.008033520000000016, ,0.0010063153052827347, ,0.02946167785228873, ,8.237841636452657e-06, ,1.8333333333333333, ,0.7061236064023811, ,0.49831636089059406, ,0.042060366114977245
14, ,PASS, ,0.007846140000000015, ,0.001003260938572357, ,0.02926237631068754, ,8.010394615238584e-06, ,1.8333333333333333, ,0.7307785493154352, ,0.4997449031652415, ,0.060447745964368076
15, ,PASS, ,0.007783470000000008, ,0.0009901578173348688, ,0.029266163484010534, ,7.84117839615691e-06, ,1.8333333333333333, ,0.7221262254466154, ,0.49992857288626763, ,0.039182873818901655
16, ,PASS, ,0.008125280000000016, ,0.000989136000250814, ,0.029275266551907108, ,8.165715386369864e-06, ,1.8333333333333333, ,0.6877064950823317, ,0.49805106018244527, ,0.0327544335829881
17, ,PASS, ,0.00794377000000002, ,0.0009493877031130852, ,0.02942643312156895, ,7.697887940521174e-06, ,1.8333333333333333, ,0.7141358149977972, ,0.5004183588090039, ,0.0462643619517969
18, ,PASS, ,0.007643110000000005, ,0.0009635457159412112, ,0.029414078309830415, ,7.487167748609299e-06, ,1.8333333333333333, ,0.732967159267597, ,0.5021326095385809, ,0.05448868390441011
19, ,PASS, ,0.007773590000000021, ,0.0009309899929085378, ,0.02927656757984531, ,7.36199652679027e-06, ,1.8333333333333333, ,0.6974367928015637, ,0.4980102446888839, ,0.023407685557437604
20, ,PASS, ,0.0076528500000000305, ,0.0009458044593968473, ,0.029354529477561685, ,7.348744553686492e-06, ,1.8333333333333333, ,0.7131548017936932, ,0.49874492357298833, ,0.042141997102099954
21, ,PASS, ,0.007904220000000003, ,0.0009508223293460467, ,0.029192599891226714, ,7.636740206679378e-06, ,1.8333333333333333, ,0.6847136121301324, ,0.4968878186159466, ,0.03652986673741352
22, ,PASS, ,0.007631350000000012, ,0.0009515567032343672, ,0.029370622635252343, ,7.350962967922866e-06, ,1.8333333333333333, ,0.7209723944373523, ,0.4998673496459256, ,0.03314218077182098
23, ,PASS, ,0.007611610000000012, ,0.0009948437136132594, ,0.0293377903777474, ,7.713723983317494e-06, ,1.8333333333333333, ,0.7332291947724836, ,0.49874492357298833, ,0.052468316973123
24, ,PASS, ,0.007800600000000012, ,0.0009493308294428743, ,0.02963502955123365, ,7.554410600678918e-06, ,1.8333333333333333, ,0.7037263445181035, ,0.49841839962449747, ,0.021836289055325402
25, ,PASS, ,0.007952910000000018, ,0.0009669881543521161, ,0.029316536271912823, ,7.82123799004876e-06, ,1.75, ,0.6938015112863283, ,0.49958164119099613, ,0.020346523540335913
26, ,PASS, ,0.007621920000000008, ,0.0009571194643420888, ,0.0292542667874125, ,7.439177255827718e-06, ,1.8333333333333333, ,0.7256014058570895, ,0.5002346890879777, ,0.057978408603906045
27, ,PASS, ,0.007841400000000009, ,0.0009633680997110924, ,0.02938455931838126, ,7.67282796379825e-06, ,1.8333333333333333, ,0.7059712813975672, ,0.4993163404828473, ,0.04065223158711047
28, ,PASS, ,0.007650380000000012, ,0.0009436404934504232, ,0.029436852004244812, ,7.326028286938254e-06, ,1.8333333333333333, ,0.6888068836760909, ,0.4967245566417012, ,0.03520336319666945
29, ,PASS, ,0.007534360000000021, ,0.0009867244464054415, ,0.029396229957347815, ,7.542224412011403e-06, ,1.8333333333333333, ,0.7346986784266001, ,0.49960204893777677, ,0.07475357645762332
30, ,PASS, ,0.007581020000000015, ,0.0009386653932882091, ,0.029474977989632865, ,7.218454354156247e-06, ,1.8333333333333333, ,0.7050102974950743, ,0.49664292565457846, ,0.022836268647578623
31, ,PASS, ,0.007557270000000012, ,0.0009422223593650922, ,0.02941726882594233, ,7.2488746797794875e-06, ,1.8333333333333333, ,0.7253060111550846, ,0.4997857186588029, ,0.0419175118875125
32, ,PASS, ,0.007868180000000002, ,0.000953567088388401, ,0.0291476934399298, ,7.6272634337516905e-06, ,1.75, ,0.7051080466308643, ,0.501112222199547, ,0.04963164017060876
33, ,PASS, ,0.007639460000000011, ,0.0009233168088202889, ,0.029352287131487114, ,7.15878570432567e-06, ,1.8333333333333333, ,0.6938478953109801, ,0.4977449439807351, ,0.020224077059651843
34, ,PASS, ,0.007495270000000009, ,0.0009264773110438897, ,0.02921233492357299, ,7.072683984521204e-06, ,1.8333333333333333, ,0.7174522815804159, ,0.4997449031652415, ,0.03730536111507928
35, ,PASS, ,0.007581760000000017, ,0.0010052785575981598, ,0.029322462114446647, ,7.746229746010436e-06, ,1.8333333333333333, ,0.7304707550522599, ,0.496479663680333, ,0.01908124323993388
36, ,PASS, ,0.007331269999999994, ,0.0009529288283214908, ,0.029227580153670336, ,7.095075562954905e-06, ,1.8333333333333333, ,0.7372908444446026, ,0.4989898165343564, ,0.06873329115732332
37, ,PASS, ,0.007404829999999984, ,0.0009085479199855139, ,0.029279152737291078, ,6.843664910244807e-06, ,1.8333333333333333, ,0.7309744638861111, ,0.5005408052896879, ,0.059631436093140956
38, ,PASS, ,0.007711500000000017, ,0.0009155118699713584, ,0.029324654422154654, ,7.164263333090794e-06, ,1.8333333333333333, ,0.6902131631972648, ,0.49923470949572457, ,0.01985673761759964
39, ,PASS, ,0.0072203300000000074, ,0.0009039685658422475, ,0.029410250056121304, ,6.648640733831669e-06, ,1.8333333333333333, ,0.7286781770818512, ,0.4993775637231893, ,0.06038652272402604
40, ,PASS, ,0.0075694799999999896, ,0.0009198154357477372, ,0.02910610033529928, ,7.095882993878357e-06, ,1.8333333333333333, ,0.7196588313076268, ,0.5001530581008551, ,0.04320319993469521
41, ,PASS, ,0.007635839999999998, ,0.0009251525963544446, ,0.029074801624456643, ,7.1983780053305564e-06, ,1.75, ,0.702166194517074, ,0.4992143017489439, ,0.02989734903369319
42, ,PASS, ,0.007400040000000007, ,0.0008883083571440584, ,0.029196525510907942, ,6.706881959876768e-06, ,1.8333333333333333, ,0.7089564231437098, ,0.4991122630150405, ,0.02046897002101998
43, ,PASS, ,0.00722859, ,0.0009525293163305328, ,0.02917834149568376, ,6.9920729580645396e-06, ,1.8333333333333333, ,0.7401394044362568, ,0.49909185526825983, ,0.060835493153200956
44, ,PASS, ,0.007212950000000003, ,0.000923103883004271, ,0.02906376714230322, ,6.77321553412481e-06, ,1.8333333333333333, ,0.7286910602738624, ,0.49860206934552354, ,0.045305197853105036
45, ,PASS, ,0.00733596999999999, ,0.0008916355177632984, ,0.028870417136180892, ,6.656152783890021e-06, ,1.8333333333333333, ,0.7148119442908547, ,0.500479582049346, ,0.0246117426174976
46, ,PASS, ,0.007132240000000005, ,0.0008671454208553376, ,0.02932015512826269, ,6.274233877470967e-06, ,1.8333333333333333, ,0.7078025528647078, ,0.49956123344421544, ,0.04114201750984674
47, ,PASS, ,0.007177489999999988, ,0.0009045444089909526, ,0.028979335191118546, ,6.6086844483274615e-06, ,1.8333333333333333, ,0.7157147425198701, ,0.4978061672210771, ,0.022713822166894552
48, ,PASS, ,0.0070606899999999945, ,0.0008540996727520121, ,0.029245235605803964, ,6.121366978284762e-06, ,1.75, ,0.6889673731979559, ,0.4973367890451215, ,0.033897267402706065
49, ,PASS, ,0.006974519999999991, ,0.0008698278841929539, ,0.029049017675965797, ,6.163078701903823e-06, ,1.8333333333333333, ,0.7234311126282855, ,0.5016632313626253, ,0.05257035570702639
50, ,PASS, ,0.007111330000000006, ,0.0008553874683910804, ,0.02912839549478582, ,6.1865501588169955e-06, ,1.8333333333333333, ,0.7067554836127617, ,0.4995000102038734, ,0.0202648925532132
51, ,PASS, ,0.0067571499999999965, ,0.0008318824231160553, ,0.029340056425583155, ,5.726258709274365e-06, ,1.8333333333333333, ,0.7081167844345846, ,0.49747964327258626, ,0.033489112467092505
52, ,PASS, ,0.0070243899999999915, ,0.0008291285459855239, ,0.029034226800269382, ,5.927219541634702e-06, ,1.8333333333333333, ,0.6979172920469813, ,0.500030611620171, ,0.030958551866288445
53, ,PASS, ,0.006960229999999998, ,0.0008592924709317555, ,0.029171359630619786, ,6.0782203959580435e-06, ,1.8333333333333333, ,0.7335260248197272, ,0.5040917532295259, ,0.0311830370808759
54, ,PASS, ,0.006876509999999999, ,0.0008232024833713065, ,0.02913629326993327, ,5.750447921353874e-06, ,1.8333333333333333, ,0.6830543849039262, ,0.4977245362339544, ,0.039570621007734536
55, ,PASS, ,0.006609620000000007, ,0.000851125085062535, ,0.02926351378073917, ,5.7273917568630145e-06, ,1.8333333333333333, ,0.7369197916241379, ,0.49913267076182116, ,0.02910144690924675
56, ,PASS, ,0.006786909999999986, ,0.0008232675568702128, ,0.02936522652333626, ,5.685023638670744e-06, ,1.8333333333333333, ,0.713022489915293, ,0.5004591743025653, ,0.02522397502091794
57, ,PASS, ,0.006907869999999976, ,0.000826852570975772, ,0.029272385652129546, ,5.810358618973628e-06, ,1.75, ,0.6998915437935036, ,0.49860206934552354, ,0.032162608926348445
58, ,PASS, ,0.006907549999999998, ,0.0008269287088815728, ,0.029071538965735395, ,5.809522148640384e-06, ,1.8333333333333333, ,0.7019357275602641, ,0.4973776045386829, ,0.03942776678026979
59, ,PASS, ,0.006778820000000001, ,0.0008404837705807214, ,0.029089170003061163, ,5.776183351113527e-06, ,1.8333333333333333, ,0.7022879288535879, ,0.49870410807942694, ,0.03230546315381319
60, ,PASS, ,0.007024229999999996, ,0.0008611488022254604, ,0.02901483185690088, ,6.126725066125732e-06, ,1.8333333333333333, ,0.6965219517209109, ,0.49952041795065405, ,0.023224015836411503
61, ,PASS, ,0.006693730000000005, ,0.0008451747646414189, ,0.029305817099242872, ,5.741193783645282e-06, ,1.8333333333333333, ,0.7257586576224616, ,0.5010305912124242, ,0.0462643619517969
62, ,PASS, ,0.006983589999999991, ,0.0008775696023425103, ,0.029039910621211813, ,6.234406667337328e-06, ,1.8333333333333333, ,0.7280764070915754, ,0.49996938837982896, ,0.03538703291769556
63, ,PASS, ,0.007068370000000001, ,0.0008472302850741713, ,0.02928032218975123, ,6.093152833218193e-06, ,1.8333333333333333, ,0.7096463306611097, ,0.5018673088304321, ,0.040774678067794536
64, ,PASS, ,0.007027740000000001, ,0.0008786843073636438, ,0.029211356178853492, ,6.282221373590053e-06, ,1.8333333333333333, ,0.7235214488394387, ,0.49874492357298833, ,0.03944817452705047
65, ,PASS, ,0.007038690000000004, ,0.0008928822325128598, ,0.02920546309238587, ,6.384637614483576e-06, ,1.8333333333333333, ,0.7215703095749093, ,0.49825513765025203, ,0.02722393420542438
66, ,PASS, ,0.006931360000000008, ,0.0008618578158621885, ,0.0291286841988939, ,6.0800241013687265e-06, ,1.8333333333333333, ,0.7164442649721429, ,0.4997857186588029, ,0.0542233831962613
67, ,PASS, ,0.006773429999999997, ,0.0008156391365423503, ,0.029178656408440647, ,5.617213532173297e-06, ,1.8333333333333333, ,0.7233758920028232, ,0.5013571151609151, ,0.0332238117589437
68, ,PASS, ,0.007178929999999993, ,0.0008700945714244577, ,0.029122478187792084, ,6.358642091752239e-06, ,1.75, ,0.7074095097814501, ,0.5014183384012572, ,0.025346421501602007
69, ,PASS, ,0.007130830000000008, ,0.0008649802312206633, ,0.029156760893655233, ,6.2737683099438735e-06, ,1.8333333333333333, ,0.7105986327709902, ,0.5013367074141344, ,0.022285259484500317
70, ,PASS, ,0.00782132000000001, ,0.0009955865977384613, ,0.029196413163200752, ,7.909699926226883e-06, ,1.8333333333333333, ,0.710729682380176, ,0.4981530989163486, ,0.02114242566478235
71, ,PASS, ,0.030310889999999993, ,0.005179746425954198, ,0.027696107344543988, ,0.00015830912761969075, ,1.9166666666666667, ,0.755941234148581, ,0.47194955204995814, ,0.11265076222934226
72, ,PASS, ,0.006671340000000005, ,0.000923603966315632, ,0.029084071637109448, ,6.269382438969427e-06, ,1.8333333333333333, ,0.7625482687371752, ,0.49660211016101713, ,0.03940735903348911
73, ,PASS, ,0.006309540000000016, ,0.0006673978360965692, ,0.029023047597395973, ,4.311284653743544e-06, ,1.75, ,0.6920146709192193, ,0.5073161772208731, ,0.01530581008550846
74, ,PASS, ,0.005981929999999996, ,0.0006663652798952507, ,0.02912393333176874, ,4.072258417938358e-06, ,1.75, ,0.6822845137525032, ,0.504336646190894, ,0.026570886308442686
75, ,PASS, ,0.005622290000000002, ,0.0006375034583518529, ,0.029284107512703824, ,3.6640949633983742e-06, ,1.75, ,0.7079158201387271, ,0.5044795004183588, ,0.03457072304646844
76, ,PASS, ,0.0053448400000000035, ,0.0006121758510746076, ,0.029371593688496154, ,3.342524938415766e-06, ,1.75, ,0.6777171568005728, ,0.49952041795065405, ,0.03040754270321014
77, ,PASS, ,0.005654649999999994, ,0.000621320757979087, ,0.02919090646905165, ,3.595297485816306e-06, ,1.75, ,0.6966569269980821, ,0.5037244137874737, ,0.033856451909144714
78, ,PASS, ,0.005761179999999984, ,0.0006394965853327175, ,0.02918158466765984, ,3.7700426234975303e-06, ,1.75, ,0.6694509554710256, ,0.5014591538948184, ,0.021917920042448115
79, ,PASS, ,0.005704500000000005, ,0.0006340062136643845, ,0.02916456328585131, ,3.6972698410008605e-06, ,1.75, ,0.676577536705365, ,0.5026836187016591, ,0.03248913287483929
112, ,PASS, ,0.005867479999999991, ,0.000647946880251625, ,0.02917851570886308, ,3.861140668278818e-06, ,1.75, ,0.6412451112640674, ,0.4989694087875758, ,0.046631701393849104
113, ,PASS, ,0.0058281700000000075, ,0.0006367681594726059, ,0.029150772117915964, ,3.8069751635940174e-06, ,1.75, ,0.6717810414914499, ,0.5031734046243954, ,0.03297891879757556
114, ,PASS, ,0.005620060000000003, ,0.0006147657098578777, ,0.029240261632007512, ,3.5271123321900525e-06, ,1.75, ,0.6591340902679353, ,0.5002755045815391, ,0.020407746780677947
115, ,PASS, ,0.005802049999999989, ,0.000610421574957603, ,0.02918322647170466, ,3.6115772113482266e-06, ,1.75, ,0.6362178083809408, ,0.501234668680231, ,0.026550478561662007
116, ,PASS, ,0.005684339999999996, ,0.000627845160836024, ,0.029097127004142773, ,3.65276065807145e-06, ,1.75, ,0.6881505010816107, ,0.5041121609763066, ,0.030917736372727087
117, ,PASS, ,0.005896359999999993, ,0.0006349879375546304, ,0.029121743004020328, ,3.82575770477776e-06, ,1.75, ,0.6709612648018876, ,0.5041733842166486, ,0.03234627864737454
118, ,PASS, ,0.005506960000000002, ,0.0006373789956956141, ,0.029253209585314584, ,3.580871617578387e-06, ,1.75, ,0.6919027675338552, ,0.5031734046243954, ,0.03165241525683149
119, ,PASS, ,0.005683629999999992, ,0.0006238672171513621, ,0.0291880438311463, ,3.6134993995279093e-06, ,1.75, ,0.6556982698675626, ,0.5013367074141344, ,0.028223913797677597
120, ,PASS, ,0.005849780000000006, ,0.0006211912751983912, ,0.02916218904818269, ,3.717243776060646e-06, ,1.75, ,0.6542457924106352, ,0.5035407440664477, ,0.012877288218607784
121, ,PASS, ,0.005624820000000013, ,0.0006123929296984513, ,0.02901112933001367, ,3.5077708564716087e-06, ,1.75, ,0.6564383475009856, ,0.502499948980633, ,0.015428256566192526
122, ,PASS, ,0.0054111199999999915, ,0.000606622560628295, ,0.029253970309381438, ,3.3561994339279357e-06, ,1.75, ,0.668630949516842, ,0.5001938735944165, ,0.030366727209648784
123, ,PASS, ,0.005675480000000007, ,0.000598037074628514, ,0.029101325942939942, ,3.4662035977398737e-06, ,1.75, ,0.6473708038149854, ,0.5016020081222832, ,0.01848941858329422
124, ,PASS, ,0.005496409999999993, ,0.0006320757677172688, ,0.029037578115752742, ,3.54122214659471e-06, ,1.75, ,0.7001425157233002, ,0.5025815799677558, ,0.017244546029672864
125, ,PASS, ,0.0054899799999999985, ,0.0006292280118509208, ,0.028899287379849387, ,3.5248827030382685e-06, ,1.75, ,0.6957332695788948, ,0.5033366665986408, ,0.034652354033591154
126, ,PASS, ,0.005309719999999976, ,0.0006298217892913539, ,0.029033469076549457, ,3.4040739066712653e-06, ,1.75, ,0.7196753540988882, ,0.5023366870063877, ,0.08685537029856534
127, ,PASS, ,0.005682869999999996, ,0.0005921430850615313, ,0.02928393626130079, ,3.441902850754867e-06, ,1.75, ,0.6640201878534322, ,0.5049692863410951, ,0.03185649272463827
128, ,PASS, ,0.005332409999999985, ,0.0006051800036859827, ,0.029338610046325583, ,3.2775534570478826e-06, ,1.75, ,0.6804069007810909, ,0.502316279259607, ,0.044937858411052835
129, ,PASS, ,0.005387839999999991, ,0.0005988311193432212, ,0.02913575167547601, ,3.286713595521815e-06, ,1.75, ,0.6731468187802072, ,0.5002550968347584, ,0.03218301667312912
130, ,PASS, ,0.005394609999999987, ,0.000600220562835516, ,0.029393427227811676, ,3.3119941699349644e-06, ,1.75, ,0.6919389340153345, ,0.5033978898389829, ,0.037897185771718946
131, ,PASS, ,0.005648739999999992, ,0.000594586308906324, ,0.0292153690861411, ,3.4361811212060673e-06, ,1.75, ,0.6534784349368223, ,0.4997040876716802, ,0.016264974184200323
132, ,PASS, ,0.005518759999999991, ,0.00059098080254768, ,0.029299499163486457, ,3.330374523859452e-06, ,1.75, ,0.6787187573761851, ,0.5051121405685598, ,0.02175465806820269
133, ,PASS, ,0.005523609999999984, ,0.0005761978979505453, ,0.029254588122079137, ,3.2590040007486384e-06, ,1.75, ,0.6534313099503672, ,0.5021530172853615, ,0.033427889226750475
134, ,PASS, ,0.0052154799999999946, ,0.000585434988639926, ,0.02922612053182588, ,3.111816969648474e-06, ,1.75, ,0.681365316412873, ,0.5026019877145365, ,0.02004040733862574
135, ,PASS, ,0.0054545800000000005, ,0.0005898833481811835, ,0.029100069571641397, ,3.2975346791592052e-06, ,1.75, ,0.6893178763555118, ,0.5073365849676538, ,0.028570845492949123
136, ,PASS, ,0.005472789999999984, ,0.0005851620944962862, ,0.02910298102487704, ,3.2771343075155406e-06, ,1.75, ,0.6874308582409657, ,0.5069692455256015, ,0.028632068733291157
137, ,PASS, ,0.005351729999999992, ,0.0006214368001011955, ,0.029279051832207508, ,3.4125394596068005e-06, ,1.75, ,0.675853458440767, ,0.5014183384012572, ,0.04436644150119385
138, ,PASS, ,0.005272200000000005, ,0.0005983394575197949, ,0.029476813372788308, ,3.210705709747037e-06, ,1.8333333333333333, ,0.6896288077544728, ,0.5035407440664477, ,0.03397889838982878
139, ,PASS, ,0.005374379999999995, ,0.0007159456531633413, ,0.029450851093242997, ,3.9216412131251256e-06, ,1.8333333333333333, ,0.7374894555460471, ,0.4977245362339544, ,0.033489112467092505
140, ,PASS, ,0.005224729999999993, ,0.0005679785472630022, ,0.029350083485030917, ,3.0249194575294407e-06, ,1.75, ,0.6520549380690616, ,0.5008877369849595, ,0.03448909205934573
141, ,PASS, ,0.0054722600000000066, ,0.0005633505553057354, ,0.029254853619722045, ,3.1578035686140115e-06, ,1.75, ,0.6613994400148951, ,0.5047856166200689, ,0.030040203261157937
142, ,PASS, ,0.005328929999999982, ,0.0005926892873457842, ,0.029057729747964327, ,3.2182506703968364e-06, ,1.75, ,0.6720866183170715, ,0.5048672476071917, ,0.035529887145160303
143, ,PASS, ,0.0057132999999999975, ,0.0005492193211996971, ,0.0293798044823575, ,3.2023013825468753e-06, ,1.75, ,0.6105134867880528, ,0.4983775841309361, ,0.01967306789657354
176, ,PASS, ,0.005456799999999987, ,0.0005948811124745087, ,0.029174325307238628, ,3.3153679428621246e-06, ,1.75, ,0.6920476104219078, ,0.5043978694312361, ,0.022775045407236585
177, ,PASS, ,0.005284560000000001, ,0.000566253062037113, ,0.029339794260933447, ,3.048742072665978e-06, ,1.75, ,0.6446247376061143, ,0.49990816513948694, ,0.019917960857941674
178, ,PASS, ,0.0051560900000000055, ,0.0005884349017388232, ,0.02931466444092978, ,3.0950790077453555e-06, ,1.75, ,0.6964994758141249, ,0.501295891920573, ,0.03722373012795657
179, ,PASS, ,0.00515253999999999, ,0.0006328964495770028, ,0.029241702429338174, ,3.3288086008755137e-06, ,1.8333333333333333, ,0.6977758268560453, ,0.4952551988734924, ,0.01310177343319524
180, ,PASS, ,0.005190699999999986, ,0.0005986715556135078, ,0.029305792373012795, ,3.151981266621656e-06, ,1.75, ,0.6840696375339806, ,0.5003775433154426, ,0.02671374053590743
181, ,PASS, ,0.005289969999999991, ,0.0006163279424377152, ,0.029182541505683557, ,3.3212190252707714e-06, ,1.75, ,0.7007108314618873, ,0.5013775229076958, ,0.03518295544988878
182, ,PASS, ,0.005185089999999989, ,0.0005236248574710931, ,0.029297222449745922, ,2.7719553558650924e-06, ,1.75, ,0.667053255107881, ,0.5045203159119201, ,0.02046897002101998
183, ,PASS, ,0.005026359999999994, ,0.0005625386187374085, ,0.029197719322666883, ,2.885395938694411e-06, ,1.75, ,0.6506553692940182, ,0.5024795412338524, ,0.03524417869023081
184, ,PASS, ,0.005081629999999986, ,0.0005717673506314509, ,0.029317222252403012, ,2.962640472140064e-06, ,1.75, ,0.6959876317423568, ,0.5050917328217791, ,0.06450888757372299
185, ,PASS, ,0.0051716199999999775, ,0.0005725329371637422, ,0.029301564299912247, ,3.0188852423664286e-06, ,1.75, ,0.6899540661491911, ,0.507765147650048, ,0.04895818452684639
186, ,PASS, ,0.005125109999999985, ,0.0005584526996395222, ,0.0292778547531683, ,2.925342482271642e-06, ,1.75, ,0.6602543153139527, ,0.4999489806330483, ,0.014571131201404052
187, ,PASS, ,0.005087899999999996, ,0.0005178393677272336, ,0.029391960291218548, ,2.6940170501133417e-06, ,1.75, ,0.6534506688950653, ,0.5064182363625233, ,0.025121936287014552
188, ,PASS, ,0.005032659999999987, ,0.0005505378488703638, ,0.02917162952511173, ,2.8282891077809225e-06, ,1.75, ,0.6779194896503415, ,0.5050305095814371, ,0.03706046815371115
189, ,PASS, ,0.00491100999999999, ,0.0005199332156399998, ,0.029352159478786145, ,2.613714243885194e-06, ,1.75, ,0.6514130591367866, ,0.5021326095385809, ,0.02501989755311116
190, ,PASS, ,0.004815489999999974, ,0.0004889244483580946, ,0.029101388426970874, ,2.4134606409740847e-06, ,1.6666666666666667, ,0.6455990878273514, ,0.50180608559009, ,0.015224179098385747
191, ,PASS, ,0.005015919999999993, ,0.0005248717173988663, ,0.029195492491785883, ,2.6866079226120156e-06, ,1.6666666666666667, ,0.6463356325633078, ,0.5027040264484398, ,0.019428174935205406
192, ,PASS, ,0.004997299999999996, ,0.0005169606210654174, ,0.029288227673516864, ,2.647860073745083e-06, ,1.75, ,0.6620958018846378, ,0.5020509785514581, ,0.02134650313258913
193, ,PASS, ,0.004891449999999988, ,0.0005095432598731331, ,0.029243439436950267, ,2.5593997118602534e-06, ,1.75, ,0.6730907659551751, ,0.5029081039162466, ,0.019591436909450827
194, ,PASS, ,0.004877259999999998, ,0.0005308683111757172, ,0.02938779309626334, ,2.6365284595406434e-06, ,1.75, ,0.6871514546464641, ,0.5050713250749985, ,0.048631660578355544
195, ,PASS, ,0.004873729999999986, ,0.0005723143650174562, ,0.02914884020775086, ,2.8414339955559935e-06, ,1.75, ,0.7001159413959231, ,0.5021326095385809, ,0.02959123283198302
196, ,PASS, ,0.004930189999999987, ,0.0005706045554649672, ,0.029364433801146915, ,2.8671610119372152e-06, ,1.75, ,0.7015714531991649, ,0.5021734250321422, ,0.018775127038223708
197, ,PASS, ,0.004920369999999993, ,0.0005288346647294249, ,0.029356311048550028, ,2.666837705927374e-06, ,1.75, ,0.6541760823532132, ,0.5029081039162466, ,0.011958939613477276
198, ,PASS, ,0.0047434599999999945, ,0.0005205143906897469, ,0.02927127029264709, ,2.5207643105287916e-06, ,1.75, ,0.6959693674823761, ,0.5070712842595049, ,0.03904001959143691
199, ,PASS, ,0.004862980000000003, ,0.000549628256282019, ,0.02928781377175976, ,2.725332954994795e-06, ,1.75, ,0.6604861036050956, ,0.502377502499949, ,0.00914267055774372
200, ,PASS, ,0.004832629999999984, ,0.0005103893271735694, ,0.02933528707352911, ,2.519764339224764e-06, ,1.75, ,0.6546143724636457, ,0.5034999285728863, ,0.02622395461317116
201, ,PASS, ,0.004723929999999998, ,0.000518529398753623, ,0.029438628781657514, ,2.5017546435713837e-06, ,1.75, ,0.6933487951144787, ,0.5035407440664477, ,0.043182792187914536
202, ,PASS, ,0.004830369999999987, ,0.0005260016917484076, ,0.029484344356849858, ,2.593433327375837e-06, ,1.75, ,0.6846288531674279, ,0.5036223750535703, ,0.023713801759147772
203, ,PASS, ,0.004747449999999986, ,0.0005212304898970476, ,0.029426493650537743, ,2.5269870562340904e-06, ,1.75, ,0.6583703009915385, ,0.5015816003755026, ,0.010387543111365074
204, ,PASS, ,0.00462249, ,0.0005219267758914062, ,0.029243788612681374, ,2.4646856857094087e-06, ,1.75, ,0.6796242554373706, ,0.5046019468990429, ,0.036284973776045386
205, ,PASS, ,0.004673709999999998, ,0.0005406294219394229, ,0.029323851416501703, ,2.5833487112732373e-06, ,1.75, ,0.6914333200249362, ,0.5074794391951185, ,0.037101283647272505
206, ,PASS, ,0.004913609999999988, ,0.0004866579128260573, ,0.029160192954429502, ,2.4457059978377395e-06, ,1.6666666666666667, ,0.6478207457745624, ,0.5049896940878758, ,0.02971367931266709
207, ,PASS, ,0.0045941399999999966, ,0.000538884216217197, ,0.029210668525540297, ,2.5284056380369744e-06, ,1.75, ,0.7043560021474784, ,0.5022346482724842, ,0.049509193689924694
208, ,PASS, ,0.00469963000000001, ,0.000532510109371151, ,0.029325705347237812, ,2.5491245560789765e-06, ,1.75, ,0.6731406026455867, ,0.4986632925858656, ,0.010571212832391175
209, ,PASS, ,0.002890069999999998, ,0.00011986353229863116, ,0.02926585366992511, ,3.7714294371448593e-07, ,1.0, ,0.3323130501447758, ,0.4545213362992592, ,0.013836452317299647
210, ,FAIL, ,0.0007483000000000004, ,2.7314979154491252e-05, ,0.029207902115262956, ,2.658926296726257e-08, ,1.0833333333333333, ,0.3603193758398281, ,0.4225832125874982, ,0.0015713965021122017
211, ,PASS, ,0.004774279999999995, ,0.0007136977225828284, ,0.02928464366931287, ,3.4394841447504563e-06, ,1.8333333333333333, ,0.7570883240629837, ,0.49547968408807985, ,0.021407726372931164
212, ,PASS, ,0.004540699999999984, ,0.0004926744024735344, ,0.02953312877839228, ,2.290344710999006e-06, ,1.75, ,0.6799454922262549, ,0.5030509581437114, ,0.01240791004265219
213, ,FAIL, ,0.0007116400000000064, ,3.585011493555398e-05, ,0.02925533293218506, ,2.9409988974239316e-08, ,1.3333333333333333, ,0.42298257055839933, ,0.4755821309769188, ,0.0019387359441644049
