Channel, ,Pass/Fail, ,Amplitude, ,Sorting Function Response, ,Mean, ,Variance
0, ,PASS, ,0.028550352048249003, ,0.020380636831178498, ,-0.0017195667597771588, ,0.00011903014127921834
1, ,PASS, ,0.027475802527338007, ,0.018217097411327886, ,-0.001472681309144862, ,0.00010224067304897221
2, ,PASS, ,0.028321646391226994, ,0.018395991282632227, ,-0.001466098548837504, ,0.00010640339974213469
3, ,PASS, ,0.028362423866904005, ,0.018362929704572473, ,-0.0015001754746507918, ,0.0001063748492620674
4, ,PASS, ,0.028389622941432002, ,0.018435064891067457, ,-0.001436838662770584, ,0.00010687089225634089
5, ,PASS, ,0.028417350728268002, ,0.018430473953087542, ,-0.0014422585240067231, ,0.00010697155669964701
6, ,PASS, ,0.028534239289871997, ,0.01847363563028109, ,-0.001433708088479388, ,0.00010764184490989028
7, ,PASS, ,0.028535223344829004, ,0.018468064771685919, ,-0.0014144717289587443, ,0.00010760882578827537
8, ,PASS, ,0.028496267322336004, ,0.018627042611707979, ,-0.0015015981005685232, ,0.0001083863391841797
9, ,PASS, ,0.028537448692606, ,0.01846325328064273, ,-0.001438049861037839, ,0.00010759705313670532
10, ,PASS, ,0.028565237101379998, ,0.018403483654997072, ,-0.0015284907763788583, ,0.00010735089294738046
11, ,PASS, ,0.028562399624372993, ,0.018487797368641923, ,-0.0014106701887929539, ,0.00010781795125575864
12, ,PASS, ,0.028500467574220995, ,0.018526015630144509, ,-0.0014828605714869835, ,0.00010780239094055053
13, ,PASS, ,0.028527572456077999, ,0.018595784255489724, ,-0.0015182241148356322, ,0.00010832917470291088
14, ,PASS, ,0.028629736758296005, ,0.018662270899744055, ,-0.0015010123691331821, ,0.00010912495836153379
15, ,PASS, ,0.028630857882442996, ,0.018561686608628027, ,-0.001458830316671588, ,0.00010852092082585953
16, ,PASS, ,0.028629506894661001, ,0.018549523126446393, ,-0.0015028769430641715, ,0.00010843818810533077
17, ,PASS, ,0.028776779687314003, ,0.018606185121828423, ,-0.0014664409860614795, ,0.00010932434970183601
18, ,PASS, ,0.028786785820230001, ,0.018655044821166426, ,-0.0015135721077326463, ,0.00010965627392836707
19, ,PASS, ,0.028748006741998004, ,0.018581573468504038, ,-0.0014500602702084307, ,0.00010908673443566179
20, ,PASS, ,0.028738612841628999, ,0.018677990817170562, ,-0.0014844145842175631, ,0.00010961507814549742
21, ,PASS, ,0.028824942217985001, ,0.018711732273059223, ,-0.0015205361932223598, ,0.00011013510352862766
22, ,PASS, ,0.02890640378950499, ,0.018773018765963739, ,-0.0014939053649888326, ,0.0001107993489619843
23, ,PASS, ,0.028846063967723001, ,0.018600846739735562, ,-0.0014921670567658453, ,0.00010955984787203332
24, ,PASS, ,0.028915812713540004, ,0.018579023047944454, ,-0.0015139593661795824, ,0.00010968791814116873
25, ,PASS, ,0.029054057682334995, ,0.018608947621250298, ,-0.0014801961391914843, ,0.00011040696963880475
26, ,PASS, ,0.028921672273890003, ,0.018746106607613791, ,-0.0015006483701871069, ,0.00011071498840564525
27, ,PASS, ,0.028908096750543996, ,0.018618996899199075, ,-0.0015000278463057728, ,0.00010990579134289421
28, ,PASS, ,0.029048330258056004, ,0.018465117809976575, ,-0.0015011868797535563, ,0.00010953957350111911
29, ,PASS, ,0.029101083935043008, ,0.018552928821784141, ,-0.0014825302936666131, ,0.00011026349403033778
30, ,PASS, ,0.029045080641862005, ,0.018511361842017876, ,-0.0015171386160140227, ,0.00010981245363364327
31, ,PASS, ,0.029009123239819006, ,0.01848407306383517, ,-0.0014508626830620542, ,0.00010945256949078149
32, ,PASS, ,0.029084346453017006, ,0.018623341412138776, ,-0.0015131540622521863, ,0.00011056914775516493
33, ,PASS, ,0.02898782001489799, ,0.018670347607254008, ,-0.0015224120990589591, ,0.00011047281728131024
34, ,PASS, ,0.029236831259425, ,0.019468760630110788, ,-0.0015713862777138182, ,0.00011624530442810834
35, ,PASS, ,0.029266835592819, ,0.018973565583889167, ,-0.0015507942953376676, ,0.00011340284337078038
36, ,PASS, ,0.029168493680451997, ,0.018637360817042738, ,-0.0014491701062056847, ,0.00011096481656724574
37, ,PASS, ,0.029146876873330008, ,0.018736253199437041, ,-0.0014927903556719187, ,0.00011147531546973321
38, ,PASS, ,0.029044324564699995, ,0.018496689987580455, ,-0.0015184700781881897, ,0.00010967962341798644
39, ,PASS, ,0.028891341897134999, ,0.018395995740939183, ,-0.001501327609818601, ,0.00010851002784495645
40, ,PASS, ,0.029227330380582003, ,0.018470253053267126, ,-0.0015186938613261007, ,0.00011020407424841891
41, ,PASS, ,0.029238383159130001, ,0.018409236685178174, ,-0.001484751944782236, ,0.00010985679157629082
42, ,PASS, ,0.029424755631738003, ,0.019599429071817571, ,-0.0015948058994796209, ,0.0001177928189902901
43, ,PASS, ,0.02930257088420201, ,0.018915199765139189, ,-0.0014697932556648593, ,0.00011314072555475033
44, ,PASS, ,0.029154878881914995, ,0.018628005691912964, ,-0.0015177493623539583, ,0.00011083074020249982
45, ,PASS, ,0.029237339844979997, ,0.018578287096413182, ,-0.0015648976228652743, ,0.00011084737873866912
46, ,PASS, ,0.029155160871122, ,0.018565231244730074, ,-0.0015044272518792425, ,0.00011047860487230129
47, ,PASS, ,0.029061576215881998, ,0.018442247030061337, ,-0.0015277570447154829, ,0.00010937878946610604
48, ,PASS, ,0.029076852656968005, ,0.018218473418957382, ,-0.0014512406547619741, ,0.00010808587144187143
49, ,PASS, ,0.029072656786387999, ,0.018190388971146686, ,-0.0015266213218164185, ,0.00010789541915745137
50, ,PASS, ,0.029024796172209998, ,0.018283176129051573, ,-0.0014296223524874775, ,0.0001082986898265444
51, ,PASS, ,0.029154363936601001, ,0.01824640797083537, ,-0.0014690192557077417, ,0.00010854673706418181
52, ,PASS, ,0.029140460571141009, ,0.018624911374550489, ,-0.0015516316278319183, ,0.00011075904491027938
53, ,PASS, ,0.029207365833982001, ,0.018498559626352967, ,-0.0014700537588272862, ,0.00011022931111480081
54, ,PASS, ,0.029222172625228998, ,0.018676551828044698, ,-0.0014396310888292406, ,0.0001113318368211383
55, ,PASS, ,0.029206351558174002, ,0.018624663761787688, ,-0.0014806059142355862, ,0.00011099157507788868
56, ,PASS, ,0.029210987852498999, ,0.018344501183399725, ,-0.0014694177340178918, ,0.00010930535228954133
57, ,PASS, ,0.029206308153399002, ,0.018367539659334544, ,-0.001493837682466232, ,0.00010942326371527313
58, ,PASS, ,0.029158801785427998, ,0.018345227632346518, ,-0.0014785243124916425, ,0.00010908226813481925
59, ,PASS, ,0.029116878484702007, ,0.018180554863201012, ,-0.001472205279591704, ,0.00010798148426862684
60, ,PASS, ,0.029490998559167002, ,0.018211801774070405, ,-0.0014464240185582337, ,0.00010955663297199852
61, ,PASS, ,0.029520836769838996, ,0.018155662631775104, ,-0.0014464939624397478, ,0.00010934902828371468
62, ,PASS, ,0.029409620405229996, ,0.018160138512194626, ,-0.0013957396504081748, ,0.00010891799512422932
63, ,PASS, ,0.029349426860800002, ,0.018116470995108366, ,-0.0014803943745811581, ,0.00010846514118483028
64, ,PASS, ,0.029571112975814998, ,0.018367655855715825, ,-0.0014734920073326706, ,0.00011079134988155728
65, ,PASS, ,0.029558255721469997, ,0.018354318628934642, ,-0.0015477369480951055, ,0.00011067334144258784
66, ,PASS, ,0.029589688698262003, ,0.018425190905418116, ,-0.0015061620742077327, ,0.00011122744714252691
67, ,PASS, ,0.029464863103629994, ,0.018281444669325027, ,-0.0014452681634034132, ,0.00010990136147564709
68, ,PASS, ,0.029341742545940006, ,0.018034157762554799, ,-0.0015066308624530924, ,0.00010797304429294231
69, ,PASS, ,0.029463792177916004, ,0.018097028011064161, ,-0.0014584536757175327, ,0.00010882697314935197
70, ,PASS, ,0.029402259036126997, ,0.017990565305691791, ,-0.0014873854466629362, ,0.00010795355229915543
71, ,PASS, ,0.029501535977799004, ,0.018009446439268269, ,-0.0014005341933352414, ,0.00010837965591103598
72, ,PASS, ,0.029989474155897002, ,0.018471655762128076, ,-0.0015561126845842915, ,0.00011301948678444085
73, ,PASS, ,0.029716023922687001, ,0.018216594214604538, ,-0.0015136715875412082, ,0.00011043664434989395
74, ,PASS, ,0.029775908307417005, ,0.018301185034459426, ,-0.0015272635411402297, ,0.00011112599917891614
75, ,PASS, ,0.030140645447317999, ,0.018632293126141578, ,-0.0015453663480342627, ,0.0001145040308639307
76, ,PASS, ,0.030489974056257998, ,0.018347686903172882, ,-0.0014945241820703799, ,0.00011402820215596478
77, ,PASS, ,0.033223555629950011, ,0.020338151043742213, ,-0.0016941970230778807, ,0.00013778301442577551
78, ,PASS, ,0.099968351419957191, ,0.087967562067663291, ,-0.0080995257429705599, ,0.0018104030981721964
79, ,PASS, ,0.032773051354432002, ,0.021228079885602012, ,-0.0018199120438262323, ,0.0001418687148108517
80, ,PASS, ,0.029102490982862002, ,0.016998935820791726, ,-0.0013482311301617565, ,0.00010075348423315108
81, ,PASS, ,0.028882445473802996, ,0.016788310514431991, ,-0.0012933346503058117, ,9.8758917534667011e-05
82, ,PASS, ,0.028969649997668004, ,0.016909281606045254, ,-0.0013593811747029626, ,9.97778495402471e-05
83, ,PASS, ,0.028885681242160004, ,0.01686735536789407, ,-0.0013846464313417961, ,9.925420619833752e-05
84, ,PASS, ,0.028925450913224002, ,0.016618797120420085, ,-0.0012636718350900176, ,9.793633803294455e-05
85, ,PASS, ,0.028911205164500998, ,0.016601886621279264, ,-0.0013553185688908573, ,9.7811671868647444e-05
86, ,PASS, ,0.028873687843886997, ,0.016552070783222263, ,-0.0012605907614091953, ,9.743768625077899e-05
87, ,PASS, ,0.028820825783612999, ,0.016508240408334943, ,-0.0013388931948805736, ,9.6988106055541777e-05
88, ,PASS, ,0.028764577915773998, ,0.016706682811885518, ,-0.0013498652072163571, ,9.8002065261338517e-05
89, ,PASS, ,0.028785859336337004, ,0.016578348361421701, ,-0.0012946498115851035, ,9.7339118196583066e-05
90, ,PASS, ,0.028768400443536998, ,0.016641617477849788, ,-0.0013115588663978859, ,9.7627424369434279e-05
91, ,PASS, ,0.028739759244087004, ,0.016723547778562966, ,-0.0013286266561810258, ,9.7986494942811921e-05
92, ,PASS, ,0.028662984989077999, ,0.016773316592667578, ,-0.0013275205288111138, ,9.8073381595361776e-05
93, ,PASS, ,0.028776301410458005, ,0.016863053005295271, ,-0.0012935761810095303, ,9.8953574142061584e-05
94, ,PASS, ,0.028636323483771001, ,0.016712380738131097, ,-0.0013568458020198346, ,9.7575065047394229e-05
95, ,PASS, ,0.028571796723853009, ,0.016665037625413371, ,-0.0013594312129164394, ,9.7166641553290538e-05
96, ,PASS, ,0.028586385962590999, ,0.016586671873165811, ,-0.0013550980555847665, ,9.6779257438127933e-05
97, ,PASS, ,0.028753164235394001, ,0.016575899181735448, ,-0.0013659245153411085, ,9.72395223952765e-05
98, ,PASS, ,0.028511680683286005, ,0.018334440520674761, ,-0.001547591256330517, ,0.00010667359640345721
99, ,PASS, ,0.028594950818419999, ,0.018362850846561803, ,-0.0014996915189944514, ,0.00010721782085757774
100, ,PASS, ,0.028401776177115999, ,0.016520589414838648, ,-0.0013193158772158884, ,9.5661743841586651e-05
101, ,PASS, ,0.028497244729862009, ,0.016525734989311019, ,-0.0013117231532436633, ,9.6065616188639605e-05
102, ,PASS, ,0.028412745441902997, ,0.016518749683530811, ,-0.0012994648387803485, ,9.5696428689693458e-05
103, ,PASS, ,0.028377165474188993, ,0.016366689316832585, ,-0.0012433305556418248, ,9.467352004114351e-05
104, ,PASS, ,0.028691577438265999, ,0.016456110609076355, ,-0.001224379191039593, ,9.624134743364994e-05
105, ,PASS, ,0.028894651260265997, ,0.016670825464240653, ,-0.0012525181392852582, ,9.8186236544897329e-05
106, ,PASS, ,0.029009020224684996, ,0.017243131455491188, ,-0.0013789279149809311, ,0.00010200636354992866
107, ,PASS, ,0.028778645192997002, ,0.016454467867291503, ,-0.0012666744644128651, ,9.6554420996496871e-05
108, ,PASS, ,0.02877603141772099, ,0.016504036167001555, ,-0.0013713543829546745, ,9.685401836720056e-05
109, ,PASS, ,0.028776285938220996, ,0.016341604164799371, ,-0.0013661653538696702, ,9.5883481100609373e-05
110, ,PASS, ,0.028677825932174002, ,0.016333661682227638, ,-0.001284931808398098, ,9.554041374663504e-05
111, ,PASS, ,0.028660162613319003, ,0.016303070947899571, ,-0.0012576058847662806, ,9.5263726728647623e-05
112, ,PASS, ,0.028591319524479998, ,0.016125940782904271, ,-0.0012259296483082937, ,9.4032372774260662e-05
113, ,PASS, ,0.028617081799246005, ,0.016354484807204063, ,-0.0013153556284439363, ,9.5514075621383755e-05
114, ,PASS, ,0.028709152971567994, ,0.017420743017437845, ,-0.0013657796734269636, ,0.00010215819945386292
115, ,PASS, ,0.028543033052198998, ,0.016132760758840056, ,-0.0012503060816569523, ,9.393227904000945e-05
116, ,PASS, ,0.028543513812925997, ,0.017983359483580093, ,-0.0015083593148273631, ,0.00010485632838233792
117, ,PASS, ,0.028688029295078001, ,0.01796771805261111, ,-0.0014637785257439525, ,0.00010526993113729236
118, ,PASS, ,0.028521809037518005, ,0.016200013925390382, ,-0.0012604533505188801, ,9.4358514198381865e-05
119, ,PASS, ,0.028423286770663993, ,0.016093500482422918, ,-0.0012651666212278869, ,9.3423814593728859e-05
120, ,PASS, ,0.028527289171083006, ,0.018031787022614376, ,-0.0014435350901858106, ,0.00010511334666900311
121, ,PASS, ,0.028595123735131994, ,0.018049776628284102, ,-0.0014485835794476327, ,0.00010554890826253511
122, ,PASS, ,0.028491757173328008, ,0.01617252998589461, ,-0.001332608340289816, ,9.4260483055444869e-05
123, ,PASS, ,0.028539544206562007, ,0.016143921907181776, ,-0.0012677659435783172, ,9.4227391374474581e-05
124, ,PASS, ,0.027887244947011003, ,0.016091390185242683, ,-0.0012951348922979786, ,9.1781618090444408e-05
125, ,PASS, ,0.027968822702702997, ,0.016261518206233252, ,-0.0012803898190517158, ,9.3095295769656829e-05
126, ,PASS, ,0.028245043375231996, ,0.016446489270486281, ,-0.0013567724753933363, ,9.5099293563743903e-05
127, ,PASS, ,0.028574900942868006, ,0.016279593353967472, ,-0.0013089938795997243, ,9.5244985957566674e-05
128, ,PASS, ,0.028349229650263, ,0.015972095873047796, ,-0.0013255560852885647, ,9.2706751040521227e-05
129, ,PASS, ,0.028552936916159996, ,0.016097628213422557, ,-0.0013349837301571811, ,9.4048808299954142e-05
130, ,PASS, ,0.028878831526134994, ,0.016197783777986013, ,-0.0013215858351528819, ,9.5719726408622499e-05
131, ,PASS, ,0.02883222422615199, ,0.016160545296499129, ,-0.0013230475630032984, ,9.5311904288161004e-05
132, ,PASS, ,0.029099656883167999, ,0.016147954707956873, ,-0.0012604436339707481, ,9.6098649955115214e-05
133, ,PASS, ,0.029073891767994006, ,0.015970507423277273, ,-0.0012998911027766737, ,9.496922547554491e-05
134, ,PASS, ,0.029047242157215009, ,0.016102414375642186, ,-0.0013171921715358225, ,9.5696888104052864e-05
135, ,PASS, ,0.028969613207726997, ,0.016072356822592983, ,-0.0012988688985490695, ,9.5250322341042609e-05
136, ,PASS, ,0.029473615340842994, ,0.016396932554182706, ,-0.0012735745550336442, ,9.8871707976401187e-05
137, ,PASS, ,0.029254327847391993, ,0.016214647580171868, ,-0.001289416003846704, ,9.6987206062767989e-05
138, ,PASS, ,0.029231266044073001, ,0.016226780774400935, ,-0.0012825555436313161, ,9.697718866956229e-05
139, ,PASS, ,0.029363129955312997, ,0.01626940595425639, ,-0.0013080877388504876, ,9.770563297016428e-05
140, ,PASS, ,0.030873500059551001, ,0.017633851402762128, ,-0.001423475874267266, ,0.0001113098216364738
141, ,PASS, ,0.058951782468977997, ,0.052094494695786135, ,-0.0048017717789734888, ,0.00063327870537241491
142, ,PASS, ,0.058497323232271997, ,0.051707968808136058, ,-0.0047295659140535549, ,0.00062379860319138872
143, ,PASS, ,0.030642967340631003, ,0.01760568008947044, ,-0.0014604791427201727, ,0.00011044462488818002
144, ,PASS, ,0.029176377737387002, ,0.016189017228644086, ,-0.0012951941244273132, ,9.6681294045332969e-05
145, ,PASS, ,0.029304752970215998, ,0.016213086186839823, ,-0.0012825659152446126, ,9.7280434444063478e-05
146, ,PASS, ,0.029209599597248004, ,0.016165953282517392, ,-0.0013199510521414611, ,9.670244617163742e-05
147, ,PASS, ,0.029207380050950998, ,0.016330768899059066, ,-0.0013454238663952011, ,9.7667581436196782e-05
148, ,PASS, ,0.028956375764775999, ,0.016300361291575909, ,-0.0013199521911688918, ,9.6648917182775313e-05
149, ,PASS, ,0.029151047738279007, ,0.016346044693526775, ,-0.0013450859568987679, ,9.7573124098148162e-05
150, ,PASS, ,0.029071050123981, ,0.016412531133966721, ,-0.0013059082157036556, ,9.7697308763958381e-05
151, ,PASS, ,0.029044983023727003, ,0.016407372638391784, ,-0.0013618600236437273, ,9.7594814203607003e-05
152, ,PASS, ,0.028941570926453997, ,0.016333063318648658, ,-0.00131874321940589, ,9.6766962725257534e-05
153, ,PASS, ,0.029025939437023005, ,0.016341178351161251, ,-0.001280947285104528, ,9.7107311267883e-05
154, ,PASS, ,0.029081238225192999, ,0.016156162145948116, ,-0.0012980961348545796, ,9.6162749836428766e-05
155, ,PASS, ,0.029021918753561003, ,0.01615307244281524, ,-0.0013262725509105829, ,9.5973020325188754e-05
156, ,PASS, ,0.029281076041424013, ,0.016140204203890427, ,-0.0013219952448350384, ,9.6761901902988508e-05
157, ,PASS, ,0.029331276350925001, ,0.016096982993564608, ,-0.0012498227723609829, ,9.6696094959198366e-05
158, ,PASS, ,0.029217197834992003, ,0.01622176957365698, ,-0.0013174756673310993, ,9.7035814555472533e-05
159, ,PASS, ,0.029283169916624011, ,0.01608301315064568, ,-0.0013285122655948669, ,9.6444320331434704e-05
160, ,PASS, ,0.029410861631547006, ,0.016194733695971807, ,-0.001306417131189183, ,9.753913658289189e-05
161, ,PASS, ,0.029404153003808008, ,0.016309085620032755, ,-0.0013513350546286683, ,9.8155251484740189e-05
162, ,PASS, ,0.029430593926064993, ,0.01634183739115868, ,-0.0012956188677372205, ,9.8446520333321839e-05
163, ,PASS, ,0.029435398385387997, ,0.016356098999960461, ,-0.0012820183044226835, ,9.8580353271892623e-05
164, ,PASS, ,0.029402890611143005, ,0.01617799017344607, ,-0.0012850196727510971, ,9.7383999924397269e-05
165, ,PASS, ,0.029607464227723007, ,0.016217424902459407, ,-0.0013129961723712385, ,9.8317158935123309e-05
166, ,PASS, ,0.029387206083892004, ,0.016292351509478505, ,-0.0013200039221114063, ,9.7999276795332146e-05
167, ,PASS, ,0.029429634059775004, ,0.016288006166205616, ,-0.001357314383135657, ,9.8140738498915509e-05
168, ,PASS, ,0.029692380170456001, ,0.017514986578084861, ,-0.0014746493653728806, ,0.00010657859937421548
169, ,PASS, ,0.029465344965160001, ,0.016322120158050245, ,-0.0013585262812589687, ,9.8535300165502728e-05
170, ,PASS, ,0.029466640825049999, ,0.016317853022972208, ,-0.001382926537963549, ,9.8597535683560476e-05
171, ,PASS, ,0.029423988106539005, ,0.016637804831049572, ,-0.0013396424419452938, ,0.00010043248891414215
172, ,PASS, ,0.029556255960318994, ,0.016371706598525541, ,-0.0012755079193661339, ,9.9253084992833606e-05
173, ,PASS, ,0.029551580514206997, ,0.016384511666749407, ,-0.0013427469589887425, ,9.9322530741317251e-05
174, ,PASS, ,0.029334945957148001, ,0.016408414209683805, ,-0.0013217958737641656, ,9.8731410002058102e-05
175, ,PASS, ,0.029413342610502997, ,0.016332014221421907, ,-0.0013320403238800205, ,9.8616963523084905e-05
176, ,PASS, ,0.029568692523333006, ,0.016171092374233257, ,-0.001302621655347246, ,9.8153085247052439e-05
177, ,PASS, ,0.029714737501426988, ,0.016666622552454879, ,-0.0013799626521661603, ,0.00010158924970207487
178, ,PASS, ,0.029566732544264999, ,0.016383262013340939, ,-0.0013303307323699566, ,9.9390432709023759e-05
179, ,PASS, ,0.029320703530526009, ,0.015977726042479344, ,-0.0013551409010928858, ,9.616084462392538e-05
180, ,PASS, ,0.029238646506595002, ,0.01620155083706095, ,-0.0013363145677708129, ,9.7225053825217183e-05
181, ,PASS, ,0.02929281882001001, ,0.016149019890383049, ,-0.0013390422714989031, ,9.7048690568859037e-05
182, ,PASS, ,0.029156880135720008, ,0.016178428175441364, ,-0.0013121437369171846, ,9.6787230640218912e-05
183, ,PASS, ,0.029196148566179001, ,0.016125964458638727, ,-0.0012936090230603306, ,9.6621174333296384e-05
184, ,PASS, ,0.029187012129354997, ,0.015959573499349299, ,-0.0012557598438926651, ,9.5619064980965752e-05
185, ,PASS, ,0.029217567279708, ,0.015818247111070858, ,-0.0012421339887425207, ,9.4835144719946973e-05
186, ,PASS, ,0.029170588541689996, ,0.015966596217940315, ,-0.0013000870314588541, ,9.5566711021146772e-05
187, ,PASS, ,0.029211462754505001, ,0.015998072848229364, ,-0.0013392282667730807, ,9.5815393556014509e-05
188, ,PASS, ,0.029128118373220005, ,0.016117343070268408, ,-0.001319689948781119, ,9.6160132764242702e-05
189, ,PASS, ,0.029126782073202004, ,0.016137470247051717, ,-0.0013029756949460962, ,9.6296962754562814e-05
190, ,PASS, ,0.028914929612881987, ,0.0161322053259229, ,-0.0013191098474360972, ,9.553251805190047e-05
191, ,PASS, ,0.028978588602178001, ,0.01605807229033962, ,-0.001284648747012876, ,9.5301898635409698e-05
192, ,PASS, ,0.029046108135211999, ,0.015926957090945635, ,-0.0011964597948838761, ,9.4678531486486783e-05
193, ,PASS, ,0.02902683054661, ,0.015937686713938172, ,-0.0012468115876560677, ,9.4625578053289164e-05
194, ,PASS, ,0.028929027974934997, ,0.015958242805521952, ,-0.0012638038259464696, ,9.4415482037709997e-05
195, ,PASS, ,0.029099616886578993, ,0.015994370886365579, ,-0.0012021017521448049, ,9.5175880325692859e-05
196, ,PASS, ,0.029480073795646003, ,0.015977865957287993, ,-0.0012514964824470942, ,9.6343740862882391e-05
197, ,PASS, ,0.029530594750171002, ,0.015968365992009379, ,-0.0012894508414984143, ,9.6462592921644751e-05
198, ,PASS, ,0.029580723075007996, ,0.016006287604519203, ,-0.0012536699868256538, ,9.6770944218033889e-05
199, ,PASS, ,0.029487787608344002, ,0.015946054529974309, ,-0.0012779820918354626, ,9.6100247560586266e-05
200, ,PASS, ,0.029594612696888997, ,0.01612920931245275, ,-0.0012902939176856637, ,9.7547896414673305e-05
201, ,PASS, ,0.029707598519009004, ,0.016133783435068542, ,-0.0012707899550282429, ,9.7916229217842246e-05
202, ,PASS, ,0.029681291737679, ,0.01623289219537628, ,-0.0012388429067702947, ,9.8443142147170302e-05
203, ,PASS, ,0.029895671196031003, ,0.016225346500838938, ,-0.0012770173666364511, ,9.9113692890996882e-05
204, ,PASS, ,0.032411486385982985, ,0.017697163153496089, ,-0.0014072186248797647, ,0.00011717876221086129
205, ,PASS, ,0.086840808473372028, ,0.076059469179275127, ,-0.006937987999130979, ,0.0013605346171234164
206, ,PASS, ,0.033923267475926, ,0.022596137660632749, ,-0.0019062505700482035, ,0.00015685106585395383
207, ,PASS, ,0.029875328984753001, ,0.01918570029011021, ,-0.0016027948530405759, ,0.00011724567844246136
208, ,PASS, ,0.029544068105050992, ,0.019107593201833816, ,-0.001598252389768287, ,0.00011554589883021783
209, ,PASS, ,0.029553454543708998, ,0.019100303055828407, ,-0.001554930498533912, ,0.00011561219408728187
210, ,PASS, ,0.029481921522874998, ,0.019132062867627551, ,-0.0015517956577899064, ,0.00011551825878181824
211, ,PASS, ,0.029592126257419991, ,0.019151279298359206, ,-0.0015674539236410774, ,0.00011606443635878929
212, ,PASS, ,0.02934537095240301, ,0.018897235335236014, ,-0.0015614620628472313, ,0.00011360116710921061
213, ,PASS, ,0.029226794385960004, ,0.018723258540169947, ,-0.0015610923689702155, ,0.00011205111361576895
214, ,PASS, ,0.029104714583502007, ,0.018655073022175731, ,-0.0015639607846608633, ,0.00011121730328078777
215, ,PASS, ,0.029288075514893003, ,0.018839466106937274, ,-0.0016071265602961582, ,0.0001130316421321915
216, ,PASS, ,0.029473774243754997, ,0.018880007926503559, ,-0.0015395450410268727, ,0.00011394132150669968
217, ,PASS, ,0.029592735862884002, ,0.018810383406543941, ,-0.0015317749432046414, ,0.0001139620857436966
218, ,PASS, ,0.029501069310148002, ,0.018823747749902735, ,-0.0015923967755732456, ,0.00011370140008362986
219, ,PASS, ,0.029479131230576994, ,0.018735278856697853, ,-0.0015399108212948156, ,0.00011301594528280523
220, ,PASS, ,0.029442238041654994, ,0.018643641899249608, ,-0.0015282298612642458, ,0.00011239500329755628
221, ,PASS, ,0.029434660074411, ,0.018453839181235311, ,-0.0015247107854749289, ,0.00011118544869818631
222, ,PASS, ,0.029298770253393003, ,0.018556923263060007, ,-0.0015173750117161112, ,0.0001112328187793943
223, ,PASS, ,0.029419362118483998, ,0.018753074556567731, ,-0.0015145940168210048, ,0.00011291233055804622
224, ,PASS, ,0.029432295334807998, ,0.018836643822755177, ,-0.0016338794058370736, ,0.00011343245191167572
225, ,PASS, ,0.02928365815714, ,0.01865592771908741, ,-0.001563401560572101, ,0.00011181144818418701
226, ,PASS, ,0.029310603000070004, ,0.018615657330645775, ,-0.0015129593172002202, ,0.00011167037390453386
227, ,PASS, ,0.02920589742436, ,0.018554202350984834, ,-0.0015861338016394766, ,0.00011088143267368593
228, ,PASS, ,0.029384227631340007, ,0.018534365376577867, ,-0.0014950139235752956, ,0.00011148759963693918
229, ,PASS, ,0.029292782282191003, ,0.018440066688670462, ,-0.00152311744067355, ,0.00011058832341016596
230, ,PASS, ,0.029177105982805998, ,0.018407467385486063, ,-0.0015602499772021253, ,0.00010993484568904759
231, ,PASS, ,0.029199806478028001, ,0.018350383315204246, ,-0.0015756225547276788, ,0.00010968314994386832
232, ,PASS, ,0.029391105776701999, ,0.018790590767886917, ,-0.0016284869570465568, ,0.00011306038810079266
233, ,PASS, ,0.029747953338112011, ,0.019462078255454152, ,-0.0016207846156742324, ,0.00011850708644575894
234, ,PASS, ,0.029217430984452002, ,0.018214012538028929, ,-0.0015591417074933363, ,0.00010890395734177108
235, ,PASS, ,0.029199950828428006, ,0.018103673791282391, ,-0.0015537294257273516, ,0.00010817419192642084
236, ,PASS, ,0.029519552437406997, ,0.018183990462407668, ,-0.0014747438986228518, ,0.000109856696746799
237, ,PASS, ,0.029545374310859001, ,0.018264997564487673, ,-0.0015169843239762619, ,0.000110451459755633
238, ,PASS, ,0.029215930064950012, ,0.017819503276076273, ,-0.0014966325686032373, ,0.00010653062308239362
239, ,PASS, ,0.029333765508235993, ,0.018021690833896313, ,-0.0015249311497662393, ,0.00010818425799078453
240, ,PASS, ,0.029586802007125004, ,0.018242225756790811, ,-0.0015433447044780186, ,0.00011046404382116796
241, ,PASS, ,0.029772481989994996, ,0.018610957166772076, ,-0.0016135092945599081, ,0.00011341357697181649
242, ,PASS, ,0.029299362716292, ,0.017785789043726127, ,-0.0014165632071458619, ,0.00010663268936029524
243, ,PASS, ,0.029277847135959, ,0.017885142604399926, ,-0.0015357263106647689, ,0.0001071742934506099
244, ,PASS, ,0.029530842781369998, ,0.017964455976390344, ,-0.0014826413298032544, ,0.00010856350031629559
245, ,PASS, ,0.029626937012489998, ,0.018097481226909524, ,-0.0015164652041598204, ,0.00010971824238552365
246, ,PASS, ,0.029411743582171003, ,0.017644002311447107, ,-0.0013843624635840152, ,0.00010620400614114817
247, ,PASS, ,0.029585878781295996, ,0.017865767676643725, ,-0.0014411670855876252, ,0.0001081699539626113
248, ,PASS, ,0.029697242971931999, ,0.017886213565265766, ,-0.0014391219257272093, ,0.00010869806302754061
249, ,PASS, ,0.029919731439673997, ,0.017983297309189825, ,-0.001469449130617083, ,0.00011011751368645779
250, ,PASS, ,0.029662338842440995, ,0.017506865348941612, ,-0.0014800076855808642, ,0.00010628510986674621
251, ,PASS, ,0.029743054530625999, ,0.017802321848142733, ,-0.0014109552508649328, ,0.00010838773280081087
252, ,PASS, ,0.029254285748861002, ,0.017686704228581977, ,-0.0014510527802515136, ,0.00010589948173781821
253, ,PASS, ,0.029587489456899003, ,0.017849555915180854, ,-0.0014390245636807185, ,0.00010809581306420006
254, ,PASS, ,0.030005368397284002, ,0.017910082059554338, ,-0.0014601181957968141, ,0.00011001003123581259
255, ,PASS, ,0.030021028916559004, ,0.018083701267008832, ,-0.0014762885419258166, ,0.00011115032524384223
