Channel, ,Pass/Fail, ,Amplitude, ,Sorting Function Response, ,Mean, ,Variance, ,NPeaksRatio, ,PosIntegralRatio, ,ToT50, ,ToT99
84, ,PASS, ,0.018876669999999995, ,0.0017842586605529513, ,0.027492581176098443, ,3.371257946283847e-05, ,1.5833333333333333, ,0.5349148246586856, ,0.40868553702985655, ,0.018326156609048794
85, ,PASS, ,0.020695819999999983, ,0.002346080143309729, ,0.027030198440235912, ,4.8881919331173e-05, ,1.75, ,0.6071993902799886, ,0.39407359033489114, ,0.016081304463174222
86, ,PASS, ,0.022357730000000006, ,0.002664813492336108, ,0.02672425890777739, ,6.004114078133359e-05, ,1.75, ,0.6266464536662311, ,0.3901961184465623, ,0.0190608354931532
87, ,PASS, ,0.0215032, ,0.002490470915298382, ,0.026878380268770027, ,5.397591222210523e-05, ,1.75, ,0.6166528537388092, ,0.3909512050774474, ,0.02463215036427828
88, ,PASS, ,0.018659639999999988, ,0.001695241576611673, ,0.027470722760147753, ,3.16129392576198e-05, ,1.5833333333333333, ,0.520387869520812, ,0.4146650068365952, ,0.014387461480377952
89, ,PASS, ,0.007062609999999997, ,0.001120273096073718, ,0.027583676008856958, ,8.173431742068872e-06, ,1.75, ,0.8074209761471578, ,0.35433970735291115, ,0.062121181200383666
90, ,PASS, ,0.018653859999999974, ,0.002984018239291539, ,0.026449452309136545, ,5.7056141875188556e-05, ,1.75, ,0.7826965284542585, ,0.3658496765372135, ,0.09930409583477888
91, ,PASS, ,0.030698069999999987, ,0.004769178637083971, ,0.02507139987020673, ,0.0001491731183557881, ,1.8333333333333333, ,0.7450086753470735, ,0.3736658435542132, ,0.07820248566355789
92, ,PASS, ,0.035452407000000005, ,0.005537364761324264, ,0.024755212019142468, ,0.00019966136553251844, ,1.8333333333333333, ,0.7448075523953087, ,0.376971898532683, ,0.08303912165057856
93, ,PASS, ,0.032405657000000004, ,0.0050535506124270175, ,0.024962418251668332, ,0.00016690152901629402, ,1.8333333333333333, ,0.7496287330962317, ,0.37231893226668844, ,0.08387583926858636
94, ,PASS, ,0.01664582, ,0.0026164559236043082, ,0.026643966833942163, ,4.475501804493241e-05, ,1.75, ,0.7855327343763286, ,0.36156404971327116, ,0.09136548233709516
95, ,PASS, ,0.00789797, ,0.0012247259677485663, ,0.027659714488071672, ,9.999403242912826e-06, ,1.75, ,0.7951769888102287, ,0.3528499418379217, ,0.02812187506377421
96, ,PASS, ,0.019851949999999976, ,0.0031252990859254237, ,0.026155675903144833, ,6.35869879535799e-05, ,1.75, ,0.7718063947121789, ,0.3649925511724251, ,0.07930450398971449
97, ,PASS, ,0.030417429999999995, ,0.004747406611035281, ,0.025135297041897105, ,0.000147237011112534, ,1.75, ,0.7517890398751325, ,0.3717475153568294, ,0.08671251607110059
98, ,PASS, ,0.03470375200000001, ,0.005414621669225115, ,0.024613472300361216, ,0.00019124241741029082, ,1.8333333333333333, ,0.7466356382427802, ,0.3750943858288606, ,0.08024326034162568
99, ,PASS, ,0.03172074000000001, ,0.004968619173146399, ,0.02505985308932471, ,0.00016076662226483052, ,1.75, ,0.753949946771295, ,0.37240056325381116, ,0.0822636272729128
100, ,PASS, ,0.016785989999999997, ,0.0026787392236571673, ,0.026514528988592065, ,4.61281039442424e-05, ,1.75, ,0.7775475662321751, ,0.3628293300136732, ,0.08301871390379788
101, ,PASS, ,0.006628879999999993, ,0.0009740769713328036, ,0.027571498147996976, ,6.6227370902148844e-06, ,1.75, ,0.7459418415536815, ,0.36935980898349013, ,0.06503948899002061
102, ,PASS, ,0.01552961999999999, ,0.0025270042321517885, ,0.02645569980877941, ,4.041756205301121e-05, ,1.75, ,0.8004404511511257, ,0.35787024754596847, ,0.08216158853900941
103, ,PASS, ,0.025009050000000022, ,0.003979983769550335, ,0.025432808539417564, ,0.00010225788232106417, ,1.75, ,0.7845624577938939, ,0.36238035958449827, ,0.06630476929042264
104, ,PASS, ,0.028682169999999996, ,0.004525706769159888, ,0.02512785862900757, ,0.00013318954029009123, ,1.75, ,0.7810889430326532, ,0.3658904920307749, ,0.07238627783106467
105, ,PASS, ,0.026032549999999998, ,0.00410487403660902, ,0.025582512107508015, ,0.00010995619946270631, ,1.75, ,0.7846217861630858, ,0.35936001306095794, ,0.06377420868961858
106, ,PASS, ,0.015268290000000004, ,0.0024263500994598374, ,0.026778905674373993, ,3.8247055774124666e-05, ,1.75, ,0.807287747416896, ,0.3563192587906369, ,0.06405991714454808
107, ,PASS, ,0.004951249999999994, ,0.0007427297022186435, ,0.027820513092181788, ,3.815320635102295e-06, ,1.9166666666666667, ,0.8045018216353698, ,0.3511969143486868, ,0.040468561866084364
108, ,PASS, ,0.014230429999999995, ,0.002194606684766425, ,0.026891503196873532, ,3.2289468789007805e-05, ,1.75, ,0.7883902001911203, ,0.35321728127997387, ,0.04340727740250199
109, ,PASS, ,0.022420210000000006, ,0.0034398699597154685, ,0.025810711978939208, ,7.942594744358561e-05, ,1.75, ,0.7788218452697085, ,0.3596049060223261, ,0.05875390298157181
110, ,PASS, ,0.025556880000000004, ,0.00395724448113733, ,0.025443651805065207, ,0.0001040425041255682, ,1.75, ,0.7788739066002638, ,0.36074773984204406, ,0.06228444317462909
111, ,PASS, ,0.023955530000000006, ,0.00362315999854852, ,0.025523957678822883, ,8.936884506114265e-05, ,1.75, ,0.7708208861990157, ,0.358849819391441, ,0.042529744290932835
112, ,PASS, ,0.013707759999999989, ,0.0021428661867912775, ,0.026689778269219, ,3.0373194711417063e-05, ,1.75, ,0.7967602918586988, ,0.3539315524172976, ,0.055080508561049776
113, ,PASS, ,0.005816579999999995, ,0.0007956714805871648, ,0.027764266895981708, ,4.800057692399913e-06, ,1.9166666666666667, ,0.7409976954876802, ,0.34989081855472337, ,0.01857104957041693
114, ,PASS, ,0.01437212999999998, ,0.0022146273264628583, ,0.027060980459990617, ,3.281770719700655e-05, ,1.75, ,0.7824808568186205, ,0.3558906961082427, ,0.066345584783984
115, ,PASS, ,0.022006600000000008, ,0.003383375196790128, ,0.026078620053876452, ,7.65521768805781e-05, ,1.75, ,0.7719907983705292, ,0.3609110018162895, ,0.05826411705883553
116, ,PASS, ,0.025038799999999996, ,0.003831060767027573, ,0.02569763123732169, ,9.847445513812309e-05, ,1.75, ,0.7677951136371808, ,0.36284973776045387, ,0.059713067080263665
117, ,PASS, ,0.023490980000000015, ,0.0035841150054265994, ,0.025660100647741886, ,8.655461649348e-05, ,1.75, ,0.7695761292318846, ,0.3607885553356054, ,0.05467235362543622
118, ,PASS, ,0.014227239999999999, ,0.0021733117567544567, ,0.026759096585171734, ,3.188689000723712e-05, ,1.75, ,0.7835269565995059, ,0.35742127711679356, ,0.04555009081447317
119, ,PASS, ,0.005346409999999999, ,0.0006906254312344047, ,0.027914246662517087, ,3.838377243547687e-06, ,1.9166666666666667, ,0.7138531724816118, ,0.3516458847778617, ,0.051182628925940284
120, ,PASS, ,0.013088459999999996, ,0.0017985686683159258, ,0.026946637064753785, ,2.4336216732271743e-05, ,1.8333333333333333, ,0.746267996703949, ,0.35405399889798167, ,0.038284932960551826
121, ,PASS, ,0.019303479999999974, ,0.0026736116007948707, ,0.02637850767821065, ,5.326416718593599e-05, ,1.75, ,0.7386858312788066, ,0.35599273484214605, ,0.057202914226240284
122, ,PASS, ,0.02211353, ,0.0029865177421467895, ,0.026030144334401338, ,6.8013387712979e-05, ,1.75, ,0.7227522534512606, ,0.3584416644558274, ,0.05577437195159282
123, ,PASS, ,0.021021279999999976, ,0.0028711045747232176, ,0.02622086896900063, ,6.22788900699117e-05, ,1.75, ,0.7346055003490287, ,0.3568090447133732, ,0.053590743046060284
124, ,FAIL, ,0.0006253199999999987, ,2.6070622074354288e-05, ,0.028437738592069554, ,1.930284661074138e-08, ,1.0833333333333333, ,0.404828086313489, ,0.6219260831411604, ,0.0024693373604620316
