Channel, ,Pass/Fail, ,Amplitude, ,Sorting Function Response, ,Mean, ,Variance, ,NPeaksRatio, ,PosIntegralRatio, ,ToT50, ,ToT99
42, ,PASS, ,0.006477809999999994, ,0.0006362758976703065, ,0.03556043347482704, ,4.189128130345122e-06, ,1.75, ,0.603977263898021, ,0.6201302014244607, ,0.03675435195200098
43, ,PASS, ,0.006857290000000016, ,0.0005323588400067612, ,0.035528279367768006, ,3.7017777307389128e-06, ,1.4166666666666667, ,0.5068706628286049, ,0.6214771127119855, ,0.01042835860492643
44, ,PASS, ,0.0066071399999999975, ,0.0005149312498174476, ,0.035485408394726636, ,3.442193780472444e-06, ,1.4166666666666667, ,0.47084585143519697, ,0.6169670006734557, ,0.011142629742250158
45, ,PASS, ,0.006394589999999992, ,0.0005302769700769634, ,0.035686468577988205, ,3.435081504496822e-06, ,1.5833333333333333, ,0.5138062515561108, ,0.6164568070039387, ,0.008816146609252873
46, ,PASS, ,0.006276449999999996, ,0.0005258522605254112, ,0.03560850353115243, ,3.3326295881495884e-06, ,1.5833333333333333, ,0.5432018624850558, ,0.6150894879696333, ,0.012836472725046427
47, ,PASS, ,0.006591029999999977, ,0.0005363728580984104, ,0.035657600094283794, ,3.5670379809104393e-06, ,1.4166666666666667, ,0.49758180187197654, ,0.6174159711026306, ,0.015469072059753883
48, ,PASS, ,0.006298479999999988, ,0.0005350250138569062, ,0.035665406878022894, ,3.4110528156569887e-06, ,1.5, ,0.5380499285752711, ,0.6291504255015203, ,0.026774963776249463
49, ,PASS, ,0.006695390000000016, ,0.0005644348612116926, ,0.03565259697842901, ,3.832372362950656e-06, ,1.4166666666666667, ,0.5129144442334475, ,0.6183955429481031, ,0.02116283341156303
50, ,PASS, ,0.00668156000000001, ,0.0005541478756091103, ,0.035480495599273486, ,3.7392894475361916e-06, ,1.5833333333333333, ,0.4898615466311363, ,0.6159670210812024, ,0.008571253647884736
51, ,PASS, ,0.006513120000000011, ,0.0005291106805169099, ,0.035671778685741104, ,3.4860668997198965e-06, ,1.4166666666666667, ,0.4957904805186548, ,0.6169261851798943, ,0.023509724291340992
52, ,PASS, ,0.00677552, ,0.0005551328761796542, ,0.035628849745107244, ,3.8031359291896277e-06, ,1.4166666666666667, ,0.5194359630090399, ,0.6160486520683252, ,0.012163017081284056
53, ,PASS, ,0.00640045999999999, ,0.0005736773099692205, ,0.035753287463317074, ,3.7381745668632705e-06, ,1.5833333333333333, ,0.5456283026184168, ,0.6204567253729516, ,0.033774820922022
54, ,PASS, ,0.006261640000000013, ,0.0005535345745907752, ,0.03568339970980184, ,3.521431143026578e-06, ,1.5833333333333333, ,0.5484035331860813, ,0.6201506091712414, ,0.03318299626538234
55, ,PASS, ,0.006497369999999995, ,0.00056768240490409, ,0.03571993167302708, ,3.7523362351118514e-06, ,1.5833333333333333, ,0.5306957933813324, ,0.6176200485704373, ,0.02640762433419726
56, ,PASS, ,0.006603680000000008, ,0.0005980788722569138, ,0.035507330414277255, ,4.002404827268898e-06, ,1.6666666666666667, ,0.5691582783176083, ,0.6203138711454869, ,0.026305585600293873
57, ,PASS, ,0.006244230000000003, ,0.0005698925109921674, ,0.03544177762555866, ,3.5987416886343345e-06, ,1.5833333333333333, ,0.579404933659831, ,0.6225383155445807, ,0.02969327156588641
58, ,PASS, ,0.006611729999999996, ,0.0005645597830514407, ,0.035510473423399525, ,3.818493006098919e-06, ,1.5833333333333333, ,0.5463371516663668, ,0.6210077345360299, ,0.008040652231587111
59, ,PASS, ,0.006571050000000009, ,0.0005729322188402858, ,0.03539970258321259, ,3.8162171328253784e-06, ,1.5833333333333333, ,0.5429728920946999, ,0.6140691006305994, ,0.03069325115813963
60, ,PASS, ,0.00656830999999998, ,0.000581202219417918, ,0.03576351293034836, ,3.88166648692714e-06, ,1.6666666666666667, ,0.5473214626124339, ,0.6157629436133957, ,0.010101834656435583
61, ,PASS, ,0.006442669999999991, ,0.0005771852291321967, ,0.035685787326789245, ,3.757588904528716e-06, ,1.5833333333333333, ,0.5695026369654734, ,0.6224362768106774, ,0.0272035264586437
62, ,PASS, ,0.006858440000000007, ,0.0005611034717316006, ,0.03563964646660272, ,3.887162754065388e-06, ,1.5, ,0.5029968024069793, ,0.6176812718107794, ,0.019917960857941674
63, ,PASS, ,0.0067487900000000114, ,0.0005855942969153422, ,0.03555951968470031, ,3.982315284543017e-06, ,1.5833333333333333, ,0.535173595311199, ,0.6176200485704373, ,0.02291789963470133
64, ,PASS, ,0.0065357300000000035, ,0.0005332586346744233, ,0.03586647257545764, ,3.5331169611306583e-06, ,1.5833333333333333, ,0.4810936139070676, ,0.6125997428623906, ,0.022285259484500317
65, ,PASS, ,0.006550420000000001, ,0.0005988596793172157, ,0.035482489899593884, ,3.957815151863102e-06, ,1.5833333333333333, ,0.5569178871680955, ,0.616558845737842, ,0.023366870063876246
66, ,PASS, ,0.0064942000000000125, ,0.0005839274089249865, ,0.03565215587212506, ,3.840761234038302e-06, ,1.6666666666666667, ,0.5588625455093464, ,0.6148854105018265, ,0.01828534111548744
67, ,PASS, ,0.006798980000000003, ,0.0006192944989633258, ,0.035642934878675946, ,4.250267376559686e-06, ,1.6666666666666667, ,0.5530353750701877, ,0.6152935654374401, ,0.03199934695210302
68, ,PASS, ,0.006534759999999994, ,0.0006442650039751215, ,0.03558075267280259, ,4.26255860098764e-06, ,1.75, ,0.6124621075011532, ,0.6159262055876411, ,0.029427970857737597
69, ,PASS, ,0.006703670000000009, ,0.0006123227344589343, ,0.03571176636068652, ,4.155751047296919e-06, ,1.5833333333333333, ,0.5603988734924771, ,0.621191404257056, ,0.03089732862594641
70, ,PASS, ,0.006912169999999988, ,0.0006187319046760208, ,0.03578014076120896, ,4.323958636014416e-06, ,1.5833333333333333, ,0.5203315967811393, ,0.6144976633129936, ,0.01320381216709863
71, ,PASS, ,0.006725580000000002, ,0.0006143299715672788, ,0.035588880759168176, ,4.19405682427487e-06, ,1.6666666666666667, ,0.5726853061607975, ,0.6170282239137976, ,0.034672761780371826
72, ,PASS, ,0.006771530000000012, ,0.0006167460697468968, ,0.03566695766821085, ,4.2347355456041394e-06, ,1.5833333333333333, ,0.5414273605758069, ,0.6209669190424685, ,0.013877267810861002
73, ,PASS, ,0.006895859999999983, ,0.0005753251759609014, ,0.035521492176282116, ,4.02383904375277e-06, ,1.5833333333333333, ,0.5261322025014672, ,0.6199261239566539, ,0.026754556029468787
74, ,PASS, ,0.006927999999999997, ,0.0006085255282325042, ,0.03552567584518684, ,4.267756291009027e-06, ,1.5833333333333333, ,0.534441276765181, ,0.6184159506948838, ,0.025591314462970142
75, ,PASS, ,0.006611909999999985, ,0.000626482776953661, ,0.03557657473214832, ,4.204967390666596e-06, ,1.6666666666666667, ,0.5856979696144496, ,0.6193751147935757, ,0.03814207873308708
76, ,PASS, ,0.006652029999999982, ,0.0006908486704417585, ,0.03586558407175364, ,4.679649353054605e-06, ,1.8333333333333333, ,0.633682821100557, ,0.6229464704801942, ,0.007020264892553213
77, ,PASS, ,0.00672194000000001, ,0.0006382392631783629, ,0.03551929867431277, ,4.349718911482659e-06, ,1.5833333333333333, ,0.5825555216957505, ,0.6205791718536356, ,0.02663210954878472
78, ,PASS, ,0.0068164, ,0.0005930283415324678, ,0.03556531039897145, ,4.0701878675690254e-06, ,1.6666666666666667, ,0.5244557327700644, ,0.6173955633558499, ,0.005652945858247791
79, ,PASS, ,0.0066567300000000065, ,0.0006306361840392234, ,0.03565598080202445, ,4.261851287299486e-06, ,1.6666666666666667, ,0.5853304329078876, ,0.621252627497398, ,0.026346401093855228
112, ,PASS, ,0.006752649999999992, ,0.0006282448022213432, ,0.03564301412991572, ,4.304653883621278e-06, ,1.6666666666666667, ,0.5546020056478522, ,0.617640456317218, ,0.02316279259606947
113, ,PASS, ,0.006876869999999986, ,0.0006021186470364375, ,0.035469141334054405, ,4.20136518942158e-06, ,1.5833333333333333, ,0.5352971572523246, ,0.6180077957592702, ,0.025591314462970142
114, ,PASS, ,0.006714960000000006, ,0.0006170762479708857, ,0.03552468872716883, ,4.193454334947062e-06, ,1.5833333333333333, ,0.5526429209617351, ,0.617640456317218, ,0.015081324870921002
115, ,PASS, ,0.007044499999999995, ,0.000621723659613834, ,0.03575105580722842, ,4.433794487128057e-06, ,1.6666666666666667, ,0.5465557943414148, ,0.6168853696863329, ,0.013224219913879308
116, ,PASS, ,0.006965780000000005, ,0.0006123761988336647, ,0.035809775532948306, ,4.314742978181708e-06, ,1.6666666666666667, ,0.5507242290712916, ,0.6194363380339176, ,0.005673353605028469
117, ,PASS, ,0.006933500000000002, ,0.0006219382579373441, ,0.035509903914818064, ,4.393787663216197e-06, ,1.5833333333333333, ,0.5593390500463424, ,0.6210485500295913, ,0.018632272810758965
118, ,PASS, ,0.00709172000000001, ,0.0006125786831286117, ,0.03559000429052468, ,4.408813882434408e-06, ,1.5833333333333333, ,0.5363688275628181, ,0.619987347196996, ,0.023999510214077265
119, ,PASS, ,0.007130620000000011, ,0.0006392360701192358, ,0.03549252256709047, ,4.6283526472141616e-06, ,1.5833333333333333, ,0.5399917910822689, ,0.6174771943429725, ,0.015652741780779984
120, ,PASS, ,0.007321900000000006, ,0.0006336307857017128, ,0.035620085726413744, ,4.7290319835106715e-06, ,1.6666666666666667, ,0.5413857370625217, ,0.6184975816820065, ,0.013224219913879308
121, ,PASS, ,0.0072730400000000014, ,0.0006385433271682438, ,0.03559206407869227, ,4.711045527508709e-06, ,1.5833333333333333, ,0.54283873242874, ,0.6143344013387482, ,0.0021224056651905064
122, ,PASS, ,0.007332580000000012, ,0.000612460025496227, ,0.03579626013162997, ,4.551628526564067e-06, ,1.5833333333333333, ,0.522241704026529, ,0.6162731372829126, ,0.02365257851880574
123, ,PASS, ,0.00694707, ,0.0006430356649201345, ,0.03564891739393074, ,4.531428186989657e-06, ,1.5833333333333333, ,0.5695806670885493, ,0.6148650027550459, ,0.01012224240321626
124, ,PASS, ,0.006906830000000017, ,0.0006181585666850199, ,0.035594359455521314, ,4.326686704602169e-06, ,1.5833333333333333, ,0.5515127092678462, ,0.6177220873043408, ,0.03452990755290709
125, ,PASS, ,0.006980960000000001, ,0.0006239904634267996, ,0.035488431223852576, ,4.4070210529413755e-06, ,1.5833333333333333, ,0.5658692853464632, ,0.6209873267892492, ,0.012754841737923716
126, ,PASS, ,0.007328029999999999, ,0.0006330659273241213, ,0.035850574188690025, ,4.6875610208323906e-06, ,1.5, ,0.5276921965413521, ,0.6148241872614845, ,0.030244280728964713
127, ,PASS, ,0.007040980000000009, ,0.0006564279344672733, ,0.03563504081467725, ,4.6833680416846495e-06, ,1.6666666666666667, ,0.5804862227744638, ,0.6201914246648027, ,0.02114242566478235
128, ,PASS, ,0.0072340900000000125, ,0.0006487755540044868, ,0.03593194494826636, ,4.7673267575754755e-06, ,1.6666666666666667, ,0.5495668728821139, ,0.6178649415318055, ,0.023101569355727433
129, ,PASS, ,0.007174110000000011, ,0.0006355723496758941, ,0.03584148061019163, ,4.61066129383782e-06, ,1.5, ,0.5588109695922703, ,0.6183343197077611, ,0.025979061651803026
130, ,PASS, ,0.0074898400000000115, ,0.0006494025399718648, ,0.0358075151335687, ,4.92661507379855e-06, ,1.5833333333333333, ,0.5442935034950191, ,0.617007816167017, ,0.031427930042244034
131, ,PASS, ,0.007598320000000006, ,0.0006974907016973102, ,0.035632217951470375, ,5.360542498602102e-06, ,1.6666666666666667, ,0.5737798814419355, ,0.6136405379482052, ,0.02293830738148201
132, ,PASS, ,0.007266640000000012, ,0.000682903626252185, ,0.03570281659231444, ,5.022769130848146e-06, ,1.6666666666666667, ,0.5960079015948522, ,0.6203342788922676, ,0.021632211587518622
133, ,PASS, ,0.007842950000000001, ,0.000698084114125478, ,0.03580866886879859, ,5.534982627261263e-06, ,1.5833333333333333, ,0.5563672936341835, ,0.6143956245790902, ,0.025713760943654212
134, ,PASS, ,0.008191710000000005, ,0.0007933510912317373, ,0.03594801241852207, ,6.610971374712234e-06, ,1.6666666666666667, ,0.5683358859085961, ,0.6164568070039387, ,0.027244341952205056
135, ,PASS, ,0.02038957000000002, ,0.003602524440625222, ,0.03745893693047081, ,7.471250432995163e-05, ,1.9166666666666667, ,0.8578727982126189, ,0.6071304667251689, ,0.09503887675761719
136, ,PASS, ,0.009127199999999981, ,0.0009798289520842915, ,0.0362337810795698, ,9.110100806820284e-06, ,1.6666666666666667, ,0.6319275598153634, ,0.6166608844717455, ,0.02987694128691251
137, ,PASS, ,0.008453920000000018, ,0.0008303822707070526, ,0.036108390750801, ,7.105171337455234e-06, ,1.75, ,0.5909344542626701, ,0.6172731168751658, ,0.035529887145160303
138, ,PASS, ,0.008606149999999996, ,0.0008603299565235602, ,0.036054411506703944, ,7.4868676325258115e-06, ,1.6666666666666667, ,0.5956596127974066, ,0.6159874288279831, ,0.021326095385808454
139, ,PASS, ,0.008618050000000006, ,0.0008829964327270203, ,0.03579497532356482, ,7.690364632467606e-06, ,1.6666666666666667, ,0.6096291308760047, ,0.612701781596294, ,0.03944817452705047
140, ,PASS, ,0.00829089999999999, ,0.0008472188661497435, ,0.03576239132895247, ,7.104483144243695e-06, ,1.6666666666666667, ,0.6062776420358292, ,0.6161710985490092, ,0.02712189547152099
141, ,PASS, ,0.008489240000000002, ,0.0008863947022867758, ,0.03595406267076182, ,7.618674863331257e-06, ,1.75, ,0.6210697541471086, ,0.6172527091283851, ,0.010285504377461684
142, ,PASS, ,0.008542629999999989, ,0.0008562412616068738, ,0.03583429814391543, ,7.388554708583455e-06, ,1.6666666666666667, ,0.6040803297004417, ,0.6156404971327116, ,0.004999897961266097
143, ,PASS, ,0.00860888, ,0.0008850943813713964, ,0.0358672477737189, ,7.68463737064934e-06, ,1.75, ,0.6055143186073622, ,0.6131507520254689, ,0.019530213669108794
176, ,PASS, ,0.008826049999999995, ,0.0009048683595911847, ,0.035899815731923836, ,8.078066632612398e-06, ,1.75, ,0.6051282752693862, ,0.6171506703944818, ,0.020305708046774555
177, ,PASS, ,0.008515060000000005, ,0.0008654175574709298, ,0.035952067055570296, ,7.462761641966536e-06, ,1.6666666666666667, ,0.6075352161308448, ,0.6178241260382441, ,0.032652394849084714
178, ,PASS, ,0.008511900000000003, ,0.0008102363094852351, ,0.03596671771861799, ,6.994279381930705e-06, ,1.6666666666666667, ,0.580455576537918, ,0.6211709965102753, ,0.007959021244464399
179, ,PASS, ,0.008564980000000003, ,0.0008668279438629509, ,0.03614889302157098, ,7.503185971321823e-06, ,1.6666666666666667, ,0.6239689224839914, ,0.618150649986735, ,0.03457072304646844
180, ,PASS, ,0.008480150000000006, ,0.0008600173644525614, ,0.03578280784126855, ,7.3988759564459e-06, ,1.6666666666666667, ,0.6082145754698993, ,0.6145588865533357, ,0.030448358196771493
181, ,PASS, ,0.008693519999999993, ,0.0008681510949529091, ,0.03614257596314361, ,7.67568109077267e-06, ,1.75, ,0.5985531838298298, ,0.6153343809310015, ,0.026877002510152855
182, ,PASS, ,0.008447229999999993, ,0.0008344861289025184, ,0.03594724784881941, ,7.1516444985526235e-06, ,1.6666666666666667, ,0.588894510264126, ,0.615171118956756, ,0.032631987102304034
183, ,PASS, ,0.008455569999999992, ,0.0008481064720834006, ,0.035857445377441274, ,7.264968306268688e-06, ,1.75, ,0.6090846646000484, ,0.6174159711026306, ,0.030060611007938613
184, ,PASS, ,0.008623939999999997, ,0.0008494801194425995, ,0.035917199505316216, ,7.411574743553072e-06, ,1.6666666666666667, ,0.5869052407710951, ,0.6168649619395522, ,0.03048917369033285
185, ,PASS, ,0.008583869999999987, ,0.0008277736045835479, ,0.03611160783759515, ,7.2002250155453375e-06, ,1.75, ,0.5864566933022362, ,0.6146813330340197, ,0.016326197424542357
186, ,PASS, ,0.008159079999999996, ,0.0008392435219650356, ,0.03590429961041611, ,6.936963184549932e-06, ,1.75, ,0.6141733555414459, ,0.6203342788922676, ,0.04344809289606334
187, ,PASS, ,0.008491149999999996, ,0.0008326942110848418, ,0.03606266110038571, ,7.166664902052257e-06, ,1.6666666666666667, ,0.5770401480502965, ,0.6170282239137976, ,0.024754596844962347
188, ,PASS, ,0.008457190000000007, ,0.0008767458392698079, ,0.03599604013836452, ,7.518556952192861e-06, ,1.75, ,0.6179868207865646, ,0.6177833105446827, ,0.03614211954858064
189, ,PASS, ,0.008485829999999993, ,0.0008453170363942229, ,0.0358409591214465, ,7.274311663416913e-06, ,1.6666666666666667, ,0.5960319275575479, ,0.6060692638925737, ,0.029632048325544377
190, ,PASS, ,0.00835495000000001, ,0.0008336429112931205, ,0.0358922967194547, ,7.037120445179352e-06, ,1.6666666666666667, ,0.5959836112888386, ,0.6147629640211424, ,0.022877084141139977
191, ,PASS, ,0.008714399999999994, ,0.0008680982427162645, ,0.035954383641762414, ,7.646176008622244e-06, ,1.75, ,0.6071216987888935, ,0.6187016591498132, ,0.021040386930878962
192, ,PASS, ,0.00859262000000001, ,0.0008827107626553609, ,0.03583613019979184, ,7.681899651351893e-06, ,1.6666666666666667, ,0.624109188067647, ,0.613967061896696, ,0.04048896961286504
193, ,PASS, ,0.008377410000000002, ,0.0008404060289740455, ,0.03607251504275423, ,7.131750489253218e-06, ,1.75, ,0.5981363902163, ,0.6205383563600743, ,0.008224321952613212
194, ,PASS, ,0.008496789999999997, ,0.0008653945014370266, ,0.03601555055264178, ,7.4854278851309045e-06, ,1.75, ,0.6153261966476743, ,0.618150649986735, ,0.03483602375461725
195, ,PASS, ,0.00854268, ,0.0008985718246507284, ,0.03587739403828493, ,7.808210860037312e-06, ,1.6666666666666667, ,0.6271802009845686, ,0.6173547478622885, ,0.04020326115793555
196, ,PASS, ,0.008517750000000004, ,0.000843420618747525, ,0.035950151968123095, ,7.245459039756006e-06, ,1.6666666666666667, ,0.5791614119751366, ,0.6154568274116855, ,0.02093834819697557
197, ,PASS, ,0.00901294, ,0.0008769858647737278, ,0.03608241562519132, ,8.028845382314577e-06, ,1.6666666666666667, ,0.5841141105713378, ,0.6197016387420665, ,0.025774984183996246
198, ,PASS, ,0.008581329999999991, ,0.0008332035511870437, ,0.035798080480194276, ,7.239916138200431e-06, ,1.75, ,0.5690343560901046, ,0.6167425154588682, ,0.005224383175853554
199, ,PASS, ,0.00845093999999999, ,0.0008291755958899884, ,0.036177213214220114, ,7.113606627426203e-06, ,1.6666666666666667, ,0.5923250600943508, ,0.6199465317034346, ,0.011285483969714905
200, ,PASS, ,0.008657749999999999, ,0.0008251865579323672, ,0.03606769148507173, ,7.256827165918926e-06, ,1.6666666666666667, ,0.5817324193834115, ,0.6208240648150037, ,0.029734087059447765
201, ,PASS, ,0.008556349999999994, ,0.0008588661549635289, ,0.03587689767616987, ,7.458144781082968e-06, ,1.75, ,0.6038642774652732, ,0.6205995796004163, ,0.04226444358278403
202, ,PASS, ,0.008448780000000003, ,0.0008876219895360654, ,0.03589149225423971, ,7.614228210417562e-06, ,1.6666666666666667, ,0.6156368894000329, ,0.6137425766821085, ,0.03320340401216302
203, ,PASS, ,0.008564659999999988, ,0.0009343130943072653, ,0.03600536611252832, ,8.103260269315797e-06, ,1.75, ,0.6570264577872296, ,0.6208240648150037, ,0.039101242831778946
204, ,PASS, ,0.0083091, ,0.0008221593860305265, ,0.03590756792983816, ,6.922705997214461e-06, ,1.75, ,0.5917972785735071, ,0.6191506295789881, ,0.023611763025244384
205, ,PASS, ,0.00889606, ,0.0008600779927542395, ,0.035970433271769964, ,7.752995980266388e-06, ,1.6666666666666667, ,0.5861416725644021, ,0.6180077957592702, ,0.02887696169465929
206, ,PASS, ,0.008644629999999997, ,0.0008818089137542114, ,0.03583128866104773, ,7.694574384221834e-06, ,1.75, ,0.5951837433751541, ,0.6178649415318055, ,0.014816024162772189
207, ,PASS, ,0.008704689999999998, ,0.0008791856029682352, ,0.036036082379135116, ,7.780730183225348e-06, ,1.6666666666666667, ,0.6082896024354945, ,0.6160894675618865, ,0.03714209914083386
208, ,PASS, ,0.008849629999999987, ,0.000889461821799278, ,0.03585543528009632, ,7.966985976821276e-06, ,1.75, ,0.6021815725459407, ,0.6219873063815025, ,0.012489541029774903
209, ,PASS, ,0.008612029999999996, ,0.000897824011313527, ,0.03607249923409726, ,7.818629543739818e-06, ,1.75, ,0.6188710203357579, ,0.6209056958021265, ,0.04501948939817555
210, ,PASS, ,0.008709220000000004, ,0.0008675680281839258, ,0.036077428494928676, ,7.67571182546716e-06, ,1.6666666666666667, ,0.6042043548518142, ,0.6178445337850248, ,0.036325789269606744
211, ,PASS, ,0.008839619999999996, ,0.0008673894377777648, ,0.03592197500826514, ,7.790030009040834e-06, ,1.6666666666666667, ,0.5956784412521954, ,0.6100079590212445, ,0.021632211587518622
212, ,PASS, ,0.008726540000000005, ,0.0008940969599508009, ,0.03607466269443481, ,7.922352829012653e-06, ,1.75, ,0.6181936974235306, ,0.6169670006734557, ,0.03810126323952572
213, ,PASS, ,0.008957720000000006, ,0.0008680067980184185, ,0.03606218989551233, ,7.889760640176686e-06, ,1.6666666666666667, ,0.605197455676734, ,0.6207424338278811, ,0.03448909205934573
214, ,PASS, ,0.008487500000000005, ,0.0009081767729082012, ,0.03595466937042101, ,7.843318334675275e-06, ,1.6666666666666667, ,0.6223471196933967, ,0.6167016999653069, ,0.009693679720822024
215, ,PASS, ,0.008855870000000005, ,0.0008800818309335414, ,0.035881752706475374, ,7.935050034070194e-06, ,1.6666666666666667, ,0.593763645017321, ,0.6135180914675211, ,0.024305626415787433
216, ,PASS, ,0.008695289999999998, ,0.0008857374034798611, ,0.03581019036978837, ,7.781729505801469e-06, ,1.75, ,0.6124616384222341, ,0.6193138915532336, ,0.021326095385808454
217, ,PASS, ,0.008803080000000008, ,0.000913959888611179, ,0.035932491903634615, ,8.160105336136376e-06, ,1.75, ,0.6251755061898397, ,0.6158853900940797, ,0.02316279259606947
218, ,PASS, ,0.008930990000000003, ,0.0009138324299839751, ,0.03603051095283769, ,8.286154522481402e-06, ,1.75, ,0.6090965425215787, ,0.6210281422828106, ,0.024979082059549806
219, ,PASS, ,0.008792580000000005, ,0.0009074356228645299, ,0.035977354445623555, ,8.103263297928748e-06, ,1.75, ,0.6242997453153735, ,0.6207628415746618, ,0.04399910205914165
220, ,PASS, ,0.008853760000000002, ,0.000875903963655556, ,0.03590655540662435, ,7.949346013109615e-06, ,1.6666666666666667, ,0.6089141615201232, ,0.6203546866390481, ,0.03442786881900369
221, ,PASS, ,0.008586219999999999, ,0.0008667855182145392, ,0.036076924474806635, ,7.530420318741013e-06, ,1.6666666666666667, ,0.5885022379586182, ,0.6192526683128916, ,0.025183159527356586
222, ,PASS, ,0.009110939999999991, ,0.0009010574997691792, ,0.036129873981347316, ,8.353031664756765e-06, ,1.6666666666666667, ,0.5983297500018502, ,0.6212322197506174, ,0.032162608926348445
223, ,PASS, ,0.009200149999999994, ,0.0009361271433509802, ,0.03596008226117834, ,8.747199430183045e-06, ,1.75, ,0.6026985099481244, ,0.6198240852227506, ,0.013816044570518968
224, ,PASS, ,0.00882268000000001, ,0.00091881876034717, ,0.03598211486683945, ,8.241261333526777e-06, ,1.75, ,0.6132229902167452, ,0.6209465112956879, ,0.03763188506357013
225, ,PASS, ,0.009023090000000001, ,0.0009179698130026202, ,0.036118817949633675, ,8.363968671486622e-06, ,1.75, ,0.593706684540357, ,0.6148241872614845, ,0.02773412787494133
226, ,PASS, ,0.009074169999999996, ,0.0009401246473554761, ,0.03613771530397339, ,8.641467377275119e-06, ,1.6666666666666667, ,0.6062953306600847, ,0.616436399257158, ,0.03842778718801657
227, ,PASS, ,0.008997449999999997, ,0.0009035744643759794, ,0.03602274200261219, ,8.2232389954172e-06, ,1.75, ,0.5791494781325435, ,0.6138446154160119, ,0.006469255729474909
228, ,PASS, ,0.009397680000000005, ,0.000987025049447207, ,0.03612129995081733, ,9.381882369814927e-06, ,1.75, ,0.628163810041209, ,0.6245178669823065, ,0.023019938368604723
229, ,PASS, ,0.009319530000000006, ,0.0009202385229095217, ,0.03597616327442297, ,8.645871445765985e-06, ,1.75, ,0.5963772278959448, ,0.617007816167017, ,0.008714107875349483
230, ,PASS, ,0.01067976000000001, ,0.001153707995398869, ,0.03646189064712965, ,1.2551387016655425e-05, ,1.75, ,0.6378002464857164, ,0.6177220873043408, ,0.02969327156588641
231, ,PASS, ,0.030700019999999995, ,0.005379316230140547, ,0.03871666975204587, ,0.0001687275828974155, ,1.8333333333333333, ,0.8626445404063544, ,0.6160078365747638, ,0.12226281096304158
232, ,PASS, ,0.018788560000000027, ,0.0033523158856769977, ,0.037405819798779626, ,6.411591347774445e-05, ,1.9166666666666667, ,0.8716840291232466, ,0.619599600008163, ,0.16240484888063508
