Channel, ,Pass/Fail, ,Amplitude, ,Sorting Function Response, ,Mean, ,Variance
68, ,PASS, ,0.008636826999999996, ,0.007057315819168895, ,0.0009501856244566435, ,1.271107684091199e-05
69, ,PASS, ,0.019632113, ,0.016231777971735733, ,0.0018332361409767145, ,6.65282838761643e-05
70, ,PASS, ,0.021283093999999995, ,0.01790324036414413, ,0.0020045472902185672, ,7.949964138249862e-05
71, ,PASS, ,0.012088723999999997, ,0.009573900257481503, ,0.0011774105180098362, ,2.4131940660198507e-05
72, ,PASS, ,0.007518414999999997, ,0.005860964363702658, ,0.0006391188904512151, ,9.093658694749148e-06
73, ,PASS, ,0.018936528000000008, ,0.016004707060811536, ,0.0016945179232872804, ,6.280310851843325e-05
74, ,PASS, ,0.021030908999999997, ,0.01782678744547552, ,0.0018747511791187936, ,7.773047364409385e-05
75, ,PASS, ,0.011212215999999997, ,0.009146564888593129, ,0.0009085154495826615, ,2.1192943578103787e-05
76, ,PASS, ,0.007788162999999997, ,0.006620979479872722, ,0.0008380817142915446, ,1.0680713284399247e-05
77, ,PASS, ,0.01830419500000001, ,0.01609417780301347, ,0.0017152656196200084, ,6.114945764730075e-05
78, ,PASS, ,0.020810188, ,0.018169427369204533, ,0.001849003268688394, ,7.856343141796585e-05
79, ,PASS, ,0.011009244, ,0.009634380387060998, ,0.0009990262876267831, ,2.1975645422788706e-05
80, ,PASS, ,0.005928057, ,0.003930259710374489, ,0.0005812534984481949, ,4.83101354615009e-06
81, ,PASS, ,0.013625527, ,0.010593629160201408, ,0.0011386041954653987, ,2.9993622106758637e-05
82, ,PASS, ,0.015343405000000001, ,0.011939102285347161, ,0.0012390603149935715, ,3.804737561917351e-05
83, ,PASS, ,0.008105973999999998, ,0.006331834616057899, ,0.0008263961634864591, ,1.0619320265985386e-05
84, ,PASS, ,0.0061157423, ,0.004205519297677587, ,0.0005256799803718292, ,5.315715236301179e-06
85, ,PASS, ,0.013250894999999999, ,0.010203970593386597, ,0.0010778285153364216, ,2.8070988900917517e-05
86, ,PASS, ,0.014833717999999997, ,0.011470436374749779, ,0.0011907677538213505, ,3.5374159967358415e-05
87, ,PASS, ,0.008668065999999999, ,0.006671225448616427, ,0.0007131769407359031, ,1.2004971510096184e-05
88, ,PASS, ,0.006098958, ,0.0040835252367075235, ,0.0006071401523928084, ,5.149607963244474e-06
89, ,PASS, ,0.012661228999999996, ,0.009685756357410508, ,0.0011069339203689718, ,2.5450333996870822e-05
90, ,PASS, ,0.014447209, ,0.01105476384824859, ,0.0011815175158262077, ,3.314974359000783e-05
91, ,PASS, ,0.007737792999999998, ,0.0059901953570662605, ,0.0006909067077406582, ,9.605325494653693e-06
92, ,PASS, ,0.006383936999999999, ,0.0035267404480550935, ,0.0005929993462272198, ,4.657596535068522e-06
93, ,PASS, ,0.011967412999999996, ,0.008174970363189258, ,0.0009671660163261971, ,2.029222148445089e-05
94, ,PASS, ,0.013542338000000001, ,0.009294596530702774, ,0.0008393973400134689, ,2.612151010348771e-05
95, ,PASS, ,0.007708458999999998, ,0.005044052442723865, ,0.0006928406200751004, ,8.050338790985936e-06
