Channel, ,Pass/Fail, ,Amplitude, ,Sorting Function Response, ,Mean, ,Variance, ,NPeaksRatio, ,PosIntegralRatio, ,ToT50, ,ToT99
49, ,PASS, ,0.076229056, ,0.011999459042025621, ,0.032759034396236814, ,0.000931549563072186, ,1.75, ,0.7634507709146198, ,0.5776820881206506, ,0.1376910675292341
50, ,PASS, ,0.067121472, ,0.010467607877739711, ,0.032396605856002944, ,0.0007156110240508731, ,1.75, ,0.7598133569794713, ,0.5793147078631048, ,0.1299973469929185
51, ,PASS, ,0.0802682, ,0.0122491938255425, ,0.033230364513785436, ,0.0010016756748388758, ,1.75, ,0.7528652416491736, ,0.5798453092794025, ,0.09838574722964838
52, ,PASS, ,0.072525917, ,0.011082695161255311, ,0.03272942781065692, ,0.0008183888670719473, ,1.75, ,0.752329150270393, ,0.5806616191506295, ,0.12342605252954021
53, ,PASS, ,0.07748516200000001, ,0.012127168725958919, ,0.03290155073325034, ,0.0009567562786753408, ,1.75, ,0.7603919541389842, ,0.577845350094896, ,0.12809942654231546
54, ,PASS, ,0.070048558, ,0.011059228628524292, ,0.03231480976306606, ,0.0007889613885753791, ,1.75, ,0.7635660657301083, ,0.5770494479704495, ,0.1744250117344544
55, ,PASS, ,0.07797630499999998, ,0.012450632317939246, ,0.032775765020101634, ,0.0009889227488579858, ,1.75, ,0.7697358153533844, ,0.5740495091936899, ,0.15505806003959102
56, ,PASS, ,0.071245748, ,0.011472558137596229, ,0.03252852668863901, ,0.0008325544894675864, ,1.75, ,0.771284790918732, ,0.5753351972408727, ,0.1991387930858554
57, ,PASS, ,0.08907867, ,0.013095903293612238, ,0.03374642935491112, ,0.0011880663308994044, ,1.75, ,0.7388910472670189, ,0.5784371747515357, ,0.08548805126425991
58, ,PASS, ,0.08187190999999999, ,0.012172256716909684, ,0.033128798160445706, ,0.0010149191600067277, ,1.75, ,0.7395054937420602, ,0.578988183914614, ,0.10058978388196159
59, ,PASS, ,0.08758529999999999, ,0.013137962275780719, ,0.03359167763861962, ,0.0011716515293566888, ,1.75, ,0.7472438516122132, ,0.5778045346013346, ,0.09761025285198262
60, ,PASS, ,0.07993147500000002, ,0.012110991048980335, ,0.033239316256811084, ,0.0009856393920407121, ,1.75, ,0.7505038260489686, ,0.5805799881635069, ,0.11452827493316463
61, ,PASS, ,0.08967749, ,0.013655637323998774, ,0.033445084185628866, ,0.0012475475771621003, ,1.75, ,0.7499613745907143, ,0.5760494683781964, ,0.11024264810922225
62, ,PASS, ,0.08011706, ,0.01239203181897113, ,0.03321338857247811, ,0.0010108197782363244, ,1.75, ,0.7574163398734747, ,0.5799269402665251, ,0.13497683720740394
63, ,PASS, ,0.09666678000000002, ,0.013734413343461083, ,0.0341564413495643, ,0.0013521364345016112, ,1.75, ,0.7276070692122882, ,0.578988183914614, ,0.07869227158629416
64, ,PASS, ,0.09209491, ,0.013117460059157239, ,0.0338220273580131, ,0.0012300764983718766, ,1.75, ,0.7263737822477706, ,0.5779677965755801, ,0.07059039611436502
65, ,PASS, ,0.09509813, ,0.013687827342726748, ,0.034252546609865105, ,0.0013256722582125258, ,1.75, ,0.7324487094160838, ,0.5793963388502276, ,0.07836574763780331
66, ,PASS, ,0.08966366999999997, ,0.012934536272915468, ,0.03376394722679129, ,0.001180743474776, ,1.75, ,0.7314181971281568, ,0.5787024754596845, ,0.08367176180077958
67, ,PASS, ,0.09704101999999999, ,0.014154042356466206, ,0.03410031259994694, ,0.0013992143259924897, ,1.75, ,0.7350518071641887, ,0.5779473888287994, ,0.08563090549172465
68, ,PASS, ,0.09022531999999996, ,0.013185261974234287, ,0.03383608182996265, ,0.0012111154365762428, ,1.8333333333333333, ,0.7376551035795067, ,0.5783963592579743, ,0.0937327809636538
69, ,PASS, ,0.10690181999999998, ,0.014477816546092414, ,0.034781758710026325, ,0.00157646310483701, ,1.75, ,0.7110650421641691, ,0.5793555233566662, ,0.06110079386134977
70, ,PASS, ,0.09587523000000002, ,0.01327117595654294, ,0.03414941415073162, ,0.0012953623713228958, ,1.8333333333333333, ,0.7175965542416924, ,0.5784575824983164, ,0.066345584783984
71, ,PASS, ,0.10409367000000003, ,0.014210608764740281, ,0.03439600977000469, ,0.001506492394759632, ,1.8333333333333333, ,0.7135364193580637, ,0.5768657782494235, ,0.06187628823901553
72, ,PASS, ,0.09165084999999999, ,0.012868649677239292, ,0.03395650440378768, ,0.0012006029278877279, ,1.8333333333333333, ,0.7268971780116606, ,0.5796412318115957, ,0.0753249933674823
73, ,PASS, ,0.10609745000000002, ,0.014631871747927025, ,0.03496938840533867, ,0.0015816545212265559, ,1.75, ,0.7206160976875895, ,0.5807024346441909, ,0.06834554396849044
74, ,PASS, ,0.09169601999999999, ,0.012871165055218854, ,0.03440163918144527, ,0.0012020258139227797, ,1.8333333333333333, ,0.7278578582275319, ,0.5839880818758801, ,0.07246790881818739
75, ,PASS, ,0.11333723000000001, ,0.015157381636963178, ,0.03531694131548335, ,0.0017496990369316441, ,1.8333333333333333, ,0.7076961469538551, ,0.5793963388502276, ,0.06128446358237587
76, ,PASS, ,0.10277230000000001, ,0.014172310489394026, ,0.0344031518358809, ,0.0014825779205459115, ,1.8333333333333333, ,0.7188548712452492, ,0.5780698353094835, ,0.06691700169384299
77, ,PASS, ,0.10223553999999999, ,0.014895116195183331, ,0.034515308101263235, ,0.0015507186049035942, ,1.75, ,0.7361807582047439, ,0.5797024550519377, ,0.09722250566314973
78, ,PASS, ,0.09403412, ,0.01409954362444913, ,0.03433597563029326, ,0.0013501067439593358, ,1.75, ,0.747789547958473, ,0.581396298034734, ,0.12220158772269954
198, ,PASS, ,0.1997999999999999, ,0.04070759385573811, ,0.04485744160772225, ,0.008422493945645747, ,1.9166666666666667, ,0.9471642761991365, ,0.5469276137221689, ,0.3634007469235322
199, ,PASS, ,0.11760560000000002, ,0.015522990249675968, ,0.02959012560253872, ,0.0018974465884234707, ,1.8333333333333333, ,0.8583915943213318, ,0.5416215995591926, ,0.0443256260076325
200, ,PASS, ,0.12230590999999996, ,0.015893142843774397, ,0.02977234061794657, ,0.002012625014255207, ,1.8333333333333333, ,0.8452764403935312, ,0.5431113650741821, ,0.03444827656578437
201, ,PASS, ,0.11294205999999998, ,0.015082831853625838, ,0.03008807224811738, ,0.0017449625035025002, ,1.8333333333333333, ,0.8428808308543293, ,0.5450296932715659, ,0.03367278218811861
202, ,PASS, ,0.08879229999999999, ,0.011590557896467478, ,0.02935677516418033, ,0.0010710356968311634, ,1.8333333333333333, ,0.8339600883134172, ,0.5404379502459133, ,0.032652394849084714
203, ,PASS, ,0.08452627000000001, ,0.011076461601265858, ,0.0290419792302198, ,0.0009800078696994793, ,1.8333333333333333, ,0.8326065326936959, ,0.5374992347094957, ,0.03048917369033285
204, ,PASS, ,0.07782837000000001, ,0.010343520870369372, ,0.028965184717454746, ,0.0008485567464601679, ,1.8333333333333333, ,0.8305885760906753, ,0.5356217220056734, ,0.030938144119507766
205, ,PASS, ,0.07493530000000001, ,0.010075850402923912, ,0.02896377894716434, ,0.0007878014119013048, ,1.8333333333333333, ,0.8302016039763888, ,0.5353768290443052, ,0.028938184935001325
206, ,PASS, ,0.07740701999999999, ,0.010498808873483605, ,0.029206263082181997, ,0.000837401641462195, ,1.9166666666666667, ,0.8247501846319593, ,0.5388869614905818, ,0.029468786351298952
207, ,PASS, ,0.07047378400000001, ,0.00944012975195496, ,0.02895644134242158, ,0.0007002131390973639, ,1.8333333333333333, ,0.8280670411539655, ,0.5352747903104018, ,0.0309993673598498
208, ,PASS, ,0.06630338400000002, ,0.008785828871313106, ,0.028831651333217696, ,0.0006226610778469825, ,1.8333333333333333, ,0.8252488938252612, ,0.5329687149241852, ,0.02828513703801963
209, ,PASS, ,0.06020003999999998, ,0.008366450408075021, ,0.02892395682820759, ,0.0005342408358978016, ,1.8333333333333333, ,0.8275449767657161, ,0.5340707332503418, ,0.029162670149588784
210, ,PASS, ,0.06687391300000003, ,0.008981375451968511, ,0.029039170978918803, ,0.0006283070892209875, ,1.8333333333333333, ,0.8260334083600859, ,0.5373359727352504, ,0.02873410746719455
211, ,PASS, ,0.07419892, ,0.010003118589768779, ,0.029025006270280197, ,0.0007834772963219995, ,1.8333333333333333, ,0.8252342186799216, ,0.5345809269198588, ,0.02871369972041387
212, ,PASS, ,0.10651090999999999, ,0.013804215861234743, ,0.02941333837738005, ,0.0015311833050690254, ,1.8333333333333333, ,0.8419934763629435, ,0.5407440664476235, ,0.035080916715985386
213, ,PASS, ,0.08325757, ,0.010850961854803064, ,0.029118980100202044, ,0.0009477462607137998, ,1.8333333333333333, ,0.8349168891217336, ,0.5372543417481276, ,0.03079528989204302
214, ,PASS, ,0.08231614, ,0.010710051149294722, ,0.028936971435889067, ,0.0009287170426816991, ,1.8333333333333333, ,0.8326397839162968, ,0.5350298973490337, ,0.02987694128691251
215, ,PASS, ,0.10233268999999999, ,0.013378984589770621, ,0.029543772682190158, ,0.0014185768674159877, ,1.8333333333333333, ,0.839364846140672, ,0.5411318136364563, ,0.0319177159649803
216, ,PASS, ,0.09915156, ,0.012807605135118947, ,0.029425004146037836, ,0.0013215485371976133, ,1.8333333333333333, ,0.838900225746401, ,0.5407440664476235, ,0.032529948368400646
217, ,PASS, ,0.09112149, ,0.012043377822311355, ,0.029134300261627315, ,0.0011422602610974446, ,1.8333333333333333, ,0.8353430055554345, ,0.5354584600314279, ,0.030366727209648784
218, ,PASS, ,0.10721969, ,0.013944185709647693, ,0.02965102986449256, ,0.0015474668652865871, ,1.8333333333333333, ,0.8396927547149392, ,0.5456215179282056, ,0.030244280728964713
219, ,PASS, ,0.09842094999999998, ,0.012598218746667682, ,0.029183339228179013, ,0.001299974251811483, ,1.8333333333333333, ,0.8388082296826217, ,0.5382339135936002, ,0.02987694128691251
220, ,PASS, ,0.09957701999999999, ,0.012916866214323268, ,0.0297996408748801, ,0.001322189359475603, ,1.9166666666666667, ,0.8349387837753377, ,0.5475398461255893, ,0.028183098304116243
221, ,PASS, ,0.10223804000000004, ,0.013589472158625906, ,0.029801665935184993, ,0.0014403513752455624, ,1.9166666666666667, ,0.8409417026071851, ,0.545662333421767, ,0.029570825085202344
222, ,PASS, ,0.07673701, ,0.009393185026421244, ,0.028686541569070016, ,0.0007665891296267944, ,1.75, ,0.8163387129699549, ,0.5335401318340443, ,0.021591396093957268
223, ,PASS, ,0.09597594999999998, ,0.012059741573156093, ,0.028915148230036117, ,0.0012223759243167912, ,1.8333333333333333, ,0.8330284696911686, ,0.5366625170914879, ,0.023570947531683026
224, ,PASS, ,0.10388260999999999, ,0.011834487119684984, ,0.02853229650252035, ,0.0013174802450626494, ,1.75, ,0.8318139491081816, ,0.5361319156751903, ,0.02057100875492337
225, ,PASS, ,0.09915438000000001, ,0.01124863283236826, ,0.028590340396930678, ,0.0011810530379776404, ,1.8333333333333333, ,0.8416637142665163, ,0.5381522826064774, ,0.022632191179771843
226, ,PASS, ,0.11545028999999998, ,0.013975725520905714, ,0.029010322163833393, ,0.0016786932306529366, ,1.8333333333333333, ,0.8570182666708449, ,0.5425195404175425, ,0.02791779759596743
227, ,PASS, ,0.1997999999999999, ,0.042664943707454425, ,0.04200298186179867, ,0.008939363629143665, ,1.8333333333333333, ,0.9637610952640165, ,0.5380298361257934, ,0.4947654129507561
