Channel, ,Pass/Fail, ,Amplitude, ,Sorting Function Response, ,Mean, ,Variance, ,NPeaksRatio, ,PosIntegralRatio, ,ToT50, ,ToT99
36, ,PASS, ,0.011801249999999996, ,0.0017378665742295853, ,0.03621216463745638, ,2.107761315655895e-05, ,1.9166666666666667, ,0.7990199717692242, ,0.6272320973041366, ,0.08391665476214771
37, ,PASS, ,0.019852320000000014, ,0.002888372201795039, ,0.03697325490806311, ,5.882370207229325e-05, ,1.8333333333333333, ,0.7818534145814031, ,0.6134976837207404, ,0.06608028407583519
38, ,PASS, ,0.017040070000000004, ,0.0024731660095746706, ,0.036647835661313036, ,4.32593923065335e-05, ,1.8333333333333333, ,0.7844161540147699, ,0.6129058590641008, ,0.05859064100732638
39, ,PASS, ,0.007350230000000006, ,0.0009406044533849764, ,0.03571635641803229, ,7.178700376244083e-06, ,1.75, ,0.728818704271862, ,0.6295789881839147, ,0.027795351115283362
40, ,PASS, ,0.012148940000000014, ,0.0017992380338751402, ,0.03602610677700455, ,2.2382361342732323e-05, ,2.0, ,0.7862567878190233, ,0.6188036978837167, ,0.03736658435542132
41, ,PASS, ,0.021083240000000013, ,0.0031101262463687634, ,0.03701962121038346, ,6.711501600686713e-05, ,2.0, ,0.7954178529494278, ,0.6157221281198343, ,0.10193669516948634
42, ,PASS, ,0.018390080000000013, ,0.0026544021152445476, ,0.03671460476214772, ,5.039852173446033e-05, ,1.8333333333333333, ,0.7734310125294762, ,0.6184159506948838, ,0.026652517295565396
43, ,PASS, ,0.007443339999999993, ,0.0009537813212451313, ,0.035696979983061566, ,7.336204575369959e-06, ,1.8333333333333333, ,0.7417846826110477, ,0.6269055733556458, ,0.03499928572886268
44, ,PASS, ,0.013697930000000007, ,0.002200820555705657, ,0.03630678432868717, ,3.080458876025459e-05, ,1.9166666666666667, ,0.8179648384119316, ,0.6192730760596723, ,0.04338686965572131
45, ,PASS, ,0.022820239999999995, ,0.0036636778392322013, ,0.03732598300299994, ,8.527188054490362e-05, ,1.9166666666666667, ,0.8148403286126588, ,0.6137833921756699, ,0.06354972347503113
46, ,PASS, ,0.019888660000000016, ,0.0031999698473717995, ,0.03712849330727945, ,6.54897743845706e-05, ,1.9166666666666667, ,0.826149644785659, ,0.6310279382053428, ,0.10238566559866125
47, ,PASS, ,0.008298989999999985, ,0.001228725810895941, ,0.0357700435250301, ,1.0469317129575891e-05, ,1.9166666666666667, ,0.7861231885823211, ,0.620619987347197, ,0.029264708883492172
48, ,PASS, ,0.01809216000000001, ,0.002897950689705112, ,0.03660382438868595, ,5.313196883411307e-05, ,1.9166666666666667, ,0.7974703934938117, ,0.5972939327768821, ,0.09342666476194364
49, ,PASS, ,0.0294421, ,0.004696720464203524, ,0.038155908692883815, ,0.00014131077709116194, ,1.75, ,0.8074711373561777, ,0.6263953796861289, ,0.1345482745250097
50, ,PASS, ,0.0256952, ,0.004052713381280405, ,0.03769632339605314, ,0.00010561433043103278, ,2.0, ,0.8028100062046815, ,0.6168853696863329, ,0.06471296504152976
51, ,PASS, ,0.011752330000000005, ,0.0017513406467578175, ,0.03637346011244669, ,2.1155114571328526e-05, ,1.8333333333333333, ,0.7978148483092804, ,0.6343135854370319, ,0.08152894838880839
52, ,PASS, ,0.018460950000000018, ,0.00299349921115219, ,0.03660436759637559, ,5.6009535340421066e-05, ,1.8333333333333333, ,0.8072833321170796, ,0.6085590089998163, ,0.14244607252913205
53, ,PASS, ,0.03143545999999997, ,0.005023489007154861, ,0.03781009249382666, ,0.00015982172178632327, ,1.8333333333333333, ,0.799182973886562, ,0.6083957470255709, ,0.15595600089794087
54, ,PASS, ,0.027032339999999985, ,0.004333728951541874, ,0.03804556541417522, ,0.00011932189249455197, ,1.8333333333333333, ,0.8096797658452496, ,0.6173955633558499, ,0.13344625619885309
55, ,PASS, ,0.011921190000000016, ,0.0017790540863113758, ,0.03612020590538969, ,2.1670147178608128e-05, ,1.9166666666666667, ,0.776297087734385, ,0.6161302830554478, ,0.02771372012816065
56, ,PASS, ,0.020865050000000013, ,0.0024731471178533336, ,0.03627717816575172, ,5.1628976431801456e-05, ,1.6666666666666667, ,0.6498165568183022, ,0.5963755841717516, ,0.026672925042346075
57, ,PASS, ,0.03334929000000001, ,0.004182084170551887, ,0.037370509505724375, ,0.00014086273949107738, ,1.75, ,0.6749601501493576, ,0.6062529336135998, ,0.03650945899063284
58, ,PASS, ,0.02931956999999999, ,0.003685192577044189, ,0.03676459529560621, ,0.00010810358289805009, ,1.75, ,0.6707925803853187, ,0.5835187036999245, ,0.032244239913471154
59, ,PASS, ,0.012250689999999995, ,0.001580805506460227, ,0.035744808945327645, ,1.931894013885384e-05, ,1.75, ,0.6953028547861805, ,0.5950694883777882, ,0.03981551396910267
