Channel, ,Pass/Fail, ,Amplitude, ,Sorting Function Response, ,Mean, ,Variance, ,NPeaksRatio, ,PosIntegralRatio, ,ToT50, ,ToT99
0, ,PASS, ,0.08171470600000001, ,0.011741690179877409, ,0.03912792921535112, ,0.0009607881814488603, ,1.75, ,0.7164673799093544, ,0.4848676557621273, ,0.1249158180445297
1, ,PASS, ,0.08146322050000003, ,0.011694032176271118, ,0.03910722004902267, ,0.0009540604031796014, ,1.75, ,0.718099536525471, ,0.4856431501397931, ,0.1316707822289341
2, ,PASS, ,0.08129437120000005, ,0.011715902274100853, ,0.03910365115300259, ,0.0009539009996868981, ,1.75, ,0.7186895293391645, ,0.48494928674925003, ,0.13154833574825003
3, ,PASS, ,0.08146806120000002, ,0.011706995034478812, ,0.039224584225114184, ,0.0009551534990379732, ,1.75, ,0.7172739105995859, ,0.48490847125568864, ,0.12032407501887717
4, ,PASS, ,0.08135699330000003, ,0.011711340931142785, ,0.039322450123012186, ,0.0009539016817576443, ,1.75, ,0.71864452985986, ,0.48594926634150326, ,0.13893594008285545
5, ,PASS, ,0.08179097650000003, ,0.01166530830795834, ,0.03917660653623518, ,0.0009552561124910462, ,1.75, ,0.7136991594998633, ,0.48466357829432055, ,0.11885471725066836
6, ,PASS, ,0.08123016920000001, ,0.011648997878316528, ,0.039341845285529274, ,0.0009471735576702603, ,1.75, ,0.7165707824316834, ,0.4856839656333544, ,0.12879328993285852
7, ,PASS, ,0.08088984628000001, ,0.011684526088140227, ,0.03924914854126487, ,0.0009460498922925394, ,1.75, ,0.7203523113668087, ,0.4856635578865737, ,0.13297687802289748
8, ,PASS, ,0.08099420018000003, ,0.011583358835020898, ,0.03932502262272117, ,0.0009396870097374286, ,1.75, ,0.7160890063857324, ,0.48574518887369644, ,0.12442603212179343
9, ,PASS, ,0.08068112644000003, ,0.011608032753912355, ,0.03912312203627967, ,0.0009374624843099216, ,1.75, ,0.7176974056861491, ,0.48543907267198627, ,0.1291606293749107
10, ,PASS, ,0.08059105774000003, ,0.011541598277650847, ,0.03911366665876737, ,0.0009312351875201511, ,1.75, ,0.7148280060049804, ,0.4847248015346626, ,0.12042611375278056
11, ,PASS, ,0.08006102564, ,0.01154533760953444, ,0.0390288171913414, ,0.0009254818294213548, ,1.75, ,0.7191134088919938, ,0.48511254872349546, ,0.13162996673537275
12, ,PASS, ,0.07995111474, ,0.011538065724611317, ,0.03934980216295055, ,0.0009234833731896969, ,1.75, ,0.7185785375263247, ,0.48511254872349546, ,0.12893614416032326
13, ,PASS, ,0.08001053338000003, ,0.011562235651207562, ,0.03917893790149915, ,0.0009263131692912739, ,1.75, ,0.720544212268988, ,0.4856023346462317, ,0.14052774433174833
14, ,PASS, ,0.08107085230000001, ,0.0115857317781698, ,0.039079225984378685, ,0.0009400845052409861, ,1.75, ,0.713853394783984, ,0.4847043937878819, ,0.11587518622068937
15, ,PASS, ,0.08148813104000001, ,0.0116388386953531, ,0.03918280297265852, ,0.0009498522507258777, ,1.75, ,0.7160452064893531, ,0.48627579028999407, ,0.1295483765637436
16, ,PASS, ,0.07982393610000002, ,0.01153062460278046, ,0.03946787764982143, ,0.0009215440165400433, ,1.75, ,0.7200627899478409, ,0.4855411114058897, ,0.13644619497561275
17, ,PASS, ,0.07997417900000002, ,0.011549714376758472, ,0.039403410907858205, ,0.0009245236516322909, ,1.75, ,0.7187724903908985, ,0.4851533642170568, ,0.13236464561947717
18, ,PASS, ,0.07999528546000004, ,0.011527880303184702, ,0.03900660809004183, ,0.000923364570842008, ,1.75, ,0.7191158480965392, ,0.4853370339380829, ,0.1335074794391951
19, ,PASS, ,0.08032366648000004, ,0.011542745358254333, ,0.0391215460308908, ,0.0009280212455663151, ,1.75, ,0.7166062396730851, ,0.4844186853329524, ,0.12048733699312258
20, ,PASS, ,0.07996421742000002, ,0.011520318547761215, ,0.0393858822161964, ,0.0009225418203953146, ,1.75, ,0.7185626105190474, ,0.4856635578865737, ,0.1332421787310463
21, ,PASS, ,0.08020472584, ,0.01153750368369713, ,0.03933070002132038, ,0.0009264200877648367, ,1.75, ,0.7179522247665285, ,0.4855411114058897, ,0.12881369767963918
22, ,PASS, ,0.08081597424000003, ,0.01160770667067025, ,0.039479631325268875, ,0.0009390120862125714, ,1.75, ,0.7172885872073881, ,0.4858880431011612, ,0.1308340646109263
23, ,PASS, ,0.08178135578000002, ,0.011686628163745029, ,0.03959494240522235, ,0.0009571687017642758, ,1.75, ,0.7152104521242297, ,0.4859084508479419, ,0.12869125119895514
24, ,PASS, ,0.08084207260000004, ,0.011575803929413613, ,0.03910021544299749, ,0.000936756505589685, ,1.75, ,0.7150601090425339, ,0.48443909307973304, ,0.12216077222913818
25, ,PASS, ,0.08066989352000001, ,0.011597266337209098, ,0.03934832663067692, ,0.0009368927394194099, ,1.75, ,0.7176366822852712, ,0.48572478112691575, ,0.130283055447848
26, ,PASS, ,0.08039784998000002, ,0.01157503984145774, ,0.03943121872787168, ,0.0009316188243363388, ,1.75, ,0.7184818967360266, ,0.4855002959123283, ,0.13471153649925513
27, ,PASS, ,0.08020776116000002, ,0.011561318556968205, ,0.03936245984571009, ,0.0009284109528175169, ,1.75, ,0.7175959616264039, ,0.4844799085732944, ,0.12328319830207547
28, ,PASS, ,0.07962956314, ,0.0115343975368847, ,0.039026722249147563, ,0.000919690892000262, ,1.75, ,0.7208675074951306, ,0.4847248015346626, ,0.13383400338768597
29, ,PASS, ,0.07937289798000001, ,0.011531615548331688, ,0.03924768065271035, ,0.0009166400227475283, ,1.75, ,0.7221831305146227, ,0.48407175363768085, ,0.13462990551213241
30, ,PASS, ,0.07907044953999996, ,0.011487536643789901, ,0.0389319862060513, ,0.0009096606108516285, ,1.75, ,0.7217050376743244, ,0.4835411522213832, ,0.13134425828044324
31, ,PASS, ,0.07899984062000004, ,0.011481781646070978, ,0.039163324614317256, ,0.0009081521623427167, ,1.75, ,0.7200175281531631, ,0.4827452500969368, ,0.11999755107038632
32, ,PASS, ,0.07913354495999998, ,0.011500902888893466, ,0.038930133185055, ,0.0009115125418796435, ,1.75, ,0.7222118142689591, ,0.48370441419562865, ,0.13226260688557376
33, ,PASS, ,0.07900571426, ,0.011529943798599038, ,0.03887865008401951, ,0.0009123082751463809, ,1.75, ,0.722747923694164, ,0.4828268810840595, ,0.12997693924613785
34, ,PASS, ,0.07898577984000002, ,0.011510176611590706, ,0.03892886148170608, ,0.0009106823084507382, ,1.75, ,0.7229820324913416, ,0.4833778902471378, ,0.13273198506152936
35, ,PASS, ,0.07933748088, ,0.011477263762776083, ,0.038839382199852654, ,0.0009121011633253132, ,1.75, ,0.7189147826598175, ,0.48288810432440155, ,0.12107916164976225
36, ,PASS, ,0.07966204392, ,0.011564889091745708, ,0.038981459401027735, ,0.0009227785640969448, ,1.75, ,0.7205383686900588, ,0.4826636191098141, ,0.12687496173547477
37, ,PASS, ,0.08016892516000003, ,0.01167845118812413, ,0.039097026738710634, ,0.0009377306474625449, ,1.75, ,0.721921431182789, ,0.48288810432440155, ,0.1291606293749107
38, ,PASS, ,0.08394150300000004, ,0.012086064512684382, ,0.03913658436219996, ,0.0010160183121685753, ,1.75, ,0.7188606381168908, ,0.48443909307973304, ,0.13958898797983715
39, ,PASS, ,0.19980000000000006, ,0.028449040066468746, ,0.044173571398134735, ,0.005672032579681651, ,1.75, ,0.6991369531215946, ,0.4930103467276178, ,0.16738433909512052
40, ,PASS, ,0.08666869600000003, ,0.012632331342975062, ,0.038661599789249206, ,0.0010961788084948012, ,1.75, ,0.7231368879155261, ,0.4842962388522683, ,0.13609926328034122
41, ,PASS, ,0.083096032, ,0.012227060241444295, ,0.038777476248542685, ,0.0010174192275586068, ,1.75, ,0.725304422852392, ,0.4825615803759107, ,0.12795657231485072
42, ,PASS, ,0.08211988200000003, ,0.01210981123136564, ,0.03858321312428849, ,0.0009957409105998845, ,1.75, ,0.725959648312374, ,0.48231668741454253, ,0.12377298422481174
43, ,PASS, ,0.08209692560000002, ,0.012124495430154396, ,0.03834309323448624, ,0.0009968174761612223, ,1.75, ,0.7270750100372957, ,0.4826432113630334, ,0.12944633782984022
44, ,PASS, ,0.08164383620000001, ,0.012093945640054315, ,0.03844995492727495, ,0.000988546017867756, ,1.75, ,0.7286952725769578, ,0.48280647333727883, ,0.1340788963490541
45, ,PASS, ,0.08181196350000003, ,0.0120955288848549, ,0.03869610337319279, ,0.0009906784068941681, ,1.75, ,0.725703321524612, ,0.48207179445317444, ,0.1205689679802453
46, ,PASS, ,0.08178227140000004, ,0.012078978909691644, ,0.03865518302110896, ,0.0009892237166200207, ,1.75, ,0.7271503761034197, ,0.4827248423501561, ,0.13197689843064428
47, ,PASS, ,0.08192588030000002, ,0.012102798089233499, ,0.03882080950655742, ,0.0009925838381364912, ,1.75, ,0.7259565610152514, ,0.4822554641742005, ,0.12495663353809106
48, ,PASS, ,0.0819634076, ,0.012072372344665409, ,0.038675576538482075, ,0.0009909373307794259, ,1.75, ,0.7263991034077383, ,0.48288810432440155, ,0.12869125119895514
49, ,PASS, ,0.08188187400000005, ,0.012063539087050303, ,0.03882165517324708, ,0.0009892032555255629, ,1.75, ,0.7250809305808263, ,0.4822962796677619, ,0.11848737780861615
50, ,PASS, ,0.08178623040000005, ,0.012080214539356189, ,0.038562319020647745, ,0.0009892276717056348, ,1.75, ,0.7262203049865288, ,0.4823779106548846, ,0.1221403644823575
51, ,PASS, ,0.08191358530000002, ,0.012065755181014633, ,0.038684786560980386, ,0.0009893034236560867, ,1.75, ,0.7237506662824542, ,0.4823370951613232, ,0.11420175098467378
52, ,PASS, ,0.08201063500000004, ,0.012067027397945844, ,0.038464910560144075, ,0.0009911303272440405, ,1.75, ,0.7264268929728362, ,0.483173812779331, ,0.12860962021183242
53, ,PASS, ,0.08169017950000003, ,0.012061401769513758, ,0.0386932199957058, ,0.0009867151169778829, ,1.75, ,0.7270859684304024, ,0.48333707475357646, ,0.1312014040529785
54, ,PASS, ,0.08195754000000002, ,0.01202755087858142, ,0.0382652103151103, ,0.0009870586888316535, ,1.75, ,0.7239930568213063, ,0.4825819881226914, ,0.11828330034080937
55, ,PASS, ,0.08163462960000002, ,0.012061496054819765, ,0.038516173106847205, ,0.0009858351251856776, ,1.75, ,0.7270823545591668, ,0.4826228036162527, ,0.12683414624191344
56, ,PASS, ,0.08163221200000001, ,0.012034825296400565, ,0.03854937729579029, ,0.00098391791720044, ,1.75, ,0.7266728351583946, ,0.48294932756474357, ,0.12920144486847207
57, ,PASS, ,0.08174260920000005, ,0.012050340932315072, ,0.03855325934624273, ,0.0009863115397552291, ,1.75, ,0.726453813243027, ,0.4828268810840595, ,0.12540560396726597
58, ,PASS, ,0.08150874830000006, ,0.012046724610793686, ,0.03872915396838309, ,0.0009831464948588423, ,1.75, ,0.7278168558413037, ,0.4832962592600151, ,0.1335074794391951
59, ,PASS, ,0.0815646831, ,0.01201240035509538, ,0.03892181420085019, ,0.0009807915715897414, ,1.75, ,0.7244653665260706, ,0.4825819881226914, ,0.11769147568416971
60, ,PASS, ,0.08194877550000006, ,0.01207670937685676, ,0.03879538335102998, ,0.000990884623372775, ,1.75, ,0.7262073606964886, ,0.48333707475357646, ,0.1251811187526785
61, ,PASS, ,0.0819900916, ,0.012096769982063906, ,0.03879309464207629, ,0.0009930122556722739, ,1.75, ,0.7267678389654664, ,0.4830921817922083, ,0.12652803004020327
62, ,PASS, ,0.08205403120000003, ,0.012080192619517394, ,0.03887791658562315, ,0.0009923903679640586, ,1.75, ,0.7259572494690946, ,0.483051366298647, ,0.12987490051223444
63, ,PASS, ,0.08199915700000003, ,0.01206363774621564, ,0.03878702086968062, ,0.0009905403203510474, ,1.75, ,0.7251704013753056, ,0.48294932756474357, ,0.12479337156384564
64, ,PASS, ,0.08167476000000001, ,0.01206942596666919, ,0.03868373234313912, ,0.0009866224896602383, ,1.75, ,0.726644447096525, ,0.4836635987020673, ,0.13218097589845104
65, ,PASS, ,0.08227223900000001, ,0.012076653010294359, ,0.0386681065260611, ,0.000994666837527746, ,1.75, ,0.7238476002498451, ,0.4827656578437175, ,0.12114038489010429
66, ,PASS, ,0.08200981420000004, ,0.012076091618458407, ,0.038597146976017634, ,0.0009915273724421447, ,1.75, ,0.7252081569930431, ,0.48296973531152426, ,0.12499744903165241
67, ,PASS, ,0.08215027300000004, ,0.012066517256431694, ,0.038601596254018086, ,0.0009927307551708573, ,1.75, ,0.7245935509413667, ,0.48299014305830495, ,0.12414032366686394
68, ,PASS, ,0.08241489900000001, ,0.012072550948056307, ,0.03870821168201016, ,0.0009963797866496663, ,1.75, ,0.7242236697104819, ,0.4830921817922083, ,0.12060978347380666
69, ,PASS, ,0.08260493100000005, ,0.012117569220875533, ,0.03859793576173139, ,0.0010021600576928175, ,1.75, ,0.7235205226406582, ,0.4826636191098141, ,0.121222015877227
70, ,PASS, ,0.08385135500000003, ,0.012227171598419908, ,0.039044109572803416, ,0.001026401140414584, ,1.75, ,0.7231227673832223, ,0.4842350156119263, ,0.1289157364135426
71, ,PASS, ,0.083210927, ,0.012191893749732745, ,0.03894589118815168, ,0.0010156312156036611, ,1.75, ,0.7242253202128378, ,0.48380645292953206, ,0.1293647068427175
72, ,PASS, ,0.08265459700000004, ,0.012133885317523265, ,0.03876884183942206, ,0.0010040896160213005, ,1.75, ,0.7253118128067669, ,0.4829289198179629, ,0.12832391175690291
73, ,PASS, ,0.08273228800000001, ,0.012125503343688757, ,0.03846547601349524, ,0.0010043267739541439, ,1.75, ,0.7231389905062315, ,0.4831942205261117, ,0.12120160813044632
74, ,PASS, ,0.08232445300000005, ,0.012105290765956666, ,0.038784160829945104, ,0.000997987087320732, ,1.75, ,0.7255402920143098, ,0.48323503601967305, ,0.12987490051223444
75, ,PASS, ,0.08249341800000001, ,0.012087037819630084, ,0.03885067541697884, ,0.000998366822151769, ,1.75, ,0.7242666387378071, ,0.4832146282728924, ,0.12707903920328156
76, ,PASS, ,0.08257228300000004, ,0.012106638992520262, ,0.03891888441384176, ,0.001000965289003632, ,1.75, ,0.7254222874358763, ,0.48380645292953206, ,0.13311973225036225
77, ,PASS, ,0.08259588699999999, ,0.012144405944765154, ,0.03843118863096876, ,0.001004469931392647, ,1.75, ,0.726318195560232, ,0.4832962592600151, ,0.13379318789412462
78, ,PASS, ,0.08351122100000001, ,0.012227017636358774, ,0.0386317161821922, ,0.0010223561127525903, ,1.75, ,0.7245761404446636, ,0.4838472684230934, ,0.13277280055509072
79, ,PASS, ,0.08324618400000003, ,0.012203526638771802, ,0.038734301155314795, ,0.0010171573690690339, ,1.75, ,0.7243331157395352, ,0.4834799289810412, ,0.12932389134915614
80, ,PASS, ,0.08254085400000002, ,0.012163774053344633, ,0.03877532148279015, ,0.0010054018620098513, ,1.75, ,0.7269657293416274, ,0.4830921817922083, ,0.1325074998469419
81, ,PASS, ,0.08240086100000005, ,0.012161497656002978, ,0.03854447985901839, ,0.0010033420709203162, ,1.75, ,0.7272569664482592, ,0.4827656578437175, ,0.12946674557662088
82, ,PASS, ,0.08241027300000002, ,0.012140843257288177, ,0.038688928464462355, ,0.0010016502558082532, ,1.75, ,0.7257222018936899, ,0.48284728883084016, ,0.1238954307054958
83, ,PASS, ,0.08247460100000001, ,0.012146883350557356, ,0.038445585479348995, ,0.0010032500240955157, ,1.75, ,0.7266435859754583, ,0.48286769657762085, ,0.12944633782984022
84, ,PASS, ,0.08256346500000003, ,0.012161294240719935, ,0.03885066808198159, ,0.0010054944339793295, ,1.75, ,0.7258119132246024, ,0.4827044346033754, ,0.12395665394583784
85, ,PASS, ,0.08269211300000003, ,0.012187520060521508, ,0.038737931296024576, ,0.0010089737398557101, ,1.75, ,0.7260668302179532, ,0.48247994938878797, ,0.12467092508316156
86, ,PASS, ,0.08260706000000001, ,0.012158544242044225, ,0.038615280208194935, ,0.0010058591209394182, ,1.75, ,0.7257456312559649, ,0.48254117262913004, ,0.12411991592008326
87, ,PASS, ,0.08270420600000003, ,0.01219412178163269, ,0.038622452991503846, ,0.001010013519779433, ,1.75, ,0.726712248060685, ,0.4828268810840595, ,0.12860962021183242
88, ,PASS, ,0.08265542600000002, ,0.012202086597239615, ,0.0386623143152952, ,0.0010097060185722756, ,1.75, ,0.7263437580826718, ,0.48239831840166525, ,0.12411991592008326
89, ,PASS, ,0.08308315600000003, ,0.012194945163807413, ,0.03877561985103039, ,0.0010150236135358485, ,1.75, ,0.7253527913212325, ,0.4822350564274199, ,0.1214056855982531
90, ,PASS, ,0.08267626200000003, ,0.012209934040426034, ,0.03865755576505622, ,0.0010109271151836632, ,1.75, ,0.7273484387818686, ,0.48241872614844594, ,0.12671169976122937
91, ,PASS, ,0.08260123200000005, ,0.012219254659188022, ,0.03845248732110365, ,0.001010724932700847, ,1.75, ,0.7282811766760122, ,0.4827452500969368, ,0.1310177343319524
92, ,PASS, ,0.08261274100000005, ,0.012216322097698726, ,0.03861860655968082, ,0.0010104203531395672, ,1.75, ,0.727729424123074, ,0.4830105508050856, ,0.1307524336238036
93, ,PASS, ,0.08296695700000005, ,0.012229034068033922, ,0.03849197776315463, ,0.0010161219954083226, ,1.75, ,0.727742815446879, ,0.48315340503255033, ,0.12930348360237545
94, ,PASS, ,0.08283137400000003, ,0.012187634688338627, ,0.03862795574719251, ,0.0010110552693492277, ,1.75, ,0.7257635964591282, ,0.4827452500969368, ,0.11897716373135242
95, ,PASS, ,0.08275636700000001, ,0.01223386544878109, ,0.038728865568403915, ,0.0010137213898995774, ,1.75, ,0.7282021379494155, ,0.48245954164200733, ,0.13379318789412462
96, ,PASS, ,0.08284854900000001, ,0.012222298223504888, ,0.03874233510479909, ,0.0010143030131022632, ,1.75, ,0.7271759763668423, ,0.48211260994673577, ,0.12438521662823207
97, ,PASS, ,0.08332149700000002, ,0.01220820890182287, ,0.03845700434142691, ,0.001018455685044714, ,1.75, ,0.72217752549117, ,0.4808881451398951, ,0.10238566559866125
98, ,PASS, ,0.08283234900000004, ,0.012202760093973229, ,0.038440718550205095, ,0.0010121073720316836, ,1.75, ,0.7263431763598012, ,0.48243913389522664, ,0.12289545111324258
99, ,PASS, ,0.08273356800000002, ,0.012248250347244144, ,0.03844738785265239, ,0.0010150898439087843, ,1.75, ,0.7290306853133378, ,0.4819901634660517, ,0.13197689843064428
100, ,PASS, ,0.08265672300000002, ,0.012213393350058986, ,0.03852309937411849, ,0.0010110265344704813, ,1.75, ,0.7275042204059823, ,0.4815411930368768, ,0.1287116589457358
101, ,PASS, ,0.08277322300000003, ,0.012243563897209578, ,0.03843088649163405, ,0.001015261000543358, ,1.75, ,0.7286733704598967, ,0.48168404726434155, ,0.13062998714311952
102, ,PASS, ,0.08276791500000004, ,0.012228564353692975, ,0.038598807506366, ,0.0010137840260484856, ,1.75, ,0.7269701799791234, ,0.48082692189955306, ,0.12463010958960022
103, ,PASS, ,0.08265500960000002, ,0.012233274611162234, ,0.038821643113361365, ,0.0010129662447121274, ,1.75, ,0.7285638487955043, ,0.4810309993673598, ,0.12830350401012225
104, ,PASS, ,0.08275315200000002, ,0.012278913964590082, ,0.038662020781857924, ,0.0010178076443644948, ,1.75, ,0.729062501085123, ,0.4810922226077019, ,0.12701781596293954
105, ,PASS, ,0.08278404500000003, ,0.012286799566661084, ,0.03878807951336871, ,0.0010189163585647507, ,1.75, ,0.7290404241866044, ,0.48080651415277237, ,0.1307524336238036
106, ,PASS, ,0.08283626600000005, ,0.012269063147075824, ,0.03839345006041713, ,0.0010180899566993077, ,1.75, ,0.7285748945946828, ,0.4805412134446236, ,0.12336482928919817
107, ,PASS, ,0.08302591700000005, ,0.012296266832592585, ,0.038275119731178954, ,0.0010224750028375311, ,1.75, ,0.7281424848768803, ,0.48003101977510665, ,0.1213036468643497
108, ,PASS, ,0.08409179600000005, ,0.0124252672279003, ,0.03840314086435175, ,0.0010468197496269645, ,1.75, ,0.72806333399689, ,0.4809901838737985, ,0.12838513499724497
109, ,PASS, ,0.09947875899999997, ,0.013970325949328738, ,0.03946727153066264, ,0.001391591934536538, ,1.75, ,0.7096074359414171, ,0.4876431093242995, ,0.1372216893532785
110, ,PASS, ,0.19340520000000003, ,0.024324368382426263, ,0.0430980145321524, ,0.00470854366710421, ,1.6666666666666667, ,0.6665151246964602, ,0.500479582049346, ,0.08826350482643211
111, ,PASS, ,0.08760213000000003, ,0.013057148865820944, ,0.03846829665231322, ,0.00114612469485814, ,1.75, ,0.7310542180712873, ,0.480071835268668, ,0.12618109834493174
112, ,PASS, ,0.08530628600000006, ,0.012780246271464084, ,0.038435093995653154, ,0.0010926969070362094, ,1.75, ,0.7318481057378469, ,0.4785616620068978, ,0.12191587926777005
113, ,PASS, ,0.08466889300000004, ,0.01272685766391696, ,0.038179773359400836, ,0.0010796521714155074, ,1.75, ,0.7333025290544283, ,0.4787657394747046, ,0.1241811391604253
114, ,PASS, ,0.08446162700000005, ,0.012708312022670738, ,0.0382520384617865, ,0.0010753907852359378, ,1.75, ,0.7335781331469182, ,0.4791330789167568, ,0.12526274973980123
115, ,PASS, ,0.08434182900000006, ,0.012719709283741857, ,0.038532612363694624, ,0.0010746219445116453, ,1.75, ,0.7335169914764113, ,0.4789085937021693, ,0.12416073141364461
116, ,PASS, ,0.08464210600000004, ,0.012692512512785274, ,0.03839222452872391, ,0.0010758632560375196, ,1.75, ,0.7300736305021809, ,0.47829636129874903, ,0.1044672557702904
117, ,PASS, ,0.08504493400000004, ,0.01269558909732506, ,0.03829831918768189, ,0.0010820553853906761, ,1.75, ,0.7317503296858561, ,0.4792351176506602, ,0.11750780596314361
118, ,PASS, ,0.08448041800000004, ,0.01267934124479229, ,0.03834417577256383, ,0.001073018710941386, ,1.75, ,0.7338134419390142, ,0.47996979653476457, ,0.12822187302299953
119, ,PASS, ,0.08432716900000004, ,0.012653842383479871, ,0.038113019624166855, ,0.0010687073997781163, ,1.75, ,0.7324236811897319, ,0.4796840880798351, ,0.12011999755107039
120, ,PASS, ,0.084322622, ,0.012626049184435618, ,0.038271760966094574, ,0.0010669815279985787, ,1.75, ,0.733490993953131, ,0.48011265076222936, ,0.12848717373114835
121, ,PASS, ,0.08416462200000004, ,0.01262848057108618, ,0.03829168703088917, ,0.001064423794588496, ,1.75, ,0.7327104156743002, ,0.4801534662557907, ,0.12469133282994224
122, ,PASS, ,0.08403031700000002, ,0.012607399535560442, ,0.03848024451039571, ,0.0010611352249654572, ,1.75, ,0.7332663721548185, ,0.4805820289381849, ,0.12379339197159242
123, ,PASS, ,0.08413608600000001, ,0.012621918215697787, ,0.038497883565925185, ,0.0010638920750561558, ,1.75, ,0.7331988441357757, ,0.4805820289381849, ,0.1292830758555948
124, ,PASS, ,0.08382048300000002, ,0.01251931598528705, ,0.038409638686279876, ,0.0010511335972912294, ,1.75, ,0.7318162546862167, ,0.48041876696393954, ,0.12467092508316156
125, ,PASS, ,0.08379620900000002, ,0.01255284760034272, ,0.03836549344269301, ,0.0010533825191336823, ,1.75, ,0.7319750940190568, ,0.48092896063345647, ,0.12546682720760802
126, ,PASS, ,0.08411839000000002, ,0.012598436576110381, ,0.038311754102797906, ,0.0010613017139603578, ,1.75, ,0.7313417485407309, ,0.48076569865921104, ,0.12222199546948022
127, ,PASS, ,0.08415642900000002, ,0.012607077530912173, ,0.03858222213902982, ,0.0010624876571743338, ,1.75, ,0.7325079740664235, ,0.4806840676720883, ,0.12675251525479073
128, ,PASS, ,0.08415679200000004, ,0.012565135044495893, ,0.03873867656107426, ,0.0010594650800546596, ,1.75, ,0.7312348930076581, ,0.480643252178527, ,0.12138527785147242
129, ,PASS, ,0.08439156700000003, ,0.012598867269768861, ,0.038526865275165814, ,0.0010648240850469359, ,1.75, ,0.7293184209750538, ,0.4798881655476419, ,0.11230383053407074
130, ,PASS, ,0.08435046400000004, ,0.012647745006885367, ,0.03854892790118977, ,0.0010683802371897163, ,1.75, ,0.7331213539170688, ,0.48092896063345647, ,0.12856880471827106
131, ,PASS, ,0.08423997400000004, ,0.012640544089770125, ,0.03872507832006286, ,0.0010663441102391775, ,1.75, ,0.7322579186431759, ,0.4801738740025714, ,0.12083426868839411
132, ,PASS, ,0.08426599000000003, ,0.012627196441029748, ,0.03878025218932471, ,0.0010655403615434263, ,1.75, ,0.731649481108195, ,0.4805003979510622, ,0.12007918205750903
133, ,PASS, ,0.08426246200000004, ,0.012620741461189897, ,0.0387100587219771, ,0.0010651685256983126, ,1.75, ,0.7325275165587655, ,0.48125548458194733, ,0.12514030325911715
134, ,PASS, ,0.08395924500000003, ,0.01257274305775119, ,0.038845561746519465, ,0.001057060300059572, ,1.75, ,0.731873469688573, ,0.48111263035448254, ,0.11938531866696599
135, ,PASS, ,0.08416259600000005, ,0.012575703298439378, ,0.038934870509299405, ,0.001060264049674213, ,1.75, ,0.7312078386196871, ,0.4805003979510622, ,0.11395685802330564
136, ,PASS, ,0.08402168000000003, ,0.012620951249711305, ,0.03850958300563662, ,0.0010619509381776743, ,1.75, ,0.7329003946856858, ,0.48039835921715884, ,0.12581375890287955
137, ,PASS, ,0.08427542300000003, ,0.012628962736631815, ,0.03853095472515255, ,0.0010657854661837607, ,1.75, ,0.7321062726138277, ,0.48082692189955306, ,0.12093630742229751
138, ,PASS, ,0.08442868800000006, ,0.012583954319991535, ,0.038660328294385836, ,0.001064206813621113, ,1.75, ,0.731228554545833, ,0.48111263035448254, ,0.12293626660680394
139, ,PASS, ,0.08423671100000005, ,0.012623414295744073, ,0.03871682425992531, ,0.001064806820896097, ,1.75, ,0.7316463462621172, ,0.48129630007550867, ,0.12318115956817208
140, ,PASS, ,0.08450763000000004, ,0.012666461268489802, ,0.038619448744029714, ,0.0010720825037793481, ,1.75, ,0.7330388436406082, ,0.4809901838737985, ,0.12803820330197344
141, ,PASS, ,0.08616342100000003, ,0.012829009972913983, ,0.03875781452733618, ,0.001106918902977186, ,1.75, ,0.7294266433287304, ,0.4810922226077019, ,0.1213036468643497
142, ,PASS, ,0.08541160900000004, ,0.012696838616679815, ,0.038727290071855686, ,0.001086322525911268, ,1.75, ,0.7302190982056741, ,0.48131670782228936, ,0.11626293340952225
143, ,PASS, ,0.08445692500000002, ,0.012658812237445017, ,0.03865155469925512, ,0.0010708838721738294, ,1.75, ,0.7330211063571433, ,0.48076569865921104, ,0.12567090467541478
144, ,PASS, ,0.08427578000000004, ,0.01264609225414486, ,0.03874697520156936, ,0.0010671722850408296, ,1.75, ,0.7330333019566738, ,0.4811534458480439, ,0.12985449276545377
145, ,PASS, ,0.084233047, ,0.012623800225823024, ,0.03856067267170466, ,0.0010647163859710102, ,1.75, ,0.7308483868455439, ,0.4803167282300361, ,0.11397726577008632
146, ,PASS, ,0.08435286800000005, ,0.012648107161846119, ,0.03879042128385544, ,0.0010686366805923134, ,1.75, ,0.7322922134034393, ,0.48035754372359746, ,0.12646680679986122
147, ,PASS, ,0.08418702300000001, ,0.01266045474974657, ,0.038457415443419525, ,0.00106735724918721, ,1.75, ,0.7343886340625967, ,0.480643252178527, ,0.13169118997571477
148, ,PASS, ,0.08421495100000001, ,0.012644438101600134, ,0.038740004452172405, ,0.0010663364266500577, ,1.75, ,0.7333585316348981, ,0.480643252178527, ,0.12801779555519274
149, ,PASS, ,0.08577474400000004, ,0.01276967062909236, ,0.038730672153507076, ,0.0010965914568828875, ,1.75, ,0.7284095823356017, ,0.4806840676720883, ,0.11542621579151446
150, ,PASS, ,0.08543787200000005, ,0.01274939045678549, ,0.03867464867402706, ,0.0010909486746237317, ,1.75, ,0.7317824776348488, ,0.48125548458194733, ,0.12673210750801003
151, ,PASS, ,0.08488818100000006, ,0.01270767453619734, ,0.038381665524683174, ,0.0010803266657517276, ,1.75, ,0.7310608496319776, ,0.48039835921715884, ,0.1233444215424175
152, ,PASS, ,0.08508658100000004, ,0.012737738878792948, ,0.038758937707063124, ,0.0010853652171311527, ,1.75, ,0.7324438887940673, ,0.48047999020428156, ,0.12444643986857411
153, ,PASS, ,0.08538079100000005, ,0.012762250846411492, ,0.038499936886614565, ,0.0010915789861932125, ,1.75, ,0.7315763211019685, ,0.48037795147037815, ,0.12375257647803106
154, ,PASS, ,0.08544722900000006, ,0.012767123984886941, ,0.03852038116430278, ,0.0010925160536587736, ,1.75, ,0.7300554876028826, ,0.48029632048325543, ,0.11850778555539683
155, ,PASS, ,0.08529347300000002, ,0.012782710637635067, ,0.038644309966919047, ,0.0010920109230513596, ,1.75, ,0.7323361367405589, ,0.48086773739311445, ,0.12720148568396564
156, ,PASS, ,0.08594285600000001, ,0.012782332844248265, ,0.03854823291685885, ,0.0011001877241983515, ,1.75, ,0.7291771573918014, ,0.480704475418869, ,0.11558947776575988
157, ,PASS, ,0.08606224500000004, ,0.012784943317864133, ,0.03873639484600315, ,0.001101785224816304, ,1.75, ,0.7283407062353349, ,0.480643252178527, ,0.11209975306626395
158, ,PASS, ,0.08568484700000004, ,0.012786864848564294, ,0.03883887180498358, ,0.001097454738754986, ,1.75, ,0.7305089831600025, ,0.4806840676720883, ,0.12344646027632089
159, ,PASS, ,0.08560360100000004, ,0.012804247759829692, ,0.038800743147956174, ,0.001097749916318366, ,1.75, ,0.7320169106232306, ,0.4806840676720883, ,0.12395665394583784
160, ,PASS, ,0.08544018800000004, ,0.012800115786800155, ,0.03863100122813821, ,0.0010951917167796449, ,1.75, ,0.7325190328344955, ,0.48084732964633375, ,0.1285279892247097
161, ,PASS, ,0.08532986700000006, ,0.012810204959319943, ,0.03886853295080917, ,0.001094648680959548, ,1.75, ,0.7332462085125069, ,0.4805003979510622, ,0.12799738780841208
162, ,PASS, ,0.08523032700000004, ,0.012775379542323315, ,0.038818216998163305, ,0.001090643070428451, ,1.75, ,0.7326257940044687, ,0.48066365992530763, ,0.12397706169261852
163, ,PASS, ,0.08503415200000003, ,0.012744593443935711, ,0.038746782107328424, ,0.0010856216734533043, ,1.75, ,0.7329369452878309, ,0.48076569865921104, ,0.12291585886002326
164, ,PASS, ,0.08494763600000005, ,0.012780797603325837, ,0.03875422231167528, ,0.0010874147710950024, ,1.75, ,0.7341228380741974, ,0.47992898104120324, ,0.12475255607028428
165, ,PASS, ,0.08488245700000004, ,0.012772568467556101, ,0.03842584948341871, ,0.001086043495242873, ,1.75, ,0.7337113217602423, ,0.47948001061202833, ,0.1227934123793392
166, ,PASS, ,0.08491859500000006, ,0.012804286717706661, ,0.038698026124626035, ,0.001089210881617535, ,1.75, ,0.7345198464533256, ,0.47945960286524764, ,0.1253851962204853
167, ,PASS, ,0.08474913100000003, ,0.012768836252237417, ,0.038234957099548994, ,0.0010837198598406842, ,1.75, ,0.7340939318755294, ,0.4792147099038795, ,0.12169139405318259
168, ,PASS, ,0.08472289900000006, ,0.01275846056566234, ,0.03856096073308709, ,0.0010829103621389049, ,1.75, ,0.7343796267350912, ,0.47996979653476457, ,0.12407910042652191
169, ,PASS, ,0.08463636500000005, ,0.012730798288357107, ,0.03860707443813392, ,0.0010794491850385553, ,1.75, ,0.7333127776340733, ,0.47948001061202833, ,0.11505887634946226
170, ,PASS, ,0.08489471200000001, ,0.012814069682694275, ,0.03836933229234098, ,0.0010897188527732033, ,1.75, ,0.7358048783357667, ,0.4792351176506602, ,0.12924226036203343
171, ,PASS, ,0.08487093800000003, ,0.012786304025700052, ,0.03833006516513949, ,0.0010870529395044567, ,1.75, ,0.7337490653147465, ,0.47909226342319544, ,0.12244648068406767
172, ,PASS, ,0.08508432000000007, ,0.012831122082235028, ,0.03858718859437563, ,0.0010937486261122272, ,1.75, ,0.7348822730645477, ,0.47915348666353746, ,0.12201791800167344
173, ,PASS, ,0.08532253500000005, ,0.012881946852026394, ,0.03851158128462685, ,0.0011011463672823782, ,1.75, ,0.7349228731635531, ,0.4786024775004592, ,0.12091589967551683
174, ,PASS, ,0.08531011300000005, ,0.01287586639555256, ,0.038703008746127636, ,0.0011004534760714127, ,1.75, ,0.7356030823674006, ,0.47909226342319544, ,0.1267729230015714
175, ,PASS, ,0.08571133400000006, ,0.012919814726814048, ,0.03852160105199895, ,0.0011096343566743068, ,1.75, ,0.734895952483224, ,0.4791330789167568, ,0.12344646027632089
176, ,PASS, ,0.08586339900000003, ,0.01303029813717429, ,0.03870558793389931, ,0.0011208187223893968, ,1.75, ,0.7377324341137846, ,0.4798473500540805, ,0.1247321483235036
177, ,PASS, ,0.08689844000000008, ,0.013035942001327882, ,0.0384434874336034, ,0.001135075405262427, ,1.75, ,0.733691190508014, ,0.4789698169425114, ,0.12328319830207547
178, ,PASS, ,0.08706354800000005, ,0.013057313616707913, ,0.03840015737619641, ,0.0011393464853184255, ,1.75, ,0.7337961429917441, ,0.47835758453909105, ,0.1243648088814514
179, ,PASS, ,0.08773337400000003, ,0.01310135681392086, ,0.0383506597131079, ,0.0011517346347172798, ,1.75, ,0.7303394698688558, ,0.47882696271504666, ,0.11703842778718801
180, ,PASS, ,0.10774434, ,0.015101122427430813, ,0.03952773761098753, ,0.0016290955750050391, ,1.75, ,0.7097056735797361, ,0.4880512642599131, ,0.14087467602701986
181, ,PASS, ,0.18398421999999998, ,0.023192957598717198, ,0.04223387760086529, ,0.004272755851727684, ,1.75, ,0.6731505164426339, ,0.5004999897961266, ,0.09726332115671109
182, ,PASS, ,0.091431285, ,0.01407278665979105, ,0.03828661992687904, ,0.0012899238951354444, ,1.75, ,0.7423156871615987, ,0.47586783943184835, ,0.12340564478275953
183, ,PASS, ,0.08923297599999999, ,0.013814529039199823, ,0.03822812120985286, ,0.0012357995106483499, ,1.75, ,0.7435845440937643, ,0.4744188894104202, ,0.11763025244382767
184, ,PASS, ,0.088608352, ,0.013727963515829666, ,0.038002022539601235, ,0.0012197443053255021, ,1.75, ,0.7447797078383236, ,0.4747045978653497, ,0.11756902920348564
185, ,PASS, ,0.08839373400000002, ,0.013714639836199659, ,0.03795148301257118, ,0.0012154852274205384, ,1.75, ,0.7451812862775667, ,0.47462296687822697, ,0.11734454398889818
186, ,PASS, ,0.08820956500000002, ,0.013664752659870029, ,0.03786523274549499, ,0.001208544182490299, ,1.75, ,0.7451334235786382, ,0.47456174363788495, ,0.11777310667129243
187, ,PASS, ,0.08838163500000001, ,0.013666312747818193, ,0.03790325905077448, ,0.0012106531440332134, ,1.75, ,0.7423633151843577, ,0.4750515295606212, ,0.11207934531948327
188, ,PASS, ,0.088685683, ,0.013685126084939818, ,0.03818239173427073, ,0.0012165516677149315, ,1.75, ,0.7427693240262592, ,0.47531683026877003, ,0.11401808126364768
189, ,PASS, ,0.088648624, ,0.013712467426771742, ,0.03816870804122365, ,0.0012184410520364559, ,1.75, ,0.7431517781672909, ,0.4751331605477439, ,0.1147323524009714
190, ,PASS, ,0.08831116100000001, ,0.01363477201030885, ,0.038014190311789556, ,0.0012070413275498786, ,1.75, ,0.7435900232980809, ,0.4755413154833575, ,0.11824248484724802
191, ,PASS, ,0.087861062, ,0.013625721871136727, ,0.03800155118713904, ,0.001199969114260851, ,1.75, ,0.7450088661562932, ,0.4759698781657517, ,0.12569131242219547
192, ,PASS, ,0.08793164800000002, ,0.01359796634734439, ,0.03829153713228302, ,0.0011985985714022469, ,1.75, ,0.7443646985449822, ,0.47566376196404153, ,0.11879349401032632
193, ,PASS, ,0.08796419899999999, ,0.013587530237948528, ,0.03829477709234506, ,0.0011981212767334848, ,1.75, ,0.7433708274478124, ,0.4756841697108222, ,0.11858941654251955
194, ,PASS, ,0.08769851899999999, ,0.013523459116644175, ,0.03827013847690864, ,0.0011887641469811151, ,1.75, ,0.7434756455376275, ,0.4763576253545846, ,0.12003836656394767
195, ,PASS, ,0.08737995400000002, ,0.013510910609858767, ,0.0383359689581029, ,0.0011833462731073623, ,1.75, ,0.7440015824274921, ,0.4760515091528744, ,0.11971184261545682
196, ,PASS, ,0.08745310700000003, ,0.01351349404570246, ,0.038332614528152495, ,0.001184669146023441, ,1.75, ,0.7449656137072006, ,0.4764392563417073, ,0.1251198955123365
197, ,PASS, ,0.08735793900000001, ,0.013491284706673578, ,0.038045298932246285, ,0.0011810096043497103, ,1.75, ,0.7417201899997927, ,0.47576580069794494, ,0.11205893757270259
198, ,PASS, ,0.08712265900000002, ,0.01339947458973769, ,0.03795919352484644, ,0.0011702501486775506, ,1.75, ,0.7415320515260245, ,0.47541886900267344, ,0.10830391216505786
199, ,PASS, ,0.08651377000000002, ,0.013403323322629758, ,0.038276820712597706, ,0.0011618791648079236, ,1.75, ,0.7431028805678983, ,0.47535764576233136, ,0.11469153690741005
200, ,PASS, ,0.08649114700000005, ,0.01342298772028939, ,0.03817357495963348, ,0.001163419272979345, ,1.75, ,0.7447781939991327, ,0.475888247178629, ,0.12452807085569682
201, ,PASS, ,0.08654800300000003, ,0.0134169885346036, ,0.038030298734882964, ,0.0011637115828551676, ,1.75, ,0.7451055891195478, ,0.4759086549254097, ,0.1229770821003653
202, ,PASS, ,0.08657141300000006, ,0.01334560190596166, ,0.03812562052174446, ,0.0011580032340233147, ,1.75, ,0.7439019821785757, ,0.4763576253545846, ,0.12032407501887717
203, ,PASS, ,0.08669042200000002, ,0.013369647491293428, ,0.03830317172539337, ,0.0011614380252090149, ,1.75, ,0.7424587279420908, ,0.4762759943674619, ,0.11689557355972327
204, ,PASS, ,0.08671319000000004, ,0.013394361207977152, ,0.03822645144527663, ,0.0011641495085070988, ,1.75, ,0.7434803147331892, ,0.47652088732883, ,0.12148731658537582
205, ,PASS, ,0.08688702300000005, ,0.01342128179542706, ,0.03809728446507215, ,0.0011686391069595829, ,1.75, ,0.7428415274214429, ,0.4763780331013653, ,0.12126283137078835
206, ,PASS, ,0.08682837500000004, ,0.013433031530328468, ,0.03827741275231118, ,0.0011688878918664875, ,1.75, ,0.7434030597542662, ,0.4760719168996551, ,0.12363012999734699
207, ,PASS, ,0.08705710400000002, ,0.013419142463602178, ,0.03816520578306566, ,0.0011707834104890838, ,1.75, ,0.7428079813506312, ,0.4768065957837595, ,0.12273218913899717
208, ,PASS, ,0.08728949500000001, ,0.013400139165805887, ,0.03847975774818882, ,0.0011722556104796597, ,1.75, ,0.7399870793021263, ,0.477092304238689, ,0.11463031366706802
209, ,PASS, ,0.08749608000000003, ,0.013452058645067487, ,0.03841901227268832, ,0.0011795397477589668, ,1.75, ,0.7422215428356023, ,0.4769902655047856, ,0.1259362053835636
210, ,PASS, ,0.08766366500000002, ,0.013404433229017002, ,0.0382251572336483, ,0.0011774341265476573, ,1.75, ,0.7399686601594196, ,0.47694945001122424, ,0.11789555315197649
211, ,PASS, ,0.08792042100000004, ,0.01338962210521101, ,0.03816196017309851, ,0.0011797944998799708, ,1.75, ,0.7364415121205994, ,0.47619436338033916, ,0.10314075222954634
212, ,PASS, ,0.08918056499999999, ,0.01355284597022962, ,0.03816797704479501, ,0.001210876340393193, ,1.75, ,0.7368330399895989, ,0.4780310605906002, ,0.11987510458970226
213, ,PASS, ,0.08759042400000003, ,0.013414069144524001, ,0.03845911810105917, ,0.0011771148143778054, ,1.75, ,0.7385927941632943, ,0.47696985775800493, ,0.11489561437521684
214, ,PASS, ,0.08669664000000003, ,0.013326716429645988, ,0.03819614536250281, ,0.0011574138528251331, ,1.75, ,0.7408594475087424, ,0.4768474112773209, ,0.10820187343115446
215, ,PASS, ,0.08688279300000001, ,0.013337560126867378, ,0.038242144351890786, ,0.0011612155816989338, ,1.75, ,0.7411114791155496, ,0.4771739352258117, ,0.1221403644823575
216, ,PASS, ,0.08695413300000002, ,0.013328486329076381, ,0.03841259323399523, ,0.0011617125079283568, ,1.75, ,0.7395801102735767, ,0.47713311973225037, ,0.10746719454705006
217, ,PASS, ,0.08700112300000001, ,0.01334494668130838, ,0.038167819721944454, ,0.0011631276537949515, ,1.75, ,0.7392163908443901, ,0.47652088732883, ,0.10930389175731108
218, ,PASS, ,0.08689069500000003, ,0.013315939683547147, ,0.038173976132058536, ,0.0011597553945041957, ,1.75, ,0.7415488050539362, ,0.4771943429725924, ,0.12303830534070734
219, ,PASS, ,0.08686413000000005, ,0.013360072674864474, ,0.03807123859747761, ,0.0011627784694605656, ,1.75, ,0.7417406037519461, ,0.47703108099834696, ,0.12573212791575683
220, ,PASS, ,0.08823586299999997, ,0.013481474353629674, ,0.038625367784045225, ,0.0011919106931532286, ,1.75, ,0.7391611810437313, ,0.47743923593396054, ,0.11995673557682496
221, ,PASS, ,0.08732041300000003, ,0.013400561367359162, ,0.038074487821779156, ,0.0011726527297651087, ,1.75, ,0.7415104936029151, ,0.47703108099834696, ,0.12424236240076733
222, ,PASS, ,0.08626003100000003, ,0.01326995280030569, ,0.03824268186734965, ,0.0011467436341703779, ,1.75, ,0.7388108383734407, ,0.4760311014060937, ,0.10848758188608396
223, ,PASS, ,0.08598543800000004, ,0.013281408247403979, ,0.03817317844388891, ,0.0011442538340929518, ,1.75, ,0.7425828395726348, ,0.47664333380951407, ,0.12018122079141243
224, ,PASS, ,0.08620172500000005, ,0.013273225510404132, ,0.03801333377480052, ,0.001146349688775274, ,1.75, ,0.7404551969407916, ,0.4760311014060937, ,0.11322217913920124
225, ,PASS, ,0.08641486500000005, ,0.01327456147009345, ,0.03809025624609703, ,0.0011497814152676936, ,1.75, ,0.7413365435353976, ,0.4763780331013653, ,0.11763025244382767
226, ,PASS, ,0.08668823500000003, ,0.01323615594232239, ,0.03792352279143284, ,0.0011498181607856098, ,1.75, ,0.7376544263792095, ,0.4757249852043836, ,0.10556927409644701
227, ,PASS, ,0.08654989800000003, ,0.013278136434552935, ,0.03835727871312831, ,0.0011518533051362286, ,1.75, ,0.741254994029525, ,0.4764392563417073, ,0.11791596089875717
228, ,PASS, ,0.08685548300000001, ,0.0132752269067366, ,0.038152643549498995, ,0.001155651541435732, ,1.75, ,0.7389260338185967, ,0.4763576253545846, ,0.1108548805126426
229, ,PASS, ,0.08675301100000003, ,0.013331887111751458, ,0.038212772529193285, ,0.0011591605666075515, ,1.75, ,0.741930782012313, ,0.47658211056917205, ,0.12442603212179343
230, ,PASS, ,0.08670056300000001, ,0.013324689579695641, ,0.038437611097691886, ,0.0011576061694411003, ,1.75, ,0.7414368753621123, ,0.4768065957837595, ,0.12452807085569682
231, ,PASS, ,0.08697238400000001, ,0.013319692160486306, ,0.03836862346923533, ,0.0011609626745713452, ,1.75, ,0.74022906328924, ,0.4768065957837595, ,0.1197322503622375
232, ,PASS, ,0.08691902100000001, ,0.013299725155826954, ,0.03826872103889717, ,0.001158294638957948, ,1.75, ,0.7386986857803336, ,0.47652088732883, ,0.11328340237954328
233, ,PASS, ,0.08670222400000002, ,0.01330917810672584, ,0.03824004748990838, ,0.0011564964331927368, ,1.75, ,0.741693393325512, ,0.4769290422644436, ,0.1252015264994592
234, ,PASS, ,0.086694969, ,0.013319456745427526, ,0.03839362465753761, ,0.0011572790738579456, ,1.75, ,0.7411641192586435, ,0.47652088732883, ,0.12220158772269954
235, ,PASS, ,0.08695714000000003, ,0.013322105006449207, ,0.038307927340360405, ,0.0011610267694842067, ,1.75, ,0.7407497506091737, ,0.4764188485949266, ,0.11985469684292158
236, ,PASS, ,0.08724760700000005, ,0.013356378662973126, ,0.03792747238333912, ,0.0011680158491604313, ,1.75, ,0.7408015200641085, ,0.4764188485949266, ,0.12101793840942021
237, ,PASS, ,0.087182571, ,0.013357727987000792, ,0.03808846708654926, ,0.001167240545793371, ,1.75, ,0.74083957749298, ,0.47666374155629476, ,0.12356890675700496
238, ,PASS, ,0.08687649200000001, ,0.013369806211541999, ,0.03800894097771475, ,0.0011640890231687504, ,1.75, ,0.7419017122114441, ,0.47582702393828696, ,0.12383420746515378
239, ,PASS, ,0.08693640600000004, ,0.013341448499856074, ,0.03803279207383523, ,0.0011625110895283574, ,1.75, ,0.7412630127121786, ,0.47584743168506766, ,0.11971184261545682
240, ,PASS, ,0.08681075400000002, ,0.013385090123879027, ,0.038199806378257595, ,0.0011646673985532638, ,1.75, ,0.7428637902207297, ,0.475888247178629, ,0.12524234199302056
241, ,PASS, ,0.08708205700000002, ,0.013348474230016014, ,0.03790143067925145, ,0.0011651493651956293, ,1.75, ,0.7401314565427739, ,0.4755209077365768, ,0.1124262770147548
242, ,PASS, ,0.08652408700000006, ,0.013344689432912601, ,0.03795492646623539, ,0.0011575400891573908, ,1.75, ,0.7423378319744542, ,0.47529642252198934, ,0.11677312707903921
243, ,PASS, ,0.08683237000000003, ,0.01335038134888963, ,0.03824343342503215, ,0.0011617857847528357, ,1.75, ,0.7408763162366003, ,0.47541886900267344, ,0.11673231158547785
244, ,PASS, ,0.086940763, ,0.01340030704680104, ,0.038227347493867476, ,0.001167860951703361, ,1.75, ,0.7421492383154423, ,0.4749698985734985, ,0.11805881512622192
245, ,PASS, ,0.08736193400000003, ,0.013399700158887322, ,0.03796792173437277, ,0.0011735691474939287, ,1.75, ,0.7409163593995655, ,0.4748882675863758, ,0.11707924328074937
246, ,PASS, ,0.087267808, ,0.01338515400926384, ,0.038254960624701545, ,0.0011713115771246102, ,1.75, ,0.7417153684843684, ,0.4748474520928144, ,0.11532417705761107
247, ,PASS, ,0.08743561300000001, ,0.013415254584768613, ,0.038026544032938106, ,0.0011756738684965114, ,1.75, ,0.74016236266945, ,0.4747045978653497, ,0.11320177139242056
248, ,PASS, ,0.08775890000000003, ,0.013458571875720079, ,0.038009211661006924, ,0.0011841366088061638, ,1.75, ,0.740643245899331, ,0.47452092814432356, ,0.11293647068427175
249, ,PASS, ,0.08807820299999998, ,0.013461958998971721, ,0.03797931374608682, ,0.0011892587766491388, ,1.75, ,0.7400966175928088, ,0.47499030632027917, ,0.11236505377441276
250, ,PASS, ,0.08888848399999999, ,0.01355360121615433, ,0.03809395294289913, ,0.0012077226912510389, ,1.75, ,0.7400403682271912, ,0.4750719373074019, ,0.11522213832370767
251, ,PASS, ,0.10827756000000002, ,0.015363673393843568, ,0.03907038220219995, ,0.0016660622759539557, ,1.75, ,0.7130069226415562, ,0.4846839860411012, ,0.13469112875247444
252, ,PASS, ,0.1977485, ,0.02418928126033334, ,0.04446997657986571, ,0.004787291222391302, ,1.6666666666666667, ,0.646799540657593, ,0.49960204893777677, ,0.06554968265953756
253, ,PASS, ,0.12879477, ,0.013773198879889502, ,0.04282779442678721, ,0.001779016147872512, ,1.5833333333333333, ,0.6193581389955002, ,0.5194996020489377, ,0.04648884716638436
254, ,PASS, ,0.12703301, ,0.013577896044995815, ,0.04321746217899635, ,0.0017300045840745997, ,1.5833333333333333, ,0.618581026568841, ,0.5200302034652354, ,0.04520315911920165
255, ,PASS, ,0.12727612, ,0.013546772114644707, ,0.042947385182833, ,0.0017293445023628992, ,1.5833333333333333, ,0.617964827291529, ,0.5211730372849533, ,0.04642762392604233
