Channel, ,Pass/Fail, ,Amplitude, ,Sorting Function Response, ,Mean, ,Variance
24, ,PASS, ,0.030268305871253995, ,0.024533385686382879, ,-0.0020316366180503161, ,0.00015237243587004534
25, ,PASS, ,0.04708500375222599, ,0.037980592861404455, ,-0.0033142325824995836, ,0.00036717878677300207
26, ,PASS, ,0.025241509474742005, ,0.021093070035190179, ,-0.0016961305490400414, ,0.00010916988131348475
27, ,PASS, ,0.031856896545576996, ,0.026116578614856664, ,-0.0022250910678524006, ,0.0001708376582942668
28, ,PASS, ,0.049038147656427014, ,0.040121860537412422, ,-0.0036092111490122927, ,0.00040421596442579176
29, ,PASS, ,0.029557830968971997, ,0.0249763381028172, ,-0.0021720250799034768, ,0.00015152931169505105
30, ,PASS, ,0.032454378214989005, ,0.026508702781096773, ,-0.0022565968964080993, ,0.00017659547291718213
31, ,PASS, ,0.050321351918166002, ,0.041155510621376713, ,-0.003751743714918395, ,0.00042549607401688494
32, ,PASS, ,0.031972805350053993, ,0.026890146767249809, ,-0.0023047194611173828, ,0.0001765312989381196
33, ,PASS, ,0.032562958674719998, ,0.027471068640597927, ,-0.0023260272837113188, ,0.00018376038840260209
34, ,PASS, ,0.051341499635146011, ,0.042463212465731238, ,-0.0038623486085541639, ,0.00044811320206526685
35, ,PASS, ,0.032206538850635007, ,0.027707815103754248, ,-0.0023682745927619741, ,0.00018338421062534985
36, ,PASS, ,0.030394643097935006, ,0.023996809213123579, ,-0.0020108546238935608, ,0.00014957370893187348
37, ,PASS, ,0.048409532061531001, ,0.037897069719999794, ,-0.0033879564152383256, ,0.00037658433464742317
38, ,PASS, ,0.029179003301142994, ,0.023421548521596645, ,-0.0019369920017345691, ,0.00014014257801380609
39, ,PASS, ,0.029625653871027998, ,0.023502941355981126, ,-0.001937432186085125, ,0.00014272908787174858
40, ,PASS, ,0.047209007017676996, ,0.037066126251902087, ,-0.0033184923660742097, ,0.00035920294956262615
41, ,PASS, ,0.028063793315711003, ,0.022586812428857642, ,-0.0018692656227625596, ,0.00012993763476239339
42, ,PASS, ,0.028642611284279001, ,0.022245761403373625, ,-0.0018043413104166888, ,0.00013062796282712136
43, ,PASS, ,0.046283214102773002, ,0.034233337951855632, ,-0.0030382112315493143, ,0.0003252291587637006
44, ,PASS, ,0.027487014818008006, ,0.021555657920070744, ,-0.001800533923782781, ,0.00012149034901125255
45, ,PASS, ,0.027609490872181994, ,0.019266414625417668, ,-0.0015840734472348081, ,0.00010880582788980947
46, ,PASS, ,0.044163789610571005, ,0.030450890229118437, ,-0.002685886245617942, ,0.00027577594707984388
47, ,PASS, ,0.026757906995519002, ,0.019109029027503478, ,-0.0015961057127076015, ,0.00010462685136234378
48, ,PASS, ,0.026686033915278004, ,0.020077500392213045, ,-0.0016607188933085526, ,0.00010974169003424909
49, ,PASS, ,0.042176624098603011, ,0.030096234884796846, ,-0.0025876894097389197, ,0.00026051446736805056
50, ,PASS, ,0.025757581431728002, ,0.019539656379532772, ,-0.0015965019758091309, ,0.00010313608794629994
51, ,PASS, ,0.023512964538612995, ,0.015172119013222752, ,-0.0012089621262908175, ,7.290913277201787e-05
52, ,PASS, ,0.036972950250075992, ,0.023251542174961101, ,-0.0020053066706584252, ,0.0001762970056016866
53, ,PASS, ,0.022755096846775999, ,0.014955067961771812, ,-0.0011449993977211139, ,6.9606541085736408e-05
54, ,PASS, ,0.023165051486787006, ,0.015215869502494003, ,-0.0012025051567779417, ,7.209110788446579e-05
55, ,PASS, ,0.035625394717125995, ,0.02295605956692361, ,-0.0019955080033430927, ,0.00016776770517429565
56, ,PASS, ,0.022494844952723997, ,0.014991659051397205, ,-0.001170928397707847, ,6.9032729690397921e-05
57, ,PASS, ,0.016572386147407005, ,0.011704346669556701, ,-0.0010164377469914451, ,4.0216342906092243e-05
58, ,PASS, ,0.018099893852531999, ,0.016349457869740399, ,-0.0012410486607307095, ,6.1146873768502539e-05
59, ,PASS, ,0.014538245276292102, ,0.010154432409703335, ,-0.00085195382058742713, ,3.0644756663946919e-05
198, ,FAIL, ,0.00012257353717005074, ,5.0062486329182047e-05, ,0.00024882342668488828, ,1.3281290215136622e-09
199, ,PASS, ,0.015513670181996599, ,0.0097151949519466846, ,-0.0007141021085673825, ,3.0926893948627466e-05
200, ,FAIL, ,0.00014393218948972501, ,2.5394271811319679e-05, ,0.00015816337986712184, ,8.7482329285248505e-10
201, ,PASS, ,0.037297397496383985, ,0.027726598972260992, ,-0.0021664368242374208, ,0.00020989049965903914
202, ,PASS, ,0.040647499505683998, ,0.028707962171981662, ,-0.0022538732760432642, ,0.00023681115307397536
203, ,PASS, ,0.044662315027704992, ,0.032953758394924225, ,-0.002531618932946191, ,0.00029864668318254858
204, ,PASS, ,0.058050802664894, ,0.03894777277389621, ,-0.0031162778339314111, ,0.00045892982232468459
205, ,FAIL, ,0.00010249588566347053, ,1.1165213305271836e-05, ,0.00013520335050766776, ,3.4655366715075965e-10
206, ,PASS, ,0.053260142028219021, ,0.036712880379282949, ,-0.0029143823419377993, ,0.00039683574888193179
207, ,PASS, ,0.065567712151016005, ,0.043002701252433252, ,-0.0034339947325377107, ,0.00057241809676106562
208, ,PASS, ,0.05066895787090199, ,0.033779871074841462, ,-0.0027020179009088026, ,0.00034740923658798664
209, ,PASS, ,0.045851449144128989, ,0.030274616952815303, ,-0.00237368226870291, ,0.00028176585402247677
210, ,PASS, ,0.049201677156635003, ,0.03295478877520075, ,-0.0026227891751729017, ,0.0003291973615529448
211, ,FAIL, ,8.7923965044371663e-05, ,1.6369292009901894e-05, ,0.00012921026076349659, ,3.6519623181949434e-10
212, ,PASS, ,0.068209099317034005, ,0.01612438949309726, ,-0.0002770945610993319, ,0.00022665583634913904
213, ,PASS, ,0.046433432627188007, ,0.037985448225483394, ,-0.0028763237060019688, ,0.00035775339024983466
214, ,FAIL, ,0.00014022526675835928, ,4.8564552977547593e-05, ,0.00017646707597614947, ,1.4689277416492638e-09
215, ,PASS, ,0.018743739146668194, ,0.009063998634762158, ,-0.00077759094423180135, ,3.5023452569014348e-05
216, ,FAIL, ,0.0080811082469290016, ,0.0012596400253409952, ,0.00021658652020560283, ,2.1409993311277048e-06
