Channel, ,Pass/Fail, ,Amplitude, ,Sorting Function Response, ,Mean, ,Variance, ,NPeaksRatio, ,PosIntegralRatio, ,ToT50, ,ToT99
19, ,PASS, ,0.010395790000000012, ,0.0015592056626209175, ,0.034562469980408565, ,1.6417736381997574e-05, ,1.8333333333333333, ,0.7318177302027237, ,0.42150160200812226, ,0.06640680802432604
20, ,PASS, ,0.018271459999999996, ,0.002598166269946498, ,0.033982785741923635, ,4.818559739393776e-05, ,1.8333333333333333, ,0.6998804191571931, ,0.4217873104630518, ,0.0308156976388237
21, ,PASS, ,0.020830259999999996, ,0.0030048507821117134, ,0.03380672414930308, ,6.352499371628555e-05, ,1.8333333333333333, ,0.7032186714226248, ,0.42395053162180363, ,0.04679496336809453
22, ,PASS, ,0.019934789999999997, ,0.0028912037947952697, ,0.03410371399032673, ,5.8440185787271495e-05, ,1.8333333333333333, ,0.7058241506712385, ,0.4254402971367931, ,0.05032550356115181
23, ,PASS, ,0.01549139, ,0.002278697890133013, ,0.03427450635578866, ,3.57933398658622e-05, ,1.8333333333333333, ,0.7184851108196098, ,0.42323626048447993, ,0.056386604355013165
24, ,PASS, ,0.007883640000000011, ,0.0010227794623861137, ,0.03488291813493602, ,8.214418521876318e-06, ,1.9166666666666667, ,0.644198150335993, ,0.4133385032958511, ,0.016264974184200323
25, ,PASS, ,0.010286140000000023, ,0.0016836004582064157, ,0.034730946568029226, ,1.7450383395064842e-05, ,1.75, ,0.7640992028764677, ,0.43274627048427583, ,0.07303932572804636
26, ,PASS, ,0.020081020000000015, ,0.0032779966303224405, ,0.03411573050325503, ,6.686948968086186e-05, ,1.8333333333333333, ,0.7690565742772368, ,0.4297871472010775, ,0.04838676761698741
27, ,PASS, ,0.023881759999999995, ,0.0038411791519274876, ,0.03357124710556927, ,9.259498058951389e-05, ,1.8333333333333333, ,0.7603930743731535, ,0.43070549580620804, ,0.05577437195159282
28, ,PASS, ,0.022753209999999992, ,0.0036875220701643027, ,0.03384100457337605, ,8.469008625109123e-05, ,1.8333333333333333, ,0.7580639049999933, ,0.42960347748005145, ,0.05987632905450909
29, ,PASS, ,0.016836540000000014, ,0.002749182931260361, ,0.03415538842248118, ,4.676455916526731e-05, ,1.8333333333333333, ,0.7654295678590486, ,0.42588926756596807, ,0.0530193261362013
30, ,PASS, ,0.007270120000000012, ,0.001129250627655423, ,0.03462963315687435, ,8.277673169100787e-06, ,1.8333333333333333, ,0.7633147742074571, ,0.4237260464072162, ,0.028223913797677597
31, ,PASS, ,0.010329659999999994, ,0.0016837974483141147, ,0.034388160864676234, ,1.7578149020296045e-05, ,1.9166666666666667, ,0.7721066117028711, ,0.41809350829574904, ,0.04336646190894063
32, ,PASS, ,0.021201620000000008, ,0.003354954682221354, ,0.03360920791269566, ,7.18310039297645e-05, ,1.8333333333333333, ,0.753310842113894, ,0.4206444766433338, ,0.04618273096467419
33, ,PASS, ,0.024996169999999984, ,0.0040252271947787644, ,0.03339785475459684, ,0.00010170071737012112, ,1.8333333333333333, ,0.7582182818968384, ,0.42644027672904633, ,0.0526519866941491
34, ,PASS, ,0.023742819999999974, ,0.003843295725920107, ,0.03351592597069447, ,9.220229270125501e-05, ,1.8333333333333333, ,0.7578985691025807, ,0.42690965490500193, ,0.05483561559968164
35, ,PASS, ,0.017499220000000013, ,0.002839765827873948, ,0.03415481015469072, ,5.0245567528595094e-05, ,1.8333333333333333, ,0.7711552354501696, ,0.4233995224587253, ,0.06040693047080672
36, ,PASS, ,0.007418160000000021, ,0.001126041259217706, ,0.03476579298626558, ,8.460135327184012e-06, ,2.0, ,0.74554509463971, ,0.41497112303830536, ,0.02940756311095692
37, ,PASS, ,0.014588990000000007, ,0.002503957110215424, ,0.034498459755515194, ,3.665579269343711e-05, ,1.75, ,0.793081768912979, ,0.4331340176731087, ,0.13052794840921614
38, ,PASS, ,0.026381240000000035, ,0.004586848929963665, ,0.0336817217615967, ,0.00012159647376145297, ,1.75, ,0.7927173968855258, ,0.4341748127589233, ,0.08099834697251077
39, ,PASS, ,0.031430500000000014, ,0.005384995455743232, ,0.033480689574294405, ,0.0001700719395382923, ,1.75, ,0.7844140002205311, ,0.43688904308075344, ,0.0784677863717067
40, ,PASS, ,0.03004099000000001, ,0.0051411313156677525, ,0.033506928377380056, ,0.00015520152318779525, ,1.75, ,0.7825846068713663, ,0.43623599518377176, ,0.07542703210138568
41, ,PASS, ,0.022193310000000004, ,0.00383004725774178, ,0.03348219489255321, ,8.546841247149209e-05, ,1.75, ,0.7903852380787736, ,0.4335217648619416, ,0.08063100753045856
42, ,PASS, ,0.009924150000000024, ,0.0017017337966260338, ,0.03468562271525071, ,1.6951861929679815e-05, ,1.8333333333333333, ,0.7876039491335193, ,0.4276239260423257, ,0.0284075835187037
43, ,PASS, ,0.015868800000000027, ,0.002727245429613192, ,0.034177619292667494, ,4.348645974283409e-05, ,1.8333333333333333, ,0.7934052933040168, ,0.430072855656007, ,0.0756923328095345
44, ,PASS, ,0.030678360000000002, ,0.0052145024037097, ,0.03344388795861309, ,0.00016068117072162694, ,1.75, ,0.7823850842556133, ,0.43670537335972737, ,0.08514111956898839
45, ,PASS, ,0.03671283999999998, ,0.006188032757671675, ,0.03320416237158425, ,0.00022812979033718492, ,1.75, ,0.7730740712448849, ,0.44031754453990735, ,0.08120242444031754
46, ,PASS, ,0.035164259999999996, ,0.0059238875535027715, ,0.03330590938307382, ,0.00020916236682342953, ,1.75, ,0.7743410078648155, ,0.4392971572008735, ,0.08350849982653415
47, ,PASS, ,0.025658500000000008, ,0.004367422930210699, ,0.033552249541029776, ,0.00011251489871218344, ,1.75, ,0.7830596046972224, ,0.4346441909348789, ,0.08099834697251077
48, ,PASS, ,0.010298250000000005, ,0.0017204760408089767, ,0.034517743553600946, ,1.7832187767246522e-05, ,1.8333333333333333, ,0.7804952889167547, ,0.42401175486214565, ,0.042080773861757924
49, ,PASS, ,0.02609941000000002, ,0.0031579972131980886, ,0.03443248023019938, ,8.218788697662824e-05, ,1.6666666666666667, ,0.6504995259418576, ,0.45529683067692495, ,0.03908083508499827
50, ,PASS, ,0.03730264999999998, ,0.005814025093320918, ,0.0335883370392441, ,0.00021702294161874336, ,1.75, ,0.7447907629864547, ,0.4443378706557009, ,0.121222015877227
51, ,PASS, ,0.04316710999999999, ,0.0068356464784871595, ,0.03359919528336157, ,0.00029562246693453097, ,1.9166666666666667, ,0.7540203223660805, ,0.4477459643680741, ,0.15513969102671374
52, ,PASS, ,0.04117369, ,0.006519287354948146, ,0.033578261532213625, ,0.0002686771138709847, ,1.9166666666666667, ,0.7510299691114645, ,0.44882757494745007, ,0.1422419950613253
53, ,PASS, ,0.033293599999999986, ,0.004866685001115636, ,0.034178900535907435, ,0.0001619732645129605, ,1.75, ,0.721878157221582, ,0.44790922634231956, ,0.08395747025570907
54, ,PASS, ,0.017130240000000005, ,0.002005259078290233, ,0.034595894810105915, ,3.42651989946234e-05, ,1.6666666666666667, ,0.6399193549494074, ,0.45825595396012325, ,0.02316279259606947
