Channel, ,Pass/Fail, ,Amplitude, ,Sorting Function Response, ,Mean, ,Variance
0, ,PASS, ,0.047640414426594, ,0.032535414451248613, ,0.0013353472363491056, ,0.0003181800940747132
1, ,PASS, ,0.046429060755301996, ,0.030989487687286345, ,0.0011911051557028601, ,0.00029522830122947737
2, ,PASS, ,0.046124437264003, ,0.030363519124101953, ,0.0012260334868595543, ,0.00028731439596852646
3, ,PASS, ,0.045441693442605, ,0.029672508180338356, ,0.0011513168823832321, ,0.0002766006833140364
4, ,PASS, ,0.04495113268249701, ,0.029349776162655983, ,0.0011215824037731936, ,0.0002705996646029286
5, ,PASS, ,0.044838206029536996, ,0.028996409081812037, ,0.0011134413314673622, ,0.00026665485743226984
6, ,PASS, ,0.04478634197015001, ,0.029100247262535208, ,0.001161975574111767, ,0.00026729600928691405
7, ,PASS, ,0.044532642919181, ,0.028801505755274324, ,0.001193396010441177, ,0.0002630290637387086
8, ,PASS, ,0.04472183498962999, ,0.029160099463971585, ,0.0011447627550918483, ,0.00026743327857821955
9, ,PASS, ,0.044519289703475004, ,0.02878374824878671, ,0.001190483302256734, ,0.00026274738785524144
10, ,PASS, ,0.044719918811735995, ,0.02925357543407462, ,0.001164845063485196, ,0.0002682559022439072
11, ,PASS, ,0.04475230834078399, ,0.029132385123265762, ,0.0011637658424247012, ,0.0002673265092745521
12, ,PASS, ,0.044942602533106, ,0.029404625972369838, ,0.0012115408710898082, ,0.00027095331692489284
13, ,PASS, ,0.044977052126197015, ,0.029502966104388028, ,0.0011954301890932555, ,0.00027208741236613577
14, ,PASS, ,0.045209456699862, ,0.029887168425104544, ,0.0012244942943964083, ,0.00027703619138684586
15, ,PASS, ,0.04633371223051799, ,0.030961648794083647, ,0.0013148145341958719, ,0.0002941633955053207
16, ,PASS, ,0.045563925963504996, ,0.03019311436245655, ,0.0012393341567279803, ,0.0002820667593235247
17, ,PASS, ,0.045058734022189004, ,0.02975245868873881, ,0.0011984264915106057, ,0.0002748541162998519
18, ,PASS, ,0.045146795476344995, ,0.02994541709022306, ,0.0012288395059051598, ,0.0002771662343631062
19, ,PASS, ,0.044932009052381996, ,0.029639946738184885, ,0.0012344139859811556, ,0.0002730245513891601
20, ,PASS, ,0.044974224597913004, ,0.029895628276651848, ,0.0012295766964560482, ,0.00027566006264457816
21, ,PASS, ,0.04493421301190499, ,0.029621498703745985, ,0.0011897981425835849, ,0.0002728651635269487
22, ,PASS, ,0.045104990536999, ,0.02989670483223153, ,0.0012087935384981457, ,0.000276475303124297
23, ,PASS, ,0.045349584018795006, ,0.0302947049181521, ,0.0012814366170341776, ,0.00028169614600738355
24, ,PASS, ,0.04514036532201, ,0.03003873404731946, ,0.0012732985801384086, ,0.000278002343581662
25, ,PASS, ,0.044961969001452995, ,0.02954055405073762, ,0.001208529077240448, ,0.0002722694553123229
26, ,PASS, ,0.04488054491215201, ,0.02968225956842296, ,0.0012519121465035773, ,0.0002731216026616056
27, ,PASS, ,0.04455272066542801, ,0.029217666454428647, ,0.0011748604463537719, ,0.0002668268393612162
28, ,PASS, ,0.044503967398932996, ,0.029140461248162476, ,0.0012631395562567177, ,0.00026585490427010107
29, ,PASS, ,0.044450349164691004, ,0.028961893653303296, ,0.0011627802039916534, ,0.0002638866009388813
30, ,PASS, ,0.044562394815127, ,0.029175585653955602, ,0.0012276058909303673, ,0.0002664935427831769
31, ,PASS, ,0.044391884452842006, ,0.028930065369295942, ,0.0011989806448552912, ,0.0002632602922423467
32, ,PASS, ,0.044712753927057, ,0.02945984255804736, ,0.0012175457975454492, ,0.00027004694444399303
33, ,PASS, ,0.044989305498815996, ,0.02957878481432762, ,0.0012346974996276189, ,0.00027284308581147846
34, ,PASS, ,0.04540906465248799, ,0.030031036841161474, ,0.0012515667836718672, ,0.00027964802864707144
35, ,PASS, ,0.045864797981468995, ,0.0302324475920402, ,0.0012111544771302065, ,0.0002843400058110081
36, ,PASS, ,0.04570907220067201, ,0.03010664197972712, ,0.0012928762593930935, ,0.00028221073337114996
37, ,PASS, ,0.045786855601910995, ,0.030154298546773334, ,0.0012316524019382851, ,0.0002831141287508136
38, ,PASS, ,0.046370189229355, ,0.030622801837404207, ,0.0012822200809767571, ,0.0002911708797379059
39, ,PASS, ,0.049747470513011, ,0.03297800172535599, ,0.001412561904868058, ,0.0003363784112126623
40, ,PASS, ,0.09999999997600004, ,0.09591509867004035, ,0.005236773326497492, ,0.0019880763724709717
41, ,PASS, ,0.05142231641790901, ,0.032452160411392365, ,0.0012891599249563461, ,0.00034227291364753823
42, ,PASS, ,0.04832146940030099, ,0.03051680058375652, ,0.0011979632904398562, ,0.00030255013904377374
43, ,PASS, ,0.047900942796271, ,0.030182745540258644, ,0.0011820699257834263, ,0.00029666062591102626
44, ,PASS, ,0.047852103275631996, ,0.03042521852298097, ,0.0012108288734811253, ,0.00029874660551868783
45, ,PASS, ,0.04774843197104, ,0.030141617708415284, ,0.0011790196876101543, ,0.0002952724944257944
46, ,PASS, ,0.04786709467205601, ,0.03035976777583384, ,0.0012227383866531259, ,0.0002981447532862598
47, ,PASS, ,0.047710976047381, ,0.030163358885408862, ,0.0012159755780260365, ,0.0002952559334084761
48, ,PASS, ,0.047618362414398, ,0.030051684980371876, ,0.001217148910003596, ,0.00029358403104115153
49, ,PASS, ,0.047631477118617, ,0.029906396081609044, ,0.0011972826274600963, ,0.0002922227903028754
50, ,PASS, ,0.04773622376410999, ,0.030223372685282784, ,0.0012131584680062806, ,0.000295960984284199
51, ,PASS, ,0.047655274194456004, ,0.02996403374840909, ,0.0012468528502952855, ,0.00029293362586534365
52, ,PASS, ,0.047766557339146, ,0.030334935922114142, ,0.0012516799622585813, ,0.00029724360893410565
53, ,PASS, ,0.047570597085765, ,0.030044246506649448, ,0.0012304665423032417, ,0.0002931344467846755
54, ,PASS, ,0.047722480721286, ,0.030273726079239914, ,0.0012458896136877645, ,0.000296307816703344
55, ,PASS, ,0.04761893180601, ,0.030086995984334616, ,0.0012521850347234163, ,0.0002938491274916294
56, ,PASS, ,0.047661345106712, ,0.03011426865473947, ,0.0012366258349822184, ,0.0002943727727462092
57, ,PASS, ,0.047659455382146, ,0.029954988013633988, ,0.0011814814428546122, ,0.00029274854515731383
58, ,PASS, ,0.04771830266057201, ,0.030232789421844212, ,0.0012256632336137066, ,0.0002958228316504598
59, ,PASS, ,0.047637437903372, ,0.03007474789169832, ,0.0012515588520110956, ,0.00029377632816012856
60, ,PASS, ,0.04798483474293899, ,0.03035452482051625, ,0.0012294553208303468, ,0.000298665432194363
61, ,PASS, ,0.047938244300664, ,0.030082200424322428, ,0.0012317760195726586, ,0.0002956785162402886
62, ,PASS, ,0.047840879289378004, ,0.030169598635849136, ,0.0012434146233810523, ,0.0002959353175952145
63, ,PASS, ,0.047686326613530006, ,0.029901794607924942, ,0.0011490115237099811, ,0.0002923167818899241
64, ,PASS, ,0.047826086121425006, ,0.030351287729255536, ,0.0012090242516989188, ,0.00029760645047273226
65, ,PASS, ,0.04776755044959401, ,0.030056546796737582, ,0.0011690417114989626, ,0.0002943041738582575
66, ,PASS, ,0.0477153545208, ,0.0301953285404564, ,0.0012160431824423808, ,0.0002953141470355643
67, ,PASS, ,0.047753955270275004, ,0.030092549106860964, ,0.0012525049105755284, ,0.00029456609027125955
68, ,PASS, ,0.047612251418035004, ,0.029986791988674055, ,0.0011901392602693993, ,0.0002925982646256572
69, ,PASS, ,0.047546676265075, ,0.0298008219669384, ,0.0011812509988510579, ,0.00029035244303366457
70, ,PASS, ,0.047679799148881, ,0.029949881494319066, ,0.0012401433876566498, ,0.0002926224185571517
71, ,PASS, ,0.047614651826265994, ,0.029839349213993165, ,0.0012529014345291517, ,0.00029114250872362994
72, ,PASS, ,0.047915328002285006, ,0.03017173299074162, ,0.001250399309480245, ,0.00029620692768663766
73, ,PASS, ,0.048199455397991, ,0.030560398379770034, ,0.0012668333072030158, ,0.00030184957602897455
74, ,PASS, ,0.04806332617032, ,0.030484292871516497, ,0.0012180727182035476, ,0.0003002465481055749
75, ,PASS, ,0.047629142028327, ,0.02972107700589655, ,0.0012083085437435128, ,0.00029003464874684357
76, ,PASS, ,0.047471116424454, ,0.02940776854973948, ,0.0012301158406686353, ,0.00028599221703131246
77, ,PASS, ,0.04758356211056, ,0.029466989047113357, ,0.0011450762629525814, ,0.00028724058044426917
78, ,PASS, ,0.047730626970634994, ,0.02967069136972192, ,0.0011973662555484154, ,0.0002901524746502974
79, ,PASS, ,0.04762226401401699, ,0.029593173451275857, ,0.0011950754846395113, ,0.000288724309371586
80, ,PASS, ,0.04822976726380201, ,0.030363210615206086, ,0.0012071495529319641, ,0.000300062050449213
81, ,PASS, ,0.048360623773883, ,0.030488689260985462, ,0.0012187022060294094, ,0.0003021121760261899
82, ,PASS, ,0.048643434890359, ,0.03098477689912428, ,0.0012788339198933371, ,0.00030882891432072794
83, ,PASS, ,0.048294832798556, ,0.030341659970795805, ,0.0012405502683782862, ,0.00030022753795361847
84, ,PASS, ,0.048316046997087005, ,0.030283151718221057, ,0.0012508420377703696, ,0.00029978071597113967
85, ,PASS, ,0.048395977094529, ,0.030053546518480315, ,0.0011820156655719238, ,0.00029798118826012776
86, ,PASS, ,0.048355716496969, ,0.030212507141370557, ,0.0012264084970061754, ,0.00029931974662245
87, ,PASS, ,0.048170193293740005, ,0.029913068101282688, ,0.0012171161499657849, ,0.0002951858528654232
88, ,PASS, ,0.04817316785378901, ,0.030169483101355653, ,0.0012289070020673279, ,0.00029775045973569645
89, ,PASS, ,0.04810265214564399, ,0.029925447402656537, ,0.0011468377067032072, ,0.0002948785885314455
90, ,PASS, ,0.04807433305598299, ,0.03003178320635601, ,0.0012109094080553684, ,0.00029577135192491945
91, ,PASS, ,0.047862509335378, ,0.029808512630224257, ,0.001219425620665891, ,0.00029227209852693937
92, ,PASS, ,0.047958979302957006, ,0.030081573146427416, ,0.0012040892860465495, ,0.0002955561488913727
93, ,PASS, ,0.047973349181361, ,0.029893444177273045, ,0.0012025281565801983, ,0.0002937831097534255
94, ,PASS, ,0.047997352699845994, ,0.030045308292411803, ,0.0012317055855564536, ,0.0002954006991355473
95, ,PASS, ,0.04776195648001099, ,0.02978544292094263, ,0.001174989280607512, ,0.00029142657678771217
96, ,PASS, ,0.047746283286099006, ,0.029841892704193712, ,0.0011923367725044573, ,0.00029190222615977496
97, ,PASS, ,0.047715502690197004, ,0.029609788559784782, ,0.0011803100669918918, ,0.00028941522205810585
98, ,PASS, ,0.047661306757931995, ,0.029780179643253284, ,0.0012163716009743492, ,0.00029076792792609397
99, ,PASS, ,0.047636971137034995, ,0.029687750609982896, ,0.0011681559370198748, ,0.0002897152483869322
100, ,PASS, ,0.047703923927378, ,0.029910231628246783, ,0.0012434519968094076, ,0.00029229441714028457
101, ,PASS, ,0.047818522685199004, ,0.029944123096399957, ,0.0011953227569650084, ,0.0002933372994377727
102, ,PASS, ,0.047705724709009, ,0.030025803048404152, ,0.0011769114160825869, ,0.0002934508086981548
103, ,PASS, ,0.047613279717134, ,0.029859630542462507, ,0.001273799346863655, ,0.0002912754136141779
104, ,PASS, ,0.048153157611369, ,0.030296910358317882, ,0.00123519884711975, ,0.0002988817316063901
105, ,PASS, ,0.048103819990682, ,0.030044203139563696, ,0.001249553414694521, ,0.0002960532147829977
106, ,PASS, ,0.048119971749639, ,0.030134467137499836, ,0.0012689595339868854, ,0.00029707000366649433
107, ,PASS, ,0.048079110659452, ,0.02976414028524027, ,0.0012602294265669281, ,0.0002931518217437115
108, ,PASS, ,0.04795028929062, ,0.029965351425712286, ,0.001235706845503695, ,0.0002943456365668611
109, ,PASS, ,0.047977299028939005, ,0.02978697806785305, ,0.0012418914713239347, ,0.000292761499440304
110, ,PASS, ,0.048084119477287, ,0.029907199128468672, ,0.0012164833951970914, ,0.0002946109460002694
111, ,PASS, ,0.048193078109738996, ,0.029857699159310965, ,0.0012490213171644233, ,0.0002947618701411244
112, ,PASS, ,0.048290675776463995, ,0.029907772638668353, ,0.001264125612109672, ,0.00029587210152661473
113, ,PASS, ,0.048719131846391, ,0.030071085607639204, ,0.0012328579650557015, ,0.00030012327449306154
114, ,PASS, ,0.051302205040794, ,0.03188457241121488, ,0.0013169366617779678, ,0.00033495853644323125
115, ,PASS, ,0.09999999997600004, ,0.09198905607293545, ,0.005129330053898614, ,0.0018991214222242355
116, ,PASS, ,0.049113142812076, ,0.03091301545008853, ,0.0012806506476307216, ,0.0003110941735412786
117, ,PASS, ,0.044900352631979, ,0.027826199159616424, ,0.0011296744679323407, ,0.0002561753028345212
118, ,PASS, ,0.04454495978648601, ,0.027874805982785234, ,0.001154670599543123, ,0.0002545900605913227
119, ,PASS, ,0.04447157093816101, ,0.027685037352217758, ,0.001127520036674345, ,0.0002524073870730145
120, ,PASS, ,0.044584311670907, ,0.028049068216371476, ,0.0011354256887730904, ,0.00025633695781816915
121, ,PASS, ,0.044278713433280006, ,0.027725781417154007, ,0.001148234653307954, ,0.0002516619125056488
122, ,PASS, ,0.04422869039485801, ,0.0278647952445205, ,0.0012366555014777134, ,0.00025263092852077394
123, ,PASS, ,0.044129916126163, ,0.027704323527445996, ,0.0011305873963180374, ,0.00025061307721779797
124, ,PASS, ,0.043668308151476, ,0.02761909904967959, ,0.0011430853699667478, ,0.00024721588946143605
125, ,PASS, ,0.04388979708868601, ,0.027569191352083442, ,0.001136882016697139, ,0.00024800097981682057
126, ,PASS, ,0.04403840176894, ,0.02772432547013646, ,0.0011306527361778158, ,0.0002502231393641505
127, ,PASS, ,0.043925650006257005, ,0.027630637755636255, ,0.0011168478389481714, ,0.00024875688148746596
128, ,PASS, ,0.04348973990688, ,0.02737564082373522, ,0.0011309748138950979, ,0.00024398516728101082
129, ,PASS, ,0.04371828271830301, ,0.027439485540590208, ,0.0011160463602897526, ,0.0002458167460445472
130, ,PASS, ,0.043951164408719004, ,0.02761132173756172, ,0.0011238468524232981, ,0.0002486775133657948
131, ,PASS, ,0.04376770968746101, ,0.027398366619697887, ,0.0011261849795991697, ,0.00024571581755928744
132, ,PASS, ,0.043888438927942, ,0.027391849607145077, ,0.0010860354255476368, ,0.0002463515205125209
133, ,PASS, ,0.043654174310086, ,0.027023237921890556, ,0.0010429029656005985, ,0.0002417337342839111
134, ,PASS, ,0.043694668343333, ,0.027377926974462063, ,0.0011127604461785153, ,0.0002451176270451768
135, ,PASS, ,0.043554522719965, ,0.027071449347888323, ,0.0010416393225835716, ,0.00024161054109064412
136, ,PASS, ,0.043704328276056005, ,0.027298854299794596, ,0.0011243246380147783, ,0.00024443576067660936
137, ,PASS, ,0.043626528291604, ,0.027165129274650864, ,0.0011333757291771655, ,0.00024280916293380124
138, ,PASS, ,0.043569246625863006, ,0.027337545682294528, ,0.001126127543959539, ,0.00024403262466694364
139, ,PASS, ,0.04348945493317, ,0.02715990837526771, ,0.0011277532770873715, ,0.00024196451922820034
140, ,PASS, ,0.0435562269131, ,0.02735839756552989, ,0.0011276659856957621, ,0.00024413079356006738
141, ,PASS, ,0.043537484916703006, ,0.02724148110179631, ,0.001119711759416257, ,0.00024296956386041758
142, ,PASS, ,0.043421681235983, ,0.02730397314472397, ,0.0011426005856002635, ,0.00024287522226936636
143, ,PASS, ,0.043206215688808, ,0.027018565114560793, ,0.001105747762403818, ,0.00023916115509817592
144, ,PASS, ,0.04313496185778999, ,0.026924615836109927, ,0.0010780070860029831, ,0.0002379198515349229
145, ,PASS, ,0.043057830426875, ,0.026799801556986032, ,0.0010432416793346258, ,0.00023640729998021813
146, ,PASS, ,0.043113423532059006, ,0.026878821406223802, ,0.0011228684065544773, ,0.0002373727817639159
147, ,PASS, ,0.04307282189458899, ,0.026888495142755178, ,0.001063351052837832, ,0.00023724360935447177
148, ,PASS, ,0.043566028268176, ,0.02798189550423719, ,0.0011642985540640568, ,0.00024973328597834574
149, ,PASS, ,0.043524716472829, ,0.02773508450553503, ,0.0011336446447706963, ,0.0002473014676497352
150, ,PASS, ,0.043183881453233, ,0.027237454834233354, ,0.0012058476283806807, ,0.0002409353736738703
151, ,PASS, ,0.043193643830553, ,0.027174977074125563, ,0.0011183997152771365, ,0.00024041622112184387
152, ,PASS, ,0.04320168262760599, ,0.027255520330446852, ,0.00117733041990509, ,0.00024119055959728142
153, ,PASS, ,0.043276011581842, ,0.027092887485634765, ,0.001096378318935022, ,0.00024016607819035663
154, ,PASS, ,0.04329292792698499, ,0.02720537901202502, ,0.0011189888577343866, ,0.00024123795436531485
155, ,PASS, ,0.043140616797032995, ,0.02695843230182443, ,0.0010927974613198655, ,0.00023818368746954843
156, ,PASS, ,0.043558123769570994, ,0.02750667254494832, ,0.0011367198663245282, ,0.00024542081837645833
157, ,PASS, ,0.043622141433374007, ,0.027458445902462592, ,0.001128199102818233, ,0.0002453434976169676
158, ,PASS, ,0.03973102923115601, ,0.021821827740892825, ,0.0008996725539987405, ,0.00017961380180659686
159, ,PASS, ,0.043326817998019004, ,0.027066057169119175, ,0.0011788600115620804, ,0.0002401754593592315
160, ,PASS, ,0.043473298573108, ,0.0272432176513318, ,0.0011627039287721971, ,0.00024257208207502604
161, ,PASS, ,0.043501432133916, ,0.027237557513429385, ,0.001189025377500671, ,0.00024270156794014224
162, ,PASS, ,0.04361602064289101, ,0.027387637273048927, ,0.0011615152984225659, ,0.00024466202587514505
163, ,PASS, ,0.043394430711614, ,0.027202923425358246, ,0.0011335687438815804, ,0.00024177000431880701
164, ,PASS, ,0.04327649904450401, ,0.027210395301943018, ,0.0011777226216168302, ,0.00024119003120544932
165, ,FAIL, ,0.0059023662903572, ,0.0006855993009410601, ,1.0016468224952227e-05, ,9.995387810133227e-07
166, ,PASS, ,0.043066949750918, ,0.02723170502808936, ,0.0011287053510626221, ,0.00024024379108894312
167, ,PASS, ,0.040718217277408, ,0.024497773647069676, ,0.0010339415786013318, ,0.00020545590873590118
168, ,PASS, ,0.039046676806817004, ,0.020151720301527915, ,0.0008435629267830615, ,0.00016355221577989
169, ,PASS, ,0.038982240628748, ,0.020248045006944333, ,0.0007975699614340908, ,0.00016407516838586197
170, ,PASS, ,0.03894146692056501, ,0.02026734574085099, ,0.0008583464488391445, ,0.0001640635555237566
171, ,PASS, ,0.038877532775175, ,0.020201724838006595, ,0.0008142204783934639, ,0.0001632763371891261
172, ,FAIL, ,0.006891256280380899, ,0.0006346956714702018, ,3.3511604006062185e-05, ,1.173388042419372e-06
173, ,PASS, ,0.038600639937637, ,0.02058753994566649, ,0.0009175540074022879, ,0.000165101053830905
174, ,PASS, ,0.038573005583380005, ,0.020677872698912376, ,0.0008305606901484487, ,0.00016573032179078299
175, ,PASS, ,0.038832480466401996, ,0.020379727097791116, ,0.0008417885719785212, ,0.00016448710682533522
176, ,PASS, ,0.039262991224276, ,0.02209044836746396, ,0.0009570893682293351, ,0.00018015813358145957
177, ,PASS, ,0.038601932752273, ,0.022199594949259577, ,0.0009549124941943013, ,0.00017795476432775348
178, ,PASS, ,0.038851238093011, ,0.020494200592080892, ,0.0008462332002436524, ,0.0001654650952217239
179, ,PASS, ,0.039085946236048, ,0.020190352344339364, ,0.0008595255495044931, ,0.00016405418832997798
180, ,PASS, ,0.039308597700222006, ,0.020350854889569406, ,0.0008514088476867997, ,0.00016631098962741243
181, ,PASS, ,0.039301559302434994, ,0.020136644509774728, ,0.0008139069854125951, ,0.00016455513633559205
182, ,PASS, ,0.039201086664942, ,0.02028046479069361, ,0.0007990798236864035, ,0.00016529299780794571
183, ,PASS, ,0.03916633525813801, ,0.021706072996054118, ,0.0009053637225668441, ,0.00017662721892152064
184, ,PASS, ,0.039130550910806, ,0.021646311079361703, ,0.0009041591999753293, ,0.00017603730199751446
185, ,PASS, ,0.039339225873749, ,0.01984339427030418, ,0.0007701299122662849, ,0.00016239703187129596
186, ,PASS, ,0.039286286402753, ,0.020131105892679656, ,0.0008543899651586703, ,0.00016449069130795187
187, ,PASS, ,0.039582588124862, ,0.02013908882094394, ,0.0008305044231445616, ,0.00016585012647504725
188, ,PASS, ,0.039968421669721005, ,0.020623838169518613, ,0.0008600385754813372, ,0.00017140091116947415
189, ,PASS, ,0.042140080053710005, ,0.021650723119051408, ,0.0008934767951248912, ,0.00018962414009807187
190, ,PASS, ,0.09645315776090999, ,0.0682990974666809, ,0.0032523607041754555, ,0.0013627412043738913
191, ,PASS, ,0.036716053213332, ,0.020757254417474176, ,0.000860951145527196, ,0.00015840990871621537
192, ,PASS, ,0.03382435932629299, ,0.018864752747932406, ,0.0008396555515428542, ,0.0001327362693303129
193, ,PASS, ,0.033544365531537, ,0.01860106672267096, ,0.0007724259603111367, ,0.00012983019964526825
194, ,PASS, ,0.033382647013867, ,0.01863614223770491, ,0.0007697294192009724, ,0.0001294365186158036
195, ,PASS, ,0.03383098368302101, ,0.018725694283397164, ,0.0008367417800106096, ,0.00013175946711703088
196, ,PASS, ,0.033592230375996, ,0.018670564264374526, ,0.0008010392725472752, ,0.00013045834104401412
197, ,PASS, ,0.033559872927670986, ,0.018503145445782517, ,0.0007716227195788145, ,0.00012918113797864798
198, ,PASS, ,0.0336341648311, ,0.018739589092402722, ,0.000780010560561169, ,0.00013105625411427314
199, ,PASS, ,0.033462886648759, ,0.018565677475675595, ,0.0008253296382108561, ,0.00012918725912998018
200, ,PASS, ,0.033484153298736996, ,0.01890171336930343, ,0.0008129605606809431, ,0.00013159875975054898
201, ,PASS, ,0.03357589920038399, ,0.018561994284372014, ,0.0008215760176618221, ,0.00012958497666872089
202, ,PASS, ,0.033513860224608005, ,0.018728107243003302, ,0.0007997596839612016, ,0.00013046337877906263
203, ,PASS, ,0.033438144654445, ,0.018594715211108497, ,0.0007513955893697744, ,0.00012925636648534176
204, ,PASS, ,0.033518185861305, ,0.018723216420157413, ,0.0007773109728395818, ,0.00013042571114286366
205, ,PASS, ,0.033504994156491996, ,0.01858515574556339, ,0.0007921774108210295, ,0.00012940294640235154
206, ,PASS, ,0.033421534990823995, ,0.018712878344792003, ,0.0007808113024113288, ,0.00012999612405241293
207, ,PASS, ,0.033496664483429986, ,0.018677907878271293, ,0.0008148174006977362, ,0.0001299879618720622
208, ,PASS, ,0.033521544230181, ,0.018941904770399805, ,0.000823667262307675, ,0.00013193028885263608
209, ,PASS, ,0.03354260575356801, ,0.01882501984770815, ,0.0008519443729434215, ,0.0001311613970931053
210, ,PASS, ,0.03353882048426299, ,0.01891628301472944, ,0.0008268639343149328, ,0.00013174754363345047
211, ,PASS, ,0.033538110964319995, ,0.01874517993392923, ,0.0008557991619934652, ,0.00013054805704145324
212, ,PASS, ,0.03356535750352099, ,0.018855199221290957, ,0.0008353588254588146, ,0.0001313837525704596
213, ,PASS, ,0.033495205694949, ,0.018559415023814734, ,0.0008128569542024921, ,0.0001290777863305312
214, ,PASS, ,0.033375446786926, ,0.01865850376935696, ,0.0008222302572583033, ,0.00012929340530919614
215, ,PASS, ,0.033582861393724, ,0.018675003200921216, ,0.0007905373758489028, ,0.00013017500948379472
216, ,PASS, ,0.033849724785875994, ,0.01893191455934009, ,0.0008235483845101831, ,0.00013297842756137835
217, ,PASS, ,0.03398300332215, ,0.018841025514879595, ,0.000781579235754851, ,0.00013288323465200378
218, ,PASS, ,0.03395037915204699, ,0.0190243687887655, ,0.0008046676862650144, ,0.00013401145510322322
219, ,PASS, ,0.033813651132935996, ,0.018736298663651355, ,0.0007890890504549896, ,0.00013146227039235694
220, ,PASS, ,0.033831973780311005, ,0.018909383301533418, ,0.0008223306030657737, ,0.00013276473163022592
221, ,PASS, ,0.03389008633680499, ,0.018745973422933708, ,0.0007974135622230288, ,0.00013183266863186452
222, ,PASS, ,0.033830313396322004, ,0.018973696069623385, ,0.0008929808164768871, ,0.0001331789600984743
223, ,PASS, ,0.03419851861479101, ,0.01965285120206363, ,0.0008786319278185024, ,0.00013946783400844718
224, ,PASS, ,0.034468329737268, ,0.019710802784924365, ,0.0008630510851835513, ,0.00014090226613948807
225, ,PASS, ,0.034340076675159995, ,0.019202502621279965, ,0.0008248889866813654, ,0.00013671301288116508
226, ,PASS, ,0.034384123571585, ,0.019342887573033967, ,0.000841182359391986, ,0.00013787241152734184
227, ,PASS, ,0.033866156478465, ,0.019400542840250192, ,0.0008015291320203368, ,0.00013624078062462905
228, ,PASS, ,0.034103377086926, ,0.01962480210755367, ,0.0008264675234734865, ,0.0001388104885266732
229, ,PASS, ,0.034612075062535, ,0.019219113440498217, ,0.000794289114892078, ,0.00013790865817377322
230, ,PASS, ,0.03469979792014101, ,0.01941460290512792, ,0.0007925278702369955, ,0.0001396193844124336
231, ,PASS, ,0.034892510235331006, ,0.019598715265087763, ,0.0008560951119932286, ,0.00014175019037160764
232, ,PASS, ,0.034509463041681995, ,0.01997569073898456, ,0.0008521637997619934, ,0.00014294181941187274
233, ,PASS, ,0.03388661126365801, ,0.0199602523940234, ,0.0008982948954148651, ,0.00014028171409277186
234, ,PASS, ,0.03435473301352099, ,0.01975631514939897, ,0.0008571023298989748, ,0.00014074880268738187
235, ,PASS, ,0.034662253064486004, ,0.019557495059815834, ,0.000931132727293815, ,0.0001405507888792162
236, ,PASS, ,0.034947430721101, ,0.0205332213532269, ,0.0008460480066567389, ,0.00014872439331761988
237, ,PASS, ,0.035155280002215, ,0.020502073239495145, ,0.0009037885904448944, ,0.00014936725397158944
238, ,PASS, ,0.035830724529142, ,0.019943282575960987, ,0.000812507821100785, ,0.0001480318849878333
239, ,PASS, ,0.036049498855944, ,0.0198295136140152, ,0.0007856254828833648, ,0.0001480626496293196
240, ,PASS, ,0.036537121496742, ,0.020160254617183685, ,0.0008113401575130607, ,0.00015251646452337007
241, ,PASS, ,0.036427666187859996, ,0.020163872330193476, ,0.0009238397596020911, ,0.00015208683560872027
242, ,PASS, ,0.036518727327674, ,0.019946946914304098, ,0.000898594120933945, ,0.00015084397634692568
243, ,PASS, ,0.036468852668383, ,0.0202292987246466, ,0.0008841510396918131, ,0.0001527384778143159
244, ,PASS, ,0.03628507754876101, ,0.020734765943010255, ,0.0008526622220092707, ,0.00015579447123250143
245, ,PASS, ,0.036320152952211, ,0.02108941544870036, ,0.0009185992177900512, ,0.00015861122754571498
246, ,PASS, ,0.036596616749466, ,0.020685477447919966, ,0.0008868635586997694, ,0.00015680841648972146
247, ,PASS, ,0.037749458341144, ,0.020330876260673633, ,0.0008337442471511921, ,0.00015880870248489992
248, ,PASS, ,0.038104490006556, ,0.020601608698504213, ,0.0008212232087181991, ,0.00016241706634036057
249, ,PASS, ,0.038056868362481, ,0.020690025717630556, ,0.0008468893215686946, ,0.00016298335365469077
250, ,PASS, ,0.037854583958946, ,0.020657934561445178, ,0.0008603350397213888, ,0.00016189244819874468
251, ,PASS, ,0.038103353045451, ,0.021136569819356642, ,0.0009135466922555837, ,0.0001667056185521984
252, ,PASS, ,0.03798658772639699, ,0.020916995282938243, ,0.0009913319015382952, ,0.00016445564945108754
253, ,PASS, ,0.038076780050167, ,0.021367386026451152, ,0.000952514967155538, ,0.00016842092553183126
254, ,PASS, ,0.038721746144597, ,0.02151391594025387, ,0.0007059122293512703, ,0.00017255563114298387
255, ,PASS, ,0.039286426848873006, ,0.021271581065405342, ,0.0009526542431773058, ,0.00017296721265781432
