Channel, ,Pass/Fail, ,Amplitude, ,Sorting Function Response, ,Mean, ,Variance, ,NPeaksRatio, ,PosIntegralRatio, ,ToT50, ,ToT99
24, ,PASS, ,0.06282225399999998, ,0.009311019838183186, ,0.039856969643170544, ,0.0005850700371329307, ,1.8333333333333333, ,0.7283138837928608, ,0.5757025366829248, ,0.1711801799963266
25, ,PASS, ,0.11109416000000004, ,0.013430162768320873, ,0.04002330747678619, ,0.0014823198852535711, ,1.75, ,0.6315950544947448, ,0.5522132201383645, ,0.026774963776249463
26, ,PASS, ,0.05928223999999998, ,0.009597447912596306, ,0.040311968585885996, ,0.0005706907359766594, ,1.75, ,0.7737739003974963, ,0.5847635762535458, ,0.19232260566110895
27, ,PASS, ,0.06808522839999999, ,0.009768092653314037, ,0.03986431150438562, ,0.0006636786417119101, ,1.6666666666666667, ,0.7092180608060585, ,0.5721515887430869, ,0.1366502724434195
28, ,PASS, ,0.11614404000000005, ,0.013500578821061218, ,0.039694845860900795, ,0.0015564675474143328, ,1.75, ,0.6149945069022813, ,0.5491724658680435, ,0.022489336952307096
29, ,PASS, ,0.06568442599999996, ,0.00964096473893993, ,0.040489377667312906, ,0.0006331871716194361, ,1.75, ,0.731498637920359, ,0.5848452072406686, ,0.05124385216628232
30, ,PASS, ,0.076989578, ,0.010394636691170207, ,0.03988089917320666, ,0.000797180228977229, ,1.6666666666666667, ,0.6807284990252808, ,0.56802922389339, ,0.05324381135078876
31, ,PASS, ,0.12477597, ,0.014131049375193279, ,0.03959714822962797, ,0.0017494005773984365, ,1.75, ,0.6034778420095431, ,0.5464378277994326, ,0.019897553111160995
32, ,PASS, ,0.07433005699999998, ,0.01039736046537581, ,0.04053488929466949, ,0.0007722187579703177, ,1.8333333333333333, ,0.7061349017116821, ,0.5788657374339299, ,0.03189730821819963
33, ,PASS, ,0.07580097319999998, ,0.010437554364392556, ,0.0400232515987041, ,0.0007885258882199402, ,1.6666666666666667, ,0.6892443732875182, ,0.5672333217689435, ,0.060447745964368076
34, ,PASS, ,0.12299300000000002, ,0.014153492362031086, ,0.03952485465214996, ,0.0017286555253815785, ,1.75, ,0.6060572209187063, ,0.547805146833738, ,0.020795493969510827
35, ,PASS, ,0.07257736769999996, ,0.010300218689059453, ,0.04078005703120344, ,0.000747257434996099, ,1.6666666666666667, ,0.7164019420473539, ,0.582600355094794, ,0.04020326115793555
36, ,PASS, ,0.07953266199999999, ,0.010524271408204255, ,0.0399388911588743, ,0.0008332928712829238, ,1.6666666666666667, ,0.6715827638682849, ,0.5676618844513377, ,0.04659088590028775
37, ,PASS, ,0.12553708999999996, ,0.014241893752688676, ,0.03969419530376931, ,0.0017741675316355102, ,1.75, ,0.604461597549487, ,0.5464990510397747, ,0.020428154527458622
38, ,PASS, ,0.0755776812, ,0.01060275574352027, ,0.04052012992987898, ,0.0008007301112469701, ,1.8333333333333333, ,0.7062510626870967, ,0.5766208852880553, ,0.0331217730250403
39, ,PASS, ,0.07255430449999997, ,0.010100074995826845, ,0.03976909903977265, ,0.00073079616766287, ,1.6666666666666667, ,0.6924844772910003, ,0.5669067978204526, ,0.07401889757351891
40, ,PASS, ,0.11990076000000001, ,0.013893049731716605, ,0.03950761765923144, ,0.0016535565751134372, ,1.75, ,0.6130567556141266, ,0.5484786024775005, ,0.022203628497377604
41, ,PASS, ,0.06548123899999997, ,0.009897987199503036, ,0.04018821219650619, ,0.0006488951935825948, ,1.75, ,0.7421689347366889, ,0.5831105487643109, ,0.05410093671557723
42, ,PASS, ,0.07337635609999998, ,0.009904782193488322, ,0.03989722990067345, ,0.000723899355233057, ,1.6666666666666667, ,0.6813841500242084, ,0.5732536070692434, ,0.07118222077100467
43, ,PASS, ,0.12019479000000001, ,0.014035539942276931, ,0.039456318847778615, ,0.0016750422416624217, ,1.75, ,0.6121895475594366, ,0.5506826391298136, ,0.02216281300381625
44, ,PASS, ,0.06683748260000004, ,0.009893281780196243, ,0.04040547667541478, ,0.0006616965204893327, ,1.75, ,0.7342581142431831, ,0.5841105283565642, ,0.0484888063508908
45, ,PASS, ,0.078582609, ,0.010746881441424914, ,0.03968799456641701, ,0.0008413846244152214, ,1.6666666666666667, ,0.685047780234573, ,0.5659680414685414, ,0.06293749107161078
46, ,PASS, ,0.12575436999999998, ,0.014446340123365297, ,0.039426426716801695, ,0.0018029886374563832, ,1.75, ,0.6096056181443464, ,0.5478255545805187, ,0.021673027081079977
47, ,PASS, ,0.07339779149999999, ,0.010528041834741533, ,0.04044984903314626, ,0.0007726743422770504, ,1.8333333333333333, ,0.7155578952441672, ,0.5823962776269872, ,0.03787677802493827
48, ,PASS, ,0.07496644909999997, ,0.010367998313473865, ,0.03945149482087508, ,0.0007747459766705709, ,1.6666666666666667, ,0.6887411782553351, ,0.5662945654170323, ,0.07095773555641721
49, ,PASS, ,0.12192860000000001, ,0.014118166420490024, ,0.03944808745964368, ,0.001709165504073095, ,1.75, ,0.6131068400470624, ,0.5468867982286075, ,0.02153017285361523
50, ,PASS, ,0.0698557616, ,0.010215660960930722, ,0.04043479076617416, ,0.000713591558871285, ,1.6666666666666667, ,0.7275506943904323, ,0.5817228219832248, ,0.04934593171567927
51, ,PASS, ,0.07664988749999999, ,0.010383844103661298, ,0.039782017849605104, ,0.0007930084189242414, ,1.6666666666666667, ,0.6821883373801461, ,0.5679067774127059, ,0.05634578886145181
52, ,PASS, ,0.12405171000000001, ,0.014259303025835451, ,0.040134892232811574, ,0.001754928604439448, ,1.75, ,0.6130442171505123, ,0.5513969102671374, ,0.023060753862166078
53, ,PASS, ,0.0721207508, ,0.01022016543312632, ,0.04031844750577539, ,0.0007364765484768732, ,1.6666666666666667, ,0.712095605802558, ,0.5804371339360421, ,0.0343258300851003
54, ,PASS, ,0.06672445099999998, ,0.009770299827132881, ,0.03965714777603314, ,0.000650852082573758, ,1.75, ,0.7184328943483439, ,0.5744372563825229, ,0.16393542988918594
55, ,PASS, ,0.11537184000000002, ,0.013926155328880405, ,0.039662681056713125, ,0.0015969966384238696, ,1.75, ,0.629908415853172, ,0.5507438623701557, ,0.02604028489214506
56, ,PASS, ,0.05998007399999999, ,0.009341325948222994, ,0.03991411532603416, ,0.0005611989507396924, ,1.75, ,0.7546919512440483, ,0.5827432093222588, ,0.0907736576804555
57, ,PASS, ,0.06689620319999998, ,0.00969120828335398, ,0.03954620327305973, ,0.0006472076457356194, ,1.6666666666666667, ,0.710778825093485, ,0.5708250852023428, ,0.13997673516867
58, ,PASS, ,0.11516798000000003, ,0.013861768558653072, ,0.03997948930429991, ,0.0015861576935998374, ,1.75, ,0.6289893248719008, ,0.5520091426705578, ,0.02671374053590743
59, ,PASS, ,0.060229919999999985, ,0.009100281767654426, ,0.039849633700026525, ,0.0005486774119358931, ,1.75, ,0.7412106950251458, ,0.582600355094794, ,0.061243648088814516
60, ,PASS, ,0.07425585229999998, ,0.010578687431942289, ,0.04019841733255035, ,0.0007836061515609933, ,1.6666666666666667, ,0.7061166662246179, ,0.574233178914716, ,0.12636476806595784
61, ,PASS, ,0.12086792000000002, ,0.014769464824271274, ,0.04015699611232424, ,0.0017738275986407042, ,1.75, ,0.636200290316964, ,0.5543968490438971, ,0.026836187016591496
62, ,PASS, ,0.06111147699999999, ,0.009647896397583415, ,0.040131764207363106, ,0.0005907946663175324, ,1.75, ,0.7638094885161354, ,0.586273749515316, ,0.1353645843962368
198, ,PASS, ,0.2245438499999999, ,0.03721962056227135, ,0.059630546402930515, ,0.008616731641329917, ,1.8333333333333333, ,0.9399163670959503, ,0.6534560519173078, ,0.4325217852696884
199, ,PASS, ,0.08685371499999998, ,0.013670949664007809, ,0.04580129166970061, ,0.0012205074224165943, ,1.8333333333333333, ,0.9009224600781063, ,0.6390481826901492, ,0.0982633007489643
200, ,FAIL, ,0.05740013999999996, ,0.0033135297194361248, ,0.039956463312585455, ,0.00019841762668407832, ,1.1666666666666667, ,0.4158140140464017, ,0.6849247974531132, ,0.021836289055325402
201, ,FAIL, ,0.05687987499999997, ,0.003353478502258729, ,0.039867940897328626, ,0.0002016987776275856, ,1.25, ,0.42338803374454076, ,0.6872104650925491, ,0.021815881308544723
202, ,PASS, ,0.08009601499999996, ,0.011906521498293268, ,0.04512244654680517, ,0.00098770833294047, ,1.8333333333333333, ,0.8886846705731042, ,0.6430889165527234, ,0.08720230199383686
203, ,PASS, ,0.07816100399999996, ,0.011908476019999207, ,0.04486128821003652, ,0.0009615795312371306, ,1.8333333333333333, ,0.8879443524462444, ,0.6406808024326034, ,0.08732474847452093
204, ,FAIL, ,0.06678575469999998, ,0.003819053252059762, ,0.040558778806759045, ,0.000265987874928625, ,1.1666666666666667, ,0.40176384970821394, ,0.6968225138262485, ,0.016918022081182017
205, ,FAIL, ,0.06264880899999999, ,0.003629028663630548, ,0.040319352942797086, ,0.0002388393985896355, ,1.1666666666666667, ,0.41541720008952693, ,0.6802718311871186, ,0.022673006673333197
206, ,PASS, ,0.09277238999999997, ,0.013786360673451188, ,0.04613576671047529, ,0.0013151589408812877, ,1.8333333333333333, ,0.8915219436243202, ,0.6422317911879349, ,0.09279402461174262
207, ,PASS, ,0.10739099000000002, ,0.015924400948619025, ,0.047696778093855224, ,0.00175935415288277, ,1.8333333333333333, ,0.8907009399999881, ,0.6416399665312953, ,0.09528376971898532
208, ,FAIL, ,0.09613443400000002, ,0.005795764267287653, ,0.042597959396951074, ,0.0005814975721454294, ,1.1666666666666667, ,0.40903444699183367, ,0.6959245729678987, ,0.029325932123834206
209, ,PASS, ,0.07722106400000002, ,0.01067264503101247, ,0.04415797467092507, ,0.000847698736041298, ,1.8333333333333333, ,0.8753772407302506, ,0.6396400073467888, ,0.06795779677965756
210, ,PASS, ,0.07575114299999998, ,0.010408176263124642, ,0.04406090243872573, ,0.000811079156068278, ,1.9166666666666667, ,0.8706581613956604, ,0.6402930552437706, ,0.06636599253076468
211, ,PASS, ,0.08199941999999998, ,0.011607282947331897, ,0.04491935129323891, ,0.0009827459831991154, ,1.8333333333333333, ,0.8774299307337304, ,0.6416807820248567, ,0.06879451439766536
212, ,PASS, ,0.08980015000000001, ,0.012128514480686253, ,0.04535777044488887, ,0.0011134542657363865, ,1.9166666666666667, ,0.8781774456654879, ,0.6408236566600681, ,0.07132507499846942
213, ,FAIL, ,0.09672227, ,0.005710808079918811, ,0.042574056650272446, ,0.0005764555013131265, ,1.1666666666666667, ,0.4049570739194681, ,0.6805371318952674, ,0.02601987714536438
214, ,PASS, ,0.10265461000000003, ,0.014322729136622784, ,0.04696348534519703, ,0.0015139923898870773, ,1.8333333333333333, ,0.886313462104446, ,0.6435787024754597, ,0.08814105834574805
215, ,PASS, ,0.13423975999999999, ,0.018512173952517454, ,0.05021348000704067, ,0.0025700031415675285, ,1.8333333333333333, ,0.8861477335166004, ,0.6499255117242505, ,0.08514111956898839
216, ,FAIL, ,0.10658302000000001, ,0.0058441527788691315, ,0.042650295204383584, ,0.0006516747060967414, ,1.0833333333333333, ,0.3747782054110136, ,0.6878839207363115, ,0.025305606008040653
217, ,PASS, ,0.12057431, ,0.016700758467567262, ,0.048677548422358725, ,0.002072349577851666, ,1.8333333333333333, ,0.8817570436324912, ,0.6424970918960837, ,0.07461072223015856
218, ,PASS, ,0.12029066, ,0.016297618715497883, ,0.04854941055949878, ,0.0020135016641202137, ,1.8333333333333333, ,0.8837339653090415, ,0.6455378461664047, ,0.08001877512703823
219, ,PASS, ,0.11469748999999999, ,0.01593890004306893, ,0.04822282278365748, ,0.0018829138808169948, ,1.8333333333333333, ,0.8847374474981312, ,0.6426603538703292, ,0.07997795963347687
220, ,PASS, ,0.06188627699999996, ,0.008328025468622886, ,0.04262298476888226, ,0.0005284721657740981, ,1.9166666666666667, ,0.8643935534147446, ,0.6404971327115773, ,0.057590661415073165
221, ,FAIL, ,0.08716576499999996, ,0.004618166412761333, ,0.04122900929960613, ,0.0004198353095832698, ,1.0833333333333333, ,0.3585606494059683, ,0.7045570498561254, ,0.0254484602355054
222, ,PASS, ,0.064519499, ,0.008989003687855508, ,0.042693203923185236, ,0.0005925702795531446, ,1.9166666666666667, ,0.8683918177024371, ,0.6360686516601702, ,0.06073345441929757
223, ,PASS, ,0.079813722, ,0.011140885419980621, ,0.04442205133323809, ,0.0009151102516404984, ,1.9166666666666667, ,0.880803778835627, ,0.6403950939776739, ,0.07326381094263382
224, ,FAIL, ,0.06674034369999995, ,0.003242891922386437, ,0.039803626568641455, ,0.0002267627250593475, ,1.0, ,0.3421436346889279, ,0.6848023509724291, ,0.019979184098283708
225, ,FAIL, ,0.03819971000000001, ,0.0012414492858555451, ,0.037639909507356996, ,5.126242694396055e-05, ,0.8333333333333334, ,0.28571310230358415, ,0.6323544417460868, ,0.0061427317809840615
226, ,FAIL, ,0.06027863399999997, ,0.002866050623282319, ,0.039495193831554455, ,0.0001815429461793461, ,1.0833333333333333, ,0.3403783644272733, ,0.7066182322809739, ,0.019203689720617947
227, ,PASS, ,0.15567912, ,0.02177590088511662, ,0.052379113638737984, ,0.0034902029249498884, ,1.8333333333333333, ,0.8933296413426528, ,0.6478439215526214, ,0.09628374931123855
228, ,FAIL, ,0.10070180000000001, ,0.004854046012757363, ,0.041608176255178465, ,0.0005141975912090786, ,0.9166666666666666, ,0.34677284121618723, ,0.6530683047284749, ,0.022489336952307096
229, ,PASS, ,0.10751344999999998, ,0.01462527841144208, ,0.04696917241431807, ,0.0016113142405256805, ,1.8333333333333333, ,0.8846291752402385, ,0.6398644925613763, ,0.07446786800269382
230, ,PASS, ,0.07754601099999997, ,0.010168908008029968, ,0.04401945518111874, ,0.0008106771748510937, ,1.9166666666666667, ,0.8711155124448365, ,0.640068570029183, ,0.05871308748801045
231, ,PASS, ,0.13077939, ,0.018896437452313022, ,0.04995311949141242, ,0.0025331281130414394, ,1.8333333333333333, ,0.8896227922192874, ,0.6410073263810943, ,0.07742699128589213
232, ,FAIL, ,0.12391981, ,0.004387581926236606, ,0.04097599521928124, ,0.0005814369294029301, ,0.75, ,0.2518333080854781, ,0.6714556845778658, ,0.020407746780677947
233, ,PASS, ,0.12196816999999999, ,0.01521527764296548, ,0.04818141490769576, ,0.0019029656931866573, ,1.9166666666666667, ,0.8874701447735746, ,0.6455582539131854, ,0.0682843207281484
234, ,PASS, ,0.16213607999999996, ,0.020271114356999582, ,0.0522419824140936, ,0.003367308952256006, ,1.9166666666666667, ,0.8929321036726796, ,0.6482928919817963, ,0.07614130323870942
235, ,PASS, ,0.26379999999999976, ,0.04154404040304782, ,0.0523890859862043, ,0.011322985393146245, ,1.9166666666666667, ,0.9594173643370754, ,0.6574559702863206, ,0.6012122201587723
