Channel, ,Pass/Fail, ,Amplitude, ,Sorting Function Response, ,Mean, ,Variance, ,NPeaksRatio, ,PosIntegralRatio, ,ToT50, ,ToT99
32, ,PASS, ,0.008987750000000003, ,0.0010567790239780557, ,0.03368097494989898, ,9.689894397569068e-06, ,1.9166666666666667, ,0.6915659759314595, ,0.6421093447072509, ,0.037897185771718946
33, ,PASS, ,0.015045340000000011, ,0.0017480004462116382, ,0.034461624601130586, ,2.6943330179029187e-05, ,1.8333333333333333, ,0.6892566678029113, ,0.6441297116385379, ,0.04271341401195894
34, ,PASS, ,0.013315400000000008, ,0.001572977321926263, ,0.033897567904940716, ,2.1454663819405804e-05, ,1.9166666666666667, ,0.6976735311752262, ,0.6407828411665069, ,0.05157037611477317
35, ,PASS, ,0.005451409999999997, ,0.000536995009485727, ,0.033150524380931, ,2.9757570391972414e-06, ,1.6666666666666667, ,0.569096394210472, ,0.6374563784412564, ,0.003693802167302708
36, ,PASS, ,0.00888698, ,0.001182182507427314, ,0.03390488657313116, ,1.0803687343661223e-05, ,2.0, ,0.7488035321900594, ,0.6444970510805902, ,0.035448256158037594
37, ,PASS, ,0.015700310000000006, ,0.00209855997961806, ,0.034394282871369974, ,3.384896582635034e-05, ,2.0, ,0.7479414458505556, ,0.6408236566600681, ,0.03281565682333014
38, ,PASS, ,0.013463240000000005, ,0.0018083130714444577, ,0.034258867647190876, ,2.491730416526764e-05, ,2.0, ,0.755993060121551, ,0.6408644721536295, ,0.04257055978449419
39, ,PASS, ,0.0056576400000000054, ,0.0006849459471394094, ,0.03333457152384645, ,3.975029763489103e-06, ,2.0, ,0.7093895428993705, ,0.6442521581192221, ,0.049019407767188425
40, ,PASS, ,0.009662049999999998, ,0.001293993879140245, ,0.033564275471316914, ,1.283186012061718e-05, ,2.0, ,0.7575411666282548, ,0.6440072651578539, ,0.03018305748862268
41, ,PASS, ,0.016119700000000018, ,0.002152596777371801, ,0.03456459187853309, ,3.5578696270055145e-05, ,2.0, ,0.7510560198116618, ,0.6414154813167078, ,0.053509112058937575
42, ,PASS, ,0.013135520000000005, ,0.001772001299939449, ,0.03414141918960838, ,2.38961564321155e-05, ,2.0, ,0.7612249023634146, ,0.6440072651578539, ,0.06420277137201282
43, ,PASS, ,0.006167349999999985, ,0.0007417434989562024, ,0.03318176134466644, ,4.69122740562681e-06, ,1.9166666666666667, ,0.7193067386635302, ,0.6387624742352197, ,0.026387216587416582
44, ,PASS, ,0.009788320000000007, ,0.0015624866077435786, ,0.0337994373453603, ,1.571967392497421e-05, ,1.9166666666666667, ,0.839893756691073, ,0.6383747270463868, ,0.04218281259566131
45, ,PASS, ,0.016319909999999993, ,0.0026071140707960654, ,0.03459785473888288, ,4.3643254540989e-05, ,1.8333333333333333, ,0.8375605216237443, ,0.6409869186343136, ,0.07267198628599417
46, ,PASS, ,0.013434410000000004, ,0.0021127924662737827, ,0.0342210633121773, ,2.9160422467033506e-05, ,1.8333333333333333, ,0.8308617618685994, ,0.6407624334197262, ,0.04352972388318606
47, ,PASS, ,0.00600228999999999, ,0.0007720827751433796, ,0.0332087620985286, ,4.763468971218366e-06, ,2.0, ,0.7309454807709751, ,0.640068570029183, ,0.012958919205730494
48, ,PASS, ,0.011059999999999997, ,0.0016954412584591833, ,0.03406969593600131, ,1.9278761173775598e-05, ,1.8333333333333333, ,0.8196278987987825, ,0.6443541968531254, ,0.06399869390420604
49, ,PASS, ,0.018513540000000002, ,0.0028282719720336092, ,0.03476649408134528, ,5.3747741330041515e-05, ,1.8333333333333333, ,0.8182259553406742, ,0.6441501193853186, ,0.04928470847533724
50, ,PASS, ,0.015168840000000003, ,0.00232525254588461, ,0.03451990207444747, ,3.61955092925962e-05, ,1.8333333333333333, ,0.821635638462698, ,0.6415787432909532, ,0.08746760270198567
51, ,PASS, ,0.006977639999999993, ,0.0008839078765268572, ,0.033261779924899496, ,6.331673640948112e-06, ,1.9166666666666667, ,0.7038002638711303, ,0.6341095079692252, ,0.033407481479969796
52, ,PASS, ,0.010961960000000017, ,0.0016522077584839284, ,0.033975536195791925, ,1.860628025926417e-05, ,2.0, ,0.8154538246815374, ,0.6443950123466868, ,0.08544723577069856
53, ,PASS, ,0.019388109999999986, ,0.00302918822547747, ,0.035020831446092936, ,6.029293806400325e-05, ,1.8333333333333333, ,0.8357042106385908, ,0.6441297116385379, ,0.10363053815228261
54, ,PASS, ,0.01545185, ,0.0024084381077278125, ,0.034445488307177405, ,3.82147120152567e-05, ,1.8333333333333333, ,0.8286238923295306, ,0.6413134425828044, ,0.06654966225179078
55, ,PASS, ,0.00626794000000001, ,0.0008963390849463833, ,0.033284374860104896, ,5.7675167137313725e-06, ,1.8333333333333333, ,0.7875185065283685, ,0.6404971327115773, ,0.04914185424787249
56, ,PASS, ,0.013883610000000001, ,0.0012917571705474784, ,0.03363896830697333, ,1.818972281506152e-05, ,1.5833333333333333, ,0.5720280300647183, ,0.6354768270035306, ,0.0075304585620701615
57, ,PASS, ,0.019173680000000002, ,0.0020366778439966445, ,0.03428761004326442, ,3.9700400308820396e-05, ,1.6666666666666667, ,0.6300872879709032, ,0.6427828003510132, ,0.013632374849492868
58, ,PASS, ,0.01589206000000001, ,0.0017360373570187166, ,0.033879362932593214, ,2.8063759086184103e-05, ,1.8333333333333333, ,0.6442839433466558, ,0.6425787228832065, ,0.012448725536213547
59, ,PASS, ,0.006222379999999993, ,0.0006709438151630957, ,0.03319869468500643, ,4.255964966899058e-06, ,1.8333333333333333, ,0.6333419646925171, ,0.6407012101793841, ,0.005754984592151181
