Channel, ,Pass/Fail, ,Amplitude, ,Sorting Function Response, ,Mean, ,Variance, ,NPeaksRatio, ,PosIntegralRatio, ,ToT50, ,ToT99
0, ,PASS, ,0.05180087400000001, ,0.003157682247581894, ,0.03952203620150609, ,0.00017079513240859682, ,1.0833333333333333, ,0.4347593828053063, ,0.46178649415318057, ,0.023795432746270485
1, ,PASS, ,0.054817485999999985, ,0.004589451039212813, ,0.03898130495540907, ,0.00025913792393101654, ,1.75, ,0.5438593809491578, ,0.46168445541927716, ,0.029468786351298952
2, ,PASS, ,0.05509163299999999, ,0.004520920686829387, ,0.03909787482949328, ,0.00025701565521540584, ,1.75, ,0.5409615705976178, ,0.4615416011918124, ,0.03040754270321014
3, ,PASS, ,0.05453104899999997, ,0.004458250165104851, ,0.03920150625252546, ,0.00024959570399703853, ,1.75, ,0.5346093178922912, ,0.4622150568355748, ,0.029468786351298952
4, ,PASS, ,0.05438976799999999, ,0.004301125021908763, ,0.03902811789208384, ,0.00024343716568035203, ,1.75, ,0.5271821116678288, ,0.46245994979694294, ,0.02887696169465929
5, ,PASS, ,0.053995809000000006, ,0.004246518706014156, ,0.039103130052243834, ,0.00023646464483241197, ,1.6666666666666667, ,0.5239182916201591, ,0.46125589273688294, ,0.027958613089528784
6, ,PASS, ,0.05379785000000002, ,0.004168977638556634, ,0.03912444818615946, ,0.00023118636005809736, ,1.5833333333333333, ,0.5143700669185605, ,0.45992938919613885, ,0.02848921450582641
7, ,PASS, ,0.053419182, ,0.0041166532873200806, ,0.03921671698536765, ,0.00022665919325543454, ,1.5833333333333333, ,0.5130448735150142, ,0.4617456786596192, ,0.025958653905022347
8, ,PASS, ,0.05351269699999999, ,0.004062250422236984, ,0.03944742821411808, ,0.0002240952665165609, ,1.5833333333333333, ,0.5048518478573017, ,0.46445990898144934, ,0.02761168139425726
9, ,PASS, ,0.053279889000000004, ,0.0039996397380906955, ,0.03912038400134691, ,0.00022050887067828607, ,1.5833333333333333, ,0.505579467376493, ,0.45984775820901613, ,0.027550458153915228
10, ,PASS, ,0.05321944299999999, ,0.003937190481051906, ,0.03919481854472358, ,0.00021668012604713347, ,1.5833333333333333, ,0.5012281085730185, ,0.46162323217893514, ,0.026591294055223362
11, ,PASS, ,0.05292593900000001, ,0.0038779965942014223, ,0.03923727073835228, ,0.00021288772092958644, ,1.5833333333333333, ,0.5007280687090899, ,0.45621517928205546, ,0.027856574355625396
12, ,PASS, ,0.05257004899999998, ,0.0037793333024430794, ,0.03927568057529438, ,0.00020518972787563129, ,1.4166666666666667, ,0.4890002524076205, ,0.4651333646252117, ,0.026774963776249463
13, ,PASS, ,0.052159749000000005, ,0.003684962228993245, ,0.0393579811058958, ,0.0001994257416205927, ,1.4166666666666667, ,0.48623065906009094, ,0.461439562457909, ,0.025326013754821332
14, ,PASS, ,0.052139328000000006, ,0.003706661350581151, ,0.039267913503193815, ,0.00020009026560792993, ,1.3333333333333333, ,0.48661952724972674, ,0.46207220260811005, ,0.02604028489214506
15, ,PASS, ,0.05275903300000001, ,0.0037238225802903027, ,0.039186555999877554, ,0.0002035464934757337, ,1.4166666666666667, ,0.47726504627545124, ,0.46490887941062425, ,0.025856615171118955
16, ,PASS, ,0.053424365000000015, ,0.0037466325544717985, ,0.0390841592863411, ,0.0002074159664703088, ,1.3333333333333333, ,0.47927873539463006, ,0.4624803575437236, ,0.02583620742433828
17, ,PASS, ,0.05321101999999999, ,0.003746600270909513, ,0.039203668117997595, ,0.00020579286324441508, ,1.4166666666666667, ,0.480745930245339, ,0.46233750331625884, ,0.025305606008040653
18, ,PASS, ,0.05238261400000001, ,0.003677642705657215, ,0.03920155335523765, ,0.00019906659475250839, ,1.3333333333333333, ,0.48165331220610863, ,0.4614599702046897, ,0.027162710965082344
19, ,PASS, ,0.05240272400000001, ,0.0036244814608752474, ,0.03920124203077489, ,0.00019701691956617182, ,1.3333333333333333, ,0.4801804867894437, ,0.46150078569825104, ,0.025693353196873533
20, ,PASS, ,0.05365957300000001, ,0.003730227955250842, ,0.03926787936450277, ,0.00020731406756331521, ,1.3333333333333333, ,0.4798843166500726, ,0.4597661272218934, ,0.027652496887818616
21, ,PASS, ,0.07314372531999998, ,0.008122842789394258, ,0.03834642924470929, ,0.0006071621382774114, ,1.8333333333333333, ,0.6503157053711285, ,0.46194975612742595, ,0.03526458643701149
22, ,PASS, ,0.14823885, ,0.02030417541763816, ,0.03603462821495479, ,0.0030590525415627964, ,1.9166666666666667, ,0.7257041458340008, ,0.4614191547111283, ,0.04073386257423318
23, ,PASS, ,0.06007760699999997, ,0.0040822267658582176, ,0.039424780547131694, ,0.0002542489062665252, ,1.3333333333333333, ,0.4648656996242877, ,0.4652558111058958, ,0.026387216587416582
24, ,PASS, ,0.05541260899999999, ,0.00371007732245117, ,0.03943127669496541, ,0.00021373363387469047, ,1.4166666666666667, ,0.46627987931866954, ,0.46739862451786696, ,0.024285218669006754
25, ,PASS, ,0.05560567799999999, ,0.003704638085571306, ,0.039425335480908555, ,0.00021311718371743043, ,1.3333333333333333, ,0.4611477811721104, ,0.4624803575437236, ,0.024550519377155567
26, ,PASS, ,0.05511418299999999, ,0.0036108630651710827, ,0.03941002868410849, ,0.00020751769020540504, ,1.4166666666666667, ,0.4587619214175092, ,0.46625579069814904, ,0.02422399542866472
27, ,PASS, ,0.054889532, ,0.0036390699915486912, ,0.039565448577375976, ,0.00020642861740794414, ,1.3333333333333333, ,0.46299382782249165, ,0.4617456786596192, ,0.026856594763372175
28, ,PASS, ,0.05512593799999996, ,0.003630415557166071, ,0.039340480537948204, ,0.00020868234815483715, ,1.3333333333333333, ,0.4620379327470027, ,0.4612967082304443, ,0.02753005040713455
29, ,PASS, ,0.054910211, ,0.0036292109567614694, ,0.03950318214995612, ,0.0002070167643323494, ,1.3333333333333333, ,0.466858931791216, ,0.462582396277627, ,0.02620354686639048
30, ,PASS, ,0.054879246, ,0.0035704104379331216, ,0.03943075754209098, ,0.0002033991540137133, ,1.3333333333333333, ,0.458469678421405, ,0.46158241668537375, ,0.023877063733393197
31, ,PASS, ,0.05393118999999998, ,0.0035097637064155167, ,0.039472627603518294, ,0.00019640963888762104, ,1.3333333333333333, ,0.4606593281670594, ,0.46203138711454866, ,0.025081120793453194
32, ,PASS, ,0.054345393, ,0.003438840448051606, ,0.03959732557498827, ,0.00019519955113130047, ,1.1666666666666667, ,0.4482428666746583, ,0.4604599906124365, ,0.02373420950592845
33, ,PASS, ,0.054342304999999994, ,0.0034758286004058516, ,0.039680948269014915, ,0.00019544129296632492, ,1.1666666666666667, ,0.44521549257303067, ,0.4617456786596192, ,0.02404032570763862
34, ,PASS, ,0.054311254, ,0.0035073989158141052, ,0.03957238438603294, ,0.00019670613832666612, ,1.25, ,0.4498877994511538, ,0.46235791106303953, ,0.024754596844962347
35, ,PASS, ,0.05435424999999999, ,0.003431640773388797, ,0.03940338052182609, ,0.00019424329738223115, ,1.1666666666666667, ,0.448715421115841, ,0.46270484275831103, ,0.0242444031754454
36, ,PASS, ,0.054223115, ,0.0034746596296781583, ,0.03958428940837942, ,0.0001955635823129413, ,1.1666666666666667, ,0.45400510872032646, ,0.4619089406338646, ,0.025958653905022347
37, ,PASS, ,0.05464466699999997, ,0.003461118521492546, ,0.03952607099059203, ,0.00019662081083629535, ,1.1666666666666667, ,0.4434942794915902, ,0.4626640272647497, ,0.02316279259606947
38, ,PASS, ,0.05443712599999999, ,0.0034456418923110564, ,0.03944819276218853, ,0.0001944151466245807, ,1.1666666666666667, ,0.4473821281959753, ,0.462643619517969, ,0.024877043325646414
39, ,PASS, ,0.05411440299999998, ,0.00340612694170298, ,0.03941243086345177, ,0.0001931235708418729, ,1.1666666666666667, ,0.4489034822466783, ,0.4614599702046897, ,0.02393828697373523
40, ,PASS, ,0.054541167, ,0.0034432704767510722, ,0.03896961992673619, ,0.00019649094340441677, ,1.25, ,0.4432736161598022, ,0.4613375237240056, ,0.02373420950592845
41, ,PASS, ,0.054717293999999986, ,0.0034565251328930527, ,0.038955821560988556, ,0.00019632450435855487, ,1.1666666666666667, ,0.44611352349685107, ,0.4622150568355748, ,0.023979102467296586
42, ,PASS, ,0.054372691, ,0.0034854760043046165, ,0.039235988191873634, ,0.00019672578399974026, ,1.25, ,0.4487524963159919, ,0.4622558723291361, ,0.0246117426174976
43, ,PASS, ,0.0546264, ,0.0035215795634630695, ,0.03915683857247811, ,0.0001999568229209591, ,1.25, ,0.4506538954275987, ,0.46209261035489074, ,0.023958694720515906
44, ,PASS, ,0.05501814499999997, ,0.003546329054495822, ,0.03891542107446787, ,0.00020238964285751535, ,1.1666666666666667, ,0.45014817053586603, ,0.4617660864063999, ,0.024203587681884044
45, ,PASS, ,0.05535278600000001, ,0.0035616391967165798, ,0.03910848839268587, ,0.00020440884996413152, ,1.1666666666666667, ,0.45102467492659476, ,0.46215383359523277, ,0.02463215036427828
46, ,PASS, ,0.05467990299999999, ,0.0035615744261502593, ,0.039374976633129936, ,0.00020181593906287818, ,1.3333333333333333, ,0.4564335073356174, ,0.46068447582702393, ,0.026101508132487093
47, ,PASS, ,0.055632144999999994, ,0.003563602933049059, ,0.03906205479602457, ,0.00020792770693690688, ,1.25, ,0.4548227028215538, ,0.4621334258484521, ,0.025183159527356586
48, ,PASS, ,0.05604703999999998, ,0.0037231525115850256, ,0.03916420423011775, ,0.00021664881658969105, ,1.3333333333333333, ,0.4613699548343061, ,0.46233750331625884, ,0.025489275729066754
49, ,PASS, ,0.05728572299999999, ,0.003977899218589141, ,0.03893515417705761, ,0.00023585981818582117, ,1.3333333333333333, ,0.4768951881321356, ,0.46252117303728496, ,0.02565253770331218
50, ,PASS, ,0.05606339999999997, ,0.003811944853284919, ,0.03871475193628702, ,0.00022507953802852488, ,1.4166666666666667, ,0.4599511356351827, ,0.4618273096467419, ,0.025183159527356586
51, ,PASS, ,0.05644550699999998, ,0.003757540754251694, ,0.039239750681414665, ,0.0002210032489463801, ,1.4166666666666667, ,0.4636769005236967, ,0.4622150568355748, ,0.024101548947980653
52, ,PASS, ,0.056128084999999994, ,0.003743446172833076, ,0.03909631951511194, ,0.00021760283072656917, ,1.3333333333333333, ,0.46458146377559156, ,0.4615416011918124, ,0.0272035264586437
53, ,PASS, ,0.056327401999999985, ,0.0037142459685131973, ,0.03901503300483664, ,0.00021686306599042385, ,1.3333333333333333, ,0.4594461872994422, ,0.4630313667068019, ,0.024305626415787433
54, ,PASS, ,0.056173617999999974, ,0.0037684066743622797, ,0.03915517256300892, ,0.00021942095240100155, ,1.3333333333333333, ,0.46243704997176904, ,0.46205179486132936, ,0.024264810922226078
55, ,PASS, ,0.055879003999999996, ,0.003736602124625109, ,0.03925201088732883, ,0.00021665534978759744, ,1.3333333333333333, ,0.46726353445459046, ,0.4619089406338646, ,0.02542805248872472
56, ,PASS, ,0.05650258199999999, ,0.0037463206616026885, ,0.03891574008530438, ,0.0002199548910866053, ,1.3333333333333333, ,0.4628352793283116, ,0.4604599906124365, ,0.026366808840635907
57, ,PASS, ,0.05648620799999999, ,0.0038847520590614853, ,0.03894556953511153, ,0.00022819479040200579, ,1.3333333333333333, ,0.4811008879599734, ,0.46323544417460866, ,0.028019836329870818
58, ,PASS, ,0.05577708899999999, ,0.003664150366127444, ,0.03934491947184752, ,0.00021156357171689204, ,1.3333333333333333, ,0.4573497491278162, ,0.4629497357196792, ,0.025877022917899634
59, ,PASS, ,0.055905626, ,0.003665752698724944, ,0.038895684083181975, ,0.0002122667503229868, ,1.3333333333333333, ,0.4580820320856057, ,0.4627660659986531, ,0.025468867982286075
60, ,PASS, ,0.056516775, ,0.003703561848922168, ,0.03894921476684149, ,0.00021627252044585868, ,1.3333333333333333, ,0.4529682319727737, ,0.4626844350115304, ,0.024162772188322686
61, ,PASS, ,0.056395961999999994, ,0.0036979921101389372, ,0.03894674635293158, ,0.0002170017447651302, ,1.3333333333333333, ,0.46052755197669953, ,0.4614803779514704, ,0.024897451072427093
62, ,PASS, ,0.05585759699999997, ,0.0036655448154645706, ,0.03909822767494541, ,0.00021150906939618685, ,1.3333333333333333, ,0.45513546508428193, ,0.4621946490887941, ,0.025530091222628108
63, ,PASS, ,0.05597886800000001, ,0.003632646027971701, ,0.03891425616048652, ,0.00021092027819155008, ,1.3333333333333333, ,0.46033437310877673, ,0.4592355258055958, ,0.02373420950592845
64, ,PASS, ,0.05602515199999999, ,0.0036495692787801414, ,0.03900535563498704, ,0.00021098335264942112, ,1.3333333333333333, ,0.4567704514079037, ,0.4630313667068019, ,0.025754576437215567
65, ,PASS, ,0.05552926899999999, ,0.003616744669389815, ,0.03896789908083509, ,0.00020727239099483988, ,1.3333333333333333, ,0.4540840590243072, ,0.461378339217567, ,0.0254484602355054
66, ,PASS, ,0.055570845999999986, ,0.0035883326467532066, ,0.03914544019958777, ,0.00020742384053812354, ,1.3333333333333333, ,0.4552030174170121, ,0.46254158078406565, ,0.02650966306810065
67, ,PASS, ,0.056040292000000005, ,0.0036088178158602186, ,0.03899357466419053, ,0.00020928201810501318, ,1.25, ,0.4494654254649432, ,0.4626028040244077, ,0.025285198261259974
68, ,PASS, ,0.055586259, ,0.003550693595905248, ,0.0388572615687435, ,0.00020514908976575913, ,1.1666666666666667, ,0.4517536582409203, ,0.45937838003306053, ,0.023570947531683026
69, ,PASS, ,0.055799321999999985, ,0.0035443002630828253, ,0.038986660896716395, ,0.00020521402616600668, ,1.25, ,0.4478493241395322, ,0.4614599702046897, ,0.025081120793453194
70, ,PASS, ,0.056044646999999996, ,0.003638207140679502, ,0.039063146615375195, ,0.00021116941610808395, ,1.25, ,0.4517518069247309, ,0.4622150568355748, ,0.024407665149690824
71, ,PASS, ,0.056329932, ,0.0036412363496174855, ,0.03897429472439338, ,0.00021249426283814426, ,1.25, ,0.4482739208285088, ,0.4655415195608253, ,0.02540764474194404
72, ,PASS, ,0.05643916199999999, ,0.0036543923783214343, ,0.039144110869370016, ,0.00021391854215309776, ,1.25, ,0.45359698011705196, ,0.4597457194751128, ,0.022489336952307096
73, ,PASS, ,0.05657941199999998, ,0.0037183753492241825, ,0.03908827559049815, ,0.00021849072675011671, ,1.3333333333333333, ,0.459030803882382, ,0.46452113222179137, ,0.025326013754821332
74, ,PASS, ,0.05654189899999997, ,0.0037213112323973055, ,0.03902250730168772, ,0.0002181873678494295, ,1.3333333333333333, ,0.4584017873255303, ,0.4643986857411073, ,0.025162751780575907
75, ,PASS, ,0.05646915, ,0.003693475277056336, ,0.038963415804983574, ,0.00021667162416791957, ,1.3333333333333333, ,0.4600808507292386, ,0.4634191138956348, ,0.025142344033795228
76, ,PASS, ,0.05701396100000001, ,0.0037939752428737296, ,0.039010471751188755, ,0.0002235655205910099, ,1.3333333333333333, ,0.46048320317609887, ,0.4634803371359768, ,0.025387236995163365
77, ,PASS, ,0.056973063999999976, ,0.0037690932905870573, ,0.03890886145894982, ,0.00022264252279073887, ,1.3333333333333333, ,0.46008819282722285, ,0.4625619885308463, ,0.025774984183996246
78, ,PASS, ,0.057025831999999985, ,0.003770416932982591, ,0.038910219704699905, ,0.0002232188738897763, ,1.3333333333333333, ,0.4618063800876776, ,0.4606028448399012, ,0.024570927123936246
79, ,PASS, ,0.057248813999999995, ,0.0038001294105062785, ,0.03890089838860432, ,0.0002253097679185166, ,1.3333333333333333, ,0.46338485164922943, ,0.4623170955694782, ,0.025162751780575907
80, ,PASS, ,0.05736055699999999, ,0.0037485163549347707, ,0.038948488287994125, ,0.0002223754564947684, ,1.3333333333333333, ,0.4571564391172639, ,0.4627456582518724, ,0.025979061651803026
81, ,PASS, ,0.05724507899999999, ,0.003752848351839103, ,0.03899583158057999, ,0.00022347160462806483, ,1.3333333333333333, ,0.4589712678046467, ,0.46197016387420664, ,0.025162751780575907
82, ,PASS, ,0.05769681700000001, ,0.003769015255390575, ,0.03897348311850779, ,0.00022507331302470723, ,1.25, ,0.45535120218427144, ,0.46282728923899513, ,0.023060753862166078
83, ,PASS, ,0.06031594999999999, ,0.0039749382511673126, ,0.038785227842901164, ,0.000248311164920422, ,1.3333333333333333, ,0.45692480050150575, ,0.46270484275831103, ,0.0254484602355054
84, ,PASS, ,0.14711214, ,0.018902155318356928, ,0.03580543009759841, ,0.0028285977200590614, ,1.9166666666666667, ,0.7028059952006124, ,0.4625619885308463, ,0.03765229281035081
85, ,PASS, ,0.07124034248, ,0.006990806824961226, ,0.03809817389461439, ,0.0005106819510624148, ,1.8333333333333333, ,0.6071358441337938, ,0.45992938919613885, ,0.03375441317524132
86, ,PASS, ,0.055950996, ,0.0035049171342160347, ,0.03879987231423849, ,0.00020334878123303687, ,1.1666666666666667, ,0.4419522563747642, ,0.4625619885308463, ,0.022815860900797943
87, ,PASS, ,0.054747878999999985, ,0.0033822953180729794, ,0.03895112189996123, ,0.00019237383151723237, ,1.0833333333333333, ,0.44464169936478737, ,0.4621334258484521, ,0.02365257851880574
88, ,PASS, ,0.05405448700000001, ,0.0033348390197405135, ,0.03887366240178772, ,0.00018738843034606597, ,1.1666666666666667, ,0.4406222522524228, ,0.46207220260811005, ,0.02422399542866472
89, ,PASS, ,0.054452268000000005, ,0.0033718113853916315, ,0.03887281928838187, ,0.00019039106813509117, ,1.1666666666666667, ,0.442520378899714, ,0.4618885328870839, ,0.02373420950592845
90, ,PASS, ,0.05490764800000003, ,0.0034189046256850922, ,0.038915813341360385, ,0.00019422838559638038, ,1.1666666666666667, ,0.44256932651864955, ,0.4626640272647497, ,0.023693394012367093
91, ,PASS, ,0.05397065400000002, ,0.003357639647200484, ,0.03889173914083386, ,0.00018878107124216105, ,1.1666666666666667, ,0.4381764431109084, ,0.4609905920287341, ,0.023305646823534212
92, ,PASS, ,0.054541822999999996, ,0.003378128284232224, ,0.03885811315381319, ,0.00019107424106275006, ,1.1666666666666667, ,0.4416831869280447, ,0.4610926307626375, ,0.02316279259606947
93, ,PASS, ,0.05445681199999999, ,0.003426468673130571, ,0.03925620591783841, ,0.00019317049373729312, ,1.25, ,0.44795111263431586, ,0.4665414991530785, ,0.0254484602355054
94, ,PASS, ,0.05460608899999999, ,0.003417907888737605, ,0.03896453709393686, ,0.00019401748777282492, ,1.25, ,0.44492753823643016, ,0.46250076529050427, ,0.02453011163037489
95, ,PASS, ,0.05458176800000002, ,0.003440157419730344, ,0.03924132804065223, ,0.00019396742948291722, ,1.3333333333333333, ,0.4523251384239364, ,0.46297014346645987, ,0.023877063733393197
96, ,PASS, ,0.054872068, ,0.0035145830398658124, ,0.03901096597844942, ,0.0002000193911294412, ,1.3333333333333333, ,0.45526929433139013, ,0.4622966878226975, ,0.024917858819207772
97, ,PASS, ,0.055395470999999995, ,0.0035642409191315363, ,0.03924797254892757, ,0.00020460689635689734, ,1.3333333333333333, ,0.45535191988976503, ,0.4618069018999612, ,0.024693373604620313
98, ,PASS, ,0.05530573899999998, ,0.0035487608556023674, ,0.039028810018979204, ,0.0002039529534843416, ,1.3333333333333333, ,0.45227601128795425, ,0.46160282443215445, ,0.022407705965184384
99, ,PASS, ,0.05479120799999999, ,0.0035023916042602786, ,0.039040616522928104, ,0.0002005705330702807, ,1.25, ,0.45968237358104547, ,0.4626844350115304, ,0.024407665149690824
100, ,PASS, ,0.055187587999999996, ,0.0035650934433855705, ,0.03904756604885615, ,0.00020398889145189494, ,1.3333333333333333, ,0.4576212171264448, ,0.4630517744535826, ,0.023693394012367093
101, ,PASS, ,0.05521535100000001, ,0.0035577860971393264, ,0.03882835858635538, ,0.00020382157680587428, ,1.3333333333333333, ,0.46027032936309475, ,0.4619089406338646, ,0.023468908797779638
102, ,PASS, ,0.05514476, ,0.0035588968657639004, ,0.03876855049264301, ,0.00020505592238365965, ,1.3333333333333333, ,0.4576787795303921, ,0.46125589273688294, ,0.025142344033795228
103, ,PASS, ,0.05515769899999999, ,0.0035930749086936567, ,0.03901681035897227, ,0.00020558069452364955, ,1.3333333333333333, ,0.4560397722824195, ,0.4618477173935226, ,0.024489296136813533
104, ,PASS, ,0.05529008099999999, ,0.0035485595310839804, ,0.039077706362727296, ,0.00020366248450469555, ,1.3333333333333333, ,0.45221094663689354, ,0.46250076529050427, ,0.024162772188322686
105, ,PASS, ,0.055261829999999984, ,0.0035076344746758146, ,0.03895628182057509, ,0.00020090520871160573, ,1.25, ,0.4460086613768468, ,0.462010979367768, ,0.02342809330421828
106, ,PASS, ,0.054929844999999984, ,0.003398566142834532, ,0.03914773323626049, ,0.00019474743180322916, ,1.0833333333333333, ,0.4453360899111692, ,0.4622558723291361, ,0.023611763025244384
107, ,PASS, ,0.05466859, ,0.0033742659389983144, ,0.039029206260280405, ,0.00019163852797465813, ,1.1666666666666667, ,0.44268317492068726, ,0.46278647374543375, ,0.02414236444154201
108, ,PASS, ,0.05457640599999998, ,0.0033804513581496645, ,0.03913732442684843, ,0.00019215495737979072, ,1.1666666666666667, ,0.44353647664468476, ,0.4624803575437236, ,0.022489336952307096
109, ,PASS, ,0.054445608, ,0.00335801935132036, ,0.038988106683537076, ,0.00018937377613480338, ,1.1666666666666667, ,0.43907785766184915, ,0.46250076529050427, ,0.023897471480173873
110, ,PASS, ,0.05439841200000001, ,0.0033190532217835258, ,0.038929599741025694, ,0.00018806426360823983, ,1.0833333333333333, ,0.43802762491508185, ,0.46074569906736595, ,0.02504030529989184
111, ,PASS, ,0.054887300000000014, ,0.003476745900265034, ,0.038974184121344464, ,0.00019840882411744054, ,1.25, ,0.45022094155805314, ,0.46658231464663985, ,0.02291789963470133
112, ,PASS, ,0.054605306, ,0.0033691998146959585, ,0.039025757350054084, ,0.00019100039496452415, ,1.1666666666666667, ,0.4403525020591221, ,0.4623170955694782, ,0.023897471480173873
113, ,PASS, ,0.05460456799999997, ,0.003329342329744898, ,0.038733106390685904, ,0.00018827201181337454, ,1.0833333333333333, ,0.43424743442776054, ,0.46186812514030323, ,0.02383624823983184
114, ,PASS, ,0.05459931600000001, ,0.0033518772954412783, ,0.038802810653864206, ,0.00018990581820088539, ,1.1666666666666667, ,0.4402782818351427, ,0.4625619885308463, ,0.024468888390032858
115, ,PASS, ,0.054500595, ,0.0033222092764836654, ,0.03904536220485296, ,0.00018859581234690915, ,1.1666666666666667, ,0.43851340861587756, ,0.45901104059100833, ,0.023203608089630824
116, ,PASS, ,0.05496469799999998, ,0.003364797483352496, ,0.0390626498532683, ,0.00019297345970289363, ,1.1666666666666667, ,0.43884210456253275, ,0.4621334258484521, ,0.02334646231709557
117, ,PASS, ,0.05490716199999998, ,0.0033865494093654443, ,0.039183785095610296, ,0.0001932170839148637, ,1.1666666666666667, ,0.44077484896128205, ,0.4621946490887941, ,0.023897471480173873
118, ,PASS, ,0.055113116000000004, ,0.003414985502042402, ,0.03913048146976593, ,0.00019549089578795847, ,1.1666666666666667, ,0.44236491555483515, ,0.4624803575437236, ,0.023979102467296586
119, ,PASS, ,0.05496119299999999, ,0.003464503993408939, ,0.039236881984857454, ,0.00019843664074732295, ,1.3333333333333333, ,0.4511588083632349, ,0.46233750331625884, ,0.024285218669006754
120, ,PASS, ,0.055212220000000006, ,0.0034966745197204533, ,0.038824741770780186, ,0.0001999904988033316, ,1.3333333333333333, ,0.4514674671006917, ,0.4624803575437236, ,0.02365257851880574
121, ,PASS, ,0.055228545000000004, ,0.0034347349989408437, ,0.03901604457990653, ,0.0001976391105416286, ,1.1666666666666667, ,0.4469864885794774, ,0.46166404767249647, ,0.025326013754821332
122, ,PASS, ,0.055465174, ,0.003508943575661521, ,0.038997259837350265, ,0.00020219230903424266, ,1.1666666666666667, ,0.44881452051569876, ,0.4626640272647497, ,0.024713781351400992
123, ,PASS, ,0.055598118999999974, ,0.0035392015914699473, ,0.03937768169690414, ,0.00020391060847399882, ,1.3333333333333333, ,0.4463062299087176, ,0.4612967082304443, ,0.02355053978490235
124, ,PASS, ,0.05486650399999999, ,0.003540776358594556, ,0.03893985152486684, ,0.00020205782907834185, ,1.3333333333333333, ,0.4582830735823808, ,0.46158241668537375, ,0.024979082059549806
125, ,PASS, ,0.05493363400000001, ,0.003475016043201813, ,0.03898224908532479, ,0.00020000292182485895, ,1.4166666666666667, ,0.45270564410431174, ,0.469867961878329, ,0.024285218669006754
126, ,PASS, ,0.055873399000000004, ,0.003560323364563958, ,0.03894432657088631, ,0.0002070415359734806, ,1.25, ,0.4513114959008807, ,0.4617252709128385, ,0.024958674312769127
127, ,PASS, ,0.05543008099999998, ,0.0035447767966213664, ,0.039139267770453665, ,0.00020299608931011835, ,1.3333333333333333, ,0.4530696701072113, ,0.46250076529050427, ,0.024775004591743026
128, ,PASS, ,0.055522350999999984, ,0.003512900839854713, ,0.039427151371604664, ,0.00020323581263167038, ,1.3333333333333333, ,0.45351515271121134, ,0.4581539152262199, ,0.024121956694761332
129, ,PASS, ,0.055691752, ,0.0035169798665765054, ,0.039373753856451914, ,0.0002032853497026843, ,1.25, ,0.44604148718724207, ,0.46243954205016224, ,0.022877084141139977
130, ,PASS, ,0.05599398399999997, ,0.0035714819634286915, ,0.039400867090671615, ,0.00020770062001711695, ,1.3333333333333333, ,0.45182305090532315, ,0.46262321177118837, ,0.024366849656129466
131, ,PASS, ,0.05594319999999999, ,0.0035482116611197526, ,0.03933904469194506, ,0.00020742662713039831, ,1.25, ,0.45163477951824355, ,0.4621742413420134, ,0.024081141201199977
132, ,PASS, ,0.056372456, ,0.0036057119842535733, ,0.03954307029366747, ,0.0002113654030298114, ,1.3333333333333333, ,0.4522143894729126, ,0.46235791106303953, ,0.024387257402910145
133, ,PASS, ,0.055982554, ,0.00360049258535935, ,0.03933056815371115, ,0.0002088420160867352, ,1.3333333333333333, ,0.4536748841527651, ,0.46168445541927716, ,0.0254484602355054
134, ,PASS, ,0.05572765299999998, ,0.003525583483321604, ,0.03950181063121161, ,0.0002040135719935229, ,1.3333333333333333, ,0.4461738708778375, ,0.4593987877798412, ,0.023775024999489806
135, ,PASS, ,0.05621935499999997, ,0.003519186029895748, ,0.03948470823452583, ,0.00020659028080804127, ,1.1666666666666667, ,0.4460299777657692, ,0.4617456786596192, ,0.023611763025244384
136, ,PASS, ,0.05574060199999999, ,0.0035073753020646668, ,0.03952342512295668, ,0.000203615409065983, ,1.1666666666666667, ,0.449620862669037, ,0.46152119344503173, ,0.024713781351400992
137, ,PASS, ,0.05559437499999999, ,0.003456454356208413, ,0.03932324127058632, ,0.000199721490475349, ,1.1666666666666667, ,0.4412661513269061, ,0.4623170955694782, ,0.024183179935103365
138, ,PASS, ,0.05501110099999998, ,0.0034203914399625226, ,0.039441224355829474, ,0.0001971287573513895, ,1.25, ,0.4494114824313916, ,0.46282728923899513, ,0.02383624823983184
139, ,PASS, ,0.05493169199999999, ,0.003348171509918378, ,0.039648704335421725, ,0.00019230852584862764, ,1.0833333333333333, ,0.4381649315131054, ,0.462643619517969, ,0.024693373604620313
140, ,PASS, ,0.05563555399999999, ,0.0033587114842232083, ,0.0394004179141242, ,0.00019491488518136245, ,1.0833333333333333, ,0.4331627370728875, ,0.4628476969857758, ,0.02383624823983184
141, ,PASS, ,0.05509240899999997, ,0.003314956516228632, ,0.03959952296463338, ,0.00018967673692146236, ,1.0833333333333333, ,0.42843487307160405, ,0.4619293483806453, ,0.02293830738148201
142, ,PASS, ,0.05504067, ,0.0032842658404973186, ,0.03962885905614171, ,0.00018823268019478262, ,1.0833333333333333, ,0.4293055263104393, ,0.4659700822432195, ,0.022244443990938962
143, ,PASS, ,0.05506969899999999, ,0.003282902948767598, ,0.03955356388543091, ,0.0001885541893445676, ,1.0833333333333333, ,0.429573436624423, ,0.46158241668537375, ,0.02422399542866472
144, ,PASS, ,0.055085044, ,0.003337550720301894, ,0.039554871881594254, ,0.00019205709585535193, ,1.0833333333333333, ,0.43472672233770365, ,0.46031713638497174, ,0.022632191179771843
145, ,PASS, ,0.056425753999999995, ,0.0034182926473024125, ,0.039376181380379995, ,0.00020174386818599342, ,1.1666666666666667, ,0.4355812832529165, ,0.4625619885308463, ,0.023183200342850145
146, ,PASS, ,0.07772192409999998, ,0.008315941309661824, ,0.03824770103650946, ,0.0006626379286873453, ,1.8333333333333333, ,0.6424806169266946, ,0.46119466949654087, ,0.03446868431256505
147, ,PASS, ,0.11781127999999998, ,0.015343377460802787, ,0.036863467926530884, ,0.001838032366376533, ,1.9166666666666667, ,0.7081512473010679, ,0.4613579314707863, ,0.039550213260953856
148, ,PASS, ,0.05390250599999999, ,0.003314562487430563, ,0.03953044532091182, ,0.00018510523661158032, ,1.0833333333333333, ,0.43319678768278796, ,0.46194975612742595, ,0.024203587681884044
149, ,PASS, ,0.051671850000000026, ,0.0031243701104046724, ,0.039636127377604545, ,0.00016887342581011077, ,1.0833333333333333, ,0.43317064675537076, ,0.4610314075222955, ,0.02432603416256811
150, ,PASS, ,0.051883800000000015, ,0.003177310450318699, ,0.039496819928164735, ,0.00017160846793766964, ,1.0833333333333333, ,0.4373853297973872, ,0.4624803575437236, ,0.024346441909348787
151, ,PASS, ,0.052111500000000005, ,0.003223459526633562, ,0.039495145819473075, ,0.00017487799478561083, ,1.0833333333333333, ,0.4397838701758816, ,0.4626844350115304, ,0.022224036244158283
152, ,PASS, ,0.05237351, ,0.003220316005702445, ,0.0395691665719067, ,0.00017633698728891693, ,1.1666666666666667, ,0.43949768836111874, ,0.46250076529050427, ,0.024591334870716925
153, ,PASS, ,0.05203907200000001, ,0.00322780460476744, ,0.039474778501867314, ,0.00017453549925977666, ,1.0833333333333333, ,0.4405953258096084, ,0.4626640272647497, ,0.024121956694761332
154, ,PASS, ,0.052222599000000015, ,0.0032739283197517044, ,0.03941222899859187, ,0.0001774861934848017, ,1.1666666666666667, ,0.44299939066711996, ,0.4621742413420134, ,0.024366849656129466
155, ,PASS, ,0.051877826, ,0.0032521577211530603, ,0.039601288906144776, ,0.00017497634800960247, ,1.1666666666666667, ,0.44013928402524566, ,0.4634599293891961, ,0.021917920042448115
156, ,PASS, ,0.052201690000000016, ,0.0032728423859449563, ,0.03950436558070244, ,0.000177638541312119, ,1.25, ,0.4425661994935367, ,0.4618477173935226, ,0.02385665598661252
157, ,PASS, ,0.052476682000000004, ,0.0032902535903993157, ,0.039450555544580726, ,0.00017946960790660572, ,1.1666666666666667, ,0.44318442000724884, ,0.4627456582518724, ,0.02583620742433828
158, ,PASS, ,0.05200016, ,0.0032023664255113253, ,0.03954405874125018, ,0.0001721820805814984, ,1.0833333333333333, ,0.4343194861348447, ,0.4610314075222955, ,0.02473418909818167
159, ,PASS, ,0.05148329000000001, ,0.0031895694666743725, ,0.039420982050978555, ,0.00017111689012241053, ,1.0833333333333333, ,0.4472988601447211, ,0.45633762576273956, ,0.02332605457031489
160, ,PASS, ,0.051859378000000005, ,0.0032005243917392987, ,0.03943124619579193, ,0.00017209147241517938, ,1.0833333333333333, ,0.43960223761562495, ,0.4622354645823555, ,0.02353013203812167
161, ,PASS, ,0.052115462000000015, ,0.00319510516374828, ,0.03962613755556009, ,0.0001741570451134, ,1.1666666666666667, ,0.4389724168722591, ,0.46288851247933716, ,0.022897491887920656
162, ,PASS, ,0.05165082000000001, ,0.003169889204087711, ,0.03943937858227383, ,0.00017004592108288503, ,1.0833333333333333, ,0.4360370717970389, ,0.4600926511703843, ,0.02332605457031489
163, ,PASS, ,0.05154968000000003, ,0.003154613304825626, ,0.03975713376237219, ,0.0001689624027178279, ,1.0833333333333333, ,0.43698313586544285, ,0.46282728923899513, ,0.025121936287014552
164, ,PASS, ,0.05110768000000003, ,0.003109608671648677, ,0.03963314462031387, ,0.00016434547278992986, ,1.0833333333333333, ,0.42887394125003864, ,0.4655415195608253, ,0.023224015836411503
165, ,PASS, ,0.05130481600000001, ,0.0030568890488304828, ,0.03939385833921757, ,0.00016326737104765775, ,1.0833333333333333, ,0.42774749364370984, ,0.4615620089385931, ,0.023366870063876246
166, ,PASS, ,0.05039166400000003, ,0.0030115810333108703, ,0.0394037965392543, ,0.0001574566590559082, ,1.0833333333333333, ,0.4300599580311841, ,0.4627456582518724, ,0.02432603416256811
167, ,PASS, ,0.05059759, ,0.0029609280602940617, ,0.03973030568070039, ,0.00015661552644869595, ,1.0833333333333333, ,0.4243284521632133, ,0.4610926307626375, ,0.022611783432991164
168, ,PASS, ,0.05085953000000001, ,0.003079483382892233, ,0.0394687521809759, ,0.000163671707195498, ,1.0833333333333333, ,0.4316475172020144, ,0.46158241668537375, ,0.024407665149690824
169, ,PASS, ,0.050776740000000015, ,0.0030185382482298805, ,0.0395777116638436, ,0.00015899079849101397, ,1.0833333333333333, ,0.42378226558864485, ,0.4623783188098202, ,0.023611763025244384
170, ,PASS, ,0.05091613000000003, ,0.003107914846323661, ,0.03950384485051326, ,0.0001638147864432518, ,1.0833333333333333, ,0.43101029127828033, ,0.4643374625007653, ,0.020999571437317607
171, ,PASS, ,0.05076602000000001, ,0.0030856891045761884, ,0.03935176397114345, ,0.00016261527592872717, ,1.0833333333333333, ,0.4352713584020915, ,0.4636027836166609, ,0.025366829248382686
172, ,PASS, ,0.05127192200000002, ,0.003070894936102966, ,0.03922584560845697, ,0.00016373327564190866, ,1.0833333333333333, ,0.4273156300354263, ,0.4628476969857758, ,0.024407665149690824
173, ,PASS, ,0.051088996000000025, ,0.003101407207916334, ,0.039486564936633946, ,0.00016434325939186168, ,1.0833333333333333, ,0.43403123278739386, ,0.4621742413420134, ,0.024591334870716925
174, ,PASS, ,0.051174970000000014, ,0.0032460588629344388, ,0.03950319913124222, ,0.00017242406518907437, ,1.3333333333333333, ,0.4492044004522188, ,0.4600926511703843, ,0.024407665149690824
175, ,PASS, ,0.05061284000000001, ,0.0030648704563260676, ,0.0392787859496745, ,0.00016090551743948634, ,1.0833333333333333, ,0.43258916347725673, ,0.4636844146037836, ,0.023815840493051164
176, ,PASS, ,0.050854960000000025, ,0.003052281953141207, ,0.03956783846921492, ,0.00016152666787293317, ,1.0833333333333333, ,0.4303995402366024, ,0.4629293279728985, ,0.023897471480173873
177, ,PASS, ,0.050597130000000025, ,0.0030360178593305844, ,0.03946628703271362, ,0.0001595093577552041, ,1.0833333333333333, ,0.42662605785959845, ,0.4614803779514704, ,0.024387257402910145
178, ,PASS, ,0.05090791000000001, ,0.0030576517639319357, ,0.03959788659027367, ,0.00016201701405295162, ,1.0833333333333333, ,0.43019720418796076, ,0.46199057162098733, ,0.024550519377155567
179, ,PASS, ,0.05106776000000002, ,0.003115337261326193, ,0.03945972642211384, ,0.00016550910503092996, ,1.0833333333333333, ,0.43380605712258996, ,0.4660517132303422, ,0.023060753862166078
180, ,PASS, ,0.05107263600000003, ,0.0031419322536983623, ,0.039377417895145, ,0.00016672210194919679, ,1.0833333333333333, ,0.4414195721881789, ,0.4619293483806453, ,0.024775004591743026
181, ,PASS, ,0.05162803999999999, ,0.0031789449467670575, ,0.039417356887206385, ,0.0001703776783879755, ,1.0833333333333333, ,0.44037430375874376, ,0.4630109589600212, ,0.025713760943654212
182, ,PASS, ,0.051928880000000024, ,0.005372793783692694, ,0.038849174595212345, ,0.00028604333559963184, ,1.8333333333333333, ,0.62735477400789, ,0.46364359911022224, ,0.033509520213873184
183, ,FAIL, ,0.005811540000000025, ,5.5104002319255844e-05, ,0.03970279498520439, ,4.796305301461803e-07, ,0.3333333333333333, ,0.25276182780801787, ,0.13532376890267545, ,0.004897859227362707
184, ,PASS, ,0.05170077000000001, ,0.0031488637612956303, ,0.039735835924572964, ,0.00016914304540538593, ,1.0833333333333333, ,0.4397899856116163, ,0.46250076529050427, ,0.02483622783208506
185, ,PASS, ,0.05131488000000001, ,0.0031207179232995413, ,0.03950112146384768, ,0.00016637465028860907, ,1.0833333333333333, ,0.4296509296597647, ,0.4617660864063999, ,0.022836268647578623
186, ,PASS, ,0.05106388000000002, ,0.0030886679037737614, ,0.03922850596661293, ,0.00016371117981204986, ,1.0833333333333333, ,0.4313665591874581, ,0.4626844350115304, ,0.023570947531683026
187, ,PASS, ,0.05092002000000004, ,0.0031101501737983745, ,0.0394190747939838, ,0.0001644575310758013, ,1.0833333333333333, ,0.4344998748765696, ,0.4615416011918124, ,0.02232607497806167
188, ,PASS, ,0.05102826400000003, ,0.0031127480749909443, ,0.039185950237546174, ,0.00016537041029837372, ,1.0833333333333333, ,0.43408762149403324, ,0.4618069018999612, ,0.02383624823983184
189, ,PASS, ,0.05128263000000001, ,0.0031155877897745946, ,0.03924686792779739, ,0.00016599354760794417, ,1.0833333333333333, ,0.43255399559748614, ,0.4617660864063999, ,0.02314238484928879
190, ,PASS, ,0.05095071000000001, ,0.0030857241138824614, ,0.039422209460215095, ,0.00016389571420806164, ,1.0833333333333333, ,0.4315241763205317, ,0.4626028040244077, ,0.024203587681884044
191, ,PASS, ,0.05045094000000003, ,0.0030300165722138553, ,0.039240450974673984, ,0.0001589161011213603, ,1.0833333333333333, ,0.4322068184673844, ,0.46170486316605786, ,0.023081161608946757
192, ,PASS, ,0.050496840000000015, ,0.00301929304175666, ,0.03959850309014102, ,0.00015852361263175155, ,1.0833333333333333, ,0.4277655685252943, ,0.4655415195608253, ,0.023775024999489806
193, ,PASS, ,0.05109955000000001, ,0.0030766493962491354, ,0.0394714958319218, ,0.00016486522374692609, ,1.1666666666666667, ,0.4337580732410601, ,0.46170486316605786, ,0.024795412338523705
194, ,PASS, ,0.05072418000000004, ,0.003095874470134094, ,0.03926757976122937, ,0.0001628465879276512, ,1.0833333333333333, ,0.43601821195988577, ,0.46197016387420664, ,0.025366829248382686
195, ,PASS, ,0.05108923000000001, ,0.003074113254713469, ,0.03945089902369339, ,0.00016359588708579273, ,1.0833333333333333, ,0.42838639882517326, ,0.4618477173935226, ,0.023468908797779638
196, ,PASS, ,0.05113963000000002, ,0.0030810611220628676, ,0.03957489590232852, ,0.00016433002688037783, ,1.1666666666666667, ,0.42948270960311674, ,0.4671129160629375, ,0.024387257402910145
197, ,PASS, ,0.05101098000000001, ,0.0030745245269156677, ,0.03936312120528153, ,0.0001627002266821871, ,1.0833333333333333, ,0.427667286003851, ,0.4647864329299402, ,0.023693394012367093
198, ,PASS, ,0.05096572000000005, ,0.0030919483451462173, ,0.039438238654925406, ,0.00016358156059795135, ,1.0833333333333333, ,0.4315613554304374, ,0.46037835962531376, ,0.023815840493051164
199, ,PASS, ,0.051088730000000034, ,0.003077286157260912, ,0.03931171416481296, ,0.00016294400315960243, ,1.0833333333333333, ,0.4285481254546648, ,0.4630721822003633, ,0.02216281300381625
200, ,PASS, ,0.050935136000000034, ,0.003063937226623581, ,0.03944311629211649, ,0.0001616648377176461, ,1.0833333333333333, ,0.42619059527782377, ,0.4648884716638436, ,0.023979102467296586
201, ,PASS, ,0.050751199999999996, ,0.0030313884968402594, ,0.039437353302381586, ,0.00015996663903098624, ,1.0833333333333333, ,0.4243938115048187, ,0.46115385400297954, ,0.023570947531683026
202, ,PASS, ,0.05087065400000003, ,0.0030681129804507566, ,0.03957227605967226, ,0.0001624403724718944, ,1.0833333333333333, ,0.43107481079623944, ,0.4630109589600212, ,0.02316279259606947
203, ,PASS, ,0.05140650000000004, ,0.0030301296102835306, ,0.03948742063570131, ,0.00016312726642451288, ,1.1666666666666667, ,0.4228101578362885, ,0.463847676578029, ,0.022999530621824044
204, ,PASS, ,0.05102960600000002, ,0.0030290348081019216, ,0.03936752467663925, ,0.00016048328186771808, ,1.0833333333333333, ,0.42194500195838225, ,0.46186812514030323, ,0.022856676394359298
205, ,PASS, ,0.050658538, ,0.002990315000515319, ,0.03943640459806943, ,0.00015768323526087647, ,1.0833333333333333, ,0.42222614525055463, ,0.4619293483806453, ,0.023958694720515906
206, ,PASS, ,0.05103466100000002, ,0.003008169436249131, ,0.03939977593742985, ,0.0001601683574316073, ,1.0833333333333333, ,0.4207446461100087, ,0.46215383359523277, ,0.022856676394359298
207, ,PASS, ,0.051408318999999994, ,0.0030253342083037347, ,0.03942551766514969, ,0.00016223796773397124, ,1.0833333333333333, ,0.42027518171679573, ,0.4615416011918124, ,0.022285259484500317
208, ,PASS, ,0.05582104599999998, ,0.003408927263140423, ,0.039476896609252875, ,0.0001981165245934601, ,1.1666666666666667, ,0.43267082630365283, ,0.46584763576253546, ,0.02375461725270913
209, ,PASS, ,0.15496383, ,0.018667681587218894, ,0.03616829924069712, ,0.002948044709858118, ,1.9166666666666667, ,0.679661159034306, ,0.46241913430338155, ,0.03612171180179996
210, ,PASS, ,0.06468044299999998, ,0.00547728185382753, ,0.03867584406114161, ,0.00036469626822303565, ,1.75, ,0.5509244098714339, ,0.4600926511703843, ,0.032223832166690475
211, ,PASS, ,0.05181614500000001, ,0.003310147447318928, ,0.0393665505606008, ,0.00017819442517482222, ,1.0833333333333333, ,0.44089905073893576, ,0.46150078569825104, ,0.02520356727413726
212, ,PASS, ,0.05087973700000003, ,0.003275442998058036, ,0.03926462966919043, ,0.00017231829949330827, ,1.0833333333333333, ,0.4445559388006664, ,0.4615416011918124, ,0.026183139119609802
213, ,PASS, ,0.05100967100000002, ,0.0033049123628443237, ,0.0395802735803351, ,0.0001745973622613361, ,1.1666666666666667, ,0.447201721942635, ,0.45958245750086735, ,0.025468867982286075
214, ,PASS, ,0.050585872000000025, ,0.003264386654904603, ,0.03940258654435624, ,0.0001710703560569699, ,1.1666666666666667, ,0.44799011176721165, ,0.46115385400297954, ,0.025387236995163365
215, ,PASS, ,0.050839955, ,0.0032610280200929495, ,0.039302004126650476, ,0.00017200582701987145, ,1.0833333333333333, ,0.44442136995542536, ,0.46033754413175243, ,0.025285198261259974
216, ,PASS, ,0.05168654000000001, ,0.0033611411051553083, ,0.03934096004326442, ,0.00018011270640636842, ,1.1666666666666667, ,0.447848187392041, ,0.4625619885308463, ,0.025979061651803026
217, ,PASS, ,0.051480479999999995, ,0.003314521954011789, ,0.03955141374257669, ,0.00017674941243956392, ,1.1666666666666667, ,0.44642932832477167, ,0.4615620089385931, ,0.02663210954878472
218, ,PASS, ,0.05134125500000002, ,0.003327818975776456, ,0.03931260926144364, ,0.00017729386452015284, ,1.1666666666666667, ,0.4483592288355725, ,0.4627252505050917, ,0.026836187016591496
219, ,PASS, ,0.05129988300000002, ,0.003334461520730715, ,0.039595010384686026, ,0.00017713512341170732, ,1.25, ,0.44641036180118887, ,0.46203138711454866, ,0.025713760943654212
220, ,PASS, ,0.05104182000000003, ,0.003303401517901901, ,0.0393489394149099, ,0.000174451869343497, ,1.0833333333333333, ,0.4471375796605703, ,0.46117426174976023, ,0.025693353196873533
221, ,PASS, ,0.05100313600000002, ,0.0032830408998424784, ,0.03933352718842473, ,0.0001738895734970088, ,1.1666666666666667, ,0.44584050093253796, ,0.4626028040244077, ,0.027060672231178955
222, ,PASS, ,0.050861010000000005, ,0.0032581803019292675, ,0.039389289139609394, ,0.00017253808133999607, ,1.0833333333333333, ,0.4457267850897915, ,0.4538886961490582, ,0.02579539193077692
223, ,PASS, ,0.05059403000000002, ,0.0032276242653946053, ,0.03929233114956838, ,0.00016893067113398467, ,1.0833333333333333, ,0.44147636689027564, ,0.46074569906736595, ,0.0254484602355054
224, ,PASS, ,0.05055688999999999, ,0.0032388393848686615, ,0.039280061709965106, ,0.00016963227730095552, ,1.1666666666666667, ,0.44922120915589314, ,0.46245994979694294, ,0.026285177853513194
225, ,PASS, ,0.05073818000000002, ,0.003221368514626249, ,0.03939243596314361, ,0.00017064396663985366, ,1.1666666666666667, ,0.4400630568114666, ,0.46158241668537375, ,0.026754556029468787
226, ,PASS, ,0.050799050000000026, ,0.0032487421399408196, ,0.03943861339891023, ,0.0001713355191352802, ,1.1666666666666667, ,0.4451102099740238, ,0.46194975612742595, ,0.02504030529989184
227, ,PASS, ,0.05061995000000001, ,0.0032688686212158174, ,0.03917558454337667, ,0.00017135103494641963, ,1.1666666666666667, ,0.4467330307687997, ,0.46233750331625884, ,0.02793820534274811
228, ,PASS, ,0.050411420000000026, ,0.0032704266922961847, ,0.03932879089794086, ,0.00017073452811598096, ,1.1666666666666667, ,0.4469122534242949, ,0.4615620089385931, ,0.026264770106732515
229, ,PASS, ,0.05037533000000003, ,0.003235273266221618, ,0.03928510958755944, ,0.00016892819327999012, ,1.1666666666666667, ,0.44071131971758165, ,0.46411297728617784, ,0.025142344033795228
230, ,PASS, ,0.050428150000000026, ,0.0032755500267623878, ,0.03923134791371605, ,0.00017056277715338887, ,1.1666666666666667, ,0.4499707189046017, ,0.4622762800759168, ,0.025530091222628108
231, ,PASS, ,0.05065685000000002, ,0.0032675709923056778, ,0.039244743498908184, ,0.00017149925819845158, ,1.1666666666666667, ,0.44407865582928024, ,0.4637660455909063, ,0.024877043325646414
232, ,PASS, ,0.05049943000000002, ,0.003278354516497138, ,0.03935002208934511, ,0.00017149570428943992, ,1.1666666666666667, ,0.4488417139763469, ,0.46001102018326157, ,0.030223872982184038
233, ,PASS, ,0.05025587000000005, ,0.0032523487123515098, ,0.039570644245219486, ,0.000169518999361487, ,1.0833333333333333, ,0.44831931929998564, ,0.461378339217567, ,0.02640762433419726
234, ,PASS, ,0.05071653000000004, ,0.0032665231134594865, ,0.039341829285728866, ,0.00017284985825120525, ,1.1666666666666667, ,0.4462040191293503, ,0.4618069018999612, ,0.027856574355625396
235, ,PASS, ,0.05076484000000004, ,0.0033115062455115335, ,0.039197013796657215, ,0.00017377825026432348, ,1.1666666666666667, ,0.44773032423961234, ,0.4630313667068019, ,0.027795351115283362
236, ,PASS, ,0.051772970000000015, ,0.003467350172249631, ,0.03924929918532275, ,0.00018612933220931008, ,1.25, ,0.46210819922291, ,0.4617660864063999, ,0.027366788432889123
237, ,PASS, ,0.05135633000000001, ,0.003383192085399682, ,0.03913007151098957, ,0.00018012540830249755, ,1.1666666666666667, ,0.45560328707716063, ,0.45780698353094834, ,0.025877022917899634
238, ,PASS, ,0.05115862000000003, ,0.0033167739868319823, ,0.03950745189751229, ,0.00017551728088167128, ,1.1666666666666667, ,0.44939478847196607, ,0.4635823758698802, ,0.0254484602355054
239, ,PASS, ,0.05108236000000001, ,0.0033055765064641464, ,0.03931042739740005, ,0.00017486013082354093, ,1.1666666666666667, ,0.4480184632109166, ,0.4626028040244077, ,0.02565253770331218
240, ,PASS, ,0.05116009000000002, ,0.0033068678332733403, ,0.03948682715577233, ,0.00017571299069239256, ,1.25, ,0.4459203714535991, ,0.4659088590028775, ,0.025979061651803026
241, ,PASS, ,0.050841010000000034, ,0.003260143142467764, ,0.039254251527723924, ,0.00017197991247365645, ,1.0833333333333333, ,0.4415578185358447, ,0.46333748290851207, ,0.02522397502091794
242, ,PASS, ,0.050767006000000045, ,0.0032259469602594713, ,0.039260351005285604, ,0.0001699126715844735, ,1.0833333333333333, ,0.4385685443976704, ,0.4627252505050917, ,0.026591294055223362
243, ,PASS, ,0.05086992000000001, ,0.0032285369354892422, ,0.03933189972674027, ,0.00017057161431722765, ,1.0833333333333333, ,0.43763780204176955, ,0.4629497357196792, ,0.02673414828268811
244, ,PASS, ,0.05105286600000003, ,0.0032851783461865895, ,0.03967366957776372, ,0.00017413736537182534, ,1.1666666666666667, ,0.44296454195542095, ,0.46150078569825104, ,0.025326013754821332
245, ,PASS, ,0.051260151000000004, ,0.003300427351520225, ,0.03941567138793086, ,0.00017511875953174884, ,1.1666666666666667, ,0.4462423526820829, ,0.46162323217893514, ,0.02650966306810065
246, ,PASS, ,0.05060190600000003, ,0.0031646856566690416, ,0.039591501393032795, ,0.00016748355559878647, ,1.1666666666666667, ,0.43198708008375947, ,0.46074569906736595, ,0.0246117426174976
247, ,PASS, ,0.05049132000000003, ,0.0032244318325109996, ,0.03952895852492806, ,0.00016895681519364368, ,1.0833333333333333, ,0.44583419335883884, ,0.4629293279728985, ,0.024346441909348787
248, ,PASS, ,0.05063737300000003, ,0.00320152875403263, ,0.03934802927062713, ,0.00016795509493206252, ,1.0833333333333333, ,0.4392135594765847, ,0.4622150568355748, ,0.025101528540233873
249, ,PASS, ,0.050897006999999994, ,0.00323634390594014, ,0.03972876437786984, ,0.00017065681078084796, ,1.0833333333333333, ,0.4402702460361668, ,0.4616436399257158, ,0.02483622783208506
250, ,PASS, ,0.05087566099999999, ,0.003226378342232633, ,0.03952752143731761, ,0.00016993875137793831, ,1.0833333333333333, ,0.4379314756451516, ,0.46252117303728496, ,0.026468847574539295
251, ,PASS, ,0.050954172000000006, ,0.003218685115401223, ,0.03925460694577662, ,0.00017006348679295306, ,1.0833333333333333, ,0.4352584206631063, ,0.4612763004836636, ,0.024509703883594212
252, ,PASS, ,0.05039206, ,0.003205320950585261, ,0.039477684030325914, ,0.00016783988474729694, ,1.0833333333333333, ,0.43933003342974225, ,0.4579702455051938, ,0.02542805248872472
253, ,PASS, ,0.05030345600000004, ,0.0031780340884548196, ,0.0394465463653803, ,0.00016594236555286403, ,1.0833333333333333, ,0.4393817249514015, ,0.4623170955694782, ,0.025387236995163365
254, ,PASS, ,0.05091516300000001, ,0.0031942046333043772, ,0.03939832016795576, ,0.00016888765166935303, ,1.0833333333333333, ,0.43372531876421944, ,0.4609701842819534, ,0.025979061651803026
255, ,PASS, ,0.051051626, ,0.0032400626558955177, ,0.03957062540274688, ,0.0001714124450645528, ,1.0833333333333333, ,0.4403336676072798, ,0.46278647374543375, ,0.025387236995163365
