Channel, ,Pass/Fail, ,Amplitude, ,Sorting Function Response, ,Mean, ,Variance, ,NPeaksRatio, ,PosIntegralRatio, ,ToT50, ,ToT99
40, ,FAIL, ,0.0016506500000000035, ,4.654070294296334e-05, ,0.0383391767919022, ,9.623061977015902e-08, ,0.8333333333333334, ,0.25508956634575997, ,0.16524152568314932, ,0.0036325789269606745
41, ,PASS, ,0.010462289999999992, ,0.0011837687852574528, ,0.03786826838370646, ,1.2614051229477662e-05, ,1.8333333333333333, ,0.5737545469059305, ,0.45466419052672397, ,0.031223852574437258
42, ,PASS, ,0.012357300000000002, ,0.001541782047776266, ,0.03797791891655272, ,1.9316150080623686e-05, ,1.9166666666666667, ,0.6499433114965304, ,0.46039876737209445, ,0.05573355645803147
43, ,PASS, ,0.012052960000000022, ,0.0015467893373942378, ,0.03811731284810514, ,1.893854794249391e-05, ,1.9166666666666667, ,0.6447953041174977, ,0.458909001857105, ,0.054794800106120284
44, ,FAIL, ,0.0020030700000000026, ,4.710725645500636e-05, ,0.038514866308850836, ,1.0790689492474004e-07, ,0.6666666666666666, ,0.2227204028809405, ,0.4318075141323646, ,0.005101936695169487
45, ,PASS, ,0.011781279999999998, ,0.001498550124621726, ,0.037960329358176365, ,1.7928579066472566e-05, ,1.9166666666666667, ,0.6565367937735866, ,0.4605212138527785, ,0.052305054998877575
46, ,PASS, ,0.011778199999999975, ,0.0015080363601188303, ,0.037988332805044794, ,1.8037453401602813e-05, ,2.0, ,0.6451273922963819, ,0.45950082651374463, ,0.03450949980612641
47, ,PASS, ,0.011900359999999999, ,0.0015659873547391287, ,0.03807476072120977, ,1.8946643196603195e-05, ,2.0, ,0.6862460314158589, ,0.4631334054407053, ,0.05157037611477317
48, ,FAIL, ,0.0021968300000000177, ,7.820159434399337e-05, ,0.0383782220985286, ,1.9889317869507017e-07, ,0.75, ,0.30601304846811045, ,0.5772535254382564, ,0.0148976551498949
49, ,PASS, ,0.011725250000000007, ,0.0014977733571338247, ,0.03808096815677231, ,1.784017090491952e-05, ,2.0, ,0.6579913987030278, ,0.4605620293463399, ,0.04342768514928267
50, ,PASS, ,0.011873649999999979, ,0.0015189895141053612, ,0.03815650039448174, ,1.832622476199622e-05, ,1.9166666666666667, ,0.6499256896953362, ,0.4588477786167629, ,0.030836105385604374
51, ,PASS, ,0.011758369999999976, ,0.001462311054426245, ,0.037838712796881696, ,1.7459468630141745e-05, ,1.9166666666666667, ,0.6438396951323667, ,0.46168445541927716, ,0.0384890104283586
52, ,FAIL, ,0.0021259299999999842, ,6.281161149001075e-05, ,0.03850248064957858, ,1.5478866303492716e-07, ,0.6666666666666666, ,0.26237633736088384, ,0.6710067141486908, ,0.006203955021326095
53, ,PASS, ,0.011885409999999999, ,0.0015223665357199147, ,0.03798851451113242, ,1.8358603320238914e-05, ,2.0, ,0.6564340720240728, ,0.46076610681414665, ,0.03942776678026979
54, ,PASS, ,0.011860349999999992, ,0.0015197797207738854, ,0.03809817619028183, ,1.8319687073871256e-05, ,2.0, ,0.6547995192936518, ,0.4598681659557968, ,0.04061141609354911
55, ,PASS, ,0.011864379999999987, ,0.0014674714501314954, ,0.03807162156486602, ,1.7659853848522544e-05, ,2.0, ,0.6410785364018063, ,0.45880696312320157, ,0.046060284483990126
56, ,FAIL, ,0.0020868199999999823, ,7.332065909784924e-05, ,0.038419827790453255, ,1.7373782881787876e-07, ,0.75, ,0.2575586771735114, ,0.5804983571763842, ,0.0073263810942633826
57, ,PASS, ,0.012108470000000003, ,0.0015711367521058788, ,0.03819711100753046, ,1.9318797814599582e-05, ,2.0, ,0.6766432531940298, ,0.462010979367768, ,0.054305014183384015
58, ,PASS, ,0.012071350000000008, ,0.0015160180201460188, ,0.03810048208873289, ,1.8582934417208556e-05, ,2.0, ,0.6420826058496066, ,0.45778657578416765, ,0.04522356686598233
59, ,PASS, ,0.011829329999999985, ,0.0015230334972707426, ,0.03792798778984102, ,1.8272852005294882e-05, ,2.0, ,0.6517108581511516, ,0.45919471031203446, ,0.04544805208056978
60, ,PASS, ,0.01211095000000001, ,0.0015721580273831545, ,0.03790652971388339, ,1.9326701829890026e-05, ,2.0, ,0.6482438557383872, ,0.45964368074120937, ,0.043325646415379275
61, ,PASS, ,0.012095029999999993, ,0.0015667650612619293, ,0.037937550105099895, ,1.9247157495139184e-05, ,2.0, ,0.6696849412696627, ,0.46150078569825104, ,0.04697863308912063
62, ,PASS, ,0.01220073000000002, ,0.0015860408214286904, ,0.03819332251300994, ,1.9657274631894698e-05, ,2.0, ,0.6574221876555663, ,0.45948041876696394, ,0.04887655353972368
63, ,PASS, ,0.012119770000000016, ,0.001540152015085086, ,0.03801274681782005, ,1.8964582509735177e-05, ,1.9166666666666667, ,0.6447331050011657, ,0.45917430256525377, ,0.048141874655619275
64, ,PASS, ,0.012321680000000022, ,0.001526643503073985, ,0.03818044542744026, ,1.906774055180553e-05, ,1.9166666666666667, ,0.657330932337213, ,0.46160282443215445, ,0.04891736903328504
65, ,PASS, ,0.012256039999999996, ,0.001550662657127839, ,0.03809991223587274, ,1.9307234332555347e-05, ,1.9166666666666667, ,0.6441926040369855, ,0.45901104059100833, ,0.04975408665129283
66, ,PASS, ,0.012194800000000013, ,0.0015631980533321308, ,0.03794803392502194, ,1.9390402777091325e-05, ,2.0, ,0.6448865490746534, ,0.45872533213607886, ,0.0335911512009959
67, ,PASS, ,0.012290200000000022, ,0.001547909186156131, ,0.03789345663353809, ,1.933211830970789e-05, ,1.9166666666666667, ,0.6452633577396595, ,0.4600518356768229, ,0.03010142650149997
68, ,PASS, ,0.012104400000000022, ,0.0015688902548428954, ,0.03811245965266015, ,1.9261890547140494e-05, ,2.0, ,0.6658381529540897, ,0.46086814554805006, ,0.0661619150629579
69, ,PASS, ,0.012129319999999985, ,0.0015701458461144743, ,0.037961926205383564, ,1.933105738746145e-05, ,2.0, ,0.6599553047383024, ,0.45982735046223544, ,0.04757045774576029
70, ,PASS, ,0.011974199999999977, ,0.0015558221288530527, ,0.03782064889716536, ,1.890830409401549e-05, ,2.0, ,0.6560036348644593, ,0.4598681659557968, ,0.058774310728352486
71, ,PASS, ,0.012131880000000018, ,0.0015765137159547173, ,0.03808394569212873, ,1.943961647221022e-05, ,1.9166666666666667, ,0.6578118934022725, ,0.45913348707169244, ,0.043672578110650805
72, ,PASS, ,0.012232159999999992, ,0.001580840035477833, ,0.037881328691659354, ,1.9625404639497706e-05, ,1.9166666666666667, ,0.6594879781046273, ,0.45958245750086735, ,0.05116222117915961
73, ,PASS, ,0.012234390000000005, ,0.0015706013317837463, ,0.03800576482520765, ,1.9523302870680222e-05, ,1.9166666666666667, ,0.6575269702529062, ,0.4592355258055958, ,0.04712148731658537
74, ,PASS, ,0.012336290000000007, ,0.0015717991748047174, ,0.03789518765106835, ,1.9670572033647328e-05, ,1.8333333333333333, ,0.6500559985361805, ,0.46033754413175243, ,0.04873369931225893
75, ,PASS, ,0.012022949999999998, ,0.0015810759427727636, ,0.03787181332074856, ,1.9301724117233823e-05, ,2.0, ,0.667578869509504, ,0.45937838003306053, ,0.05487643109324299
76, ,PASS, ,0.012243100000000007, ,0.001612970317272517, ,0.03820678905573356, ,2.006379551593962e-05, ,2.0, ,0.6656187719556688, ,0.45907226383135036, ,0.05210097753107079
77, ,PASS, ,0.012471329999999996, ,0.0016232432968445551, ,0.03790550402746883, ,2.052460659282717e-05, ,1.9166666666666667, ,0.6640616423284933, ,0.46003142793004226, ,0.044468480235097245
78, ,PASS, ,0.012470120000000008, ,0.0016993659103508663, ,0.03796508277484133, ,2.1474967872969787e-05, ,1.9166666666666667, ,0.6911399237867201, ,0.4622558723291361, ,0.044856227423930126
79, ,PASS, ,0.012844929999999984, ,0.0018592032830168092, ,0.03806133118977164, ,2.425099432105761e-05, ,1.9166666666666667, ,0.7230880072408987, ,0.4634395216424155, ,0.06640680802432604
112, ,PASS, ,0.01216950999999998, ,0.0015956255103333856, ,0.03798051364931328, ,1.9716818471370972e-05, ,2.0, ,0.6649751034612958, ,0.4594396032734026, ,0.04261137527805555
113, ,PASS, ,0.01252681, ,0.001620618132047058, ,0.03797875443603192, ,2.0621884836688374e-05, ,2.0, ,0.6627697630444682, ,0.45948041876696394, ,0.04891736903328504
114, ,PASS, ,0.0122675, ,0.0016217857592508843, ,0.03791609320217955, ,2.024592698906965e-05, ,2.0, ,0.6687981771406633, ,0.4579702455051938, ,0.03940735903348911
115, ,PASS, ,0.012677829999999994, ,0.0016607322949156631, ,0.0379554821438338, ,2.136538650573163e-05, ,2.0, ,0.6694208037828842, ,0.45937838003306053, ,0.05291728740229791
116, ,PASS, ,0.012538650000000012, ,0.001640847943225307, ,0.0379637893116467, ,2.0910324372938555e-05, ,2.0, ,0.6674046211454187, ,0.46082733005448867, ,0.040795085814575215
117, ,PASS, ,0.012508819999999969, ,0.001643898519234745, ,0.03771825336401298, ,2.0890596319959573e-05, ,2.0, ,0.6686195054731138, ,0.4600518356768229, ,0.043325646415379275
118, ,PASS, ,0.012543999999999986, ,0.001637761188013824, ,0.03794997792065468, ,2.084397219383756e-05, ,2.0, ,0.6744999197993526, ,0.4597457194751128, ,0.04895818452684639
119, ,PASS, ,0.012476090000000023, ,0.001724791445269783, ,0.03802313681782005, ,2.1829351811124406e-05, ,1.9166666666666667, ,0.6943295237478898, ,0.4613987469643477, ,0.051060182445256216
120, ,PASS, ,0.012395949999999996, ,0.001676180520730035, ,0.03799015074141344, ,2.1107555297744903e-05, ,2.0, ,0.6915120661086053, ,0.4605416215995592, ,0.053896859247770455
121, ,PASS, ,0.012551030000000019, ,0.0016413550574575244, ,0.03807757633925838, ,2.0911507710277845e-05, ,2.0, ,0.6715239160711501, ,0.4599906124364809, ,0.04961123242382808
122, ,PASS, ,0.012451420000000005, ,0.001647701496171694, ,0.0379857542378727, ,2.084052805788865e-05, ,2.0, ,0.6749125596334288, ,0.45946001102018325, ,0.04289708373298504
123, ,PASS, ,0.012603960000000011, ,0.0016547648368056664, ,0.038013934345217444, ,2.1191271919623673e-05, ,2.0, ,0.6617452191083986, ,0.45870492438929816, ,0.04399910205914165
124, ,PASS, ,0.012426380000000035, ,0.0016537824686599872, ,0.03807563409787555, ,2.086810554526942e-05, ,2.0, ,0.671902851395374, ,0.459602865247648, ,0.04440725699475521
125, ,PASS, ,0.01274331, ,0.0016877590722182904, ,0.037975767418215955, ,2.1847806439631978e-05, ,2.0, ,0.6677128997779703, ,0.4588477786167629, ,0.05406012122201588
126, ,PASS, ,0.012731160000000012, ,0.001673898773939223, ,0.037958185912532395, ,2.1640019145543826e-05, ,2.0, ,0.6697600669671468, ,0.45950082651374463, ,0.05346829656537622
127, ,PASS, ,0.012656700000000007, ,0.0016663242947970256, ,0.037969057170669986, ,2.1427959247741813e-05, ,2.0, ,0.6672140260810877, ,0.4591538948184731, ,0.042039958368196566
128, ,PASS, ,0.012538780000000027, ,0.0016763085638825499, ,0.03835972290055305, ,2.135836685950491e-05, ,2.0, ,0.6741811060582108, ,0.4600722434236036, ,0.04720311830370809
129, ,PASS, ,0.01283150000000001, ,0.0017151986428419943, ,0.03829390557866166, ,2.2362969163336807e-05, ,2.0, ,0.6705497996635476, ,0.45864370114895614, ,0.052223424011754865
130, ,PASS, ,0.01294424999999999, ,0.0016969924507929278, ,0.03818235832656476, ,2.2311248153826162e-05, ,2.0, ,0.6619505225818995, ,0.4597865349686741, ,0.046937817595559275
131, ,PASS, ,0.012818980000000028, ,0.0016875340985819773, ,0.03805085893879717, ,2.1973201013032135e-05, ,2.0, ,0.6603036640483396, ,0.45786820677129036, ,0.04522356686598233
132, ,PASS, ,0.01286196000000002, ,0.0016938257148597835, ,0.03796598452725455, ,2.2120334594174123e-05, ,2.0, ,0.6558737369742761, ,0.45911307932491174, ,0.03736658435542132
133, ,PASS, ,0.012893210000000023, ,0.001694403009631782, ,0.03799531071447522, ,2.2208941225488413e-05, ,2.0, ,0.660632641718162, ,0.45854166241505273, ,0.040693047080671826
134, ,PASS, ,0.01294035000000001, ,0.0017145642796607572, ,0.038113557045162345, ,2.255648968645277e-05, ,2.0, ,0.6709628447322284, ,0.45909267157813105, ,0.03720332238117589
135, ,PASS, ,0.013091659999999998, ,0.001698245127131916, ,0.038159345331115695, ,2.260557025227099e-05, ,2.0, ,0.654330411279188, ,0.4576845370502643, ,0.032529948368400646
136, ,PASS, ,0.013138550000000006, ,0.0017313766458642694, ,0.0383368156498847, ,2.3104206785476476e-05, ,2.0, ,0.6684500758953891, ,0.4591538948184731, ,0.055570294483786045
137, ,PASS, ,0.01298218000000001, ,0.0017261095482337591, ,0.03823019689802249, ,2.2797679425493878e-05, ,2.0, ,0.6742981045915081, ,0.4587865553764209, ,0.05930491214465011
138, ,PASS, ,0.013098910000000005, ,0.0017073315498502626, ,0.03824780887492092, ,2.2708572061107045e-05, ,2.0, ,0.6703450574376157, ,0.45952123426052527, ,0.048223505642741984
139, ,PASS, ,0.013049740000000011, ,0.0017182330750714744, ,0.038127107609844696, ,2.280120464253893e-05, ,2.0, ,0.6624818663943159, ,0.45823554621334256, ,0.053100957123324015
140, ,PASS, ,0.012866630000000018, ,0.0017213849633418734, ,0.0382336381949348, ,2.2483610872983882e-05, ,2.0, ,0.6812812558368226, ,0.45966408848799006, ,0.0496928634109508
141, ,PASS, ,0.013059849999999998, ,0.001753367015960893, ,0.03812332970674068, ,2.3266031118830434e-05, ,2.0, ,0.666758651542565, ,0.45862329340217545, ,0.042060366114977245
142, ,PASS, ,0.013139120000000011, ,0.0017403461356081632, ,0.03810035891328749, ,2.3242744718118602e-05, ,2.0, ,0.6671101157998824, ,0.4585620701618334, ,0.04265219077161691
143, ,PASS, ,0.013307020000000017, ,0.0017372117692805162, ,0.03823135642272607, ,2.3506154657398004e-05, ,2.0, ,0.6558540999399749, ,0.4564600722434236, ,0.043570539376747416
176, ,PASS, ,0.013162939999999998, ,0.0017841602685905163, ,0.03831992679945308, ,2.3872289646625353e-05, ,2.0, ,0.681863170331908, ,0.4589498173506663, ,0.04561131405481521
177, ,PASS, ,0.01314689999999999, ,0.001767352740268795, ,0.037985649813677275, ,2.360783571546e-05, ,2.0, ,0.6731637520610618, ,0.45958245750086735, ,0.05591722617905757
178, ,PASS, ,0.013364299999999989, ,0.001788321752621202, ,0.0381758066098651, ,2.4311794080803365e-05, ,2.0, ,0.6742189784646919, ,0.4586845166425175, ,0.04103997877594335
179, ,PASS, ,0.013194029999999995, ,0.0017783722206128876, ,0.03811181703516255, ,2.3843135713308547e-05, ,2.0, ,0.6763415036125153, ,0.45907226383135036, ,0.04024407665149691
180, ,PASS, ,0.013268269999999985, ,0.0017692289169766076, ,0.03819961281565682, ,2.3842104135714666e-05, ,2.0, ,0.6791168496660331, ,0.4592967490459378, ,0.055100916307830455
181, ,PASS, ,0.012934370000000008, ,0.0017396329261232689, ,0.03805855996510275, ,2.2875505727831097e-05, ,2.0, ,0.6719562694934016, ,0.4583171772004653, ,0.05014183384012571
182, ,PASS, ,0.013220059999999999, ,0.0017512424069218195, ,0.038013940417338424, ,2.352999250415444e-05, ,2.0, ,0.6810998923977246, ,0.45919471031203446, ,0.05771310789575723
183, ,PASS, ,0.013355110000000003, ,0.001749415781167862, ,0.03814417560927328, ,2.3736274296072605e-05, ,1.9166666666666667, ,0.6676387202118363, ,0.458970225097447, ,0.04355013162996674
184, ,PASS, ,0.01323502, ,0.001747054887869469, ,0.03813955626293341, ,2.3512030782078144e-05, ,2.0, ,0.6768205278741246, ,0.45921511805881515, ,0.05016224158690639
185, ,PASS, ,0.013126429999999994, ,0.001740192873297237, ,0.03814342341809351, ,2.318051575862207e-05, ,2.0, ,0.6768207831302132, ,0.4592763412991572, ,0.04679496336809453
186, ,PASS, ,0.013301320000000005, ,0.0017770614272422773, ,0.03803609654272362, ,2.40156302827852e-05, ,2.0, ,0.6687299759277495, ,0.4587865553764209, ,0.05185608456970266
187, ,PASS, ,0.012941039999999987, ,0.0017754006025832245, ,0.03820362812105876, ,2.333366280375861e-05, ,2.0, ,0.6892855017148181, ,0.4594191955266219, ,0.04918266974143385
188, ,PASS, ,0.01367249999999999, ,0.0018200035633253188, ,0.0379744201232628, ,2.5278069684590076e-05, ,2.0, ,0.6675603620342321, ,0.45752127507601886, ,0.03785637027815759
189, ,PASS, ,0.013556079999999963, ,0.0018353703759035193, ,0.0381319257178425, ,2.5293141592055555e-05, ,2.0, ,0.6807215447548486, ,0.45833758494724597, ,0.040468561866084364
190, ,PASS, ,0.025451049999999992, ,0.0040199476315165815, ,0.03873089422991367, ,0.00010321670838521009, ,1.8333333333333333, ,0.7602613607956583, ,0.4898471459766127, ,0.10395706210077345
191, ,PASS, ,0.05948240500000001, ,0.009018504199594927, ,0.039428562958715135, ,0.0005409811494226205, ,1.8333333333333333, ,0.7410303462435679, ,0.501234668680231, ,0.16162935450296934
192, ,PASS, ,0.017853900000000016, ,0.0025333817291337303, ,0.03797265851860166, ,4.587222795610117e-05, ,1.9166666666666667, ,0.7086035433753385, ,0.46280688149221444, ,0.047407195771514865
193, ,PASS, ,0.017326870000000008, ,0.0024082789446410735, ,0.03811001581028959, ,4.235000681885683e-05, ,1.9166666666666667, ,0.7010047569173576, ,0.4613375237240056, ,0.049794902144854186
194, ,PASS, ,0.01721347, ,0.0024436757243594424, ,0.038059145794779696, ,4.271251234457858e-05, ,1.9166666666666667, ,0.7047226074746504, ,0.4610314075222955, ,0.05812126283137079
195, ,PASS, ,0.01692332, ,0.0023651794475993046, ,0.03807639058019224, ,4.061813053621431e-05, ,1.9166666666666667, ,0.7027299920683505, ,0.461378339217567, ,0.05248872471990368
196, ,PASS, ,0.01687807, ,0.002376598667042092, ,0.03787382983837065, ,4.0723352363134394e-05, ,1.9166666666666667, ,0.6973911967919963, ,0.46123548499010225, ,0.050652027509642664
197, ,PASS, ,0.01712411999999999, ,0.0023788028706433033, ,0.03800403309463072, ,4.1339251646550825e-05, ,2.0, ,0.6944557498422267, ,0.4609497765351728, ,0.048162282402399954
198, ,PASS, ,0.016678899999999993, ,0.0023253210657773675, ,0.03788578877145365, ,3.9330462688663084e-05, ,1.9166666666666667, ,0.7092123287367126, ,0.46282728923899513, ,0.05465194587865554
199, ,PASS, ,0.01683090999999999, ,0.0023266710147415762, ,0.03817263657904941, ,3.973649850074969e-05, ,1.9166666666666667, ,0.7032740708673327, ,0.46199057162098733, ,0.053162180363666045
200, ,PASS, ,0.01703467999999999, ,0.0023782833349128662, ,0.038061562862798715, ,4.107692122474528e-05, ,1.9166666666666667, ,0.7066028279162767, ,0.4630109589600212, ,0.060100814269096546
201, ,PASS, ,0.016870719999999992, ,0.0023813015611999387, ,0.03795379067121079, ,4.078838195567757e-05, ,2.0, ,0.6985599409946357, ,0.46074569906736595, ,0.0542233831962613
202, ,PASS, ,0.01680500999999998, ,0.002320621700259947, ,0.03804537673496459, ,3.955732315462639e-05, ,1.9166666666666667, ,0.7016264805335273, ,0.4622966878226975, ,0.04577457602906063
203, ,PASS, ,0.016746209999999987, ,0.0023113680193427616, ,0.03811421960184486, ,3.92934391340275e-05, ,2.0, ,0.6928271490619465, ,0.46084773780126936, ,0.06028448399012265
204, ,PASS, ,0.016984189999999996, ,0.002373392224843725, ,0.03799920702699945, ,4.0916388111182264e-05, ,2.0, ,0.6954255088654623, ,0.4613987469643477, ,0.05383563600742842
205, ,PASS, ,0.016869939999999996, ,0.0023377099123360686, ,0.037942550569376135, ,4.000272032691666e-05, ,1.9166666666666667, ,0.6977342959751295, ,0.46152119344503173, ,0.05279484092161384
206, ,PASS, ,0.016639779999999993, ,0.0023786759244534073, ,0.037898603638497175, ,4.018223611640339e-05, ,1.9166666666666667, ,0.7055375824669736, ,0.46121507724332156, ,0.057570253668292486
207, ,PASS, ,0.01663561, ,0.0023762782981477924, ,0.037983548590028775, ,4.0116731835332e-05, ,1.9166666666666667, ,0.7105039887388732, ,0.46150078569825104, ,0.04628476969857758
208, ,PASS, ,0.01709428000000001, ,0.0024201488755595524, ,0.03820449150323463, ,4.1986382956004806e-05, ,1.9166666666666667, ,0.7075469388777733, ,0.46243954205016224, ,0.0508969204710108
209, ,PASS, ,0.016944439999999998, ,0.0024446567927463064, ,0.03809494269198588, ,4.203957823684928e-05, ,1.9166666666666667, ,0.7153841599621931, ,0.4618069018999612, ,0.059733474827044344
210, ,PASS, ,0.016859080000000002, ,0.0024329330353433684, ,0.0379379184494194, ,4.1643077772962144e-05, ,1.9166666666666667, ,0.7150614415025249, ,0.46170486316605786, ,0.06246811289565519
211, ,PASS, ,0.016797680000000006, ,0.0023928796382122505, ,0.038025878228199424, ,4.081108218651482e-05, ,1.9166666666666667, ,0.7080576688379878, ,0.4613987469643477, ,0.045713352788718596
212, ,PASS, ,0.016737960000000003, ,0.0023758970778586606, ,0.03794018453541765, ,4.0325518859610914e-05, ,1.9166666666666667, ,0.7026629402178112, ,0.46178649415318057, ,0.03555029489194098
213, ,PASS, ,0.016816909999999987, ,0.0023799436233816647, ,0.038048035140507336, ,4.062744905017724e-05, ,1.9166666666666667, ,0.696196341758704, ,0.46037835962531376, ,0.05183567682292198
214, ,PASS, ,0.016439760000000008, ,0.0023504529591582544, ,0.03789489243239934, ,3.922540718715336e-05, ,1.9166666666666667, ,0.7133288057195716, ,0.4627252505050917, ,0.060447745964368076
215, ,PASS, ,0.016565359999999977, ,0.00231363220791476, ,0.037957999515928244, ,3.887955751722082e-05, ,1.9166666666666667, ,0.6961683364364922, ,0.46050080610599786, ,0.05789677761678333
216, ,PASS, ,0.016823140000000004, ,0.0023231051050236467, ,0.038247168377380056, ,3.966333646200634e-05, ,2.0, ,0.6982780319216738, ,0.46082733005448867, ,0.0405297851064264
217, ,PASS, ,0.016678179999999987, ,0.0023630055895948357, ,0.037922981550172444, ,4.002898019323675e-05, ,1.9166666666666667, ,0.7011302637350874, ,0.46039876737209445, ,0.05779473888287994
218, ,PASS, ,0.016826439999999998, ,0.002413288954225107, ,0.03810006012836473, ,4.117519060258976e-05, ,1.9166666666666667, ,0.7173452756646114, ,0.4627660659986531, ,0.06283545233770739
219, ,PASS, ,0.01696577, ,0.002563131641851566, ,0.03806429598191874, ,4.416985755199735e-05, ,1.9166666666666667, ,0.7390551363299348, ,0.4635823758698802, ,0.06565172139344096
220, ,PASS, ,0.016820179999999994, ,0.0024226274774641994, ,0.038098140897532703, ,4.138739534241942e-05, ,1.9166666666666667, ,0.7168160210161658, ,0.4617660864063999, ,0.04975408665129283
221, ,PASS, ,0.016913159999999997, ,0.0023963954895461, ,0.038063616496193955, ,4.113406769304776e-05, ,1.9166666666666667, ,0.7078064752323247, ,0.46160282443215445, ,0.0568151670374074
222, ,PASS, ,0.016743099999999993, ,0.00238325065656976, ,0.03805751076161711, ,4.048523910239924e-05, ,1.9166666666666667, ,0.7106548740010019, ,0.46197016387420664, ,0.04952960143670537
223, ,PASS, ,0.016573000000000015, ,0.0024010454257477136, ,0.03782236866737414, ,4.039639305667213e-05, ,1.9166666666666667, ,0.7124087973212361, ,0.46029672863819104, ,0.059264096651088755
224, ,PASS, ,0.016770609999999977, ,0.00239171795404796, ,0.03808392670700598, ,4.069074975400135e-05, ,1.9166666666666667, ,0.7140571992069045, ,0.4613579314707863, ,0.05652945858247791
225, ,PASS, ,0.01699325000000001, ,0.0024097730851835144, ,0.038205332571580174, ,4.154700919562789e-05, ,1.9166666666666667, ,0.7053519092305841, ,0.46086814554805006, ,0.04957041693026673
226, ,PASS, ,0.017092359999999997, ,0.0023790503603550025, ,0.038173744630313665, ,4.127499574370452e-05, ,1.9166666666666667, ,0.7003739785585645, ,0.4606232525866819, ,0.050223464827248425
227, ,PASS, ,0.016776619999999992, ,0.0024707603213125276, ,0.0379948671859758, ,4.2021311779680994e-05, ,1.9166666666666667, ,0.7220884773887665, ,0.4626028040244077, ,0.05273361768127181
228, ,PASS, ,0.016670819999999992, ,0.0023887335306417954, ,0.03797600323258709, ,4.043016754155901e-05, ,1.9166666666666667, ,0.7080292317975914, ,0.46048039835921717, ,0.05544784800310198
229, ,PASS, ,0.016741299999999997, ,0.00234824485878404, ,0.038035756550886715, ,3.98814610125488e-05, ,1.9166666666666667, ,0.70526660985558, ,0.46121507724332156, ,0.0514479296340891
230, ,PASS, ,0.016801240000000002, ,0.002385395404301514, ,0.03803145515479276, ,4.070528314096369e-05, ,1.9166666666666667, ,0.6998202312343729, ,0.4593579722862799, ,0.044039917552703006
231, ,PASS, ,0.016623469999999974, ,0.002346906180966472, ,0.03814685708189629, ,3.957708409113696e-05, ,2.0, ,0.704358308103603, ,0.45994979694291954, ,0.0562641578743291
232, ,PASS, ,0.016610999999999994, ,0.0023366312373231312, ,0.038056754530315706, ,3.943766404834711e-05, ,2.0, ,0.7016145998998697, ,0.45984775820901613, ,0.05571314871125079
233, ,PASS, ,0.01660647, ,0.0023007772310880844, ,0.03802904995000102, ,3.879311979152123e-05, ,1.9166666666666667, ,0.7018611388381407, ,0.4604395828656558, ,0.05087651272423012
234, ,PASS, ,0.016528150000000002, ,0.0023252220394039654, ,0.03814706910756924, ,3.905186859201987e-05, ,2.0, ,0.7070051590327797, ,0.46041917511887515, ,0.052325462745658254
235, ,PASS, ,0.016588109999999982, ,0.0022856524213725206, ,0.0380551346599049, ,3.852552808959108e-05, ,2.0, ,0.6862067897699239, ,0.4585824779086141, ,0.040876716801697924
236, ,PASS, ,0.016572879999999984, ,0.002346884180559232, ,0.03816649027754536, ,3.9505367697638486e-05, ,2.0, ,0.7013077834819991, ,0.4592559335523765, ,0.04667251688741046
237, ,PASS, ,0.01715694, ,0.002363638954919237, ,0.03805432225954572, ,4.116766095313005e-05, ,2.0, ,0.6961442300453259, ,0.4601538744107263, ,0.04806024366849656
238, ,PASS, ,0.016816329999999973, ,0.0024068350651555463, ,0.038040103938491054, ,4.110771649119845e-05, ,2.0, ,0.7121625569800861, ,0.46074569906736595, ,0.058019224097467396
239, ,PASS, ,0.01666131999999999, ,0.002393293600614261, ,0.038094057161078346, ,4.052297938567118e-05, ,2.0, ,0.7056016358187416, ,0.4597661272218934, ,0.043692985857431484
240, ,PASS, ,0.016931559999999995, ,0.002369519376988363, ,0.037946720441215484, ,4.070147969229341e-05, ,2.0, ,0.7096475369702473, ,0.46039876737209445, ,0.06038652272402604
241, ,PASS, ,0.017039760000000015, ,0.002425861108166491, ,0.03820259125405604, ,4.198432680095993e-05, ,2.0, ,0.7003668181158756, ,0.45864370114895614, ,0.06385583967674129
242, ,PASS, ,0.01700411999999998, ,0.002376323457570082, ,0.0379979824481133, ,4.1029889677342475e-05, ,2.0, ,0.704546287134563, ,0.46021509765106833, ,0.04914185424787249
243, ,PASS, ,0.016810189999999996, ,0.002368594695721823, ,0.0379946461235485, ,4.044878551541915e-05, ,2.0, ,0.7020899431385165, ,0.45899063284422764, ,0.05634578886145181
244, ,PASS, ,0.016801579999999993, ,0.002400574304368313, ,0.038035916828023916, ,4.092471280539365e-05, ,2.0, ,0.7123950746152453, ,0.460113058917165, ,0.06659047774535214
245, ,PASS, ,0.016987589999999993, ,0.002433470147505051, ,0.03804135887063529, ,4.1991961442922094e-05, ,2.0, ,0.705735557383447, ,0.4588885941103243, ,0.054305014183384015
246, ,PASS, ,0.01692811999999998, ,0.0023794338183203228, ,0.03795972107018224, ,4.091627401411338e-05, ,2.0, ,0.7041851562702571, ,0.45966408848799006, ,0.05328462684435011
247, ,PASS, ,0.01702032999999999, ,0.002501381741072377, ,0.03803145273912777, ,4.326533234550633e-05, ,1.9166666666666667, ,0.7288434266194336, ,0.46168445541927716, ,0.060957939633885024
248, ,PASS, ,0.016958159999999993, ,0.0023894262016206968, ,0.03811876540907328, ,4.114869832510909e-05, ,2.0, ,0.706886947540087, ,0.4599906124364809, ,0.05416215995591927
249, ,PASS, ,0.01681270999999999, ,0.002378753253219792, ,0.03808446064039509, ,4.059078596613901e-05, ,2.0, ,0.7074415313152064, ,0.46003142793004226, ,0.04936633946245995
250, ,PASS, ,0.01739156000000001, ,0.002456415886797004, ,0.03812271873165854, ,4.341716963474053e-05, ,2.0, ,0.7096582567980495, ,0.4605824370931205, ,0.0574682149343891
251, ,PASS, ,0.017360969999999993, ,0.0024559945515092085, ,0.0379911417226179, ,4.32885897393283e-05, ,2.0, ,0.7029784185166588, ,0.4592967490459378, ,0.051427521887308425
252, ,PASS, ,0.016827889999999988, ,0.0023444378469019357, ,0.03803039125466827, ,4.0067378269982565e-05, ,2.0, ,0.706508596933785, ,0.4597253117283321, ,0.057672292402195874
253, ,PASS, ,0.016966980000000003, ,0.0024422648629267426, ,0.03802886058264117, ,4.210401259199069e-05, ,2.0, ,0.7059043949471907, ,0.45762331380992227, ,0.05714169098589825
254, ,PASS, ,0.02050283000000001, ,0.002945946643219226, ,0.03798892553927471, ,6.123412413871324e-05, ,1.9166666666666667, ,0.7196176010579198, ,0.46123548499010225, ,0.053121364870104694
255, ,PASS, ,0.09279314599999994, ,0.015309721663240024, ,0.03794485847986876, ,0.0014341305766317851, ,1.9166666666666667, ,0.7958818563244799, ,0.5073161772208731, ,0.27225974980102446
