Channel, ,Pass/Fail, ,Amplitude, ,Sorting Function Response, ,Mean, ,Variance, ,NPeaksRatio, ,PosIntegralRatio, ,ToT50, ,ToT99
29, ,PASS, ,0.04123870999999997, ,0.006533711604610958, ,0.04099484137874737, ,0.0002729918506847511, ,1.75, ,0.785615385079342, ,0.5430909573274015, ,0.06430481010591621
30, ,PASS, ,0.09130335300000002, ,0.013081010861688395, ,0.045938194111752824, ,0.001214408973895185, ,1.75, ,0.7432956649646582, ,0.5779473888287994, ,0.15756821289361442
31, ,PASS, ,0.10480403999999995, ,0.012913653994064987, ,0.047414288965939466, ,0.0013798474184471504, ,1.6666666666666667, ,0.6809788243431745, ,0.5958857982490153, ,0.06150894879696333
32, ,PASS, ,0.09769045200000002, ,0.012144980988884632, ,0.04703000927674946, ,0.001209568121901137, ,1.6666666666666667, ,0.6831404369373233, ,0.5960898757168221, ,0.06583539111446705
33, ,PASS, ,0.06266863100000006, ,0.009090371664195879, ,0.04405568765943553, ,0.0005790931270337559, ,1.75, ,0.7443971776363032, ,0.5793147078631048, ,0.19817962898716351
34, ,PASS, ,0.051915619999999996, ,0.008465790704571496, ,0.042376648270647535, ,0.00044639926598016795, ,1.8333333333333333, ,0.8015842494474001, ,0.5536621701597927, ,0.1889757351890778
35, ,PASS, ,0.10466214999999995, ,0.013462905932047905, ,0.047107953553805024, ,0.0014349993691541037, ,1.6666666666666667, ,0.7000471255960916, ,0.5861513030346319, ,0.060957939633885024
36, ,PASS, ,0.11493806999999998, ,0.013406875393033077, ,0.04825590092977694, ,0.0015726559811268563, ,1.5833333333333333, ,0.6598824144574665, ,0.6011714046652109, ,0.045672537295157245
37, ,PASS, ,0.10803971999999996, ,0.012755259826395166, ,0.047761436419664904, ,0.0014061203246715677, ,1.5833333333333333, ,0.6627976064164991, ,0.6018448603089733, ,0.049488785943144015
38, ,PASS, ,0.06868376299999998, ,0.009461444762249189, ,0.04444453253382583, ,0.0006611997043818243, ,1.6666666666666667, ,0.7233004822327798, ,0.5837840044080733, ,0.14175220913858902
39, ,PASS, ,0.05224859999999997, ,0.008501999138479705, ,0.0422853322724026, ,0.0004507393195413254, ,1.8333333333333333, ,0.7985868754960456, ,0.5526417828207587, ,0.12971163853798903
40, ,PASS, ,0.1029696, ,0.013398695868030464, ,0.046660729854492766, ,0.0014051139710546203, ,1.75, ,0.704961667902675, ,0.5867431276912716, ,0.07395767433317688
41, ,PASS, ,0.11297412999999999, ,0.013246129178468506, ,0.04778284656598844, ,0.0015270905994011804, ,1.5833333333333333, ,0.6611780198893905, ,0.6015387441072632, ,0.046162323217893514
42, ,PASS, ,0.10595899999999998, ,0.01257352345100195, ,0.04749618740474684, ,0.0013593542815150497, ,1.5833333333333333, ,0.664675625307954, ,0.6019877145364381, ,0.05130507540662436
43, ,PASS, ,0.06639260400000001, ,0.009312172225110974, ,0.04391454598987776, ,0.0006289065243612467, ,1.75, ,0.7307000667979129, ,0.5820697536784963, ,0.1626701495887839
44, ,PASS, ,0.058242404999999976, ,0.009606026355855132, ,0.041953298574110724, ,0.0005670355251030732, ,1.8333333333333333, ,0.8041140299433497, ,0.5494377665761924, ,0.10099793881757516
45, ,PASS, ,0.10242826, ,0.013522510486455856, ,0.04674244807065162, ,0.0014103911572528932, ,1.6666666666666667, ,0.7094225960629755, ,0.5844778677986163, ,0.0696720475092345
46, ,PASS, ,0.11287786999999999, ,0.013236028393382551, ,0.04785945994898063, ,0.0015246509228600557, ,1.5833333333333333, ,0.6613459746145789, ,0.601355074386237, ,0.0472847492908308
47, ,PASS, ,0.10579422999999995, ,0.012634450943508867, ,0.04734504885022755, ,0.0013636897753753687, ,1.5833333333333333, ,0.6672874508717721, ,0.6011101814248688, ,0.0545907226383135
48, ,PASS, ,0.06961547899999997, ,0.009815698714090668, ,0.04411028845839881, ,0.0006949443086749953, ,1.75, ,0.7327717583960117, ,0.581967714944593, ,0.17054753984612558
49, ,PASS, ,0.07072956799999996, ,0.011555343769151146, ,0.04349837723740332, ,0.0008295928712315995, ,1.8333333333333333, ,0.7995264892311632, ,0.5588661455888655, ,0.26042325666823124
50, ,PASS, ,0.11414427000000002, ,0.014135760768022837, ,0.047595148665945594, ,0.001644745757411374, ,1.6666666666666667, ,0.6854341963329443, ,0.5905593763392584, ,0.055182547294953165
51, ,PASS, ,0.12098956, ,0.013833911914891167, ,0.048517125564172155, ,0.0017087496289425322, ,1.5833333333333333, ,0.6517268055395289, ,0.6031917715964981, ,0.042060366114977245
52, ,PASS, ,0.11467476000000001, ,0.013248104043719372, ,0.048056485234382974, ,0.0015512534439066773, ,1.5833333333333333, ,0.6544074148431673, ,0.6051713230342238, ,0.04887655353972368
53, ,PASS, ,0.07671141817999999, ,0.010330605446992543, ,0.04485277100548968, ,0.0008067355169737674, ,1.75, ,0.7160710013280177, ,0.5866614967041489, ,0.11618130242239955
54, ,PASS, ,0.06487316300000003, ,0.010650272689078706, ,0.04298848403848902, ,0.0007015639185335602, ,1.8333333333333333, ,0.8019967762499435, ,0.5567845554172364, ,0.2211383441154262
55, ,PASS, ,0.11192184999999998, ,0.013880957203415362, ,0.0475313663825228, ,0.0015836086358052743, ,1.6666666666666667, ,0.6857647705049006, ,0.5911103855023366, ,0.053958082488112485
56, ,PASS, ,0.11875159, ,0.013587631415171077, ,0.04843132978306565, ,0.001647669620068726, ,1.5833333333333333, ,0.6520424614820168, ,0.6046203138711455, ,0.04481541193036877
57, ,PASS, ,0.11188489999999997, ,0.013004786031501467, ,0.0478726180047346, ,0.0014852908228127142, ,1.5833333333333333, ,0.6568809866928103, ,0.6051305075406624, ,0.04963164017060876
58, ,PASS, ,0.07199748299999999, ,0.009899850620733008, ,0.04443785178282076, ,0.0007253800262064565, ,1.6666666666666667, ,0.7233490412882607, ,0.5841309361033449, ,0.14197669435317647
59, ,PASS, ,0.056968609, ,0.009617358294150164, ,0.042181024408481455, ,0.0005564014439539601, ,1.8333333333333333, ,0.8174996239481523, ,0.5509887553315238, ,0.2085875798453093
60, ,PASS, ,0.11119315999999997, ,0.013900038149074541, ,0.047426049720209786, ,0.0015752577329988663, ,1.6666666666666667, ,0.6892180805244518, ,0.5901512214036448, ,0.05869267974122977
61, ,PASS, ,0.11896794, ,0.01360127743800378, ,0.048338090136323744, ,0.001652101517907444, ,1.5833333333333333, ,0.6518132494741125, ,0.6048652068325137, ,0.04463174220934266
62, ,PASS, ,0.11165008999999995, ,0.012995846030735588, ,0.04786092906389665, ,0.0014810535827067491, ,1.5833333333333333, ,0.6573116468068639, ,0.6045590906308035, ,0.04771331197322504
63, ,PASS, ,0.06999816299999999, ,0.009870974799828031, ,0.04422770287647191, ,0.0007027455028168941, ,1.75, ,0.7339106040605828, ,0.5797840860390604, ,0.1554458072284239
64, ,PASS, ,0.07353062619999998, ,0.011120652012424178, ,0.04382727573620946, ,0.0008320398230604235, ,1.8333333333333333, ,0.7730412013380031, ,0.560988551254056, ,0.1564661945674578
65, ,PASS, ,0.12140693, ,0.014354039551179483, ,0.04808158629660619, ,0.0017780332901526034, ,1.6666666666666667, ,0.6676234944166561, ,0.5951511193649109, ,0.04510112038529826
66, ,PASS, ,0.12549202999999995, ,0.01403914367902803, ,0.04892841347013326, ,0.001799742102869291, ,1.5833333333333333, ,0.6441431237600138, ,0.6064774188281872, ,0.042080773861757924
67, ,PASS, ,0.11884204000000002, ,0.013540772532979684, ,0.048373695746005176, ,0.0016433723706020624, ,1.5833333333333333, ,0.6484049051238827, ,0.6065182343217486, ,0.04514193587885962
68, ,PASS, ,0.072707315, ,0.01023351024062652, ,0.04426347197118426, ,0.0007570999440870013, ,1.75, ,0.7356488611356655, ,0.5782126895369483, ,0.15409889594089918
69, ,PASS, ,0.07893780089999997, ,0.012147683130465225, ,0.0440392565637436, ,0.0009750210880985163, ,1.75, ,0.779204494663719, ,0.5618864921124058, ,0.18122079141242015
70, ,PASS, ,0.11877283, ,0.014154864744084335, ,0.04814160841799147, ,0.0017152308557191924, ,1.6666666666666667, ,0.6705104338568143, ,0.5951919348584723, ,0.047835758453909104
71, ,PASS, ,0.12247151999999994, ,0.013755165906688597, ,0.048755555773963795, ,0.0017206584796919165, ,1.5833333333333333, ,0.6455626446567669, ,0.6069263892573621, ,0.04177465766004775
72, ,PASS, ,0.11545501999999996, ,0.013262428661071905, ,0.048146526631089155, ,0.0015635183463272172, ,1.5833333333333333, ,0.6521552625635874, ,0.6065998653088712, ,0.048162282402399954
73, ,PASS, ,0.06527523000000003, ,0.00946824074236548, ,0.04363064469133284, ,0.0006286276487677575, ,1.75, ,0.747177021936025, ,0.5735801310177343, ,0.17309850819371034
74, ,PASS, ,0.085808803, ,0.013159908687574731, ,0.04448176265382339, ,0.0011478052327937483, ,1.75, ,0.7767438961432936, ,0.5626007632497296, ,0.1784045223566866
75, ,PASS, ,0.11899715000000001, ,0.014199131379680813, ,0.04788212148364318, ,0.0017235945679813876, ,1.6666666666666667, ,0.6714532354068002, ,0.5945184792147099, ,0.04769290422644436
76, ,PASS, ,0.12240328999999994, ,0.013697671322761007, ,0.048724854275422946, ,0.0017126364567097035, ,1.5833333333333333, ,0.6434064912498465, ,0.6068855737638007, ,0.03983592171588335
77, ,PASS, ,0.11492519999999998, ,0.01321297897850505, ,0.047999406743739925, ,0.0015504991605600877, ,1.5833333333333333, ,0.6519810689888347, ,0.6055182547294953, ,0.044488887981877924
78, ,PASS, ,0.068950026, ,0.010383048639299876, ,0.04388209393808289, ,0.0007273765151635946, ,1.75, ,0.7614156784582157, ,0.571069978163711, ,0.20960796718434319
79, ,PASS, ,0.09325934099999997, ,0.013512579607300379, ,0.04512435172690353, ,0.0012825843623445398, ,1.75, ,0.7567627188680295, ,0.5625803555029489, ,0.10907940654272362
80, ,PASS, ,0.12946744999999996, ,0.014869708275824171, ,0.048896937975755596, ,0.00196538933915535, ,1.6666666666666667, ,0.6575425262568989, ,0.5978857574335218, ,0.04175424991326707
81, ,PASS, ,0.13037901999999998, ,0.01435628981264329, ,0.04915348672843411, ,0.0019125357998295042, ,1.5833333333333333, ,0.6377191085703247, ,0.6088447174547458, ,0.038754311136507416
82, ,PASS, ,0.12425009999999999, ,0.013879645971984109, ,0.04887262376114773, ,0.001761760152322559, ,1.5833333333333333, ,0.6404136075149641, ,0.6093140956307014, ,0.039264504806024364
83, ,PASS, ,0.086085152, ,0.011510004137206807, ,0.04527530695393971, ,0.0010087364795985246, ,1.6666666666666667, ,0.7154946789814546, ,0.5830493255239689, ,0.09810003877471889
84, ,PASS, ,0.090020837, ,0.01319627258687689, ,0.04487130697679639, ,0.0012088370370777197, ,1.75, ,0.7618636992752054, ,0.5614783371767923, ,0.11752821370992429
85, ,PASS, ,0.12621207, ,0.014609225770697764, ,0.048626683496663325, ,0.0018823616398135784, ,1.6666666666666667, ,0.6601629030713412, ,0.598191873635232, ,0.045346013346666394
86, ,PASS, ,0.1269635, ,0.014035815120425649, ,0.04906353650986714, ,0.001821049800534349, ,1.5833333333333333, ,0.6389552357649844, ,0.6097018428195343, ,0.04042774637252301
87, ,PASS, ,0.12118728000000001, ,0.013556525443391497, ,0.048730859266341506, ,0.0016784685434472005, ,1.5833333333333333, ,0.6416810255906761, ,0.6108038611456909, ,0.04240729781024877
88, ,PASS, ,0.08225092349999999, ,0.011301475768426291, ,0.04516634848880635, ,0.0009461380699539747, ,1.75, ,0.725979793454129, ,0.5804371339360421, ,0.10795698046978633
89, ,PASS, ,0.09093169100000002, ,0.013427376081483222, ,0.044797668624109714, ,0.0012424322001197076, ,1.8333333333333333, ,0.7652315283869355, ,0.5607436582926879, ,0.13114018081263648
90, ,PASS, ,0.12514261999999998, ,0.014492139209187642, ,0.04863245570947531, ,0.0018511780616954482, ,1.6666666666666667, ,0.6610216754888909, ,0.5976612722189343, ,0.044060325299483685
91, ,PASS, ,0.12628726, ,0.013919032100163518, ,0.04899242956266198, ,0.001796289254767989, ,1.5833333333333333, ,0.6376854743771191, ,0.6100895900083672, ,0.04073386257423318
92, ,PASS, ,0.11989517000000002, ,0.013400035314620428, ,0.04852381647782698, ,0.0016413729083091311, ,1.5833333333333333, ,0.6413539333932234, ,0.6113344625619885, ,0.04267259851839758
93, ,PASS, ,0.07907262905999998, ,0.011169834732745857, ,0.044604609112058935, ,0.0008985089439223485, ,1.75, ,0.7385871836020844, ,0.5767841472623008, ,0.12199751025489276
94, ,PASS, ,0.07784742623999999, ,0.012805039144694013, ,0.043596722616069054, ,0.0010149095112083183, ,1.8333333333333333, ,0.8129542160708324, ,0.5487030876920879, ,0.20432236076814758
95, ,PASS, ,0.12570545999999996, ,0.015149664057703804, ,0.04848264497051081, ,0.0019424301860592463, ,1.6666666666666667, ,0.6771885873582435, ,0.5911307932491173, ,0.049876533131976895
96, ,PASS, ,0.12730098, ,0.014390490330870788, ,0.049012779513887474, ,0.0018708500613165975, ,1.5833333333333333, ,0.648077989177058, ,0.605599885716618, ,0.042427705557029446
97, ,PASS, ,0.11929025000000001, ,0.0138095480711301, ,0.048425291444664384, ,0.0016815376063523144, ,1.5833333333333333, ,0.6558791526236477, ,0.6042121589355319, ,0.04767249647966368
98, ,PASS, ,0.07138106099999998, ,0.01052891389829485, ,0.04390279495214383, ,0.0007643598527070505, ,1.75, ,0.7577659112689736, ,0.5689679802453012, ,0.13746658231464665
99, ,PASS, ,0.06000214500000001, ,0.010671572835900027, ,0.041899193884818664, ,0.0006512906100101085, ,1.9166666666666667, ,0.8433326668364337, ,0.5423154629497358, ,0.18054733576865778
100, ,PASS, ,0.11722933999999997, ,0.014885544251254764, ,0.04773579719964899, ,0.0017780357993933493, ,1.75, ,0.6962217537277289, ,0.5862329340217547, ,0.059713067080263665
101, ,PASS, ,0.12010105000000003, ,0.014083191996284694, ,0.0484946889438991, ,0.0017262172232579373, ,1.5833333333333333, ,0.6618447131484189, ,0.60084488071672, ,0.044856227423930126
102, ,PASS, ,0.11017108, ,0.013311311651546873, ,0.047815391519356744, ,0.0014957834625965243, ,1.6666666666666667, ,0.6715596419157481, ,0.6002326483132997, ,0.054386645170506724
103, ,PASS, ,0.053155669999999995, ,0.00856683775260359, ,0.042280089373278096, ,0.00046217537061487337, ,1.8333333333333333, ,0.7952742179300722, ,0.5616620068978184, ,0.24905614171139365
198, ,PASS, ,0.19979999999999987, ,0.03932438646768741, ,0.036982500623660666, ,0.008325065065532482, ,2.0, ,0.9586105630504199, ,0.5361931389155323, ,0.487296177629028
199, ,PASS, ,0.10630387999999999, ,0.013862957552787708, ,0.038434377475051525, ,0.0016125382807540745, ,1.9166666666666667, ,0.8601160152335182, ,0.5254586641088957, ,0.030754474398481665
200, ,PASS, ,0.10411600999999997, ,0.011987379758527279, ,0.03805868431318137, ,0.0013737005490953233, ,1.9166666666666667, ,0.8483775416720399, ,0.5282545254178486, ,0.02793820534274811
201, ,PASS, ,0.10334766999999997, ,0.012250502158338129, ,0.03803957545100713, ,0.0013881811052772503, ,1.9166666666666667, ,0.8421654489047975, ,0.5279688169629191, ,0.028203506050896922
202, ,PASS, ,0.0997631, ,0.011675430417244602, ,0.03805493110992225, ,0.0012717328519327724, ,1.9166666666666667, ,0.8379688669822863, ,0.5292953205036632, ,0.02522397502091794
203, ,PASS, ,0.08519296000000003, ,0.010132335050839098, ,0.03841970249184139, ,0.0009473346451650854, ,1.9166666666666667, ,0.828047105124064, ,0.5268463908899819, ,0.022101589763474216
204, ,PASS, ,0.08351271599999999, ,0.010752738573618543, ,0.03851057215033407, ,0.0009721978406803502, ,1.9166666666666667, ,0.8322666328786829, ,0.5277443317483317, ,0.029183077896369463
205, ,PASS, ,0.08592899199999997, ,0.011216981518538576, ,0.03846871017106426, ,0.001038584112921741, ,1.9166666666666667, ,0.8325224796832896, ,0.5285606416195587, ,0.027999428583090142
206, ,PASS, ,0.08231745999999997, ,0.010474844140984976, ,0.038462334594671944, ,0.0009287301966574991, ,1.9166666666666667, ,0.8287147167204625, ,0.5295810289585927, ,0.026591294055223362
207, ,PASS, ,0.09171618, ,0.0117824798150817, ,0.03839096923766861, ,0.0011557857992707807, ,1.9166666666666667, ,0.8328775612983793, ,0.5312136487010469, ,0.030346319462868105
208, ,PASS, ,0.06900797040000001, ,0.009053182606812388, ,0.03870930507340666, ,0.0006770582548270647, ,1.9166666666666667, ,0.8256376987190006, ,0.5261933429930001, ,0.028040244076651497
209, ,PASS, ,0.06639480041999998, ,0.00852258420751423, ,0.038635248765331316, ,0.0006147871557955043, ,1.9166666666666667, ,0.8188347168342361, ,0.5260300810187547, ,0.024570927123936246
210, ,PASS, ,0.06423587899999998, ,0.008235980897380306, ,0.03870815554898879, ,0.0005771654594114354, ,1.9166666666666667, ,0.8068385399830299, ,0.5238872676067835, ,0.025346421501602007
211, ,PASS, ,0.07747508399999999, ,0.010124567239696954, ,0.03861367975935757, ,0.0008487034093091793, ,1.9166666666666667, ,0.8128644231102922, ,0.5262137507397808, ,0.02791779759596743
212, ,PASS, ,0.07796837700000003, ,0.010160921220490584, ,0.03857507779457521, ,0.0008545953030704462, ,1.9166666666666667, ,0.8189086268715966, ,0.5272749535723761, ,0.02830554478480031
213, ,PASS, ,0.09496197999999997, ,0.012544952223479126, ,0.038553748370665906, ,0.0012710104150877204, ,1.9166666666666667, ,0.8211740317520664, ,0.5303361155894778, ,0.029652456072325056
214, ,PASS, ,0.09274906, ,0.012203580122462273, ,0.03846063652882594, ,0.001210073800695851, ,1.9166666666666667, ,0.8225475304478916, ,0.5296830676924961, ,0.030162649741842004
215, ,PASS, ,0.10650062000000003, ,0.014334579681342212, ,0.038447239571233235, ,0.0016168459079781113, ,2.0, ,0.8253922793031453, ,0.5319891430787127, ,0.03324421950572437
216, ,PASS, ,0.08888922000000002, ,0.011820476271709658, ,0.03851617187616579, ,0.0011234137396452077, ,1.9166666666666667, ,0.8219578868124878, ,0.5295198057182506, ,0.031366706801902004
217, ,PASS, ,0.10070473999999999, ,0.013620829914681424, ,0.038529771098549014, ,0.0014545002844994091, ,2.0, ,0.8265662493259143, ,0.5316013958898798, ,0.032570763861962
218, ,PASS, ,0.09836622000000002, ,0.013178132734181296, ,0.03843749570225098, ,0.0013775213322761786, ,1.9166666666666667, ,0.8243361620440701, ,0.5309687557396788, ,0.032550356115181325
219, ,PASS, ,0.09785946000000001, ,0.013212640913283181, ,0.03853990136701292, ,0.0013745291999427364, ,2.0, ,0.8231016886555321, ,0.5304993775637232, ,0.03399930613660946
220, ,PASS, ,0.056609346000000005, ,0.007484971461758982, ,0.038661427775147444, ,0.0004605999019257506, ,1.9166666666666667, ,0.8136494945157873, ,0.5240301218342482, ,0.027999428583090142
221, ,PASS, ,0.07038677484, ,0.009274522494917042, ,0.038630643561621186, ,0.0007054059135740679, ,1.9166666666666667, ,0.8167804291144284, ,0.5262545662333422, ,0.028427991265484377
222, ,PASS, ,0.05845448799999999, ,0.007640463387007872, ,0.03864205652394849, ,0.00048544180112801297, ,1.9166666666666667, ,0.8118819189395258, ,0.5243566457827391, ,0.025856615171118955
223, ,PASS, ,0.07486001700000006, ,0.009870983449090738, ,0.03850976307692741, ,0.000791683211956818, ,1.9166666666666667, ,0.8245235587128148, ,0.5292340972633212, ,0.029815718046570478
224, ,PASS, ,0.10979492, ,0.015144781448882202, ,0.03878932539152262, ,0.001742421443387983, ,2.0, ,0.8356910412225462, ,0.5352747903104018, ,0.03616252729536132
225, ,PASS, ,0.09148949999999999, ,0.012414202856671677, ,0.038610429389257364, ,0.0011986697424246997, ,2.0, ,0.831616656671254, ,0.5332544233791147, ,0.03518295544988878
226, ,PASS, ,0.09676357000000001, ,0.012967009137203705, ,0.038608283157486586, ,0.001321707626647068, ,2.0, ,0.8295417261901318, ,0.5343360339584906, ,0.03399930613660946
227, ,PASS, ,0.13243812999999993, ,0.018622017067332318, ,0.03946958496744964, ,0.0025496454173038223, ,1.9166666666666667, ,0.8421439114879363, ,0.541662415052754, ,0.039550213260953856
228, ,PASS, ,0.10153399, ,0.013861769966774495, ,0.03868112066427216, ,0.0014748600657265474, ,2.0, ,0.8339089909036849, ,0.5356625374992348, ,0.03363196669455725
229, ,PASS, ,0.09552826999999997, ,0.012941898904273854, ,0.03871617242341993, ,0.0012985169263832594, ,2.0, ,0.8317261145514868, ,0.5349890818554723, ,0.03473398502071386
230, ,PASS, ,0.07436433200000005, ,0.009895795124693503, ,0.03861046309748128, ,0.0007862138156795942, ,1.9166666666666667, ,0.8214311897108012, ,0.529560621211812, ,0.03061162017101692
231, ,PASS, ,0.13393078999999997, ,0.019009720637368263, ,0.03973582044223588, ,0.0026282254090968264, ,1.9166666666666667, ,0.8428306058206322, ,0.5425807636578845, ,0.04250933654415216
232, ,PASS, ,0.08920005000000002, ,0.012363425833568286, ,0.038772111310299784, ,0.0011626225209077166, ,2.0, ,0.832469717821754, ,0.5327238219628171, ,0.03444827656578437
233, ,PASS, ,0.08989199000000002, ,0.012359775206455507, ,0.038653323091283845, ,0.001171399667640733, ,2.0, ,0.83124691186078, ,0.5327850452031592, ,0.035815595600089796
234, ,PASS, ,0.08846694000000004, ,0.012190281056870738, ,0.03876593592457297, ,0.001136925562399725, ,2.0, ,0.8312816912177277, ,0.5328666761902818, ,0.03567274137262505
235, ,PASS, ,0.09708383, ,0.013231698714624825, ,0.038671906388645136, ,0.0013496552050826192, ,2.0, ,0.8248987023789454, ,0.5339891022632192, ,0.03404012163017081
236, ,PASS, ,0.077499918, ,0.01055183950437825, ,0.03873999339122997, ,0.0008716463289561338, ,1.9166666666666667, ,0.8163947932210283, ,0.5288055345809269, ,0.029468786351298952
237, ,PASS, ,0.10220541, ,0.014137375841912908, ,0.03884728450460194, ,0.001514418313474742, ,2.0, ,0.8269814088324408, ,0.5342339952245873, ,0.03442786881900369
238, ,PASS, ,0.09324508, ,0.012622478259494795, ,0.038587728508520235, ,0.0012461068543285561, ,1.9166666666666667, ,0.8147350286495625, ,0.5306014162976266, ,0.031019775106630478
239, ,PASS, ,0.10521333000000004, ,0.014467280970817993, ,0.038817320679169806, ,0.0015949699476968465, ,2.0, ,0.8234224572272942, ,0.5340707332503418, ,0.03324421950572437
240, ,PASS, ,0.07898111499999999, ,0.010418854284749353, ,0.03857908811938736, ,0.0008763332606795064, ,1.9166666666666667, ,0.8190405765868144, ,0.5304789698169425, ,0.029325932123834206
241, ,PASS, ,0.13803746999999994, ,0.01885525093638214, ,0.03918744206852921, ,0.0026878976337758125, ,2.0, ,0.836960808423904, ,0.5430093263402788, ,0.03816248647986776
242, ,PASS, ,0.11114002, ,0.014657083138328092, ,0.03845793636252321, ,0.0017074663961503217, ,2.0, ,0.8322057877534349, ,0.5366012938511459, ,0.035101324462766065
243, ,PASS, ,0.19979939999999985, ,0.03007494536253463, ,0.04172377792453214, ,0.00616620205827559, ,1.9166666666666667, ,0.8522211663919318, ,0.5509275320911818, ,0.06263137486990061
244, ,PASS, ,0.15231049999999993, ,0.01990229270406382, ,0.03840637752229546, ,0.003136008851107512, ,2.0, ,0.8418544054205211, ,0.5440909369196547, ,0.038407379441235893
245, ,PASS, ,0.14304447999999997, ,0.01995891845409579, ,0.03918816502806065, ,0.002957719702209398, ,2.0, ,0.8532932966577181, ,0.5412542601171405, ,0.04489704291749148
246, ,PASS, ,0.17774369000000007, ,0.025408787810173864, ,0.03984475536438031, ,0.004655704728901461, ,1.9166666666666667, ,0.8606797395177217, ,0.5458664108895737, ,0.051815269076141306
