Channel, ,Pass/Fail, ,Amplitude, ,Sorting Function Response, ,Mean, ,Variance, ,NPeaksRatio, ,PosIntegralRatio, ,ToT50, ,ToT99
0, ,PASS, ,0.05145826999999998, ,0.0068702129804473, ,0.03680299087753311, ,0.0003574454679565763, ,1.75, ,0.676015435727106, ,0.4542764433378911, ,0.06344768474112773
1, ,PASS, ,0.05054538999999998, ,0.006730626210326527, ,0.03688711363666048, ,0.0003440351258942899, ,1.75, ,0.6718304442989294, ,0.45366421093447074, ,0.06036611497724536
2, ,PASS, ,0.050270180000000005, ,0.006662938237797811, ,0.036700402126079064, ,0.0003387604650316702, ,1.75, ,0.6698705691562307, ,0.4531132017713924, ,0.06036611497724536
3, ,PASS, ,0.04974694000000001, ,0.00656885201439795, ,0.03676396964837453, ,0.0003304650148843958, ,1.75, ,0.6667431148645876, ,0.4529703475439277, ,0.058141670578151464
4, ,PASS, ,0.049199829999999986, ,0.006503952306002332, ,0.03669526899348993, ,0.0003235910769554376, ,1.75, ,0.6673251862354966, ,0.45280708556968224, ,0.0633864615007857
5, ,PASS, ,0.049031149999999996, ,0.00647769656643387, ,0.036817130668149636, ,0.0003212184667748487, ,1.75, ,0.667218184146134, ,0.4522764841533846, ,0.0662435460500806
6, ,PASS, ,0.0486342, ,0.0064266211637097, ,0.036803722349747964, ,0.0003162497484171132, ,1.75, ,0.6659857807779194, ,0.4523989306340687, ,0.06452929532050367
7, ,PASS, ,0.0487368, ,0.006397299189910321, ,0.0368273727905553, ,0.00031539836876593385, ,1.75, ,0.6616433814348794, ,0.45125609681435075, ,0.06452929532050367
8, ,PASS, ,0.04830780999999999, ,0.006354368313712676, ,0.036801743397685764, ,0.00031056904870203856, ,1.75, ,0.6631192506113002, ,0.45160302850962225, ,0.06234566641497112
9, ,PASS, ,0.048466829999999975, ,0.006364839148776014, ,0.03674125967837392, ,0.0003121587391763525, ,1.75, ,0.663341458084025, ,0.4517866982306484, ,0.06450888757372299
10, ,PASS, ,0.04834431, ,0.006351118985491066, ,0.03671727524438277, ,0.00031068464563445956, ,1.75, ,0.6623797685314731, ,0.45105201934654393, ,0.06348850023468909
11, ,PASS, ,0.04827817000000001, ,0.006367212174358961, ,0.03697214409297769, ,0.00031102927008253207, ,1.75, ,0.664452035454479, ,0.4513989510418155, ,0.06340686924756637
12, ,PASS, ,0.04836620000000001, ,0.006346677226210853, ,0.03660731878410645, ,0.0003106678271343959, ,1.75, ,0.6657493896474734, ,0.45235811514050733, ,0.06405991714454808
13, ,PASS, ,0.04851873999999999, ,0.006399081704181166, ,0.03679663103079529, ,0.0003141838551555758, ,1.75, ,0.6660956573833909, ,0.45194996020489375, ,0.06834554396849044
14, ,PASS, ,0.04860587000000003, ,0.006415456043536971, ,0.03692236521336299, ,0.0003153946387078182, ,1.75, ,0.6669433813000848, ,0.4524805616211914, ,0.067549641844044
15, ,PASS, ,0.04894709999999999, ,0.006439128781597951, ,0.03682373272953614, ,0.00031885941156045385, ,1.75, ,0.6681194367037314, ,0.4530927940246117, ,0.07063121160792638
16, ,PASS, ,0.04865521999999999, ,0.006419793940598263, ,0.03686601940184894, ,0.00031597329652162, ,1.75, ,0.6657550914667586, ,0.4521336299259199, ,0.0637538009428379
17, ,PASS, ,0.048995029999999995, ,0.006466233890236378, ,0.03686353831962613, ,0.0003204310115826207, ,1.75, ,0.6647080506219273, ,0.4519295524581131, ,0.06114160935491112
18, ,PASS, ,0.048843080000000004, ,0.006454843274339566, ,0.03669929839288994, ,0.000318925127064239, ,1.75, ,0.6683790428707934, ,0.4530519785310504, ,0.06589661435480909
19, ,PASS, ,0.04855878000000002, ,0.00641002518799267, ,0.036886412113630335, ,0.00031487307738874, ,1.75, ,0.6651110711384827, ,0.45199077569845514, ,0.06279463684414603
20, ,PASS, ,0.04836650000000002, ,0.006380891436186742, ,0.0365869197600049, ,0.0003122283711714187, ,1.75, ,0.6645699567652057, ,0.4515418052692802, ,0.06326401502010164
21, ,PASS, ,0.04846305999999999, ,0.006411504440639771, ,0.03676713332238118, ,0.0003143871610734073, ,1.75, ,0.6649257976966644, ,0.4518479214709904, ,0.06691700169384299
22, ,PASS, ,0.04866220000000001, ,0.006389281711077442, ,0.03674598761841595, ,0.00031463088497938555, ,1.75, ,0.6646513949057715, ,0.4517662904838677, ,0.06399869390420604
23, ,PASS, ,0.04862563000000001, ,0.006398891425887125, ,0.036830678151670376, ,0.0003148461436085516, ,1.75, ,0.6648795229025545, ,0.45168465949674497, ,0.06508030448358197
24, ,PASS, ,0.04846255999999999, ,0.006362286884880747, ,0.03670863490132855, ,0.0003118249746245983, ,1.75, ,0.6627361793813608, ,0.4517866982306484, ,0.060896716393542986
25, ,PASS, ,0.04864686, ,0.0064012798601895, ,0.036838697269443485, ,0.00031508577004803385, ,1.75, ,0.6634055314741204, ,0.45113365033366665, ,0.0655088671659762
26, ,PASS, ,0.04848015, ,0.006386859181850114, ,0.036879278346564355, ,0.0003132474897598494, ,1.75, ,0.6661414824395079, ,0.45215403767270057, ,0.06501908124323993
27, ,PASS, ,0.04868148000000001, ,0.0064100401960377855, ,0.036763309300626525, ,0.00031568681319304006, ,1.75, ,0.6652453501903356, ,0.45203159119201647, ,0.06518234321748535
28, ,PASS, ,0.048318890000000024, ,0.006363935387677467, ,0.036571531865268056, ,0.0003110874520023655, ,1.75, ,0.6638261454829022, ,0.4514193587885961, ,0.06385583967674129
29, ,PASS, ,0.048550809999999986, ,0.006397923314861373, ,0.03666316893900125, ,0.0003143602864954783, ,1.75, ,0.6644013834232821, ,0.45162343625640294, ,0.06687618620028163
30, ,PASS, ,0.04851963, ,0.00638735997816249, ,0.03683923882961573, ,0.00031357927277094984, ,1.75, ,0.6660820753055597, ,0.4518479214709904, ,0.0659782453419318
31, ,PASS, ,0.048584930000000026, ,0.0063794555005127285, ,0.036754697567396584, ,0.00031362516594984533, ,1.75, ,0.6660264039983397, ,0.4526438235954368, ,0.0653251974449501
32, ,PASS, ,0.048295680000000035, ,0.006362362305422825, ,0.03654505913348707, ,0.00031082135791155393, ,1.75, ,0.6651548598635841, ,0.45199077569845514, ,0.06730474888267586
33, ,PASS, ,0.04872396999999998, ,0.006405747532827029, ,0.03677163665578254, ,0.0003159320371332031, ,1.75, ,0.6647831787510814, ,0.4514397665353768, ,0.06554968265953756
34, ,PASS, ,0.049253149999999996, ,0.0065240913386810095, ,0.03669700435031938, ,0.00032502808018996236, ,1.75, ,0.6698535163207604, ,0.45317442501173444, ,0.06544764392563417
35, ,PASS, ,0.04866614000000001, ,0.006402104898506455, ,0.03655660207852901, ,0.0003152340663069854, ,1.75, ,0.6626693501384331, ,0.451745882737087, ,0.06430481010591621
36, ,PASS, ,0.048476439999999996, ,0.006353280089845872, ,0.03667970177282096, ,0.00031155901820519055, ,1.75, ,0.6639656292095492, ,0.4514601742821575, ,0.06416195587845146
37, ,PASS, ,0.04851593000000001, ,0.00638019761520902, ,0.0366286884241138, ,0.00031322722948325446, ,1.75, ,0.6634721993813746, ,0.4513989510418155, ,0.06457011081406502
38, ,PASS, ,0.048290910000000006, ,0.006348817807506521, ,0.03690843108528398, ,0.0003101863627027069, ,1.75, ,0.6643306388828812, ,0.4516642517499643, ,0.06465174180118773
39, ,PASS, ,0.04827919000000002, ,0.006328373510820582, ,0.0366281903287688, ,0.0003092403665546368, ,1.75, ,0.6641640181626789, ,0.45197036795167445, ,0.0673659721230179
40, ,PASS, ,0.04856386000000002, ,0.00634951580257855, ,0.03632290989694088, ,0.0003120707812740781, ,1.75, ,0.6612268438246816, ,0.45125609681435075, ,0.06120283259525316
41, ,PASS, ,0.04868204000000004, ,0.006398816642370364, ,0.036371831388543094, ,0.00031526981363511953, ,1.75, ,0.6652678541244013, ,0.4522356686598233, ,0.06512111997714333
42, ,PASS, ,0.04946396999999998, ,0.006533569622750181, ,0.03664726523621967, ,0.0003269765937179538, ,1.75, ,0.6673736688165468, ,0.45205199893879716, ,0.06430481010591621
43, ,PASS, ,0.04901742000000001, ,0.0064097881085623965, ,0.03658371827799433, ,0.0003179541055540241, ,1.75, ,0.6628988922360717, ,0.45170506724352566, ,0.06195791922613824
44, ,PASS, ,0.04865520000000003, ,0.006391080155269461, ,0.03646445383012592, ,0.00031468827934559703, ,1.75, ,0.661890728226966, ,0.45123568906757006, ,0.06230485092140977
45, ,PASS, ,0.04888071000000002, ,0.006414221583717067, ,0.0365891832768719, ,0.0003171975674976204, ,1.75, ,0.6634168283034206, ,0.4515418052692802, ,0.06426399461235485
46, ,PASS, ,0.049014040000000016, ,0.0064376175329101445, ,0.036432584770718965, ,0.00031929685759046105, ,1.75, ,0.6637757272416964, ,0.45199077569845514, ,0.06552927491275688
47, ,PASS, ,0.04919548999999999, ,0.006437781419948357, ,0.036460723899308184, ,0.00032062345199340475, ,1.75, ,0.6637980532103701, ,0.451807105977429, ,0.06326401502010164
48, ,PASS, ,0.048934430000000015, ,0.0064122028360028525, ,0.03640670433705435, ,0.0003175556587874116, ,1.75, ,0.6605731198212283, ,0.45074590314483376, ,0.06224362768106773
49, ,PASS, ,0.04920159, ,0.006493496740297393, ,0.03640522858451869, ,0.0003234022468012448, ,1.75, ,0.6641380627861057, ,0.45125609681435075, ,0.06297830656517214
50, ,PASS, ,0.04908258, ,0.0064989426747409, ,0.03644135189302259, ,0.0003227599921159284, ,1.75, ,0.6689062776654311, ,0.4522560764066039, ,0.07128425950490806
51, ,PASS, ,0.04922244999999998, ,0.006485181012195101, ,0.03660286203934614, ,0.0003230892990459839, ,1.75, ,0.6638979233314852, ,0.45125609681435075, ,0.06610069182261587
52, ,PASS, ,0.04913092000000001, ,0.006444814236303929, ,0.03662196332972797, ,0.00032042924333842125, ,1.75, ,0.662640821252372, ,0.4510316115997633, ,0.060937531887104344
53, ,PASS, ,0.04900324000000001, ,0.0064384485565392845, ,0.03641283207485562, ,0.0003193791542264359, ,1.75, ,0.6643496073502949, ,0.45158262076284156, ,0.06732515662945654
54, ,PASS, ,0.04903611, ,0.006420104849209851, ,0.03647483460398768, ,0.00031871947542540284, ,1.75, ,0.6617966011337804, ,0.45076631089161445, ,0.06112120160813045
55, ,PASS, ,0.04921086999999999, ,0.006426897518701462, ,0.0363280297618416, ,0.0003203364713077188, ,1.75, ,0.6594629725280676, ,0.45005203975429076, ,0.06536601293851146
56, ,PASS, ,0.04886085, ,0.006393506705211413, ,0.0364013249388788, ,0.0003161898044439836, ,1.75, ,0.6592691227925622, ,0.45076631089161445, ,0.05995796004163181
57, ,PASS, ,0.049248639999999996, ,0.006429046671346433, ,0.036406417856982516, ,0.00032056805384351073, ,1.75, ,0.6602701192206203, ,0.45005203975429076, ,0.06185588049223485
58, ,PASS, ,0.049447599999999994, ,0.006463566813581682, ,0.03646523028897369, ,0.00032356376552575544, ,1.75, ,0.6633047050183919, ,0.4510316115997633, ,0.06450888757372299
59, ,PASS, ,0.04934149999999998, ,0.0064695610678108745, ,0.03664258011795678, ,0.00032330455899898285, ,1.75, ,0.6636526298475873, ,0.4507254953980531, ,0.0671823024019918
60, ,PASS, ,0.05001457000000001, ,0.006475718909202538, ,0.036413479190016536, ,0.0003277693097894887, ,1.75, ,0.6596598691402005, ,0.4509295728658599, ,0.06799861227321892
61, ,PASS, ,0.04999945, ,0.006556592825158791, ,0.036401563207893714, ,0.00033188946253506893, ,1.75, ,0.6626595988126098, ,0.4505622334238077, ,0.06401910165098672
62, ,PASS, ,0.04982033000000001, ,0.0065681014980589585, ,0.03640728389787964, ,0.00033119944606232294, ,1.75, ,0.6660830215441884, ,0.45035815595600087, ,0.06446807208016163
63, ,PASS, ,0.04996606000000002, ,0.006561961515276439, ,0.03638777850370401, ,0.00033193021177688393, ,1.75, ,0.6621293081684122, ,0.45080712638517584, ,0.06379461643639926
64, ,PASS, ,0.049877930000000015, ,0.006541365728986686, ,0.03650300769963879, ,0.00033035877536247225, ,1.75, ,0.6620714681023856, ,0.4502765249688782, ,0.06538642068529214
65, ,PASS, ,0.050027859999999987, ,0.006569997733709207, ,0.03651771481194262, ,0.0003327406144926024, ,1.75, ,0.6604251988711208, ,0.45001122426072937, ,0.05863145650088774
66, ,PASS, ,0.050014220000000005, ,0.006545240124674734, ,0.03640394335727843, ,0.0003313096571708919, ,1.75, ,0.6636901547226592, ,0.45031734046243954, ,0.06595783759515111
67, ,PASS, ,0.05043377000000004, ,0.0065890410090919446, ,0.036530210148568394, ,0.00033658164894453734, ,1.75, ,0.6606781875940783, ,0.45039897144956226, ,0.0590396114365013
68, ,PASS, ,0.05018615, ,0.006548442057306828, ,0.03631459482724843, ,0.0003328312561250122, ,1.8333333333333333, ,0.6631250317972027, ,0.45003163200751006, ,0.0670802636680884
69, ,PASS, ,0.05010426, ,0.006573225682275784, ,0.03640796122936267, ,0.0003334982125503617, ,1.75, ,0.6603373562477313, ,0.4496234770718965, ,0.05832534029917757
70, ,PASS, ,0.05024169, ,0.006571383967463095, ,0.036449208391869554, ,0.00033431445039750054, ,1.75, ,0.6599614930324607, ,0.44986837003326463, ,0.05744780718760842
71, ,PASS, ,0.05028391, ,0.006595508052999804, ,0.03650775570314892, ,0.00033586051514244893, ,1.75, ,0.6626132287665942, ,0.4501948939817555, ,0.0653251974449501
72, ,PASS, ,0.05036106999999999, ,0.006593971689523217, ,0.03625771885818657, ,0.00033630647103726917, ,1.75, ,0.6591892027172944, ,0.44937858411052833, ,0.06112120160813045
73, ,PASS, ,0.05071547999999999, ,0.006609084525811469, ,0.03634442001285688, ,0.00033929935661785454, ,1.75, ,0.6600861789186263, ,0.45003163200751006, ,0.062100773453602987
74, ,PASS, ,0.05050065000000001, ,0.006642678110724513, ,0.03618566170506724, ,0.0003396922409605911, ,1.75, ,0.662792134830465, ,0.44984796228648394, ,0.06365176220893451
75, ,PASS, ,0.05080616, ,0.0066578151663493025, ,0.03632217245974572, ,0.00034246707319692134, ,1.75, ,0.6615885723442797, ,0.4497459235525806, ,0.06238648190853248
76, ,PASS, ,0.05146904999999996, ,0.006743807050374734, ,0.03644275285239077, ,0.0003514964659863378, ,1.8333333333333333, ,0.6610045709230166, ,0.44907246790881816, ,0.06405991714454808
77, ,PASS, ,0.06221341600000003, ,0.00819214363506541, ,0.035885213068406766, ,0.0005158643458583332, ,1.75, ,0.6678859542023002, ,0.4513989510418155, ,0.06316197628619824
78, ,PASS, ,0.10854132999999999, ,0.014465449897521335, ,0.03459859965817024, ,0.001587040865112436, ,1.9166666666666667, ,0.676923979586117, ,0.45521519968980223, ,0.06016203750943858
79, ,PASS, ,0.05184900999999997, ,0.00671708810239992, ,0.03609816073529112, ,0.0003531133198330819, ,1.8333333333333333, ,0.6492949469459974, ,0.44717454745821517, ,0.0562641578743291
80, ,PASS, ,0.05027169000000003, ,0.00649883841421669, ,0.03621083019142467, ,0.0003313536087087506, ,1.8333333333333333, ,0.6486284719228708, ,0.446868431256505, ,0.065141527723924
81, ,PASS, ,0.05035621999999999, ,0.006490853598789794, ,0.03608003191506296, ,0.0003314561787785183, ,1.8333333333333333, ,0.6467842137029042, ,0.44709291647109245, ,0.058427379033080956
82, ,PASS, ,0.050282159999999985, ,0.006533787434590785, ,0.03610515539703272, ,0.0003332617902615546, ,1.8333333333333333, ,0.6494123481354576, ,0.44697046999040835, ,0.06354972347503113
83, ,PASS, ,0.050252240000000004, ,0.006488402896937172, ,0.03597120234566642, ,0.00033061231698026944, ,1.8333333333333333, ,0.6486731939493509, ,0.4472561784453378, ,0.06152935654374401
84, ,PASS, ,0.05021252000000002, ,0.006504716092856058, ,0.035988282646476605, ,0.0003312348493785872, ,1.8333333333333333, ,0.6456692140078792, ,0.44652149956123344, ,0.05873349523479113
85, ,PASS, ,0.05021688, ,0.0065222691904937525, ,0.036141462713209935, ,0.0003321769398681857, ,1.8333333333333333, ,0.6485509549847079, ,0.4471541397114345, ,0.060896716393542986
86, ,PASS, ,0.05008579000000002, ,0.006503232228592902, ,0.03610369742699129, ,0.0003303574309032283, ,1.8333333333333333, ,0.6494551656929398, ,0.4476235178873901, ,0.06520275096426603
87, ,PASS, ,0.05009389, ,0.006489169655484465, ,0.03595474207914125, ,0.0003296999407445222, ,1.8333333333333333, ,0.6497274700720133, ,0.44735821717924124, ,0.06189669598579621
88, ,PASS, ,0.007381659999999998, ,0.0002299639692541123, ,0.038289226296402114, ,1.8612530012944616e-06, ,0.75, ,0.22085670847914432, ,0.6078039223689312, ,0.009387563519111854
89, ,PASS, ,0.04955358000000002, ,0.006401725063993109, ,0.036111059588987984, ,0.00032157203611156144, ,1.8333333333333333, ,0.6486933462365246, ,0.4481133038101263, ,0.058039631844248075
90, ,PASS, ,0.04949738, ,0.0064161239825003625, ,0.036209798529213695, ,0.00032205172308502286, ,1.8333333333333333, ,0.64658106581821, ,0.4472765861921185, ,0.05920287341074672
91, ,PASS, ,0.04956123999999998, ,0.0063992024546640405, ,0.036250864192159345, ,0.0003215786639996551, ,1.8333333333333333, ,0.645198862163809, ,0.4472765861921185, ,0.060059998775535195
92, ,PASS, ,0.04943887999999999, ,0.006385270920109849, ,0.03609096265300709, ,0.0003201963929960809, ,1.8333333333333333, ,0.6470216477373829, ,0.44752147915348667, ,0.0677333115650701
93, ,PASS, ,0.04978877000000001, ,0.006386710855191232, ,0.036207087628211676, ,0.0003223947083275598, ,1.8333333333333333, ,0.6448728267863792, ,0.44780718760841615, ,0.05775392338931858
94, ,PASS, ,0.04964015000000002, ,0.006383525016963016, ,0.0361086611348748, ,0.0003212117055813492, ,1.8333333333333333, ,0.645600981198961, ,0.4476643333809514, ,0.0594069508785535
95, ,PASS, ,0.04945085000000002, ,0.006387873507202475, ,0.036219196438440036, ,0.00032029670118409226, ,1.8333333333333333, ,0.6459467011405201, ,0.44733780943246054, ,0.060141629762657904
96, ,PASS, ,0.049600910000000005, ,0.00640097828472154, ,0.0360978379549397, ,0.0003219704053790389, ,1.8333333333333333, ,0.6461762715148163, ,0.44735821717924124, ,0.05946817411889553
97, ,PASS, ,0.04987487000000001, ,0.006458392433906299, ,0.036240542014448686, ,0.00032670357424050304, ,1.8333333333333333, ,0.6515869210041372, ,0.44819493479724903, ,0.06193751147935756
98, ,PASS, ,0.049547719999999996, ,0.006432568014588751, ,0.03614559374686231, ,0.0003231124387601411, ,1.8333333333333333, ,0.6492017571631808, ,0.44741944041958326, ,0.06073345441929757
99, ,PASS, ,0.04929247, ,0.006384179150075374, ,0.036158706249872455, ,0.00031905599866024977, ,1.8333333333333333, ,0.6477100931894348, ,0.44780718760841615, ,0.059162057917185366
100, ,PASS, ,0.04893368000000002, ,0.006344833543158475, ,0.03613048046794964, ,0.0003148704933951321, ,1.8333333333333333, ,0.6481102215853138, ,0.4477459643680741, ,0.062202812187506375
101, ,PASS, ,0.04911660999999999, ,0.00635361507475623, ,0.03622915379726945, ,0.00031651761824495793, ,1.8333333333333333, ,0.6476071635536403, ,0.44735821717924124, ,0.06252933613599722
102, ,PASS, ,0.04893889000000001, ,0.006336955508773146, ,0.03609115629885105, ,0.00031444145664596116, ,1.8333333333333333, ,0.6477901632373727, ,0.44792963408910025, ,0.060121222015877225
103, ,PASS, ,0.048921070000000004, ,0.006333724512015322, ,0.036434823034019716, ,0.0003142541799232272, ,1.8333333333333333, ,0.6466214317285681, ,0.44746025591314464, ,0.05942735862533418
104, ,PASS, ,0.04899866, ,0.006327088479905875, ,0.03626275826493337, ,0.00031451963915726875, ,1.8333333333333333, ,0.6444579601241158, ,0.4468480235097243, ,0.060447745964368076
105, ,PASS, ,0.04937217000000001, ,0.006373066873854158, ,0.03628923397951062, ,0.0003190215531860029, ,1.8333333333333333, ,0.645779671467448, ,0.44743984816636395, ,0.058917164955817225
106, ,PASS, ,0.049545539999999985, ,0.006440907695199203, ,0.03612126764372156, ,0.0003235283745605929, ,1.8333333333333333, ,0.6508828714196812, ,0.44746025591314464, ,0.06336605375400502
107, ,PASS, ,0.04917164000000002, ,0.006351708996955062, ,0.03605051698434726, ,0.00031676704173781814, ,1.8333333333333333, ,0.6430774705624227, ,0.4469092467500663, ,0.05622334238076774
108, ,PASS, ,0.049121769999999995, ,0.006331117860600358, ,0.03617567068610845, ,0.000315354190703752, ,1.8333333333333333, ,0.6442199243361747, ,0.44746025591314464, ,0.06024366849656129
109, ,PASS, ,0.04928934, ,0.0063603220554011445, ,0.036378180628354524, ,0.00031784789633571665, ,1.8333333333333333, ,0.6456635016591531, ,0.4476847411277321, ,0.060549784698271464
110, ,PASS, ,0.04908968000000003, ,0.006344074923422171, ,0.03608463517744536, ,0.00031567828438359416, ,1.8333333333333333, ,0.6473474253970073, ,0.4481133038101263, ,0.06118242484847248
111, ,PASS, ,0.04890307999999999, ,0.006342575797211493, ,0.03625684812493623, ,0.0003144313420296151, ,1.8333333333333333, ,0.648376106799604, ,0.44778677986163545, ,0.0633864615007857
112, ,PASS, ,0.04895698000000001, ,0.006298394408397687, ,0.03613416681965675, ,0.00031257803590057276, ,1.8333333333333333, ,0.6451884407704714, ,0.44780718760841615, ,0.059223281157527397
113, ,PASS, ,0.04926421000000001, ,0.006340287909440307, ,0.03615891978306565, ,0.00031671612594368694, ,1.8333333333333333, ,0.6441155162230282, ,0.44737862492602193, ,0.056835574784188075
114, ,PASS, ,0.049645550000000024, ,0.00645741129053376, ,0.03626057041774658, ,0.0003249860746751715, ,1.8333333333333333, ,0.6534680174345537, ,0.44837860451827516, ,0.0640395093977674
115, ,PASS, ,0.048813419999999996, ,0.006292976965491443, ,0.03625063865533357, ,0.00031158394296716685, ,1.8333333333333333, ,0.6450595724286377, ,0.44743984816636395, ,0.06110079386134977
116, ,PASS, ,0.04855588000000001, ,0.006264192992010723, ,0.036105239005938664, ,0.0003085310338305275, ,1.8333333333333333, ,0.6464526065683479, ,0.44737862492602193, ,0.06275382135058469
117, ,PASS, ,0.048784360000000034, ,0.006296461998922471, ,0.0360266889992041, ,0.000311442860835201, ,1.8333333333333333, ,0.6477315367921447, ,0.448072488316565, ,0.06024366849656129
118, ,PASS, ,0.048516080000000024, ,0.006269940218402029, ,0.03613417937082917, ,0.0003084949430291337, ,1.8333333333333333, ,0.6483675758971356, ,0.44752147915348667, ,0.06161098753086672
119, ,PASS, ,0.04851464000000001, ,0.006241339618796378, ,0.036111454386849255, ,0.0003071097240043296, ,1.8333333333333333, ,0.6426285406221114, ,0.44733780943246054, ,0.056835574784188075
120, ,PASS, ,0.048299710000000017, ,0.0062022340248684416, ,0.0362652588606355, ,0.0003037072317816377, ,1.8333333333333333, ,0.6455161950589534, ,0.44772555662129343, ,0.06389665517030264
121, ,PASS, ,0.04873477000000001, ,0.006209866431720625, ,0.03631808600783658, ,0.000306763909990801, ,1.8333333333333333, ,0.6429526771917492, ,0.44741944041958326, ,0.06103957062100773
122, ,PASS, ,0.04846021000000002, ,0.006224379785505153, ,0.036165235614783374, ,0.0003059567479584611, ,1.8333333333333333, ,0.6421676647235388, ,0.44709291647109245, ,0.05608048815330299
123, ,PASS, ,0.04843404000000001, ,0.006206959255850244, ,0.03616609127221894, ,0.0003047985029195096, ,1.8333333333333333, ,0.6433471298523133, ,0.4474806636599253, ,0.0611620171016918
124, ,PASS, ,0.04755407000000002, ,0.006128932946119243, ,0.036171637217199654, ,0.0002955972046632003, ,1.8333333333333333, ,0.6453075426400173, ,0.44780718760841615, ,0.06481500377543316
125, ,PASS, ,0.048214660000000034, ,0.006159429674279108, ,0.03610550607681476, ,0.0003010454670415373, ,1.8333333333333333, ,0.6418870248223384, ,0.44746025591314464, ,0.057162098732678926
126, ,PASS, ,0.04871232000000002, ,0.006251566906570882, ,0.0362489246599049, ,0.0003088269139348362, ,1.8333333333333333, ,0.6416618027730153, ,0.44717454745821517, ,0.053590743046060284
127, ,PASS, ,0.04862326000000002, ,0.006253372963958917, ,0.03604180486928838, ,0.00030846000095034574, ,1.8333333333333333, ,0.6451129186429172, ,0.4475827023938287, ,0.05889675720903655
128, ,PASS, ,0.04816696000000001, ,0.006186347810327629, ,0.036376601470786314, ,0.0003022576919935272, ,1.8333333333333333, ,0.6430146436971783, ,0.4472561784453378, ,0.06016203750943858
129, ,PASS, ,0.04859907000000001, ,0.006212066192274363, ,0.03640428206546806, ,0.0003060835463687509, ,1.8333333333333333, ,0.6421513603886738, ,0.4474806636599253, ,0.057978408603906045
130, ,PASS, ,0.04869984000000001, ,0.006265553242679935, ,0.036376743920124084, ,0.0003094630697142072, ,1.8333333333333333, ,0.6440164262737282, ,0.44746025591314464, ,0.059672251586702314
131, ,PASS, ,0.04881887, ,0.006269848174107508, ,0.03643789365359891, ,0.0003103891588660359, ,1.8333333333333333, ,0.6431288412915405, ,0.4477459643680741, ,0.06024366849656129
132, ,PASS, ,0.048532240000000025, ,0.006232338108305689, ,0.0362462699910206, ,0.00030682196174210786, ,1.8333333333333333, ,0.6402817779748355, ,0.44668476153547887, ,0.060141629762657904
133, ,PASS, ,0.04897071000000002, ,0.006248169505773218, ,0.036464671440991005, ,0.00031026056829038754, ,1.8333333333333333, ,0.641740252614244, ,0.44772555662129343, ,0.0594069508785535
134, ,PASS, ,0.04897029999999999, ,0.006274367521284274, ,0.03623539809514092, ,0.0003116815074296054, ,1.8333333333333333, ,0.6434376461693186, ,0.4472153629517765, ,0.05420297544948062
135, ,PASS, ,0.04905726000000001, ,0.00629697177423313, ,0.036291936258239635, ,0.00031333734002599966, ,1.8333333333333333, ,0.6438272472521563, ,0.4471949552049958, ,0.06318238403297892
136, ,PASS, ,0.04917270999999999, ,0.006316934074349395, ,0.0362932492120569, ,0.000315055625422838, ,1.8333333333333333, ,0.6405741918971383, ,0.4469092467500663, ,0.06077426991285892
137, ,PASS, ,0.049319989999999994, ,0.006351241596325062, ,0.03642159254831534, ,0.0003176387635069785, ,1.8333333333333333, ,0.6438660634918347, ,0.4472969939388992, ,0.0616313952776474
138, ,PASS, ,0.04944597000000003, ,0.006350988939564639, ,0.03623814096691905, ,0.0003184944925700826, ,1.8333333333333333, ,0.6435437106706335, ,0.4468480235097243, ,0.059223281157527397
139, ,PASS, ,0.04932095999999999, ,0.006295300221607589, ,0.0364653458980429, ,0.00031487714488866153, ,1.8333333333333333, ,0.6392566631287481, ,0.44701128548396973, ,0.05495806208036571
140, ,PASS, ,0.04982466, ,0.006358955242934668, ,0.03650019790004286, ,0.00032140204425397064, ,1.8333333333333333, ,0.6382137239983029, ,0.4464602763208914, ,0.05993755229485113
141, ,PASS, ,0.055648207, ,0.007158139413954249, ,0.03605400763000755, ,0.0004040112835218935, ,1.8333333333333333, ,0.6421201088303212, ,0.4464398685741107, ,0.05906001918328197
142, ,PASS, ,0.096771, ,0.01252543155726116, ,0.03400798144813372, ,0.0012292112569316355, ,1.8333333333333333, ,0.6475872078664174, ,0.44735821717924124, ,0.059264096651088755
143, ,PASS, ,0.04845838000000002, ,0.006155068100861228, ,0.036403787515764986, ,0.00030259197884889875, ,1.75, ,0.6338589804348984, ,0.4454807044754189, ,0.0590396114365013
144, ,PASS, ,0.04686734, ,0.005978470626765527, ,0.036350868997367405, ,0.00028420985153868625, ,1.8333333333333333, ,0.6370651759735277, ,0.44605212138527783, ,0.0578355543764413
145, ,PASS, ,0.04691293000000002, ,0.005969031609126104, ,0.036507593380951414, ,0.00028410915255380515, ,1.8333333333333333, ,0.6364418335423802, ,0.44633782984020737, ,0.056774351543846045
146, ,PASS, ,0.046790720000000015, ,0.005978837456309481, ,0.03642951601559152, ,0.0002837551411351589, ,1.8333333333333333, ,0.6392749642318513, ,0.4467868002693823, ,0.057651884655415195
147, ,PASS, ,0.046767090000000025, ,0.005977723261808972, ,0.03639815590538969, ,0.00028367871428912507, ,1.8333333333333333, ,0.6410417642766503, ,0.44705210097753106, ,0.06075386216607824
148, ,PASS, ,0.04624296000000004, ,0.005906211221472116, ,0.03666772156384564, ,0.0002771633475929346, ,1.8333333333333333, ,0.6368645790906025, ,0.4459704903981551, ,0.05695802126487214
149, ,PASS, ,0.04638502000000004, ,0.005918103902084693, ,0.036435679476133145, ,0.00027853367906646384, ,1.8333333333333333, ,0.6379128157078908, ,0.44654190730801413, ,0.0595906205995796
150, ,PASS, ,0.046094180000000026, ,0.005903583466498391, ,0.036658991247321485, ,0.0002760726835610881, ,1.8333333333333333, ,0.6382410248633426, ,0.44623579110630396, ,0.058876349462255874
151, ,PASS, ,0.046100780000000036, ,0.005907901407929042, ,0.03646581395604172, ,0.0002763811948498283, ,1.8333333333333333, ,0.6401229330552672, ,0.4464806840676721, ,0.06242729740209384
152, ,PASS, ,0.046203960000000044, ,0.0058539565730768095, ,0.036564573740944066, ,0.0002743719691205155, ,1.75, ,0.6330689913866006, ,0.4459908981449358, ,0.05771310789575723
153, ,PASS, ,0.04617814000000002, ,0.005874630675568828, ,0.03662300045999062, ,0.0002752639716515893, ,1.8333333333333333, ,0.6375067172240559, ,0.4468276157629436, ,0.06187628823901553
154, ,PASS, ,0.045840520000000023, ,0.005825723087387941, ,0.036408773298095956, ,0.0002708529796731524, ,1.8333333333333333, ,0.6361557820304132, ,0.4468276157629436, ,0.05889675720903655
155, ,PASS, ,0.04600995000000002, ,0.005809604320832508, ,0.03674737112099753, ,0.000271189661151486, ,1.8333333333333333, ,0.6326899411413401, ,0.4460725291320585, ,0.05777433113609926
156, ,PASS, ,0.045959190000000025, ,0.005841637834705373, ,0.036670905101528546, ,0.00027234131440659467, ,1.8333333333333333, ,0.6347145259018621, ,0.44660313054835615, ,0.05740699169404706
157, ,PASS, ,0.04631013000000002, ,0.005893040162101891, ,0.036678038700434686, ,0.0002769145777510218, ,1.8333333333333333, ,0.6340617631188975, ,0.4463990530805494, ,0.060141629762657904
158, ,PASS, ,0.04621539000000004, ,0.005869331200044621, ,0.03673640207465154, ,0.00027498794923983265, ,1.8333333333333333, ,0.6370836629761856, ,0.4472765861921185, ,0.05728454521336299
159, ,PASS, ,0.04618870000000001, ,0.005871280352543307, ,0.03670707386441093, ,0.00027513189983938656, ,1.8333333333333333, ,0.6378519524579555, ,0.4471337319646538, ,0.06069263892573621
160, ,PASS, ,0.04616565000000003, ,0.005893496697378937, ,0.036641898895940904, ,0.00027597130419482543, ,1.8333333333333333, ,0.6372684304241034, ,0.44695006224362765, ,0.059733474827044344
161, ,PASS, ,0.046448010000000026, ,0.005904900011302001, ,0.0366449461833432, ,0.00027829439417706203, ,1.8333333333333333, ,0.6378422794394708, ,0.4472561784453378, ,0.05661108956960062
162, ,PASS, ,0.04628433000000002, ,0.005891987803776792, ,0.036658567281688134, ,0.00027652010144606134, ,1.8333333333333333, ,0.6382716222258487, ,0.4472969939388992, ,0.05865186424766841
163, ,PASS, ,0.04616163000000004, ,0.005871300316060458, ,0.036556164788269625, ,0.0002747944077285899, ,1.8333333333333333, ,0.6386963451659936, ,0.4476439256341707, ,0.06154976429052468
164, ,PASS, ,0.04562582000000001, ,0.0058411935276629304, ,0.036530492930144286, ,0.00027026798500103715, ,1.8333333333333333, ,0.6412897099156025, ,0.4472357706985572, ,0.06177424950511214
165, ,PASS, ,0.04602705000000003, ,0.005863046765279393, ,0.03653892583804413, ,0.0002737094732330091, ,1.8333333333333333, ,0.6373770419616485, ,0.446868431256505, ,0.05728454521336299
166, ,PASS, ,0.04566668000000003, ,0.0058222681226378584, ,0.036606538492683825, ,0.000269697652339786, ,1.8333333333333333, ,0.638978688042502, ,0.44707250872431176, ,0.05781514662966062
167, ,PASS, ,0.04578783000000002, ,0.0058073573429527495, ,0.0365666501259158, ,0.000269705184015368, ,1.8333333333333333, ,0.6352163874077269, ,0.44717454745821517, ,0.05373359727352503
168, ,PASS, ,0.045774260000000025, ,0.005793682161674698, ,0.036657213768086366, ,0.0002688867169510041, ,1.8333333333333333, ,0.6371342699932608, ,0.44752147915348667, ,0.057733515642537904
169, ,PASS, ,0.045517610000000014, ,0.0057915693495066665, ,0.03662798751229567, ,0.0002673618560919247, ,1.8333333333333333, ,0.6340305750262021, ,0.44654190730801413, ,0.05622334238076774
170, ,PASS, ,0.04534696000000003, ,0.005753408841388711, ,0.03651868706434563, ,0.000264625951598171, ,1.8333333333333333, ,0.6371809644012861, ,0.4476031101406094, ,0.05771310789575723
171, ,PASS, ,0.04612100000000002, ,0.005908406536131452, ,0.03658706020244485, ,0.00027626155917063084, ,1.8333333333333333, ,0.6415625115743058, ,0.44790922634231956, ,0.05728454521336299
172, ,PASS, ,0.045188410000000026, ,0.005739629895200386, ,0.036659087370461835, ,0.00026315028323859303, ,1.8333333333333333, ,0.6330510643493835, ,0.4460725291320585, ,0.057202914226240284
173, ,PASS, ,0.04554876000000001, ,0.005765456797543293, ,0.036804270141425684, ,0.00026637530720679246, ,1.75, ,0.6340471071723256, ,0.44697046999040835, ,0.06001918328197384
174, ,PASS, ,0.04542395000000002, ,0.005751420498131305, ,0.03667151747209241, ,0.0002651296614691416, ,1.8333333333333333, ,0.6361661126040987, ,0.4472357706985572, ,0.05630497336789045
175, ,PASS, ,0.04537366000000002, ,0.005744344120494547, ,0.0365301539670619, ,0.000264394139956105, ,1.8333333333333333, ,0.6330927494084926, ,0.44670516928225956, ,0.05379482051386707
176, ,PASS, ,0.04521874000000001, ,0.005737322506616174, ,0.03653957850717333, ,0.0002631516867089348, ,1.8333333333333333, ,0.6352172586511093, ,0.44699087773718904, ,0.06267219036346197
177, ,PASS, ,0.045788390000000026, ,0.00577558760807569, ,0.036573926394971534, ,0.00026807005720301915, ,1.8333333333333333, ,0.6338768427170588, ,0.44695006224362765, ,0.06028448399012265
178, ,PASS, ,0.04622412000000002, ,0.00589662839934596, ,0.036580277338013514, ,0.00027637945472726614, ,1.8333333333333333, ,0.6412105151328884, ,0.44784800310197753, ,0.05618252688720638
179, ,PASS, ,0.04520987000000002, ,0.0057379931578408604, ,0.03663806343095039, ,0.00026299815050118846, ,1.8333333333333333, ,0.6361615014321252, ,0.44717454745821517, ,0.060141629762657904
180, ,PASS, ,0.04512550000000001, ,0.005678857837278115, ,0.036580889010224285, ,0.00025989770745539156, ,1.75, ,0.6312975932552075, ,0.44707250872431176, ,0.05754984592151181
181, ,PASS, ,0.04519261000000002, ,0.00567488949621138, ,0.036475941649354096, ,0.00026010377256581056, ,1.8333333333333333, ,0.6289101424325303, ,0.4468072080161629, ,0.05377441276708639
182, ,PASS, ,0.045068090000000026, ,0.005706173830604899, ,0.03661910325095406, ,0.0002608866249310983, ,1.8333333333333333, ,0.6332861325046869, ,0.44737862492602193, ,0.05614171139364503
183, ,PASS, ,0.04497707000000002, ,0.00569483130385264, ,0.03651690298279627, ,0.00025992529127774535, ,1.8333333333333333, ,0.6378608003737686, ,0.44752147915348667, ,0.0561621191404257
184, ,PASS, ,0.04496224000000002, ,0.005650193351198767, ,0.036724561237321686, ,0.00025774920506970215, ,1.75, ,0.6266045454322974, ,0.44613375237240055, ,0.053549927552498926
185, ,PASS, ,0.04506672000000001, ,0.005656752305496956, ,0.036556767958409016, ,0.00025852181449531543, ,1.75, ,0.6293128678939621, ,0.4468276157629436, ,0.05687639027774943
186, ,PASS, ,0.044978610000000016, ,0.005668587102107294, ,0.036562492153833594, ,0.0002586321854720372, ,1.8333333333333333, ,0.6320084671782839, ,0.44705210097753106, ,0.05879471847513316
187, ,PASS, ,0.04493477000000001, ,0.005669659408570211, ,0.03661716093896043, ,0.0002584370272213195, ,1.75, ,0.6291849163540356, ,0.44668476153547887, ,0.05732536070692435
188, ,PASS, ,0.04502321000000003, ,0.005664088959806955, ,0.036612556711699766, ,0.00025868527598709996, ,1.75, ,0.6293818510649306, ,0.4467663925226016, ,0.052713209934491134
189, ,PASS, ,0.04508901000000001, ,0.005696066211108219, ,0.03656442515560907, ,0.0002605573544562156, ,1.8333333333333333, ,0.631307072406017, ,0.4467663925226016, ,0.05752943817473113
190, ,PASS, ,0.04491654000000002, ,0.005657004243005161, ,0.03655092609946736, ,0.000257815430398421, ,1.8333333333333333, ,0.6295719315566584, ,0.44699087773718904, ,0.053100957123324015
191, ,PASS, ,0.04493911000000001, ,0.005685052224177826, ,0.03663003947980654, ,0.0002591374162623172, ,1.8333333333333333, ,0.6313325569166043, ,0.44668476153547887, ,0.05840697128630028
192, ,PASS, ,0.04482433000000004, ,0.005645573295646135, ,0.03677891842186894, ,0.00025678921925894216, ,1.75, ,0.6282041463721308, ,0.44654190730801413, ,0.0566314973163813
193, ,PASS, ,0.045007260000000035, ,0.005687161584712955, ,0.03661184527683109, ,0.0002596556828648425, ,1.8333333333333333, ,0.6326617341944233, ,0.4471337319646538, ,0.06228444317462909
194, ,PASS, ,0.04523452000000002, ,0.005702946684368814, ,0.03665436517336381, ,0.000261672262854238, ,1.75, ,0.6293063209306308, ,0.44660313054835615, ,0.059264096651088755
195, ,PASS, ,0.04547037, ,0.0056785215554330595, ,0.036870302092406285, ,0.00026174891571853595, ,1.75, ,0.6320001536450881, ,0.4472765861921185, ,0.059162057917185366
196, ,PASS, ,0.04563800000000001, ,0.005769277827967292, ,0.036631006981898334, ,0.0002671554090448895, ,1.75, ,0.6310389579814908, ,0.44662353829513685, ,0.05871308748801045
197, ,PASS, ,0.045868770000000024, ,0.005785573547567635, ,0.03652348033142181, ,0.00026916680476443976, ,1.8333333333333333, ,0.6310337427683191, ,0.44688883900328563, ,0.05867227199444909
198, ,PASS, ,0.04584075000000001, ,0.005768261134721074, ,0.03676624112956879, ,0.00026816028269114505, ,1.8333333333333333, ,0.632405591373525, ,0.44668476153547887, ,0.06057019244505214
199, ,PASS, ,0.045940040000000015, ,0.005794820494928146, ,0.036695884183588094, ,0.0002700234565810789, ,1.75, ,0.6307766955031037, ,0.4464602763208914, ,0.058937572702597904
200, ,PASS, ,0.04564461000000001, ,0.0057578953183462876, ,0.036554782757086596, ,0.0002667190697557268, ,1.75, ,0.6293109311109664, ,0.446297014346646, ,0.061713026264770106
201, ,PASS, ,0.045852370000000024, ,0.005777190213637556, ,0.03665749052407094, ,0.0002687643992326527, ,1.75, ,0.6278308207310082, ,0.44615416011918124, ,0.05748862268116977
202, ,PASS, ,0.04604974000000002, ,0.005784852408079029, ,0.03673734001734659, ,0.0002702044111855182, ,1.75, ,0.6289914851637756, ,0.44654190730801413, ,0.058937572702597904
203, ,PASS, ,0.04606600000000002, ,0.0058204765039689375, ,0.036686077625966824, ,0.00027207195404941253, ,1.75, ,0.6297165102270381, ,0.44621538335952327, ,0.05822330156527418
204, ,PASS, ,0.045923990000000026, ,0.005765096431230115, ,0.0365982201965266, ,0.0002686038392485427, ,1.75, ,0.6256256500370256, ,0.44621538335952327, ,0.05830493255239689
205, ,PASS, ,0.048105270000000006, ,0.006024747195072076, ,0.03655316237362503, ,0.0002939436903517282, ,1.75, ,0.6284828697580885, ,0.446358237586988, ,0.060141629762657904
206, ,PASS, ,0.08535218400000001, ,0.01083862537686842, ,0.03451260176578029, ,0.0009393203305789455, ,1.75, ,0.630186451752857, ,0.44503173404624397, ,0.058917164955817225
207, ,PASS, ,0.043306830000000004, ,0.00544255200157238, ,0.03686949489887962, ,0.00023893897294786426, ,1.8333333333333333, ,0.6345958260753901, ,0.4473174016856799, ,0.05901920368972062
208, ,PASS, ,0.041865240000000026, ,0.005260461722690761, ,0.03680673611150793, ,0.00022321329423995658, ,1.8333333333333333, ,0.6344954102923234, ,0.44743984816636395, ,0.05920287341074672
209, ,PASS, ,0.04200017000000003, ,0.005305093554213778, ,0.03702589200220404, ,0.00022576322979038705, ,1.8333333333333333, ,0.6348906419277559, ,0.447501071406706, ,0.059264096651088755
210, ,PASS, ,0.04186834000000003, ,0.005295268310387962, ,0.03698370834533989, ,0.00022472002934862946, ,1.8333333333333333, ,0.6347362179823908, ,0.4468480235097243, ,0.06040693047080672
211, ,PASS, ,0.04219302000000002, ,0.005312350904273543, ,0.03693378198689823, ,0.00022713328719088918, ,1.8333333333333333, ,0.6339526366252766, ,0.4471949552049958, ,0.055488663496663336
212, ,PASS, ,0.04167942000000001, ,0.005243729032599135, ,0.03685897039876737, ,0.00022146780844277747, ,1.8333333333333333, ,0.6335282196114624, ,0.44790922634231956, ,0.05457031489153283
213, ,PASS, ,0.04202103000000002, ,0.005293671799199368, ,0.03685558705475399, ,0.00022548963944609164, ,1.8333333333333333, ,0.6359476413068677, ,0.44737862492602193, ,0.05777433113609926
214, ,PASS, ,0.041890359999999995, ,0.005261693127968212, ,0.03666741148201057, ,0.00022333400515233155, ,1.8333333333333333, ,0.634904964086974, ,0.44790922634231956, ,0.05779473888287994
215, ,PASS, ,0.04187695000000002, ,0.00524888921240416, ,0.037288176669455726, ,0.00022269777184967613, ,1.8333333333333333, ,0.6315221450838876, ,0.44788881859553886, ,0.05483561559968164
216, ,PASS, ,0.041699530000000026, ,0.0052577381931671755, ,0.03697737896226608, ,0.00022214530443034048, ,1.8333333333333333, ,0.634700577081997, ,0.44772555662129343, ,0.059223281157527397
217, ,PASS, ,0.04204424000000001, ,0.005282452083397105, ,0.03739835620966919, ,0.00022500204827169748, ,1.8333333333333333, ,0.6351581994937806, ,0.44829697353115244, ,0.06238648190853248
218, ,PASS, ,0.04185048000000002, ,0.005260730733634071, ,0.036918722040774676, ,0.0002231217323315148, ,1.8333333333333333, ,0.6357663567354971, ,0.44823575029081036, ,0.05501928532070774
219, ,PASS, ,0.04188444000000004, ,0.005212970098680687, ,0.03713731553376462, ,0.00022116964359860625, ,1.8333333333333333, ,0.6337148801239132, ,0.4483990122650558, ,0.057590661415073165
220, ,PASS, ,0.04158202000000001, ,0.005214382807533228, ,0.03696504612742597, ,0.0002197135261581692, ,1.8333333333333333, ,0.6319415387988203, ,0.44741944041958326, ,0.06063141568539417
221, ,PASS, ,0.041770660000000036, ,0.005223935349128763, ,0.03687320049856126, ,0.0002210381963599823, ,1.8333333333333333, ,0.6320057315543378, ,0.448133711556907, ,0.06179465725189282
222, ,PASS, ,0.04196920000000002, ,0.005239923276496542, ,0.03687244972755658, ,0.00022279041613232524, ,1.8333333333333333, ,0.6284525352780883, ,0.4476847411277321, ,0.05257035570702639
223, ,PASS, ,0.04196357000000002, ,0.0052426910566027345, ,0.03690155668374115, ,0.00022280980082536758, ,1.8333333333333333, ,0.6308672566661625, ,0.44782759535519684, ,0.05336625783147283
224, ,PASS, ,0.04195160000000003, ,0.005267530158550399, ,0.03702307977939226, ,0.00022386339066152915, ,1.8333333333333333, ,0.6339550564791889, ,0.44882757494745007, ,0.0582028938184935
225, ,PASS, ,0.042258730000000036, ,0.005305123649406966, ,0.036992459451235686, ,0.00022713199739852325, ,1.8333333333333333, ,0.6325658848919445, ,0.44829697353115244, ,0.05787636987000265
226, ,PASS, ,0.04221737000000003, ,0.005320957171815571, ,0.03709207114365013, ,0.000227598387100346, ,1.8333333333333333, ,0.6381029521510271, ,0.4484398277586172, ,0.06303952980551418
227, ,PASS, ,0.042344570000000026, ,0.005315158100834916, ,0.03695220408644721, ,0.00022790268243293513, ,1.8333333333333333, ,0.6344977517912952, ,0.44868472071998533, ,0.059325319891430785
228, ,PASS, ,0.041709840000000005, ,0.005256295053272798, ,0.03693796420195506, ,0.00022204706842767955, ,1.8333333333333333, ,0.6351592330489043, ,0.44874594396032735, ,0.062161996693945024
229, ,PASS, ,0.042136740000000034, ,0.005292066564224702, ,0.036904273076059674, ,0.0002259893424864201, ,1.8333333333333333, ,0.63362186794801, ,0.44827656578437175, ,0.058386563539519605
230, ,PASS, ,0.04208345000000002, ,0.005284045926802129, ,0.03694224451990776, ,0.0002252843491899901, ,1.8333333333333333, ,0.6350157366808776, ,0.4483990122650558, ,0.06036611497724536
231, ,PASS, ,0.04220210000000002, ,0.005291233430726607, ,0.03703130724699496, ,0.00022619392771152814, ,1.8333333333333333, ,0.6350381512731403, ,0.4497459235525806, ,0.060039591028754516
232, ,PASS, ,0.04224696000000003, ,0.005237390893459231, ,0.03707737161200792, ,0.00022397796502460297, ,1.8333333333333333, ,0.6325228844975851, ,0.44917450664272157, ,0.056468235342135874
233, ,PASS, ,0.042616720000000004, ,0.005339128090502008, ,0.036961393217077206, ,0.00023056530639864548, ,1.8333333333333333, ,0.6334153127423867, ,0.44835819677149447, ,0.05032550356115181
234, ,PASS, ,0.04308945, ,0.005370548067044341, ,0.036804387572906674, ,0.00023434938966778165, ,1.8333333333333333, ,0.6314496605695586, ,0.4484806432521785, ,0.04546845982735046
235, ,PASS, ,0.04232193000000002, ,0.005332928492535979, ,0.03698794513173201, ,0.00022855666548211992, ,1.8333333333333333, ,0.6377876453271373, ,0.449276545376625, ,0.06336605375400502
236, ,PASS, ,0.042607870000000034, ,0.005322921395589561, ,0.036588141656904966, ,0.00022968575038448755, ,1.8333333333333333, ,0.6321058198827733, ,0.44829697353115244, ,0.055958041672618926
237, ,PASS, ,0.043139790000000025, ,0.005423491579267489, ,0.03678762794983776, ,0.00023692735170060433, ,1.75, ,0.6379339337488596, ,0.4501132629946328, ,0.05950898961245689
238, ,PASS, ,0.042883120000000025, ,0.005344767556871994, ,0.03693597106814147, ,0.0002322045044393019, ,1.8333333333333333, ,0.6315469171797247, ,0.4490520601620375, ,0.05522336278851452
239, ,PASS, ,0.042926790000000034, ,0.005366422193893691, ,0.03666105909695721, ,0.0002333011795506619, ,1.8333333333333333, ,0.6334917393160292, ,0.4485010509989592, ,0.06161098753086672
240, ,PASS, ,0.043367069999999994, ,0.00537468991275802, ,0.03684624804963164, ,0.00023610191187120822, ,1.8333333333333333, ,0.62571728032293, ,0.4476031101406094, ,0.04175424991326707
241, ,PASS, ,0.043303190000000005, ,0.005423802128133087, ,0.03715647210281423, ,0.00023790210330905864, ,1.8333333333333333, ,0.6339539661429865, ,0.449337768616967, ,0.06030489173690333
242, ,PASS, ,0.04415630000000002, ,0.005532000026924123, ,0.03715428804208078, ,0.000247339966360867, ,1.8333333333333333, ,0.6341491237537559, ,0.4487867594538887, ,0.05865186424766841
243, ,PASS, ,0.04348314, ,0.005431213142660201, ,0.03699394875390298, ,0.00023920768256321842, ,1.8333333333333333, ,0.6304493718025137, ,0.4484194200118365, ,0.05587641068549622
244, ,PASS, ,0.04368301999999999, ,0.005424694131355421, ,0.03686085926960674, ,0.00024003092248396217, ,1.8333333333333333, ,0.6299582306350061, ,0.44872553621354666, ,0.05487643109324299
245, ,PASS, ,0.044392770000000026, ,0.005513428585055279, ,0.03697432956327422, ,0.0002479831469500143, ,1.8333333333333333, ,0.6297919078535144, ,0.44874594396032735, ,0.05503969306748842
246, ,PASS, ,0.04443269000000004, ,0.005499074848480775, ,0.0370766834833983, ,0.0002475101394040609, ,1.8333333333333333, ,0.6280679884797747, ,0.44870512846676597, ,0.05363155853962164
247, ,PASS, ,0.04430433000000001, ,0.005537511500838814, ,0.03676835620987327, ,0.00024853868095489054, ,1.8333333333333333, ,0.6306452741336185, ,0.4485214587457399, ,0.05850901002020367
248, ,PASS, ,0.04435824000000003, ,0.005531629736048148, ,0.03703960018775127, ,0.000248560512100225, ,1.8333333333333333, ,0.6270761070937766, ,0.448072488316565, ,0.056855982530968754
249, ,PASS, ,0.04474622, ,0.0055730466381958025, ,0.03677592296422522, ,0.0002525752340223769, ,1.8333333333333333, ,0.6285681539112019, ,0.44874594396032735, ,0.05293769514907859
250, ,PASS, ,0.04492281000000002, ,0.005555416300831868, ,0.03698901472010775, ,0.00025271220205208116, ,1.8333333333333333, ,0.6283589612333441, ,0.4489500214281341, ,0.05667231280994266
251, ,PASS, ,0.044775340000000025, ,0.005573740691025387, ,0.036866446854145835, ,0.00025282774311628564, ,1.8333333333333333, ,0.6288614871785446, ,0.44817452705046834, ,0.06022326074978061
252, ,PASS, ,0.04410234000000002, ,0.005465618939965843, ,0.0368700197020469, ,0.0002443146415252724, ,1.8333333333333333, ,0.626404510992799, ,0.4489296136813534, ,0.05661108956960062
253, ,PASS, ,0.04474137000000001, ,0.005530647672963428, ,0.03676507339788984, ,0.0002507687916980474, ,1.8333333333333333, ,0.6259421686400212, ,0.44823575029081036, ,0.05787636987000265
254, ,PASS, ,0.04525496000000003, ,0.005584194526679169, ,0.036724678183098304, ,0.00025620044337045867, ,1.8333333333333333, ,0.6250458360904366, ,0.448072488316565, ,0.053121364870104694
255, ,PASS, ,0.04526001000000003, ,0.005609449691469588, ,0.0369785522117916, ,0.0002572951248686886, ,1.8333333333333333, ,0.6233503878774007, ,0.44746025591314464, ,0.05442746066406808
