Channel, ,Pass/Fail, ,Amplitude, ,Sorting Function Response, ,Mean, ,Variance, ,NPeaksRatio, ,PosIntegralRatio, ,ToT50, ,ToT99
0, ,PASS, ,0.06881044799999998, ,0.011133310265492587, ,0.030444474475990285, ,0.0007798538915601372, ,1.8333333333333333, ,0.7629254471348181, ,0.3821146507214139, ,0.08538601253035652
1, ,PASS, ,0.07622723623, ,0.011756449534190758, ,0.03000195253989306, ,0.0009115031924050956, ,1.8333333333333333, ,0.7389816397739376, ,0.38286973735229896, ,0.07471276096406196
2, ,PASS, ,0.07679840802000001, ,0.012173655705375912, ,0.03032108579920818, ,0.0009505452300252265, ,1.8333333333333333, ,0.7405269030926074, ,0.39191036917613925, ,0.075406624354605
3, ,PASS, ,0.07627015948999999, ,0.012315740840981922, ,0.03080970291165486, ,0.0009525460769633098, ,1.8333333333333333, ,0.7458446906561277, ,0.4001755066223138, ,0.07581477929021857
4, ,PASS, ,0.07554329130999998, ,0.011735530745130862, ,0.030094007635076834, ,0.0009017347877739217, ,1.8333333333333333, ,0.7408549595127635, ,0.3839309401848942, ,0.07608007999836738
5, ,PASS, ,0.07489632351999997, ,0.01167212251276198, ,0.030005563858880428, ,0.0008894331767364327, ,1.8333333333333333, ,0.7433922925544584, ,0.38233913593600133, ,0.07861064059917144
6, ,PASS, ,0.07523655734999997, ,0.011715847950663025, ,0.029988373202771368, ,0.0008967965869202848, ,1.8333333333333333, ,0.7445856748875583, ,0.3821146507214139, ,0.07395767433317688
7, ,PASS, ,0.07491138093999995, ,0.011661808051235859, ,0.030099797767739432, ,0.0008886572951020385, ,1.8333333333333333, ,0.7435609950987505, ,0.3834207465153772, ,0.07899838778800433
8, ,PASS, ,0.07494456413999998, ,0.0116410883358162, ,0.03015095035862533, ,0.0008873612616448622, ,1.8333333333333333, ,0.74222605658058, ,0.3832778922879125, ,0.07675353564212975
9, ,PASS, ,0.07480798273999997, ,0.011673727603834116, ,0.02998981138301259, ,0.0008883579289909719, ,1.8333333333333333, ,0.7439689231938214, ,0.3830738148201057, ,0.07632497295973552
10, ,PASS, ,0.07481140213, ,0.011660509123252737, ,0.03023212387561478, ,0.0008874472299216356, ,1.8333333333333333, ,0.743559066842157, ,0.3829105528458603, ,0.07720250607130466
11, ,PASS, ,0.07484193675999998, ,0.011587148068486717, ,0.030078167334299296, ,0.0008825451760669232, ,1.8333333333333333, ,0.7425857338219998, ,0.38191057325360706, ,0.07389645109283484
12, ,PASS, ,0.07506423728999993, ,0.011910482851993972, ,0.030147754547233726, ,0.0009089907913587093, ,1.8333333333333333, ,0.7454756214170688, ,0.38886961490581823, ,0.07728413705842738
13, ,PASS, ,0.07550791786999998, ,0.012079030586037237, ,0.030644329097753102, ,0.0009262817000201864, ,1.9166666666666667, ,0.7463117515457645, ,0.39533887063529316, ,0.07442705250913247
14, ,PASS, ,0.07487768050999995, ,0.011805048926885105, ,0.0304176313843595, ,0.0008983282049103032, ,1.8333333333333333, ,0.7430171038533452, ,0.38870635293157285, ,0.077814738474725
15, ,PASS, ,0.07482832970999997, ,0.011698464429855454, ,0.030053051980041223, ,0.0008903524545407738, ,1.8333333333333333, ,0.743920044971973, ,0.3832778922879125, ,0.0770800595906206
16, ,PASS, ,0.07450677164999998, ,0.011701205086524565, ,0.029890473998387786, ,0.0008866284968600803, ,1.8333333333333333, ,0.7464288589554823, ,0.38242076692312404, ,0.08393706250892839
17, ,PASS, ,0.07481668243999995, ,0.01168453968455188, ,0.02992197216915981, ,0.0008892633830160081, ,1.8333333333333333, ,0.7436060814601554, ,0.3809310014081345, ,0.07556988632885044
18, ,PASS, ,0.07467831095999998, ,0.01169461515321236, ,0.030029857030019792, ,0.0008884941911268466, ,1.8333333333333333, ,0.744851765238451, ,0.38284932960551826, ,0.07593722577090263
19, ,PASS, ,0.07510758470999997, ,0.011769011718642785, ,0.030244927109218177, ,0.0008989475863952772, ,1.8333333333333333, ,0.7453850132040691, ,0.3862370155711108, ,0.07599844901124467
20, ,PASS, ,0.07621930961999998, ,0.012034211826208018, ,0.030000614609212058, ,0.0009337608549388351, ,1.8333333333333333, ,0.7534500810305531, ,0.3834819697557193, ,0.07910042652190771
21, ,PASS, ,0.07657831818, ,0.012172849068340015, ,0.03069407534166649, ,0.0009479180798936642, ,1.8333333333333333, ,0.748310990404297, ,0.39727760657945754, ,0.07993714413991551
22, ,PASS, ,0.07515292913999998, ,0.011748274446447394, ,0.030009034254464193, ,0.0008982672319246681, ,1.8333333333333333, ,0.7449715688688968, ,0.38268606763127283, ,0.07728413705842738
23, ,PASS, ,0.07541458208999999, ,0.011921899474276163, ,0.030025646009387563, ,0.0009138715136751018, ,1.8333333333333333, ,0.7468446410503895, ,0.38650231627925963, ,0.0779167772086284
24, ,PASS, ,0.07517859807999996, ,0.011766729672519882, ,0.03003774212016081, ,0.000900006270758731, ,1.8333333333333333, ,0.7461729035221856, ,0.38352278524928063, ,0.0772637293116467
25, ,PASS, ,0.07549733889999997, ,0.012117412058948744, ,0.029825768318544516, ,0.0009291555027232489, ,1.8333333333333333, ,0.747379117124907, ,0.3868900634680925, ,0.08140650190812432
26, ,PASS, ,0.07494043643999997, ,0.01160997762208218, ,0.02988732191467521, ,0.0008860680479149743, ,1.8333333333333333, ,0.7443962859512832, ,0.37901267321075083, ,0.07691679761637518
27, ,PASS, ,0.07504585233999997, ,0.012032227451846253, ,0.030523152229342255, ,0.0009177755568870403, ,1.9166666666666667, ,0.7515753709719791, ,0.392563417073121, ,0.07848819411848738
28, ,PASS, ,0.07604996568999998, ,0.012007157660731571, ,0.029868997180547332, ,0.0009286162261152189, ,1.8333333333333333, ,0.7466480939794484, ,0.3866247627599437, ,0.0769780208567172
29, ,PASS, ,0.07635540676000002, ,0.011919301022922268, ,0.0300950511035285, ,0.0009258897347397761, ,1.8333333333333333, ,0.7439069889108195, ,0.3836452317299647, ,0.0743046060284484
30, ,PASS, ,0.07511554427999997, ,0.011821251076636417, ,0.029965467434358482, ,0.0009032197902892812, ,1.8333333333333333, ,0.748122269631821, ,0.3827064753780535, ,0.07930450398971449
31, ,PASS, ,0.07514775080999997, ,0.011786002506827098, ,0.029948606706720265, ,0.0009009339443680525, ,1.8333333333333333, ,0.7468958898058788, ,0.3828901450990796, ,0.0763453807065162
32, ,PASS, ,0.07500652656999997, ,0.011814531080983114, ,0.029980439917858818, ,0.0009014415889387849, ,1.8333333333333333, ,0.7476286801895995, ,0.382992183832983, ,0.0794881737107406
33, ,PASS, ,0.07543272489999998, ,0.011696979093892593, ,0.029788231139180832, ,0.0008982856633910451, ,1.8333333333333333, ,0.7446811910651551, ,0.37907389645109285, ,0.07577396379665721
34, ,PASS, ,0.07592663978000001, ,0.0120061766586845, ,0.030349890318544518, ,0.0009268342809457944, ,1.8333333333333333, ,0.7471610291265752, ,0.3867268014938471, ,0.07377400461215078
35, ,PASS, ,0.07569140381999998, ,0.011997399262366851, ,0.029980250414462964, ,0.0009234906068760244, ,1.8333333333333333, ,0.7483377917269276, ,0.3867676169874084, ,0.07661068141466501
36, ,PASS, ,0.07530816587999996, ,0.011884411119559356, ,0.02990385039033897, ,0.0009103515944396869, ,1.8333333333333333, ,0.7492089149544995, ,0.3832778922879125, ,0.07999836738025755
37, ,PASS, ,0.07570051170999997, ,0.011912286931965586, ,0.029821344419032263, ,0.0009173017569015015, ,1.8333333333333333, ,0.7476384812638139, ,0.382930960592641, ,0.07659027366788433
38, ,PASS, ,0.07559641807999998, ,0.01187978421542587, ,0.03004871930917736, ,0.0009134475848090737, ,1.8333333333333333, ,0.7468374534243801, ,0.38286973735229896, ,0.0752229546335789
39, ,PASS, ,0.07525955681999996, ,0.011874199837646584, ,0.02975304029450419, ,0.0009089892122941897, ,1.8333333333333333, ,0.7489380813522425, ,0.38282892185873757, ,0.08001877512703823
40, ,PASS, ,0.07569284740999996, ,0.01213754289670731, ,0.029926749969123076, ,0.0009341658112077514, ,1.9166666666666667, ,0.7509217934525342, ,0.38907369237362505, ,0.07836574763780331
41, ,PASS, ,0.07580504493999994, ,0.012165255850724666, ,0.02980420967882288, ,0.0009375359614303405, ,1.9166666666666667, ,0.7521106330737938, ,0.38952266280279996, ,0.0817942490969572
42, ,PASS, ,0.07544149562999997, ,0.012003581062481707, ,0.029798131250811207, ,0.0009207024555289385, ,1.8333333333333333, ,0.7516181796214645, ,0.38711454868267997, ,0.08075345401114263
43, ,PASS, ,0.07532646776999996, ,0.012054368281094642, ,0.029672380339095118, ,0.000922664148748311, ,1.8333333333333333, ,0.7502006825358819, ,0.3857880451419359, ,0.07703924409705924
44, ,PASS, ,0.07509210655999997, ,0.01189894638752203, ,0.02977084028989204, ,0.0009088869021883504, ,1.8333333333333333, ,0.7506137941214706, ,0.3824411746699047, ,0.07826370890389991
45, ,PASS, ,0.07553330727999998, ,0.012310015547279705, ,0.030188136896716393, ,0.0009450051143990309, ,1.75, ,0.7551127063060612, ,0.39531846288851247, ,0.08491663435440093
46, ,PASS, ,0.07526602127999998, ,0.011981982950807334, ,0.02971028079916736, ,0.000917023720399429, ,1.8333333333333333, ,0.7516457890745046, ,0.38489010428358605, ,0.08061059978367788
47, ,PASS, ,0.07560410809999998, ,0.012179827502708986, ,0.030024058834799288, ,0.0009360422774638439, ,1.9166666666666667, ,0.7528201188921397, ,0.38986959449807146, ,0.07940654272361788
48, ,PASS, ,0.07625412205999998, ,0.01226556010941302, ,0.030066079431950363, ,0.0009514438058842793, ,1.9166666666666667, ,0.753722186990815, ,0.39191036917613925, ,0.08077386175792331
49, ,PASS, ,0.08720413199999999, ,0.013454657592096096, ,0.028943038422542398, ,0.001192723231405749, ,1.8333333333333333, ,0.7339642925187468, ,0.38701250994877656, ,0.07246790881818739
50, ,PASS, ,0.17017409999999994, ,0.026195227955454394, ,0.014453877543855829, ,0.004526086300212925, ,1.8333333333333333, ,0.7742296576251264, ,0.41744046039876737, ,0.21624048488806352
51, ,PASS, ,0.09095128500000002, ,0.014477821135100518, ,0.027948293406889653, ,0.0013391324386853019, ,1.8333333333333333, ,0.750378495741884, ,0.38525744372563825, ,0.07887594130732026
52, ,PASS, ,0.08864912899999998, ,0.014069096427873365, ,0.02841602511083447, ,0.0012685428263543841, ,1.8333333333333333, ,0.7509491282812093, ,0.38405338666557826, ,0.0772637293116467
53, ,PASS, ,0.08831547699999999, ,0.01400821174664188, ,0.028221085748372482, ,0.0012584254801147146, ,1.8333333333333333, ,0.7513167738277735, ,0.3829105528458603, ,0.07977388216567009
54, ,PASS, ,0.087862492, ,0.013961157169392887, ,0.02810842232072815, ,0.0012477965828929984, ,1.8333333333333333, ,0.7515842446605124, ,0.38331870778147387, ,0.08048815330299382
55, ,PASS, ,0.08758926899999998, ,0.013972540985340651, ,0.028357834111583435, ,0.0012444633627409212, ,1.8333333333333333, ,0.7524529627128731, ,0.384196240893043, ,0.07932491173649517
56, ,PASS, ,0.08722703599999998, ,0.014290215877750274, ,0.02882064449658456, ,0.001265815504728853, ,1.8333333333333333, ,0.7555449654854759, ,0.3929307565151732, ,0.08430440195098059
57, ,PASS, ,0.08685056400000003, ,0.013803562971129512, ,0.02856088302865452, ,0.0012196722599596983, ,1.8333333333333333, ,0.7532197872082625, ,0.3842166486398237, ,0.08279422868921042
58, ,PASS, ,0.08649572700000004, ,0.01372424214214681, ,0.028485133803650947, ,0.0012077839640594386, ,1.8333333333333333, ,0.7527636046468512, ,0.38284932960551826, ,0.08093712373216873
59, ,PASS, ,0.086329863, ,0.013595981890899991, ,0.028371045805354995, ,0.0011949294045403814, ,1.8333333333333333, ,0.751027362985053, ,0.3811350788759413, ,0.07767188424726026
60, ,PASS, ,0.08651076799999999, ,0.013626841047958542, ,0.028415935144444196, ,0.001200499543289847, ,1.8333333333333333, ,0.7518631577692794, ,0.3787881879961633, ,0.0796718434317667
61, ,PASS, ,0.08667784000000002, ,0.013625717375619649, ,0.028250792968131263, ,0.001202615674602582, ,1.8333333333333333, ,0.7503806538327062, ,0.3788290034897247, ,0.07910042652190771
62, ,PASS, ,0.08665434700000002, ,0.013698350123851398, ,0.028508934514658888, ,0.0012076740385645243, ,1.8333333333333333, ,0.7493068712921189, ,0.38407379441235895, ,0.08152894838880839
63, ,PASS, ,0.08691598399999999, ,0.01389248731680295, ,0.028506819569743883, ,0.001227824710951392, ,1.8333333333333333, ,0.7521916060170619, ,0.3850737740046121, ,0.08148813289524703
64, ,PASS, ,0.08677562000000003, ,0.013973841184699494, ,0.028524667565690498, ,0.0012330193066304323, ,1.9166666666666667, ,0.7532516848332954, ,0.3887675761719149, ,0.08244729699393889
65, ,PASS, ,0.08679913100000004, ,0.01375745700678254, ,0.02837930129208792, ,0.001214962999970333, ,1.8333333333333333, ,0.7507863345196929, ,0.38284932960551826, ,0.07975347441888941
66, ,PASS, ,0.08688947100000001, ,0.013847058336144302, ,0.02791708993482378, ,0.001223707094189207, ,1.8333333333333333, ,0.7531845348423201, ,0.3800534682965654, ,0.08285545192955246
67, ,PASS, ,0.08668261600000002, ,0.013918733979080862, ,0.0286415179462562, ,0.001226346333278635, ,1.8333333333333333, ,0.7525803313646162, ,0.3870737331891186, ,0.08010040611416093
68, ,PASS, ,0.08682840900000002, ,0.014031649625846016, ,0.028954572100954475, ,0.0012383982286047668, ,1.9166666666666667, ,0.7539116685194944, ,0.3908899818371054, ,0.0811412011999755
69, ,PASS, ,0.08732076199999998, ,0.013996762334484871, ,0.02882686041088692, ,0.0012425339960161837, ,1.9166666666666667, ,0.7513208437020622, ,0.38907369237362505, ,0.0789371645476623
70, ,PASS, ,0.08732345, ,0.014000316760554743, ,0.028498702735023775, ,0.00124279947483185, ,1.9166666666666667, ,0.7508059836804112, ,0.3893594008285545, ,0.07769229199404094
71, ,PASS, ,0.08751303799999999, ,0.014063621961330671, ,0.028875931415822127, ,0.0012503359846074615, ,1.9166666666666667, ,0.7485431101237489, ,0.39280831003448907, ,0.07889634905410094
72, ,PASS, ,0.08717911399999996, ,0.013851870242418782, ,0.02869385778675129, ,0.001227961710036708, ,1.8333333333333333, ,0.7500062496619007, ,0.38440031836084976, ,0.0781004469296545
73, ,PASS, ,0.08725337900000003, ,0.013781853269829536, ,0.028334257653084633, ,0.0012231111800957296, ,1.8333333333333333, ,0.7491326283563068, ,0.38182894226648434, ,0.077182098324524
74, ,PASS, ,0.08765286600000001, ,0.014089671925270825, ,0.028636877473482175, ,0.0012555829944992576, ,1.9166666666666667, ,0.7502964723741531, ,0.391420583253403, ,0.07918205750903043
75, ,PASS, ,0.08780335099999999, ,0.014103950495762031, ,0.02887276050910798, ,0.001259088829066199, ,1.9166666666666667, ,0.7499438749269183, ,0.39199200016326197, ,0.07514132364645619
76, ,PASS, ,0.08748101099999998, ,0.014064539988956879, ,0.028779239968927166, ,0.001250132943901618, ,1.9166666666666667, ,0.7506109000513471, ,0.3921348543907267, ,0.08167180261627313
77, ,PASS, ,0.088116987, ,0.014222728240241905, ,0.028835287502914225, ,0.001273197595617334, ,1.75, ,0.7514194882557629, ,0.3946858227383115, ,0.08097793922573009
78, ,PASS, ,0.087569092, ,0.013866113857212125, ,0.02856825149852044, ,0.001234748199369429, ,1.8333333333333333, ,0.7491188383152336, ,0.3858492683822779, ,0.07710046733740128
79, ,PASS, ,0.08730008199999999, ,0.013894503486118115, ,0.028634325664802764, ,0.0012339632969676124, ,1.8333333333333333, ,0.7506606020971557, ,0.38813493602171384, ,0.07910042652190771
80, ,PASS, ,0.08716145, ,0.01386665646788865, ,0.028594125678759616, ,0.001229003659030099, ,1.8333333333333333, ,0.7511975118648814, ,0.38564519091447114, ,0.08128405542744026
81, ,PASS, ,0.08818677699999997, ,0.013745010084106678, ,0.02804216982899941, ,0.0012339064851474004, ,1.8333333333333333, ,0.7474493749708383, ,0.38029836125793354, ,0.07993714413991551
82, ,PASS, ,0.08733935300000001, ,0.013744030262046038, ,0.028239587561968125, ,0.001221292573558868, ,1.8333333333333333, ,0.7487457036892927, ,0.38182894226648434, ,0.07946776596395992
83, ,PASS, ,0.086666841, ,0.013693964640035267, ,0.02865383597826983, ,0.0012077950926993564, ,1.8333333333333333, ,0.7507121695201825, ,0.3834615620089386, ,0.07989632864635415
84, ,PASS, ,0.08705843, ,0.014015432798441241, ,0.028752746437360463, ,0.0012403170508558986, ,1.9166666666666667, ,0.7530055106888853, ,0.3918695536825779, ,0.07952898920430196
85, ,PASS, ,0.08667396200000001, ,0.013533886903239471, ,0.028352551916471097, ,0.00119479669253849, ,1.8333333333333333, ,0.7487553261336669, ,0.3791759351849962, ,0.07901879553478501
86, ,PASS, ,0.08646089800000004, ,0.013540392156886702, ,0.028461425839672663, ,0.001192309691697918, ,1.8333333333333333, ,0.7499787027941509, ,0.38074733168710845, ,0.07975347441888941
87, ,PASS, ,0.08676223100000002, ,0.013569100651710228, ,0.02844320301119977, ,0.0011987605439885514, ,1.8333333333333333, ,0.7495340520040654, ,0.3808697781677925, ,0.07922287300259179
88, ,PASS, ,0.08645546300000002, ,0.013577413079605298, ,0.028292911927307606, ,0.0011948880525286946, ,1.8333333333333333, ,0.749850661695964, ,0.3802167302708108, ,0.07761066100691823
89, ,PASS, ,0.08752079099999999, ,0.013704718217152112, ,0.02835543217118018, ,0.0012209117658456095, ,1.8333333333333333, ,0.7485046160897324, ,0.3804208077386176, ,0.07808003918287382
90, ,PASS, ,0.08756946199999999, ,0.013637750861482195, ,0.028506153863472175, ,0.0012161235857572053, ,1.8333333333333333, ,0.7468277791223211, ,0.37944123589314505, ,0.07793718495540908
91, ,PASS, ,0.08675209000000002, ,0.013606099768437243, ,0.028401737085349283, ,0.0012016834734648164, ,1.8333333333333333, ,0.7499240617170916, ,0.38035958449827556, ,0.07977388216567009
92, ,PASS, ,0.08665798800000002, ,0.01367101507158783, ,0.02834606751860166, ,0.0012055797581368261, ,1.8333333333333333, ,0.7495628494007901, ,0.38356360074284196, ,0.07836574763780331
93, ,PASS, ,0.08689684599999999, ,0.013581157291311248, ,0.028438889629674904, ,0.0012017412554023725, ,1.8333333333333333, ,0.7483789241215396, ,0.38060447745964365, ,0.07752903001979551
94, ,PASS, ,0.08701846900000004, ,0.013653184986195829, ,0.028282738522540356, ,0.0012093073411526486, ,1.8333333333333333, ,0.7483783415555794, ,0.3807881471806698, ,0.07795759270218976
95, ,PASS, ,0.08716935900000002, ,0.013907312713493127, ,0.02852718183123814, ,0.0012326387231194425, ,1.8333333333333333, ,0.7508227184298969, ,0.38699210220199587, ,0.08056978429011653
96, ,PASS, ,0.08696203500000002, ,0.013946797922415039, ,0.028490799766608847, ,0.0012328215614436262, ,1.8333333333333333, ,0.7525478720343423, ,0.38819615926205586, ,0.08228403501969347
97, ,PASS, ,0.08724770300000001, ,0.01382397799668177, ,0.028556843397920452, ,0.0012267568765053259, ,1.8333333333333333, ,0.7504490654990441, ,0.38368604722352606, ,0.07942695047039856
98, ,PASS, ,0.087465447, ,0.013907655785414119, ,0.028546779680516724, ,0.001236675430535509, ,1.8333333333333333, ,0.7500333587187568, ,0.3873390338972674, ,0.077814738474725
99, ,PASS, ,0.08750448300000001, ,0.014054438338777927, ,0.02841089223565233, ,0.0012503078132050263, ,1.9166666666666667, ,0.7508907412081367, ,0.38564519091447114, ,0.08183506459051856
100, ,PASS, ,0.08716151300000002, ,0.013888058300685974, ,0.028506432291330788, ,0.0012308652609772802, ,1.8333333333333333, ,0.7506106101696843, ,0.3868696557213118, ,0.07756984551335687
101, ,PASS, ,0.08691392300000002, ,0.013694791544907601, ,0.02825085861578335, ,0.0012113038418997942, ,1.8333333333333333, ,0.7495463192086057, ,0.3821350584681945, ,0.07959021244464398
102, ,PASS, ,0.08669469900000004, ,0.01354366705401166, ,0.028226064690883863, ,0.0011961043442416525, ,1.8333333333333333, ,0.7483710593961289, ,0.3787881879961633, ,0.08056978429011653
103, ,PASS, ,0.086651396, ,0.013580215379204178, ,0.028452021779453482, ,0.0011981754460885711, ,1.8333333333333333, ,0.7490835162063769, ,0.37991061406910065, ,0.07928409624293382
104, ,PASS, ,0.08665002300000002, ,0.013629119810722502, ,0.028165653655639684, ,0.0012022347947293166, ,1.8333333333333333, ,0.7508844034222544, ,0.380522846472521, ,0.08075345401114263
105, ,PASS, ,0.08674450100000002, ,0.013597248478325757, ,0.028102137563070142, ,0.0012011154294779417, ,1.8333333333333333, ,0.7504392422640355, ,0.3792167506785576, ,0.08222281177935144
106, ,PASS, ,0.086856634, ,0.013660878789411836, ,0.028074727025693358, ,0.0012077426161643911, ,1.8333333333333333, ,0.7500863066251603, ,0.3800942837901267, ,0.07867186383951348
107, ,PASS, ,0.086949392, ,0.013621230219303209, ,0.027978829471765884, ,0.0012060840979198706, ,1.8333333333333333, ,0.7489634206017132, ,0.377604538682884, ,0.07814126242321585
108, ,PASS, ,0.08678010400000004, ,0.013638950122546652, ,0.028375435567372098, ,0.0012050871296232443, ,1.8333333333333333, ,0.7514194410700128, ,0.3808901859145732, ,0.08156976388236975
109, ,PASS, ,0.086843815, ,0.013646363274960096, ,0.028190003923879103, ,0.0012066501786107272, ,1.8333333333333333, ,0.7496551901563789, ,0.37899226546397013, ,0.07926368849615315
110, ,PASS, ,0.08702121700000004, ,0.013625726553724793, ,0.0283976180397747, ,0.0012070756026495411, ,1.8333333333333333, ,0.7486893877412882, ,0.3797677598416359, ,0.07710046733740128
111, ,PASS, ,0.08690530600000002, ,0.013682740991718373, ,0.028215034876541298, ,0.0012102544379381341, ,1.8333333333333333, ,0.7500780493141445, ,0.38146160282443214, ,0.07712087508418196
112, ,PASS, ,0.08672280700000003, ,0.013610281887828826, ,0.02824215985861513, ,0.0012019961098825014, ,1.8333333333333333, ,0.7496220467025343, ,0.37860451827513725, ,0.07801881594253178
113, ,PASS, ,0.08691804900000004, ,0.01363857296021608, ,0.02823987249152058, ,0.001206849292923922, ,1.8333333333333333, ,0.7496603358385245, ,0.381155486622722, ,0.0805085610497745
114, ,PASS, ,0.08692526900000003, ,0.013650081155309506, ,0.028190989514309914, ,0.0012079889629077443, ,1.8333333333333333, ,0.749552353330649, ,0.38029836125793354, ,0.07714128283096264
115, ,PASS, ,0.08689897400000003, ,0.013679443179091914, ,0.02821724024550111, ,0.0012099239708390575, ,1.8333333333333333, ,0.7501299811334533, ,0.38023713801759146, ,0.0779167772086284
116, ,PASS, ,0.08670986000000001, ,0.013631213241224915, ,0.02817365603987674, ,0.00120347317639471, ,1.8333333333333333, ,0.7505834662554678, ,0.3791963429317769, ,0.07854941735882941
117, ,PASS, ,0.08723904000000003, ,0.013800438068673784, ,0.028425742830695294, ,0.0012246845243258661, ,1.8333333333333333, ,0.7504534473407688, ,0.38319626130078976, ,0.07834533989102263
118, ,PASS, ,0.08756130299999998, ,0.01379137496765604, ,0.028736123924744394, ,0.0012282883733617169, ,1.8333333333333333, ,0.7485649596949595, ,0.38533907471276097, ,0.07628415746617416
119, ,PASS, ,0.08749625400000004, ,0.0138344575643603, ,0.028301315939295114, ,0.0012314403634181754, ,1.8333333333333333, ,0.7499066956935514, ,0.3816656802922389, ,0.07618211873227076
120, ,PASS, ,0.10010588, ,0.01540119891463028, ,0.027451993490336935, ,0.0015675560891649251, ,1.8333333333333333, ,0.7342480503876455, ,0.3858696761290586, ,0.07138629823881146
121, ,PASS, ,0.17274442, ,0.026689579615892804, ,0.013622808476494955, ,0.004680806161426983, ,1.8333333333333333, ,0.7752384579039071, ,0.42156282524846433, ,0.22070978143303197
122, ,PASS, ,0.08889006299999999, ,0.014017807736592289, ,0.02837313376965776, ,0.0012672667175706788, ,1.8333333333333333, ,0.7460813157613487, ,0.38650231627925963, ,0.07512091589967551
123, ,PASS, ,0.08593340000000002, ,0.013688036037732953, ,0.028698149023338705, ,0.0011957497551339975, ,1.8333333333333333, ,0.7491410962774826, ,0.38617579233076876, ,0.07769229199404094
124, ,PASS, ,0.08496786500000002, ,0.013514556492154299, ,0.028933915692231794, ,0.0011677577234802082, ,1.8333333333333333, ,0.748037139302952, ,0.3882573825023979, ,0.0770800595906206
125, ,PASS, ,0.08532121700000002, ,0.013514793973547658, ,0.02874243146393706, ,0.0011725171227448658, ,1.8333333333333333, ,0.74717503380483, ,0.38580845288871657, ,0.07669231240178771
126, ,PASS, ,0.08558950900000001, ,0.01356118063600184, ,0.028899093041656294, ,0.0011802516543314443, ,1.8333333333333333, ,0.746747923938638, ,0.38815534376849453, ,0.07524336238035959
127, ,PASS, ,0.09008793000000001, ,0.013408915783453568, ,0.028654859364217057, ,0.001228309862905621, ,1.8333333333333333, ,0.7191535967043593, ,0.38654313177282096, ,0.07046794963368094
128, ,PASS, ,0.00512205000000001, ,0.00018167027442659474, ,0.03766829327728006, ,1.008993678236053e-06, ,0.6666666666666666, ,0.23434163855167872, ,0.5810085508459011, ,0.012775249484704394
129, ,PASS, ,0.08440803800000003, ,0.013408398223661024, ,0.02915036601406318, ,0.0011504873381760923, ,1.8333333333333333, ,0.7474368836077276, ,0.38711454868267997, ,0.08099834697251077
130, ,PASS, ,0.08477299600000004, ,0.013399880645263524, ,0.0290734457182582, ,0.0011553297834461724, ,1.8333333333333333, ,0.7480254243134475, ,0.38766555784575824, ,0.07944735821717924
131, ,PASS, ,0.08480343200000001, ,0.013391764797885938, ,0.029167853256653945, ,0.0011547355796573408, ,1.8333333333333333, ,0.7450838052973964, ,0.38684924797453113, ,0.07434542152200975
132, ,PASS, ,0.08458583800000001, ,0.01335923254124088, ,0.029125413821679356, ,0.0011489835563277624, ,1.8333333333333333, ,0.7462321297150442, ,0.38599212260974264, ,0.0753249933674823
133, ,PASS, ,0.084536625, ,0.013247013777646637, ,0.028950785211277936, ,0.0011388365362027585, ,1.8333333333333333, ,0.7436203138701337, ,0.38415542539948166, ,0.07512091589967551
134, ,PASS, ,0.08409394, ,0.013105185690436725, ,0.02886695962533234, ,0.0011212863018348275, ,1.8333333333333333, ,0.7441562131212556, ,0.3826044366441501, ,0.07508010040611417
135, ,PASS, ,0.08411242100000002, ,0.013082813596472637, ,0.029099509901849147, ,0.0011196451135317307, ,1.8333333333333333, ,0.7417305716068666, ,0.38266565988449214, ,0.07565151731597314
136, ,PASS, ,0.083978757, ,0.013134668383127289, ,0.029206107174420726, ,0.0011219999649166865, ,1.8333333333333333, ,0.7436450429300566, ,0.3834819697557193, ,0.07444746025591314
137, ,PASS, ,0.08408691700000001, ,0.01325153841491409, ,0.029234603628906144, ,0.0011331155995571854, ,1.8333333333333333, ,0.7441839491098297, ,0.38619620007754946, ,0.07608007999836738
138, ,PASS, ,0.08385357000000003, ,0.013192880927470785, ,0.02896663567518336, ,0.0011247462395016345, ,1.8333333333333333, ,0.7453420813651597, ,0.38607375359686535, ,0.07524336238035959
139, ,PASS, ,0.083646667, ,0.013076871305864596, ,0.029205289570156938, ,0.0011126639367697825, ,1.8333333333333333, ,0.7430401391465139, ,0.38360441623640334, ,0.07671272014856839
140, ,PASS, ,0.083321773, ,0.013107923836671052, ,0.02931494688162446, ,0.0011109866806745291, ,1.8333333333333333, ,0.7461591031015959, ,0.3850737740046121, ,0.07867186383951348
141, ,PASS, ,0.083425863, ,0.01306287586835444, ,0.029138528608970225, ,0.0011083701622790097, ,1.8333333333333333, ,0.7443874421029166, ,0.3834411542621579, ,0.07710046733740128
142, ,PASS, ,0.08316608100000002, ,0.013075131415627498, ,0.029157830783862165, ,0.001106063025515181, ,1.8333333333333333, ,0.7441972379953724, ,0.3851962204852962, ,0.07748821452623415
143, ,PASS, ,0.08348911100000002, ,0.013126066403884782, ,0.029291004472111384, ,0.0011142111599522376, ,1.8333333333333333, ,0.7442949332322245, ,0.38617579233076876, ,0.07861064059917144
144, ,PASS, ,0.08324865, ,0.013113695076105429, ,0.02934347737685578, ,0.001109774640589397, ,1.8333333333333333, ,0.7440165087425005, ,0.38774718883288095, ,0.07597804126446399
145, ,PASS, ,0.08322742400000002, ,0.013100590959576417, ,0.029415164322251178, ,0.0011085512043345202, ,1.8333333333333333, ,0.7437986623580518, ,0.38611456909042674, ,0.07691679761637518
146, ,PASS, ,0.08314060800000002, ,0.013046486590762869, ,0.029220003891203442, ,0.0011028840409608145, ,1.8333333333333333, ,0.7437031107143568, ,0.38648190853247893, ,0.07856982510561009
147, ,PASS, ,0.083092733, ,0.013082440716719457, ,0.029345698106966186, ,0.001105156569118095, ,1.8333333333333333, ,0.7444578563902597, ,0.3868084324809698, ,0.07926368849615315
148, ,PASS, ,0.082617111, ,0.012979656761269633, ,0.02923256504922532, ,0.0010905502078621093, ,1.8333333333333333, ,0.7434023633821939, ,0.3863594620517949, ,0.0736515581314667
149, ,PASS, ,0.08255827499999999, ,0.012854040732397334, ,0.029167676210245505, ,0.0010793258315210782, ,1.8333333333333333, ,0.7414655140369605, ,0.3834003387685966, ,0.0739372665863962
150, ,PASS, ,0.082317051, ,0.012774757496407692, ,0.029343632669477357, ,0.0010697933046002342, ,1.8333333333333333, ,0.7418016956560131, ,0.3818085345197037, ,0.07661068141466501
151, ,PASS, ,0.08223851099999999, ,0.012750955965065217, ,0.029233928965992938, ,0.001066991154037051, ,1.8333333333333333, ,0.7416276436352489, ,0.3818901655068264, ,0.0760596722515867
152, ,PASS, ,0.083797389, ,0.012961263006361592, ,0.02905600072950552, ,0.0011047561923373875, ,1.8333333333333333, ,0.7390929704598471, ,0.3830738148201057, ,0.07536580886104365
153, ,PASS, ,0.083124574, ,0.012989283738906, ,0.029123558328168812, ,0.001097952413535803, ,1.8333333333333333, ,0.7415951227657351, ,0.38517581273851553, ,0.07691679761637518
154, ,PASS, ,0.082645121, ,0.013053653121134016, ,0.029406259977929637, ,0.0010963776909448547, ,1.8333333333333333, ,0.7434712662687537, ,0.38768596559253893, ,0.07944735821717924
155, ,PASS, ,0.08242871299999999, ,0.012891399672207527, ,0.029297116957223528, ,0.0010806465180329748, ,1.8333333333333333, ,0.7414333429758416, ,0.38611456909042674, ,0.07426379053488705
156, ,PASS, ,0.082512265, ,0.012784776358860744, ,0.029427534814072162, ,0.0010732331380941807, ,1.8333333333333333, ,0.7409813551829803, ,0.3825432134038081, ,0.07487602293830738
157, ,PASS, ,0.08262700700000002, ,0.01286826559412123, ,0.02928004509347462, ,0.0010814402278081165, ,1.8333333333333333, ,0.7407049938018504, ,0.38482888104324403, ,0.07505969265933349
158, ,PASS, ,0.082588928, ,0.012852820027702418, ,0.029351113178365546, ,0.0010792698115816084, ,1.8333333333333333, ,0.7407985230043923, ,0.38562478316769044, ,0.07542703210138568
159, ,PASS, ,0.08228939299999999, ,0.012790235354083352, ,0.029509601082614436, ,0.0010704594062617878, ,1.8333333333333333, ,0.7406504862358197, ,0.38399216342523623, ,0.07530458562070162
160, ,PASS, ,0.083567483, ,0.012921193095081118, ,0.029340293563654415, ,0.0010982234617350436, ,1.8333333333333333, ,0.738462754347593, ,0.38313503806044774, ,0.07575355604987653
161, ,PASS, ,0.08325038900000001, ,0.012922081723533332, ,0.02911786320247648, ,0.001093820268860644, ,1.8333333333333333, ,0.7387005080207808, ,0.3838901246913328, ,0.07440664476235179
162, ,PASS, ,0.082348917, ,0.012873151876897504, ,0.029383009177909633, ,0.001077662650456977, ,1.8333333333333333, ,0.740886411956698, ,0.3862166078243301, ,0.07348829615722129
163, ,PASS, ,0.08211847799999998, ,0.012945951294329825, ,0.029394865061750375, ,0.0010808080836287007, ,1.8333333333333333, ,0.7433622482599439, ,0.3883390134895206, ,0.07761066100691823
164, ,PASS, ,0.08201333699999999, ,0.012873204612900842, ,0.029500387906435787, ,0.0010733705156544782, ,1.8333333333333333, ,0.7413608993825949, ,0.38701250994877656, ,0.07526377012714026
165, ,PASS, ,0.082274644, ,0.012953186993496244, ,0.029488270463262994, ,0.001083438557314584, ,1.8333333333333333, ,0.7418338983176415, ,0.38870635293157285, ,0.07408012081386094
166, ,PASS, ,0.08217761699999997, ,0.012892290131791178, ,0.029530105932614847, ,0.001077675569468255, ,1.8333333333333333, ,0.7425009498542768, ,0.3888900226525989, ,0.07567192506275382
167, ,PASS, ,0.082191889, ,0.0129215689560727, ,0.029812292512653008, ,0.0010797003028629297, ,1.8333333333333333, ,0.7432871860348585, ,0.3915022142405257, ,0.07599844901124467
168, ,PASS, ,0.082129572, ,0.012842587258203888, ,0.02933858820837697, ,0.0010723524904890718, ,1.8333333333333333, ,0.7409350416757216, ,0.38691047121487315, ,0.07524336238035959
169, ,PASS, ,0.08185698199999998, ,0.012892001521992423, ,0.029722648004882352, ,0.0010727314902079113, ,1.8333333333333333, ,0.7439047464991881, ,0.39031856492724637, ,0.07505969265933349
170, ,PASS, ,0.08210201299999999, ,0.012845453840216067, ,0.029692726829348787, ,0.0010720952195710175, ,1.8333333333333333, ,0.7406376072410419, ,0.3874410726311708, ,0.07359033489112467
171, ,PASS, ,0.08209654600000002, ,0.01282792908524741, ,0.029272230795000714, ,0.0010709822562951592, ,1.8333333333333333, ,0.7413525602712647, ,0.386665578253505, ,0.07665149690822637
172, ,PASS, ,0.08188213500000001, ,0.012833649094514458, ,0.029550908147721884, ,0.001068421962811296, ,1.8333333333333333, ,0.7411500420110171, ,0.38782881982000367, ,0.07275361727311687
173, ,PASS, ,0.08178550200000001, ,0.012852296332765115, ,0.029408905039993875, ,0.0010685870215271758, ,1.8333333333333333, ,0.7436798248447816, ,0.38731862615048673, ,0.07934531948327585
174, ,PASS, ,0.08173522899999999, ,0.012784145292528958, ,0.02954341028857207, ,0.001062327389610549, ,1.8333333333333333, ,0.7423725118644706, ,0.38599212260974264, ,0.07738617579233077
175, ,PASS, ,0.081807956, ,0.01282099075382848, ,0.029408079979193282, ,0.001066696632197421, ,1.8333333333333333, ,0.7414000859294465, ,0.3864002775453562, ,0.07446786800269382
176, ,PASS, ,0.081814445, ,0.012833433768519273, ,0.029342433250531826, ,0.0010674973836559284, ,1.8333333333333333, ,0.7422914401466234, ,0.3862370155711108, ,0.07626374971939348
177, ,PASS, ,0.08188061300000002, ,0.012878808105822587, ,0.029261463691026106, ,0.0010720785800073288, ,1.8333333333333333, ,0.7443582821996849, ,0.38646150078569824, ,0.08489622660762025
178, ,PASS, ,0.081805449, ,0.012758439864458716, ,0.029453170754959086, ,0.0010613780247157043, ,1.8333333333333333, ,0.7411109351352573, ,0.38386971694455213, ,0.07644741944041958
179, ,PASS, ,0.08197175299999998, ,0.012810615426636661, ,0.029307510371485684, ,0.0010680007332800794, ,1.8333333333333333, ,0.7418651872655474, ,0.38529825921919963, ,0.07756984551335687
180, ,PASS, ,0.081922726, ,0.012825691288007224, ,0.029221426698151875, ,0.0010684807111589164, ,1.8333333333333333, ,0.741443983817326, ,0.3854207056998837, ,0.07508010040611417
181, ,PASS, ,0.081971428, ,0.012868031648971205, ,0.02942907995971939, ,0.0010725776818371305, ,1.8333333333333333, ,0.7429666342831606, ,0.386665578253505, ,0.07793718495540908
182, ,PASS, ,0.081893627, ,0.012768542385893767, ,0.02930058221545152, ,0.0010635144219716354, ,1.8333333333333333, ,0.7415499196376937, ,0.38370645497030675, ,0.0743046060284484
183, ,PASS, ,0.081896528, ,0.012737774066102528, ,0.029116650259060833, ,0.0010609742846061467, ,1.8333333333333333, ,0.7409466956713705, ,0.38248199016346607, ,0.07599844901124467
184, ,PASS, ,0.08171264200000003, ,0.012662632892770686, ,0.029187848553025652, ,0.0010529458831033277, ,1.8333333333333333, ,0.7420359951159501, ,0.38240035917634335, ,0.07601885675802535
185, ,PASS, ,0.082234797, ,0.012758097958478357, ,0.02917717888545234, ,0.00106717391915998, ,1.8333333333333333, ,0.7418334479515589, ,0.3812779331034061, ,0.0795698046978633
186, ,PASS, ,0.082218163, ,0.012692429588900137, ,0.02911113574340769, ,0.0010618051005052062, ,1.8333333333333333, ,0.7396402594257281, ,0.38150241831799353, ,0.07346788841044061
187, ,PASS, ,0.082422074, ,0.012832581361099287, ,0.02930295986012061, ,0.0010755580784162129, ,1.8333333333333333, ,0.7414233818318684, ,0.38370645497030675, ,0.07587600253056061
188, ,PASS, ,0.08258902900000001, ,0.012833317584763908, ,0.02913419376678721, ,0.0010778025629811195, ,1.8333333333333333, ,0.7410423757531882, ,0.3834615620089386, ,0.07556988632885044
189, ,PASS, ,0.08273412200000002, ,0.012817218489677614, ,0.02935397681951368, ,0.0010788543909710702, ,1.8333333333333333, ,0.740914999678303, ,0.3838901246913328, ,0.07585559478377993
190, ,PASS, ,0.08320465600000002, ,0.012827282845436548, ,0.02904937205134181, ,0.0010859301382874983, ,1.8333333333333333, ,0.7389363721647815, ,0.3803799922450562, ,0.07444746025591314
191, ,PASS, ,0.10322395999999996, ,0.014858401568850396, ,0.027743914609905915, ,0.0015586645712956724, ,1.75, ,0.7081599729753518, ,0.38199220424072977, ,0.07250872431174873
192, ,PASS, ,0.16403348999999995, ,0.023781306404108193, ,0.01767589329044304, ,0.003957908028620236, ,1.75, ,0.7479871366651554, ,0.41199159200832636, ,0.19105732536070694
193, ,PASS, ,0.089298674, ,0.013669472767456382, ,0.028926169635517644, ,0.0012404341641542131, ,1.8333333333333333, ,0.7298413400758896, ,0.38856349870410806, ,0.07359033489112467
194, ,PASS, ,0.087420646, ,0.01334873987156836, ,0.028808336841982817, ,0.0011863237426717379, ,1.8333333333333333, ,0.7294343567112125, ,0.3863186465582335, ,0.07193730740188976
195, ,PASS, ,0.087274681, ,0.013326058369717252, ,0.028987007504581542, ,0.0011822737776547548, ,1.8333333333333333, ,0.728799400555585, ,0.38617579233076876, ,0.06999857145772535
196, ,PASS, ,0.08667311999999999, ,0.013162316424244232, ,0.02932621118285341, ,0.0011600529074535682, ,1.8333333333333333, ,0.7303257769774094, ,0.3855227444337871, ,0.07338625742331789
197, ,PASS, ,0.086765342, ,0.013197012148562916, ,0.029376807013836454, ,0.0011638468144592627, ,1.8333333333333333, ,0.7305229136961854, ,0.38719617966980263, ,0.07612089549192874
198, ,PASS, ,0.08656158900000001, ,0.013071766350941018, ,0.029081925432093224, ,0.0011505478727482522, ,1.8333333333333333, ,0.7283572551052003, ,0.3833391155282545, ,0.07456990673659722
199, ,PASS, ,0.08633048500000003, ,0.013068227127110331, ,0.028911704049345937, ,0.001147086582623068, ,1.8333333333333333, ,0.7280532405037545, ,0.38366563947674537, ,0.07385563559927348
200, ,PASS, ,0.086134625, ,0.012994102574075553, ,0.029097238080100406, ,0.001138122208132897, ,1.8333333333333333, ,0.7288653141620516, ,0.38350237750249994, ,0.07201893838901247
201, ,PASS, ,0.08623294300000003, ,0.013019854740799516, ,0.02916620807473317, ,0.0011416149146761517, ,1.8333333333333333, ,0.7279660665576251, ,0.3834207465153772, ,0.07373318911858942
202, ,PASS, ,0.08617392400000001, ,0.01282991574671289, ,0.02870622304657048, ,0.0011248874074658113, ,1.8333333333333333, ,0.7236495150067541, ,0.3783800330605498, ,0.06965163976245382
203, ,PASS, ,0.08627613100000005, ,0.013143138273441752, ,0.02905986653484623, ,0.001152711411041133, ,1.8333333333333333, ,0.728195502395972, ,0.3862778310646722, ,0.07252913205852941
204, ,PASS, ,0.08626443300000004, ,0.013094635739287984, ,0.02887726426883125, ,0.0011483830207720564, ,1.8333333333333333, ,0.7266656635062967, ,0.38572682190159385, ,0.07063121160792638
205, ,PASS, ,0.08644618500000004, ,0.013155456147104639, ,0.029049851661904862, ,0.001155919740344804, ,1.8333333333333333, ,0.7276560996768748, ,0.3862370155711108, ,0.07089651231607519
206, ,PASS, ,0.08610167400000003, ,0.01295832247622262, ,0.029121569070590398, ,0.0011344303986888173, ,1.8333333333333333, ,0.7257003381396945, ,0.3838084937042101, ,0.07112099753066264
207, ,PASS, ,0.08615244, ,0.012927827895792532, ,0.029205930165833352, ,0.001132619660066627, ,1.8333333333333333, ,0.7247343998525526, ,0.3831758535540091, ,0.06963123201567314
208, ,PASS, ,0.08576907400000001, ,0.012875217225554023, ,0.029310328864206855, ,0.0011228701746112248, ,1.8333333333333333, ,0.725987098237221, ,0.3834003387685966, ,0.06824350523458705
209, ,PASS, ,0.086287804, ,0.012900915145350052, ,0.029193619588294122, ,0.0011323163448081245, ,1.8333333333333333, ,0.7255244893190009, ,0.38315544580722843, ,0.06993734821738332
210, ,PASS, ,0.08592664400000001, ,0.012847114468913989, ,0.02904348929544295, ,0.0011227257626956074, ,1.8333333333333333, ,0.7246852555311287, ,0.3817064957858003, ,0.07210056937613518
211, ,PASS, ,0.08593336500000003, ,0.012903594755210341, ,0.029000918145425606, ,0.0011276933668442155, ,1.8333333333333333, ,0.7261534321949499, ,0.38286973735229896, ,0.0737535968653701
212, ,PASS, ,0.08582718, ,0.012798285721580828, ,0.029282941957837597, ,0.001117324526499517, ,1.8333333333333333, ,0.7235817727308498, ,0.38276769861839555, ,0.06554968265953756
213, ,PASS, ,0.08600703900000004, ,0.012734256320426945, ,0.02895882254351952, ,0.0011142824600156244, ,1.8333333333333333, ,0.7225981767211697, ,0.3792779739188996, ,0.06787616579253485
214, ,PASS, ,0.08562010400000004, ,0.012714976298921826, ,0.029046284599069407, ,0.0011075504651707688, ,1.8333333333333333, ,0.7230160245821536, ,0.379951429562662, ,0.07197812289545111
215, ,PASS, ,0.08563174400000002, ,0.012742145364857018, ,0.029178965018897576, ,0.0011101286017392166, ,1.8333333333333333, ,0.7243536117285688, ,0.38080855492745047, ,0.0727332095263362
216, ,PASS, ,0.08575220300000003, ,0.012757547219203413, ,0.029162584286932924, ,0.001113065702293517, ,1.8333333333333333, ,0.7233990423181287, ,0.3801350992836881, ,0.06877410665088468
217, ,PASS, ,0.08603189100000001, ,0.012844980255727253, ,0.029120558700597952, ,0.0011241171069034418, ,1.8333333333333333, ,0.7252266272114479, ,0.3833799310218159, ,0.07220260811003858
218, ,PASS, ,0.08598472800000001, ,0.012839224423237618, ,0.02919505781569764, ,0.0011227310697124093, ,1.8333333333333333, ,0.723781325575344, ,0.3832574845411318, ,0.07148833697271484
219, ,PASS, ,0.08594438000000003, ,0.012720274979719308, ,0.029042835814677252, ,0.0011123936103705377, ,1.8333333333333333, ,0.7219239381633746, ,0.37954327462704845, ,0.06940674680108569
220, ,PASS, ,0.08581264, ,0.01275536390215485, ,0.029107380729964695, ,0.0011134642767395436, ,1.8333333333333333, ,0.7233288555278584, ,0.3809310014081345, ,0.0689373686251301
221, ,PASS, ,0.08600640300000002, ,0.012750440240363882, ,0.028864130879655517, ,0.0011159097001873686, ,1.8333333333333333, ,0.7224121286065084, ,0.37991061406910065, ,0.07097814330319789
222, ,PASS, ,0.08602204900000002, ,0.012760156337264714, ,0.029040160174567866, ,0.0011168527785594812, ,1.8333333333333333, ,0.7219600631745018, ,0.3799310218158813, ,0.07195771514867043
223, ,PASS, ,0.08801224999999999, ,0.013081458607267142, ,0.0290458674783984, ,0.0011706379375102476, ,1.8333333333333333, ,0.7207569786187035, ,0.38403297891879756, ,0.07256994755209077
224, ,PASS, ,0.08649815200000001, ,0.012842059029378251, ,0.029191632900899985, ,0.0011295680024335827, ,1.8333333333333333, ,0.7216866549280705, ,0.3817473112793616, ,0.07087610456929451
225, ,PASS, ,0.08649024900000005, ,0.012950851251031448, ,0.029219532226872926, ,0.0011387341472151678, ,1.8333333333333333, ,0.7229994667634154, ,0.3838901246913328, ,0.07267198628599417
226, ,PASS, ,0.08624885700000001, ,0.012828665155903632, ,0.029085708099487767, ,0.0011253090962827063, ,1.8333333333333333, ,0.722004840569763, ,0.38201261198751046, ,0.07038631864655823
227, ,PASS, ,0.086480898, ,0.012888767490963035, ,0.029138704858145754, ,0.0011335350999417473, ,1.8333333333333333, ,0.7215260028750529, ,0.3825840288973694, ,0.07126385175812738
228, ,PASS, ,0.08645761900000001, ,0.013087074535888761, ,0.029142196519581238, ,0.001150204579729966, ,1.8333333333333333, ,0.7248174873034372, ,0.38654313177282096, ,0.07216179261647722
229, ,PASS, ,0.087009838, ,0.013092477374828703, ,0.02943716755458052, ,0.0011575615789930804, ,1.8333333333333333, ,0.7207191834614348, ,0.3887267606783535, ,0.07285565600702026
230, ,PASS, ,0.086936091, ,0.012955635475411797, ,0.02905206153231567, ,0.0011452568345304264, ,1.8333333333333333, ,0.7214639685504306, ,0.3834207465153772, ,0.0731005489683884
231, ,PASS, ,0.088648726, ,0.013072963789508462, ,0.02892506343225648, ,0.0011783100299962504, ,1.8333333333333333, ,0.7174398085626927, ,0.3828901450990796, ,0.07048835738046162
232, ,PASS, ,0.08766263, ,0.013182101774603447, ,0.029019750050243872, ,0.0011747509689180964, ,1.8333333333333333, ,0.7222427575692021, ,0.3862370155711108, ,0.0707944735821718
233, ,PASS, ,0.08744641499999999, ,0.012929554503841529, ,0.028948254188241058, ,0.0011498810550368808, ,1.8333333333333333, ,0.7193231718694081, ,0.3821350584681945, ,0.06738637986979858
234, ,PASS, ,0.08708713, ,0.012929495600657877, ,0.028900481611701802, ,0.0011451977496600334, ,1.8333333333333333, ,0.7209800482646057, ,0.38229832044243994, ,0.07210056937613518
235, ,PASS, ,0.087435236, ,0.013006655797549211, ,0.02910316513179323, ,0.0011564450966075968, ,1.8333333333333333, ,0.7208898978280618, ,0.3831758535540091, ,0.06871288341054264
236, ,PASS, ,0.08755333399999997, ,0.013015728877400603, ,0.029192875943878697, ,0.0011589199675926766, ,1.8333333333333333, ,0.7211779955153658, ,0.38231872818922064, ,0.07071284259504908
237, ,PASS, ,0.08790828199999998, ,0.013060078929085638, ,0.028975176165057855, ,0.0011676078686493143, ,1.8333333333333333, ,0.7205657292190012, ,0.3820942429746332, ,0.06954960102855044
238, ,PASS, ,0.08786470299999999, ,0.013040178312242835, ,0.028921502049590826, ,0.0011651138019570491, ,1.8333333333333333, ,0.7195801109291081, ,0.38154323381155486, ,0.06920266933327891
239, ,PASS, ,0.08808495099999997, ,0.013070659150914087, ,0.028877346836778842, ,0.0011709524910828715, ,1.8333333333333333, ,0.7197850909707612, ,0.38195138874716844, ,0.07005979469806739
240, ,PASS, ,0.08811072499999999, ,0.013052712912346855, ,0.028911849730760594, ,0.0011698017741337467, ,1.8333333333333333, ,0.7205612393304712, ,0.3819717964939491, ,0.07167200669374095
241, ,PASS, ,0.088741184, ,0.013194340852220623, ,0.02892922116311912, ,0.0011905666704217068, ,1.8333333333333333, ,0.7208091727168654, ,0.38370645497030675, ,0.07118222077100467
242, ,PASS, ,0.08838414199999998, ,0.01314330352872467, ,0.028949839691087935, ,0.001181325262030936, ,1.8333333333333333, ,0.7215890372817448, ,0.38397175567845554, ,0.07201893838901247
243, ,PASS, ,0.08863866, ,0.013200693528149114, ,0.028880190782698312, ,0.0011896414500814747, ,1.8333333333333333, ,0.7210244261303576, ,0.38362482398318404, ,0.07156996795983755
244, ,PASS, ,0.08841761499999998, ,0.013173682168583941, ,0.028802252433685026, ,0.0011844801018900124, ,1.8333333333333333, ,0.722112307048627, ,0.3832778922879125, ,0.07148833697271484
245, ,PASS, ,0.08894634, ,0.013095315316165165, ,0.02872665728964715, ,0.0011851010759612395, ,1.8333333333333333, ,0.7193328471370571, ,0.379380012652803, ,0.07169241444052162
246, ,PASS, ,0.088736387, ,0.013008688598431843, ,0.02878438021883227, ,0.0011747431028064203, ,1.8333333333333333, ,0.7180976793160843, ,0.3779514703781556, ,0.06714148690843044
247, ,PASS, ,0.089097518, ,0.013033661162393562, ,0.02856955891630783, ,0.0011820136915831145, ,1.8333333333333333, ,0.7173641636788698, ,0.37646170486316605, ,0.06936593130752433
248, ,PASS, ,0.08893807599999999, ,0.013196550802709378, ,0.028945829670169995, ,0.001193900508035484, ,1.8333333333333333, ,0.7226029230354283, ,0.38111467112916064, ,0.07216179261647722
249, ,PASS, ,0.08943647899999997, ,0.013186141418952803, ,0.028611707925103567, ,0.001199652844624614, ,1.8333333333333333, ,0.7208634026620337, ,0.3812779331034061, ,0.07128425950490806
250, ,PASS, ,0.08938030800000002, ,0.013138539610084378, ,0.028651829956531497, ,0.0011949667280856417, ,1.8333333333333333, ,0.7202515119251921, ,0.3796657211077325, ,0.07308014122160772
251, ,PASS, ,0.089657525, ,0.01319371463860447, ,0.02879465120938348, ,0.0012037371465682418, ,1.8333333333333333, ,0.720026748708726, ,0.3801146915369074, ,0.07001897920450603
252, ,PASS, ,0.08915190399999999, ,0.013172833083411467, ,0.028807545914634396, ,0.0011950359642214756, ,1.8333333333333333, ,0.7212944146435322, ,0.38064529295320504, ,0.07214138486969654
253, ,PASS, ,0.08975872300000001, ,0.013290337441188021, ,0.028660721797718412, ,0.001213836331230304, ,1.8333333333333333, ,0.7236812609536584, ,0.3792575661721189, ,0.07101895879675925
254, ,PASS, ,0.09014837, ,0.013258294865680866, ,0.028708522239525726, ,0.0012157978162057924, ,1.8333333333333333, ,0.7178690474348688, ,0.38201261198751046, ,0.07085569682251383
255, ,PASS, ,0.09078019100000002, ,0.013363919820814434, ,0.028652695047896984, ,0.0012343460777463604, ,1.8333333333333333, ,0.7203057163706509, ,0.38023713801759146, ,0.07077406583539111
