Channel, ,Pass/Fail, ,Amplitude, ,Sorting Function Response, ,Mean, ,Variance, ,NPeaksRatio, ,PosIntegralRatio, ,ToT50, ,ToT99
231, ,PASS, ,0.10617261000000004, ,0.018117672305478255, ,0.029247864380114695, ,0.0019374799931337495, ,1.8333333333333333, ,0.7963252072954045, ,0.5123772984224811, ,0.10565090508356972
232, ,PASS, ,0.10697593000000005, ,0.017961327122839685, ,0.028847652715862943, ,0.0019345644944358327, ,1.9166666666666667, ,0.7856485088346737, ,0.5088671659762045, ,0.08973286259464093
233, ,PASS, ,0.035352203000000006, ,0.005783623353823825, ,0.028203756597212304, ,0.0002057998713342614, ,1.9166666666666667, ,0.7716752684247875, ,0.5050101018346564, ,0.07265157853921349
234, ,PASS, ,0.027872409999999986, ,0.004483957812357211, ,0.027966642913205855, ,0.000125821959650291, ,1.9166666666666667, ,0.764489185651615, ,0.5064794596028652, ,0.056468235342135874
235, ,PASS, ,0.028129889999999973, ,0.0043715453146194756, ,0.027978470356523334, ,0.0001239782364602162, ,1.8333333333333333, ,0.7403143099581835, ,0.4997040876716802, ,0.02173425032142201
236, ,PASS, ,0.027703499999999978, ,0.004418421046302605, ,0.028161448654517255, ,0.00012325167266769583, ,1.8333333333333333, ,0.7527236936429156, ,0.5012550764270117, ,0.05601926491296096
237, ,PASS, ,0.027406659999999996, ,0.00439747207843308, ,0.027935496715373157, ,0.00012158001173414175, ,1.8333333333333333, ,0.7606949395593683, ,0.5093161364053794, ,0.06777412705863145
238, ,PASS, ,0.027338079999999983, ,0.004416309082823847, ,0.028050045970082243, ,0.00012152203086772609, ,1.9166666666666667, ,0.7642748887230998, ,0.5054590722638314, ,0.0720801616293545
239, ,PASS, ,0.027263829999999996, ,0.004347681347469688, ,0.027967265729474906, ,0.00011936719992006524, ,1.8333333333333333, ,0.7584270561131458, ,0.501928532070774, ,0.0667129242260362
240, ,PASS, ,0.027864379999999987, ,0.0044385749020917215, ,0.027937235933144223, ,0.0001246549121685502, ,1.8333333333333333, ,0.755124298395304, ,0.5013162996673537, ,0.0561621191404257
241, ,PASS, ,0.027552559999999997, ,0.004394412887073317, ,0.027865127120875084, ,0.00012197066362987298, ,1.8333333333333333, ,0.7570559066876265, ,0.5014591538948184, ,0.06248852064243587
242, ,PASS, ,0.02766966, ,0.004370074556120791, ,0.028116854129711637, ,0.00012181266601837132, ,1.8333333333333333, ,0.7530620061784762, ,0.5044386849247975, ,0.04471337319646538
243, ,PASS, ,0.027568289999999995, ,0.004413462276867908, ,0.02802934691373645, ,0.00012258193761615876, ,1.8333333333333333, ,0.7550821188160279, ,0.5013571151609151, ,0.06314156853941756
244, ,PASS, ,0.027793909999999998, ,0.004453072554347943, ,0.0279394713314014, ,0.0001246926612097186, ,1.8333333333333333, ,0.7563067749355223, ,0.5042958306973327, ,0.048692883818697574
245, ,PASS, ,0.028237049999999993, ,0.004454439404049803, ,0.027858295010918143, ,0.00012655105769072272, ,1.8333333333333333, ,0.7581480624128891, ,0.5036835982939124, ,0.0566314973163813
246, ,PASS, ,0.027945959999999985, ,0.004453259643067463, ,0.027878107247811267, ,0.0001253879568191215, ,1.9166666666666667, ,0.7577203568983524, ,0.502377502499949, ,0.05465194587865554
247, ,PASS, ,0.027983649999999978, ,0.004470254569028242, ,0.028044040193465437, ,0.00012610314631814618, ,1.8333333333333333, ,0.761773157576298, ,0.5043162384441134, ,0.06516193547070467
248, ,PASS, ,0.028153179999999986, ,0.004515998432724701, ,0.027833339224913777, ,0.00012809760122118845, ,1.8333333333333333, ,0.7595351276411382, ,0.5021326095385809, ,0.06687618620028163
249, ,PASS, ,0.028392969999999976, ,0.00452812755249744, ,0.027803569441031815, ,0.0001292923672598912, ,1.8333333333333333, ,0.7513177444022661, ,0.5005203975429073, ,0.0335911512009959
250, ,PASS, ,0.028648699999999992, ,0.004489743637447921, ,0.027968780467745556, ,0.00012939237002634643, ,1.8333333333333333, ,0.7373712194868288, ,0.4972959735515602, ,0.019795514377257607
251, ,PASS, ,0.028226639999999983, ,0.004510840448164649, ,0.027992938497173527, ,0.0001282299977192941, ,1.8333333333333333, ,0.7540221183153855, ,0.5018264933368707, ,0.05536621701597927
252, ,PASS, ,0.028104349999999976, ,0.004432236152337789, ,0.028064015791718532, ,0.00012548809287111243, ,1.8333333333333333, ,0.7509768067548882, ,0.5015203771351605, ,0.04061141609354911
253, ,PASS, ,0.028430579999999983, ,0.0044827976906051895, ,0.02789338197751066, ,0.00012835182843436938, ,1.8333333333333333, ,0.7520138847643022, ,0.5015203771351605, ,0.05867227199444909
254, ,PASS, ,0.028413879999999985, ,0.0045317569878535, ,0.027857229959388583, ,0.00012969829749792533, ,1.8333333333333333, ,0.7555538725722564, ,0.49919389400216324, ,0.06920266933327891
255, ,PASS, ,0.02835305999999997, ,0.00452313522051365, ,0.027957229793473603, ,0.00012898441249864831, ,1.9166666666666667, ,0.7517849380602288, ,0.5083161568131263, ,0.039570621007734536
