Channel, ,Pass/Fail, ,Amplitude, ,Sorting Function Response, ,Mean, ,Variance, ,NPeaksRatio, ,PosIntegralRatio, ,ToT50, ,ToT99
0, ,PASS, ,0.045195992, ,0.007736126129392566, ,0.0281044469280831, ,0.00035219687578996706, ,1.8333333333333333, ,0.7940755383142909, ,0.47899022468929203, ,0.06524356645782739
1, ,PASS, ,0.045147601999999995, ,0.007624302439759664, ,0.028913943872349544, ,0.00034664317210643495, ,1.8333333333333333, ,0.7970017883268257, ,0.5028876961694659, ,0.07036591089977756
2, ,PASS, ,0.04560862, ,0.007677958904706821, ,0.029495491385237035, ,0.00035183608277704895, ,1.9166666666666667, ,0.8002853281045219, ,0.5146833738086978, ,0.06587620660802841
3, ,PASS, ,0.04541200399999999, ,0.007703937556486361, ,0.028753620472316894, ,0.0003522086078819821, ,1.75, ,0.8010602452261479, ,0.5016632313626253, ,0.08246770474071957
4, ,PASS, ,0.04528006300000001, ,0.007635939263311245, ,0.029899072899675517, ,0.00034796657354290616, ,1.9166666666666667, ,0.79803852660447, ,0.5227444337870656, ,0.07330462643619517
5, ,PASS, ,0.045352329000000004, ,0.007902141110353091, ,0.029357308655741723, ,0.0003601074682075926, ,1.9166666666666667, ,0.8026409764046252, ,0.5186832921777107, ,0.07348829615722129
6, ,PASS, ,0.045547855, ,0.007711231437797939, ,0.0296656086562111, ,0.0003531758027135191, ,1.9166666666666667, ,0.8009308839236038, ,0.5158057998816351, ,0.06910063059937552
7, ,PASS, ,0.045649192000000005, ,0.007726487193615858, ,0.029400586355747844, ,0.0003546950162924669, ,1.9166666666666667, ,0.7997826889975098, ,0.5140915491520581, ,0.0683863594620518
8, ,PASS, ,0.04564547400000001, ,0.007744156384159214, ,0.029561239837227814, ,0.00035547518059468423, ,1.9166666666666667, ,0.8020094940823528, ,0.5179894287871676, ,0.07120262851778535
9, ,PASS, ,0.04563691900000001, ,0.0078090817707063016, ,0.02928928696234771, ,0.00035810238017308275, ,1.8333333333333333, ,0.8028202736206866, ,0.5106630476929043, ,0.08120242444031754
10, ,PASS, ,0.045422683, ,0.007719309860357953, ,0.02931816791877717, ,0.0003528846492103246, ,1.8333333333333333, ,0.8002025365883499, ,0.5114793575641313, ,0.0713454827452501
11, ,PASS, ,0.04550356900000001, ,0.007703055607630029, ,0.02923694917232302, ,0.00035270636809608556, ,1.8333333333333333, ,0.7981226007063524, ,0.5104997857186588, ,0.06997816371094467
12, ,PASS, ,0.045989445, ,0.007819938297270672, ,0.029673801949245935, ,0.0003611285019374888, ,1.8333333333333333, ,0.8019210758694008, ,0.5134589090018571, ,0.07354951939756331
13, ,PASS, ,0.0602571039, ,0.010308159792272866, ,0.03064374211112794, ,0.0006251725645165336, ,1.9166666666666667, ,0.8142602225492908, ,0.525377033121773, ,0.12320156731495276
14, ,PASS, ,0.09029521999999998, ,0.014885383634157999, ,0.03209595893206261, ,0.0013511458367759478, ,1.8333333333333333, ,0.7999395999069607, ,0.5244790922634232, ,0.1949756127425971
15, ,PASS, ,0.04972876400000001, ,0.008451181904233197, ,0.0295164042523622, ,0.0004224195654087578, ,1.9166666666666667, ,0.8032559988121705, ,0.515234382971776, ,0.09005938654313177
16, ,PASS, ,0.04829947900000001, ,0.008146030145874337, ,0.029891464250525503, ,0.00039539404870377694, ,1.8333333333333333, ,0.8027996501079337, ,0.5248668394522561, ,0.07379441235893144
17, ,PASS, ,0.04858918100000002, ,0.008141412874950784, ,0.02946985123332177, ,0.0003983554993307662, ,1.8333333333333333, ,0.7915695871217943, ,0.5137242097100059, ,0.06283545233770739
18, ,PASS, ,0.04814800400000002, ,0.008106895923098937, ,0.029822652703965228, ,0.0003925224478357881, ,1.9166666666666667, ,0.7963815581494373, ,0.5183771759760005, ,0.06601906083549315
19, ,PASS, ,0.048063864000000026, ,0.008121380150400192, ,0.02978693472167915, ,0.0003918990686259705, ,1.9166666666666667, ,0.8008832998695883, ,0.5183363604824391, ,0.07587600253056061
20, ,PASS, ,0.04780175500000002, ,0.008157427550036586, ,0.02942044814087468, ,0.0003917572595766127, ,1.8333333333333333, ,0.802345677590444, ,0.513214016040489, ,0.08471255688659415
21, ,PASS, ,0.04786672000000001, ,0.007988667681995779, ,0.0298839730521418, ,0.00038548072988672577, ,1.9166666666666667, ,0.7984812673375565, ,0.5249280626925981, ,0.06840676720883247
22, ,PASS, ,0.04788334200000001, ,0.008090652359123528, ,0.02966837967425155, ,0.00038953019774478985, ,1.9166666666666667, ,0.8034194638160198, ,0.5188669618987367, ,0.08903899920409787
23, ,PASS, ,0.04755990800000001, ,0.008041143856038284, ,0.029660957196893944, ,0.0003842946432540826, ,1.9166666666666667, ,0.7987795661891514, ,0.5153568294524602, ,0.07363115038468603
24, ,PASS, ,0.04759510100000001, ,0.008030963342839693, ,0.02957721760866105, ,0.0003841414510382102, ,1.9166666666666667, ,0.7977476877676716, ,0.5156017224138283, ,0.0666312932389135
25, ,PASS, ,0.04759708600000001, ,0.008059298008350008, ,0.028939983574559704, ,0.00038654209545566575, ,1.8333333333333333, ,0.7949975015471045, ,0.4998265341523642, ,0.071161813024224
26, ,PASS, ,0.04741899200000001, ,0.007925610522700646, ,0.02955732255315198, ,0.0003781092485015186, ,1.9166666666666667, ,0.7924338970500105, ,0.5166425174996429, ,0.06954960102855044
27, ,PASS, ,0.04743596100000001, ,0.007985336135770097, ,0.029675869657149856, ,0.0003808746068728746, ,1.9166666666666667, ,0.7993255031608685, ,0.5190914471133242, ,0.06918226158649823
28, ,PASS, ,0.04749318200000001, ,0.00801582215961703, ,0.0299126245845595, ,0.0003828814653728978, ,1.9166666666666667, ,0.8049851077231253, ,0.5225607640660395, ,0.09242668516969041
29, ,PASS, ,0.047465055000000006, ,0.007951667029530178, ,0.026509861348482683, ,0.0003818900728687569, ,1.75, ,0.7785204082513382, ,0.4489296136813534, ,0.07142711373237282
30, ,PASS, ,0.04764202200000003, ,0.007983016171795008, ,0.029588097007469238, ,0.0003819140073709203, ,1.8333333333333333, ,0.793805696607543, ,0.5139282871778127, ,0.06763127283116671
31, ,PASS, ,0.04736568800000002, ,0.0079991446519679, ,0.029825454984857454, ,0.0003810425159889752, ,1.9166666666666667, ,0.8012414071436136, ,0.5182955449888778, ,0.07712087508418196
32, ,PASS, ,0.04681168299999999, ,0.00803669566240366, ,0.029158392854349912, ,0.0003778670797960451, ,1.8333333333333333, ,0.8077760274620822, ,0.5063978286157426, ,0.09340625701516296
33, ,PASS, ,0.04683779900000002, ,0.007886020474530953, ,0.029419312519948573, ,0.0003714322774343313, ,1.9166666666666667, ,0.7978192920017102, ,0.5176424970918961, ,0.0756107018224118
34, ,PASS, ,0.04679371700000001, ,0.007905354074575465, ,0.02958754341556295, ,0.00037171824900240804, ,1.9166666666666667, ,0.7989177271346574, ,0.5146017428215751, ,0.0810595702128528
35, ,PASS, ,0.046931742000000005, ,0.007914503968200643, ,0.028965832662966064, ,0.00037387557229295784, ,1.8333333333333333, ,0.7925919884274585, ,0.5037856370278158, ,0.06836595171527111
36, ,PASS, ,0.047350400000000015, ,0.008034247138107844, ,0.029598910301014268, ,0.0003816523928831831, ,1.8333333333333333, ,0.8015775516851292, ,0.516438440031836, ,0.08548805126425991
37, ,PASS, ,0.04739102600000001, ,0.008038805939275657, ,0.029502576497785763, ,0.00038245080494331773, ,1.8333333333333333, ,0.7997390349779988, ,0.5145609273280137, ,0.0803248913287484
38, ,PASS, ,0.047090701, ,0.007999352678270935, ,0.029601664079222875, ,0.00037801030156914067, ,1.8333333333333333, ,0.8040047456145338, ,0.5154384604395829, ,0.09122262810963042
39, ,PASS, ,0.04673395700000002, ,0.007898510582885293, ,0.02963310047599029, ,0.00037112316282093464, ,1.9166666666666667, ,0.8003541002822289, ,0.5191118548601049, ,0.08705944776637212
40, ,PASS, ,0.04701895000000001, ,0.007901913230213352, ,0.029599187466561906, ,0.00037367479859081533, ,1.9166666666666667, ,0.8004279035061331, ,0.5211526295381727, ,0.0818962878308606
41, ,PASS, ,0.04712775800000001, ,0.00799749106812346, ,0.029131937210669173, ,0.0003785237942042127, ,1.8333333333333333, ,0.7994123366917883, ,0.510805901920369, ,0.08736556396808229
42, ,PASS, ,0.04758452200000002, ,0.008013661484766305, ,0.029640741103650947, ,0.00038348895262902056, ,1.9166666666666667, ,0.8002371975442992, ,0.518785330911614, ,0.08218199628579008
43, ,PASS, ,0.047840429000000004, ,0.008032441234601865, ,0.029551103579682048, ,0.0003863193078220379, ,1.9166666666666667, ,0.7981274899990943, ,0.522785249280627, ,0.08359013081365686
44, ,PASS, ,0.047666663000000005, ,0.008076591314106797, ,0.02972255421599559, ,0.00038705245546046126, ,1.9166666666666667, ,0.8051923153220212, ,0.5249076549458175, ,0.10779371849554091
45, ,PASS, ,0.047870743, ,0.008058731569286928, ,0.029586759178180037, ,0.0003875803447008653, ,1.9166666666666667, ,0.8009812536685961, ,0.5204587661476296, ,0.08622273014836432
46, ,PASS, ,0.04806508599999999, ,0.008064327018694152, ,0.029726745135099288, ,0.00038967599055494755, ,1.9166666666666667, ,0.7992314495675679, ,0.5204587661476296, ,0.07565151731597314
47, ,PASS, ,0.048423235, ,0.008224300825344895, ,0.02943477065512949, ,0.00039985259215961585, ,1.8333333333333333, ,0.7989209571274725, ,0.5118671047529643, ,0.07475357645762332
48, ,PASS, ,0.04782526299999999, ,0.00808770990447667, ,0.029540376894961327, ,0.00038846201377976293, ,1.9166666666666667, ,0.7978350869729699, ,0.5174180118773086, ,0.07934531948327585
49, ,PASS, ,0.047811382000000006, ,0.00804509915571635, ,0.02928210455223363, ,0.000386509181819665, ,1.9166666666666667, ,0.7985549371624547, ,0.516438440031836, ,0.08538601253035652
50, ,PASS, ,0.04784136400000002, ,0.008025265676974931, ,0.029505040838595134, ,0.00038575712228706787, ,1.9166666666666667, ,0.7986423986277831, ,0.5176833125854574, ,0.07675353564212975
51, ,PASS, ,0.04757249700000001, ,0.008009217360649412, ,0.02972627573490337, ,0.00038303953849670887, ,1.9166666666666667, ,0.80197531525138, ,0.5230913654823371, ,0.09018183302381584
52, ,PASS, ,0.047972671000000015, ,0.008032362540988026, ,0.029059166581253446, ,0.0003878038697017679, ,1.8333333333333333, ,0.7952474568106986, ,0.5129691230791208, ,0.09097773514826228
53, ,PASS, ,0.04772123600000001, ,0.008077377135051944, ,0.02852905512518112, ,0.00038806220103216243, ,1.8333333333333333, ,0.7968926924373592, ,0.49790820595498053, ,0.09210016122119957
54, ,PASS, ,0.047788967, ,0.008056711705257305, ,0.029825387650639783, ,0.0003870747061073296, ,1.9166666666666667, ,0.8023741855757388, ,0.5219689394093998, ,0.09142670557743719
55, ,PASS, ,0.04825251600000001, ,0.00820971855168363, ,0.028580359734127876, ,0.00039933465793702967, ,1.8333333333333333, ,0.7987462715243722, ,0.49796942919532255, ,0.08242688924715823
56, ,PASS, ,0.047912801000000005, ,0.00812115111144874, ,0.02922628932931981, ,0.0003912165826695122, ,1.8333333333333333, ,0.7978021169819923, ,0.5082753413195649, ,0.08244729699393889
57, ,PASS, ,0.04769028900000002, ,0.008043542244833758, ,0.030095712629089208, ,0.00038650619531677784, ,1.9166666666666667, ,0.8055565552891528, ,0.5286830881002429, ,0.10103875431113651
58, ,PASS, ,0.04765110000000001, ,0.007970184615475773, ,0.02954015636754352, ,0.00038132999847723147, ,1.8333333333333333, ,0.8005241409656088, ,0.5138670639374706, ,0.08787575763759924
59, ,PASS, ,0.04743606200000002, ,0.00803352024803734, ,0.029388231561049777, ,0.0003825925944510081, ,1.9166666666666667, ,0.8010339028048379, ,0.5146629660619171, ,0.08730434072774025
60, ,PASS, ,0.04847581800000001, ,0.008126582762240597, ,0.02924334203822371, ,0.000395677029954667, ,1.9166666666666667, ,0.7954337155589956, ,0.5143976653537683, ,0.07242709332462603
61, ,PASS, ,0.048309097000000016, ,0.00809401208537787, ,0.029384651647231693, ,0.0003929199920766296, ,1.8333333333333333, ,0.7930226277537656, ,0.5128670843452174, ,0.07316177220873044
62, ,PASS, ,0.04797735600000003, ,0.008140741961012613, ,0.029458945602293833, ,0.0003919499125195058, ,1.9166666666666667, ,0.8025641376983047, ,0.5186220689373686, ,0.09807963102793821
63, ,PASS, ,0.04814424200000001, ,0.008096261795919919, ,0.028470911315809883, ,0.0003933658938949409, ,1.8333333333333333, ,0.793472473933391, ,0.49694904185628863, ,0.0672639333891145
64, ,PASS, ,0.04814771000000002, ,0.008100314819288976, ,0.02927216972951573, ,0.00039181542688687703, ,1.8333333333333333, ,0.7958917140926948, ,0.5117446582722801, ,0.07318217995551111
65, ,PASS, ,0.04805195400000001, ,0.00803033145375533, ,0.029110892849717355, ,0.00038768557088793726, ,1.8333333333333333, ,0.7933436973784198, ,0.5141323646456195, ,0.07250872431174873
66, ,PASS, ,0.048036545000000014, ,0.008041748718201925, ,0.029504258089202262, ,0.00038823963039138446, ,1.9166666666666667, ,0.7983018160648487, ,0.5214995612334442, ,0.06916185383971755
67, ,PASS, ,0.047892710000000005, ,0.007841533076509966, ,0.028746306573314836, ,0.00037830492377375285, ,1.8333333333333333, ,0.7915802699195151, ,0.49378584110528356, ,0.07077406583539111
68, ,PASS, ,0.04808991200000002, ,0.008141376383460533, ,0.02994059234519704, ,0.0003935284197679525, ,1.9166666666666667, ,0.8040488405020652, ,0.5227240260402849, ,0.10387543111365075
69, ,PASS, ,0.048181035000000004, ,0.008119011251683081, ,0.029723697267259857, ,0.000393487907329209, ,1.9166666666666667, ,0.7999924068424519, ,0.521703638701251, ,0.081426909654905
70, ,PASS, ,0.04833605600000002, ,0.00809189611024656, ,0.029696073090018576, ,0.00039382250041035063, ,1.9166666666666667, ,0.8003109217269416, ,0.5220097549029612, ,0.08740637946164365
71, ,PASS, ,0.048175299000000005, ,0.008303250704270307, ,0.029294267843105248, ,0.00039995920752989114, ,1.8333333333333333, ,0.8059821982733117, ,0.5169690414481337, ,0.08361053856043754
72, ,PASS, ,0.047456996, ,0.00800971680912267, ,0.02972693444764393, ,0.0003821808142025465, ,1.9166666666666667, ,0.8030160946772888, ,0.5239280831003449, ,0.09230423868900635
73, ,PASS, ,0.04719379700000001, ,0.007966423642003246, ,0.029311579231383035, ,0.000377911272445293, ,1.8333333333333333, ,0.7977297844396514, ,0.5129078998387788, ,0.07565151731597314
74, ,PASS, ,0.047243495999999996, ,0.007922322351155846, ,0.029089424097569438, ,0.00037628940457403066, ,1.8333333333333333, ,0.7928746607593797, ,0.5105201934654395, ,0.07361074263790535
75, ,PASS, ,0.046804176, ,0.007943784411709044, ,0.029427914056019265, ,0.00037301505791241665, ,1.8333333333333333, ,0.8019624017526047, ,0.5149078590232853, ,0.08940633864615008
76, ,PASS, ,0.04691336400000001, ,0.007910770898685623, ,0.029377519902940758, ,0.00037311629702931954, ,1.9166666666666667, ,0.7981702925656917, ,0.5178057590661415, ,0.08026366808840636
77, ,PASS, ,0.04709471600000002, ,0.008008208530596535, ,0.027986457815207855, ,0.00038026035115266456, ,1.8333333333333333, ,0.7927564773630446, ,0.48454113181363645, ,0.06793738903287688
78, ,PASS, ,0.04695047000000001, ,0.00789352246149207, ,0.029589741719209812, ,0.0003726356049448263, ,1.9166666666666667, ,0.799176593751648, ,0.5211730372849533, ,0.08426358645741924
79, ,PASS, ,0.046817004999999995, ,0.007890040250894651, ,0.029276831592681785, ,0.0003713544955927939, ,1.9166666666666667, ,0.7987572953575207, ,0.5166221097528622, ,0.07942695047039856
80, ,PASS, ,0.047091348, ,0.007960840862466345, ,0.028837396076937208, ,0.00037698692332149467, ,1.75, ,0.7953995151180445, ,0.5069896532723822, ,0.07489643068508806
81, ,PASS, ,0.046941540999999996, ,0.007962281685692274, ,0.029539077204934597, ,0.00037577201971155955, ,1.9166666666666667, ,0.8036716535444879, ,0.521642415460909, ,0.09289606334564601
82, ,PASS, ,0.04696817900000001, ,0.00791897169189707, ,0.02930727789049203, ,0.00037397567646166774, ,1.9166666666666667, ,0.7979289556305014, ,0.5179486132936063, ,0.07744739903267281
83, ,PASS, ,0.047045898, ,0.008043070203174475, ,0.029127464674700516, ,0.0003807461723627291, ,1.8333333333333333, ,0.810953078166234, ,0.5108875329074917, ,0.0829166751698945
84, ,PASS, ,0.047560728000000004, ,0.007964824623784393, ,0.029387867657047817, ,0.00038096658068688383, ,1.9166666666666667, ,0.7965178412769025, ,0.5172547499030632, ,0.06469255729474908
85, ,PASS, ,0.047319974000000015, ,0.008019234008310665, ,0.029240552657537604, ,0.00038093743607636824, ,1.9166666666666667, ,0.8016312942650142, ,0.5179077978000449, ,0.0888349217362911
86, ,PASS, ,0.04742368800000001, ,0.007994519874807347, ,0.029198294898287794, ,0.00038118954638413784, ,1.9166666666666667, ,0.7961389611762263, ,0.5153976449460215, ,0.0728148405134589
87, ,PASS, ,0.04785166000000002, ,0.00813300727632284, ,0.029185641105038674, ,0.0003906879489834702, ,1.8333333333333333, ,0.8013507978392745, ,0.5145609273280137, ,0.08148813289524703
88, ,PASS, ,0.06970073800000003, ,0.011192423960554003, ,0.03133998702323218, ,0.0007858259860532138, ,1.9166666666666667, ,0.7902732444991623, ,0.532601375482133, ,0.15328258606967204
89, ,PASS, ,0.12228800000000001, ,0.01846223348081017, ,0.03509184234382971, ,0.0022745339124845792, ,1.75, ,0.7699151712058908, ,0.5416420073059733, ,0.20411828330034082
90, ,PASS, ,0.05466001943000002, ,0.009075900162939495, ,0.03023650805744577, ,0.00049812907638336, ,1.8333333333333333, ,0.7985507970197049, ,0.525948450031632, ,0.12089549192873615
91, ,PASS, ,0.05278403999999999, ,0.008739633532599322, ,0.030086001631436095, ,0.0004629484060496093, ,1.9166666666666667, ,0.7926560447765916, ,0.5220301626497419, ,0.09738576763739515
92, ,PASS, ,0.05273823529999999, ,0.008713445501860512, ,0.029828060637048223, ,0.00046137120603386507, ,1.9166666666666667, ,0.7946749608474948, ,0.5213771147527602, ,0.10789575722944429
93, ,PASS, ,0.0527191355, ,0.008743024745123062, ,0.03004098230576927, ,0.0004627597862918097, ,1.9166666666666667, ,0.796243664974046, ,0.521887308422277, ,0.11250790800187752
94, ,PASS, ,0.05269581400000001, ,0.008872502922941816, ,0.02735608544145426, ,0.00047023882036213894, ,1.8333333333333333, ,0.7871825518625882, ,0.46799044917450666, ,0.10973245443970531
95, ,PASS, ,0.0525694971, ,0.008708362550945419, ,0.029963227719903677, ,0.00045956181911821416, ,1.9166666666666667, ,0.7950001992472094, ,0.5208261055896819, ,0.11050794881737107
96, ,PASS, ,0.0523656753, ,0.008697273438603636, ,0.02953773880147344, ,0.00045760843751348586, ,1.8333333333333333, ,0.7923252131840524, ,0.5119895512336483, ,0.10591620579171854
97, ,PASS, ,0.05243523269999999, ,0.008712083948346903, ,0.02995431323070958, ,0.0004583781005777535, ,1.8333333333333333, ,0.7965184754020639, ,0.51745882737087, ,0.0885492132813616
98, ,PASS, ,0.05214647039999999, ,0.008590612033610088, ,0.030518775569539396, ,0.00045035300415334614, ,1.9166666666666667, ,0.7955471014486929, ,0.5324177057611069, ,0.10499785718658802
99, ,PASS, ,0.0522471446, ,0.00864748283030893, ,0.030052056091549154, ,0.00045395467548161976, ,1.8333333333333333, ,0.7993975981947129, ,0.5271933225852533, ,0.1238137997183731
100, ,PASS, ,0.052604349499999994, ,0.008682015551467033, ,0.029394812300136734, ,0.0004583445179958531, ,1.8333333333333333, ,0.7861459924894043, ,0.5130507540662436, ,0.06538642068529214
101, ,PASS, ,0.052850021110000006, ,0.008738020818623102, ,0.029956986364145632, ,0.00046338761627683816, ,1.9166666666666667, ,0.7933317131583637, ,0.5201526499459195, ,0.10887532907491684
102, ,PASS, ,0.05276903091, ,0.008767783662789786, ,0.02985561416981286, ,0.00046430085459877603, ,1.9166666666666667, ,0.7944981729153849, ,0.5177853513193609, ,0.10661006918226158
103, ,PASS, ,0.052409618000000005, ,0.008663295340311607, ,0.030621226771065897, ,0.00045641476969225295, ,1.9166666666666667, ,0.7992408442798391, ,0.5320299585722741, ,0.12305871308748802
104, ,PASS, ,0.052885766900000006, ,0.008676335201136224, ,0.03004211780906512, ,0.000461111766922677, ,1.9166666666666667, ,0.7910152656268005, ,0.5238464521132222, ,0.10473255647843921
105, ,PASS, ,0.0530276785, ,0.008801534079076226, ,0.0299430291707108, ,0.00046860660027601606, ,1.9166666666666667, ,0.7947012108815371, ,0.5201526499459195, ,0.10934470725087243
106, ,PASS, ,0.0530181161, ,0.008754420426695312, ,0.030605375158506972, ,0.0004666253726396611, ,1.9166666666666667, ,0.8003742456385697, ,0.5321319973061774, ,0.1250994877655558
107, ,PASS, ,0.05319656690000001, ,0.008829181937192641, ,0.030334428191894042, ,0.0004719901724027574, ,1.9166666666666667, ,0.8004995237665776, ,0.5261525274994387, ,0.1293442990959368
108, ,PASS, ,0.052379274399999995, ,0.00868460392988819, ,0.030183687495540908, ,0.00045645633276252695, ,1.9166666666666667, ,0.7963596077644506, ,0.5250096936797208, ,0.10744678680026938
