Channel, ,Pass/Fail, ,Amplitude, ,Sorting Function Response, ,Mean, ,Variance, ,NPeaksRatio, ,PosIntegralRatio, ,ToT50, ,ToT99
0, ,PASS, ,0.04249613000000001, ,0.004572158018424477, ,0.04318335132364646, ,0.00019971020771240882, ,1.8333333333333333, ,0.6682924015714743, ,0.6212934429909593, ,0.05728454521336299
1, ,PASS, ,0.04395054000000001, ,0.005245077636314454, ,0.04326720885492134, ,0.0002355087209043364, ,1.9166666666666667, ,0.7038297033639516, ,0.6158241668537376, ,0.04977449439807351
2, ,PASS, ,0.04369423999999999, ,0.005416498342435924, ,0.04312901103548907, ,0.00024138658283233592, ,1.9166666666666667, ,0.7164692371147141, ,0.6124568886349259, ,0.0540397134752352
3, ,PASS, ,0.04377594, ,0.005403373293426023, ,0.04308487892145058, ,0.00024119899255213443, ,1.9166666666666667, ,0.7138473065573521, ,0.6111303850941817, ,0.04877451480582029
4, ,PASS, ,0.04374438, ,0.0052060494870370165, ,0.04325054218158813, ,0.00023264893729537742, ,1.9166666666666667, ,0.7024884332880764, ,0.6134772759739597, ,0.05493765433358503
5, ,PASS, ,0.043907720000000004, ,0.006026779915285873, ,0.04309319175812738, ,0.0002684682596569638, ,1.75, ,0.7465687751569817, ,0.6050080610599784, ,0.05826411705883553
6, ,FAIL, ,0.0050144500000000106, ,0.00026270933007105525, ,0.039518641774045425, ,1.3867992854783522e-06, ,0.9166666666666666, ,0.44517086608658607, ,0.4250933654415216, ,0.010754882553417278
7, ,PASS, ,0.04380272, ,0.005228678146135419, ,0.04323678598600029, ,0.00023399217460381508, ,1.9166666666666667, ,0.702201535613489, ,0.6141711393645027, ,0.04787657394747046
8, ,PASS, ,0.04430869, ,0.005256924661144636, ,0.04310249831738128, ,0.00023805036458967693, ,1.9166666666666667, ,0.7022913855817752, ,0.613456868227179, ,0.05001938735944164
9, ,PASS, ,0.044352789999999975, ,0.005295978555620431, ,0.043166280869165935, ,0.0002400446504499996, ,1.9166666666666667, ,0.7041696524043431, ,0.6138854309095733, ,0.054794800106120284
10, ,PASS, ,0.04441750999999998, ,0.00530184380772875, ,0.043126252272606684, ,0.00024066408604410595, ,1.9166666666666667, ,0.7006259079664765, ,0.6130691210383462, ,0.04195832738107386
11, ,PASS, ,0.044344709999999996, ,0.005316324849698358, ,0.04323838621477113, ,0.0002408677502141247, ,1.9166666666666667, ,0.7052082937444452, ,0.613211975265811, ,0.05285606416195588
12, ,PASS, ,0.044390379999999986, ,0.005297491406472782, ,0.04316356716740474, ,0.00024017545817773514, ,1.9166666666666667, ,0.7037508691582497, ,0.6152119344503173, ,0.053121364870104694
13, ,PASS, ,0.04446410999999999, ,0.005350881466461591, ,0.04325425851003041, ,0.00024305432941000872, ,1.9166666666666667, ,0.7077716665784152, ,0.6131099365319075, ,0.05495806208036571
14, ,PASS, ,0.04457256999999999, ,0.005355977708434621, ,0.04312966120875084, ,0.00024380752058739022, ,1.9166666666666667, ,0.7082726127880397, ,0.6129874900512234, ,0.057182506479459605
15, ,PASS, ,0.04458031999999999, ,0.005374731045143627, ,0.04306882378665742, ,0.00024463550993030837, ,1.9166666666666667, ,0.7088094379694174, ,0.6127425970898553, ,0.056447827595355195
16, ,PASS, ,0.04456820999999998, ,0.00534569281062587, ,0.04309249781065693, ,0.00024354154504078343, ,1.9166666666666667, ,0.704502456815141, ,0.6124364808881452, ,0.04791738944103181
17, ,PASS, ,0.044461749999999994, ,0.005363266672704288, ,0.043040568802677495, ,0.00024351341137857874, ,1.9166666666666667, ,0.7081136080111226, ,0.6132323830125915, ,0.05761106916185384
18, ,PASS, ,0.04441491999999999, ,0.005362565438464733, ,0.043169273365033366, ,0.00024304210673269338, ,1.9166666666666667, ,0.7070626928350682, ,0.6121099569396543, ,0.05450909165119079
19, ,PASS, ,0.04456059999999999, ,0.005349381365478446, ,0.04292637053917268, ,0.0002434237066146204, ,1.9166666666666667, ,0.7042741573227926, ,0.6081712618109835, ,0.046570478153507074
20, ,PASS, ,0.044690129999999974, ,0.005339124138609607, ,0.04301216716862922, ,0.00024383544998161618, ,1.9166666666666667, ,0.7029742009685388, ,0.6137629844288892, ,0.053407073325034186
21, ,PASS, ,0.04456054000000001, ,0.005352845159755176, ,0.04321089637231893, ,0.0002437297528844031, ,1.9166666666666667, ,0.7067770860433706, ,0.6107834533989103, ,0.05620293463398706
22, ,PASS, ,0.044645589999999985, ,0.005374817016975271, ,0.04311066807269239, ,0.0002451523139447671, ,1.9166666666666667, ,0.7069416331473212, ,0.6125793351156099, ,0.05612130364686435
23, ,PASS, ,0.044597449999999976, ,0.005372861562081475, ,0.04308679407338626, ,0.00024472438618166427, ,1.9166666666666667, ,0.7077219558593388, ,0.6129058590641008, ,0.05779473888287994
24, ,PASS, ,0.044561969999999985, ,0.0053315009918587335, ,0.04313672680292239, ,0.00024273703394157427, ,1.9166666666666667, ,0.7053142469692518, ,0.6131099365319075, ,0.051427521887308425
25, ,PASS, ,0.04473879999999998, ,0.005370818159791109, ,0.04316602409461032, ,0.0002454362519081688, ,1.9166666666666667, ,0.7074475004629909, ,0.6136813534417664, ,0.05661108956960062
26, ,PASS, ,0.044396129999999985, ,0.005328580762954179, ,0.04305310042407298, ,0.00024172122322555124, ,1.9166666666666667, ,0.705653418078755, ,0.612946674557662, ,0.05538662476275994
27, ,PASS, ,0.04444698, ,0.0053233901713223754, ,0.04322299390828759, ,0.00024166392921045766, ,1.9166666666666667, ,0.7080617832202154, ,0.6138650231627926, ,0.057264137466582314
28, ,PASS, ,0.04452468999999999, ,0.0052744054340004565, ,0.043052922662802806, ,0.00023983418324440605, ,1.9166666666666667, ,0.6978690449211173, ,0.6103140752229547, ,0.04048896961286504
29, ,PASS, ,0.044517479999999984, ,0.005351127428799407, ,0.04311360537315565, ,0.0002434381885193609, ,1.9166666666666667, ,0.7095085710662978, ,0.6135384992143017, ,0.05812126283137079
30, ,PASS, ,0.04508243999999999, ,0.005396199236373958, ,0.04309312282688109, ,0.00024841035538885307, ,1.9166666666666667, ,0.7056361221107319, ,0.6136201302014245, ,0.051978531050386724
31, ,PASS, ,0.04449725999999998, ,0.005329868617977423, ,0.04328360202567295, ,0.00024241680271882323, ,2.0, ,0.704784368059648, ,0.6158241668537376, ,0.05706005999877554
32, ,PASS, ,0.04480278999999998, ,0.005286635818685048, ,0.04305131763596662, ,0.00024209229548338116, ,1.9166666666666667, ,0.698731684856168, ,0.6135589069610824, ,0.045652129548376566
33, ,PASS, ,0.04447859999999999, ,0.005294107045498631, ,0.042909606787004353, ,0.0002406848443064155, ,1.9166666666666667, ,0.7039496526221304, ,0.6137629844288892, ,0.05467235362543622
34, ,PASS, ,0.04454582, ,0.0053103808379297785, ,0.04302642548601049, ,0.0002417738670976032, ,1.9166666666666667, ,0.7048525376628056, ,0.6134364604803983, ,0.05497846982714639
35, ,PASS, ,0.04457439999999999, ,0.0052913156365690436, ,0.04317724286585988, ,0.00024102809745565098, ,1.9166666666666667, ,0.7020201127281831, ,0.6132936062529336, ,0.05124385216628232
36, ,PASS, ,0.04454792, ,0.005244388995538963, ,0.0430255672004653, ,0.0002387675155239971, ,1.9166666666666667, ,0.701635725113069, ,0.6154160119181241, ,0.053549927552498926
37, ,PASS, ,0.04466155999999999, ,0.005317284678321218, ,0.04295436651966287, ,0.00024271197057255036, ,1.9166666666666667, ,0.7031011900173042, ,0.6133548294932757, ,0.05285606416195588
38, ,PASS, ,0.04500652999999999, ,0.005384908297703019, ,0.04325075236362523, ,0.00024769622241173106, ,1.9166666666666667, ,0.7030588899055187, ,0.612252811167119, ,0.050713250749984694
39, ,PASS, ,0.04490202999999998, ,0.005366513041287983, ,0.04312211556825371, ,0.0002461835594060773, ,1.9166666666666667, ,0.7052297099900828, ,0.6137425766821085, ,0.05342748107181486
40, ,PASS, ,0.044815060000000004, ,0.0053580369683954195, ,0.04281237045733761, ,0.00024543790471303565, ,1.9166666666666667, ,0.7034804155143228, ,0.612252811167119, ,0.05608048815330299
41, ,PASS, ,0.04491456999999997, ,0.005373177050289614, ,0.042916311668333304, ,0.00024662654614417015, ,1.9166666666666667, ,0.7054088869110369, ,0.6130283055447848, ,0.05610089590008367
42, ,PASS, ,0.04501649999999999, ,0.005336358691791424, ,0.04275580849411236, ,0.00024559521448577087, ,1.9166666666666667, ,0.7028301370814865, ,0.6138854309095733, ,0.05210097753107079
43, ,PASS, ,0.04486649999999999, ,0.00535488482588888, ,0.04268286963490541, ,0.00024567391015168597, ,1.9166666666666667, ,0.7047156770320945, ,0.6135180914675211, ,0.054794800106120284
44, ,PASS, ,0.04482593, ,0.005296514228804934, ,0.04286331774943369, ,0.00024277381218221355, ,1.9166666666666667, ,0.7030896691600232, ,0.6163547682700353, ,0.05406012122201588
45, ,PASS, ,0.04491181999999999, ,0.00532487744166702, ,0.0430909314465011, ,0.00024438850818272984, ,1.9166666666666667, ,0.701630705298815, ,0.6128038203301973, ,0.05077447399032673
46, ,PASS, ,0.04501822999999999, ,0.00534438724018402, ,0.042891751714862966, ,0.000245886819069407, ,2.0, ,0.7009693283925718, ,0.6138854309095733, ,0.050243872574029104
47, ,PASS, ,0.04523857, ,0.005354073142776086, ,0.04284735882777903, ,0.0002475171627071663, ,1.9166666666666667, ,0.7023741053935144, ,0.6136201302014245, ,0.05293769514907859
48, ,PASS, ,0.04511089999999998, ,0.005317519994479098, ,0.042943016072120976, ,0.0002452252216689015, ,2.0, ,0.6987686577238907, ,0.6144364400726515, ,0.051468337380869776
49, ,PASS, ,0.04544019999999999, ,0.005331430520933824, ,0.04282566371910778, ,0.00024755724803665716, ,1.9166666666666667, ,0.6981882512381244, ,0.6145180710597743, ,0.04522356686598233
50, ,PASS, ,0.04506685999999996, ,0.0053271332116552935, ,0.04287812346197016, ,0.00024548952369138517, ,1.9166666666666667, ,0.7022380703995688, ,0.6144364400726515, ,0.05491724658680435
51, ,PASS, ,0.04482130999999998, ,0.005308946744142203, ,0.04263102092528724, ,0.00024333619523729126, ,1.9166666666666667, ,0.703255003847234, ,0.6124364808881452, ,0.058039631844248075
52, ,PASS, ,0.04510381999999999, ,0.005318831541185492, ,0.042687263728087184, ,0.0002453090298794475, ,2.0, ,0.7002633998599901, ,0.6147425562743617, ,0.05732536070692435
53, ,PASS, ,0.04531028, ,0.005370551545364137, ,0.042539577722699534, ,0.0002487587652830988, ,1.9166666666666667, ,0.7037044591590718, ,0.6096406195791922, ,0.05899879594293994
54, ,PASS, ,0.045332739999999996, ,0.005362869507533852, ,0.042659948856145796, ,0.000248477131549463, ,2.0, ,0.7029071127293177, ,0.6148650027550459, ,0.0542233831962613
55, ,PASS, ,0.04541146000000001, ,0.005354839567760123, ,0.042420732430970796, ,0.00024853455378822265, ,1.9166666666666667, ,0.7011169252110546, ,0.6142935858451868, ,0.053100957123324015
56, ,PASS, ,0.04552864999999999, ,0.005369292784716622, ,0.04266887006571294, ,0.0002500127889745113, ,2.0, ,0.7011327460152101, ,0.6158853900940797, ,0.0554274402563213
57, ,PASS, ,0.04580845999999999, ,0.0053900651273102815, ,0.042580293245239896, ,0.00025245140273782616, ,2.0, ,0.6993857836321111, ,0.614660925287239, ,0.051182628925940284
58, ,PASS, ,0.045752509999999996, ,0.005394391182812616, ,0.04271865950756107, ,0.0002523173739401102, ,2.0, ,0.7012146103115215, ,0.6148037795147038, ,0.055590702230566724
59, ,PASS, ,0.04570911999999999, ,0.005388833710548906, ,0.0425787089204302, ,0.0002520534980498074, ,1.9166666666666667, ,0.7017362592659572, ,0.6127834125834166, ,0.05114181343237893
60, ,PASS, ,0.04585455000000001, ,0.005393074550305933, ,0.042674882867696586, ,0.0002529246542268766, ,1.9166666666666667, ,0.6998163991136043, ,0.6150282647292913, ,0.05450909165119079
61, ,PASS, ,0.04622917999999998, ,0.005434632792592779, ,0.04271445275239281, ,0.00025685596754714435, ,1.9166666666666667, ,0.7011993053883603, ,0.6148445950082652, ,0.05620293463398706
62, ,PASS, ,0.046181599999999975, ,0.005394107068331249, ,0.042671413916246605, ,0.0002546933217448063, ,2.0, ,0.6961576793359465, ,0.6149466337421685, ,0.047345972531172835
63, ,PASS, ,0.04610637999999998, ,0.0054291153101245744, ,0.04286412416113957, ,0.00025618191966203464, ,2.0, ,0.7016463951155119, ,0.6180077957592702, ,0.05569274096447011
64, ,PASS, ,0.04641624, ,0.0054553497440942254, ,0.042703556650272444, ,0.00025909095410014065, ,2.0, ,0.7002001906683409, ,0.6157221281198343, ,0.055243770535295195
65, ,PASS, ,0.04652249, ,0.005446363056163102, ,0.042927407847594946, ,0.00025918805541030106, ,1.9166666666666667, ,0.6990041975579865, ,0.6168649619395522, ,0.05050917328217792
66, ,PASS, ,0.04658140999999999, ,0.005464710913970689, ,0.042851346417011896, ,0.00026031579449811823, ,2.0, ,0.6987907499384295, ,0.6156404971327116, ,0.05324381135078876
67, ,PASS, ,0.04656158, ,0.005450595053142333, ,0.04288742952286688, ,0.00025967687616861647, ,2.0, ,0.6996548535056702, ,0.6180282035060509, ,0.05489683884002367
68, ,PASS, ,0.04711240999999999, ,0.005468821882769285, ,0.04286715381604457, ,0.0002636475839702175, ,2.0, ,0.6941581991685863, ,0.6160282443215445, ,0.05046835778861656
69, ,PASS, ,0.05091121, ,0.005943235800720573, ,0.041150000013877266, ,0.0003096201163875663, ,2.0, ,0.6953273371483808, ,0.6160282443215445, ,0.0526519866941491
70, ,PASS, ,0.06591408900000002, ,0.007388685694065886, ,0.044841189914083396, ,0.0004992902482985513, ,1.8333333333333333, ,0.682681713957825, ,0.6212322197506174, ,0.045652129548376566
71, ,PASS, ,0.04622658000000001, ,0.005129246625417653, ,0.04264419932838106, ,0.0002431709387477102, ,1.8333333333333333, ,0.680444514851874, ,0.6177629027979021, ,0.0528356564151752
72, ,PASS, ,0.045414920000000004, ,0.005077049356572255, ,0.0425891588543091, ,0.00023654668451445182, ,1.8333333333333333, ,0.6829619477238776, ,0.618783290136936, ,0.056774351543846045
73, ,PASS, ,0.04570133999999999, ,0.005106105317354952, ,0.04285220520560805, ,0.00023929691632355193, ,1.8333333333333333, ,0.6856015057164522, ,0.6207628415746618, ,0.055202955041733844
74, ,PASS, ,0.04545798, ,0.005058296606692946, ,0.042408190392849134, ,0.0002358198918458756, ,1.8333333333333333, ,0.682044320409608, ,0.6184363584416644, ,0.04946837819636334
75, ,PASS, ,0.045456679999999985, ,0.005078757077256392, ,0.04264065257096794, ,0.000236817737031485, ,1.8333333333333333, ,0.6817008961210091, ,0.6178649415318055, ,0.05322340360400808
76, ,PASS, ,0.04540727000000002, ,0.005065418144105688, ,0.04219090560804882, ,0.00023578741379364743, ,1.8333333333333333, ,0.6832868781701903, ,0.6182935042141997, ,0.055570294483786045
77, ,PASS, ,0.045463680000000006, ,0.005098569676850956, ,0.04268310003101978, ,0.00023756686998801073, ,1.8333333333333333, ,0.6824141684898932, ,0.6178853492785862, ,0.05377441276708639
78, ,PASS, ,0.04551189, ,0.005109729927836792, ,0.04271802640905288, ,0.00023843520058128347, ,1.8333333333333333, ,0.6861403529262321, ,0.6180282035060509, ,0.05632538111467113
79, ,PASS, ,0.04532362, ,0.005067632986503225, ,0.04279554319830208, ,0.00023554795849582274, ,1.9166666666666667, ,0.6841210064222726, ,0.6209873267892492, ,0.04857043733801351
80, ,PASS, ,0.0456554, ,0.005079741376364618, ,0.042662788238403304, ,0.000237899461440525, ,1.8333333333333333, ,0.681933481715426, ,0.6182935042141997, ,0.053100957123324015
81, ,PASS, ,0.04574184, ,0.005119570811712698, ,0.04279458708230444, ,0.0002400451892516232, ,1.8333333333333333, ,0.6823886556791391, ,0.6177629027979021, ,0.05493765433358503
82, ,PASS, ,0.045502909999999994, ,0.005090618768755045, ,0.04277584247096999, ,0.00023758333224412726, ,1.8333333333333333, ,0.6820246295654595, ,0.6178649415318055, ,0.051427521887308425
83, ,PASS, ,0.045484170000000004, ,0.005087196912791699, ,0.04279678423705639, ,0.0002373090826538787, ,1.8333333333333333, ,0.6825206873898835, ,0.6182526887206383, ,0.05457031489153283
84, ,PASS, ,0.04549281999999998, ,0.0050469174683796586, ,0.042704621226097424, ,0.00023542474131910156, ,1.8333333333333333, ,0.6787099309594932, ,0.6179873880124895, ,0.05157037611477317
85, ,PASS, ,0.04565241, ,0.005084199724173799, ,0.04276163321564866, ,0.0002380719728658103, ,1.8333333333333333, ,0.6825993487794731, ,0.6188241056304974, ,0.0578355543764413
86, ,PASS, ,0.04549013999999999, ,0.005060552309982443, ,0.04266505381298341, ,0.00023619001233858323, ,1.8333333333333333, ,0.6847392006595755, ,0.6209261035489072, ,0.05828452480561621
87, ,PASS, ,0.04542281000000001, ,0.005049711765920586, ,0.04264446428664722, ,0.00023530625931566292, ,1.8333333333333333, ,0.6809133117934228, ,0.61890573661762, ,0.053080549376543336
88, ,PASS, ,0.04537944, ,0.005038942063657399, ,0.042547313713393604, ,0.0002345792235873016, ,1.8333333333333333, ,0.6809320939649798, ,0.6174771943429725, ,0.0542233831962613
89, ,PASS, ,0.04541453000000001, ,0.005078610515127332, ,0.04252106602375462, ,0.0002365604399091268, ,1.8333333333333333, ,0.6828837828625481, ,0.6180077957592702, ,0.05840697128630028
90, ,PASS, ,0.04541420999999998, ,0.005052548888593223, ,0.04273305479622865, ,0.00023541639923100796, ,1.8333333333333333, ,0.681657756426603, ,0.6203138711454869, ,0.05183567682292198
91, ,PASS, ,0.045712899999999994, ,0.005059251627514078, ,0.04261549562519132, ,0.00023735768545135746, ,1.8333333333333333, ,0.6773797154443026, ,0.6178037182914634, ,0.04503989714495622
92, ,PASS, ,0.04543452999999999, ,0.005048440592861966, ,0.042562574498479624, ,0.00023522949814706263, ,1.8333333333333333, ,0.6806306676397583, ,0.6171710781412624, ,0.055488663496663336
93, ,PASS, ,0.04560034, ,0.005066894653970619, ,0.042571614731332016, ,0.00023697283662405975, ,1.8333333333333333, ,0.6811442092599335, ,0.6180894267463929, ,0.05342748107181486
94, ,PASS, ,0.04547784, ,0.005075402776759172, ,0.042763410937327814, ,0.0002367782076202844, ,1.8333333333333333, ,0.6801216734551198, ,0.6178649415318055, ,0.05461113038509418
95, ,PASS, ,0.045649590000000004, ,0.005070167026162146, ,0.042389086572110775, ,0.00023733859935672747, ,1.8333333333333333, ,0.6802003943660164, ,0.6182526887206383, ,0.05014183384012571
96, ,PASS, ,0.04554874, ,0.005051248165178616, ,0.04257516221791392, ,0.00023597867050539477, ,1.8333333333333333, ,0.6782208112785065, ,0.6159262055876411, ,0.052325462745658254
97, ,PASS, ,0.04573233999999999, ,0.005105606547629676, ,0.04260610840064489, ,0.0002394635445378662, ,1.8333333333333333, ,0.6840098777088284, ,0.6185383971755678, ,0.057958000857125366
98, ,PASS, ,0.04586459, ,0.005121186538802444, ,0.04259310791473644, ,0.0002409317158563047, ,1.8333333333333333, ,0.6851925059977129, ,0.6178241260382441, ,0.05367237403318299
99, ,PASS, ,0.04546816000000001, ,0.005065011007598414, ,0.04280795160445706, ,0.00023617736912964787, ,1.8333333333333333, ,0.6824285885681495, ,0.6180486112528316, ,0.05536621701597927
100, ,PASS, ,0.04519319999999998, ,0.0050125960089853795, ,0.042657482258321264, ,0.00023243217040929627, ,1.8333333333333333, ,0.6807081312714561, ,0.6180486112528316, ,0.05608048815330299
101, ,PASS, ,0.045475810000000005, ,0.005059323106289763, ,0.04248166647517398, ,0.0002359503833817608, ,1.8333333333333333, ,0.6805242678112665, ,0.6180690189996123, ,0.052611171200587746
102, ,PASS, ,0.045471839999999986, ,0.005060723964667323, ,0.04271976618313912, ,0.00023614413079624933, ,1.8333333333333333, ,0.6811615275864666, ,0.6183139119609804, ,0.05787636987000265
103, ,PASS, ,0.045505840000000006, ,0.005041871921136993, ,0.042554488215342544, ,0.000235417606094759, ,1.8333333333333333, ,0.6780562466446686, ,0.6175996408236567, ,0.05342748107181486
104, ,PASS, ,0.04576011, ,0.005011332066245359, ,0.04254378515213976, ,0.00023544460393851917, ,1.8333333333333333, ,0.6763832163771135, ,0.6161098753086671, ,0.05281524866839452
105, ,PASS, ,0.04591308000000001, ,0.005056716685057244, ,0.042784992120773045, ,0.0002381825149883985, ,1.8333333333333333, ,0.6782063033244833, ,0.6191710373257688, ,0.05620293463398706
106, ,PASS, ,0.04627377999999999, ,0.005132140521980154, ,0.04264907767351687, ,0.00024350021248722024, ,1.8333333333333333, ,0.6786604410304491, ,0.6180894267463929, ,0.05371318952674435
107, ,PASS, ,0.045963749999999984, ,0.005082948385136727, ,0.042578070301422424, ,0.00023969045394382817, ,1.8333333333333333, ,0.6804810578729946, ,0.6184975816820065, ,0.0585702332605457
108, ,PASS, ,0.046090500000000006, ,0.005062563889061768, ,0.04268758843370544, ,0.00023950656120140163, ,1.8333333333333333, ,0.6766469843329316, ,0.618273096467419, ,0.05577437195159282
109, ,PASS, ,0.04599523, ,0.005057656250882815, ,0.04260032810861003, ,0.00023864011564105902, ,1.8333333333333333, ,0.674440636033864, ,0.6173751556090692, ,0.04850921409767148
110, ,PASS, ,0.046086629999999996, ,0.0050854553128276535, ,0.042773612995245, ,0.00024051904929103587, ,1.8333333333333333, ,0.6789301181182774, ,0.6190281830983041, ,0.05648864308891655
111, ,PASS, ,0.046099039999999994, ,0.005101485134970771, ,0.042733390647945964, ,0.0002414481822418952, ,1.8333333333333333, ,0.6790768039023227, ,0.618660843656252, ,0.06065182343217485
112, ,PASS, ,0.04595083, ,0.00506556356352211, ,0.042731439398583704, ,0.00023895261503881912, ,1.8333333333333333, ,0.6767660198489978, ,0.6187220668965939, ,0.05848860227342299
113, ,PASS, ,0.04590849, ,0.005056058551284726, ,0.04282003033999306, ,0.00023812156159277854, ,1.8333333333333333, ,0.6778170986283727, ,0.6185383971755678, ,0.05754984592151181
114, ,PASS, ,0.045916309999999995, ,0.00508618833474446, ,0.0425824081659558, ,0.0002395851266400208, ,1.8333333333333333, ,0.6798140461862009, ,0.6180486112528316, ,0.059651843839921635
115, ,PASS, ,0.006991310000000001, ,0.00024115197183352682, ,0.03884434662517091, ,1.803263973769768e-06, ,0.9166666666666666, ,0.32676351752335053, ,0.45354176445378663, ,0.0095304177465766
116, ,PASS, ,0.04604196999999998, ,0.005855959377482648, ,0.04237838236729863, ,0.0002748946990764261, ,1.8333333333333333, ,0.7237583374929175, ,0.6075794371543438, ,0.05169282259545724
117, ,PASS, ,0.04646787, ,0.005137232652740916, ,0.042801953368706756, ,0.0002449629491626595, ,1.8333333333333333, ,0.6776013755968399, ,0.6184975816820065, ,0.05581518744515418
118, ,PASS, ,0.04661298999999999, ,0.0050645875804489, ,0.04283794479480011, ,0.000242304188155885, ,1.8333333333333333, ,0.6775008289584222, ,0.6201710169180221, ,0.04722352605048877
119, ,PASS, ,0.04647890999999999, ,0.005072320938400437, ,0.04267498368237384, ,0.000241995524787154, ,1.8333333333333333, ,0.6750352683771983, ,0.6177833105446827, ,0.05334585008469215
120, ,PASS, ,0.04617634, ,0.005055955756312715, ,0.042721973717067, ,0.0002397183255339848, ,1.8333333333333333, ,0.6739729956673293, ,0.6187424746433746, ,0.05538662476275994
121, ,PASS, ,0.046355179999999996, ,0.005054685405265658, ,0.04279185677169854, ,0.00024054491307203685, ,1.8333333333333333, ,0.6729674274874411, ,0.6185179894287872, ,0.053570335299279605
122, ,PASS, ,0.046248050000000006, ,0.00505364813785783, ,0.04336793482051387, ,0.0002397690001025893, ,1.8333333333333333, ,0.6704813499673631, ,0.6179465725189281, ,0.04075427032101386
123, ,PASS, ,0.046537920000000024, ,0.005084659219208944, ,0.043292591413440544, ,0.00024294539867388622, ,1.8333333333333333, ,0.6741884368465002, ,0.6192526683128916, ,0.0507948817371074
124, ,PASS, ,0.04596856999999998, ,0.005030814306543591, ,0.04348187897879635, ,0.00023741358945845976, ,1.8333333333333333, ,0.6756599265166898, ,0.618783290136936, ,0.055141731801391806
125, ,PASS, ,0.04634479, ,0.005083507144467155, ,0.043295153451358134, ,0.0002417769781807697, ,1.8333333333333333, ,0.6738825455933521, ,0.618783290136936, ,0.04993775637231893
126, ,PASS, ,0.04666233999999998, ,0.005121997573645997, ,0.043515919309810004, ,0.0002453379944599622, ,1.8333333333333333, ,0.6740361755669796, ,0.6181302422399543, ,0.05087651272423012
127, ,PASS, ,0.04659594999999998, ,0.005116330710948058, ,0.04332050405542744, ,0.00024475271458267454, ,1.8333333333333333, ,0.6747395171587287, ,0.618660843656252, ,0.05334585008469215
128, ,PASS, ,0.04664105000000002, ,0.005074246323718704, ,0.04365609180751413, ,0.00024300169276620853, ,1.8333333333333333, ,0.6731342263465936, ,0.6193751147935757, ,0.05332544233791147
129, ,PASS, ,0.04688336999999998, ,0.005129597884232686, ,0.04374725985367646, ,0.0002469036041757388, ,1.8333333333333333, ,0.6738455748763496, ,0.6178241260382441, ,0.05712128323911757
130, ,PASS, ,0.045268649999999994, ,0.005339156524172085, ,0.043588082188322684, ,0.00024709011238675875, ,2.0, ,0.7023454013953677, ,0.6156200893859309, ,0.04226444358278403
131, ,PASS, ,0.04807449, ,0.005848657488922519, ,0.04345099596457215, ,0.0002870357814378173, ,1.9166666666666667, ,0.7119212747457966, ,0.6121711801799963, ,0.050305095814371134
132, ,PASS, ,0.0070823300000000255, ,0.0002517835485270693, ,0.03939966573090345, ,1.910992027165764e-06, ,0.6666666666666666, ,0.3365526189845697, ,0.4865002755045815, ,0.009469194506234567
133, ,PASS, ,0.047964129999999994, ,0.00582269642341597, ,0.043187654376849446, ,0.0002850584419838526, ,1.9166666666666667, ,0.7115928154048845, ,0.6139466541499153, ,0.052366278239219605
134, ,PASS, ,0.06014474200000001, ,0.006398395342871358, ,0.04433554106018245, ,0.00039556773842093056, ,1.8333333333333333, ,0.664388804298075, ,0.6193138915532336, ,0.05457031489153283
135, ,PASS, ,0.045131340000000006, ,0.004602788389357487, ,0.04392481139895104, ,0.0002125677144961818, ,1.75, ,0.64203085925957, ,0.6178649415318055, ,0.028244321544458276
136, ,PASS, ,0.04219317, ,0.004523554093998305, ,0.04310875558396768, ,0.00019614308062603013, ,1.8333333333333333, ,0.6686539901940478, ,0.6207424338278811, ,0.05536621701597927
137, ,PASS, ,0.04223607999999999, ,0.004542950114581268, ,0.04274321580539173, ,0.00019712817493158164, ,1.8333333333333333, ,0.6665156641203701, ,0.6203138711454869, ,0.04540723658700843
138, ,PASS, ,0.04173191999999999, ,0.004506676934644276, ,0.042708036061304876, ,0.0001932509164084382, ,1.8333333333333333, ,0.6676299712451849, ,0.619354707046795, ,0.05048876553539724
139, ,PASS, ,0.041784390000000005, ,0.004517522039325618, ,0.042656929396951086, ,0.0001939059722651979, ,1.8333333333333333, ,0.6707705909397698, ,0.6201506091712414, ,0.05324381135078876
140, ,PASS, ,0.04179086999999998, ,0.004474772641437622, ,0.04307093248199017, ,0.00019215008397414603, ,1.8333333333333333, ,0.6635630597927068, ,0.6202730556519255, ,0.05114181343237893
141, ,PASS, ,0.04176803999999999, ,0.004497936393303324, ,0.042873975577233124, ,0.0001929495375290297, ,1.8333333333333333, ,0.6648728277346421, ,0.6192730760596723, ,0.05279484092161384
142, ,PASS, ,0.04193609999999999, ,0.004499891098272444, ,0.04277476868390442, ,0.00019390185294039107, ,1.8333333333333333, ,0.6648550191029177, ,0.6172731168751658, ,0.0484888063508908
143, ,PASS, ,0.041987689999999994, ,0.0044827701313576275, ,0.04272919685863554, ,0.00019343201398906444, ,1.8333333333333333, ,0.6618579319777237, ,0.620048570437338, ,0.048305136629864694
144, ,PASS, ,0.041747820000000005, ,0.0045152952772167425, ,0.04270692991612417, ,0.0001936894248188807, ,1.8333333333333333, ,0.6711517011381046, ,0.6194567457806983, ,0.055570294483786045
145, ,PASS, ,0.041671299999999994, ,0.004518007213234626, ,0.042920018816554766, ,0.0001932835954171812, ,1.8333333333333333, ,0.6717964865175999, ,0.6195587845146018, ,0.05752943817473113
146, ,PASS, ,0.04166755, ,0.004493021203772437, ,0.04275384171098549, ,0.00019224812213866315, ,1.8333333333333333, ,0.6690022211228676, ,0.6193342993000143, ,0.05201934654394808
147, ,PASS, ,0.041543599999999986, ,0.004453190101980985, ,0.04283802582069754, ,0.00019013335033633147, ,1.8333333333333333, ,0.6692800748435064, ,0.619599600008163, ,0.05512132405461113
148, ,PASS, ,0.041239139999999994, ,0.0044388792174555975, ,0.04254252705638661, ,0.00018803975344265596, ,1.8333333333333333, ,0.666927408719843, ,0.6176608640639987, ,0.05379482051386707
149, ,PASS, ,0.04129943, ,0.004483493279157178, ,0.042644644398889826, ,0.000190288655737982, ,1.8333333333333333, ,0.6701813437635696, ,0.619415930287137, ,0.05654986632925859
150, ,PASS, ,0.04145386999999999, ,0.0044590683452683825, ,0.042818274545417444, ,0.0001899136271911382, ,1.8333333333333333, ,0.6674842757129507, ,0.6194363380339176, ,0.053896859247770455
151, ,PASS, ,0.041286110000000015, ,0.004451224247685835, ,0.04267499722393421, ,0.00018890023294277646, ,1.8333333333333333, ,0.668795501428621, ,0.6207016183343197, ,0.05297851064263995
152, ,PASS, ,0.04133092000000001, ,0.004435055379209111, ,0.042642690949368386, ,0.00018836718227471612, ,1.8333333333333333, ,0.6673794695790848, ,0.619599600008163, ,0.05550907124344401
153, ,PASS, ,0.04137742999999999, ,0.00445348846343516, ,0.04258567236627824, ,0.00018933863858238098, ,1.8333333333333333, ,0.6703079280102697, ,0.6197016387420665, ,0.05867227199444909
154, ,PASS, ,0.04138317999999999, ,0.0044192652117882505, ,0.042717434291341, ,0.00018798385511265597, ,1.8333333333333333, ,0.6637115412375111, ,0.6191506295789881, ,0.04073386257423318
155, ,PASS, ,0.04108324999999999, ,0.004417284350351293, ,0.04270384072325055, ,0.00018651537524980765, ,1.8333333333333333, ,0.6670413124770603, ,0.6198444929695313, ,0.05161119160833452
156, ,PASS, ,0.04115910000000002, ,0.00440734042782086, ,0.04262025155445808, ,0.0001864125828811527, ,1.8333333333333333, ,0.6643835082913803, ,0.6164976224975001, ,0.04344809289606334
157, ,PASS, ,0.04128784999999999, ,0.0044419165635189006, ,0.04267115164221139, ,0.00018838848030363898, ,1.8333333333333333, ,0.6692783552033268, ,0.6192118528193302, ,0.055264178282075874
158, ,PASS, ,0.041178309999999996, ,0.004419964573202981, ,0.0425789572104651, ,0.0001869603710346082, ,1.8333333333333333, ,0.6689225717636398, ,0.6197424542356278, ,0.054774392359339605
159, ,PASS, ,0.04103738999999999, ,0.004366155478467617, ,0.04256963857064142, ,0.00018418294594950766, ,1.8333333333333333, ,0.6609522386529403, ,0.6189261443644007, ,0.0270198567376176
160, ,PASS, ,0.040996500000000005, ,0.004421300713712657, ,0.042556398614314005, ,0.00018625051971202025, ,1.8333333333333333, ,0.6681422480971555, ,0.6192118528193302, ,0.05665190506316198
161, ,PASS, ,0.04116523, ,0.00444572982114333, ,0.042477707059447777, ,0.00018809910642299536, ,1.8333333333333333, ,0.6693461693802901, ,0.619354707046795, ,0.05667231280994266
162, ,PASS, ,0.041236119999999994, ,0.00446082106940245, ,0.04259658043244016, ,0.00018886743913659135, ,1.8333333333333333, ,0.6709554637969731, ,0.6188036978837167, ,0.05412134446235791
163, ,PASS, ,0.04106990999999999, ,0.004419382940719034, ,0.04266802461459971, ,0.00018655182817860986, ,1.8333333333333333, ,0.6682934085256517, ,0.6219873063815025, ,0.051427521887308425
164, ,PASS, ,0.040980799999999984, ,0.004382713693606434, ,0.042612878690026744, ,0.00018462953602670142, ,1.8333333333333333, ,0.6643534424115033, ,0.6202322401583641, ,0.04924389298177588
165, ,PASS, ,0.040837170000000006, ,0.004389841118630822, ,0.042675647419848584, ,0.00018426952741366, ,1.8333333333333333, ,0.6672513758312606, ,0.6188036978837167, ,0.055182547294953165
166, ,PASS, ,0.040783879999999995, ,0.004394479804264369, ,0.042667643766861905, ,0.000184204751857539, ,1.8333333333333333, ,0.6686110162964519, ,0.6192526683128916, ,0.05734576845370502
167, ,PASS, ,0.040870649999999994, ,0.004380690858875102, ,0.042624700862431385, ,0.0001839445769696428, ,1.8333333333333333, ,0.6653695706434282, ,0.6185179894287872, ,0.048305136629864694
168, ,PASS, ,0.04077630999999998, ,0.004397019197035145, ,0.042642164781126916, ,0.0001841924114702844, ,1.8333333333333333, ,0.6692740457752633, ,0.6173139323687271, ,0.05785596212322198
169, ,PASS, ,0.04090157, ,0.004362838109048962, ,0.042461155434787054, ,0.0001833257843519293, ,1.8333333333333333, ,0.6616632872530771, ,0.6186404359094713, ,0.04032570763861962
170, ,PASS, ,0.040836489999999996, ,0.004406648195091816, ,0.04262460523091366, ,0.00018490752809263928, ,1.8333333333333333, ,0.6675376937669967, ,0.6186404359094713, ,0.05152956062121181
171, ,PASS, ,0.041206759999999995, ,0.004443558321879277, ,0.042645942354645826, ,0.000188131487193278, ,1.8333333333333333, ,0.6678269446953105, ,0.6159874288279831, ,0.04148894920511826
172, ,PASS, ,0.04060826, ,0.004357473013403447, ,0.0425689732062611, ,0.00018173607969099447, ,1.8333333333333333, ,0.6684487923527718, ,0.6191914450725495, ,0.058835533968694516
173, ,PASS, ,0.040655010000000005, ,0.004375114928738275, ,0.04274468423052591, ,0.00018279247533044556, ,1.8333333333333333, ,0.6675266895098085, ,0.6188853288708394, ,0.05540703250954062
174, ,PASS, ,0.04052799, ,0.004357763962136158, ,0.04254823999387768, ,0.00018145325339554168, ,1.8333333333333333, ,0.6654769865968077, ,0.6203342788922676, ,0.052754025428052485
175, ,PASS, ,0.04081792000000001, ,0.004388672146489825, ,0.04263561444746026, ,0.0001840544883536628, ,1.8333333333333333, ,0.6670472334801275, ,0.6191506295789881, ,0.055488663496663336
176, ,PASS, ,0.040876800000000005, ,0.004388313491008753, ,0.04261439522254648, ,0.00018439919880198482, ,1.8333333333333333, ,0.667837984303094, ,0.6196404155017244, ,0.05775392338931858
177, ,PASS, ,0.041068939999999984, ,0.004407408631602709, ,0.04248813022428114, ,0.00018598530356275, ,1.8333333333333333, ,0.6670705403972441, ,0.6201506091712414, ,0.057223321973020956
178, ,PASS, ,0.041039160000000005, ,0.004381714085243033, ,0.042672719539193084, ,0.00018480867521366654, ,1.8333333333333333, ,0.6642953688275137, ,0.620558764106855, ,0.05367237403318299
179, ,PASS, ,0.04091751999999999, ,0.004396969665011825, ,0.04252635443786862, ,0.0001848574915806766, ,1.8333333333333333, ,0.6648469533981248, ,0.6175588253300953, ,0.053896859247770455
180, ,PASS, ,0.040897260000000005, ,0.00436891489308202, ,0.04237744713822167, ,0.00018363519292270174, ,1.8333333333333333, ,0.6653495794787873, ,0.6201710169180221, ,0.05540703250954062
181, ,PASS, ,0.04103755, ,0.0043929109045548415, ,0.042472897662496685, ,0.00018527584684910009, ,1.8333333333333333, ,0.6635420153236383, ,0.6162323217893513, ,0.0519989387971674
182, ,PASS, ,0.040899630000000006, ,0.004381634655691831, ,0.04258281248831657, ,0.0001842155117303531, ,1.8333333333333333, ,0.663868683176478, ,0.6197016387420665, ,0.052305054998877575
183, ,PASS, ,0.040732359999999995, ,0.004383798183757565, ,0.04265939561886492, ,0.00018352041945067624, ,1.8333333333333333, ,0.6640896691264623, ,0.6197832697291892, ,0.04808065141527724
184, ,PASS, ,0.041009340000000005, ,0.004360715837411825, ,0.04235176053611152, ,0.00018394163003869303, ,1.8333333333333333, ,0.6635766139329937, ,0.6191098140854269, ,0.05489683884002367
185, ,PASS, ,0.04108462999999998, ,0.004370718576584444, ,0.0425583502518316, ,0.00018460657930448657, ,1.8333333333333333, ,0.6607853563621299, ,0.6192322605661109, ,0.04720311830370809
186, ,PASS, ,0.040929859999999985, ,0.004361376178945215, ,0.04238903593089938, ,0.00018348791979179438, ,1.8333333333333333, ,0.6652392385292486, ,0.6191914450725495, ,0.0573661762004857
187, ,PASS, ,0.04137811, ,0.004382476602039934, ,0.04269188774045428, ,0.00018651939111975213, ,1.8333333333333333, ,0.6623456667691511, ,0.6222526070896512, ,0.0434889083896247
188, ,PASS, ,0.04112167, ,0.004393229260895471, ,0.04340332392277709, ,0.00018571443450210605, ,1.8333333333333333, ,0.6624668323374183, ,0.6194363380339176, ,0.05240709373278096
189, ,PASS, ,0.04135003000000001, ,0.004402841927083206, ,0.04286462581477929, ,0.00018712800562063428, ,1.8333333333333333, ,0.6647775371866431, ,0.6203546866390481, ,0.05297851064263995
190, ,PASS, ,0.04136632999999999, ,0.00441431323190773, ,0.0425667268010857, ,0.00018763762178658567, ,1.8333333333333333, ,0.6642518701222183, ,0.619477153527479, ,0.05034591130793249
191, ,PASS, ,0.04140545999999999, ,0.0044180958202709964, ,0.04266852794738883, ,0.00018796309023516998, ,1.8333333333333333, ,0.6647848745076875, ,0.6183547274545418, ,0.050305095814371134
192, ,PASS, ,0.041422810000000004, ,0.004421217275193009, ,0.04260392728250444, ,0.00018819081525886248, ,1.8333333333333333, ,0.6640947689774597, ,0.6179057570253669, ,0.05908042693006265
193, ,PASS, ,0.041787850000000015, ,0.004456157144022411, ,0.042658030806922306, ,0.00019156053759340766, ,1.8333333333333333, ,0.6683143876767728, ,0.6233954409093692, ,0.056427419848574516
194, ,PASS, ,0.04166522, ,0.004457615638605456, ,0.043048220761413035, ,0.00019086228882518504, ,1.8333333333333333, ,0.6650306406438113, ,0.6198444929695313, ,0.05218260851819351
195, ,PASS, ,0.04190777999999999, ,0.004445100692075046, ,0.04292646264463991, ,0.00019149995031765546, ,1.8333333333333333, ,0.6609310687399008, ,0.6198240852227506, ,0.04587661476296402
196, ,PASS, ,0.04200097999999999, ,0.00446119006663905, ,0.04267650862166079, ,0.00019261040674010851, ,1.8333333333333333, ,0.6624574822608718, ,0.6187220668965939, ,0.05585600293871554
197, ,PASS, ,0.04326376, ,0.004568476104010142, ,0.042902870199995925, ,0.0002032753421796156, ,1.8333333333333333, ,0.6589215801197525, ,0.6205791718536356, ,0.04720311830370809
198, ,PASS, ,0.05534212, ,0.005757186811559595, ,0.0440186218069019, ,0.0003282580175386185, ,1.75, ,0.6568450648883272, ,0.6244158282484031, ,0.05873349523479113
199, ,PASS, ,0.03761398000000003, ,0.004018720406736554, ,0.04234543640844065, ,0.00015525290424685842, ,1.8333333333333333, ,0.6630326701611128, ,0.6200689781841187, ,0.05097855145813351
200, ,PASS, ,0.03712176000000004, ,0.003981102937624832, ,0.0423027451409155, ,0.00015185193007219043, ,1.8333333333333333, ,0.6671646401876761, ,0.6200077549437767, ,0.056794759290626724
201, ,PASS, ,0.03721090000000003, ,0.003977134326531078, ,0.042401251673027086, ,0.00015212840306545793, ,1.8333333333333333, ,0.6649873753047282, ,0.6194567457806983, ,0.05014183384012571
202, ,PASS, ,0.03729011000000003, ,0.003997874257190427, ,0.04209058342503214, ,0.0001532211314680532, ,1.8333333333333333, ,0.6676431857921895, ,0.619864900716312, ,0.05334585008469215
203, ,PASS, ,0.037148930000000024, ,0.003982583370331122, ,0.04254762052366279, ,0.00015200870680199044, ,1.8333333333333333, ,0.6652893361761748, ,0.6198036774759699, ,0.051427521887308425
204, ,PASS, ,0.037087140000000025, ,0.003957903751691763, ,0.04248588228485133, ,0.00015084140107375797, ,1.8333333333333333, ,0.6639421680562951, ,0.6201506091712414, ,0.051019366951694865
205, ,PASS, ,0.036888180000000007, ,0.0039685700904879, ,0.04254057197302097, ,0.00015039337162037572, ,1.8333333333333333, ,0.6670874837944767, ,0.6199465317034346, ,0.05242750147956164
206, ,PASS, ,0.03694308000000003, ,0.00396668524654705, ,0.04245082409093692, ,0.00015043379578064621, ,1.8333333333333333, ,0.667291203387113, ,0.6187628823901553, ,0.05618252688720638
207, ,PASS, ,0.037170520000000026, ,0.003950866517706006, ,0.04225376327483113, ,0.00015083071457599553, ,1.8333333333333333, ,0.6620094912380953, ,0.6195791922613825, ,0.04010122242403216
208, ,PASS, ,0.036835150000000025, ,0.003958527070013555, ,0.042109675286626805, ,0.0001498558099151568, ,1.8333333333333333, ,0.6683785848647525, ,0.6208444725617844, ,0.05206016203750944
209, ,PASS, ,0.036846460000000025, ,0.0039570041263149325, ,0.04239629616130283, ,0.00014987313694439026, ,1.8333333333333333, ,0.6655497415371059, ,0.6164976224975001, ,0.05136629864696639
210, ,PASS, ,0.036898950000000014, ,0.00395074879916277, ,0.042480482204240735, ,0.0001497110755786763, ,1.8333333333333333, ,0.6650336753601751, ,0.6192322605661109, ,0.05046835778861656
211, ,PASS, ,0.03668978000000003, ,0.003954156997091303, ,0.042500946869043495, ,0.00014890658183991975, ,1.8333333333333333, ,0.6633773673373067, ,0.6175588253300953, ,0.03893798085753352
212, ,PASS, ,0.03654718000000003, ,0.0039030112436074, ,0.042485019662251794, ,0.00014650887435050517, ,1.8333333333333333, ,0.6630207024863713, ,0.6193751147935757, ,0.048121466908838596
213, ,FAIL, ,0.0044589700000000135, ,0.000194661844133725, ,0.03917861366155792, ,9.162240350470324e-07, ,0.9166666666666666, ,0.35555527940374665, ,0.45448052080569784, ,0.008632476888226772
214, ,PASS, ,0.03741611000000002, ,0.0046905931400000956, ,0.04227724421338341, ,0.00017896964641489043, ,1.9166666666666667, ,0.7180973667407218, ,0.6057835554376442, ,0.05132548315340503
215, ,PASS, ,0.03648186000000003, ,0.003932439694938515, ,0.042435746102528524, ,0.00014731369700959725, ,1.8333333333333333, ,0.6657755230533172, ,0.6180282035060509, ,0.05501928532070774
216, ,PASS, ,0.036492660000000045, ,0.0038929961514774154, ,0.04239574974041347, ,0.00014597957165782824, ,1.8333333333333333, ,0.6653915217596865, ,0.6193955225403563, ,0.04959082467704741
217, ,PASS, ,0.03672126000000003, ,0.0039399150931127315, ,0.0422798590118569, ,0.00014864414817772865, ,1.8333333333333333, ,0.6673906918335227, ,0.6192526683128916, ,0.05367237403318299
218, ,PASS, ,0.03660302000000003, ,0.003912337255511143, ,0.0424938156815167, ,0.00014719940573407214, ,1.8333333333333333, ,0.6662864927766654, ,0.618273096467419, ,0.05614171139364503
219, ,FAIL, ,0.004393290000000008, ,0.00021628972019164578, ,0.0393111419291443, ,9.996608339726086e-07, ,1.0833333333333333, ,0.412458986408753, ,0.5115609885512541, ,0.012244648068406767
220, ,PASS, ,0.037723940000000025, ,0.0046605878172450805, ,0.042505168664108896, ,0.00017927641042369573, ,1.9166666666666667, ,0.7140574661145485, ,0.6104569294504194, ,0.049407154956021306
221, ,PASS, ,0.03667201000000004, ,0.003923036347768552, ,0.04230430837493113, ,0.00014785656253471776, ,1.8333333333333333, ,0.6670409706769304, ,0.619415930287137, ,0.055243770535295195
222, ,PASS, ,0.03638041000000003, ,0.00388886299489865, ,0.042136049641844045, ,0.00014544847477392876, ,1.8333333333333333, ,0.6640743770573342, ,0.6184363584416644, ,0.05165200710189588
223, ,PASS, ,0.03704654000000003, ,0.0038748152672733313, ,0.04227371957776373, ,0.0001475062555356965, ,1.8333333333333333, ,0.6539602704891119, ,0.618783290136936, ,0.02753005040713455
224, ,PASS, ,0.03660728000000001, ,0.0038896936570671937, ,0.042235829345523564, ,0.00014634050383198195, ,1.8333333333333333, ,0.6639097546907992, ,0.6193342993000143, ,0.05648864308891655
225, ,PASS, ,0.03663232000000003, ,0.0039023106038136297, ,0.04223228523581152, ,0.00014687734772653388, ,1.8333333333333333, ,0.6633256095079945, ,0.6190077753515234, ,0.05044795004183588
226, ,PASS, ,0.036913820000000035, ,0.00394833242619211, ,0.042504052875655604, ,0.0001497234002971575, ,1.8333333333333333, ,0.6661203742032017, ,0.6183343197077611, ,0.051121405685598253
227, ,PASS, ,0.030921580000000032, ,0.004252229934412996, ,0.04372890160364074, ,0.00013352988911274175, ,1.8333333333333333, ,0.7489030402198408, ,0.6109467153731557, ,0.02871369972041387
228, ,PASS, ,0.036389970000000035, ,0.0038815007717878116, ,0.04223445083977878, ,0.00014521013795106374, ,1.8333333333333333, ,0.6595100545716439, ,0.6189669598579621, ,0.04679496336809453
229, ,PASS, ,0.03671349000000002, ,0.003928771383101467, ,0.04251524198812269, ,0.00014813702019043988, ,1.8333333333333333, ,0.664991140644013, ,0.6176200485704373, ,0.054305014183384015
230, ,PASS, ,0.036753980000000026, ,0.003907554815087152, ,0.042448955088467584, ,0.00014764313005712196, ,1.8333333333333333, ,0.6619578619617684, ,0.6190077753515234, ,0.046203138711454865
231, ,PASS, ,0.03643777000000001, ,0.003927835972724929, ,0.04224846751984654, ,0.0001469710566414936, ,1.8333333333333333, ,0.6684349771798686, ,0.6186404359094713, ,0.05706005999877554
232, ,PASS, ,0.03627185000000003, ,0.003844746585004256, ,0.042185943575233156, ,0.00014335534049892177, ,1.8333333333333333, ,0.6608742727879775, ,0.6187628823901553, ,0.046999040835901305
233, ,PASS, ,0.036512960000000025, ,0.0038943519850443485, ,0.042174696675578056, ,0.00014618324133331055, ,1.8333333333333333, ,0.6610959103340022, ,0.6178649415318055, ,0.04281545274586233
234, ,PASS, ,0.03642173000000003, ,0.0039142775343117935, ,0.042126548542274656, ,0.00014654788962869682, ,1.8333333333333333, ,0.6666696767257793, ,0.6185179894287872, ,0.05538662476275994
235, ,PASS, ,0.03624304000000002, ,0.0038311646947641153, ,0.04207112168527173, ,0.0001426877387064059, ,1.8333333333333333, ,0.656027183307339, ,0.6163139527764739, ,0.040366523132180976
236, ,PASS, ,0.03677062000000003, ,0.003894945533525944, ,0.04208851452807086, ,0.00014719483443081206, ,1.8333333333333333, ,0.6596554747216623, ,0.6195179690210404, ,0.04718271055692741
237, ,PASS, ,0.036992520000000015, ,0.003980333698183239, ,0.04201740535887023, ,0.0001512244422999389, ,1.8333333333333333, ,0.6667338025559174, ,0.6187628823901553, ,0.05769270014897655
238, ,PASS, ,0.03621717000000001, ,0.0037944191088985684, ,0.04212582219444501, ,0.00014121565650903147, ,1.8333333333333333, ,0.653165555776775, ,0.6189873676047427, ,0.034652354033591154
239, ,PASS, ,0.03564313000000004, ,0.003710193219541045, ,0.04190659521622008, ,0.00013594286409636521, ,1.8333333333333333, ,0.6559178992719109, ,0.6153956041713434, ,0.04752964225219893
240, ,PASS, ,0.03529505000000005, ,0.0036924376979560855, ,0.04215674183281974, ,0.00013402512018953385, ,1.8333333333333333, ,0.6572707777341128, ,0.620619987347197, ,0.056835574784188075
241, ,PASS, ,0.03572184000000002, ,0.003724465772708805, ,0.0419233744760311, ,0.00013687528761725868, ,1.8333333333333333, ,0.6549195108808655, ,0.6195179690210404, ,0.05014183384012571
242, ,PASS, ,0.03540249000000003, ,0.0037267243710399386, ,0.042000154697455154, ,0.00013573244284620888, ,1.8333333333333333, ,0.6595929215673627, ,0.6197220464888472, ,0.058917164955817225
243, ,PASS, ,0.035571020000000036, ,0.0037577160682918495, ,0.04198017392012408, ,0.0001375172262520115, ,1.8333333333333333, ,0.6604549198124388, ,0.6201302014244607, ,0.058039631844248075
244, ,PASS, ,0.03577927000000003, ,0.003718885959478636, ,0.042066418477990246, ,0.00013691498940130364, ,1.8333333333333333, ,0.6518449233161733, ,0.6202934633987062, ,0.04516234362564029
245, ,PASS, ,0.035995220000000036, ,0.0037796928330060793, ,0.04202883364992552, ,0.0001399585517314301, ,1.8333333333333333, ,0.6576331278444584, ,0.6198853084630926, ,0.042448113303810125
246, ,PASS, ,0.03586063000000002, ,0.0037680878248106385, ,0.04201139589824698, ,0.00013893359970301383, ,1.8333333333333333, ,0.6585951624960203, ,0.6190281830983041, ,0.053876451500989776
247, ,PASS, ,0.03616590000000004, ,0.0037824570904193286, ,0.042085028302279545, ,0.00014065570785895515, ,1.8333333333333333, ,0.6565219105918408, ,0.615742535866615, ,0.048550029591232835
248, ,PASS, ,0.03600783000000002, ,0.0037886780632484943, ,0.04219855467521071, ,0.00014027630146703146, ,1.8333333333333333, ,0.6576035446747405, ,0.619477153527479, ,0.05134589090018571
249, ,PASS, ,0.03594501000000001, ,0.0038117534526094588, ,0.04203669427521888, ,0.00014089158649356438, ,1.8333333333333333, ,0.6602931670775808, ,0.6203342788922676, ,0.05612130364686435
250, ,PASS, ,0.035813250000000026, ,0.0037691382600812985, ,0.04217163361829351, ,0.00013881830522208407, ,1.8333333333333333, ,0.6580834165354362, ,0.619415930287137, ,0.05410093671557723
251, ,PASS, ,0.03583146000000001, ,0.0037653271828344353, ,0.042221191418950636, ,0.000138799768165191, ,1.8333333333333333, ,0.6568368975310608, ,0.619987347196996, ,0.054345829676945366
252, ,PASS, ,0.035208860000000036, ,0.003681472709601416, ,0.0420661929417767, ,0.00013335628628583128, ,1.75, ,0.6537594346009844, ,0.6198444929695313, ,0.05571314871125079
253, ,PASS, ,0.03566728000000004, ,0.0037191272479007464, ,0.042012557151282624, ,0.00013648168186943536, ,1.8333333333333333, ,0.6506022348587209, ,0.6184159506948838, ,0.036693128711658946
254, ,PASS, ,0.035806390000000014, ,0.0037523845973429807, ,0.042117095839268585, ,0.00013813985088573325, ,1.8333333333333333, ,0.6554919801612794, ,0.620681210587539, ,0.0561621191404257
255, ,PASS, ,0.03577386000000003, ,0.003740846659108564, ,0.04207082879900411, ,0.00013767873660070783, ,1.8333333333333333, ,0.6564835694388748, ,0.6201710169180221, ,0.05540703250954062
