Channel, ,Pass/Fail, ,Amplitude, ,Sorting Function Response, ,Mean, ,Variance, ,NPeaksRatio, ,PosIntegralRatio, ,ToT50, ,ToT99
18, ,PASS, ,0.01815012999999998, ,0.0013399697738755469, ,0.04656459244239914, ,2.5023743380656925e-05, ,1.25, ,0.4600889381108644, ,0.46068447582702393, ,0.028938184935001325
19, ,PASS, ,0.03375613999999997, ,0.002805687683123397, ,0.048351692876675983, ,9.709746901841896e-05, ,1.5, ,0.5183546316414627, ,0.4657047815350707, ,0.032142201179567766
20, ,PASS, ,0.03957764000000001, ,0.003330372679076163, ,0.04878641475786208, ,0.00013490387799536372, ,1.5833333333333333, ,0.524655557340149, ,0.46448031672823004, ,0.03352992796065386
21, ,PASS, ,0.03755817999999997, ,0.0031444968600641346, ,0.048846400899165324, ,0.00012096821861629881, ,1.5, ,0.5182899239373624, ,0.46548029632048327, ,0.033407481479969796
22, ,PASS, ,0.02823976000000001, ,0.0023104239323464676, ,0.04952336481235077, ,6.69827158197099e-05, ,1.4166666666666667, ,0.5120433881944, ,0.4623783188098202, ,0.031244260321217934
23, ,PASS, ,0.014145450000000025, ,0.001125013859469993, ,0.04882437741576703, ,1.6353513778483683e-05, ,1.4166666666666667, ,0.49754243730811126, ,0.46380686108446767, ,0.028162690557335564
24, ,PASS, ,0.01889112999999997, ,0.0016960346979752196, ,0.0490156850031632, ,3.2811559098172e-05, ,1.5833333333333333, ,0.552739607011377, ,0.4651333646252117, ,0.03563192587906369
25, ,PASS, ,0.03581209999999997, ,0.003534734025061384, ,0.04869639736087018, ,0.00012927118094087608, ,1.75, ,0.590075090943471, ,0.46482724842350154, ,0.03818289422664844
26, ,PASS, ,0.042485680000000026, ,0.004236459735240121, ,0.04793246319360829, ,0.00018353361317295148, ,1.75, ,0.5936358161544018, ,0.46445990898144934, ,0.03485643150139793
27, ,PASS, ,0.03972314000000002, ,0.003928903316954534, ,0.0492214853519316, ,0.00015938133250793148, ,1.75, ,0.5939507127529405, ,0.46362319136344154, ,0.033734005428460646
28, ,PASS, ,0.028451319999999995, ,0.002852178017963011, ,0.04841425809820208, ,8.287569030534707e-05, ,1.75, ,0.5981104109735669, ,0.46374563784412565, ,0.03857064141548132
29, ,PASS, ,0.013253470000000017, ,0.0012770487332945898, ,0.048559396922511794, ,1.7345885773096785e-05, ,1.75, ,0.5837670232260453, ,0.46494969490418564, ,0.02889736944143997
30, ,PASS, ,0.019161830000000005, ,0.0016872421873150713, ,0.047617846584151344, ,3.3157104660665416e-05, ,1.5833333333333333, ,0.542001926527799, ,0.4627660659986531, ,0.03152996877614742
31, ,PASS, ,0.035814129999999986, ,0.0035570648806983905, ,0.04879347198302075, ,0.0001301331298865892, ,1.75, ,0.5920731451653146, ,0.46417420052651986, ,0.03406052937695149
32, ,PASS, ,0.04401539000000001, ,0.004413882644967933, ,0.04910930017162915, ,0.0001984108503435208, ,1.75, ,0.5945441283556103, ,0.46354156037631883, ,0.03818289422664844
33, ,PASS, ,0.041444990000000015, ,0.0041554185759016, ,0.04903324099691843, ,0.0001759297472337783, ,1.75, ,0.5987299236239579, ,0.46329666741495074, ,0.03616252729536132
34, ,PASS, ,0.028534670000000005, ,0.002875235032241833, ,0.0485911005561111, ,8.37965843011009e-05, ,1.75, ,0.6043612350824952, ,0.4638680843248097, ,0.03873390338972674
35, ,PASS, ,0.013376119999999998, ,0.001144757059756257, ,0.05013144221424053, ,1.5797779782303498e-05, ,1.5833333333333333, ,0.5382733125820099, ,0.4593375645394992, ,0.031734046243954206
36, ,PASS, ,0.02762551, ,0.0026346920533886296, ,0.04868778423868901, ,7.491936247854515e-05, ,1.5833333333333333, ,0.5721529833753168, ,0.4573171976082121, ,0.040039999183690125
37, ,PASS, ,0.04631827000000003, ,0.005021330574599111, ,0.048460608252688726, ,0.00023782983423185775, ,1.8333333333333333, ,0.6273615839054204, ,0.46380686108446767, ,0.0431215689475725
38, ,PASS, ,0.054774560000000014, ,0.00599375172345867, ,0.04759608705720291, ,0.0003351835076138053, ,1.8333333333333333, ,0.6285607974068458, ,0.46243954205016224, ,0.040774678067794536
39, ,PASS, ,0.05191440000000001, ,0.005739003832685468, ,0.04908985598865329, ,0.0003033074757430367, ,1.8333333333333333, ,0.6274986441297219, ,0.46374563784412565, ,0.04128487173731148
40, ,PASS, ,0.038347889999999975, ,0.004214530982260416, ,0.04901179881451399, ,0.00016493613310190238, ,1.8333333333333333, ,0.6330147207414837, ,0.4623783188098202, ,0.04179506540682843
41, ,PASS, ,0.018569089999999983, ,0.001959656191449942, ,0.04954526153160139, ,3.724242608050025e-05, ,1.75, ,0.6164606598598765, ,0.4639088998183711, ,0.040693047080671826
42, ,PASS, ,0.030400749999999997, ,0.0031015131100689485, ,0.04990504576233138, ,9.649740200829426e-05, ,1.75, ,0.602832890475998, ,0.4617252709128385, ,0.03689720617946572
43, ,PASS, ,0.05310823000000002, ,0.005956183260905023, ,0.04778987641680782, ,0.0003230270108818544, ,1.8333333333333333, ,0.6421105554790156, ,0.45586824758678396, ,0.04428481051407114
44, ,PASS, ,0.06266852, ,0.007115836619480582, ,0.048109613873798494, ,0.000453866038645817, ,1.8333333333333333, ,0.6422966060730685, ,0.4647864329299402, ,0.04561131405481521
45, ,PASS, ,0.059731170000000014, ,0.006821268302200359, ,0.04818367030734067, ,0.0004146339282174883, ,1.8333333333333333, ,0.6427655867820808, ,0.46413338503295853, ,0.04301953021366911
46, ,PASS, ,0.043979729999999995, ,0.005015413721579187, ,0.0474812675627028, ,0.00022444940441297104, ,1.8333333333333333, ,0.6460397703251478, ,0.46401093855227443, ,0.04546845982735046
47, ,PASS, ,0.019819769999999966, ,0.002057985934069083, ,0.04946421020999571, ,4.175102963641306e-05, ,1.75, ,0.6104913717438906, ,0.463847676578029, ,0.03565233362584437
48, ,PASS, ,0.034385729999999975, ,0.004061513504267136, ,0.04920915854941736, ,0.00014274018274624574, ,1.8333333333333333, ,0.66034582882926, ,0.463786453337687, ,0.042141997102099954
49, ,PASS, ,0.059889680000000015, ,0.007826104189081924, ,0.04838778231791188, ,0.0004766166382024141, ,1.9166666666666667, ,0.6991847189906912, ,0.46445990898144934, ,0.050284688067590455
50, ,PASS, ,0.06976094999999997, ,0.008980442447608969, ,0.047303535309483474, ,0.0006359262028789164, ,1.9166666666666667, ,0.6918854946403465, ,0.46323544417460866, ,0.049427562702801985
51, ,PASS, ,0.06288617, ,0.009342651390209523, ,0.04868900038795127, ,0.0005943804858279906, ,2.0, ,0.7501130896290857, ,0.4635823758698802, ,0.06144772555662129
52, ,PASS, ,0.04441332999999995, ,0.008127185238144565, ,0.04817504679904491, ,0.0003640059441605682, ,1.9166666666666667, ,0.8337753420116895, ,0.4646843941960368, ,0.08216158853900941
53, ,PASS, ,0.02555726000000002, ,0.004765422643499133, ,0.048952243036060494, ,0.000122439077855778, ,1.9166666666666667, ,0.8256681582747916, ,0.46413338503295853, ,0.11903838697169446
