Channel, ,Pass/Fail, ,Amplitude, ,Sorting Function Response, ,Mean, ,Variance, ,NPeaksRatio, ,PosIntegralRatio, ,ToT50, ,ToT99
24, ,PASS, ,0.09475165999999997, ,0.014355354059179858, ,0.03692359162384441, ,0.0013858988960616463, ,1.8333333333333333, ,0.7770786309759847, ,0.5901308136568642, ,0.14458888594110325
25, ,PASS, ,0.14155981, ,0.016595027728967017, ,0.0402250834842146, ,0.0023892553608461787, ,1.6666666666666667, ,0.6795483283910787, ,0.5906205995796004, ,0.0422848513295647
26, ,PASS, ,0.14239759, ,0.01609170432557867, ,0.04000838784371748, ,0.002329591093947628, ,1.6666666666666667, ,0.6654870512005477, ,0.5903144833778903, ,0.04050937735964572
27, ,PASS, ,0.13434949999999998, ,0.015137204038681988, ,0.039502604145425606, ,0.002067433049229665, ,1.6666666666666667, ,0.6640385856298718, ,0.5909675312748719, ,0.04301953021366911
28, ,PASS, ,0.09111193999999999, ,0.0118370115059071, ,0.036441678353094836, ,0.001097371262728873, ,1.75, ,0.7181640731880838, ,0.5909063080345299, ,0.07012101793840941
29, ,PASS, ,0.11741757000000001, ,0.01597121573394455, ,0.03862117016387421, ,0.0019097443685686345, ,1.75, ,0.7364190562666115, ,0.5906614150731617, ,0.07193730740188976
30, ,PASS, ,0.14730541000000005, ,0.017072263918496186, ,0.04060027179302463, ,0.002557503318817019, ,1.6666666666666667, ,0.6750459692614071, ,0.5905389685924777, ,0.0408971245484786
31, ,PASS, ,0.14770519, ,0.016505174458950684, ,0.040486557163323195, ,0.002478266279996332, ,1.6666666666666667, ,0.6609160774752725, ,0.5906818228199424, ,0.038305340707332505
32, ,PASS, ,0.13903837999999996, ,0.015473871104856039, ,0.03969929959755923, ,0.0021873771752924905, ,1.6666666666666667, ,0.6594109851195046, ,0.5907838615538459, ,0.04061141609354911
33, ,PASS, ,0.09552806999999999, ,0.011924278531360891, ,0.03670094509928369, ,0.0011589845119635276, ,1.8333333333333333, ,0.7031915585491492, ,0.5907634538070652, ,0.05961102834636028
34, ,PASS, ,0.11300629000000001, ,0.015603934506752955, ,0.03830306624497459, ,0.0017961241197715653, ,1.75, ,0.7424762974541498, ,0.5909267157813106, ,0.07910042652190771
35, ,PASS, ,0.14331338, ,0.01672877607496038, ,0.04024821663741556, ,0.002438671581361959, ,1.6666666666666667, ,0.6787060281958781, ,0.5908859002877492, ,0.04273382175873962
36, ,PASS, ,0.14378428, ,0.016166345644358954, ,0.0400969982365666, ,0.0023629216921323827, ,1.6666666666666667, ,0.6629532632344978, ,0.590334891124671, ,0.04018285341115487
37, ,PASS, ,0.13575826999999996, ,0.015168957813260907, ,0.039492250479173895, ,0.0020932196372859683, ,1.6666666666666667, ,0.6603325546749147, ,0.590334891124671, ,0.04010122242403216
38, ,PASS, ,0.0943725, ,0.011789560007130679, ,0.03665895488030856, ,0.0011317491926322242, ,1.75, ,0.702771058977603, ,0.5902328523907675, ,0.05895798044937858
39, ,PASS, ,0.11129588, ,0.015216314272604881, ,0.03812248916348646, ,0.0017255168715681838, ,1.75, ,0.7386638716647624, ,0.5909063080345299, ,0.07403930532029959
40, ,PASS, ,0.14655833999999998, ,0.017001242944401605, ,0.040234225628660636, ,0.0025343869404207448, ,1.6666666666666667, ,0.6759013595689989, ,0.5908042693006266, ,0.04152976469867962
41, ,PASS, ,0.146909, ,0.016431177324356047, ,0.0402416465392543, ,0.0024540577095974866, ,1.6666666666666667, ,0.6615026810691362, ,0.5906001918328198, ,0.04075427032101386
42, ,PASS, ,0.13863952, ,0.015405666443343896, ,0.03948332774065835, ,0.0021711950572014414, ,1.6666666666666667, ,0.6581447219857395, ,0.5906205995796004, ,0.03901961184465623
43, ,PASS, ,0.09996256999999999, ,0.01230945002173893, ,0.03690245643211363, ,0.0012516364467993345, ,1.75, ,0.6973703182341252, ,0.5907226383135038, ,0.0496928634109508
44, ,PASS, ,0.11025292000000003, ,0.014871660290709366, ,0.03778999762657905, ,0.001670328450062752, ,1.75, ,0.7327773609824464, ,0.5904777453521357, ,0.062039550213260956
45, ,PASS, ,0.13922534999999997, ,0.016239283190759672, ,0.03983528868655742, ,0.0022997394464880526, ,1.6666666666666667, ,0.6777425728981227, ,0.5904165221117936, ,0.04114201750984674
46, ,PASS, ,0.13929806000000003, ,0.015559598366508096, ,0.03967293724821942, ,0.0022035721983166513, ,1.6666666666666667, ,0.6610033798575251, ,0.5907634538070652, ,0.039509397767392505
47, ,PASS, ,0.13147815999999993, ,0.014597327046951106, ,0.03907790259749801, ,0.0019509348847432761, ,1.6666666666666667, ,0.6579798942955435, ,0.5909471235280913, ,0.04055019285320708
48, ,PASS, ,0.09360373000000002, ,0.011507766944113576, ,0.03634327556764148, ,0.0010957552873113938, ,1.75, ,0.6960586812828825, ,0.5904165221117936, ,0.052672394440929776
49, ,PASS, ,0.11118457, ,0.014946371643586672, ,0.03790040291585887, ,0.001693378485196055, ,1.75, ,0.7321621450895708, ,0.5906410073263811, ,0.06673333197281688
50, ,PASS, ,0.13883328999999994, ,0.016214768855993787, ,0.03982924358176364, ,0.0022899285557557484, ,1.6666666666666667, ,0.6786168389072029, ,0.5907022305667231, ,0.04150935695189894
51, ,PASS, ,0.13942578, ,0.015558332131477124, ,0.039593003117691476, ,0.0022055823639018806, ,1.6666666666666667, ,0.6603892174079512, ,0.5904165221117936, ,0.039488990020611826
52, ,PASS, ,0.13147107999999996, ,0.014607153578560376, ,0.03893022511214057, ,0.0019523555617741335, ,1.6666666666666667, ,0.6580973727983901, ,0.5907634538070652, ,0.04024407665149691
53, ,PASS, ,0.09459372999999996, ,0.011668414321223378, ,0.036347505753760126, ,0.0011227270210995139, ,1.75, ,0.6989594693541624, ,0.589947143935838, ,0.05695802126487214
54, ,PASS, ,0.10329722000000001, ,0.014347314891200856, ,0.037279612782596276, ,0.001511666367503295, ,1.75, ,0.7449944565755485, ,0.5907838615538459, ,0.07399848982673823
55, ,PASS, ,0.14157643999999997, ,0.016555214663503168, ,0.03998680083814616, ,0.0023849083783282566, ,1.6666666666666667, ,0.6794196553477263, ,0.5910695700087754, ,0.04106038652272403
56, ,PASS, ,0.14318011999999997, ,0.015884137672625684, ,0.03999436070753658, ,0.002312376380962271, ,1.6666666666666667, ,0.658590949447814, ,0.5905593763392584, ,0.0381216709863064
57, ,PASS, ,0.13468901, ,0.01494169300021654, ,0.0392184250692843, ,0.002046176407470224, ,1.6666666666666667, ,0.6579250272086912, ,0.5911103855023366, ,0.0403461153854003
58, ,PASS, ,0.0919175, ,0.01151194179553919, ,0.03624002387563519, ,0.001077091383118435, ,1.8333333333333333, ,0.7033914381210865, ,0.5897838819615926, ,0.05336625783147283
59, ,PASS, ,0.06953282400000002, ,0.011742600073872459, ,0.03464733834840105, ,0.0008341091396575443, ,1.8333333333333333, ,0.8208193330191089, ,0.5909063080345299, ,0.2951776494357258
60, ,PASS, ,0.13441899999999998, ,0.01620380454579718, ,0.03954795249423481, ,0.0022160994836940683, ,1.75, ,0.6903680152730205, ,0.5909471235280913, ,0.0446929654496847
61, ,PASS, ,0.13844165999999997, ,0.015507613891760093, ,0.03959470545213363, ,0.0021825784794982576, ,1.6666666666666667, ,0.6622775325473736, ,0.5907838615538459, ,0.04030529989183894
62, ,PASS, ,0.12925309999999998, ,0.014580566267261307, ,0.03884173483990123, ,0.0019158480258878595, ,1.6666666666666667, ,0.6643009841478369, ,0.5908859002877492, ,0.04093794004203996
63, ,PASS, ,0.07408102500000002, ,0.01029050925220051, ,0.035101405486622723, ,0.0007763981346919488, ,1.75, ,0.7422953706402208, ,0.5903961143650129, ,0.09758984510520194
64, ,PASS, ,0.062397432999999995, ,0.01051350656983316, ,0.033926749916124155, ,0.000670415963568226, ,1.75, ,0.8185897579934656, ,0.5904981530989164, ,0.2886675782126895
65, ,PASS, ,0.13218322999999993, ,0.015973699393943056, ,0.03929582363584417, ,0.002148433950634747, ,1.75, ,0.6914763038664258, ,0.5907022305667231, ,0.04475418869002674
66, ,PASS, ,0.13804385999999996, ,0.015466818655177598, ,0.03939195117099651, ,0.002170714050174641, ,1.6666666666666667, ,0.66209051568589, ,0.5906818228199424, ,0.04030529989183894
67, ,PASS, ,0.12785407999999998, ,0.01449124830471832, ,0.03873838439705312, ,0.0018834278291923968, ,1.6666666666666667, ,0.6656068907958338, ,0.5903961143650129, ,0.0417338421664864
68, ,PASS, ,0.07206242400000003, ,0.010157131075266371, ,0.03469523561866084, ,0.0007454893085691163, ,1.75, ,0.7492234873852531, ,0.5901512214036448, ,0.11079365727230056
69, ,PASS, ,0.066674707, ,0.011049744652831997, ,0.03428106762494643, ,0.0007528810246794341, ,1.8333333333333333, ,0.8110045130144695, ,0.5907634538070652, ,0.26311707924328076
70, ,PASS, ,0.13405676, ,0.016369297427177243, ,0.03938208115303769, ,0.0022333039916943645, ,1.8333333333333333, ,0.6953974456836024, ,0.5907226383135038, ,0.045652129548376566
71, ,PASS, ,0.14181894999999997, ,0.01584627697344828, ,0.039833348372074036, ,0.002284617071368465, ,1.6666666666666667, ,0.6605832461751796, ,0.5906614150731617, ,0.03952980551417318
72, ,PASS, ,0.13126922999999996, ,0.014760276679043298, ,0.03897629386237016, ,0.0019698876852384823, ,1.6666666666666667, ,0.6636519240016258, ,0.5907838615538459, ,0.04177465766004775
73, ,PASS, ,0.08053917399999999, ,0.010551408688517082, ,0.035457651754862145, ,0.0008651685860658198, ,1.75, ,0.7210686629016005, ,0.590457337605355, ,0.07244750107140671
74, ,PASS, ,0.06232173479999997, ,0.010468450339761032, ,0.03393287584600314, ,0.0006665912087056385, ,1.75, ,0.8175376408929628, ,0.5906818228199424, ,0.24583171772004653
75, ,PASS, ,0.12729848, ,0.015953817058436483, ,0.03914202064182364, ,0.0020670472277421505, ,1.75, ,0.7055359726675888, ,0.5905797840860391, ,0.0504275422950552
76, ,PASS, ,0.13774782999999996, ,0.01552903720950519, ,0.039593901126099465, ,0.002174984506700937, ,1.6666666666666667, ,0.6651278881853925, ,0.5909471235280913, ,0.04195832738107386
77, ,PASS, ,0.12642046999999995, ,0.014321002146832146, ,0.038694175001122426, ,0.0018408985284707267, ,1.6666666666666667, ,0.6655181206772686, ,0.5906001918328198, ,0.04230525907634538
78, ,PASS, ,0.08104934999999999, ,0.010446167130208782, ,0.03527256644497051, ,0.0008614481554070816, ,1.8333333333333333, ,0.7139852540646021, ,0.5903552988714516, ,0.06714148690843044
79, ,PASS, ,0.0571090912, ,0.009565380121279821, ,0.03342206231342218, ,0.0005579142350523272, ,1.75, ,0.8129574052082674, ,0.5902328523907675, ,0.17556784555417237
80, ,PASS, ,0.12389706, ,0.015491976808604747, ,0.03890136243954205, ,0.001953894193099389, ,1.75, ,0.7039835238775953, ,0.5907022305667231, ,0.04540723658700843
81, ,PASS, ,0.13707761999999996, ,0.015410089539592692, ,0.03945877929430011, ,0.002147829310949226, ,1.6666666666666667, ,0.6635741278712461, ,0.5908450847941878, ,0.039672659741637924
82, ,PASS, ,0.12444179, ,0.014038325132815607, ,0.03858125936205384, ,0.0017762658473825543, ,1.6666666666666667, ,0.6638138189173384, ,0.5906410073263811, ,0.040060406930470804
83, ,PASS, ,0.07654609099999998, ,0.009921792713451661, ,0.03505229304667252, ,0.0007728414469650278, ,1.8333333333333333, ,0.717035056117138, ,0.5904165221117936, ,0.06924348482684027
84, ,PASS, ,0.053292590000000015, ,0.008940684858499926, ,0.033075469254096865, ,0.00048659447385233955, ,1.8333333333333333, ,0.8102757549977808, ,0.5905593763392584, ,0.14060937531887105
85, ,PASS, ,0.12378783, ,0.015911166754828544, ,0.03886842636517623, ,0.002005553148109751, ,1.75, ,0.7153601842260571, ,0.5907838615538459, ,0.055978449419399605
86, ,PASS, ,0.14103585, ,0.016014608808185577, ,0.03975547759311034, ,0.0022965136382003763, ,1.6666666666666667, ,0.6673207664178129, ,0.5907838615538459, ,0.04220322034244199
87, ,PASS, ,0.12283701, ,0.014572431827503325, ,0.03856930985592131, ,0.0018208756403842218, ,1.6666666666666667, ,0.683018118508126, ,0.5905389685924777, ,0.04497867390461419
88, ,PASS, ,0.05318300440000001, ,0.008018460931243877, ,0.03332199722577091, ,0.0004346288118144989, ,1.75, ,0.7745895648705341, ,0.5903757066182322, ,0.17699638782881982
89, ,PASS, ,0.045281774000000004, ,0.007364655214581399, ,0.03221143026223955, ,0.00034082993121121384, ,1.8333333333333333, ,0.7922118717138796, ,0.5908450847941878, ,0.07777392298116365
90, ,PASS, ,0.11646281000000003, ,0.015530644876600943, ,0.03829117705250914, ,0.0018420201891543183, ,1.75, ,0.728632522926745, ,0.5905797840860391, ,0.06408032489132875
91, ,PASS, ,0.1358449, ,0.015675359863913517, ,0.03959896892430766, ,0.0021655849235360882, ,1.6666666666666667, ,0.6733418634372141, ,0.5912736474765821, ,0.04352972388318606
92, ,PASS, ,0.11480605000000003, ,0.01418468244803313, ,0.03810751107324341, ,0.001656778426682139, ,1.75, ,0.698773692561281, ,0.5908450847941878, ,0.05491724658680435
93, ,PASS, ,0.035600702000000005, ,0.005792591599891767, ,0.031721684605008064, ,0.00021028424993360952, ,1.8333333333333333, ,0.8011152961062686, ,0.5905593763392584, ,0.1741393032795249
198, ,PASS, ,0.17354901, ,0.02437232761491198, ,0.037316419567763916, ,0.004341404620695055, ,1.8333333333333333, ,0.8741228418575404, ,0.5821105691720577, ,0.05708046774555621
199, ,PASS, ,0.07463347999999999, ,0.010395554609168427, ,0.03222387300426523, ,0.0007982976199039166, ,1.9166666666666667, ,0.8472330371627232, ,0.5738250239791025, ,0.036693128711658946
200, ,PASS, ,0.08001844000000002, ,0.010303977408100868, ,0.03214036042458318, ,0.0008465023306481373, ,1.9166666666666667, ,0.8370886598174534, ,0.5752331585069692, ,0.03332585049284709
201, ,PASS, ,0.07996212999999999, ,0.010250155578773715, ,0.03234534399310218, ,0.0008439506440504213, ,1.9166666666666667, ,0.831061499620812, ,0.5769270014897655, ,0.030876920879165732
202, ,PASS, ,0.07959373, ,0.010221098949211143, ,0.03223600848186772, ,0.0008365546414770282, ,1.9166666666666667, ,0.8236687153402881, ,0.5752331585069692, ,0.031754453990734885
203, ,PASS, ,0.07564984000000001, ,0.00977436065736157, ,0.03199733318660844, ,0.0007600626406725023, ,1.9166666666666667, ,0.8230425041889123, ,0.5744168486357422, ,0.03144833778902471
204, ,PASS, ,0.06632417800000001, ,0.00863543131851881, ,0.03166224506248852, ,0.0005883883872888468, ,1.8333333333333333, ,0.8212731154467295, ,0.5736413542580764, ,0.02710148772474031
205, ,PASS, ,0.06787395200000002, ,0.008942037670818052, ,0.031816328427583106, ,0.0006237042189811966, ,1.9166666666666667, ,0.8225700196817025, ,0.5738862472194445, ,0.032591171608742676
206, ,PASS, ,0.06274760800000002, ,0.008083846885051134, ,0.03137785178532275, ,0.0005208221645256008, ,1.8333333333333333, ,0.8180064131131848, ,0.5735801310177343, ,0.03138711454868268
207, ,PASS, ,0.06838570299999999, ,0.008901495499706485, ,0.031735262030958555, ,0.0006253707141072822, ,1.8333333333333333, ,0.8149863294647879, ,0.5734168690434889, ,0.03008101875471929
208, ,PASS, ,0.06532226800000002, ,0.008755403440353528, ,0.031592560319360835, ,0.000587651008743587, ,1.8333333333333333, ,0.811298774475883, ,0.5716005795800085, ,0.03185649272463827
209, ,PASS, ,0.05896746400000002, ,0.007780089765961185, ,0.03133821526987653, ,0.00047131658083012634, ,1.8333333333333333, ,0.809453556448194, ,0.5719679190220608, ,0.027428011673231157
210, ,PASS, ,0.062678862, ,0.008045550287713374, ,0.03138149912457297, ,0.0005173579990474385, ,1.8333333333333333, ,0.8075113348623782, ,0.5726821901593845, ,0.029978980020815903
211, ,PASS, ,0.067436663, ,0.008815971462664593, ,0.03169460896828636, ,0.0006107192624238751, ,1.8333333333333333, ,0.8120511039321108, ,0.5731923838289015, ,0.03165241525683149
212, ,PASS, ,0.09743641000000003, ,0.012718927778310468, ,0.0333357421040591, ,0.001278800937899847, ,1.8333333333333333, ,0.8345795516763632, ,0.5804371339360421, ,0.03634619701638742
213, ,PASS, ,0.07566781000000002, ,0.009905302280400822, ,0.032188913346050084, ,0.0007718258673902357, ,1.9166666666666667, ,0.8262175423007312, ,0.5767433317687394, ,0.0319177159649803
214, ,PASS, ,0.07278285999999999, ,0.009380821174641153, ,0.031964905884716635, ,0.0007025923254713237, ,1.9166666666666667, ,0.8232175573106422, ,0.5762331380992225, ,0.03532580967735352
215, ,PASS, ,0.08853456000000001, ,0.011548137683986041, ,0.0328796602916267, ,0.0010542664562532215, ,1.8333333333333333, ,0.8331545593222662, ,0.5797636782922797, ,0.03855023366870064
216, ,PASS, ,0.08738513, ,0.01143054090833161, ,0.03282019684206445, ,0.0010295512833735589, ,1.8333333333333333, ,0.8326486302587135, ,0.5790902226485174, ,0.03901961184465623
217, ,PASS, ,0.0793961, ,0.010458706013869314, ,0.0323880484262158, ,0.0008554437111700382, ,1.8333333333333333, ,0.8243384593387859, ,0.5769678169833269, ,0.03320340401216302
218, ,PASS, ,0.09568992000000001, ,0.012426324485790912, ,0.03321574040001224, ,0.0012259654644456222, ,1.8333333333333333, ,0.8320268808691395, ,0.5804371339360421, ,0.038366563947674535
219, ,PASS, ,0.08978596, ,0.011667765442915302, ,0.032954857290606314, ,0.0010799423830963133, ,1.8333333333333333, ,0.8322493153857164, ,0.5802330564682353, ,0.03724413787473725
220, ,PASS, ,0.08107557999999998, ,0.010585605588475575, ,0.03248171323725843, ,0.000884171101041574, ,1.8333333333333333, ,0.829606421099543, ,0.5787636987000265, ,0.03616252729536132
221, ,PASS, ,0.08902018, ,0.01180388384952608, ,0.03297719240687945, ,0.001084180093255894, ,1.8333333333333333, ,0.8313901828836048, ,0.5798657170261832, ,0.03665231321809759
222, ,PASS, ,0.07332202000000002, ,0.00967540758201453, ,0.03193772239221648, ,0.0007296912784703389, ,1.9166666666666667, ,0.8095840351676984, ,0.574110732434032, ,0.03193812371176098
223, ,PASS, ,0.08125120999999998, ,0.010551477953241075, ,0.03249884182130365, ,0.0008834829525536206, ,1.8333333333333333, ,0.8244710157169115, ,0.5787228832064651, ,0.03404012163017081
224, ,PASS, ,0.07978601999999994, ,0.010553241336455943, ,0.0324616674951899, ,0.0008676447233484835, ,1.8333333333333333, ,0.8240990447778695, ,0.5773555641721597, ,0.033734005428460646
225, ,PASS, ,0.07529088, ,0.010038957328842966, ,0.03226760080786107, ,0.0007782978830802208, ,1.9166666666666667, ,0.8158931769452732, ,0.5752943817473113, ,0.03289728781045285
226, ,PASS, ,0.07786116000000001, ,0.010140561800510213, ,0.032163165294810316, ,0.0008117993316428078, ,1.9166666666666667, ,0.8122593219425819, ,0.5752739740005306, ,0.0319177159649803
227, ,PASS, ,0.09809741000000001, ,0.012803254133769829, ,0.03344465956227628, ,0.0012964797284943453, ,1.8333333333333333, ,0.8292531040245943, ,0.5824370931205486, ,0.03867268014938471
228, ,PASS, ,0.19979999999999998, ,0.03719214686794615, ,0.04626890957410419, ,0.0076888169885954765, ,2.0, ,0.8773577014296274, ,0.6002938715536418, ,0.1496295993959307
229, ,PASS, ,0.18801200000000007, ,0.02997850584466249, ,0.04065656759251525, ,0.005831791963739632, ,1.9166666666666667, ,0.8399242782077374, ,0.5980694271545479, ,0.05328462684435011
230, ,PASS, ,0.19979999999999998, ,0.03493022658207478, ,0.044599076648256554, ,0.00721829901970692, ,1.9166666666666667, ,0.8461348167781617, ,0.594763372176078, ,0.0739372665863962
231, ,PASS, ,0.19979999999999998, ,0.041095602650480366, ,0.04890756184920713, ,0.008475185071609064, ,2.0, ,0.9298515892608699, ,0.607946776596396, ,0.5150711209975307
232, ,PASS, ,0.10753156999999999, ,0.014561599882350632, ,0.03420975675316586, ,0.001618729307901512, ,1.8333333333333333, ,0.8405609979870342, ,0.5856207016183343, ,0.04475418869002674
233, ,PASS, ,0.08731674999999994, ,0.011645545864062058, ,0.0330140487771221, ,0.0010497138791861105, ,1.8333333333333333, ,0.831533632827334, ,0.580886104365217, ,0.03934613579314708
234, ,PASS, ,0.10246016000000002, ,0.013843875505403759, ,0.033844768738932676, ,0.0014654049552583303, ,1.8333333333333333, ,0.8365513029516503, ,0.5840493051162221, ,0.04224403583600335
235, ,PASS, ,0.11039448999999998, ,0.014950807679964295, ,0.03445080312929532, ,0.001706693505326925, ,1.8333333333333333, ,0.8383908811591045, ,0.586845166425175, ,0.043284830921817924
236, ,PASS, ,0.07431471000000003, ,0.009927919810199066, ,0.032275480936971496, ,0.000760306620592139, ,1.8333333333333333, ,0.8248064403572302, ,0.577335156425379, ,0.03726454562151793
237, ,PASS, ,0.09463980000000002, ,0.012732769468375565, ,0.03332454728986633, ,0.0012445663932047983, ,1.8333333333333333, ,0.8293847429486587, ,0.5816615987428828, ,0.037958409012060976
238, ,PASS, ,0.09998351000000003, ,0.01341497212474743, ,0.03361986744186241, ,0.0013853647323049693, ,1.8333333333333333, ,0.8238140038426172, ,0.5809065121119977, ,0.037958409012060976
239, ,PASS, ,0.07549434000000001, ,0.01013106925824394, ,0.03225378096299709, ,0.0007883929658117056, ,1.8333333333333333, ,0.8247392946489809, ,0.5779065733352381, ,0.037978816758841655
240, ,PASS, ,0.08420795999999998, ,0.01129032459745904, ,0.03285065536646232, ,0.0009813357607442986, ,1.8333333333333333, ,0.8222646828314192, ,0.5787432909532458, ,0.03808085549274504
241, ,PASS, ,0.09515768999999999, ,0.012931520041822808, ,0.033503801095917635, ,0.0012714087775368798, ,1.8333333333333333, ,0.8264543452809293, ,0.5809473276055591, ,0.04140731821799555
242, ,PASS, ,0.08185375000000002, ,0.010775184992305523, ,0.032568389738024124, ,0.0009096975374329231, ,1.8333333333333333, ,0.8219859362749009, ,0.5796004163180343, ,0.03634619701638742
243, ,PASS, ,0.06942996699999998, ,0.009222404336136726, ,0.031980267348090036, ,0.0006598192076243575, ,1.8333333333333333, ,0.8160900881272459, ,0.5766208852880553, ,0.03514213995632742
244, ,PASS, ,0.10819652, ,0.014840465021200825, ,0.03431870093196057, ,0.0016602858161620603, ,1.8333333333333333, ,0.8350621146196863, ,0.5853554009101855, ,0.042468521050590805
245, ,PASS, ,0.11495835, ,0.01585215139913542, ,0.03486660043150752, ,0.001885012273358983, ,1.8333333333333333, ,0.8352004374525474, ,0.587539029815718, ,0.04457051896900063
246, ,PASS, ,0.09218111000000001, ,0.012220218843354442, ,0.03331185774600763, ,0.0011637326803566777, ,1.8333333333333333, ,0.8259003293678661, ,0.5821513846656191, ,0.0389583886043142
247, ,PASS, ,0.07729805000000002, ,0.010538124113218294, ,0.03240378425600213, ,0.0008407123937058884, ,1.8333333333333333, ,0.8210622692120381, ,0.5778861655884574, ,0.038325748454113184
248, ,PASS, ,0.08479952999999998, ,0.01157975250001254, ,0.03294379796963164, ,0.0010150591398091467, ,1.8333333333333333, ,0.8246088740417028, ,0.5795187853309116, ,0.04001959143690945
249, ,PASS, ,0.10551217999999998, ,0.014336590962973484, ,0.03400160686267423, ,0.001563949029867868, ,1.8333333333333333, ,0.823924070575798, ,0.5826411705883553, ,0.04091753229525928
250, ,PASS, ,0.08954201999999997, ,0.011780635467240324, ,0.03298898866451419, ,0.001089322558515556, ,1.8333333333333333, ,0.8198501204323352, ,0.5811922205669272, ,0.03650945899063284
251, ,PASS, ,0.06432946800000001, ,0.008914609994802246, ,0.031990322292319746, ,0.0005918372619645511, ,1.8333333333333333, ,0.8190656477792794, ,0.5758862064039509, ,0.037121691394053184
252, ,PASS, ,0.12553225, ,0.01898768930905619, ,0.036052000394223384, ,0.002467907572539519, ,1.8333333333333333, ,0.8464254755202731, ,0.5923144425623967, ,0.052713209934491134
253, ,PASS, ,0.15784303999999996, ,0.02302583307483608, ,0.03782654908160527, ,0.003756860658150847, ,1.8333333333333333, ,0.8342047579592048, ,0.5991306299871432, ,0.04977449439807351
254, ,PASS, ,0.17238175, ,0.027004563384708663, ,0.03926680003235443, ,0.004819268982987179, ,1.9166666666666667, ,0.8439894891465757, ,0.6022938307381482, ,0.053100957123324015
255, ,PASS, ,0.19979999999999998, ,0.04026742083289418, ,0.04897643288022691, ,0.008350965084746916, ,2.0, ,0.9264688050813172, ,0.6059876329054509, ,0.46911287524744394
