Channel, ,Pass/Fail, ,Amplitude, ,Sorting Function Response, ,Mean, ,Variance, ,NPeaksRatio, ,PosIntegralRatio, ,ToT50, ,ToT99
7, ,PASS, ,0.014336230000000016, ,0.0022856343028897926, ,0.0304290701032632, ,3.343935542076434e-05, ,1.8333333333333333, ,0.8187754184288957, ,0.6034570723046468, ,0.04426440276729046
8, ,PASS, ,0.09989999999999993, ,0.018364439550227072, ,0.03850054476173955, ,0.0018692248394858004, ,1.8333333333333333, ,0.8731147098741805, ,0.6042937899226546, ,0.35425807636578843
9, ,PASS, ,0.09989999999999993, ,0.01857924849283182, ,0.03827584899614293, ,0.0018894807954057042, ,1.8333333333333333, ,0.8779959966016411, ,0.6007428419828167, ,0.36648231668741454
10, ,PASS, ,0.017888039999999997, ,0.002506805483447721, ,0.03051679480153466, ,4.578999887343078e-05, ,2.0, ,0.7553184348048326, ,0.6030897328625946, ,0.05206016203750944
11, ,PASS, ,0.01609712000000002, ,0.002167785825629271, ,0.030467419153282587, ,3.5682860090865894e-05, ,2.0, ,0.7448291892695038, ,0.609722250566315, ,0.05952939735923757
12, ,PASS, ,0.015024070000000025, ,0.0020354382336256133, ,0.03025416409073284, ,3.121801800738299e-05, ,2.0, ,0.7520361322674416, ,0.6039876737209444, ,0.0335911512009959
13, ,PASS, ,0.015276210000000023, ,0.0020369667920904955, ,0.03017194682251383, ,3.172304175217234e-05, ,1.9166666666666667, ,0.7355105319073153, ,0.600151017326177, ,0.0666312932389135
14, ,PASS, ,0.01647862, ,0.0022368982827484446, ,0.03010833872165874, ,3.751216722330196e-05, ,1.9166666666666667, ,0.74307335710316, ,0.6025387236995163, ,0.0270198567376176
15, ,PASS, ,0.015398190000000003, ,0.002042823894062781, ,0.030471051326095386, ,3.214745433413728e-05, ,2.0, ,0.7382222102036897, ,0.6038040039999184, ,0.05781514662966062
16, ,PASS, ,0.015088630000000026, ,0.0020082879436273825, ,0.030222793012591582, ,3.07219647293059e-05, ,1.9166666666666667, ,0.734634856871629, ,0.5922124038284933, ,0.05957021285279892
17, ,PASS, ,0.015016010000000014, ,0.0019791268095367943, ,0.03024163818187384, ,3.030910658238906e-05, ,2.0, ,0.7216935296480195, ,0.602436684965613, ,0.01579559600824473
18, ,PASS, ,0.015121730000000031, ,0.001998038845211558, ,0.03010888325870901, ,3.0740567751873835e-05, ,1.8333333333333333, ,0.7279971826581904, ,0.6025387236995163, ,0.013693598089834901
19, ,PASS, ,0.014944280000000022, ,0.00197915972093355, ,0.030347933135038065, ,3.0186254576281078e-05, ,2.0, ,0.7376634276276298, ,0.6032734025836207, ,0.036305381522826065
20, ,PASS, ,0.014879160000000023, ,0.001968962150317793, ,0.03026058069161854, ,2.990692944930085e-05, ,2.0, ,0.7348535564633983, ,0.6035182955449889, ,0.03579518785330912
21, ,PASS, ,0.01494719000000002, ,0.002009779150378519, ,0.030246577816167016, ,3.061524691008668e-05, ,1.9166666666666667, ,0.7365559063412167, ,0.6027428011673232, ,0.07195771514867043
22, ,PASS, ,0.014695950000000003, ,0.002004854571728591, ,0.030255301569763884, ,3.0041495521397202e-05, ,1.9166666666666667, ,0.7292369437244827, ,0.5997428623905634, ,0.03273402583620742
23, ,PASS, ,0.015020000000000009, ,0.0019469750153105617, ,0.03024062839533887, ,2.9791709699765993e-05, ,1.9166666666666667, ,0.708598357092772, ,0.6025183159527356, ,0.037958409012060976
24, ,PASS, ,0.015104280000000029, ,0.0019728705787842543, ,0.030170773594416445, ,3.033939877541856e-05, ,1.9166666666666667, ,0.7279103045389058, ,0.5987020673047488, ,0.07144752147915348
25, ,PASS, ,0.014837190000000014, ,0.0019515396291177455, ,0.030180714379502458, ,2.9536200642202536e-05, ,1.9166666666666667, ,0.7306848379390242, ,0.6032121793432788, ,0.06673333197281688
26, ,PASS, ,0.014933510000000018, ,0.0020202583041857435, ,0.030257301542621583, ,3.069875870343486e-05, ,1.9166666666666667, ,0.7277846117306395, ,0.5981102426481092, ,0.061264055835595195
27, ,PASS, ,0.014934540000000013, ,0.0019505950482526185, ,0.03020456616864962, ,2.96130714098046e-05, ,1.8333333333333333, ,0.7203387789782594, ,0.6036203342788923, ,0.024407665149690824
28, ,PASS, ,0.014497950000000006, ,0.001983737598679479, ,0.030077073583600338, ,2.936798496725878e-05, ,2.0, ,0.7477994855570482, ,0.6021713842574641, ,0.07765147650047959
29, ,PASS, ,0.015108710000000029, ,0.0019750786220368364, ,0.030130682132201388, ,3.0410285099921127e-05, ,1.9166666666666667, ,0.7161663737116482, ,0.6025183159527356, ,0.026305585600293873
30, ,PASS, ,0.01512639000000002, ,0.0019702962923794035, ,0.030165989130017758, ,3.0363077709085552e-05, ,1.9166666666666667, ,0.7124438926378969, ,0.6024775004591743, ,0.04985612538519622
31, ,PASS, ,0.014801270000000009, ,0.0019413549042448931, ,0.030321930529581032, ,2.929487207442929e-05, ,1.9166666666666667, ,0.7276526786108756, ,0.6034978877982082, ,0.03138711454868268
32, ,PASS, ,0.01500840000000003, ,0.0019419975333000725, ,0.030062651734046247, ,2.970606053452295e-05, ,1.9166666666666667, ,0.7134055756886449, ,0.6023754617252709, ,0.0631007530458562
33, ,PASS, ,0.015254420000000008, ,0.0019373719707315637, ,0.03009292389706333, ,3.0098333696084388e-05, ,1.9166666666666667, ,0.7049093154026348, ,0.6028244321544458, ,0.02712189547152099
34, ,PASS, ,0.015047840000000007, ,0.0018804922388868295, ,0.030385479008183506, ,2.8932865365270747e-05, ,1.9166666666666667, ,0.7195826837626431, ,0.608701863227281, ,0.05038672680149385
35, ,PASS, ,0.014800180000000024, ,0.0018591854037839548, ,0.030280636824350525, ,2.8090618702068477e-05, ,1.8333333333333333, ,0.7015619547790152, ,0.6032325870900593, ,0.04026448439827759
36, ,PASS, ,0.014956400000000016, ,0.001966021728031055, ,0.030142133971347528, ,2.9972840190231716e-05, ,1.9166666666666667, ,0.7255423247717991, ,0.6028040244076651, ,0.024795412338523705
37, ,PASS, ,0.015018670000000026, ,0.0020476322151160055, ,0.03017055155343769, ,3.1343284586572455e-05, ,1.8333333333333333, ,0.7441973114281895, ,0.6034162568110855, ,0.04579498377584131
38, ,PASS, ,0.01526430000000003, ,0.0020017166421132907, ,0.03020334279198384, ,3.1107894725141915e-05, ,1.9166666666666667, ,0.7229057255760524, ,0.6026203546866391, ,0.04636640068570029
39, ,PASS, ,0.01470233000000001, ,0.0020202399150681632, ,0.029978765393359322, ,3.0271460887056474e-05, ,2.0, ,0.7482745485509222, ,0.6029672863819105, ,0.07573314830309585
40, ,PASS, ,0.015182080000000025, ,0.001974155191893948, ,0.029936159253892775, ,3.0549345689618405e-05, ,1.9166666666666667, ,0.724436677497552, ,0.6006612109956939, ,0.0311830370808759
41, ,PASS, ,0.01496544000000002, ,0.0020126517987512837, ,0.029863058473092383, ,3.0719431658044515e-05, ,2.0, ,0.7376164770965614, ,0.6028856553947879, ,0.03697883716658844
42, ,PASS, ,0.015297080000000032, ,0.00203178736871813, ,0.029831046285994162, ,3.165521032969369e-05, ,1.9166666666666667, ,0.7291254339921373, ,0.6025795391930777, ,0.02928511663027285
43, ,PASS, ,0.014943850000000012, ,0.002016200985919747, ,0.029965108598191875, ,3.076613567731257e-05, ,2.0, ,0.7414435807756546, ,0.6047427603518295, ,0.050060202853003
44, ,PASS, ,0.01497046000000004, ,0.002032914995562395, ,0.0300329458029428, ,3.091435639408013e-05, ,1.9166666666666667, ,0.7332685460756972, ,0.5919062876267831, ,0.058386563539519605
45, ,PASS, ,0.015357580000000013, ,0.002193851055458902, ,0.03016354940368564, ,3.429311256612338e-05, ,2.0, ,0.7657926098979458, ,0.6032734025836207, ,0.028142282810554888
46, ,PASS, ,0.015086570000000035, ,0.0020732160395745326, ,0.029939432536274773, ,3.186379993960196e-05, ,2.0, ,0.7482272967319542, ,0.6032121793432788, ,0.04169302667292504
47, ,PASS, ,0.015127090000000024, ,0.0019915441410844684, ,0.029879573637680863, ,3.0748955026607273e-05, ,1.9166666666666667, ,0.726421573445084, ,0.6034570723046468, ,0.03801963225240301
48, ,PASS, ,0.014936530000000017, ,0.001986169765129141, ,0.03013771201404053, ,3.024018494625996e-05, ,2.0, ,0.7319705680891369, ,0.6028040244076651, ,0.029672863819105732
49, ,PASS, ,0.01493716000000003, ,0.001953211922079568, ,0.030109025261117122, ,2.9846672865643918e-05, ,1.8333333333333333, ,0.7364900548062095, ,0.6104569294504194, ,0.06110079386134977
50, ,PASS, ,0.015154650000000026, ,0.001951977124517557, ,0.029928176505377442, ,3.0185891441022575e-05, ,1.9166666666666667, ,0.7213500484736396, ,0.6029060631415686, ,0.03626456602926471
51, ,PASS, ,0.015026760000000031, ,0.0018624779442841745, ,0.030422754488887982, ,2.8563807254689504e-05, ,1.8333333333333333, ,0.7207161537720373, ,0.6333544213383401, ,0.045305197853105036
52, ,PASS, ,0.014874390000000022, ,0.001970428671057269, ,0.029889106506193752, ,2.9869283073752418e-05, ,1.9166666666666667, ,0.7369207176163926, ,0.6011305891716495, ,0.052284647252096896
53, ,PASS, ,0.014923660000000026, ,0.001997654820285304, ,0.030018841109977348, ,3.0298882554291926e-05, ,1.9166666666666667, ,0.7340236368691037, ,0.5970898553090753, ,0.03634619701638742
54, ,PASS, ,0.014926020000000016, ,0.0020153482758930178, ,0.02996400714679292, ,3.068036507098883e-05, ,2.0, ,0.7499031603069757, ,0.6034366645578662, ,0.08187588008407992
55, ,PASS, ,0.015006310000000009, ,0.0019856073491771966, ,0.029994681193649113, ,3.0423396867997836e-05, ,2.0, ,0.737500277135913, ,0.6037019652660149, ,0.03399930613660946
56, ,PASS, ,0.015164790000000032, ,0.0020233873105384194, ,0.030051149990204286, ,3.130935507320407e-05, ,1.9166666666666667, ,0.7369156695209544, ,0.6027428011673232, ,0.049447970449582664
57, ,PASS, ,0.015053560000000025, ,0.001997213042117932, ,0.03005700911532418, ,3.074980348092102e-05, ,2.0, ,0.7451015270309048, ,0.6063141568539417, ,0.046060284483990126
58, ,PASS, ,0.015084230000000035, ,0.002032558651760312, ,0.030045415591314465, ,3.1237174225748845e-05, ,2.0, ,0.7445952339794882, ,0.6031101406093753, ,0.047733719720005716
59, ,PASS, ,0.015166230000000048, ,0.0020040038796190515, ,0.030019578803697884, ,3.097113919982854e-05, ,2.0, ,0.7252832956772465, ,0.6020081222832188, ,0.026060692638925735
60, ,PASS, ,0.015037000000000026, ,0.0020182088096477742, ,0.03013139870818963, ,3.09032124644949e-05, ,2.0, ,0.7298948415860188, ,0.6022121997510255, ,0.030060611007938613
61, ,PASS, ,0.015506020000000044, ,0.002040464596826467, ,0.029986714151752004, ,3.235892646299361e-05, ,1.9166666666666667, ,0.721337703282795, ,0.608701863227281, ,0.037509438582886065
62, ,PASS, ,0.015236640000000034, ,0.002035944499146699, ,0.029925328559009, ,3.162218769677565e-05, ,2.0, ,0.7401595680491315, ,0.60325299483684, ,0.04599906124364809
63, ,PASS, ,0.015335080000000022, ,0.0020630742486181276, ,0.02995315744821534, ,3.228989814671387e-05, ,2.0, ,0.7422998416849375, ,0.6072325054590723, ,0.05659068182281994
64, ,PASS, ,0.015591350000000035, ,0.0020315660335569145, ,0.02988072543376666, ,3.223931723208526e-05, ,2.0, ,0.7205989559922807, ,0.6016815983347279, ,0.02673414828268811
65, ,PASS, ,0.01512433000000002, ,0.002021542140025458, ,0.029771664715822124, ,3.115091899193016e-05, ,2.0, ,0.7395479023754216, ,0.6025387236995163, ,0.027285157445766414
66, ,PASS, ,0.015208580000000037, ,0.0020041999204480905, ,0.029984827794738884, ,3.1065853324891476e-05, ,1.9166666666666667, ,0.7287162650999285, ,0.6054570314891533, ,0.029448378604518276
67, ,PASS, ,0.015056940000000026, ,0.0020143046328114484, ,0.030061553151364263, ,3.094001614634866e-05, ,1.9166666666666667, ,0.743175786819473, ,0.6017632293218506, ,0.07501887716577213
68, ,PASS, ,0.015128900000000028, ,0.0020279808504288805, ,0.029961273165853758, ,3.1315430480804914e-05, ,2.0, ,0.7437311607736858, ,0.6038652272402604, ,0.08087590049182669
69, ,PASS, ,0.01539241000000004, ,0.0020548903288745515, ,0.029895980581416706, ,3.229421839011999e-05, ,2.0, ,0.7388690784323453, ,0.6044570518969, ,0.0595906205995796
70, ,PASS, ,0.015495850000000033, ,0.0020206354951082914, ,0.030139564063182387, ,3.19151323894683e-05, ,1.9166666666666667, ,0.7146839565824383, ,0.6015591518540438, ,0.027999428583090142
71, ,PASS, ,0.015288440000000028, ,0.0020395290907072898, ,0.030044244053590744, ,3.173737820069586e-05, ,1.9166666666666667, ,0.730038037475787, ,0.6006612109956939, ,0.058855941715475195
72, ,PASS, ,0.015692320000000027, ,0.002106356671649983, ,0.030023749878165754, ,3.368729965924988e-05, ,2.0, ,0.7406328334370748, ,0.6031509561029367, ,0.025387236995163365
73, ,PASS, ,0.030620030000000003, ,0.005457112922923229, ,0.03181462521826085, ,0.00017048718324229738, ,1.8333333333333333, ,0.86643603823031, ,0.6069672047509235, ,0.17052713209934492
74, ,PASS, ,0.015292780000000037, ,0.0023871640397528783, ,0.030057321442623623, ,3.7258836760656805e-05, ,2.0, ,0.8064844813602822, ,0.6022121997510255, ,0.05610089590008367
75, ,PASS, ,0.01191989000000001, ,0.0015231820254658548, ,0.029686260695291934, ,1.8531026050234682e-05, ,1.9166666666666667, ,0.7107894411482772, ,0.6027223934205425, ,0.03697883716658844
76, ,PASS, ,0.011448369999999996, ,0.001440499529885337, ,0.029560801394665416, ,1.684550262658174e-05, ,1.9166666666666667, ,0.7107292356881906, ,0.6034978877982082, ,0.030244280728964713
77, ,PASS, ,0.011801940000000004, ,0.0014597680647930303, ,0.02936888993142997, ,1.7565843529247458e-05, ,1.8333333333333333, ,0.697270812430401, ,0.6023346462317095, ,0.030938144119507766
78, ,PASS, ,0.011963250000000016, ,0.0014445409974184645, ,0.029658132660762025, ,1.7699747703853413e-05, ,1.8333333333333333, ,0.6969074103562967, ,0.6093549111242628, ,0.023775024999489806
79, ,PASS, ,0.011683519999999996, ,0.0014703802832654138, ,0.029527424488887982, ,1.751974361637225e-05, ,1.9166666666666667, ,0.7058761744914701, ,0.6025999469398584, ,0.025264790514479295
112, ,PASS, ,0.011486909999999986, ,0.0014360898363782616, ,0.029573606361094674, ,1.685542582034097e-05, ,1.9166666666666667, ,0.7081948855077472, ,0.6035387032917695, ,0.05593763392583825
113, ,PASS, ,0.011682879999999993, ,0.001446647940303183, ,0.029420581710169178, ,1.7234188605122037e-05, ,1.9166666666666667, ,0.7078384842137961, ,0.601355074386237, ,0.035448256158037594
114, ,PASS, ,0.011861430000000006, ,0.0014497412903595145, ,0.029688619307361074, ,1.7597454891782758e-05, ,1.8333333333333333, ,0.6988211425922841, ,0.603069325115814, ,0.03585641109365115
115, ,PASS, ,0.011851960000000019, ,0.0014530739687383602, ,0.029517224764800717, ,1.7547120963100345e-05, ,1.9166666666666667, ,0.6860635471996998, ,0.6004775412746679, ,0.025468867982286075
116, ,PASS, ,0.011922990000000001, ,0.0014771502524798925, ,0.029488230155302952, ,1.7894649429454863e-05, ,1.8333333333333333, ,0.6943032878463278, ,0.6030897328625946, ,0.04712148731658537
117, ,PASS, ,0.011842399999999996, ,0.0014657510222816376, ,0.029613381843431767, ,1.77385933701251e-05, ,1.8333333333333333, ,0.6956669257982633, ,0.6102528519826126, ,0.033897267402706065
118, ,PASS, ,0.011664019999999983, ,0.0014403142449841671, ,0.029563879058182484, ,1.7119987766851785e-05, ,1.8333333333333333, ,0.6991705859307005, ,0.6035387032917695, ,0.0254484602355054
119, ,PASS, ,0.01171146, ,0.0014117767398149936, ,0.02978692038284933, ,1.6914578193276797e-05, ,1.9166666666666667, ,0.6933359279022058, ,0.6029060631415686, ,0.037182914634395214
120, ,PASS, ,0.011695580000000007, ,0.0014569548026989179, ,0.02954453621375074, ,1.7333311829516976e-05, ,1.8333333333333333, ,0.6885522646779375, ,0.602497908205955, ,0.015530295300095916
121, ,PASS, ,0.011716749999999995, ,0.0014664968587466843, ,0.02948881102569335, ,1.7476087150644425e-05, ,1.8333333333333333, ,0.7016382275593345, ,0.6028040244076651, ,0.03973388298197996
122, ,PASS, ,0.011510710000000004, ,0.0014505886094090064, ,0.029781139171241405, ,1.7046688374866433e-05, ,1.9166666666666667, ,0.715986668915693, ,0.6037835962531377, ,0.057672292402195874
123, ,PASS, ,0.011676990000000019, ,0.0014565438537252173, ,0.029775945683353403, ,1.7356735528938576e-05, ,1.9166666666666667, ,0.7085986662409909, ,0.6038652272402604, ,0.037489030836105386
124, ,PASS, ,0.011415019999999998, ,0.0014889729356890545, ,0.029557584209505924, ,1.7335788903080102e-05, ,1.9166666666666667, ,0.7311652837075906, ,0.6034570723046468, ,0.08152894838880839
125, ,PASS, ,0.011645969999999999, ,0.0014299420130857404, ,0.02938267670516928, ,1.6971605657662325e-05, ,1.9166666666666667, ,0.6887352204531721, ,0.6022121997510255, ,0.027979020836309463
126, ,PASS, ,0.011652829999999996, ,0.0013900249531951271, ,0.029651272685047244, ,1.658927633119661e-05, ,1.8333333333333333, ,0.6901841969963795, ,0.6126609661027326, ,0.031754453990734885
127, ,PASS, ,0.011351960000000001, ,0.0014004236649790976, ,0.029663632677292297, ,1.619409389038796e-05, ,1.8333333333333333, ,0.7046696185077403, ,0.6036611497724537, ,0.04465214995612334
128, ,PASS, ,0.01135035999999999, ,0.0014172639918434708, ,0.02972796026693333, ,1.640486326503159e-05, ,1.8333333333333333, ,0.7238098612540356, ,0.6027223934205425, ,0.0770800595906206
129, ,PASS, ,0.011776950000000012, ,0.001451325490348598, ,0.02955494021611804, ,1.7376594216752125e-05, ,1.8333333333333333, ,0.6964645696599998, ,0.601293851145895, ,0.04297871472010775
130, ,PASS, ,0.011637419999999999, ,0.0014757421978497988, ,0.029747308970225098, ,1.7470109382122592e-05, ,1.8333333333333333, ,0.6962097353766887, ,0.5987836982918716, ,0.023815840493051164
131, ,PASS, ,0.01173494000000001, ,0.0014375266837307486, ,0.029801321219158794, ,1.720378550525706e-05, ,1.8333333333333333, ,0.6888852000839668, ,0.602559131446297, ,0.040448154119303685
132, ,PASS, ,0.011461600000000006, ,0.001429143691911042, ,0.029903710659374298, ,1.6691509153299034e-05, ,1.8333333333333333, ,0.7032785316261159, ,0.6030081018754719, ,0.04008081467725148
133, ,PASS, ,0.011590490000000002, ,0.0014046343603782987, ,0.029794117039244096, ,1.6600025588514994e-05, ,1.9166666666666667, ,0.6840733820488325, ,0.6021713842574641, ,0.014816024162772189
134, ,PASS, ,0.011855749999999995, ,0.001391107592355615, ,0.029834593716454767, ,1.681829584204671e-05, ,1.8333333333333333, ,0.6648516285733755, ,0.6057835554376442, ,0.015326217832289137
135, ,PASS, ,0.01175677, ,0.001432584987752115, ,0.02987920256851901, ,1.7178229284651473e-05, ,1.8333333333333333, ,0.6898554011425186, ,0.6050080610599784, ,0.027570865900695903
136, ,PASS, ,0.01172418, ,0.001393306676760981, ,0.02992270726311708, ,1.6679122743276633e-05, ,1.9166666666666667, ,0.687490675747194, ,0.6041101202016286, ,0.03089732862594641
137, ,PASS, ,0.011682360000000006, ,0.0013615609103933607, ,0.029844506462317098, ,1.6241563506347215e-05, ,1.75, ,0.6698094447245787, ,0.6058651864247668, ,0.03850941817513928
138, ,PASS, ,0.011191179999999995, ,0.0013969896587970444, ,0.02985649674720924, ,1.5926356090314793e-05, ,1.9166666666666667, ,0.7113672148035268, ,0.5994367461888533, ,0.04599906124364809
139, ,PASS, ,0.011432789999999988, ,0.0013938983038147643, ,0.029597841669353687, ,1.6233094045143626e-05, ,1.8333333333333333, ,0.6846718727800096, ,0.6021713842574641, ,0.012183424828064733
140, ,PASS, ,0.011559759999999985, ,0.0014314755832635026, ,0.029713953926246404, ,1.684982118394034e-05, ,1.9166666666666667, ,0.6960021858878064, ,0.600599987755352, ,0.015264994591947103
141, ,PASS, ,0.011183970000000001, ,0.0015232251900521559, ,0.029779353942980754, ,1.7400032525551055e-05, ,2.0, ,0.7398119244768306, ,0.6028448399012265, ,0.03332585049284709
142, ,PASS, ,0.011375489999999999, ,0.0014469172687871141, ,0.02959857935613559, ,1.6729082115730833e-05, ,1.8333333333333333, ,0.7089733701223649, ,0.6028856553947879, ,0.060835493153200956
143, ,PASS, ,0.011232719999999991, ,0.0014115921351353067, ,0.029695564299504092, ,1.6177510149737122e-05, ,1.9166666666666667, ,0.7000499906299584, ,0.6032938103304014, ,0.06022326074978061
176, ,PASS, ,0.011413569999999998, ,0.001409790480451003, ,0.029618921937919634, ,1.639840262444386e-05, ,1.9166666666666667, ,0.7002128143504269, ,0.6026203546866391, ,0.008448807167200669
177, ,PASS, ,0.011484279999999996, ,0.0014132434400611882, ,0.029830310816922105, ,1.659235742683892e-05, ,1.8333333333333333, ,0.6957663319819102, ,0.6088447174547458, ,0.04634599293891961
178, ,PASS, ,0.011225689999999993, ,0.0013845757005989836, ,0.02972413942776678, ,1.5859679021241576e-05, ,1.9166666666666667, ,0.6959390782588832, ,0.6029060631415686, ,0.012877288218607784
179, ,PASS, ,0.011072769999999992, ,0.001363220063137042, ,0.02956918571478133, ,1.537746828307441e-05, ,1.8333333333333333, ,0.6996636696046998, ,0.6031917715964981, ,0.04399910205914165
180, ,PASS, ,0.011216019999999997, ,0.0013581576361318844, ,0.029903749562253834, ,1.5545655015015695e-05, ,1.8333333333333333, ,0.6861828290792128, ,0.6025795391930777, ,0.03277484132976878
181, ,PASS, ,0.011743739999999999, ,0.0016790899584830036, ,0.029690522057917185, ,2.0065753629388636e-05, ,2.0, ,0.7588469014935084, ,0.6022326074978062, ,0.028264729291238955
182, ,PASS, ,0.011435619999999983, ,0.0013819965401674086, ,0.029544856804759087, ,1.613493586416733e-05, ,1.9166666666666667, ,0.6956789891756883, ,0.6025795391930777, ,0.03724413787473725
183, ,PASS, ,0.011230849999999976, ,0.0013794537712355159, ,0.029688482280769778, ,1.5858539268240986e-05, ,1.8333333333333333, ,0.7032161243398408, ,0.6112936470684271, ,0.036182935042142
184, ,PASS, ,0.01161988000000001, ,0.0013728898581868289, ,0.029758163665639478, ,1.62279139572193e-05, ,1.9166666666666667, ,0.6774334912653078, ,0.6033958490643048, ,0.015448664312973205
185, ,PASS, ,0.01125147, ,0.0013604202227123815, ,0.02977295888267586, ,1.5605836358144572e-05, ,1.8333333333333333, ,0.692296761280962, ,0.6029468786351299, ,0.037570661823228095
186, ,PASS, ,0.01135230000000001, ,0.0013884421487993595, ,0.02967798433623804, ,1.6035032230873547e-05, ,1.8333333333333333, ,0.6978565230273848, ,0.6035182955449889, ,0.04857043733801351
187, ,PASS, ,0.011570770000000015, ,0.001367491533989072, ,0.029530924331136098, ,1.6106837360848657e-05, ,1.9166666666666667, ,0.6761671350732894, ,0.6018244525621926, ,0.01936695169486337
188, ,PASS, ,0.010935619999999986, ,0.001323597570884093, ,0.029689468044325627, ,1.4788193229594724e-05, ,1.8333333333333333, ,0.6978170342071216, ,0.6070284279912654, ,0.02969327156588641
189, ,PASS, ,0.01092925999999999, ,0.0013324020377646106, ,0.029889009766739454, ,1.4906451927704646e-05, ,1.8333333333333333, ,0.6962711099210646, ,0.6132936062529336, ,0.03863186465582335
190, ,PASS, ,0.011045739999999984, ,0.001338590458149749, ,0.029678413964612963, ,1.5033740674042435e-05, ,1.8333333333333333, ,0.6940503731654418, ,0.6034774800514275, ,0.0433052386685986
191, ,PASS, ,0.010988899999999989, ,0.0013363444881013384, ,0.029695714800310198, ,1.496037841063212e-05, ,1.8333333333333333, ,0.6847905281051774, ,0.6026815779269811, ,0.024550519377155567
192, ,PASS, ,0.01096889999999999, ,0.001353852791915308, ,0.029638530802228526, ,1.514308896818842e-05, ,1.8333333333333333, ,0.6958743638248719, ,0.6029468786351299, ,0.027468827166792515
193, ,PASS, ,0.011064729999999977, ,0.0013582390681521428, ,0.02987120995714373, ,1.5343177371811664e-05, ,1.9166666666666667, ,0.7057474244917024, ,0.6037835962531377, ,0.040774678067794536
194, ,PASS, ,0.011088389999999993, ,0.0013533601008927133, ,0.029669121835472743, ,1.529815516412208e-05, ,1.9166666666666667, ,0.6991187795783708, ,0.6021917920042448, ,0.03148915328258607
195, ,PASS, ,0.011053499999999987, ,0.0013748939816313475, ,0.029835985111528334, ,1.548839624599479e-05, ,1.8333333333333333, ,0.6988962283513123, ,0.60325299483684, ,0.025897430664680313
196, ,PASS, ,0.011274409999999999, ,0.0013934721690112345, ,0.029689419371849556, ,1.6020025488559928e-05, ,1.9166666666666667, ,0.7013200374938426, ,0.6029264708883492, ,0.04438684924797453
197, ,PASS, ,0.011166849999999992, ,0.001309550030084228, ,0.02970212355482541, ,1.4910432413415516e-05, ,1.8333333333333333, ,0.6679036049140695, ,0.6027019856737618, ,0.0202648925532132
198, ,PASS, ,0.010846189999999985, ,0.001358041870418057, ,0.02988614731229975, ,1.5036503398527615e-05, ,1.9166666666666667, ,0.7018292387082525, ,0.6027632089141038, ,0.053937674741331806
199, ,PASS, ,0.01126780999999999, ,0.0013403796367233132, ,0.0295818500969368, ,1.5323412432057658e-05, ,1.8333333333333333, ,0.6654453694021477, ,0.5956613130344278, ,0.005550907124344401
200, ,PASS, ,0.010832500000000002, ,0.0013155030953910104, ,0.029543207519234303, ,1.4525517639711337e-05, ,1.9166666666666667, ,0.6944570727658791, ,0.603069325115814, ,0.02093834819697557
201, ,PASS, ,0.01109768999999998, ,0.0013039502932270023, ,0.02986169561457929, ,1.476762616027192e-05, ,1.9166666666666667, ,0.6820722745022618, ,0.6039264504806025, ,0.03332585049284709
202, ,PASS, ,0.01106589999999999, ,0.0013464270078583057, ,0.02972682505785596, ,1.5164742435367582e-05, ,1.9166666666666667, ,0.6846382536216574, ,0.6025183159527356, ,0.021673027081079977
203, ,PASS, ,0.011280500000000002, ,0.0013566498455495212, ,0.029635340719985304, ,1.5582872859482275e-05, ,1.8333333333333333, ,0.6797536607193811, ,0.6032938103304014, ,0.04377461684455419
204, ,PASS, ,0.010978799999999986, ,0.001317075646897199, ,0.029843962463623194, ,1.4771618084995664e-05, ,1.9166666666666667, ,0.6988871574229798, ,0.6096202118324116, ,0.030264688475745392
205, ,PASS, ,0.01099874999999998, ,0.0013371575002321708, ,0.029815518485337034, ,1.4970732493368036e-05, ,1.8333333333333333, ,0.6969708977446689, ,0.6031917715964981, ,0.027264749698985735
206, ,PASS, ,0.010965269999999982, ,0.0013750442128692521, ,0.029661444261341603, ,1.5377484842256633e-05, ,1.9166666666666667, ,0.7139313064831262, ,0.6030285096222526, ,0.03773392379747352
207, ,PASS, ,0.010960049999999995, ,0.0013408248249120347, ,0.02962262766045591, ,1.4910297932954808e-05, ,1.9166666666666667, ,0.6926984695627738, ,0.5916205791718536, ,0.03520336319666945
208, ,PASS, ,0.011136669999999977, ,0.001372675709470137, ,0.029759622354441746, ,1.560753049519351e-05, ,1.9166666666666667, ,0.7045294959299506, ,0.603069325115814, ,0.039101242831778946
209, ,PASS, ,0.011389930000000003, ,0.001258724119137164, ,0.029852807752903, ,1.4630252482704019e-05, ,1.8333333333333333, ,0.671496024842033, ,0.6010693659313076, ,0.04097875553560131
210, ,PASS, ,0.010803790000000008, ,0.0013304179638543281, ,0.02958311720822024, ,1.4657496840065804e-05, ,1.9166666666666667, ,0.7095692777148521, ,0.6039060427338218, ,0.04685618660843656
211, ,PASS, ,0.010537139999999987, ,0.001256223341077134, ,0.029663682657904943, ,1.34885894048711e-05, ,1.8333333333333333, ,0.6881178357897654, ,0.6037223730127956, ,0.03742780759576335
212, ,PASS, ,0.010636199999999985, ,0.0012406673114926437, ,0.02956280966347626, ,1.3445039020785417e-05, ,1.8333333333333333, ,0.6674246514883143, ,0.6015795596008244, ,0.011367114956837615
213, ,PASS, ,0.011036129999999988, ,0.001189190093131625, ,0.029629953522989326, ,1.3394224036654978e-05, ,1.8333333333333333, ,0.660120650853293, ,0.6063345646007224, ,0.05777433113609926
214, ,PASS, ,0.010494699999999989, ,0.00123892323979822, ,0.029651166975980085, ,1.3253953134642582e-05, ,1.8333333333333333, ,0.6821902633117699, ,0.6026611701802004, ,0.02828513703801963
215, ,PASS, ,0.010214810000000001, ,0.0012449553692452527, ,0.029971590608150855, ,1.2967248180676762e-05, ,1.9166666666666667, ,0.7026479340719156, ,0.60325299483684, ,0.047386788024734186
