Channel, ,Pass/Fail, ,Amplitude, ,Sorting Function Response, ,Mean, ,Variance
6, ,PASS, ,0.0097866224548558, ,0.00837884779938355, ,0.0005002155098910315, ,1.6974075104964308e-05
7, ,PASS, ,0.021439657615406, ,0.018925284851929913, ,0.0011743324351875014, ,8.38302553267422e-05
8, ,PASS, ,0.010486856113909303, ,0.006515637408667776, ,0.00033208801858315864, ,1.4094583577779734e-05
9, ,PASS, ,0.007286004573362, ,0.003173993456386644, ,0.00019813106979320056, ,4.790814376873472e-06
10, ,PASS, ,0.007106555416807599, ,0.003186018891069643, ,0.0001782984748555542, ,4.685605354389802e-06
11, ,PASS, ,0.007099952765785801, ,0.0031069957429431653, ,0.00019441315098263126, ,4.571193255497401e-06
12, ,PASS, ,0.0070660270902815, ,0.0031341111802486252, ,0.00016558520336804115, ,4.5846145286042406e-06
13, ,PASS, ,0.007120569691877699, ,0.003147250886759976, ,0.00014218284160273252, ,4.638840426809779e-06
14, ,PASS, ,0.0071246125486673, ,0.003105464754639662, ,0.00017277038694446593, ,4.5858520476991205e-06
15, ,PASS, ,0.007048958636981, ,0.003101914849854973, ,0.0001648391341163771, ,4.530415783292666e-06
16, ,PASS, ,0.0072279269679703, ,0.0031939948793392745, ,0.00010475511172573702, ,4.778019542624526e-06
17, ,PASS, ,0.0070512592299846, ,0.003116167022808151, ,0.000178147661267757, ,4.548193408110243e-06
18, ,PASS, ,0.007065659692603301, ,0.0031702203860576807, ,0.00014389220465015195, ,4.63718582286924e-06
19, ,PASS, ,0.007052635157668001, ,0.003136010809694676, ,0.0001402115927643388, ,4.574873810562884e-06
20, ,PASS, ,0.0069419009695735005, ,0.003128428255358041, ,0.00015241833067204617, ,4.494214068411037e-06
21, ,PASS, ,0.0070266900942205016, ,0.0031223215746791974, ,0.00015435107603115793, ,4.5410143351287035e-06
22, ,PASS, ,0.007044129506216999, ,0.0031039293887542402, ,0.00020582557200988485, ,4.525096517822971e-06
23, ,PASS, ,0.0070625598217123, ,0.003095551748210998, ,0.00017488249101928815, ,4.521273438522085e-06
24, ,PASS, ,0.006972793853351601, ,0.003106249382103375, ,0.00020558134634777255, ,4.484649724457356e-06
25, ,PASS, ,0.0070835599394064004, ,0.0030852933196150495, ,0.00014968977620563877, ,4.527772001439751e-06
26, ,PASS, ,0.0070808540760775, ,0.003107862889120263, ,0.00012485531476985102, ,4.555272969807268e-06
27, ,PASS, ,0.0070089734216429, ,0.0030847111985342793, ,0.00011822728486778154, ,4.4754314775627815e-06
28, ,PASS, ,0.007063335025522699, ,0.0030912765103326633, ,0.00010520162057197701, ,4.516020032212439e-06
29, ,PASS, ,0.00698307280331, ,0.0030417608566296645, ,0.00014203765828808926, ,4.397668976965294e-06
30, ,PASS, ,0.006946288150850601, ,0.003036061636941706, ,0.00016876750716102005, ,4.363958043858176e-06
31, ,PASS, ,0.0069962869707481, ,0.003071554237493037, ,0.00016361960742868688, ,4.443949939330795e-06
32, ,PASS, ,0.0070071376792865, ,0.00305119431817336, ,0.00014588755376219865, ,4.4224395298511046e-06
33, ,PASS, ,0.0069474158088221995, ,0.0030774689037670693, ,0.00013454173204573155, ,4.421527509257701e-06
34, ,PASS, ,0.0069495958284714, ,0.0030977602315500515, ,0.0001448949618092789, ,4.450313676029878e-06
35, ,PASS, ,0.0069112956046354, ,0.003528122859055134, ,0.0001917694008925733, ,5.044174927434312e-06
36, ,PASS, ,0.0069079387530003, ,0.0031213914859005575, ,0.00018745861449277732, ,4.461108693097399e-06
37, ,PASS, ,0.0069192067376112, ,0.0030505314341519344, ,0.00016648045704114123, ,4.364306985877042e-06
38, ,PASS, ,0.0069138225558218, ,0.0029951001349590553, ,0.00016374757565353946, ,4.283456868799834e-06
39, ,PASS, ,0.006851497438853701, ,0.0029771784165620887, ,0.0001435441253039523, ,4.218561976116751e-06
40, ,PASS, ,0.006874163606065999, ,0.00295684983322806, ,0.00017709655955948714, ,4.207195863392565e-06
41, ,PASS, ,0.006889401323697099, ,0.002969317268238654, ,0.00016678609335819036, ,4.233674704644733e-06
42, ,PASS, ,0.006887950840452702, ,0.00300485901842013, ,0.00020373138362589263, ,4.2810004615867355e-06
43, ,PASS, ,0.0068536745617634, ,0.0031561174334015195, ,0.00017564485428417836, ,4.476020920251452e-06
44, ,PASS, ,0.0069359163897116, ,0.0031172858154822334, ,0.00016094183059470866, ,4.469178047098759e-06
45, ,PASS, ,0.006911552116066999, ,0.0030527197100690484, ,0.00016379155027235412, ,4.3650707067406805e-06
46, ,PASS, ,0.0069052645842072, ,0.003070538604837615, ,0.00016203326381688258, ,4.380585949568053e-06
47, ,PASS, ,0.0068479472586448, ,0.0030191124519824567, ,0.00014925980868646613, ,4.275416440908002e-06
48, ,PASS, ,0.0067321961622705, ,0.0029494692441281935, ,0.00013294109098755356, ,4.107074271680413e-06
49, ,PASS, ,0.006796484781243001, ,0.002971075550844922, ,0.00013212197143154818, ,4.176250112500601e-06
50, ,PASS, ,0.0067455113255199, ,0.0029821954849312293, ,0.0001358701704988416, ,4.161005472349422e-06
51, ,PASS, ,0.006717316864617201, ,0.0029553134831590473, ,0.00017023945020293042, ,4.106680228853617e-06
52, ,PASS, ,0.0066972644429433, ,0.002970072004999469, ,0.0001246759083806206, ,4.113722598158467e-06
53, ,PASS, ,0.006807072403863501, ,0.0030006699562056577, ,0.0001862370064771171, ,4.2208199933483435e-06
54, ,PASS, ,0.006795054354705199, ,0.0029842947534519447, ,0.00013235107239472485, ,4.191612784396861e-06
55, ,PASS, ,0.006765454356723401, ,0.0030025082690474303, ,0.00020610606357221141, ,4.200081723504311e-06
56, ,PASS, ,0.006706231244374601, ,0.0029804300204256395, ,0.00012536874471444107, ,4.130642351811886e-06
57, ,PASS, ,0.0067544642336669, ,0.002941769445473898, ,0.00020274380570785728, ,4.108690644673482e-06
58, ,PASS, ,0.006758912568305001, ,0.0029762769604307565, ,0.00018914212841039159, ,4.156223591645103e-06
59, ,PASS, ,0.0066768237356332, ,0.0029266243693426325, ,0.00018764247181306823, ,4.039836249503156e-06
60, ,PASS, ,0.0067712274319027006, ,0.002931052635371827, ,0.0001402058171985604, ,4.107305485728225e-06
61, ,PASS, ,0.006813060443523101, ,0.002909693629822731, ,0.00015771491769523487, ,4.105456482894894e-06
62, ,PASS, ,0.0068818501950005, ,0.0029760664763260856, ,0.00016637536339253996, ,4.234302129273544e-06
63, ,PASS, ,0.0068509437764065016, ,0.0029659433274142, ,0.00016175058931496656, ,4.201482258042777e-06
64, ,PASS, ,0.006951623441183601, ,0.0030426128574608914, ,0.0001620871937037602, ,4.370755039003508e-06
65, ,PASS, ,0.006953049573278799, ,0.0029830275731931094, ,0.00019326230965762423, ,4.290015920643592e-06
66, ,PASS, ,0.0068774546062582995, ,0.002992613236906807, ,0.0001235400056048416, ,4.25614172737909e-06
67, ,PASS, ,0.006801947866357601, ,0.002969300304643956, ,0.00015124097427372205, ,4.181440229639939e-06
68, ,PASS, ,0.0070129406257755, ,0.002996676292976199, ,0.00013457800661432256, ,4.346130681779517e-06
69, ,PASS, ,0.007101649751095601, ,0.0030279249895285368, ,0.00016151276575706891, ,4.4499454582668254e-06
70, ,PASS, ,0.007935719415614603, ,0.003562591421989076, ,0.00014907176379501914, ,5.8310515717335624e-06
71, ,PASS, ,0.023377536889313003, ,0.021020053827982367, ,0.0013777920526583597, ,0.00010150268392205559
72, ,PASS, ,0.0069068061689625, ,0.003013860779317388, ,0.00019077640420119886, ,4.303082012057984e-06
73, ,PASS, ,0.0064455158463913, ,0.002657673808894533, ,8.874603425868276e-05, ,3.54553018961196e-06
74, ,PASS, ,0.0064958247758447, ,0.002714303157138438, ,0.00016222548932429457, ,3.646488428727783e-06
75, ,PASS, ,0.006432395967841701, ,0.00266675631511191, ,0.0001656729537875533, ,3.548995360006502e-06
76, ,PASS, ,0.006219801478041201, ,0.002557413715736961, ,0.00010879597260176724, ,3.2929454749774043e-06
77, ,PASS, ,0.006136886213954199, ,0.0025062527352140906, ,0.00014288137294679327, ,3.189749966881044e-06
78, ,PASS, ,0.0062229516308985, ,0.0025378939068712606, ,0.00011695168143649313, ,3.269701030058845e-06
79, ,PASS, ,0.006150703898120301, ,0.0025061576899586212, ,0.00012105209353926321, ,3.193107415684167e-06
112, ,PASS, ,0.0062225296648216, ,0.0026525667762168736, ,0.0001103789542865625, ,3.412950351764981e-06
113, ,PASS, ,0.0061818905048775, ,0.002565431519526164, ,9.441970586383813e-05, ,3.2834295077122685e-06
114, ,PASS, ,0.006187049754173099, ,0.0026019990744616433, ,9.965530038182021e-05, ,3.3293820940186655e-06
115, ,PASS, ,0.006195240685947799, ,0.0025709070854528517, ,0.00012430238956063133, ,3.298601531608163e-06
116, ,PASS, ,0.0062240835124868004, ,0.0025870581652029335, ,7.689119603912773e-05, ,3.330342583929647e-06
117, ,PASS, ,0.0062613516652252, ,0.0026015436031084135, ,0.00012013618676235951, ,3.3695509418413177e-06
118, ,PASS, ,0.006201894538383299, ,0.002591572150608073, ,7.763531190554203e-05, ,3.326183847305991e-06
119, ,PASS, ,0.0061387293221449, ,0.0025093469564464416, ,0.00019570816970452434, ,3.1909645559466134e-06
120, ,PASS, ,0.0061718924159652, ,0.0026075450169832895, ,0.00015227904532697092, ,3.3276331022480012e-06
121, ,PASS, ,0.006131969776353001, ,0.002570823561320362, ,0.00010905480300485496, ,3.262599238968258e-06
122, ,PASS, ,0.0060699081991099, ,0.0025443700877376047, ,0.00011873097955724966, ,3.197397355162617e-06
123, ,PASS, ,0.006165133635141599, ,0.0025468921977413166, ,0.00012045610362218504, ,3.24682040504382e-06
124, ,PASS, ,0.005990213193721301, ,0.002569936911850708, ,0.00014053498295982017, ,3.1831361122041237e-06
125, ,PASS, ,0.0060345493652862, ,0.002582153707857205, ,0.00012287109442018126, ,3.2218671290123304e-06
126, ,PASS, ,0.0060878049327288, ,0.0025378481465581173, ,0.00014492802709907855, ,3.1948235867181837e-06
127, ,PASS, ,0.0060491972591735005, ,0.0025775083629206437, ,0.00013928062227607646, ,3.2216204371470065e-06
128, ,PASS, ,0.0059685567201581, ,0.002467306452242844, ,0.00012734036689655747, ,3.045426172109743e-06
129, ,PASS, ,0.0059932407593122, ,0.0024869485252094043, ,8.960155905613502e-05, ,3.084434072117473e-06
130, ,PASS, ,0.0060863471541076995, ,0.0024879262589730024, ,9.364928740839482e-05, ,3.134918814108492e-06
131, ,PASS, ,0.0060312965473613995, ,0.0024949008217212986, ,7.893598101981748e-05, ,3.112022922940276e-06
132, ,PASS, ,0.0060079085017297005, ,0.0024511741301091305, ,0.00010003050969293548, ,3.048479568898342e-06
133, ,PASS, ,0.0059510624622915, ,0.002399882681181531, ,8.868309544438332e-05, ,2.959158036031536e-06
134, ,PASS, ,0.0059985805320088, ,0.0024627752716482832, ,0.00013098635117081086, ,3.0554336777807447e-06
135, ,PASS, ,0.005855992718505801, ,0.0023910321871831253, ,0.0001932843219547666, ,2.8984128477469337e-06
136, ,PASS, ,0.0058938288375045, ,0.002385002451351785, ,0.00015299312675243153, ,2.909755934671959e-06
137, ,PASS, ,0.0058766059790015, ,0.0023940966353188445, ,0.00013765965024277278, ,2.9090882186128254e-06
138, ,PASS, ,0.0058722064772136, ,0.0024800185383591546, ,0.00016469899288225706, ,3.0143838850586462e-06
139, ,PASS, ,0.0059228508809132, ,0.002648202971837299, ,0.00017287350292084558, ,3.2429666518944147e-06
140, ,PASS, ,0.005708122992120401, ,0.002359919784784865, ,0.0001739917979836818, ,2.7873461998863183e-06
141, ,PASS, ,0.0057384410519119, ,0.0023743077893088062, ,0.00019137745416055794, ,2.820135832283916e-06
142, ,PASS, ,0.005824427620414901, ,0.0024047547834154717, ,0.0001884857251858435, ,2.898167643779299e-06
143, ,PASS, ,0.0058465042178035, ,0.0023946689300533724, ,0.00015085144941762342, ,2.8975573246329646e-06
176, ,PASS, ,0.005855469440645401, ,0.0023545280159840173, ,0.00016572941201943312, ,2.8543636529297872e-06
177, ,PASS, ,0.006020210828680201, ,0.0023749824058826195, ,0.00017924169745085148, ,2.9566470162606584e-06
178, ,PASS, ,0.005866674019675101, ,0.002370657099616602, ,0.0001479625118997019, ,2.8786369724747943e-06
179, ,PASS, ,0.005545786869943699, ,0.002499673219530264, ,0.0001104163005303298, ,2.871030089532609e-06
180, ,PASS, ,0.005890871128602201, ,0.002419086094055686, ,0.00017677892678395735, ,2.9467965179374565e-06
181, ,PASS, ,0.005905865475696901, ,0.0023741585859069526, ,0.0001497681706733337, ,2.902434203841519e-06
182, ,PASS, ,0.0058902097793517, ,0.0024276998085576654, ,0.00019114071019763135, ,2.957604721047467e-06
183, ,PASS, ,0.0058710679226567, ,0.00239473051159314, ,9.45946933141301e-05, ,2.9099496322858507e-06
184, ,PASS, ,0.0058965315630168, ,0.0023512063827761174, ,0.00012835061342429162, ,2.8681422522739225e-06
185, ,PASS, ,0.0058812449402622004, ,0.0023233064857485076, ,0.00012140133461747724, ,2.829968018540073e-06
186, ,PASS, ,0.005879522140698, ,0.0023506575950184684, ,0.0001888513917015244, ,2.860462592496318e-06
187, ,PASS, ,0.0058343003791768, ,0.0023401055603278565, ,0.00016757324361162563, ,2.8271123132873103e-06
188, ,PASS, ,0.0058554199696990005, ,0.0023328043955783175, ,0.00015748367101000348, ,2.827507720288737e-06
189, ,PASS, ,0.0059487294723288, ,0.0024039701987949398, ,0.00012497631705221746, ,2.9564920807860293e-06
190, ,PASS, ,0.0058462415071445, ,0.002367316954833374, ,0.0001436236049055688, ,2.8620325607043924e-06
191, ,PASS, ,0.0058270362603714, ,0.0023360865935840138, ,0.0001116998279132545, ,2.8174855081274912e-06
192, ,PASS, ,0.0058007991674601, ,0.002309979961194466, ,0.00015019849489216042, ,2.7760108828074465e-06
193, ,PASS, ,0.005820479403644999, ,0.0023239694546709714, ,0.00015289246647177336, ,2.798182457867152e-06
194, ,PASS, ,0.0057648723403709995, ,0.0023075194347786003, ,0.0001515267686899979, ,2.7537209786138855e-06
195, ,PASS, ,0.0058103644154505005, ,0.0023023020023087344, ,0.0001227736673265838, ,2.7699631142693853e-06
196, ,PASS, ,0.005895059142984301, ,0.002299919762683413, ,0.00016878282153699964, ,2.8102757994649326e-06
197, ,PASS, ,0.0058849566745105995, ,0.0023030554042434343, ,0.00014578772346239926, ,2.808209637853625e-06
198, ,PASS, ,0.0058980534845259, ,0.002312350694442776, ,0.0001662258488471227, ,2.8266666581378385e-06
199, ,PASS, ,0.0059055864084752, ,0.002367744068830994, ,0.0001501188593148292, ,2.893455114175803e-06
200, ,PASS, ,0.0058729769017078996, ,0.0022996788740504183, ,0.00016509967900832338, ,2.7977694060766687e-06
201, ,PASS, ,0.0058898970269132, ,0.0022941847404647376, ,0.000191262485622522, ,2.7995547632055946e-06
202, ,PASS, ,0.0058381467442269, ,0.00230176486117748, ,0.00014226186203872908, ,2.785992628715564e-06
203, ,PASS, ,0.0057957733970363, ,0.0022867754071014433, ,0.00010782053142169164, ,2.7452959841733216e-06
204, ,PASS, ,0.005709583116695199, ,0.0022013197886409253, ,0.00014754953377274377, ,2.6090063110560537e-06
205, ,PASS, ,0.005807357647667301, ,0.002260109656604675, ,0.0001494935807615842, ,2.7208705858228637e-06
206, ,PASS, ,0.0057164583785694004, ,0.0022647634320359573, ,9.520242908084751e-05, ,2.6836471241738364e-06
207, ,PASS, ,0.0057142504911654995, ,0.0022384997344562486, ,0.00013167606261174094, ,2.6516090541020892e-06
208, ,PASS, ,0.0056423056303535005, ,0.002291364609631004, ,0.00014200126025523243, ,2.673310440863579e-06
209, ,FAIL, ,0.00080780412869058, ,0.00011713121095600061, ,-2.002416557081347e-05, ,2.2262703681450606e-08
210, ,PASS, ,0.0056057504417871004, ,0.002260787116000331, ,0.00010919544575265376, ,2.622523452327394e-06
211, ,FAIL, ,0.000540248267445681, ,7.117362784346563e-05, ,4.151332746301833e-05, ,9.354503115275469e-09
212, ,PASS, ,0.005730186299396799, ,0.002775357726298609, ,0.00019289772336275225, ,3.286979826347832e-06
213, ,FAIL, ,0.0003315427857683841, ,4.843906212135002e-05, ,5.730827134432978e-05, ,3.995011238335087e-09
