Channel, ,Pass/Fail, ,Amplitude, ,Sorting Function Response, ,Mean, ,Variance, ,NPeaksRatio, ,PosIntegralRatio, ,ToT50, ,ToT99
38, ,PASS, ,0.04966696600000001, ,0.007480409710611618, ,0.03438797505948858, ,0.00037816420707697515, ,1.75, ,0.7616144586312946, ,0.6171914858880431, ,0.11801799963266056
39, ,PASS, ,0.09499711999999995, ,0.011104280579552386, ,0.03602206953409114, ,0.0010690761774779201, ,1.5833333333333333, ,0.6341024343405189, ,0.6013958898797984, ,0.034672761780371826
40, ,PASS, ,0.09432380000000001, ,0.011011212126520564, ,0.035881985285402346, ,0.0010534004857365754, ,1.5833333333333333, ,0.6337727252816845, ,0.6091712414032366, ,0.03573396461296708
41, ,PASS, ,0.04693195500000003, ,0.006787789612036966, ,0.033468872706883535, ,0.0003239599357793499, ,1.75, ,0.7348693027407257, ,0.6134160527336177, ,0.11530376931083039
42, ,PASS, ,0.05793258205000001, ,0.00821219259353065, ,0.03454403691802208, ,0.0004841772787483659, ,1.75, ,0.7334000448116414, ,0.6172323013816045, ,0.0662435460500806
43, ,PASS, ,0.09938701999999996, ,0.01127269470537476, ,0.0358448343166466, ,0.0011354081104543996, ,1.5833333333333333, ,0.6203886988495328, ,0.6022326074978062, ,0.03204016244566438
44, ,PASS, ,0.09840935999999999, ,0.011061663579720656, ,0.03584451427236179, ,0.0011032841710444006, ,1.5833333333333333, ,0.6189243144596184, ,0.6053549927552498, ,0.029550417338421665
45, ,PASS, ,0.05514310340000001, ,0.007344715330490104, ,0.03398826837901268, ,0.00041163087190879545, ,1.75, ,0.6976354555655597, ,0.6180077957592702, ,0.07126385175812738
46, ,PASS, ,0.05604983163000001, ,0.008304295912835912, ,0.03447746673455644, ,0.0004737340534831114, ,1.75, ,0.7475973470437155, ,0.6163955837635967, ,0.08999816330278974
47, ,PASS, ,0.09758217999999999, ,0.011072233831915749, ,0.03560865929327973, ,0.001094836506314346, ,1.5833333333333333, ,0.6232073960263186, ,0.5996204159098794, ,0.029958572274035224
48, ,PASS, ,0.09671546999999998, ,0.010912461328502807, ,0.03510974099059203, ,0.001068698325983629, ,1.5833333333333333, ,0.6185420308480292, ,0.5915185404379503, ,0.029244301136711497
49, ,PASS, ,0.05433518000000001, ,0.007400800906768807, ,0.03427491916348646, ,0.000408989492635945, ,1.75, ,0.7081364982781067, ,0.624803575437236, ,0.08016162935450297
50, ,PASS, ,0.0545569796, ,0.008436238053626964, ,0.03441228744209302, ,0.0004685778359783797, ,1.75, ,0.771795550265905, ,0.6165180302442808, ,0.14793575641313442
51, ,PASS, ,0.09762269999999997, ,0.011144587568049343, ,0.036002712897695965, ,0.0011025121465286806, ,1.5833333333333333, ,0.6250526701672342, ,0.6016203750943858, ,0.029387155364176243
52, ,PASS, ,0.09658989999999996, ,0.010809144139877932, ,0.03550629258688598, ,0.0010574303360925451, ,1.5833333333333333, ,0.6184364816081094, ,0.5993755229485113, ,0.028448399012265056
53, ,PASS, ,0.053054885, ,0.007553755504559222, ,0.034219116559866126, ,0.00040773575434255473, ,1.75, ,0.7306396973819742, ,0.6171098549009204, ,0.08805942735862533
54, ,PASS, ,0.06122071090000001, ,0.008776925797498229, ,0.03491994128895329, ,0.0005474605604069926, ,1.75, ,0.7412946222555171, ,0.6167629232056488, ,0.05326421909756944
55, ,PASS, ,0.10334573000000005, ,0.011512925767483053, ,0.03628702290483868, ,0.0012063094850603725, ,1.5, ,0.6169404623544698, ,0.6060080406522316, ,0.024570927123936246
56, ,PASS, ,0.10271968000000002, ,0.011116890619112946, ,0.035250508929205525, ,0.0011561190006443205, ,1.6666666666666667, ,0.6000293386503116, ,0.5912532397298015, ,0.025162751780575907
57, ,PASS, ,0.06216368505000001, ,0.008067695591585475, ,0.034284440755494784, ,0.0005097023252267171, ,1.75, ,0.6842549972008232, ,0.6130487132915655, ,0.04714189506336605
58, ,PASS, ,0.05719617304, ,0.008516179654407182, ,0.03473491667659844, ,0.000496239615022331, ,1.8333333333333333, ,0.7598455331931238, ,0.6171302626477011, ,0.08132487092100162
59, ,PASS, ,0.10117509999999999, ,0.01117368575200112, ,0.03590823459480419, ,0.0011451446940702607, ,1.5833333333333333, ,0.612776280256877, ,0.5980082039142058, ,0.026999448990836922
60, ,PASS, ,0.10086894000000002, ,0.010856788272851895, ,0.035604286902104036, ,0.0011086452271232739, ,1.5833333333333333, ,0.6032521566379704, ,0.5974776024979082, ,0.02373420950592845
61, ,PASS, ,0.05901628057999999, ,0.007782564541075547, ,0.03412008189547152, ,0.00046664360582625736, ,1.75, ,0.6867090571219349, ,0.6165792534846227, ,0.053182588110446724
62, ,PASS, ,0.05526896790000001, ,0.008580626586917736, ,0.03492219326564765, ,0.0004828727899861174, ,1.8333333333333333, ,0.7839823152486388, ,0.617007816167017, ,0.10716107834533989
63, ,PASS, ,0.10133538000000003, ,0.011292722576021137, ,0.03648719569478174, ,0.001161402060039498, ,1.6666666666666667, ,0.6191746381058977, ,0.6167016999653069, ,0.02691781800371421
64, ,PASS, ,0.10114718000000003, ,0.010841914566533517, ,0.03609616600314279, ,0.0011112126105605605, ,1.5833333333333333, ,0.6034744185185443, ,0.608579416746597, ,0.026101508132487093
65, ,PASS, ,0.05749867854, ,0.007956897598484409, ,0.03436434612232404, ,0.00046497903964587336, ,1.75, ,0.713175075771479, ,0.6192526683128916, ,0.08301871390379788
66, ,PASS, ,0.065723857, ,0.009311424011994675, ,0.035431151767310876, ,0.0006230249160106839, ,1.75, ,0.7339371036744122, ,0.6165996612314034, ,0.053917266994551134
67, ,PASS, ,0.10779897000000005, ,0.011622806744212925, ,0.03609186395379686, ,0.0012689321997904502, ,1.5833333333333333, ,0.6040959974646117, ,0.598824513785433, ,0.021897512295667436
68, ,PASS, ,0.10700573000000005, ,0.011141791925051455, ,0.03559056585375809, ,0.0012062381624246088, ,1.6666666666666667, ,0.5896673567809475, ,0.5918042488928797, ,0.023468908797779638
69, ,PASS, ,0.06608011100000001, ,0.008395052419479878, ,0.03468551602783617, ,0.0005637936321259678, ,1.75, ,0.6739496894292959, ,0.6172935246219465, ,0.046999040835901305
70, ,PASS, ,0.061772430850000004, ,0.009053069057622631, ,0.03471482842288933, ,0.0005694761836115127, ,1.75, ,0.7509069114801794, ,0.6072120977122916, ,0.06679455521315891
71, ,PASS, ,0.10546550000000002, ,0.011418499896410054, ,0.03621850737964531, ,0.0012200449471203411, ,1.5833333333333333, ,0.6053531012776495, ,0.6017224138282892, ,0.022060774269912858
72, ,PASS, ,0.10473755, ,0.011097752023985549, ,0.03494067264423175, ,0.0011761131886894637, ,1.6666666666666667, ,0.5939483666083936, ,0.5830901410175302, ,0.025672945450092854
73, ,PASS, ,0.062279313630000006, ,0.00813430534760748, ,0.03404594981857513, ,0.0005147592783598993, ,1.75, ,0.6789718118760103, ,0.612007918205751, ,0.05116222117915961
74, ,PASS, ,0.05970258478, ,0.009072931269035314, ,0.03520484600089794, ,0.0005525318512844738, ,1.8333333333333333, ,0.7737257500899816, ,0.6171710781412624, ,0.07932491173649517
75, ,PASS, ,0.10519705000000001, ,0.011338007032125346, ,0.03583765088610436, ,0.0012078718694451434, ,1.5833333333333333, ,0.604691609361762, ,0.5979877961674251, ,0.02540764474194404
76, ,PASS, ,0.10428950000000003, ,0.010953278765494389, ,0.0355344414246648, ,0.001155936394941534, ,1.6666666666666667, ,0.5932468092175761, ,0.5936817615967022, ,0.024407665149690824
77, ,PASS, ,0.06011694844, ,0.00819272769355657, ,0.034537538143303195, ,0.0005014310206394219, ,1.75, ,0.7076924995005965, ,0.6168445541927716, ,0.06685577845350095
78, ,PASS, ,0.07106977900000001, ,0.009642185490475094, ,0.035428504825615804, ,0.0006973788818454325, ,1.75, ,0.7146776624432573, ,0.6166404767249648, ,0.04250933654415216
79, ,PASS, ,0.10995422, ,0.011668445262501164, ,0.03602460010714067, ,0.0012988654237775456, ,1.5833333333333333, ,0.5987517723499244, ,0.5965592538927778, ,0.02422399542866472
80, ,PASS, ,0.10862116000000002, ,0.011078249928418368, ,0.03613297383522785, ,0.0012188090415053787, ,1.6666666666666667, ,0.5826709657707957, ,0.6046611293647068, ,0.021489357360053876
81, ,PASS, ,0.06874886200000001, ,0.008406571360069798, ,0.03644064406012123, ,0.0005880036072564875, ,1.75, ,0.6777581357204393, ,0.6463949715311933, ,0.04342768514928267
82, ,PASS, ,0.066341362, ,0.009474821047497499, ,0.03557914429481031, ,0.0006411843442159481, ,1.8333333333333333, ,0.7500900637747921, ,0.6168853696863329, ,0.042835860492643006
83, ,PASS, ,0.10800944000000001, ,0.011406650269952294, ,0.035915695309483485, ,0.0012477065374343706, ,1.6666666666666667, ,0.5964823303357278, ,0.5963347686781902, ,0.02365257851880574
84, ,PASS, ,0.10669696000000005, ,0.011537783506289147, ,0.03759590222995449, ,0.001247427755796187, ,1.6666666666666667, ,0.6187453411873334, ,0.6166404767249648, ,0.02214240525703557
85, ,PASS, ,0.06395412509999998, ,0.008392725658288342, ,0.03479954881982, ,0.0005465843188771249, ,1.75, ,0.6972061910734577, ,0.6164772147507194, ,0.041264463990530804
86, ,PASS, ,0.0641619998, ,0.00933537485827011, ,0.03542756423236261, ,0.0006124563984326243, ,1.8333333333333333, ,0.7583421684221288, ,0.6170486316605783, ,0.06871288341054264
87, ,PASS, ,0.10838449000000003, ,0.011515170817856142, ,0.036278517878614726, ,0.0012646064843277775, ,1.5833333333333333, ,0.5990038495615976, ,0.6033550335707435, ,0.022101589763474216
88, ,PASS, ,0.10664808, ,0.011012896642712306, ,0.03633093461174262, ,0.001190644400533533, ,1.6666666666666667, ,0.5844519972711397, ,0.6142119548580641, ,0.023999510214077265
89, ,PASS, ,0.06206647296, ,0.008308546589564807, ,0.0347733686559458, ,0.000524824858276478, ,1.75, ,0.7035022214753914, ,0.6166812922185262, ,0.04387665557845758
90, ,PASS, ,0.07333262399999999, ,0.00974774974221257, ,0.0358364041635885, ,0.00072814691417254, ,1.8333333333333333, ,0.7161985632067502, ,0.6172118936348238, ,0.039488990020611826
91, ,PASS, ,0.11925457999999997, ,0.012251468599558031, ,0.03652256163506867, ,0.0014795411893983826, ,1.5833333333333333, ,0.5872787566429347, ,0.5984367665966001, ,0.020019999591845063
92, ,PASS, ,0.11838295000000003, ,0.012221088087289268, ,0.038193843363604825, ,0.0014690230274445216, ,1.5833333333333333, ,0.6047217903763383, ,0.6169261851798943, ,0.020285300299993876
93, ,PASS, ,0.071835461, ,0.009185916882849667, ,0.0353049019083284, ,0.0006713401119736018, ,1.75, ,0.6820153941642229, ,0.6170282239137976, ,0.03489724699495929
198, ,PASS, ,0.16913005000000003, ,0.022257016853811352, ,0.044279901719352664, ,0.00391971825306394, ,1.9166666666666667, ,0.8906512297826689, ,0.632783004428481, ,0.04806024366849656
199, ,PASS, ,0.09898384000000002, ,0.012026100138503507, ,0.03815153330605498, ,0.0012566381589086447, ,1.9166666666666667, ,0.87645018254425, ,0.6282728923899512, ,0.03783596253137691
200, ,PASS, ,0.10458664999999998, ,0.012767430629865887, ,0.03855368341544051, ,0.0013808526659929996, ,1.9166666666666667, ,0.871849567160748, ,0.6288851247933716, ,0.03393808289626742
201, ,PASS, ,0.09900688000000005, ,0.011893627083453772, ,0.03803479806738638, ,0.0012326851957021325, ,1.9166666666666667, ,0.8728995033480665, ,0.6302932593212384, ,0.03783596253137691
202, ,PASS, ,0.08338559000000002, ,0.010340723110679623, ,0.03684086685394176, ,0.0008952069029503757, ,1.9166666666666667, ,0.8583275439629537, ,0.6271096508234526, ,0.033101365278259624
203, ,PASS, ,0.07628994000000001, ,0.009093262203445234, ,0.037975670434072774, ,0.0007339839577582364, ,2.0, ,0.8545223499519593, ,0.6539050223464827, ,0.03146874553580539
204, ,PASS, ,0.060479771, ,0.007855005374780805, ,0.035407995488051264, ,0.0004970167597325688, ,1.9166666666666667, ,0.8533388104563789, ,0.6276402522397502, ,0.02853002999938777
205, ,PASS, ,0.058964888, ,0.007729309724528877, ,0.035069058936348235, ,0.00047111133294616225, ,1.9166666666666667, ,0.846424532700999, ,0.6242729740209384, ,0.024917858819207772
206, ,PASS, ,0.06075461800000001, ,0.007951701026501513, ,0.03520212472051591, ,0.0005018867712979303, ,1.9166666666666667, ,0.843093091330113, ,0.6233342176690272, ,0.026999448990836922
207, ,PASS, ,0.055242727230000024, ,0.007060909569002188, ,0.034663014138486964, ,0.0004151485111767169, ,1.9166666666666667, ,0.8442235643071674, ,0.6233954409093692, ,0.028795330707536582
208, ,PASS, ,0.05030555950000003, ,0.006725395273789578, ,0.034271007493316456, ,0.00035009641185282153, ,1.9166666666666667, ,0.8454582598658217, ,0.6225995387849228, ,0.026897410256933534
209, ,PASS, ,0.050204601000000015, ,0.006564314807851497, ,0.034259543453398905, ,0.00034869134539414063, ,1.9166666666666667, ,0.8425062479692462, ,0.6227015775188262, ,0.027428011673231157
210, ,PASS, ,0.05228731212000002, ,0.006732890758334353, ,0.0344107653200955, ,0.00037605919258864684, ,1.9166666666666667, ,0.8404848595432366, ,0.6225383155445807, ,0.028346360278361665
211, ,PASS, ,0.05566123699000002, ,0.00719066966860131, ,0.0347309852413216, ,0.0004267722928874127, ,1.9166666666666667, ,0.848026590273236, ,0.6231709556947818, ,0.026897410256933534
212, ,PASS, ,0.08282118, ,0.011318804899963826, ,0.0371879777049448, ,0.0009573025352540754, ,2.0, ,0.8578190675983085, ,0.6251913226260688, ,0.032611579355523355
213, ,PASS, ,0.061704332, ,0.007930521421769051, ,0.03519980468092488, ,0.0005167050353370213, ,1.9166666666666667, ,0.8544218690652873, ,0.624293381767719, ,0.031101406093753187
214, ,PASS, ,0.059927894999999995, ,0.007841367429319143, ,0.035159566835370706, ,0.0004982488565117168, ,1.9166666666666667, ,0.8530898638330116, ,0.6234974796432726, ,0.030448358196771493
215, ,PASS, ,0.07622315000000003, ,0.009830630134645304, ,0.03726662967470051, ,0.0007807418819757534, ,1.8333333333333333, ,0.8573776393153593, ,0.6351503030550397, ,0.031795269484296236
216, ,PASS, ,0.070479953, ,0.009226894189158405, ,0.03605009141629763, ,0.0006768027126140972, ,1.9166666666666667, ,0.8610649172978833, ,0.6248443909307974, ,0.030652435664578273
217, ,PASS, ,0.066785623, ,0.008646940839829535, ,0.03578853639129814, ,0.0006119883638352067, ,1.9166666666666667, ,0.8555626815200934, ,0.624109712046693, ,0.029570825085202344
218, ,PASS, ,0.07638721000000002, ,0.010137697032485963, ,0.0365435035703353, ,0.0007959103593505564, ,1.9166666666666667, ,0.8636534670629603, ,0.6255178465745597, ,0.032631987102304034
219, ,PASS, ,0.07395999, ,0.009668918383489895, ,0.036825137808820234, ,0.0007454849758846431, ,1.8333333333333333, ,0.8619872499733572, ,0.6334360523254627, ,0.034713577273933184
220, ,PASS, ,0.071046733, ,0.009662344344210793, ,0.036199135046631706, ,0.000708947108728806, ,1.9166666666666667, ,0.863207170308735, ,0.6242525662741577, ,0.030529989183894206
221, ,PASS, ,0.07477779000000002, ,0.01002954347821867, ,0.03645447435419685, ,0.0007728566343277198, ,1.9166666666666667, ,0.8656823992299052, ,0.625313769106753, ,0.03189730821819963
222, ,PASS, ,0.05454269814000001, ,0.006886590529553717, ,0.035230630345707226, ,0.0003942581130664756, ,1.8333333333333333, ,0.8453541084023181, ,0.6401706087630865, ,0.025897430664680313
223, ,PASS, ,0.06749088199999999, ,0.008704659160578871, ,0.03591258233199323, ,0.0006239611072071562, ,1.9166666666666667, ,0.8575367079749406, ,0.6276810677333116, ,0.03455031529968776
224, ,PASS, ,0.069182374, ,0.009075875076440849, ,0.03583230651660171, ,0.000650079090592043, ,1.9166666666666667, ,0.8514856427785176, ,0.6237831880982021, ,0.029856533540131833
225, ,PASS, ,0.06140559499999999, ,0.00786308514582397, ,0.03525890913736455, ,0.0005107037072483268, ,1.9166666666666667, ,0.8461916649563362, ,0.6230485092140977, ,0.028856553947878616
226, ,PASS, ,0.059491494, ,0.007324416209576563, ,0.03495549440521622, ,0.00046442428409160415, ,1.9166666666666667, ,0.8427044682775394, ,0.623599518377176, ,0.025387236995163365
227, ,PASS, ,0.07576767000000002, ,0.00964250239343313, ,0.03627502924246444, ,0.0007593231253889112, ,1.9166666666666667, ,0.8609913807886688, ,0.6257015162955858, ,0.032938103304014206
228, ,PASS, ,0.17619474999999996, ,0.028539803573468435, ,0.044836563260545664, ,0.005218063491566419, ,1.8333333333333333, ,0.9631593768244121, ,0.6371910777331075, ,0.5551519356747822
229, ,PASS, ,0.15869525000000007, ,0.02308675205866179, ,0.04442994036672721, ,0.0037534937123909883, ,1.9166666666666667, ,0.8859082149861554, ,0.6328442276688231, ,0.04075427032101386
230, ,PASS, ,0.16733594999999996, ,0.025486533713870652, ,0.04662274406318238, ,0.0044125353329339595, ,1.8333333333333333, ,0.9287245790826947, ,0.6395787841064469, ,0.22358727372910758
231, ,PASS, ,0.19979999999999998, ,0.03516832055862758, ,0.03587435755494781, ,0.007278292709741306, ,2.0, ,0.9616557887595231, ,0.6477214750719373, ,0.5936205383563601
232, ,PASS, ,0.08794537000000002, ,0.011400564276474845, ,0.03830499720311831, ,0.001042507711520623, ,1.9166666666666667, ,0.8634875988004269, ,0.6347217403726455, ,0.03375441317524132
233, ,PASS, ,0.07089299599999999, ,0.009053833645928435, ,0.03608542006877411, ,0.0006666845483111677, ,1.9166666666666667, ,0.8571894600725899, ,0.6261096712311993, ,0.0297953102997898
234, ,PASS, ,0.07692306, ,0.009682640776660157, ,0.03627271322585253, ,0.0007745971803373852, ,2.0, ,0.8506271927095583, ,0.6251913226260688, ,0.029978980020815903
235, ,PASS, ,0.08879606, ,0.011024746200440002, ,0.037348408039631846, ,0.0010301923735445253, ,1.9166666666666667, ,0.8608008793330427, ,0.6246607212097712, ,0.031223852574437258
236, ,PASS, ,0.05903894600000001, ,0.007289812504139859, ,0.03564577736638028, ,0.0004511954205994811, ,1.8333333333333333, ,0.8445941975106696, ,0.6418644517458827, ,0.021999551029570824
237, ,PASS, ,0.071615549, ,0.008695733426143753, ,0.03590583935919676, ,0.0006586038913991196, ,1.9166666666666667, ,0.8561347245051207, ,0.6247015367033326, ,0.02920348564315014
238, ,PASS, ,0.07124552499999998, ,0.008719737004462694, ,0.03571102140099182, ,0.0006514007868696328, ,1.9166666666666667, ,0.853226689638803, ,0.6199261239566539, ,0.02848921450582641
239, ,PASS, ,0.06675458799999999, ,0.008191005669586348, ,0.0364806383479929, ,0.00057143761183545, ,1.9166666666666667, ,0.8329738294120763, ,0.6433746250076529, ,0.02097916369053693
240, ,PASS, ,0.0727734, ,0.008946008731040773, ,0.03594960943735843, ,0.0006866665673893232, ,1.9166666666666667, ,0.8525037745396745, ,0.6233342176690272, ,0.02422399542866472
241, ,PASS, ,0.08149513000000003, ,0.009322435632936438, ,0.03660677329095325, ,0.0008141068289617888, ,1.9166666666666667, ,0.8573257345749363, ,0.6251300993857268, ,0.02828513703801963
242, ,PASS, ,0.07223003, ,0.008534807469750884, ,0.03592841397461277, ,0.0006598404203104863, ,1.9166666666666667, ,0.8588811527834971, ,0.624109712046693, ,0.024877043325646414
243, ,PASS, ,0.06830848499999999, ,0.00835157205322646, ,0.035656562475051536, ,0.0006032341071844567, ,1.9166666666666667, ,0.860214391752886, ,0.6226811697720455, ,0.02234648272484235
244, ,PASS, ,0.14348379999999994, ,0.006000079628756244, ,0.03312051237321688, ,0.0008843951691791024, ,0.75, ,0.24869792123298518, ,0.6432521785269688, ,0.018407787596171506
245, ,PASS, ,0.15091322, ,0.018928523349461226, ,0.04113703210485502, ,0.0029486608452412967, ,1.9166666666666667, ,0.8981125003713811, ,0.6213750739780821, ,0.040060406930470804
246, ,FAIL, ,0.08777032999999998, ,0.002705855313430667, ,0.030670671525683157, ,0.0002596526031530113, ,0.5833333333333334, ,0.21447326085074256, ,0.546417420052652, ,0.015428256566192526
