Channel, ,Pass/Fail, ,Amplitude, ,Sorting Function Response, ,Mean, ,Variance
22, ,PASS, ,0.057944872380219, ,0.04510499144134418, ,0.00028642352520431293, ,0.0005419835801999281
23, ,PASS, ,0.076931411811136, ,0.05543203227229879, ,0.010217236586270419, ,0.0008855304922120097
24, ,PASS, ,0.037578571051349, ,0.03101002798164504, ,0.004679712545970707, ,0.00024241506561381094
25, ,PASS, ,0.083235699043062, ,0.053131288776451104, ,0.007618401498129255, ,0.000922531444543668
26, ,PASS, ,0.09148269168551, ,0.061785431321356436, ,0.008096171272132371, ,0.0011751923486863043
27, ,PASS, ,0.04343755790828101, ,0.03524633090938277, ,0.0041542143684333375, ,0.0003192452217178359
28, ,PASS, ,0.08383985015162701, ,0.05469572808992177, ,0.008147950100290785, ,0.0009537320039778798
29, ,PASS, ,0.081971227276472, ,0.05557106881485087, ,0.011785926946874626, ,0.0009457800833491195
30, ,PASS, ,0.042338330806130996, ,0.03514158488570945, ,0.004176640898943042, ,0.0003097880909992547
31, ,PASS, ,0.07185488111630099, ,0.04805132554201814, ,0.013158180394513476, ,0.0007176332372755246
32, ,PASS, ,0.090611635789344, ,0.06099737933795228, ,0.008453890679019554, ,0.0011485622898437938
33, ,PASS, ,0.038175789953076994, ,0.030081004825734663, ,0.009035547598569171, ,0.0002389892725681674
34, ,PASS, ,0.070094109120999, ,0.05196372562001071, ,0.006624203128495068, ,0.0007555583208626609
35, ,PASS, ,0.084603581312816, ,0.05971421079232339, ,0.007964329270110825, ,0.0010482512897756588
36, ,PASS, ,0.039398700102682, ,0.0271403998187626, ,0.0007457600887612621, ,0.0002201989924665191
37, ,PASS, ,0.061270381800541, ,0.04423139863704185, ,0.011825761970885255, ,0.0005616869884694955
38, ,PASS, ,0.083692781271263, ,0.05895213234192426, ,0.007753899876834207, ,0.0010240458305524557
39, ,PASS, ,0.0326965686424046, ,0.025012039095120252, ,0.00834494446193601, ,0.00016934181853812028
40, ,PASS, ,0.054799742366547013, ,0.039784608015233744, ,0.013293269973619773, ,0.0004519614062713303
41, ,PASS, ,0.08579524061791302, ,0.05962676357357822, ,0.010416308279988675, ,0.001062616205600193
42, ,PASS, ,0.038348568230247, ,0.02958155243656583, ,0.0023103327031434385, ,0.00023653010234021672
43, ,PASS, ,0.053094614687321, ,0.037768195211483384, ,0.010715866586098969, ,0.00041492750043428927
44, ,PASS, ,0.081552159603965, ,0.06114401483387962, ,0.007863720318733647, ,0.0010329944379469218
45, ,PASS, ,0.034319167042642006, ,0.028806498046619503, ,0.0033954696055772875, ,0.00020510165051865656
46, ,PASS, ,0.06180333476994101, ,0.04570818660150247, ,0.006001326437394233, ,0.0005861326731093555
47, ,PASS, ,0.08479556573004501, ,0.06193165448261584, ,0.008016569542911226, ,0.0010885417214636793
48, ,PASS, ,0.038369889756085004, ,0.032270427646187504, ,0.003873041777605417, ,0.0002570609827540625
49, ,PASS, ,0.05560161317086, ,0.043592469958072276, ,0.0053659190240993235, ,0.0005023755569354367
50, ,PASS, ,0.07383186786474501, ,0.05838923529332685, ,0.007068642641468643, ,0.0008925784869133133
51, ,PASS, ,0.036317382337096, ,0.030135206830140746, ,0.003364199995842931, ,0.0002278274321796067
52, ,PASS, ,0.057432363919193, ,0.045237663670412785, ,0.005467208785280553, ,0.0005389914363915006
53, ,PASS, ,0.07424134856398901, ,0.05872597441899659, ,0.0070894191505259975, ,0.0009027940609455376
54, ,PASS, ,0.03490588095453599, ,0.02906834390132717, ,0.0032196350420742714, ,0.00021063990719237977
55, ,PASS, ,0.059297799675917, ,0.046011850275230526, ,0.005664355580069319, ,0.0005661003045928604
56, ,PASS, ,0.075717471816314, ,0.059260580995679664, ,0.007251224497035869, ,0.000929282071488929
57, ,PASS, ,0.034862381933006004, ,0.0292123253602536, ,0.003389314763353155, ,0.0002111809526651229
58, ,PASS, ,0.05716584542671899, ,0.04598726322680124, ,0.005528413561130743, ,0.000544247507932762
59, ,PASS, ,0.07266618703577399, ,0.05820114625602173, ,0.007018835673102788, ,0.0008744191097485969
60, ,PASS, ,0.032482201819299006, ,0.02685121296022986, ,0.003202844761446534, ,0.00018095046940942675
61, ,PASS, ,0.057788302796261994, ,0.047800922323678004, ,0.005764332610379575, ,0.0005707671699835152
62, ,PASS, ,0.071545381621063, ,0.05857994841425038, ,0.006848131626276005, ,0.0008652565490278421
63, ,PASS, ,0.034499201891026995, ,0.026636247255774556, ,0.004051177820558859, ,0.00019033720874279055
198, ,PASS, ,0.07816650927997701, ,0.05413463834392066, ,0.008843325773761122, ,0.0009674808832909008
199, ,PASS, ,0.06976854525350198, ,0.04464175069666635, ,0.005192129696400466, ,0.0007166738002824766
200, ,PASS, ,0.045361497254125, ,0.02610299480763273, ,0.003104866681342317, ,0.0002783773101568199
201, ,PASS, ,0.04057004494512101, ,0.023136777565993673, ,0.002766932189604668, ,0.0002210218901382363
202, ,PASS, ,0.042198477137380994, ,0.024286457058284666, ,0.002901747306571961, ,0.00024074224926456388
203, ,PASS, ,0.043136382803747, ,0.024919310177502322, ,0.00299977182634508, ,0.0002519916086289227
204, ,PASS, ,0.061698481503524985, ,0.034977912737729475, ,0.004218937723063712, ,0.0004975700151590404
205, ,PASS, ,0.07377014365453702, ,0.04257110299543428, ,0.005006510878579127, ,0.0007149225987461029
206, ,PASS, ,0.056399630393438, ,0.031188093267080993, ,0.0037121443278291108, ,0.000407801137072725
207, ,PASS, ,0.066819012821929, ,0.03795409947426019, ,0.00449372933339547, ,0.0005822021519508212
208, ,PASS, ,0.05125442017267701, ,0.02878199094050948, ,0.003445664535688429, ,0.00034416577288084695
209, ,PASS, ,0.045804648035375, ,0.025418477079992233, ,0.003049080648627544, ,0.0002726136066036487
210, ,PASS, ,0.045724139275806, ,0.024300892615946628, ,0.0029846256176122394, ,0.0002610316449070148
211, ,PASS, ,0.052247632095761, ,0.029362527546401, ,0.0035056880182573573, ,0.0003574891821962463
212, ,PASS, ,0.076359147267609, ,0.04400502636730889, ,0.005170140637700789, ,0.0007615327460781011
213, ,PASS, ,0.059599173525132, ,0.034005248058485135, ,0.004013988621878636, ,0.0004669582376145702
214, ,PASS, ,0.055129806931547995, ,0.03136250325424697, ,0.0037371846499875904, ,0.0003999061737202062
215, ,PASS, ,0.06846399316035601, ,0.03952297841142864, ,0.0045948727418058215, ,0.0006172077484568003
216, ,PASS, ,0.053686222001181, ,0.030592039913959174, ,0.0036263971826227233, ,0.0003806825951505895
217, ,PASS, ,0.065565204435306, ,0.038708100791886586, ,0.004526261549644475, ,0.0005797235765363976
218, ,PASS, ,0.057613208252817, ,0.03275211852709404, ,0.0038877959574358046, ,0.0004365567813602973
219, ,PASS, ,0.056345108877253, ,0.03256024035995057, ,0.003847159710599555, ,0.0004229892644798774
220, ,PASS, ,0.045596057288735004, ,0.025831425216170014, ,0.0031151305143895924, ,0.00027411423925844427
221, ,PASS, ,0.040424749963625, ,0.02329476318564921, ,0.0027853885101725654, ,0.00021939034757630587
222, ,PASS, ,0.044044268227281996, ,0.024937300322775514, ,0.00297336996202869, ,0.00025602842243579923
223, ,PASS, ,0.045716775596459994, ,0.026682988648274, ,0.0030972074979326893, ,0.00028330684920187195
224, ,PASS, ,0.08550075647176399, ,0.0521596914424249, ,0.005860141884867674, ,0.0009968615118873098
225, ,PASS, ,0.05966646481037001, ,0.03534355433115613, ,0.004049997835429826, ,0.0004825124149527138
226, ,PASS, ,0.05948572384972199, ,0.0344000849442333, ,0.0039909615847240525, ,0.00046919216764141724
227, ,PASS, ,0.053827001093823004, ,0.03124035426114961, ,0.0036398511306998216, ,0.00038653541364490606
228, ,PASS, ,0.044372629862241, ,0.02567701470650714, ,0.0030356799802602947, ,0.0002643566298058253
229, ,PASS, ,0.041430786325375, ,0.02425419437946996, ,0.0028717575561532185, ,0.00023331853882849692
230, ,PASS, ,0.042301489567275, ,0.02398931542679658, ,0.0028545512975701485, ,0.0002365581558717653
231, ,PASS, ,0.04600128846590601, ,0.026896681429132263, ,0.0031749129428562473, ,0.0002858821482756481
232, ,PASS, ,0.05538465183925399, ,0.03189356177444931, ,0.003797893226861713, ,0.00040531610740316543
233, ,PASS, ,0.062699195938407, ,0.03763638688542827, ,0.00440413037383776, ,0.0005381525894218589
234, ,PASS, ,0.078542180387736, ,0.049325610452073884, ,0.005644999347672775, ,0.0008723755914856109
235, ,PASS, ,0.05808867685744899, ,0.0204825667655486, ,0.0013265164615328456, ,0.0002532700307019722
