Channel, ,Pass/Fail, ,Amplitude, ,Sorting Function Response, ,Mean, ,Variance
60, ,PASS, ,0.0179790410498395, ,0.00691400365578843, ,-0.0004930964371432278, ,2.8729012838492163e-05
61, ,PASS, ,0.030576648503553, ,0.012540737824851805, ,-0.0007606636893819956, ,8.849205705972947e-05
62, ,PASS, ,0.032119753400931, ,0.013444340239050789, ,-0.0007126524460247255, ,9.933273582143361e-05
63, ,PASS, ,0.022521144237330003, ,0.009243517091720098, ,-0.0004666489991119322, ,4.784913917856592e-05
64, ,PASS, ,0.016974085670710303, ,0.006475920141619485, ,-0.00046766100445126875, ,2.5443511294158782e-05
65, ,PASS, ,0.031143834461648, ,0.012779215781421396, ,-0.0007497160102247702, ,9.186079892980474e-05
66, ,PASS, ,0.032589113053288, ,0.01381621761539155, ,-0.0007132266389615195, ,0.00010361566860168192
67, ,PASS, ,0.020292142097499303, ,0.008404401938878158, ,-0.0004732051438371297, ,3.917271532213315e-05
68, ,PASS, ,0.017354189767224002, ,0.008747110926251725, ,-0.0001727358963095323, ,3.506845247923727e-05
69, ,PASS, ,0.032504680906412, ,0.015700195539128003, ,-0.0004542421618549946, ,0.0001173920219476338
70, ,PASS, ,0.033599223745699, ,0.016473250298840156, ,-0.00046773299814889584, ,0.0001268897847845621
71, ,PASS, ,0.019568440382396097, ,0.00997500811755719, ,-0.0002000240853385657, ,4.4729996070811856e-05
72, ,PASS, ,0.018399069476265698, ,0.007945855280718297, ,-0.00045306657684260663, ,3.3504001381671006e-05
73, ,PASS, ,0.034723182385910004, ,0.016097594362025174, ,-0.0006984899530439338, ,0.00012782030901584935
74, ,PASS, ,0.035742735782471, ,0.017016054404735595, ,-0.0006681092760366752, ,0.0001387454583737627
75, ,PASS, ,0.0202644643508251, ,0.009355643444958565, ,-0.00036594102004078365, ,4.3189278096242163e-05
76, ,PASS, ,0.017607792272559, ,0.007508111198322447, ,-0.00032904043206016267, ,3.036520974840884e-05
77, ,PASS, ,0.03495030087315501, ,0.01601893481177065, ,-0.0006932460073642118, ,0.0001282555652491066
78, ,PASS, ,0.036059402312583005, ,0.016945499081251855, ,-0.0006407217385348519, ,0.00013960740692158145
79, ,PASS, ,0.021362556857375998, ,0.009834386544715308, ,-0.0004152715604093929, ,4.796536029310854e-05
80, ,PASS, ,0.020674191461208698, ,0.011224930864822178, ,-0.00016302046786891288, ,5.287313616141015e-05
81, ,PASS, ,0.043065758522631996, ,0.023287434334916864, ,-0.0003490029705101934, ,0.00022743434433562747
82, ,PASS, ,0.045030539794278, ,0.024600603382885045, ,-0.00027942804279985304, ,0.00025043520648504225
83, ,PASS, ,0.024407088415228997, ,0.013659104263741706, ,-9.46946292390173e-05, ,7.548309787642343e-05
84, ,PASS, ,0.020988926337828, ,0.009884005888281566, ,-0.0003380291823422067, ,4.722876942200896e-05
85, ,PASS, ,0.044358972458052995, ,0.02239992852528987, ,-0.0006529924177230984, ,0.0002252225035446569
86, ,PASS, ,0.045822677364166994, ,0.023709377328945392, ,-0.0006115856186796578, ,0.00024532883906932184
87, ,PASS, ,0.023229576933927, ,0.011622191248177356, ,-0.00033678025624606843, ,6.109909858584955e-05
88, ,PASS, ,0.022163893178918998, ,0.012580295156332778, ,-7.035712274168343e-05, ,6.33455236809683e-05
89, ,PASS, ,0.045038942824235, ,0.02589697915523911, ,-0.00022679244877089338, ,0.0002634532444641902
90, ,PASS, ,0.046324611956240005, ,0.027084911610626046, ,-5.472923691028566e-05, ,0.0002824888858921721
91, ,PASS, ,0.025110381021663006, ,0.014994918471330432, ,9.734833794738821e-06, ,8.479570511513672e-05
92, ,PASS, ,0.022883111919632, ,0.012829813623173215, ,-0.00014924608226335448, ,6.628527162293856e-05
93, ,PASS, ,0.045734728190904, ,0.02698488797001351, ,-1.5228447330722891e-05, ,0.000277490698780637
94, ,PASS, ,0.047663673177503, ,0.028695366776695257, ,0.00015546389926679837, ,0.0003063691374858712
95, ,PASS, ,0.028531350511912, ,0.01694379692863151, ,-1.3885800330712896e-05, ,0.00010821056299551546
96, ,PASS, ,0.021950826374745, ,0.012143455990749038, ,-0.00011090587292442575, ,6.025092568939111e-05
97, ,PASS, ,0.04541201505465199, ,0.02676104274750932, ,-1.7202871959600895e-06, ,0.0002733439692132377
98, ,PASS, ,0.04758029579374301, ,0.028587057788830098, ,9.82053616409808e-05, ,0.00030475148847201395
99, ,PASS, ,0.026436476271445998, ,0.01559623837355598, ,2.55181174052848e-05, ,9.242824533438744e-05
100, ,PASS, ,0.02072758417443, ,0.00973232730220592, ,-0.0005386862508264547, ,4.5558132776937475e-05
101, ,PASS, ,0.044965011351382006, ,0.023571169733241297, ,-0.0005616118633553981, ,0.00023853493788245252
102, ,PASS, ,0.0465678188791, ,0.025197015274653383, ,-0.0005016667108235213, ,0.00026302162430515396
103, ,PASS, ,0.024349601886805995, ,0.012545083958646421, ,-0.00033597266443962005, ,6.849761758166253e-05
198, ,PASS, ,0.0250571105700385, ,0.010537050680850863, ,6.252397281009262e-05, ,6.196737098102965e-05
199, ,PASS, ,0.016631629297093102, ,0.01015081103200437, ,2.6950628170584615e-05, ,3.9523407846244794e-05
200, ,PASS, ,0.021940768081075, ,0.014637282521496615, ,-4.047918546764526e-06, ,7.532346283414065e-05
201, ,PASS, ,0.03935060836529901, ,0.028457530978028747, ,2.8246439072177295e-05, ,0.00026241645216740813
202, ,PASS, ,0.041842518872184, ,0.028792662587250804, ,-3.1135821720710064e-05, ,0.0002831640220112785
203, ,PASS, ,0.0452751687105, ,0.03274771976462936, ,7.180973723210333e-05, ,0.000347565459450472
204, ,PASS, ,0.062783618133506, ,0.04058056154465358, ,-0.00031538539701630655, ,0.000600417198576669
205, ,PASS, ,0.07399581568884901, ,0.048947695668182536, ,-0.0003500085422871999, ,0.0008502343678417852
206, ,PASS, ,0.05925538942287899, ,0.037438825083470885, ,-0.0003182586328155373, ,0.000523894155207427
207, ,PASS, ,0.06852349241713, ,0.04387492531161951, ,-0.0003749308791170232, ,0.0007088494120816284
208, ,PASS, ,0.05420351262044701, ,0.03327164158983672, ,-0.00021813672064585786, ,0.00042718063418289575
209, ,PASS, ,0.054007091098718, ,0.03406211291080186, ,-0.0001724590718874319, ,0.0004349255603981089
210, ,PASS, ,0.047967591374298006, ,0.029468611216834608, ,-0.00020313581309223047, ,0.00033510038027412747
211, ,PASS, ,0.052219061634509005, ,0.03265819793259253, ,-0.00017998515561840165, ,0.00040424721285404997
212, ,PASS, ,0.07069798517456499, ,0.045083377688987826, ,-0.00037238347246324247, ,0.0007541849273694845
213, ,PASS, ,0.058253773094682, ,0.03733938965718072, ,-0.00020720902870723245, ,0.000514975009065793
214, ,PASS, ,0.049791422602912, ,0.032728992844818346, ,-7.280782457202551e-05, ,0.0003855155709967208
215, ,PASS, ,0.031951716063003004, ,0.019488819008324894, ,-3.301873810409501e-05, ,0.00014751879218229277
216, ,PASS, ,0.017980347322972396, ,0.0081970850538037, ,5.469899445386911e-05, ,3.48304391944122e-05
217, ,PASS, ,0.0205068391778044, ,0.01123907592158509, ,0.0001289340360439489, ,5.396158079209562e-05
