Channel, ,Pass/Fail, ,Amplitude, ,Sorting Function Response, ,Mean, ,Variance, ,NPeaksRatio, ,PosIntegralRatio, ,ToT50, ,ToT99
23, ,PASS, ,0.07252103900000002, ,0.04796931904459101, ,0.038384262065794574, ,0.0007262455545532469, ,0.9166666666666666, ,0.7088147996818216, ,0.4280728964715006, ,0.0765290504275423
24, ,PASS, ,0.10870596999999997, ,0.059934360196416646, ,0.03825759950636068, ,0.0013546178026525568, ,0.8333333333333334, ,0.6412209991125175, ,0.430011632415665, ,0.03159119201648946
25, ,PASS, ,0.07112286999999998, ,0.05297394497354959, ,0.037881510051325486, ,0.0007888427536307656, ,0.9166666666666666, ,0.7560331077082546, ,0.42819534295218464, ,0.11987510458970226
26, ,PASS, ,0.06923940999999999, ,0.04568640139598335, ,0.03854033693720536, ,0.0006604920912873562, ,0.9166666666666666, ,0.7077232557246453, ,0.42817493520540395, ,0.07832493214424195
27, ,PASS, ,0.10617233199999998, ,0.05942612726938981, ,0.038150522877465766, ,0.0013126667306589883, ,0.9166666666666666, ,0.6494107761141086, ,0.4283586049264301, ,0.03499928572886268
28, ,PASS, ,0.07140870500000003, ,0.054236775703989146, ,0.03772114737660456, ,0.0008113184329417275, ,0.9166666666666666, ,0.763506105263749, ,0.4278688190036938, ,0.13016060896716394
29, ,PASS, ,0.065871283, ,0.04381271983316636, ,0.038714541816289465, ,0.0006027880458067235, ,0.9166666666666666, ,0.7110763812854299, ,0.4285014591538948, ,0.08363094630721822
30, ,PASS, ,0.104006597, ,0.06008538927200604, ,0.038007218658535534, ,0.001300274808630666, ,0.9166666666666666, ,0.660941873968654, ,0.427603518295545, ,0.040856309054917245
31, ,PASS, ,0.06462850299999998, ,0.05219091616422465, ,0.03780425406365176, ,0.0007074158404860169, ,1.0, ,0.7890853907109499, ,0.42821575069896534, ,0.15409889594089918
32, ,PASS, ,0.06556523599999997, ,0.042979568296666604, ,0.03862502603701965, ,0.0005884616879593413, ,0.9166666666666666, ,0.7061243145128024, ,0.42788922675047447, ,0.07924328074937247
33, ,PASS, ,0.104018098, ,0.06007907982909709, ,0.03814663993567478, ,0.001300072859580637, ,0.9166666666666666, ,0.6603423655500507, ,0.42819534295218464, ,0.03904001959143691
34, ,PASS, ,0.064674185, ,0.05115870762810142, ,0.03784016096175588, ,0.0006934229451980988, ,0.9166666666666666, ,0.7798336983894636, ,0.4279504499908165, ,0.15091528744311342
35, ,PASS, ,0.06262196399999999, ,0.04306069789822791, ,0.03857647072508724, ,0.000563655406805268, ,0.9166666666666666, ,0.7240858427635009, ,0.4279504499908165, ,0.10116120079182057
36, ,PASS, ,0.102571846, ,0.061074125942634845, ,0.03791386112475582, ,0.0013040859759432622, ,0.9166666666666666, ,0.6714899234422658, ,0.42821575069896534, ,0.04681537111487521
37, ,PASS, ,0.05633016000000002, ,0.045920461899753295, ,0.03814589485990082, ,0.0005432391642600908, ,0.8333333333333334, ,0.7929741697954138, ,0.4284606436603335, ,0.1323238301259158
38, ,PASS, ,0.060710638000000004, ,0.04252596766930468, ,0.03862950042999123, ,0.0005398413856872884, ,0.9166666666666666, ,0.7309522309988291, ,0.42809330421828123, ,0.10089590008367176
39, ,PASS, ,0.09956279199999998, ,0.06082530517935857, ,0.03789046228549621, ,0.0012610029595125946, ,0.9166666666666666, ,0.680245288540938, ,0.4281341197118426, ,0.056386604355013165
40, ,PASS, ,0.05306537000000004, ,0.043961300301519714, ,0.03790918215730291, ,0.0004902173220909902, ,0.9166666666666666, ,0.8004040605183471, ,0.42829738168608805, ,0.12375257647803106
41, ,PASS, ,0.061865395999999975, ,0.04362745775294729, ,0.038166643904206037, ,0.0005645012309036232, ,0.9166666666666666, ,0.7320631811561857, ,0.42821575069896534, ,0.10322238321666904
42, ,PASS, ,0.10000562699999999, ,0.06130049808866016, ,0.03741689071573723, ,0.0012765419313381322, ,0.9166666666666666, ,0.6803031868799507, ,0.4281137119650619, ,0.05697842901165282
43, ,PASS, ,0.05574828400000002, ,0.04529115462534579, ,0.03781053285218669, ,0.0005301299311365563, ,0.8333333333333334, ,0.7906123065430425, ,0.42829738168608805, ,0.1291606293749107
44, ,PASS, ,0.05762430000000002, ,0.04280678177787344, ,0.03803317321299565, ,0.000516147079556472, ,0.9166666666666666, ,0.7543909834723194, ,0.4281545274586233, ,0.13430338156364155
45, ,PASS, ,0.091091298, ,0.05937460641717067, ,0.03748707395173568, ,0.0011271685887886873, ,0.9166666666666666, ,0.7030837078332102, ,0.42823615844574603, ,0.08463092589947144
46, ,PASS, ,0.04512664999999995, ,0.03684478773410975, ,0.038403504975816814, ,0.0003494807939897466, ,0.8333333333333334, ,0.7905859697748755, ,0.4284606436603335, ,0.10948756147833717
47, ,PASS, ,0.05766565000000002, ,0.042172635985128916, ,0.03811776246688843, ,0.0005086639101869251, ,0.9166666666666666, ,0.7466683976017608, ,0.4285014591538948, ,0.12450766310891614
48, ,PASS, ,0.09174801699999999, ,0.0596106380443717, ,0.037341029159017165, ,0.0011395795383789117, ,0.9166666666666666, ,0.7017906313510683, ,0.42823615844574603, ,0.08222281177935144
49, ,PASS, ,0.047719469999999965, ,0.03861293330699274, ,0.03829148778780024, ,0.00038707039887660345, ,0.8333333333333334, ,0.7870508188386447, ,0.4275627028019836, ,0.10695700087753311
50, ,PASS, ,0.05940444799999999, ,0.04344579826013152, ,0.0380587477510663, ,0.0005397788770171508, ,0.9166666666666666, ,0.7474188072596549, ,0.42866472112814025, ,0.12863002795861309
51, ,PASS, ,0.09281946399999998, ,0.0609822035784112, ,0.03727489454266852, ,0.0011800745895251966, ,0.9166666666666666, ,0.7063078959868654, ,0.42819534295218464, ,0.08795738862472194
52, ,PASS, ,0.04708342, ,0.038149321781637276, ,0.038190010608354925, ,0.00037749825705473837, ,0.8333333333333334, ,0.7896708004226355, ,0.4279504499908165, ,0.0951205077447399
53, ,PASS, ,0.05922441900000001, ,0.04410349785837589, ,0.03794687619048591, ,0.000546237445256118, ,0.9166666666666666, ,0.7540877874396971, ,0.4284810514071141, ,0.1395481724862758
54, ,PASS, ,0.090577045, ,0.060886175662827856, ,0.03731183256023755, ,0.0011497870251276046, ,0.9166666666666666, ,0.7144726019332888, ,0.42837901267321077, ,0.10018162894634804
55, ,PASS, ,0.044105019999999974, ,0.03613013697976047, ,0.03836004309626334, ,0.0003346772072485251, ,0.8333333333333334, ,0.7921229368581466, ,0.428807575355605, ,0.10575294381747312
56, ,PASS, ,0.060580481999999984, ,0.04492703576863772, ,0.03791206851594865, ,0.0005692308448623417, ,0.9166666666666666, ,0.7533878105334941, ,0.42862390563457886, ,0.13562988510438562
57, ,PASS, ,0.09150027600000002, ,0.061636343294263894, ,0.03722610443180629, ,0.0011758641002500984, ,0.9166666666666666, ,0.7147255704593859, ,0.42862390563457886, ,0.10216118038407379
58, ,PASS, ,0.04708386999999997, ,0.03816274750803338, ,0.03814883054039713, ,0.0003770914259112859, ,0.8333333333333334, ,0.7886417880659604, ,0.42874635211526296, ,0.09610007959021244
59, ,PASS, ,0.066329153, ,0.048467630643250194, ,0.03775032081267729, ,0.0006720737550646104, ,0.9166666666666666, ,0.7469397164799613, ,0.4288483908491663, ,0.12924226036203343
60, ,PASS, ,0.09660485399999996, ,0.06393144614227055, ,0.03713564093948409, ,0.0012874682803040802, ,0.9166666666666666, ,0.7080013042313353, ,0.4285422746474562, ,0.09175322952592804
61, ,PASS, ,0.05235429000000004, ,0.04284297851733434, ,0.03780586445766413, ,0.00047073694546166715, ,0.8333333333333334, ,0.793531270115714, ,0.42874635211526296, ,0.10171220995489888
198, ,PASS, ,0.10158170999999999, ,0.07615827238285852, ,0.0342528595849746, ,0.0016958234699812724, ,0.9166666666666666, ,0.8757973089613486, ,0.4384196240893043, ,0.05059080426930063
199, ,PASS, ,0.05539095100000001, ,0.03986651464852066, ,0.037713388072692394, ,0.0004967316100905998, ,0.9166666666666666, ,0.8633899409274903, ,0.4343380747331687, ,0.04350931613640538
200, ,PASS, ,0.05509157099999999, ,0.033026022539913935, ,0.038041555681924855, ,0.0004132307691864341, ,0.9166666666666666, ,0.8290815581685183, ,0.4356441705271321, ,0.029672863819105732
201, ,PASS, ,0.051407929999999984, ,0.032290457763964706, ,0.0382517827995347, ,0.00037599752255889295, ,0.9166666666666666, ,0.8307264711488151, ,0.43492989938980836, ,0.030652435664578273
202, ,PASS, ,0.056032363999999994, ,0.03396834431359732, ,0.03801917399400012, ,0.00043096480720659035, ,0.9166666666666666, ,0.828760972825645, ,0.43570539376747414, ,0.02948919409807963
203, ,PASS, ,0.05301199999999998, ,0.033215919247533726, ,0.03811640442705251, ,0.0003994659004458727, ,0.9166666666666666, ,0.8327773944023112, ,0.4344401134670721, ,0.029427970857737597
204, ,PASS, ,0.06032701700000001, ,0.03680456679583876, ,0.037717752830432036, ,0.0005016360500256526, ,0.9166666666666666, ,0.8284065610895865, ,0.4358278402481582, ,0.03020346523540336
205, ,PASS, ,0.05822437500000002, ,0.035902782242731635, ,0.03781261874502561, ,0.00047173356135092045, ,0.9166666666666666, ,0.8347981689611499, ,0.4361951796902104, ,0.03028509622252607
206, ,PASS, ,0.06809734599999999, ,0.04235831789524248, ,0.03718649360323258, ,0.0006489803353908496, ,0.9166666666666666, ,0.8279432089083002, ,0.4359706944756229, ,0.030468765943552172
207, ,PASS, ,0.06733935499999999, ,0.043185681634099644, ,0.03717975922046488, ,0.0006524982065853952, ,0.9166666666666666, ,0.8405427565521325, ,0.43633803391767517, ,0.032713618089426744
208, ,PASS, ,0.054470995, ,0.03274833232444256, ,0.03816212359666129, ,0.00040493161400515345, ,0.9166666666666666, ,0.8279846048675144, ,0.435460500806106, ,0.029570825085202344
209, ,PASS, ,0.05678012400000004, ,0.03536624641563209, ,0.037961827843513395, ,0.00045563641194063854, ,0.9166666666666666, ,0.8288011450609359, ,0.43452174445419484, ,0.030876920879165732
210, ,PASS, ,0.050003580000000006, ,0.029983877620937776, ,0.038430602309952856, ,0.00034171966808387185, ,0.9166666666666666, ,0.8235862007911928, ,0.43448092896063345, ,0.027999428583090142
211, ,PASS, ,0.05283745999999997, ,0.03252765955009767, ,0.038231201587110464, ,0.00039048023096153003, ,0.9166666666666666, ,0.8263804334067881, ,0.4345421522009755, ,0.027591273647476582
212, ,PASS, ,0.05890566700000005, ,0.03577330582478721, ,0.0377852001427726, ,0.0004780799150609072, ,0.9166666666666666, ,0.8296580556599348, ,0.43533805432542194, ,0.029040223668904717
213, ,PASS, ,0.0708621064, ,0.0453249412807364, ,0.03700164896104161, ,0.000722926935338124, ,0.9166666666666666, ,0.8355480741877511, ,0.4355625395400094, ,0.03371359768167997
214, ,PASS, ,0.06589140800000003, ,0.03980642681071303, ,0.037327008069141444, ,0.0005928297191848493, ,0.9166666666666666, ,0.8342656646052712, ,0.43625640293055246, ,0.029325932123834206
215, ,PASS, ,0.07404897358000001, ,0.046153771728175745, ,0.0367879898447097, ,0.0007662829361416923, ,0.9166666666666666, ,0.840453386266127, ,0.43725638252280563, ,0.031815677231076915
216, ,PASS, ,0.062139078, ,0.03677796816780442, ,0.03766306691996082, ,0.0005173053845316626, ,0.9166666666666666, ,0.8313867291410426, ,0.4367870043468501, ,0.02653007081488133
217, ,PASS, ,0.07634725810000002, ,0.04870453336328647, ,0.0365932645338185, ,0.000836905951703308, ,0.9166666666666666, ,0.8379815070614783, ,0.43586865574171957, ,0.034285014591538945
218, ,PASS, ,0.06981522717999998, ,0.04186395766811236, ,0.03724019712442603, ,0.0006583527181646164, ,0.9166666666666666, ,0.8402647889244373, ,0.43772576069876123, ,0.03328503499928573
219, ,PASS, ,0.07249769741999999, ,0.044536263996345735, ,0.03696558621305687, ,0.0007288622404586676, ,0.9166666666666666, ,0.8361248978736169, ,0.4363788494112365, ,0.032958511050794885
220, ,PASS, ,0.04578704999999999, ,0.02680322339185058, ,0.03871036127242301, ,0.0002809908669255234, ,0.8333333333333334, ,0.81614057107257, ,0.4339707352911165, ,0.025713760943654212
221, ,PASS, ,0.050685849999999956, ,0.030709658961585513, ,0.03831438008387584, ,0.00035560401809034165, ,0.9166666666666666, ,0.8282970246413193, ,0.4341748127589233, ,0.027550458153915228
222, ,PASS, ,0.043504920000000016, ,0.02483989761288684, ,0.038941024424195426, ,0.0002483115687117441, ,0.8333333333333334, ,0.8153428021843552, ,0.43403195853145854, ,0.025774984183996246
223, ,PASS, ,0.057530321999999995, ,0.03442500607082668, ,0.037965856391910364, ,0.0004521723121482478, ,0.9166666666666666, ,0.8281304466443135, ,0.4346441909348789, ,0.02661170180200404
224, ,PASS, ,0.0761703514, ,0.04561078530179024, ,0.036807090666482724, ,0.0007842485349898061, ,0.9166666666666666, ,0.8375453656360532, ,0.4371543437889023, ,0.03152996877614742
225, ,PASS, ,0.06656048900000004, ,0.03913462793790353, ,0.03735858619973061, ,0.0005924764120659027, ,0.9166666666666666, ,0.8341729351533712, ,0.4360115099691843, ,0.02908103916246607
226, ,PASS, ,0.065903976, ,0.03739740866587723, ,0.03755747549727556, ,0.0005618666411645102, ,0.9166666666666666, ,0.8315498847716174, ,0.43650129589192055, ,0.02869329197363319
227, ,PASS, ,0.08623237900000003, ,0.05324821513990108, ,0.03605003155576417, ,0.0010295720000358724, ,0.9166666666666666, ,0.8463190326389352, ,0.43788902267300667, ,0.034285014591538945
228, ,PASS, ,0.06911787125999998, ,0.03992796881368878, ,0.037335279395134785, ,0.000627440555638099, ,0.9166666666666666, ,0.836819178264515, ,0.43699108181465685, ,0.029570825085202344
229, ,PASS, ,0.06714667200000002, ,0.03972820750804388, ,0.037444182048999, ,0.0006075286364575266, ,0.9166666666666666, ,0.8373102558269395, ,0.4359298789820616, ,0.029570825085202344
230, ,PASS, ,0.053874404999999986, ,0.029912994449855013, ,0.038342657996571494, ,0.00037140605995748767, ,0.9166666666666666, ,0.8223011479743368, ,0.4346850064284402, ,0.02342809330421828
231, ,PASS, ,0.08269930400000003, ,0.04895014463238981, ,0.03645083800706108, ,0.0009125492757732659, ,0.9166666666666666, ,0.8461971869540925, ,0.43821554662149753, ,0.029019815922124038
232, ,PASS, ,0.06488351899999997, ,0.03508931276890291, ,0.0378065003978082, ,0.0005248977107582054, ,0.9166666666666666, ,0.834795841355102, ,0.43621558743699107, ,0.02681577926981082
233, ,PASS, ,0.07336337758, ,0.040125260543596615, ,0.03738825487865553, ,0.0006773344847200215, ,0.9166666666666666, ,0.8416507437766892, ,0.43688904308075344, ,0.024917858819207772
234, ,PASS, ,0.08483071300000003, ,0.045452978794993874, ,0.036801722664199094, ,0.000890495846630626, ,0.9166666666666666, ,0.8519061087687101, ,0.4372767902695863, ,0.028387175771923023
235, ,PASS, ,0.13144803999999993, ,0.07554007187542391, ,0.033545543236205386, ,0.002241463173804296, ,0.8333333333333334, ,0.8803081708272964, ,0.4414603783596253, ,0.046958225342339954
