Channel, ,Pass/Fail, ,Amplitude, ,Sorting Function Response, ,Mean, ,Variance
68, ,PASS, ,0.0096698053964866, ,0.008009152583550077, ,0.0005267927253222974, ,1.616474879313433e-05
69, ,PASS, ,0.023401830584356, ,0.02043374114040349, ,0.0012364353003593853, ,9.954296335792708e-05
70, ,PASS, ,0.026799715933436004, ,0.023583637961999845, ,0.0014729362121359841, ,0.00013142882483553942
71, ,PASS, ,0.015113054180657897, ,0.011570742203356136, ,0.0008283045778176406, ,3.649689285522245e-05
72, ,PASS, ,0.0088711745197878, ,0.0067417582230135465, ,0.00032769825265316555, ,1.2372735212909866e-05
73, ,PASS, ,0.022424971707011004, ,0.018454925963904207, ,0.0010507568417580566, ,8.56193847507593e-05
74, ,PASS, ,0.025972868705951002, ,0.021371860128641968, ,0.0011800431222807391, ,0.00011475272061331685
75, ,PASS, ,0.0132249261599498, ,0.010952160840921788, ,0.0006340355997533327, ,2.9965240638398963e-05
76, ,PASS, ,0.008231052916056202, ,0.00674388283137623, ,0.0003744487834076692, ,1.1510709280724233e-05
77, ,PASS, ,0.014878140118765301, ,0.013047075101580733, ,0.000774920494960438, ,4.016545181835253e-05
78, ,PASS, ,0.024503991048731997, ,0.02104149089743854, ,0.00117387038814947, ,0.00010682273570433045
79, ,PASS, ,0.0128857917450131, ,0.011217575370284134, ,0.0006305438499456974, ,2.9980633593109016e-05
80, ,PASS, ,0.0069231298419424, ,0.004570381399342995, ,0.0002513758800057252, ,6.5801540612043495e-06
81, ,PASS, ,0.0164880507334593, ,0.012228781640252387, ,0.000668436634241367, ,4.191097170939234e-05
82, ,FAIL, ,0.00215052414429278, ,0.0001566358506944063, ,1.3715281945538277e-05, ,9.408715908180743e-08
83, ,PASS, ,0.0095698531315441, ,0.00719629566636399, ,0.0003641555686135311, ,1.4321640733792843e-05
84, ,PASS, ,0.0068420301276969995, ,0.004618639853110848, ,0.00018605913416206197, ,6.575471479692794e-06
85, ,PASS, ,0.0159156560301316, ,0.011755490533524317, ,0.0006520833336722938, ,3.887482100467506e-05
86, ,PASS, ,0.0174554888098264, ,0.012972557077204256, ,0.0006801333012258274, ,4.7032026120374126e-05
87, ,PASS, ,0.008992631681540799, ,0.006863774698855583, ,0.00043249623230981525, ,1.2840922196450955e-05
88, ,PASS, ,0.007393314247113001, ,0.004842028810803296, ,0.0002570464694178305, ,7.432382793593142e-06
89, ,PASS, ,0.015319774020671698, ,0.011329393425504269, ,0.0006092401030720945, ,3.604190907257126e-05
90, ,PASS, ,0.0160935841325199, ,0.011894784219602402, ,0.0006296025856303771, ,3.97390280903423e-05
91, ,PASS, ,0.008334032838908302, ,0.006153086915776497, ,0.00037873992868012326, ,1.0658230836559506e-05
92, ,PASS, ,0.007772410682401101, ,0.004266236519611899, ,0.00022328138354664755, ,6.872801078788263e-06
93, ,PASS, ,0.014620481602799797, ,0.009499320636070077, ,0.0004776128680980128, ,2.8769540330964245e-05
94, ,PASS, ,0.0150463451335439, ,0.009702513151833894, ,0.000554517631279224, ,3.0248404932300973e-05
95, ,PASS, ,0.008304954711393801, ,0.005417174286472209, ,0.00027059195944904125, ,9.331290339942502e-06
