Channel, ,Pass/Fail, ,Amplitude, ,Sorting Function Response, ,Mean, ,Variance, ,NPeaksRatio, ,PosIntegralRatio, ,ToT50, ,ToT99
24, ,PASS, ,0.014851969999999985, ,0.0011107284438613928, ,0.04573947487561479, ,1.676997581561519e-05, ,1.75, ,0.5227402631954033, ,0.46511295687843107, ,0.015509887553315239
25, ,PASS, ,0.03718780999999999, ,0.004977626599423408, ,0.045410431877308616, ,0.00018741157526028335, ,1.75, ,0.6721449575761244, ,0.4518683292177711, ,0.009652864227260667
26, ,PASS, ,0.14917785500000008, ,0.02070304372566341, ,0.0678327676614763, ,0.003161834166768996, ,1.6666666666666667, ,0.7638335374420129, ,0.34568682271790374, ,0.0590396114365013
27, ,PASS, ,0.060023639000000024, ,0.009669056265491121, ,0.03412509032168731, ,0.0005836277888638952, ,1.8333333333333333, ,0.7566216688643992, ,0.46623538295136835, ,0.05165200710189588
28, ,PASS, ,0.05196161600000001, ,0.008571826645096934, ,0.03388507332452399, ,0.0004487364422293159, ,1.8333333333333333, ,0.7699699789129882, ,0.46288851247933716, ,0.06497826574967858
29, ,PASS, ,0.029863759999999975, ,0.004941959496848672, ,0.03443142257198832, ,0.00014973891196236623, ,2.0, ,0.77845439658615, ,0.4521336299259199, ,0.0486724760719169
30, ,PASS, ,0.008104720000000017, ,0.0011504593681710617, ,0.03512071787494132, ,9.647892778914137e-06, ,1.75, ,0.7064046610961147, ,0.4372767902695863, ,0.056060080406522314
31, ,PASS, ,0.012697239999999988, ,0.0018929455968788053, ,0.03530874658823289, ,2.433662716563262e-05, ,1.9166666666666667, ,0.724873746234709, ,0.45119487357400867, ,0.0419175118875125
32, ,PASS, ,0.035964170000000004, ,0.005697247022545216, ,0.034566301412216074, ,0.00020650873289197632, ,1.9166666666666667, ,0.7470727676097481, ,0.45982735046223544, ,0.04840717536376809
33, ,PASS, ,0.05594202600000001, ,0.009034426111419303, ,0.034049435206097836, ,0.0005085706950531611, ,1.8333333333333333, ,0.7570205452034204, ,0.4648068406767209, ,0.056447827595355195
34, ,PASS, ,0.06051847999999998, ,0.009950832304746096, ,0.034137920354625415, ,0.0006058106685004367, ,1.8333333333333333, ,0.7659544574248737, ,0.46809248790841, ,0.06032529948368401
35, ,PASS, ,0.053778160000000026, ,0.008825539310989861, ,0.03404038849254097, ,0.00047776190659840523, ,1.75, ,0.7637630359540704, ,0.46117426174976023, ,0.042141997102099954
36, ,PASS, ,0.030771810000000024, ,0.005131741920399434, ,0.03476261653231566, ,0.00015985854957345312, ,2.0, ,0.7873158359520122, ,0.45521519968980223, ,0.06775371931185079
37, ,PASS, ,0.009433200000000006, ,0.0014203392666750363, ,0.0352281437686986, ,1.3761834161760071e-05, ,1.75, ,0.7394327670180249, ,0.4400930593253199, ,0.051427521887308425
38, ,PASS, ,0.01372861999999999, ,0.002079977251328025, ,0.03518515040264484, ,2.8923656474715555e-05, ,1.9166666666666667, ,0.7296446300415242, ,0.4477051488745128, ,0.029223893389930818
39, ,PASS, ,0.03716921999999999, ,0.0058983110335830615, ,0.03497254600681619, ,0.00022015400967184765, ,1.75, ,0.7468389021738846, ,0.47494949082671784, ,0.04610109997755148
40, ,PASS, ,0.056187858000000014, ,0.00902953034496485, ,0.034022000959613066, ,0.0005104437495267287, ,1.8333333333333333, ,0.7550363538207615, ,0.4667251688741046, ,0.05195812330360605
41, ,PASS, ,0.060751630999999987, ,0.010021984849117638, ,0.0341205615400502, ,0.0006117480917972135, ,1.75, ,0.7664805803442178, ,0.4727658619211853, ,0.06518234321748535
42, ,PASS, ,0.053773094000000014, ,0.008927598809087584, ,0.033758544588702276, ,0.0004838452833410662, ,1.8333333333333333, ,0.7709039847848277, ,0.4627456582518724, ,0.06416195587845146
43, ,PASS, ,0.032262880000000035, ,0.00536049905733706, ,0.03423992241117527, ,0.0001753930091777212, ,2.0, ,0.7823196775105385, ,0.4532152405052958, ,0.05777433113609926
44, ,PASS, ,0.010607340000000003, ,0.0016157274638510179, ,0.034989903210750795, ,1.7602980060375346e-05, ,1.8333333333333333, ,0.7424147181385745, ,0.4402563212995653, ,0.05379482051386707
45, ,PASS, ,0.01357164999999998, ,0.002058567014659325, ,0.03509428548988796, ,2.8164449307434625e-05, ,1.9166666666666667, ,0.7216876844256023, ,0.45854166241505273, ,0.049019407767188425
46, ,PASS, ,0.036815, ,0.00575352819339326, ,0.034110240622844436, ,0.00021388829375673866, ,1.9166666666666667, ,0.7461609080629797, ,0.45660292647088835, ,0.040795085814575215
47, ,PASS, ,0.05542222600000002, ,0.008931291935105676, ,0.03450625946582723, ,0.0004965970391565349, ,1.75, ,0.7570553384827596, ,0.47715352747903106, ,0.0519989387971674
48, ,PASS, ,0.06007052199999995, ,0.009717981675373796, ,0.033642518385359484, ,0.0005882006367060251, ,1.8333333333333333, ,0.75719236968363, ,0.4617660864063999, ,0.054386645170506724
49, ,PASS, ,0.054054810999999994, ,0.00890034002217998, ,0.03367188702997898, ,0.00048542621633079503, ,1.9166666666666667, ,0.7666314299978259, ,0.4614599702046897, ,0.06152935654374401
50, ,PASS, ,0.032984650000000004, ,0.005527206340775052, ,0.03402831945041938, ,0.00018404235153713557, ,1.9166666666666667, ,0.7795613387385167, ,0.45454174404603986, ,0.06230485092140977
51, ,PASS, ,0.012876519999999985, ,0.0019117874514780625, ,0.034983873360951816, ,2.5281699614695736e-05, ,1.8333333333333333, ,0.749146417979011, ,0.44107263117079243, ,0.06228444317462909
52, ,PASS, ,0.011397430000000007, ,0.0016278220526637153, ,0.034775608067386374, ,1.882688940286368e-05, ,1.9166666666666667, ,0.6889919400667682, ,0.4455419277157609, ,0.0446929654496847
53, ,PASS, ,0.03352251999999998, ,0.0051342565446885645, ,0.034149273827472904, ,0.00017412436310318904, ,2.0, ,0.734673883986491, ,0.45372543417481276, ,0.051060182445256216
54, ,PASS, ,0.05359397100000003, ,0.008243763175208673, ,0.03362522969139405, ,0.00044560553284344543, ,1.9166666666666667, ,0.7353084196952914, ,0.4564600722434236, ,0.04920307748821453
55, ,PASS, ,0.05837269599999996, ,0.009185856870917896, ,0.033074783566906796, ,0.0005413822035295913, ,1.9166666666666667, ,0.7424798958968177, ,0.4568682271790372, ,0.05522336278851452
56, ,PASS, ,0.05148771700000002, ,0.008194678462702562, ,0.03331985364951736, ,0.00042659229541910427, ,2.0, ,0.7495501865045368, ,0.4572967898614314, ,0.05654986632925859
57, ,PASS, ,0.03136707000000004, ,0.005023960103195076, ,0.0340978303704006, ,0.0001604896092591291, ,1.9166666666666667, ,0.7587579404554998, ,0.4491540988959409, ,0.05930491214465011
58, ,PASS, ,0.01112494000000001, ,0.0014587659217676417, ,0.034965226723740334, ,1.681349276457043e-05, ,1.75, ,0.6727334545950133, ,0.4371135282953409, ,0.0403461153854003
59, ,PASS, ,0.012280739999999991, ,0.001727563249201362, ,0.03483745513581355, ,2.1597499849008826e-05, ,1.8333333333333333, ,0.6921317123150518, ,0.4450113262994633, ,0.05046835778861656
60, ,PASS, ,0.03505420000000001, ,0.005401479241819136, ,0.03406176684577866, ,0.0001915442902014469, ,2.0, ,0.7352531419591961, ,0.4547458215138467, ,0.04177465766004775
61, ,PASS, ,0.053454379000000024, ,0.008315136832980267, ,0.033422019053896856, ,0.00044825198121082677, ,1.9166666666666667, ,0.737488968873143, ,0.45964368074120937, ,0.04638680843248097
62, ,PASS, ,0.05808190999999995, ,0.009256387496236113, ,0.03402660511918124, ,0.0005416019293879059, ,1.8333333333333333, ,0.7421559862136595, ,0.47619436338033916, ,0.05463153813187486
63, ,PASS, ,0.051606382000000006, ,0.008255596478010264, ,0.033422561246505174, ,0.00043056535644110574, ,2.0, ,0.7520524227011385, ,0.45617436378849413, ,0.05987632905450909
64, ,PASS, ,0.03308565000000001, ,0.005318418622057915, ,0.033981854837656374, ,0.00017862221408218126, ,2.0, ,0.7567640387962373, ,0.45162343625640294, ,0.05448868390441011
65, ,PASS, ,0.013100989999999979, ,0.0017566724581129754, ,0.034680287511479356, ,2.3699090039128125e-05, ,1.75, ,0.6717526165491435, ,0.44115426215791514, ,0.03689720617946572
66, ,PASS, ,0.01031089000000002, ,0.0014727154381446567, ,0.03501481230668761, ,1.5512753306464858e-05, ,1.8333333333333333, ,0.7041635350539169, ,0.44954184608477377, ,0.05130507540662436
67, ,PASS, ,0.03179779, ,0.0048004819707204585, ,0.03411671362237505, ,0.0001544551797559283, ,2.0, ,0.7237049791887328, ,0.4593579722862799, ,0.04465214995612334
68, ,PASS, ,0.04903782, ,0.007473376907710352, ,0.03304285279096345, ,0.00037105549580063407, ,2.0, ,0.7278424643797299, ,0.4531132017713924, ,0.05530499377563723
69, ,PASS, ,0.05456235100000002, ,0.008366156612371882, ,0.03290429994367462, ,0.0004620519642585928, ,2.0, ,0.728986647491361, ,0.4555417236382931, ,0.05332544233791147
70, ,PASS, ,0.048819112, ,0.007616072487429394, ,0.033113014916430275, ,0.0003771206559374552, ,2.0, ,0.7415109609069684, ,0.4518479214709904, ,0.052774433174833164
71, ,PASS, ,0.030621679999999995, ,0.004783085996291575, ,0.034086007718617986, ,0.0001490800139667512, ,1.9166666666666667, ,0.7514103931257824, ,0.44784800310197753, ,0.043346054162159954
72, ,PASS, ,0.013993129999999982, ,0.0017521264618338805, ,0.03452100586722719, ,2.5349083030270434e-05, ,1.75, ,0.6376462363532519, ,0.436093140956307, ,0.03938695128670843
73, ,PASS, ,0.010903760000000012, ,0.0014206315601799188, ,0.03489771327421889, ,1.591618045013599e-05, ,1.75, ,0.6556019995871872, ,0.4413583396257219, ,0.03991755270300606
74, ,PASS, ,0.031235469999999998, ,0.004540788847570037, ,0.03387234561110998, ,0.00014399082724756473, ,1.9166666666666667, ,0.7070518005549155, ,0.4501132629946328, ,0.047019448582681984
75, ,PASS, ,0.047352869999999984, ,0.007113892878409009, ,0.03308715733025856, ,0.00034051970971129045, ,1.9166666666666667, ,0.7176769176927474, ,0.45364380318769004, ,0.04797861268137385
76, ,PASS, ,0.007006150000000003, ,0.00020038108166902188, ,0.03534856226974959, ,1.6826941864614943e-06, ,0.6666666666666666, ,0.2021551158797891, ,0.48417379237158426, ,0.010203873390338973
77, ,PASS, ,0.047416609999999984, ,0.007346025136564238, ,0.03359512691945062, ,0.00035147294692939, ,2.0, ,0.7361581539469716, ,0.4634191138956348, ,0.05114181343237893
78, ,PASS, ,0.031209399999999998, ,0.004843328876378826, ,0.034093459899593885, ,0.00015296139020463023, ,2.0, ,0.7415055087206955, ,0.46001102018326157, ,0.05538662476275994
79, ,PASS, ,0.015218989999999988, ,0.0018908495870004105, ,0.03445365029652456, ,2.9747404202038907e-05, ,1.75, ,0.633813587342041, ,0.43650129589192055, ,0.04187669639395114
80, ,PASS, ,0.01144731000000002, ,0.0015513216087239038, ,0.03489402467786371, ,1.815428601723533e-05, ,1.75, ,0.6763223448753037, ,0.4439705312136487, ,0.030264688475745392
81, ,PASS, ,0.029975509999999973, ,0.004456428158536712, ,0.0342247596114365, ,0.0001357226859071576, ,1.9166666666666667, ,0.7172682311738581, ,0.45001122426072937, ,0.046203138711454865
82, ,PASS, ,0.04574547999999998, ,0.0068760504625409915, ,0.033299298766963935, ,0.0003188570019496069, ,1.9166666666666667, ,0.7201925072069, ,0.4529703475439277, ,0.05001938735944164
83, ,PASS, ,0.05077268400000004, ,0.007590344878809128, ,0.032880439888573705, ,0.0003908988079405253, ,1.9166666666666667, ,0.7170063082834588, ,0.45117446582722803, ,0.05332544233791147
84, ,PASS, ,0.04652122, ,0.007139537778052088, ,0.03313078016224159, ,0.0003373574644618633, ,1.9166666666666667, ,0.7325686461474669, ,0.4491540988959409, ,0.049835717638415544
85, ,PASS, ,0.03134525, ,0.004790500379065335, ,0.03412615738189016, ,0.0001528751790308342, ,1.9166666666666667, ,0.7330214449475297, ,0.4572151588743087, ,0.04777453521356707
86, ,PASS, ,0.01569918999999999, ,0.0018911769395655808, ,0.03446526412603824, ,3.0738328096649997e-05, ,1.75, ,0.6199821177219053, ,0.4376441297116385, ,0.03883594212363013
87, ,PASS, ,0.008187740000000013, ,0.0009720654736076052, ,0.0350234137378829, ,8.234887179377212e-06, ,1.75, ,0.6105675576466371, ,0.43568498602069344, ,0.039897144956225386
88, ,PASS, ,0.025437569999999996, ,0.003466384918886111, ,0.03417173500275505, ,9.029802849648479e-05, ,1.8333333333333333, ,0.6774375306388841, ,0.4418481255484582, ,0.04671333238097182
89, ,PASS, ,0.040049770000000026, ,0.005653294523831953, ,0.03338159274892349, ,0.00023037482111692994, ,1.9166666666666667, ,0.6887081968692522, ,0.4477663721148548, ,0.04875410705903961
90, ,PASS, ,0.04541348999999997, ,0.006478720984611174, ,0.03319033550478561, ,0.000298154882507989, ,2.0, ,0.6917344401405068, ,0.45548050039795107, ,0.04546845982735046
91, ,PASS, ,0.041280530000000024, ,0.005896483274351256, ,0.03350761514744597, ,0.00024709158508777815, ,1.8333333333333333, ,0.6874090765485601, ,0.4605620293463399, ,0.05085610497744944
92, ,PASS, ,0.027729249999999997, ,0.0038610731736277663, ,0.0339276933529928, ,0.00010992746200054606, ,1.8333333333333333, ,0.6923560617262695, ,0.44282769739393074, ,0.040693047080671826
93, ,PASS, ,0.013598279999999976, ,0.001539035234191228, ,0.03457797174629089, ,2.1755497977804277e-05, ,1.75, ,0.5765627298263557, ,0.4354809085528867, ,0.039591028754515215
94, ,PASS, ,0.010159960000000016, ,0.001226782254403567, ,0.03480232201118344, ,1.275573273832043e-05, ,1.6666666666666667, ,0.6092071718996998, ,0.43992979735107446, ,0.03365237444133793
95, ,PASS, ,0.027008920000000006, ,0.003720197531137147, ,0.03410163054774393, ,0.00010187069504477312, ,1.8333333333333333, ,0.6854577630600208, ,0.44272565866002733, ,0.04752964225219893
96, ,PASS, ,0.040306760000000025, ,0.005693688041377364, ,0.0338382412263015, ,0.00023322682437369272, ,1.8333333333333333, ,0.68511901059438, ,0.46535784983979916, ,0.04891736903328504
97, ,PASS, ,0.04492619999999997, ,0.006426671861311998, ,0.033254641070794476, ,0.00029272883687919227, ,1.9166666666666667, ,0.6947873632620065, ,0.4539499193894002, ,0.04665210914062978
98, ,PASS, ,0.04150109999999999, ,0.005869570425066368, ,0.03321390876778025, ,0.0002479796789681239, ,1.9166666666666667, ,0.6863633028088063, ,0.4476235178873901, ,0.04195832738107386
99, ,PASS, ,0.029215509999999965, ,0.004149613807343911, ,0.03381451014550724, ,0.0001241365430896991, ,1.8333333333333333, ,0.6969009950002535, ,0.44486847207199853, ,0.044856227423930126
100, ,PASS, ,0.014796369999999968, ,0.0017035689445687905, ,0.034634276855370294, ,2.5827970003311786e-05, ,1.6666666666666667, ,0.5807192115497827, ,0.4433378910634477, ,0.034652354033591154
101, ,PASS, ,0.009560240000000012, ,0.001465618090215209, ,0.03524573100487745, ,1.4106857187072864e-05, ,1.75, ,0.7356140279254473, ,0.46333748290851207, ,0.04546845982735046
199, ,FAIL, ,0.008508000000000022, ,0.0005029385344181416, ,0.03527664324360727, ,4.6641605612697865e-06, ,1.4166666666666667, ,0.37613276026957676, ,0.4479500418358809, ,0.020346523540335913
200, ,PASS, ,0.015507519999999973, ,0.0020552340458773167, ,0.034904888171261805, ,3.5290141488011705e-05, ,2.0, ,0.7741402751562033, ,0.4476847411277321, ,0.002142813411971184
201, ,FAIL, ,0.030036979999999967, ,0.0020455700772806476, ,0.03390567565519071, ,6.594524779476385e-05, ,1.5, ,0.3908078717329768, ,0.4270525091324667, ,0.018754719291443032
202, ,PASS, ,0.02500807999999999, ,0.003922189195478554, ,0.03416510717311892, ,0.00010711501279006753, ,1.8333333333333333, ,0.8271720836743958, ,0.4365625191322626, ,0.02632599334707455
203, ,FAIL, ,0.03174578000000003, ,0.0021360684280979265, ,0.03393634875859676, ,7.09443164979888e-05, ,1.25, ,0.3755220161399412, ,0.43448092896063345, ,0.018203710128364727
204, ,PASS, ,0.04969974399999999, ,0.008137557933662444, ,0.03268894793371564, ,0.00041831592361591736, ,1.9166666666666667, ,0.8521340990097944, ,0.4447052100977531, ,0.031407522295463355
205, ,FAIL, ,0.079915751, ,0.005995926919743678, ,0.030266601378135142, ,0.0005049334186296499, ,1.4166666666666667, ,0.4104458848077551, ,0.42939940001224464, ,0.02244852145874574
206, ,PASS, ,0.058384162, ,0.00889493957339512, ,0.032414433884410516, ,0.0005512684048591952, ,1.8333333333333333, ,0.8385725337154533, ,0.44952143833799313, ,0.030223872982184038
207, ,FAIL, ,0.07981049499999998, ,0.005979423080313039, ,0.03028024592416481, ,0.0005040314243044522, ,1.3333333333333333, ,0.41033171520928896, ,0.4281545274586233, ,0.022489336952307096
208, ,PASS, ,0.055845769000000024, ,0.007736801413492459, ,0.03237440562661987, ,0.0004663416613753946, ,1.8333333333333333, ,0.8235307832986001, ,0.44652149956123344, ,0.027142303218301668
209, ,PASS, ,0.051284351, ,0.0071472610114264035, ,0.03248948588518602, ,0.00039965747996843266, ,1.8333333333333333, ,0.8238231017459388, ,0.4404603987673721, ,0.027774943368502683
210, ,PASS, ,0.050757872999999995, ,0.006785280173291189, ,0.03290360790943042, ,0.000377730309428002, ,1.8333333333333333, ,0.8159144686655261, ,0.4455215199689802, ,0.030652435664578273
211, ,PASS, ,0.052256602, ,0.007101529931058401, ,0.03248931205444787, ,0.0004058036865468515, ,1.9166666666666667, ,0.8275269108623775, ,0.44076651496908226, ,0.02920348564315014
212, ,PASS, ,0.05888077000000003, ,0.008097986467041778, ,0.0327916016828228, ,0.0005057444923095394, ,1.9166666666666667, ,0.82117529644029, ,0.4627456582518724, ,0.025162751780575907
213, ,PASS, ,0.07256643499999998, ,0.010092854570327296, ,0.03166675579641232, ,0.0007699412574286436, ,1.9166666666666667, ,0.8296005689088455, ,0.4556029468786351, ,0.02691781800371421
214, ,PASS, ,0.07004553, ,0.009758064550941047, ,0.03189356160874268, ,0.000718687602245157, ,1.9166666666666667, ,0.8270668981810096, ,0.45584783984000327, ,0.025162751780575907
215, ,PASS, ,0.07962343600000003, ,0.010959881219739018, ,0.030543525443215442, ,0.0009396846774723597, ,1.8333333333333333, ,0.8338903627174696, ,0.4458276361706904, ,0.03126466806799861
216, ,PASS, ,0.06777106409999997, ,0.008852327027511538, ,0.03146060889634905, ,0.0006528440386861974, ,1.8333333333333333, ,0.8231148867792978, ,0.44407256994755206, ,0.02632599334707455
217, ,PASS, ,0.07026757699999994, ,0.009523672991131051, ,0.03131211405685599, ,0.0007212947842115166, ,1.8333333333333333, ,0.8354565292836845, ,0.44829697353115244, ,0.025326013754821332
218, ,PASS, ,0.07345252800000002, ,0.009795956792831174, ,0.031120766438031883, ,0.0007764368215716393, ,1.8333333333333333, ,0.8312323474085969, ,0.4459908981449358, ,0.025162751780575907
219, ,PASS, ,0.07198835599999999, ,0.009993922495045693, ,0.031170051201608134, ,0.0007597296949760257, ,1.8333333333333333, ,0.8339391343520671, ,0.4444399093896043, ,0.027387196179669802
220, ,PASS, ,0.04501775800000001, ,0.005902473096532299, ,0.03299697425317851, ,0.0002932677772784579, ,1.8333333333333333, ,0.8132623966478326, ,0.43911348747984735, ,0.02244852145874574
221, ,PASS, ,0.049703702999999974, ,0.006667777928476993, ,0.03289423692210364, ,0.0003634263509107559, ,1.9166666666666667, ,0.817157421841497, ,0.4497867390461419, ,0.022305667231280996
222, ,PASS, ,0.043595170000000016, ,0.005766417488154245, ,0.03294795453705026, ,0.0002780436348491851, ,1.9166666666666667, ,0.8167656780773677, ,0.43772576069876123, ,0.021183241158343708
223, ,PASS, ,0.05362648800000001, ,0.007906819890535969, ,0.03284434193322586, ,0.0004486927652385503, ,1.8333333333333333, ,0.8317942281027814, ,0.4552356074365829, ,0.02067304748882676
224, ,PASS, ,0.04254788000000002, ,0.005990374097093407, ,0.033035949206954955, ,0.00027990206927338965, ,1.8333333333333333, ,0.827908054152864, ,0.43939919593477683, ,0.021183241158343708
225, ,PASS, ,0.030355329999999986, ,0.004192707444425588, ,0.034066406360686516, ,0.0001359864924978063, ,1.8333333333333333, ,0.795859395355162, ,0.44490928756555986, ,0.017407808003918286
226, ,PASS, ,0.031193769999999968, ,0.004189130853157345, ,0.03369735868859819, ,0.00014426097690514072, ,1.8333333333333333, ,0.7983509269408622, ,0.4338278810636518, ,0.01616293545029693
227, ,FAIL, ,0.02586686999999999, ,0.002778977406929987, ,0.034252862322809746, ,8.0089852072192e-05, ,1.8333333333333333, ,0.7334462541696627, ,0.4326850472439338, ,0.002938715536417624
228, ,FAIL, ,0.02155515000000002, ,0.0023166300783771677, ,0.03451633202118324, ,5.55723365379008e-05, ,1.9166666666666667, ,0.7380009358133182, ,0.43246056202934635, ,0.0010407950858145752
