Channel, ,Pass/Fail, ,Amplitude, ,Sorting Function Response, ,Mean, ,Variance, ,NPeaksRatio, ,PosIntegralRatio, ,ToT50, ,ToT99
0, ,PASS, ,0.03444432, ,0.003448232724319161, ,0.026643606966796594, ,0.00012044272487335541, ,1.3333333333333333, ,0.4774592110867177, ,0.44668476153547887, ,0.044937858411052835
1, ,PASS, ,0.03415632, ,0.003417611528428932, ,0.026981155252341786, ,0.00011835466701381881, ,1.3333333333333333, ,0.48260331753214647, ,0.4380114691536907, ,0.04787657394747046
2, ,PASS, ,0.034272049999999984, ,0.0034206476520262023, ,0.02689975609497765, ,0.00011895744774650481, ,1.3333333333333333, ,0.5043954707874292, ,0.4142160364074203, ,0.04618273096467419
3, ,PASS, ,0.034485959999999996, ,0.0034457416080411504, ,0.0268613380482031, ,0.00012048615522797744, ,1.3333333333333333, ,0.47792923894909245, ,0.43921552621375076, ,0.040856309054917245
4, ,PASS, ,0.041528741000000015, ,0.004299347430809263, ,0.026899722475745392, ,0.00018085408420629497, ,1.5833333333333333, ,0.5229259000017731, ,0.45501112222199547, ,0.053488704312156896
5, ,PASS, ,0.06040505130000001, ,0.0066249327801839505, ,0.026433471632505458, ,0.00040502191458741176, ,1.8333333333333333, ,0.580006747919941, ,0.4627252505050917, ,0.05214179302463215
