Channel, ,Pass/Fail, ,Amplitude, ,Sorting Function Response, ,Mean, ,Variance, ,NPeaksRatio, ,PosIntegralRatio, ,ToT50, ,ToT99
71, ,PASS, ,0.05042146300000001, ,0.008119414538767281, ,0.037855546935960493, ,0.00041910576861009405, ,1.9166666666666667, ,0.7994912669484096, ,0.5570906716189465, ,0.07308014122160772
72, ,PASS, ,0.06615014860000001, ,0.010420535436520323, ,0.038290829028142286, ,0.0007012341938307148, ,1.9166666666666667, ,0.7811982729862323, ,0.5519479194302157, ,0.07516173139323687
73, ,PASS, ,0.048959247, ,0.008029953217121022, ,0.03757643734136038, ,0.0004006815524604215, ,1.9166666666666667, ,0.7973669703059563, ,0.5531927919838371, ,0.07591681802412195
74, ,PASS, ,0.044943566000000004, ,0.006450807309061884, ,0.037727162363217076, ,0.0002973393924590155, ,1.75, ,0.7630107552737874, ,0.5604579498377584, ,0.07199853064223179
75, ,PASS, ,0.061899891, ,0.00902071038529032, ,0.038449206118711866, ,0.0005682020393208545, ,1.9166666666666667, ,0.755432258217148, ,0.5545601110181425, ,0.06752923409726332
76, ,PASS, ,0.041920390000000016, ,0.00614607704584966, ,0.03739780411318137, ,0.0002630197400378422, ,1.8333333333333333, ,0.7626352923632665, ,0.5564580314687455, ,0.07877390257341686
77, ,PASS, ,0.045304596000000016, ,0.006797384801588503, ,0.03779053517662905, ,0.0003154542938983109, ,1.75, ,0.7754644586829328, ,0.5593355237648211, ,0.07356992714434399
78, ,PASS, ,0.06215293400000002, ,0.009352148825435874, ,0.03815404435301321, ,0.0005907237463575281, ,1.9166666666666667, ,0.7641072234975314, ,0.5514989490010408, ,0.07779433072794432
79, ,PASS, ,0.04211041, ,0.006324771684863996, ,0.03736562264137467, ,0.00027153029217155824, ,1.8333333333333333, ,0.7696382622493652, ,0.5526621905675394, ,0.07746780677945347
80, ,PASS, ,0.04362071, ,0.006395528071813579, ,0.03777023988041061, ,0.00028592824323312143, ,1.75, ,0.767165518036606, ,0.5601110181424869, ,0.07285565600702026
81, ,PASS, ,0.06059030499999999, ,0.009160858876741122, ,0.03806838903095855, ,0.000563757716393794, ,1.9166666666666667, ,0.76952358421066, ,0.5505397849023489, ,0.08075345401114263
82, ,PASS, ,0.04349538000000001, ,0.0065283648823247255, ,0.03760006401175486, ,0.0002897726537836032, ,1.9166666666666667, ,0.7711947118212529, ,0.5575396420481215, ,0.08075345401114263
83, ,PASS, ,0.04257118, ,0.006268623963297667, ,0.037763399170629174, ,0.00027337920468078575, ,1.75, ,0.7656846062295793, ,0.5599273484214607, ,0.062141588947164345
84, ,PASS, ,0.06070019599999999, ,0.009089771989489221, ,0.03821729099538785, ,0.0005610646474333637, ,1.9166666666666667, ,0.7629301077985304, ,0.5533356462113018, ,0.07075365808861044
85, ,PASS, ,0.04388574000000001, ,0.006577891781469239, ,0.03765011556253954, ,0.00029418808576175146, ,1.8333333333333333, ,0.7717401392494642, ,0.5568049631640171, ,0.08205954980510602
86, ,PASS, ,0.04363741, ,0.006704684072602458, ,0.03770798027162711, ,0.00029967798565310263, ,1.8333333333333333, ,0.7841137249137851, ,0.5589885920695497, ,0.07573314830309585
87, ,PASS, ,0.06490621540000001, ,0.01015268228710214, ,0.03843567815209894, ,0.0006699447686847354, ,1.9166666666666667, ,0.7779694252076884, ,0.5521111814044611, ,0.07801881594253178
88, ,PASS, ,0.04731270300000002, ,0.00745764277263712, ,0.03766237407926369, ,0.00035940543086130793, ,1.9166666666666667, ,0.7861210564126401, ,0.5549478582069753, ,0.08489622660762025
89, ,PASS, ,0.04134158000000001, ,0.006267312188495299, ,0.03758499251668334, ,0.00026562547302214605, ,1.8333333333333333, ,0.7794472892454207, ,0.5588661455888655, ,0.07259035529887145
90, ,PASS, ,0.0641267516, ,0.009927251378850224, ,0.03832903803057081, ,0.0006471814699505204, ,1.9166666666666667, ,0.7718656961481424, ,0.5520907736576804, ,0.07012101793840941
91, ,PASS, ,0.044934470000000025, ,0.006952797949940006, ,0.03747779310626314, ,0.00031856041021349545, ,1.9166666666666667, ,0.7797835171415584, ,0.5551723434215629, ,0.08063100753045856
92, ,PASS, ,0.04132072000000001, ,0.006551567181308642, ,0.03745195576927002, ,0.00027707889227630286, ,1.9166666666666667, ,0.7897204628173862, ,0.5577845350094897, ,0.06328442276688231
93, ,PASS, ,0.06393699250000003, ,0.010343737547445568, ,0.03802743499520418, ,0.0006714250271055524, ,2.0, ,0.7856924314552564, ,0.5484786024775005, ,0.07861064059917144
94, ,PASS, ,0.04283562999999999, ,0.00687726884536704, ,0.03732553081120794, ,0.00029959567066889064, ,1.9166666666666667, ,0.7862007255471406, ,0.5527438215546622, ,0.07542703210138568
95, ,PASS, ,0.041447416800000005, ,0.006847798764736981, ,0.03741691048794923, ,0.00028986109718553434, ,1.9166666666666667, ,0.8046712525691665, ,0.5555804983571764, ,0.08232485051325483
96, ,PASS, ,0.062414770999999994, ,0.01060076040137127, ,0.03762747849586743, ,0.0006709967324931096, ,2.0, ,0.7972265508321503, ,0.5443562376278035, ,0.0900389787963511
97, ,PASS, ,0.04288047, ,0.007203309499670615, ,0.03722884426603539, ,0.000314156288253547, ,2.0, ,0.7969896820602459, ,0.5500499989796127, ,0.08063100753045856
98, ,PASS, ,0.041289630000000015, ,0.006873606559178356, ,0.03721555951715272, ,0.0002889722229966274, ,1.9166666666666667, ,0.8027504831359781, ,0.5520907736576804, ,0.07899838778800433
99, ,PASS, ,0.06266993200000004, ,0.010623255692081918, ,0.03783588565694578, ,0.0006752849721145222, ,2.0, ,0.7973659622551829, ,0.54635619681231, ,0.09534499295932736
100, ,PASS, ,0.042472199999999995, ,0.007160064231955548, ,0.03712109105222343, ,0.00030885759274299683, ,2.0, ,0.7988084658909423, ,0.5481112630354482, ,0.08897777596375585
101, ,PASS, ,0.04094436000000001, ,0.006651621848904059, ,0.03754912827799433, ,0.0002784469650722841, ,1.9166666666666667, ,0.8010330989885335, ,0.5566212934429909, ,0.0829983061570172
102, ,PASS, ,0.062945612, ,0.010541824470015808, ,0.03771900911900778, ,0.0006729593257861278, ,2.0, ,0.7939863173919207, ,0.5467847594947042, ,0.0887328830023877
103, ,PASS, ,0.041318250000000015, ,0.006839633795983002, ,0.03736539868267995, ,0.0002873214638497385, ,1.9166666666666667, ,0.7968551525303096, ,0.551866288443093, ,0.0846717413930328
198, ,FAIL, ,0.03114106850000002, ,0.0026916868294131666, ,0.037172299021928125, ,8.968078819103982e-05, ,2.0, ,0.7451855072468485, ,0.5797024550519377, ,0.0013469112875247444
199, ,FAIL, ,0.022338715999999995, ,0.0017902485265273, ,0.03675291531311605, ,4.275633685246495e-05, ,2.0, ,0.6966072361908625, ,0.5797840860390604, ,0.0012040570600599988
200, ,PASS, ,0.032518340000000014, ,0.003789513162467731, ,0.03759909213465031, ,0.00013289603230295772, ,2.0, ,0.7965618400537798, ,0.577845350094896, ,0.011632415664986429
201, ,PASS, ,0.07059510980000001, ,0.009677445564762528, ,0.040194735507254956, ,0.000732371343906508, ,2.0, ,0.8816605466572058, ,0.5801514254811126, ,0.05552947899022469
202, ,PASS, ,0.080635517, ,0.01055522485830958, ,0.04085913110622232, ,0.0009167431782382531, ,2.0, ,0.8815375266586565, ,0.5809677353523397, ,0.05501928532070774
203, ,PASS, ,0.07689095700000001, ,0.010397202157092314, ,0.0406210994786433, ,0.0008596031949241898, ,2.0, ,0.8809077008378768, ,0.5803555029489194, ,0.05544784800310198
204, ,PASS, ,0.08409722, ,0.01088780299970046, ,0.04115213448219424, ,0.0009810203648657851, ,2.0, ,0.8823430770858314, ,0.5823350543866451, ,0.0582028938184935
205, ,PASS, ,0.09487213999999998, ,0.012259587305465731, ,0.041882211722268935, ,0.0012505570660254592, ,1.9166666666666667, ,0.8833339599578212, ,0.582090161425277, ,0.05869267974122977
206, ,PASS, ,0.09990844999999995, ,0.012141090309163848, ,0.04208322254967041, ,0.0012977887988652845, ,1.9166666666666667, ,0.8792139142052009, ,0.581967714944593, ,0.057590661415073165
207, ,FAIL, ,0.0012490700000000118, ,0.00012110792187999886, ,0.03566665460970183, ,1.685737483137795e-07, ,2.0, ,0.5796546301470207, ,0.5700904063182384, ,0.00028570845492949124
208, ,PASS, ,0.076716867, ,0.009549240293118317, ,0.04077046569706741, ,0.0007859541712260203, ,2.0, ,0.876199410914954, ,0.5828860635497235, ,0.05497846982714639
209, ,PASS, ,0.07024401899999998, ,0.009651621661230486, ,0.04034923673927063, ,0.0007254998560371995, ,2.0, ,0.8866642551913541, ,0.5806616191506295, ,0.06646803126466806
210, ,PASS, ,0.07029091199999998, ,0.009089777951173383, ,0.04028042067196588, ,0.000685378619951759, ,2.0, ,0.8746243474489341, ,0.5809473276055591, ,0.05326421909756944
211, ,PASS, ,0.07805837500000001, ,0.010362394730688325, ,0.04076712298685742, ,0.0008678980601740556, ,1.9166666666666667, ,0.8782722476839521, ,0.580192240974674, ,0.058141670578151464
212, ,PASS, ,0.08229970699999999, ,0.011574512338339105, ,0.041047067273876046, ,0.0010218780667671354, ,1.9166666666666667, ,0.8864345396477323, ,0.5796412318115957, ,0.06230485092140977
213, ,PASS, ,0.08415026600000003, ,0.01219453695954895, ,0.041190650639056345, ,0.0010924057309452608, ,2.0, ,0.8921283724281452, ,0.5806003959102876, ,0.06881492214444603
214, ,PASS, ,0.04090737999999999, ,0.005324274837557295, ,0.038332544834799295, ,0.00023440475349513563, ,2.0, ,0.8351102339791392, ,0.5775800493867472, ,0.03781555478459623
215, ,FAIL, ,0.028711069999999998, ,0.002835727760477606, ,0.03732842813493602, ,8.89563015060689e-05, ,2.0, ,0.744311843122561, ,0.5782943205240709, ,0.003326462725250505
216, ,PASS, ,0.029095552300000008, ,0.00263565250155683, ,0.03717458296204159, ,8.2204159553143e-05, ,2.0, ,0.7587337751283139, ,0.5787636987000265, ,0.0013060957939633885
