Channel, ,Pass/Fail, ,Amplitude, ,Sorting Function Response, ,Mean, ,Variance, ,NPeaksRatio, ,PosIntegralRatio, ,ToT50, ,ToT99
0, ,PASS, ,0.048793563, ,0.0059011771769216315, ,0.03105660059488582, ,0.00029192694102669176, ,1.75, ,0.6649982569724269, ,0.56321299565315, ,0.05446827615762943
1, ,PASS, ,0.048581479999999996, ,0.00587014686984296, ,0.031121950837942086, ,0.00028933035427214767, ,1.75, ,0.6669525233368606, ,0.5684986020693455, ,0.054753984612558926
2, ,PASS, ,0.05072644999999998, ,0.006108858046699547, ,0.031055524700720392, ,0.0003140655598525776, ,1.75, ,0.6647754604137562, ,0.5583763596661293, ,0.05652945858247791
3, ,PASS, ,0.04976135600000001, ,0.006005606913911569, ,0.03130702652496888, ,0.00030257664007763536, ,1.75, ,0.6677115800762273, ,0.5653762168119018, ,0.06242729740209384
4, ,PASS, ,0.050264725999999996, ,0.006023473298386385, ,0.03092795969796535, ,0.0003067921931246331, ,1.75, ,0.6622003863619074, ,0.5596824554600927, ,0.06330483051366298
5, ,PASS, ,0.056383186339999995, ,0.0067541706987672406, ,0.03139925385543152, ,0.0003861156459530478, ,1.75, ,0.6657471674755798, ,0.5655190710393665, ,0.06530478969816943
6, ,PASS, ,0.19979999999999998, ,0.02900151649922809, ,0.03567157919083285, ,0.005887713188158209, ,1.9166666666666667, ,0.7758760895529968, ,0.563396665374176, ,0.20830187139037978
7, ,PASS, ,0.19979999999999998, ,0.028008554873601658, ,0.036103371808126374, ,0.005684846914934144, ,1.8333333333333333, ,0.7647436917961437, ,0.5660088569621028, ,0.1915471112834432
