Channel, ,Pass/Fail, ,Amplitude, ,Sorting Function Response, ,Mean, ,Variance, ,NPeaksRatio, ,PosIntegralRatio, ,ToT50, ,ToT99
24, ,PASS, ,0.028472040000000018, ,0.003248705183126737, ,0.05041683570518969, ,9.396832119502105e-05, ,1.75, ,0.663275882524155, ,0.630762637497194, ,0.04022366890471623
25, ,PASS, ,0.059410229999999994, ,0.007390999746250881, ,0.05338644893247076, ,0.00044967132924982154, ,1.9166666666666667, ,0.7167762247705445, ,0.6202118324115834, ,0.08877369849594906
26, ,PASS, ,0.05751734, ,0.0072456734907551485, ,0.052977618653088705, ,0.000424444920767487, ,2.0, ,0.7223497539521342, ,0.6353951960164078, ,0.08279422868921042
27, ,PASS, ,0.02800588999999999, ,0.002945009949439125, ,0.051012024422358734, ,8.419148887771504e-05, ,1.6666666666666667, ,0.6360793402025805, ,0.6384767657802902, ,0.044468480235097245
28, ,PASS, ,0.030706770000000015, ,0.0040482372418508385, ,0.05034545453705026, ,0.00012647610359253604, ,1.9166666666666667, ,0.7404337811860495, ,0.627272912797698, ,0.07242709332462603
29, ,PASS, ,0.06013911999999999, ,0.008291631618037783, ,0.053430565973143405, ,0.0005078191322727418, ,1.9166666666666667, ,0.7626463819062215, ,0.6275382135058468, ,0.08812065059896737
30, ,PASS, ,0.0572469, ,0.0079596604209779, ,0.052355928149833676, ,0.0004636355036486903, ,1.9166666666666667, ,0.7663934509969638, ,0.6276402522397502, ,0.09083488092079753
31, ,PASS, ,0.028201240000000016, ,0.003755874144404615, ,0.050506011637517605, ,0.00010745057926132932, ,1.9166666666666667, ,0.7371389842697392, ,0.6205995796004163, ,0.06152935654374401
32, ,PASS, ,0.03543510999999999, ,0.0046971938547776025, ,0.051820239994693984, ,0.0001695161035859144, ,1.9166666666666667, ,0.74183602938327, ,0.6271912818105753, ,0.07946776596395992
33, ,PASS, ,0.061207269999999994, ,0.008357237301642647, ,0.0545849179322871, ,0.0005223439681197969, ,1.9166666666666667, ,0.7590759782849404, ,0.6271300585702333, ,0.07856982510561009
34, ,PASS, ,0.057064169999999956, ,0.007925360667017342, ,0.05340366562845656, ,0.0004607362585732812, ,1.9166666666666667, ,0.7656475171438825, ,0.6275178057590661, ,0.0789371645476623
35, ,PASS, ,0.029551770000000026, ,0.0039100307391298095, ,0.0515001032578927, ,0.00011741245824283417, ,2.0, ,0.7414295660560383, ,0.6272525050509173, ,0.08518193506254974
36, ,PASS, ,0.030993790000000035, ,0.003998147826180488, ,0.05079630861635477, ,0.00012593803436097918, ,1.8333333333333333, ,0.7292189092772747, ,0.6257219240423665, ,0.07414134405420297
37, ,PASS, ,0.058138709999999996, ,0.0076791346971049985, ,0.05423035779739189, ,0.00045605213817073514, ,1.9166666666666667, ,0.7487771286762587, ,0.6364359911022224, ,0.07650864268076162
38, ,PASS, ,0.05574166, ,0.007513094307184065, ,0.05284022122058734, ,0.0004270510611554518, ,1.9166666666666667, ,0.7553728952943601, ,0.6286402318320035, ,0.07801881594253178
39, ,PASS, ,0.027764720000000014, ,0.0035601783785452587, ,0.051215389838370644, ,0.00010040370970023194, ,2.0, ,0.7235816825877779, ,0.6269872043427686, ,0.03577478010652844
40, ,PASS, ,0.03290555, ,0.004015721242244982, ,0.051437663843390956, ,0.00013465433344437568, ,1.9166666666666667, ,0.701121121602945, ,0.6333340135915594, ,0.06273341360380401
41, ,PASS, ,0.05746248999999999, ,0.007345490363429638, ,0.05384314540519581, ,0.00042984994666002055, ,1.9166666666666667, ,0.7272449785402054, ,0.6272933205444787, ,0.0787534948266362
42, ,PASS, ,0.054555059999999996, ,0.007148775452289602, ,0.05397517270831207, ,0.0003959600051774062, ,1.8333333333333333, ,0.7355744820786022, ,0.621762821166915, ,0.0787534948266362
43, ,PASS, ,0.029397620000000027, ,0.0036204951424293474, ,0.05044918191547111, ,0.00010874757599717898, ,1.9166666666666667, ,0.7142159014214623, ,0.6276198444929695, ,0.0667129242260362
44, ,PASS, ,0.03192376000000001, ,0.003972757936380991, ,0.050858257383114634, ,0.00012921160086058655, ,1.9166666666666667, ,0.7119457056453227, ,0.6277422909736536, ,0.07410052856064162
45, ,PASS, ,0.05597632999999997, ,0.007070028110726195, ,0.05322631796738842, ,0.00040234990272138796, ,1.9166666666666667, ,0.720277944335922, ,0.6271096508234526, ,0.07818207791677721
46, ,PASS, ,0.05262778, ,0.006786319183604912, ,0.05211300726781086, ,0.0003661062390378643, ,1.9166666666666667, ,0.7334290552424064, ,0.6227832085059488, ,0.07932491173649517
47, ,PASS, ,0.02975560000000005, ,0.0036471873855383635, ,0.051193716501499974, ,0.00011160799194229672, ,1.9166666666666667, ,0.7112801061753312, ,0.6246199057162098, ,0.050305095814371134
48, ,PASS, ,0.02959312000000002, ,0.0031478240876250266, ,0.050944903576661704, ,9.523596085280248e-05, ,1.6666666666666667, ,0.6391934623134874, ,0.6250688761453848, ,0.05610089590008367
49, ,PASS, ,0.052581399999999986, ,0.005789526655680064, ,0.0526308608885533, ,0.0003099497225074249, ,1.9166666666666667, ,0.6536795146694924, ,0.6251913226260688, ,0.04916226199465317
50, ,PASS, ,0.04935009000000003, ,0.005568106236095685, ,0.05177764979143283, ,0.000280112271065721, ,1.8333333333333333, ,0.66734832656781, ,0.6250280606518235, ,0.05610089590008367
51, ,PASS, ,0.02634194, ,0.0027921756043716305, ,0.05090939237525765, ,7.505633760426314e-05, ,1.75, ,0.6376655090649289, ,0.6253341768535337, ,0.041672618926144364
52, ,PASS, ,0.028511070000000013, ,0.003088249530120817, ,0.05052957226995368, ,8.947509748183739e-05, ,1.6666666666666667, ,0.640711479230642, ,0.6177016795575601, ,0.037019652660149796
53, ,PASS, ,0.05215879000000001, ,0.005807323837052687, ,0.05268997642150161, ,0.00030773783970294074, ,1.9166666666666667, ,0.6615332925338003, ,0.62733413603804, ,0.048692883818697574
54, ,PASS, ,0.04893509000000003, ,0.005488603650832253, ,0.05168409040693048, ,0.000272865759066698, ,1.9166666666666667, ,0.6602837847093167, ,0.6273749515316014, ,0.05120303667272096
55, ,PASS, ,0.02644023000000001, ,0.0028280603895941264, ,0.050899374358890644, ,7.600217121008832e-05, ,1.75, ,0.645124299294389, ,0.6278035142139956, ,0.04028489214505827
56, ,PASS, ,0.028842880000000036, ,0.003347632980017506, ,0.05104396300646926, ,9.81889672020757e-05, ,1.9166666666666667, ,0.6708897162031082, ,0.6272320973041366, ,0.051039774698475544
57, ,PASS, ,0.04974034000000001, ,0.006158631175547949, ,0.05327227372176078, ,0.000311871382553481, ,1.9166666666666667, ,0.7120154691220619, ,0.6272525050509173, ,0.07067202710148772
58, ,PASS, ,0.04738332000000005, ,0.005962053489235525, ,0.05246825479643274, ,0.0002872465698427569, ,2.0, ,0.717223252317219, ,0.6274769902655047, ,0.07083528907573315
59, ,PASS, ,0.024169489999999988, ,0.0029292480936440927, ,0.05168822007816167, ,7.296237762398865e-05, ,1.8333333333333333, ,0.7274666886573982, ,0.6310687536989041, ,0.0641211403848901
60, ,PASS, ,0.027990330000000008, ,0.003138008208445817, ,0.049310887535968656, ,8.966843493762285e-05, ,1.8333333333333333, ,0.6631076220972252, ,0.624803575437236, ,0.0393257280463664
61, ,PASS, ,0.049695860000000036, ,0.005944504764499592, ,0.05162026670496521, ,0.00030287629036724494, ,1.9166666666666667, ,0.700194905832929, ,0.6222934225832126, ,0.07046794963368094
62, ,PASS, ,0.047287030000000035, ,0.005723202677209296, ,0.05218301685618661, ,0.0002778162023345156, ,1.9166666666666667, ,0.708079879121142, ,0.6226403542784841, ,0.0689373686251301
63, ,PASS, ,0.024343279999999988, ,0.0028012609328120506, ,0.048318951582620756, ,7.021545779991633e-05, ,1.8333333333333333, ,0.6755195626648656, ,0.6225179077978, ,0.04583579926940266
64, ,PASS, ,0.025128180000000028, ,0.004149365440328895, ,0.04926210483561559, ,0.00010717238201720659, ,1.9166666666666667, ,0.8474002669176904, ,0.6225179077978, ,0.08393706250892839
65, ,PASS, ,0.04202162000000001, ,0.006368216771288677, ,0.050855379742046077, ,0.0002746673028308471, ,1.9166666666666667, ,0.80955149722974, ,0.6203750943858288, ,0.09514091549152058
66, ,PASS, ,0.039470699999999984, ,0.006125635515845139, ,0.04977411883022796, ,0.0002484049633607543, ,1.9166666666666667, ,0.8229513660106242, ,0.6201914246648027, ,0.09367155772331177
67, ,PASS, ,0.02299339000000001, ,0.003989685664307201, ,0.049774699598783695, ,9.418586244638633e-05, ,1.9166666666666667, ,0.866517670228084, ,0.6179261647721475, ,0.06691700169384299
198, ,PASS, ,0.1998, ,0.04284436566102889, ,0.057968820786514635, ,0.00877398760169687, ,2.0, ,0.9695581730680923, ,0.6270484275831105, ,0.5798861247729639
199, ,PASS, ,0.1998, ,0.03979276202261944, ,0.06097750384563586, ,0.008152698450779304, ,2.0, ,0.9556430643226668, ,0.6351707108018204, ,0.5718046570478154
200, ,PASS, ,0.1998, ,0.04203026047277414, ,0.059327372785045275, ,0.008664148393670069, ,2.0, ,0.9687773330075433, ,0.6330483051366299, ,0.5855186628844309
201, ,PASS, ,0.1998, ,0.04328555745056435, ,0.05917815165649688, ,0.008837476466285079, ,2.0, ,0.9764363007962551, ,0.6335993142997082, ,0.5961510989571641
202, ,PASS, ,0.1998, ,0.04434665212700484, ,0.057101848469215, ,0.008971757104843985, ,2.0, ,0.9776052822494877, ,0.6232934021754658, ,0.5878043305238668
203, ,PASS, ,0.1998, ,0.043358591442098394, ,0.05910422868553711, ,0.008860083642723822, ,2.0, ,0.9773134739561645, ,0.6333748290851207, ,0.5970694475622946
204, ,PASS, ,0.1998, ,0.04259747644016777, ,0.05991728684108496, ,0.008762938933639797, ,2.0, ,0.9761217136243705, ,0.6365788453296871, ,0.5964980306524357
205, ,PASS, ,0.1998, ,0.042658031470912086, ,0.05926800239342062, ,0.00884215366098706, ,2.0, ,0.9769185682084757, ,0.6341503234627864, ,0.5970082243219527
206, ,PASS, ,0.1998, ,0.04377816599604789, ,0.05675467855553976, ,0.008967997443476301, ,2.0, ,0.9762701638412444, ,0.6215383359523275, ,0.5844574600518356
207, ,PASS, ,0.1998, ,0.04229449834527243, ,0.06401361589845113, ,0.00857116666135079, ,2.0, ,0.9779715758607878, ,0.658006979449399, ,0.6211709965102753
208, ,PASS, ,0.1998, ,0.04224974666483778, ,0.0598849432068734, ,0.00880171748864971, ,2.0, ,0.9766420198969767, ,0.6371910777331075, ,0.5997836778841248
209, ,PASS, ,0.1998, ,0.04215042779005937, ,0.060236410976102606, ,0.008776500723380506, ,2.0, ,0.9763794386452755, ,0.6389461439562458, ,0.6010693659313076
210, ,PASS, ,0.1998, ,0.04206037395344478, ,0.06076079752943825, ,0.008733084489404798, ,1.9166666666666667, ,0.9758305263702414, ,0.6414562968102692, ,0.6026815779269811
211, ,PASS, ,0.1998, ,0.04235282169532182, ,0.06009869384992151, ,0.00877921023807088, ,2.0, ,0.9760836762705258, ,0.6382726883124834, ,0.5997428623905634
212, ,PASS, ,0.1998, ,0.042043495166470005, ,0.06020832888390041, ,0.008752176837964086, ,2.0, ,0.9750142441179224, ,0.6387216587416583, ,0.5987836982918716
213, ,PASS, ,0.1998, ,0.041741351851003396, ,0.06105724129711646, ,0.00869466976177139, ,2.0, ,0.9746110027408629, ,0.64298687781882, ,0.6021101610171221
214, ,PASS, ,0.1998, ,0.040825311698275295, ,0.060822232721781264, ,0.008412396907942054, ,2.0, ,0.9593768363832679, ,0.6403746862308932, ,0.5804167261892614
215, ,PASS, ,0.1998, ,0.04013099808636339, ,0.0589977168604723, ,0.0081968790400651, ,1.9166666666666667, ,0.9401371264448185, ,0.6312728311667108, ,0.546988836962511
216, ,PASS, ,0.1998, ,0.03838428397941018, ,0.06378114288402284, ,0.007836129631275826, ,1.8333333333333333, ,0.9425809716761567, ,0.6519458786555377, ,0.5701108140650191
