Channel, ,Pass/Fail, ,Amplitude, ,Sorting Function Response, ,Mean, ,Variance, ,NPeaksRatio, ,PosIntegralRatio, ,ToT50, ,ToT99
231, ,PASS, ,0.05901941200000003, ,0.008517642232188366, ,0.03560033205342749, ,0.0005092956898169646, ,1.9166666666666667, ,0.6983104747348939, ,0.454153996857207, ,0.04832554437664537
232, ,PASS, ,0.06104552100000002, ,0.009231576754459262, ,0.036570750954735616, ,0.0005694174771699257, ,2.0, ,0.7259946099911659, ,0.45652129548376563, ,0.053917266994551134
233, ,PASS, ,0.03488431000000001, ,0.004790902590715109, ,0.03795124010612028, ,0.00016895582088173044, ,2.0, ,0.670236662855715, ,0.4581335074794392, ,0.042060366114977245
234, ,PASS, ,0.033458299999999996, ,0.004844494224423693, ,0.03887854455439685, ,0.00016343074920169433, ,1.9166666666666667, ,0.6966038955369346, ,0.4605620293463399, ,0.05161119160833452
235, ,PASS, ,0.03353262000000001, ,0.004851829875807939, ,0.03733842233321769, ,0.0001640917594006185, ,1.9166666666666667, ,0.7000374598915083, ,0.46125589273688294, ,0.04924389298177588
236, ,PASS, ,0.03236343999999999, ,0.0044644310279060365, ,0.0382472813767066, ,0.00014593965885312265, ,2.0, ,0.6712067372735073, ,0.45937838003306053, ,0.04459092671578131
237, ,PASS, ,0.03269732000000003, ,0.004633966872893588, ,0.03642266896226608, ,0.00015299623351383758, ,1.9166666666666667, ,0.6860452424966892, ,0.46117426174976023, ,0.053100957123324015
238, ,PASS, ,0.02611781999999998, ,0.002792196113582388, ,0.036526419245321524, ,7.43794739119354e-05, ,1.75, ,0.5387662362602353, ,0.4526642313422175, ,0.033489112467092505
239, ,PASS, ,0.03102552999999998, ,0.004070490696670315, ,0.03597641226872921, ,0.00012787049327470936, ,1.9166666666666667, ,0.6446838557690562, ,0.45872533213607886, ,0.04150935695189894
240, ,PASS, ,0.03354830000000003, ,0.004870578305900415, ,0.03763367120548561, ,0.00016481434809624562, ,1.9166666666666667, ,0.6985269856505851, ,0.46282728923899513, ,0.051468337380869776
241, ,PASS, ,0.03208151000000003, ,0.0043932120891315395, ,0.03701751738495133, ,0.00014256415407972977, ,2.0, ,0.6646496586051428, ,0.45907226383135036, ,0.04510112038529826
242, ,PASS, ,0.02637530999999998, ,0.002870796004707596, ,0.03743071365584376, ,7.718376760915819e-05, ,1.8333333333333333, ,0.549793901256055, ,0.4530315707842697, ,0.030938144119507766
243, ,PASS, ,0.03020687999999999, ,0.003888629711135489, ,0.03677294317605763, ,0.00011903434974915132, ,1.9166666666666667, ,0.6350637472615853, ,0.4580518764923165, ,0.04597865349686741
244, ,PASS, ,0.03390212000000001, ,0.00505441333557426, ,0.03775032849145936, ,0.00017251836670778055, ,1.9166666666666667, ,0.7143666213818121, ,0.4633170751617314, ,0.053998897981673843
245, ,PASS, ,0.03165496000000001, ,0.004258383454239251, ,0.037089449002469334, ,0.00013626595949547913, ,1.9166666666666667, ,0.6591272076565081, ,0.45846003142793, ,0.044080733046264364
246, ,PASS, ,0.027087649999999974, ,0.0030192288878850664, ,0.0372150698224526, ,8.322167712582332e-05, ,1.8333333333333333, ,0.5640506340355202, ,0.45329687149241854, ,0.03126466806799861
247, ,PASS, ,0.0301153, ,0.0038300399671068967, ,0.03663419661374258, ,0.00011681425951130593, ,1.9166666666666667, ,0.625937499921897, ,0.45550090814473176, ,0.03595844982755454
248, ,PASS, ,0.03389036000000002, ,0.004983367995812094, ,0.036972243514214, ,0.00017020210675354125, ,1.9166666666666667, ,0.7066003769349758, ,0.4615620089385931, ,0.051468337380869776
249, ,PASS, ,0.03190666000000002, ,0.004394870123414171, ,0.03769840448664313, ,0.00014168056497048515, ,2.0, ,0.6698655202346048, ,0.4587865553764209, ,0.05167241484867656
250, ,PASS, ,0.02537199999999998, ,0.0026281786945021386, ,0.03789393758596763, ,6.808035680570256e-05, ,1.6666666666666667, ,0.5339161953326105, ,0.45117446582722803, ,0.03218301667312912
251, ,PASS, ,0.029979310000000016, ,0.0037392631585688126, ,0.03733333345727638, ,0.00011361785801190144, ,1.9166666666666667, ,0.6174751634120786, ,0.4547662292606273, ,0.04028489214505827
252, ,PASS, ,0.033315680000000014, ,0.004867833615507034, ,0.03792559392277709, ,0.00016339643718103893, ,1.9166666666666667, ,0.7044486763555475, ,0.46084773780126936, ,0.05263157894736842
253, ,PASS, ,0.03356120000000003, ,0.004904884013598859, ,0.03732127387053326, ,0.00016601925345370943, ,1.9166666666666667, ,0.705783027493677, ,0.463215036427828, ,0.05167241484867656
254, ,PASS, ,0.03346082000000003, ,0.004782004944494192, ,0.03717845887736985, ,0.00016146619664076227, ,1.9166666666666667, ,0.6918728852639633, ,0.46084773780126936, ,0.05177445358257995
255, ,PASS, ,0.033588730000000025, ,0.004912970770550707, ,0.036606025480092244, ,0.00016641330471971031, ,1.9166666666666667, ,0.7038039054859416, ,0.4630313667068019, ,0.05591722617905757
