Channel, ,Pass/Fail, ,Amplitude, ,Sorting Function Response, ,Mean, ,Variance, ,NPeaksRatio, ,PosIntegralRatio, ,ToT50, ,ToT99
92, ,PASS, ,0.05006100999999995, ,0.007684096319021576, ,0.048465676191302216, ,0.00038997479600958216, ,1.75, ,0.7198705467338865, ,0.5044182771780168, ,0.15964980306524357
93, ,PASS, ,0.05301507999999995, ,0.008152051943718364, ,0.047974961362421166, ,0.00043862486016065785, ,1.75, ,0.7179535302198337, ,0.500724475010714, ,0.13216056815167038
94, ,PASS, ,0.047633229999999985, ,0.0072723858213417725, ,0.04721933737678823, ,0.00035163009037618914, ,1.8333333333333333, ,0.7174555836407535, ,0.5041325687230873, ,0.15181322830146324
95, ,PASS, ,0.037228299999999985, ,0.004261474870131082, ,0.048238166273137296, ,0.00016047800582898357, ,1.6666666666666667, ,0.6022983621401176, ,0.48796963327279036, ,0.025754576437215567
96, ,PASS, ,0.013334439999999996, ,0.0020296029402243235, ,0.048537652848921455, ,2.7635363620783995e-05, ,1.8333333333333333, ,0.7417706031552683, ,0.5414583375849472, ,0.01759147772494439
97, ,PASS, ,0.033992610000000006, ,0.005316139591427655, ,0.04848775235362544, ,0.00018390167266278207, ,1.75, ,0.7379122938969805, ,0.521132221791392, ,0.0662435460500806
98, ,PASS, ,0.046373049999999985, ,0.007213438618444441, ,0.047733117172098535, ,0.0003394631688657009, ,1.8333333333333333, ,0.7350896485608649, ,0.5110303871349564, ,0.09918164935409482
99, ,PASS, ,0.04981709999999994, ,0.007737018916687975, ,0.0487188002128528, ,0.0003912916745110849, ,1.8333333333333333, ,0.7372142301325272, ,0.5030509581437114, ,0.0904063182384033
100, ,PASS, ,0.04363347999999999, ,0.006729569491310072, ,0.04831978723291362, ,0.00029819274161264734, ,1.8333333333333333, ,0.7337321444451836, ,0.5179690210403869, ,0.08493704210118161
101, ,PASS, ,0.02366209000000001, ,0.003727422129846871, ,0.04791242434093182, ,8.975254387321074e-05, ,1.75, ,0.7475375910801657, ,0.5280300402032612, ,0.0976306605987633
102, ,PASS, ,0.014371320000000007, ,0.002264068665886889, ,0.04676440489234914, ,3.319263497137896e-05, ,1.75, ,0.7455458455159538, ,0.5344788881859553, ,0.027856574355625396
103, ,PASS, ,0.03154337000000003, ,0.005007148432719378, ,0.04856147985592131, ,0.00016056284559936722, ,1.8333333333333333, ,0.7493308087771845, ,0.5174384196240893, ,0.0836513540539989
104, ,PASS, ,0.04257909999999994, ,0.0066390326545242104, ,0.049718410844676646, ,0.0002867575252116615, ,1.8333333333333333, ,0.7402809863826499, ,0.5082345258260036, ,0.055998857166180284
105, ,PASS, ,0.044707359999999946, ,0.006982059509415332, ,0.04944359022713822, ,0.00031664810350168427, ,1.8333333333333333, ,0.7379202413646503, ,0.5104385624783168, ,0.07963102793820534
106, ,PASS, ,0.03996627999999998, ,0.006224433985143914, ,0.04971321317115979, ,0.00025263809265511434, ,1.8333333333333333, ,0.7386299248936731, ,0.5155200914267056, ,0.06846799044917451
107, ,PASS, ,0.023019280000000003, ,0.0036814156392621206, ,0.0488297700689782, ,8.621536707917341e-05, ,1.75, ,0.7514300199415732, ,0.5198873492377707, ,0.08410032448317381
108, ,PASS, ,0.010549260000000005, ,0.0015449615217525388, ,0.04840383760372238, ,1.66017867261584e-05, ,1.9166666666666667, ,0.7330757087587447, ,0.5359686537009449, ,0.01789759392665456
109, ,PASS, ,0.02479812, ,0.0036940004910041443, ,0.0493662462431379, ,9.327558922628329e-05, ,1.9166666666666667, ,0.7393814023635655, ,0.5332136078855534, ,0.06681496295993959
110, ,PASS, ,0.03416669000000001, ,0.004991902647243166, ,0.04945786533825841, ,0.00017315810718535404, ,1.75, ,0.7256766877253671, ,0.5242750147956164, ,0.06248852064243587
111, ,PASS, ,0.03661609000000002, ,0.005318524013412881, ,0.049798903249729604, ,0.00019777872927353491, ,1.75, ,0.7192173028921544, ,0.5244382767698619, ,0.03769310830391216
112, ,PASS, ,0.03168990000000003, ,0.004660026746918615, ,0.04885677480643253, ,0.00015010509460105392, ,1.75, ,0.7295625244900797, ,0.5240505295810289, ,0.040795085814575215
113, ,PASS, ,0.01710986000000001, ,0.0025723867594150893, ,0.04932961786759455, ,4.477297510463765e-05, ,1.75, ,0.733607815377048, ,0.5265402746882717, ,0.04057060059998775
114, ,PASS, ,0.011441380000000022, ,0.0015688877606077024, ,0.049326240542641994, ,1.8300590823742128e-05, ,1.8333333333333333, ,0.6922692547422761, ,0.5340911409971225, ,0.021081202424440317
115, ,PASS, ,0.024953530000000015, ,0.003615275261553333, ,0.05009067559355932, ,9.164266634825853e-05, ,1.75, ,0.7180469240205931, ,0.5246627619844493, ,0.04185628864717047
116, ,PASS, ,0.03328214000000003, ,0.004806221839537725, ,0.04946235625660702, ,0.00016250857757159663, ,1.75, ,0.7146936474411307, ,0.5238056366196608, ,0.05001938735944164
117, ,PASS, ,0.03519431000000003, ,0.005121970117693039, ,0.05014074856329464, ,0.00018323310624339897, ,1.75, ,0.7231482141130555, ,0.5324585212546683, ,0.06287626783126875
118, ,PASS, ,0.030952520000000032, ,0.004482119541002514, ,0.04951939385502337, ,0.00014083290978883674, ,1.75, ,0.7269457026991398, ,0.5252954021346503, ,0.0538560437542091
119, ,PASS, ,0.017205479999999995, ,0.0025428916132433257, ,0.04977768398195956, ,4.4583111647074517e-05, ,1.8333333333333333, ,0.7339679908521395, ,0.5306218240444073, ,0.06144772555662129
