Channel, ,Pass/Fail, ,Amplitude, ,Sorting Function Response, ,Mean, ,Variance, ,NPeaksRatio, ,PosIntegralRatio, ,ToT50, ,ToT99
40, ,PASS, ,0.017919189999999998, ,0.002570875937629307, ,0.03003302010407951, ,4.673174727616312e-05, ,1.75, ,0.7742328617959598, ,0.5941715475194383, ,0.04108079426950471
41, ,PASS, ,0.017269529999999988, ,0.0024620583986953437, ,0.030217082192404238, ,4.291595248950771e-05, ,1.75, ,0.760792795586815, ,0.5919879186139059, ,0.04842758311054876
42, ,PASS, ,0.016524699999999993, ,0.0023926674013453044, ,0.030258849591845067, ,3.995511007114295e-05, ,1.75, ,0.7667683148798765, ,0.5890900185710496, ,0.053162180363666045
43, ,PASS, ,0.016700409999999995, ,0.0022814554776858457, ,0.030049856685986, ,3.8547232423881e-05, ,1.75, ,0.7497873430349238, ,0.5901920368972062, ,0.04442766474153589
44, ,PASS, ,0.016335079999999984, ,0.0023316075122616475, ,0.03015885895716414, ,3.851840962683019e-05, ,1.75, ,0.7698531378197636, ,0.5909471235280913, ,0.061753841758331464
45, ,PASS, ,0.01705002999999998, ,0.00244853587925839, ,0.030078263908695745, ,4.230459232227174e-05, ,1.75, ,0.7741970821340011, ,0.5919266953735638, ,0.04063182384032979
46, ,PASS, ,0.01655441, ,0.0024192080980630815, ,0.030095925294789903, ,4.055026731147103e-05, ,1.75, ,0.769427845170058, ,0.5911307932491173, ,0.029917756780473866
47, ,PASS, ,0.01681184, ,0.002384796558679195, ,0.030161132788310445, ,4.053060870231734e-05, ,1.75, ,0.751953688437195, ,0.5907634538070652, ,0.01946899042876676
48, ,PASS, ,0.016612119999999987, ,0.0024022130898992125, ,0.030088322768106777, ,4.03760849802032e-05, ,1.75, ,0.7641395055114872, ,0.5908654925409685, ,0.0574682149343891
49, ,PASS, ,0.016696259999999984, ,0.002397523617671452, ,0.030235306507214142, ,4.051765150614689e-05, ,1.75, ,0.759834377940594, ,0.5918246566396604, ,0.02620354686639048
50, ,PASS, ,0.016638969999999993, ,0.0024403874575863135, ,0.030359873725434177, ,4.1135027508966e-05, ,1.75, ,0.7744975704261319, ,0.5921307728413706, ,0.037999224505622334
51, ,PASS, ,0.01668687999999998, ,0.0023765490846882438, ,0.030037025804983575, ,4.011847629205968e-05, ,1.75, ,0.7607330628696106, ,0.5916409869186343, ,0.05381522826064774
52, ,PASS, ,0.01669452, ,0.0024064740545566635, ,0.029997563383196264, ,4.0682836945804464e-05, ,1.75, ,0.7676948093879203, ,0.5920899573478092, ,0.041244056243750125
53, ,PASS, ,0.017381359999999988, ,0.0024274158967758155, ,0.030047924258280442, ,4.272469554473212e-05, ,1.75, ,0.7507178378267874, ,0.5916409869186343, ,0.03285647231689149
54, ,PASS, ,0.017094219999999993, ,0.0024658754149832446, ,0.0301849542297096, ,4.2694730245191825e-05, ,1.75, ,0.7758630017146725, ,0.5932327911675271, ,0.05563151772412808
55, ,PASS, ,0.016840269999999994, ,0.0025038877389597157, ,0.03014036339564499, ,4.2699321197217483e-05, ,1.75, ,0.7857762388659368, ,0.5931919756739659, ,0.05540703250954062
56, ,PASS, ,0.017673529999999996, ,0.0025297952263466225, ,0.030308559638782883, ,4.5440108259136375e-05, ,1.75, ,0.7700184370521197, ,0.5933960531417726, ,0.04457051896900063
57, ,PASS, ,0.016958049999999995, ,0.002579242393794139, ,0.030306892683414622, ,4.432448595764018e-05, ,1.75, ,0.7903477911647497, ,0.591661394665415, ,0.051264259913063
58, ,PASS, ,0.01741883999999999, ,0.0025650184933887505, ,0.030288270672639336, ,4.529713511666906e-05, ,1.75, ,0.7868235113208434, ,0.593498091875676, ,0.044121548539825715
59, ,PASS, ,0.017206659999999995, ,0.0025469435508878855, ,0.03018847388196159, ,4.430047362296363e-05, ,1.75, ,0.7721214139851726, ,0.5907022305667231, ,0.0474684190118569
60, ,PASS, ,0.01745493999999999, ,0.0025998626625606275, ,0.030191384192975654, ,4.592750589572358e-05, ,1.75, ,0.7835997959137451, ,0.5928450439786943, ,0.051080590192036895
61, ,PASS, ,0.01760088, ,0.0025966533142092506, ,0.030142864616028248, ,4.63049867321189e-05, ,1.75, ,0.7820402234211123, ,0.591722617905757, ,0.05930491214465011
62, ,PASS, ,0.01798857999999999, ,0.002529529508667837, ,0.03022637853574417, ,4.610962953395346e-05, ,1.75, ,0.7512881152940829, ,0.5912940552233628, ,0.037958409012060976
63, ,PASS, ,0.01802140999999997, ,0.00252067726777034, ,0.03014604045876615, ,4.5963142811266726e-05, ,1.75, ,0.7477670815619057, ,0.5902328523907675, ,0.038407379441235893
64, ,PASS, ,0.017696039999999993, ,0.0026041576058143984, ,0.030333336528642275, ,4.6681908426649845e-05, ,1.75, ,0.7808478445934043, ,0.5923756658027387, ,0.049427562702801985
65, ,PASS, ,0.01818493, ,0.002659583349897345, ,0.030150845736617624, ,4.893975697271128e-05, ,1.75, ,0.7710243561685712, ,0.5901104059100835, ,0.035815595600089796
66, ,PASS, ,0.01833704, ,0.0027156963756407057, ,0.030251678541458337, ,5.049507574251632e-05, ,1.75, ,0.7779471157728771, ,0.5921715883349319, ,0.046509254913165037
67, ,PASS, ,0.01784133999999998, ,0.002590292486237267, ,0.030354277874941327, ,4.683618200711353e-05, ,1.75, ,0.7706554623753518, ,0.591538948184731, ,0.03697883716658844
68, ,PASS, ,0.018233529999999984, ,0.002637258215165409, ,0.030211347308626353, ,4.862005174018174e-05, ,1.75, ,0.7612464331430987, ,0.5922736270688354, ,0.04465214995612334
69, ,PASS, ,0.018456259999999995, ,0.0026470576815567437, ,0.030334818517785352, ,4.9555533531234006e-05, ,1.75, ,0.7597730746031782, ,0.591151200995898, ,0.04963164017060876
70, ,PASS, ,0.01808786, ,0.0025945695877267025, ,0.030168165626823944, ,4.754510775281767e-05, ,1.75, ,0.762594991369044, ,0.5921511805881513, ,0.05234587049243893
71, ,PASS, ,0.018017490000000008, ,0.0026125215372466565, ,0.030157373059937553, ,4.7646662799523955e-05, ,1.75, ,0.775417009131989, ,0.5926001510173262, ,0.06740678761657926
72, ,PASS, ,0.018072770000000002, ,0.0026277772735672556, ,0.030293812512601784, ,4.822332678475698e-05, ,1.75, ,0.7738700222904161, ,0.5943960327340259, ,0.041162425256627416
73, ,PASS, ,0.018548199999999997, ,0.002677222338965785, ,0.030330095603967266, ,5.0214909108302504e-05, ,1.75, ,0.7640757608251679, ,0.5909267157813106, ,0.04175424991326707
74, ,PASS, ,0.01863221999999999, ,0.0027272008337922, ,0.030296388075141324, ,5.154675205301341e-05, ,1.75, ,0.777908648624062, ,0.5941103242790964, ,0.05252954021346503
75, ,PASS, ,0.0186086, ,0.002624781414899934, ,0.03044469752576478, ,4.937558681776813e-05, ,1.75, ,0.7571841689164015, ,0.5915593559315117, ,0.03981551396910267
76, ,PASS, ,0.01828544000000001, ,0.002566219100192661, ,0.03028379664986429, ,4.7524474030612866e-05, ,1.75, ,0.7523830943369231, ,0.5903552988714516, ,0.04379502459133487
77, ,PASS, ,0.019176909999999995, ,0.0026420199184824266, ,0.030308115737842083, ,5.138340045303789e-05, ,1.75, ,0.7423383157482735, ,0.5906614150731617, ,0.04291749147976572
78, ,PASS, ,0.018397369999999993, ,0.0026266216158299213, ,0.030286181753025446, ,4.892147520731814e-05, ,1.75, ,0.7536974373715603, ,0.5892736882920757, ,0.03826452521377115
79, ,PASS, ,0.018631099999999977, ,0.0025701255127163563, ,0.030159862750352033, ,4.843683645973582e-05, ,1.75, ,0.7537145010773406, ,0.5910083467684333, ,0.04842758311054876
112, ,PASS, ,0.018196209999999973, ,0.0026823575247962193, ,0.03028736047305157, ,4.945769900818786e-05, ,1.75, ,0.7610094190514893, ,0.5892736882920757, ,0.02612191587926777
113, ,PASS, ,0.018525339999999977, ,0.0027287959591948243, ,0.0301759485608457, ,5.1246682957110736e-05, ,1.75, ,0.778253056382271, ,0.5919062876267831, ,0.049509193689924694
114, ,PASS, ,0.018647509999999992, ,0.0026776729973399366, ,0.030125013765841514, ,5.0458112863574176e-05, ,1.75, ,0.761291535966501, ,0.5906818228199424, ,0.05567233321768943
115, ,PASS, ,0.01852486, ,0.002666791858025214, ,0.030118894274606643, ,5.001004876197569e-05, ,1.75, ,0.7731391687450467, ,0.5916818024121957, ,0.05785596212322198
116, ,PASS, ,0.018797, ,0.0026583580094199782, ,0.030079314562764026, ,5.062279441417991e-05, ,1.75, ,0.7667106102497101, ,0.5926001510173262, ,0.04308075345401114
117, ,PASS, ,0.018541349999999988, ,0.0026800281945239444, ,0.030369334723985224, ,5.029173612540747e-05, ,1.75, ,0.76847407445703, ,0.5907634538070652, ,0.03765229281035081
118, ,PASS, ,0.019003219999999998, ,0.002654825337522841, ,0.030127639646537828, ,5.111168362786429e-05, ,1.75, ,0.7586641469200496, ,0.5924164812963001, ,0.03808085549274504
119, ,PASS, ,0.018728589999999996, ,0.0026799910814903883, ,0.03012883193526663, ,5.0796332503394955e-05, ,1.75, ,0.7692905195928731, ,0.5914369094508275, ,0.042856268239423685
120, ,PASS, ,0.018980290000000004, ,0.002713838750694017, ,0.03039243829778984, ,5.216693129649601e-05, ,1.75, ,0.7705635302996701, ,0.5914573171976082, ,0.032570763861962
121, ,PASS, ,0.01861145999999999, ,0.002759594907636639, ,0.030297134121140386, ,5.195679780309307e-05, ,1.75, ,0.7767295729390461, ,0.591089977755556, ,0.018346564355829473
122, ,PASS, ,0.018695029999999994, ,0.002750623102168938, ,0.03043417220117957, ,5.212992043348759e-05, ,1.75, ,0.7795415679203687, ,0.5922532193220547, ,0.05279484092161384
123, ,PASS, ,0.019263849999999992, ,0.002744206131791789, ,0.03034953965980286, ,5.355487403402097e-05, ,1.75, ,0.7644143776801444, ,0.591538948184731, ,0.014550723454623375
124, ,PASS, ,0.01874317999999999, ,0.0027186888159974475, ,0.030320406701495887, ,5.160827647362709e-05, ,1.75, ,0.7619963790977845, ,0.5914369094508275, ,0.019591436909450827
125, ,PASS, ,0.019231929999999987, ,0.0027012432897703265, ,0.030357513791963428, ,5.2728197612766564e-05, ,1.8333333333333333, ,0.7586084080544075, ,0.5973959715107855, ,0.0270198567376176
126, ,PASS, ,0.019506630000000018, ,0.002714251386385218, ,0.030439259592457295, ,5.3672443389930935e-05, ,1.8333333333333333, ,0.7609608065183078, ,0.6050080610599784, ,0.047815350707128425
127, ,PASS, ,0.019341679999999993, ,0.0026833602284133994, ,0.03068597537784943, ,5.306291939607471e-05, ,1.8333333333333333, ,0.7577412359183118, ,0.6235587028836146, ,0.02036693128711659
128, ,PASS, ,0.01903320999999999, ,0.002745644370433676, ,0.030907458432072814, ,5.348862844894994e-05, ,1.8333333333333333, ,0.7745090436473864, ,0.6247015367033326, ,0.04883573804616232
129, ,PASS, ,0.01978386999999999, ,0.0027557527305427567, ,0.03129163545764372, ,5.5912800170790924e-05, ,1.8333333333333333, ,0.7638898395176407, ,0.6286606395787842, ,0.03455031529968776
130, ,PASS, ,0.019935530000000003, ,0.0027681903246275924, ,0.03101753039142058, ,5.635842215570814e-05, ,1.9166666666666667, ,0.7682314644098104, ,0.6216607824330116, ,0.03985632946266403
131, ,PASS, ,0.019670799999999992, ,0.0027193479736260353, ,0.03111319821881186, ,5.4790467625652816e-05, ,1.8333333333333333, ,0.7559377112600526, ,0.62613007897798, ,0.02661170180200404
132, ,PASS, ,0.021483830000000013, ,0.0029546007153091816, ,0.03113495183179935, ,6.497291424327166e-05, ,1.8333333333333333, ,0.750879846053318, ,0.6238648190853248, ,0.02253015244586845
133, ,PASS, ,0.044141451, ,0.007539998971682813, ,0.0342630336093141, ,0.0003420540221550554, ,1.9166666666666667, ,0.8483482733626351, ,0.6305789677761678, ,0.08746760270198567
134, ,PASS, ,0.02393040000000001, ,0.003343464869303488, ,0.031500998166976185, ,8.191754221624751e-05, ,1.8333333333333333, ,0.7674150109314, ,0.6278851452011184, ,0.05259076345380707
135, ,PASS, ,0.02267264000000001, ,0.0031949410914675134, ,0.03133636549396951, ,7.427572421038986e-05, ,1.9166666666666667, ,0.7659742298284874, ,0.6313136466602722, ,0.06230485092140977
136, ,PASS, ,0.022829380000000017, ,0.0032373176182956425, ,0.031272002933205444, ,7.571545177652831e-05, ,1.9166666666666667, ,0.7712345903825826, ,0.6310075304585621, ,0.07026387216587417
137, ,PASS, ,0.022683660000000008, ,0.0032181775828641836, ,0.03142988689087978, ,7.482073584809584e-05, ,1.8333333333333333, ,0.7756916659765085, ,0.6311095691924654, ,0.05424379094304198
138, ,PASS, ,0.023037760000000015, ,0.0031978314309437923, ,0.03120433903859105, ,7.515510575703607e-05, ,1.9166666666666667, ,0.7615433880656959, ,0.6211097732699332, ,0.043570539376747416
139, ,PASS, ,0.022787550000000035, ,0.0031861549154169823, ,0.03136930188404318, ,7.444650806087088e-05, ,1.9166666666666667, ,0.7674571599794844, ,0.6319054713169119, ,0.07114140527744332
140, ,PASS, ,0.022217450000000014, ,0.0031741751309558573, ,0.0312865486975776, ,7.230794880624333e-05, ,1.9166666666666667, ,0.7761400960500683, ,0.6314156853941756, ,0.05901920368972062
141, ,PASS, ,0.022493950000000006, ,0.0031964495259826807, ,0.03149143855594784, ,7.347512735997585e-05, ,1.8333333333333333, ,0.7636366432848252, ,0.6221505683557479, ,0.06857002918307789
142, ,PASS, ,0.02257672000000003, ,0.003207950983052812, ,0.03127685051488745, ,7.401103605278088e-05, ,1.8333333333333333, ,0.7668224227414483, ,0.6283953388706353, ,0.0472847492908308
143, ,PASS, ,0.02278804000000002, ,0.0031471858609152708, ,0.03135502587028836, ,7.323745810850266e-05, ,1.8333333333333333, ,0.7459300495810538, ,0.6219260831411604, ,0.02789738984918675
176, ,PASS, ,0.022692330000000014, ,0.003188288921009885, ,0.03145033439378788, ,7.420137776212619e-05, ,1.8333333333333333, ,0.765379589618697, ,0.629558580437134, ,0.046448031672823006
177, ,PASS, ,0.02289171000000002, ,0.00317747243883713, ,0.031281339603681554, ,7.45015587062264e-05, ,1.9166666666666667, ,0.7646676413804467, ,0.6324156649864289, ,0.06401910165098672
178, ,PASS, ,0.022107500000000002, ,0.0032238971864896855, ,0.0314545195144997, ,7.297082701928795e-05, ,1.8333333333333333, ,0.7835545712930145, ,0.6281504459092672, ,0.07546784759494704
179, ,PASS, ,0.022422080000000025, ,0.003103319608525401, ,0.031208356647619437, ,7.118852864395977e-05, ,1.8333333333333333, ,0.7528351988986842, ,0.6239056345788861, ,0.024468888390032858
180, ,PASS, ,0.02265861000000001, ,0.0031736914936612752, ,0.03141443796963327, ,7.360687373633763e-05, ,1.8333333333333333, ,0.7631825638814301, ,0.6267014958878391, ,0.07095773555641721
181, ,PASS, ,0.02260111000000001, ,0.0031598749444608893, ,0.03125086831656497, ,7.319392542534993e-05, ,1.8333333333333333, ,0.7691186622209116, ,0.6294973571967919, ,0.06146813330340197
182, ,PASS, ,0.022688180000000006, ,0.0031871269814695, ,0.031240160611007938, ,7.400685447098084e-05, ,1.8333333333333333, ,0.7683526647474689, ,0.6285177853513194, ,0.07016183343197077
183, ,PASS, ,0.022900980000000015, ,0.0031788192620873213, ,0.031294270258158, ,7.444159323855191e-05, ,1.8333333333333333, ,0.7600089245605838, ,0.6255790698149017, ,0.0727332095263362
184, ,PASS, ,0.022872820000000023, ,0.0031841588935018605, ,0.031477578600028575, ,7.457872070595773e-05, ,1.8333333333333333, ,0.7685957363038182, ,0.6299259198791861, ,0.046631701393849104
185, ,PASS, ,0.022463650000000012, ,0.0032404752812877067, ,0.031382055373359724, ,7.442939804900488e-05, ,1.8333333333333333, ,0.7814441239358358, ,0.6253545846003142, ,0.06120283259525316
186, ,PASS, ,0.022944070000000014, ,0.003197681664194403, ,0.03142008469602661, ,7.481793209168817e-05, ,1.9166666666666667, ,0.7576265625834633, ,0.6203138711454869, ,0.04108079426950471
187, ,PASS, ,0.022510890000000026, ,0.003150474459163979, ,0.03139025192547091, ,7.218851079822935e-05, ,1.9166666666666667, ,0.752404865629795, ,0.6199057162098732, ,0.03530540193057285
188, ,PASS, ,0.022825980000000023, ,0.003229318736278779, ,0.03116557640558356, ,7.526571169463455e-05, ,1.9166666666666667, ,0.7657492702371156, ,0.6208444725617844, ,0.05826411705883553
189, ,PASS, ,0.022615890000000017, ,0.0032384296040491333, ,0.03135075737760454, ,7.47979483137555e-05, ,1.9166666666666667, ,0.7732706562435776, ,0.6224566845574581, ,0.06957000877533112
190, ,PASS, ,0.022319660000000015, ,0.0031814456640583398, ,0.03121784309136548, ,7.236497519040372e-05, ,1.9166666666666667, ,0.7725208147022166, ,0.6201506091712414, ,0.060080406522315874
191, ,PASS, ,0.022694850000000006, ,0.0032280944198943493, ,0.03120483529581029, ,7.455827140574388e-05, ,1.9166666666666667, ,0.7698160260173861, ,0.620048570437338, ,0.06193751147935756
192, ,PASS, ,0.02295267000000002, ,0.003250835402361758, ,0.031106908730229994, ,7.604115720935049e-05, ,1.9166666666666667, ,0.7656688216819348, ,0.6172323013816045, ,0.060141629762657904
193, ,PASS, ,0.023308100000000012, ,0.0034260044252252104, ,0.03142482752678517, ,8.125162185637389e-05, ,1.9166666666666667, ,0.7794916254488186, ,0.6173751556090692, ,0.05097855145813351
194, ,PASS, ,0.022894170000000016, ,0.003207106179607532, ,0.031323939942042, ,7.462494895327912e-05, ,1.9166666666666667, ,0.7620639510466143, ,0.614538478806555, ,0.06275382135058469
195, ,PASS, ,0.02278484000000003, ,0.003213388530606786, ,0.03105168993408298, ,7.429604988159386e-05, ,1.8333333333333333, ,0.7564028473136671, ,0.6033754413175242, ,0.044141956286606394
196, ,PASS, ,0.02316735000000002, ,0.0032405370810452633, ,0.031049075672537296, ,7.60863232496671e-05, ,1.9166666666666667, ,0.7536203056584165, ,0.6057223321973021, ,0.019979184098283708
197, ,PASS, ,0.02312148000000001, ,0.003229018609811038, ,0.03126464729168792, ,7.587296766621388e-05, ,1.9166666666666667, ,0.7640949577423346, ,0.611497724536234, ,0.05216220077141283
198, ,PASS, ,0.022902650000000028, ,0.003240101006094375, ,0.030982112072610764, ,7.529289336748623e-05, ,1.8333333333333333, ,0.7661632947997511, ,0.6074569906736598, ,0.051182628925940284
199, ,PASS, ,0.022266310000000032, ,0.0032332685520089065, ,0.03136786431583029, ,7.317392851536377e-05, ,1.9166666666666667, ,0.7751138189108334, ,0.6122119956735577, ,0.07442705250913247
200, ,PASS, ,0.02230548000000001, ,0.003308753036862131, ,0.03112295543356258, ,7.507043827534852e-05, ,1.9166666666666667, ,0.7782458362508023, ,0.609150833656456, ,0.046509254913165037
201, ,PASS, ,0.02307728000000002, ,0.0033964931537871276, ,0.03118057270321014, ,7.972567299628052e-05, ,1.9166666666666667, ,0.7758982505664995, ,0.6140486928838187, ,0.05691720577131079
202, ,PASS, ,0.02329102000000003, ,0.003275414328166984, ,0.031191144090120613, ,7.762910533172714e-05, ,1.9166666666666667, ,0.7669750779155291, ,0.6178037182914634, ,0.0705087651272423
203, ,PASS, ,0.023078340000000006, ,0.0032345200618098236, ,0.03108426756372319, ,7.558090026980124e-05, ,2.0, ,0.7499407704702493, ,0.6093957266178242, ,0.02004040733862574
204, ,PASS, ,0.02292780000000003, ,0.0033066518676350327, ,0.031065190662231384, ,7.696603266042477e-05, ,1.9166666666666667, ,0.7753930032319204, ,0.6093140956307014, ,0.06885573763800738
205, ,PASS, ,0.022921300000000033, ,0.003269661342649437, ,0.031141879308789616, ,7.589433083464946e-05, ,1.9166666666666667, ,0.760524554468599, ,0.6072325054590723, ,0.024917858819207772
206, ,PASS, ,0.023486550000000016, ,0.0032567586150532004, ,0.03109880182628926, ,7.759935805270795e-05, ,1.8333333333333333, ,0.7541331891147108, ,0.6044774596436807, ,0.04640721617926165
207, ,PASS, ,0.022931430000000003, ,0.003254040818623805, ,0.03109416129283076, ,7.567219850330547e-05, ,1.8333333333333333, ,0.7749610247403874, ,0.6058855941715475, ,0.06189669598579621
208, ,PASS, ,0.022695580000000017, ,0.0032796160343214805, ,0.030992467709230424, ,7.539368205528733e-05, ,1.8333333333333333, ,0.7751188529861412, ,0.5977633109528377, ,0.06659047774535214
209, ,PASS, ,0.022857790000000017, ,0.0033082328520922556, ,0.030766160531825883, ,7.646306416694625e-05, ,1.8333333333333333, ,0.7793714369898107, ,0.5966612926266811, ,0.06797820452643824
210, ,PASS, ,0.022973550000000016, ,0.003282890594937876, ,0.030797889747352095, ,7.637080703598317e-05, ,1.8333333333333333, ,0.7590914029788872, ,0.5949266341503234, ,0.0419175118875125
211, ,PASS, ,0.022407650000000022, ,0.003277228911239059, ,0.030915952287912492, ,7.431426874537445e-05, ,1.8333333333333333, ,0.7716870460704015, ,0.5943552172404645, ,0.057733515642537904
212, ,PASS, ,0.02352266000000001, ,0.003367510235318883, ,0.03095347289320626, ,8.01686092950579e-05, ,1.75, ,0.7663189717558045, ,0.5931103446868431, ,0.04142772596477623
213, ,PASS, ,0.022940520000000023, ,0.003367654398297853, ,0.031056534110936514, ,7.81889547756476e-05, ,1.75, ,0.7754205335253794, ,0.5938246158241669, ,0.05787636987000265
214, ,PASS, ,0.023177580000000024, ,0.0033941358053456204, ,0.030825328464112976, ,7.98151232237051e-05, ,1.8333333333333333, ,0.7862795719668155, ,0.5952327503520336, ,0.06489663476255586
215, ,PASS, ,0.023079860000000018, ,0.003382783004649754, ,0.03085848873553601, ,7.892197923160834e-05, ,1.75, ,0.7742094451383761, ,0.5914981326911696, ,0.05324381135078876
216, ,PASS, ,0.023725300000000005, ,0.0034166051281413006, ,0.0309628516230281, ,8.214876627029777e-05, ,1.75, ,0.7616841603089322, ,0.5919471031203445, ,0.04263178302483623
217, ,PASS, ,0.023518890000000015, ,0.0033900894676439784, ,0.030916539904083593, ,8.069837396198926e-05, ,1.75, ,0.7631389560450782, ,0.5906614150731617, ,0.049896940878757574
218, ,PASS, ,0.023335800000000025, ,0.003399145740470398, ,0.030645777003122383, ,8.030554782896315e-05, ,1.75, ,0.7649578227937363, ,0.5898042897083733, ,0.03448909205934573
219, ,PASS, ,0.02340199000000002, ,0.00333074776959152, ,0.030817569126548438, ,7.891698350096338e-05, ,1.75, ,0.7592533799996001, ,0.5908859002877492, ,0.05044795004183588
220, ,PASS, ,0.023334780000000027, ,0.003383620323354039, ,0.03078045679006551, ,7.997745637839419e-05, ,1.75, ,0.7632257227669952, ,0.5902124446439868, ,0.0474684190118569
221, ,PASS, ,0.023213110000000033, ,0.003395811342490221, ,0.030762390440807332, ,7.981700245837028e-05, ,1.75, ,0.7715784675480425, ,0.5902736678843289, ,0.06018244525621926
222, ,PASS, ,0.023619810000000005, ,0.0034279147204978773, ,0.030892293659313078, ,8.1974330417495e-05, ,1.75, ,0.7753018367370739, ,0.5931511601804045, ,0.06965163976245382
223, ,PASS, ,0.02432081000000001, ,0.0034107519187214237, ,0.030897686735780902, ,8.396285562652636e-05, ,1.75, ,0.7553582279396533, ,0.5947429644292974, ,0.045305197853105036
224, ,PASS, ,0.024303470000000015, ,0.0035003028267272377, ,0.030872286873533196, ,8.620497547459422e-05, ,1.8333333333333333, ,0.7711073987942683, ,0.5949674496438848, ,0.051896900063264015
225, ,PASS, ,0.023851700000000017, ,0.003508463715760616, ,0.030941419073488297, ,8.475151107125501e-05, ,1.75, ,0.7735339805895178, ,0.592743005244791, ,0.04008081467725148
226, ,PASS, ,0.023767860000000033, ,0.003473211363392728, ,0.030927568454725416, ,8.374926161630968e-05, ,1.8333333333333333, ,0.7695283186699008, ,0.5969674088283913, ,0.04777453521356707
227, ,PASS, ,0.02447119, ,0.0035467128051228135, ,0.030862093977878004, ,8.785751179585836e-05, ,1.75, ,0.7747692825493049, ,0.5933960531417726, ,0.06261096712311993
228, ,PASS, ,0.026474150000000005, ,0.003791529103613413, ,0.031199750646313345, ,0.00010160787677896446, ,1.8333333333333333, ,0.7677337940283103, ,0.599518377175976, ,0.05632538111467113
229, ,PASS, ,0.06526158599999998, ,0.010478635965075644, ,0.03498558779308585, ,0.000694817964498966, ,1.8333333333333333, ,0.8076828610072676, ,0.5980082039142058, ,0.05854982551376502
230, ,PASS, ,0.10196712000000001, ,0.017181057146340786, ,0.0403666258819616, ,0.0017905280835579824, ,1.8333333333333333, ,0.8390760874326363, ,0.6174771943429725, ,0.16546601089773677
