Channel, ,Pass/Fail, ,Amplitude, ,Sorting Function Response, ,Mean, ,Variance, ,NPeaksRatio, ,PosIntegralRatio, ,ToT50, ,ToT99
0, ,PASS, ,0.07543865184, ,0.012450695183674193, ,0.04487642019509806, ,0.0009559328023190691, ,1.8333333333333333, ,0.8064342906254953, ,0.5959266137425767, ,0.14626232117711885
1, ,PASS, ,0.07320511969999999, ,0.012230839755696915, ,0.044779580585702326, ,0.0009109268089120148, ,1.8333333333333333, ,0.8152287883789067, ,0.595967429236138, ,0.16013958898797984
2, ,PASS, ,0.072430446, ,0.012189721963883232, ,0.04476378987081896, ,0.000898376900466446, ,1.8333333333333333, ,0.8189591018706209, ,0.5956613130344278, ,0.16718026162731373
3, ,PASS, ,0.071897558, ,0.012124076615914409, ,0.04478899319687353, ,0.0008866935611631257, ,1.8333333333333333, ,0.8202462642532113, ,0.595273565845595, ,0.15899675516826187
4, ,PASS, ,0.07146590899999998, ,0.012011877740667289, ,0.04471107297422501, ,0.0008735604969464691, ,1.8333333333333333, ,0.8209109796433287, ,0.5962327299442869, ,0.16973122997489848
5, ,PASS, ,0.071202933, ,0.011977418040253958, ,0.04493747394706231, ,0.0008679529260858653, ,1.8333333333333333, ,0.8219768705501431, ,0.595967429236138, ,0.17501683639109405
6, ,PASS, ,0.07141203900000001, ,0.012079874123645978, ,0.04440932986979858, ,0.0008774339402797034, ,1.8333333333333333, ,0.823587176310699, ,0.5931715679271852, ,0.16658843697067408
7, ,PASS, ,0.071715958, ,0.01206435354414603, ,0.04483541893287892, ,0.000880066260812371, ,1.8333333333333333, ,0.8206002676856102, ,0.593559315116018, ,0.16264974184200323
8, ,PASS, ,0.07207001750000003, ,0.01214949527426093, ,0.04453918095426623, ,0.0008905764623001036, ,1.8333333333333333, ,0.8222399440496352, ,0.5935389073692373, ,0.1662006897818412
9, ,PASS, ,0.07226459819999999, ,0.01208469540900658, ,0.04490139074427052, ,0.0008886862280754812, ,1.8333333333333333, ,0.8168097977843652, ,0.5963143609314095, ,0.1536907410052856
10, ,PASS, ,0.07267154399999999, ,0.012145331166587281, ,0.04476639261586498, ,0.000898107761097056, ,1.8333333333333333, ,0.8166458102873367, ,0.5951511193649109, ,0.15399685720699577
11, ,PASS, ,0.07311102949999998, ,0.01221451936706188, ,0.04476053928164731, ,0.0009087473602063382, ,1.8333333333333333, ,0.8162514637481219, ,0.5956817207812085, ,0.1606497826574968
12, ,PASS, ,0.07313636659999999, ,0.012221866277017608, ,0.04485875462970143, ,0.0009096184974974275, ,1.8333333333333333, ,0.8154717883145102, ,0.5958653905022346, ,0.15430297340870594
13, ,PASS, ,0.07396930610000002, ,0.012406097056499775, ,0.04467922969755719, ,0.0009338541773384219, ,1.8333333333333333, ,0.8166340286113923, ,0.5934776841288953, ,0.16705781514662965
14, ,PASS, ,0.07536849614000002, ,0.012517466655517869, ,0.04471859440419584, ,0.000960078280303812, ,1.8333333333333333, ,0.8113573070493487, ,0.5958245750086733, ,0.15630293259321237
15, ,PASS, ,0.07398741110000003, ,0.012368241474896968, ,0.04487705844880716, ,0.0009312153429885843, ,1.8333333333333333, ,0.816076888020091, ,0.5964980306524357, ,0.16440480806514152
16, ,PASS, ,0.07416706962, ,0.012399863600037506, ,0.04456167300259178, ,0.0009359534784878032, ,1.8333333333333333, ,0.8145182532010957, ,0.5943552172404645, ,0.15464990510397747
17, ,PASS, ,0.07440487030000002, ,0.012371647979990902, ,0.04465974653415237, ,0.0009366855359157184, ,1.8333333333333333, ,0.8111860369182703, ,0.595783759515112, ,0.1360176322932185
18, ,PASS, ,0.07411753664, ,0.012390100285010901, ,0.04469183824901533, ,0.0009344940612649806, ,1.8333333333333333, ,0.8157843642942736, ,0.5958857982490153, ,0.15316013958898797
19, ,PASS, ,0.07411368230000002, ,0.012417722492422694, ,0.04493931643435849, ,0.0009364810623589443, ,1.8333333333333333, ,0.8176141714273623, ,0.5955184588069631, ,0.1647925552539744
20, ,PASS, ,0.0741560352, ,0.012376746643974824, ,0.044935388014530314, ,0.0009340812380845011, ,1.8333333333333333, ,0.8171454325179808, ,0.5963959919185323, ,0.16309871227117814
21, ,PASS, ,0.07392253320000002, ,0.012475507373261117, ,0.04487279857655966, ,0.0009379886347724795, ,1.8333333333333333, ,0.820904730320489, ,0.5933960531417726, ,0.17093528703495847
22, ,PASS, ,0.07504694862000001, ,0.012527883656703737, ,0.04479414271341402, ,0.0009567275014489491, ,1.8333333333333333, ,0.8142042244428511, ,0.5960286524764801, ,0.1581396298034734
23, ,PASS, ,0.0739706783, ,0.012406174745120922, ,0.04483250920226118, ,0.0009339296875361947, ,1.8333333333333333, ,0.8186575582476562, ,0.5959470214893574, ,0.1668333299320422
24, ,PASS, ,0.07373155350000002, ,0.012377370599102773, ,0.044676492026897406, ,0.0009286500152858968, ,1.8333333333333333, ,0.8190189545169672, ,0.5948654109099815, ,0.1588743086875778
25, ,PASS, ,0.0736118253, ,0.012422105664896259, ,0.044873014591743025, ,0.0009303981252741093, ,1.8333333333333333, ,0.8234782730265959, ,0.5958857982490153, ,0.16944552151996897
26, ,PASS, ,0.07355850839999999, ,0.012394240127177056, ,0.0446030082057509, ,0.0009277254071370485, ,1.8333333333333333, ,0.8203330503520929, ,0.5945592947082713, ,0.16538437991061408
27, ,PASS, ,0.0733793283, ,0.012326794993823125, ,0.04485743868410849, ,0.0009205670576236013, ,1.8333333333333333, ,0.8209178577280005, ,0.5961715067039448, ,0.16567008836554356
28, ,PASS, ,0.07326383879999997, ,0.012350379765799134, ,0.044598095738046156, ,0.0009206217485817732, ,1.8333333333333333, ,0.8236177318224215, ,0.5933552376482113, ,0.1662619130221832
29, ,PASS, ,0.07362471740000001, ,0.012328963324553249, ,0.0449167402218322, ,0.0009238506555270942, ,1.8333333333333333, ,0.820721423435529, ,0.5961102834636027, ,0.16726189261443644
30, ,PASS, ,0.07332300209999998, ,0.012403947284649703, ,0.04486265261402828, ,0.0009252304762603705, ,1.8333333333333333, ,0.8240791673019464, ,0.593559315116018, ,0.16283341156302933
31, ,PASS, ,0.0731280282, ,0.012326703024327389, ,0.04490013024244403, ,0.0009173301848766385, ,1.8333333333333333, ,0.8243386499547521, ,0.5962939531846289, ,0.17324136242117508
32, ,PASS, ,0.07327813190000002, ,0.012383578281538785, ,0.044878700344890915, ,0.0009231290081536371, ,1.8333333333333333, ,0.8259333338455445, ,0.5961919144507255, ,0.17158833493194017
33, ,PASS, ,0.0731782304, ,0.01235113455571483, ,0.04489154162772188, ,0.0009197887451584057, ,1.8333333333333333, ,0.8241950688244545, ,0.5967021081202425, ,0.17258831452419338
34, ,PASS, ,0.07321960490000001, ,0.012365400577598523, ,0.044833440666517003, ,0.0009214966066789992, ,1.8333333333333333, ,0.824421235912812, ,0.5967225158670231, ,0.17150670394481746
35, ,PASS, ,0.07369621869999998, ,0.01238203067922542, ,0.044688442123017896, ,0.0009286951398052794, ,1.8333333333333333, ,0.8216415302591222, ,0.5965184383992164, ,0.16348645946001103
36, ,PASS, ,0.07602032188000002, ,0.012783386203084328, ,0.04513289292769535, ,0.0009889128126891226, ,1.8333333333333333, ,0.8214237684755983, ,0.5963959919185323, ,0.1669353686659456
37, ,PASS, ,0.15289684999999986, ,0.0211580501554074, ,0.04787669045162342, ,0.0032892839292355904, ,1.75, ,0.7249023812143387, ,0.6016203750943858, ,0.1639558376359666
38, ,PASS, ,0.13339914, ,0.018574315619682067, ,0.04749834460500806, ,0.002520223762668257, ,1.8333333333333333, ,0.7120814655914397, ,0.5934776841288953, ,0.08542682802391788
39, ,PASS, ,0.07201375800000002, ,0.01227255163147976, ,0.044672053536458436, ,0.000899210853190409, ,1.8333333333333333, ,0.8298254430559421, ,0.5945184792147099, ,0.16738433909512052
40, ,PASS, ,0.07044168, ,0.011988443268848598, ,0.0445284218611865, ,0.0008595119977474396, ,1.8333333333333333, ,0.8290468842521127, ,0.5962735454378482, ,0.15238464521132222
41, ,PASS, ,0.07014054799999998, ,0.012013851212289468, ,0.0442671244080733, ,0.0008576454405744145, ,1.9166666666666667, ,0.833449181941181, ,0.5955592743005245, ,0.18048611252831576
42, ,PASS, ,0.07016382399999994, ,0.011981575207766708, ,0.04443837425930083, ,0.0008556532756649903, ,1.8333333333333333, ,0.8332182011820283, ,0.5961919144507255, ,0.18077182098324523
43, ,PASS, ,0.07007664499999999, ,0.011984001060417807, ,0.04456712216771086, ,0.0008548889148103783, ,1.8333333333333333, ,0.8336648340830136, ,0.5963959919185323, ,0.17636374767861882
44, ,PASS, ,0.07032832, ,0.011955760933813215, ,0.044395346369053686, ,0.0008558264607989237, ,1.8333333333333333, ,0.8291861544706867, ,0.5963347686781902, ,0.15977224954592764
45, ,PASS, ,0.07018989399999997, ,0.011968783462742296, ,0.044488512394236845, ,0.00085493052092417, ,1.8333333333333333, ,0.8318806041255926, ,0.596600069386339, ,0.1659966123140344
46, ,PASS, ,0.07033554199999999, ,0.01204954965462248, ,0.04443781636007428, ,0.0008622427162506324, ,1.9166666666666667, ,0.8331920345524109, ,0.5933552376482113, ,0.16907818207791678
47, ,PASS, ,0.07004851099999997, ,0.011991121121752194, ,0.0442369621954654, ,0.0008545744687668718, ,1.9166666666666667, ,0.8346728240579496, ,0.5943144017469031, ,0.17636374767861882
48, ,PASS, ,0.07004264599999997, ,0.011915084217133247, ,0.0442742526319871, ,0.0008494268964583994, ,1.8333333333333333, ,0.8313102997633115, ,0.5962531376910676, ,0.16552723413807882
49, ,PASS, ,0.069958704, ,0.01193225832369502, ,0.04457478527968817, ,0.000849683485946716, ,1.8333333333333333, ,0.8322907655054802, ,0.5962939531846289, ,0.16834350319381236
50, ,PASS, ,0.07014516399999998, ,0.011954610358256791, ,0.04433478575376012, ,0.0008532888984408352, ,1.8333333333333333, ,0.8323508468361243, ,0.5965184383992164, ,0.17532295259280423
51, ,PASS, ,0.06992225499999996, ,0.011926763810720073, ,0.04440655526458643, ,0.0008486266572902719, ,1.8333333333333333, ,0.8316955532720606, ,0.5964163996653129, ,0.1758331462623212
52, ,PASS, ,0.07008483999999998, ,0.011910861458458443, ,0.04447240269321034, ,0.0008495661868453562, ,1.8333333333333333, ,0.8315135532780747, ,0.5960082447296994, ,0.16491500173465848
53, ,PASS, ,0.06992167199999998, ,0.011997069355870792, ,0.044285501065692526, ,0.0008534358300639987, ,1.9166666666666667, ,0.8351892058245138, ,0.5932531989143078, ,0.17762902797902083
54, ,PASS, ,0.06975179299999996, ,0.011895276292259043, ,0.04446294328421868, ,0.0008445933842877532, ,1.8333333333333333, ,0.8328756807333985, ,0.5962531376910676, ,0.1793228709618171
55, ,PASS, ,0.06973894099999997, ,0.01191123457388821, ,0.04418204177567804, ,0.0008453468624187299, ,1.9166666666666667, ,0.8327280080610437, ,0.5956204975408665, ,0.17346584763576253
56, ,PASS, ,0.06962163599999997, ,0.01184715260558228, ,0.04446440197955144, ,0.0008393777719604812, ,1.8333333333333333, ,0.8306555938005055, ,0.5957021285279892, ,0.16597620456725373
57, ,PASS, ,0.06953625599999999, ,0.011876641988219831, ,0.044483962013632375, ,0.0008404747017235791, ,1.8333333333333333, ,0.833999840634825, ,0.5962735454378482, ,0.1752617293524622
58, ,PASS, ,0.06936306099999999, ,0.011845923131647281, ,0.04433211474704597, ,0.0008362599733751668, ,1.8333333333333333, ,0.831752263430221, ,0.5956204975408665, ,0.1662823207689639
59, ,PASS, ,0.06951578599999995, ,0.011856984831265552, ,0.04430077261627313, ,0.0008387949986572522, ,1.8333333333333333, ,0.8322331567023317, ,0.5959266137425767, ,0.16718026162731373
60, ,PASS, ,0.06996729699999998, ,0.011896996575398456, ,0.04456731941899144, ,0.0008473615884021559, ,1.8333333333333333, ,0.8298159552106228, ,0.5958041672618927, ,0.1557315156833534
61, ,PASS, ,0.07010767699999998, ,0.011926104981546257, ,0.04429997710271219, ,0.0008509527528595888, ,1.9166666666666667, ,0.830165640561731, ,0.5948245954164201, ,0.15948654109099814
62, ,PASS, ,0.06979853699999998, ,0.011889226888004038, ,0.04443491262708924, ,0.0008445935626638892, ,1.8333333333333333, ,0.8315639845083566, ,0.5960286524764801, ,0.16907818207791678
63, ,PASS, ,0.06966667999999997, ,0.011960901822042564, ,0.04451145158180445, ,0.0008479755197832907, ,1.9166666666666667, ,0.8343599532871698, ,0.5949266341503234, ,0.17848615334380932
64, ,PASS, ,0.07006200399999998, ,0.011929614167053007, ,0.04458176847309238, ,0.0008506885117003735, ,1.8333333333333333, ,0.8313921049179762, ,0.5966204771331197, ,0.1754453990734883
65, ,PASS, ,0.07031533899999998, ,0.011944272451029518, ,0.04444655775902532, ,0.0008548913158825359, ,1.8333333333333333, ,0.8304251471763338, ,0.5964980306524357, ,0.1728536152323422
66, ,PASS, ,0.07018748599999998, ,0.012016056990868681, ,0.0443538122995449, ,0.0008579304771704298, ,1.8333333333333333, ,0.833241350177717, ,0.594702148935736, ,0.1647925552539744
67, ,PASS, ,0.07041042900000001, ,0.011992617091959978, ,0.04453314530764678, ,0.0008592853322983882, ,1.8333333333333333, ,0.8310078236641641, ,0.5959470214893574, ,0.1758127385155405
68, ,PASS, ,0.07048126699999999, ,0.01198009523631427, ,0.04437780700516315, ,0.0008592859061053414, ,1.8333333333333333, ,0.8289132909191658, ,0.5958857982490153, ,0.16648639823677067
69, ,PASS, ,0.07063711599999999, ,0.012039726120173575, ,0.044437552005265196, ,0.0008655697064353042, ,1.8333333333333333, ,0.8317416065536554, ,0.5958245750086733, ,0.17318013918083305
70, ,PASS, ,0.071247188, ,0.012127233386369491, ,0.04442861989000225, ,0.0008792621375470863, ,1.8333333333333333, ,0.8299220557947383, ,0.5962123221975062, ,0.17487398216362932
71, ,PASS, ,0.0726164898, ,0.012366214054290453, ,0.04456209731923838, ,0.00091390951477062, ,1.8333333333333333, ,0.8273308184706594, ,0.5961306912103834, ,0.17862900757127406
72, ,PASS, ,0.07088107700000001, ,0.012138253634998633, ,0.0444254479992245, ,0.0008757061964223391, ,1.9166666666666667, ,0.8292264808051527, ,0.5927838207383522, ,0.17669027162710965
73, ,PASS, ,0.071349196, ,0.012144921144751858, ,0.04469541931389155, ,0.0008820464025176447, ,1.8333333333333333, ,0.8292280330400308, ,0.5961919144507255, ,0.17836370686312525
74, ,PASS, ,0.07140298719999999, ,0.012176415745834696, ,0.04414164586498234, ,0.0008848447213983435, ,1.9166666666666667, ,0.8289358145474253, ,0.5932940144078692, ,0.17124140323666864
75, ,PASS, ,0.07153164800000002, ,0.012182085375435072, ,0.04438670032897288, ,0.0008864643931244177, ,1.8333333333333333, ,0.8279696320620876, ,0.5938042080773862, ,0.15762943613395644
76, ,PASS, ,0.07180777399999999, ,0.012180399891565143, ,0.04457953686271708, ,0.0008898671170179801, ,1.8333333333333333, ,0.8260628405294065, ,0.594702148935736, ,0.15330299381645274
77, ,PASS, ,0.07178047100000001, ,0.01220393938859791, ,0.04456770141609355, ,0.0008915002897754684, ,1.8333333333333333, ,0.8288622909096272, ,0.5962123221975062, ,0.17522091385890085
78, ,PASS, ,0.07179701479999999, ,0.012214895119102304, ,0.04436005100365298, ,0.0008925976241111172, ,1.8333333333333333, ,0.8272270054980523, ,0.595967429236138, ,0.1725679067774127
79, ,PASS, ,0.07332639752, ,0.012503768820354876, ,0.044237754174812766, ,0.0009327038508345158, ,1.8333333333333333, ,0.8273444475421767, ,0.5932736066610885, ,0.17650660190608355
80, ,PASS, ,0.07224966990000001, ,0.012283586483058115, ,0.044327372757290665, ,0.0009031995743178771, ,1.8333333333333333, ,0.8266830567332356, ,0.5951511193649109, ,0.17124140323666864
81, ,PASS, ,0.07222112800000001, ,0.012300588845693489, ,0.04441879303646864, ,0.0009040568213909432, ,1.8333333333333333, ,0.8291554083747595, ,0.5956817207812085, ,0.17560866104773373
82, ,PASS, ,0.07219949560000002, ,0.012305532500661123, ,0.044553498093916455, ,0.0009037980320818763, ,1.8333333333333333, ,0.830256211567765, ,0.5959878369829187, ,0.1685067651680578
83, ,PASS, ,0.07235578320000001, ,0.012339768789831198, ,0.044363825046631694, ,0.0009081560229880357, ,1.8333333333333333, ,0.8289116026840064, ,0.5953347890859371, ,0.16448643905226423
84, ,PASS, ,0.07232743740000001, ,0.012324989670105767, ,0.044255447205975386, ,0.0009072895318091917, ,1.8333333333333333, ,0.8266756874351233, ,0.5952123426052529, ,0.17011897716373134
85, ,PASS, ,0.0725086856, ,0.012313358585025289, ,0.04453192326115793, ,0.0009087721692982455, ,1.8333333333333333, ,0.8277152630941494, ,0.5961306912103834, ,0.1762617089447154
86, ,PASS, ,0.07277502330000002, ,0.012283264958335564, ,0.04437044421195486, ,0.0009097133407235873, ,1.8333333333333333, ,0.8266384971419435, ,0.5957225362747699, ,0.17087406379461645
87, ,PASS, ,0.07226394140000002, ,0.012280382805839915, ,0.04456199697026591, ,0.0009032295902230409, ,1.8333333333333333, ,0.8275328063118723, ,0.5964163996653129, ,0.17411889553274423
88, ,PASS, ,0.07222667900000003, ,0.012273122960927696, ,0.044665155538458394, ,0.0009022064508146686, ,1.8333333333333333, ,0.8287764503198629, ,0.5959266137425767, ,0.1762617089447154
89, ,PASS, ,0.07239008890000001, ,0.012262170681943739, ,0.04446705782392196, ,0.000903582938827753, ,1.8333333333333333, ,0.8262958874085221, ,0.5957021285279892, ,0.17422093426664761
90, ,PASS, ,0.07215418820000001, ,0.012303406057749891, ,0.044338868918797576, ,0.0009035846147835331, ,1.8333333333333333, ,0.8300765506425978, ,0.5960490602232608, ,0.18379216750678556
91, ,PASS, ,0.0719443172, ,0.012255394396852198, ,0.04454331352421379, ,0.0008974614702113141, ,1.8333333333333333, ,0.8289582819262596, ,0.5964572151588743, ,0.18197587804330523
92, ,PASS, ,0.07228521079999999, ,0.012260946240107151, ,0.0443870558962062, ,0.0009021523808982041, ,1.8333333333333333, ,0.8251264660517578, ,0.5957633517683313, ,0.15789473684210525
93, ,PASS, ,0.07216558820000002, ,0.012266391473813178, ,0.04430678645823555, ,0.0009009483728702949, ,1.8333333333333333, ,0.8282643269348687, ,0.596600069386339, ,0.17307810044692964
94, ,PASS, ,0.07208542900000002, ,0.012249793493326588, ,0.04464403961572213, ,0.0008987527644170546, ,1.8333333333333333, ,0.8284503860099822, ,0.5961715067039448, ,0.17699638782881982
95, ,PASS, ,0.07216939099999999, ,0.012252180208611654, ,0.04453766671149568, ,0.0009000073509577266, ,1.8333333333333333, ,0.82584692618356, ,0.5962123221975062, ,0.16207832493214425
96, ,PASS, ,0.07207393830000002, ,0.012271611677030074, ,0.04428972638782882, ,0.0009001514499360527, ,1.8333333333333333, ,0.8284864351708224, ,0.5963551764249709, ,0.1745270504683578
97, ,PASS, ,0.07233243290000001, ,0.012290759580898912, ,0.04442600527091284, ,0.0009046851657348493, ,1.8333333333333333, ,0.8263770231984405, ,0.5954980510601825, ,0.16587416583335035
98, ,PASS, ,0.07207532740000003, ,0.012270406806888621, ,0.04455334694189914, ,0.0009000127883772676, ,1.8333333333333333, ,0.8287458465075386, ,0.5964572151588743, ,0.17685353360135508
99, ,PASS, ,0.07167516239999999, ,0.012181037752034881, ,0.0445723776269872, ,0.0008887611392565277, ,1.8333333333333333, ,0.8267261212159354, ,0.5965388461459971, ,0.17093528703495847
100, ,PASS, ,0.071720735, ,0.012272067405124033, ,0.04409637601967307, ,0.0008954646868171984, ,1.8333333333333333, ,0.8292095176013944, ,0.5927838207383522, ,0.1646088855329483
101, ,PASS, ,0.07227700380000002, ,0.012291359850872837, ,0.04440541216791494, ,0.0009041495112189579, ,1.8333333333333333, ,0.8286136344928872, ,0.595783759515112, ,0.17405767229240218
102, ,PASS, ,0.07205132700000003, ,0.012249077255528429, ,0.044541897931470786, ,0.0008983680392947318, ,1.8333333333333333, ,0.8274071389724436, ,0.5964368074120936, ,0.1684047264341544
103, ,PASS, ,0.072237573, ,0.01228297179825069, ,0.04468446005224383, ,0.0009030302534561861, ,1.8333333333333333, ,0.8289188830561698, ,0.5962327299442869, ,0.17911879349401033
104, ,PASS, ,0.07239767850000002, ,0.012374958158741338, ,0.04445600827697394, ,0.0009117083583240442, ,1.8333333333333333, ,0.831042013529326, ,0.5955388665537438, ,0.17962898716352727
105, ,PASS, ,0.07267631510000001, ,0.012378132305158619, ,0.04456447584824799, ,0.00091548836764427, ,1.8333333333333333, ,0.8293777523910999, ,0.5954980510601825, ,0.17573110752841778
106, ,PASS, ,0.07252819649999998, ,0.012386068051469272, ,0.04459931316115997, ,0.0009143180529530928, ,1.8333333333333333, ,0.8301641063881846, ,0.5961510989571641, ,0.17791473643395034
107, ,PASS, ,0.07282519429999998, ,0.01242391405481437, ,0.044810582285463564, ,0.0009208115520793419, ,1.8333333333333333, ,0.8292484093803316, ,0.5952327503520336, ,0.17736372727087202
108, ,PASS, ,0.07322499129999999, ,0.0125418960422837, ,0.04454025853758086, ,0.0009342504044707106, ,1.9166666666666667, ,0.8322465434059808, ,0.593375645394992, ,0.1806289667557805
109, ,PASS, ,0.07327454119999997, ,0.012476925989374013, ,0.044507456397420465, ,0.0009304155576761298, ,1.8333333333333333, ,0.829467654111872, ,0.5958245750086733, ,0.1743433807473317
110, ,PASS, ,0.0737437365, ,0.012548279477543976, ,0.04474423878533091, ,0.0009419076591035784, ,1.8333333333333333, ,0.8292134648447274, ,0.5967225158670231, ,0.18083304422358729
111, ,PASS, ,0.07595966000000001, ,0.012850898703069312, ,0.04482805449745923, ,0.0009935675120342367, ,1.8333333333333333, ,0.8248240013772682, ,0.5961919144507255, ,0.16589457358013102
112, ,PASS, ,0.15792729999999988, ,0.0223847203728153, ,0.047732673191771574, ,0.003598301883005005, ,1.6666666666666667, ,0.7500078248496699, ,0.6092324646435787, ,0.21001612211995674
113, ,PASS, ,0.12811607, ,0.017783835548939145, ,0.04700558202914226, ,0.0023180179272778807, ,1.75, ,0.7134139629259386, ,0.5962531376910676, ,0.07842697087814535
114, ,PASS, ,0.06871831399999999, ,0.011845743149500617, ,0.044389294596844965, ,0.0008286257691545644, ,1.9166666666666667, ,0.8390939446075844, ,0.5963551764249709, ,0.18252688720638355
115, ,PASS, ,0.067066816, ,0.011567716534997555, ,0.044072382812187505, ,0.0007897213309251584, ,1.9166666666666667, ,0.8408940946788747, ,0.5965388461459971, ,0.17501683639109405
116, ,PASS, ,0.06711034700000001, ,0.011634855428322146, ,0.04418829704271342, ,0.0007947344324314476, ,1.9166666666666667, ,0.8416669708402787, ,0.5953143813391564, ,0.17536376808636558
117, ,PASS, ,0.06692221899999998, ,0.011569573240719406, ,0.04418912735189078, ,0.0007882025766805587, ,1.9166666666666667, ,0.840259839807257, ,0.5966612926266811, ,0.16632313626252526
118, ,PASS, ,0.06684805400000002, ,0.01158077215869379, ,0.04391718941797107, ,0.0007879922657762557, ,1.9166666666666667, ,0.8419482859615385, ,0.5956204975408665, ,0.18369012877288218
119, ,PASS, ,0.06663302100000001, ,0.011559355998862215, ,0.044309483592987906, ,0.0007836517766034953, ,1.9166666666666667, ,0.8436708001464969, ,0.5962123221975062, ,0.18189424705618254
120, ,PASS, ,0.06677013900000003, ,0.011495517477439614, ,0.04409543774820922, ,0.0007814639228728151, ,1.9166666666666667, ,0.838318856442014, ,0.5960898757168221, ,0.1594253178506561
121, ,PASS, ,0.066767524, ,0.01151515239659155, ,0.04398874048978593, ,0.0007825195823255601, ,1.9166666666666667, ,0.8409778436326102, ,0.5947837799228587, ,0.167098630640191
122, ,PASS, ,0.06691672300000001, ,0.011527524510822396, ,0.04402908031632008, ,0.0007852496546025782, ,1.9166666666666667, ,0.836943236567972, ,0.5933348299014306, ,0.1591600171425073
123, ,PASS, ,0.06679635800000001, ,0.011514581389898994, ,0.043979053723393405, ,0.0007828791715456578, ,1.9166666666666667, ,0.8383411566707751, ,0.594579702455052, ,0.15846615375196424
124, ,PASS, ,0.06613504700000003, ,0.011403479676044714, ,0.04412945428807576, ,0.0007677022169724814, ,1.9166666666666667, ,0.8384018966678272, ,0.5963755841717516, ,0.15838452276484152
125, ,PASS, ,0.066375895, ,0.011419466590679134, ,0.04418771149792862, ,0.0007715118372422547, ,1.9166666666666667, ,0.839904978616111, ,0.5966204771331197, ,0.17097610252851983
126, ,PASS, ,0.06639732500000002, ,0.011461852843945939, ,0.04418070172241383, ,0.0007745822061337371, ,1.9166666666666667, ,0.8407872857989817, ,0.5957225362747699, ,0.1671190383869717
127, ,PASS, ,0.06632351300000003, ,0.011430832264927292, ,0.044002564097671476, ,0.0007716732115199557, ,1.9166666666666667, ,0.8396260079898191, ,0.5964572151588743, ,0.16797616375176017
128, ,PASS, ,0.06611807999999997, ,0.01147208500713953, ,0.044376017332299345, ,0.0007716907406151996, ,1.9166666666666667, ,0.8433093290406469, ,0.5934572763821147, ,0.1716495581722822
129, ,PASS, ,0.06649397299999997, ,0.011491271740561967, ,0.044390979461643644, ,0.0007775010595889047, ,1.9166666666666667, ,0.8408402154380031, ,0.5937225770902634, ,0.15964980306524357
130, ,PASS, ,0.066751398, ,0.011490461635322297, ,0.04423296236076815, ,0.0007807313928620801, ,1.9166666666666667, ,0.839733823237961, ,0.5959266137425767, ,0.16087426787208425
131, ,PASS, ,0.06663349, ,0.011453645466904751, ,0.044364218637578834, ,0.0007767795334036607, ,1.9166666666666667, ,0.8377879773036336, ,0.5958245750086733, ,0.1516703740739985
132, ,PASS, ,0.067046992, ,0.011506292351162462, ,0.044267300000204075, ,0.0007851621300758694, ,1.9166666666666667, ,0.8386367504193168, ,0.5963551764249709, ,0.15842533825840288
133, ,PASS, ,0.06663241700000003, ,0.011504322506778082, ,0.04453530287279851, ,0.000780281194678128, ,1.9166666666666667, ,0.841670648555079, ,0.596600069386339, ,0.17622089345115405
134, ,PASS, ,0.066827061, ,0.011497801268708488, ,0.04437588894777658, ,0.0007819907928572642, ,1.9166666666666667, ,0.8392642404029819, ,0.5963551764249709, ,0.16213954817248627
135, ,PASS, ,0.06675580899999999, ,0.011550862068762727, ,0.044308147132303424, ,0.0007843461108645557, ,1.9166666666666667, ,0.8445503132111982, ,0.596987816575172, ,0.1858941654251954
136, ,PASS, ,0.06692488199999998, ,0.011502456889087713, ,0.04459640755494786, ,0.0007835496259934307, ,1.9166666666666667, ,0.8379498721963589, ,0.5964980306524357, ,0.16432317707801883
137, ,PASS, ,0.06685974400000001, ,0.011516623519419192, ,0.04442073064447665, ,0.0007836411344799842, ,1.9166666666666667, ,0.8399558932682308, ,0.595906205995796, ,0.17113936450276526
138, ,PASS, ,0.066814194, ,0.011510673838232618, ,0.044544137196995987, ,0.0007828486908694726, ,1.9166666666666667, ,0.8389730547202963, ,0.5962531376910676, ,0.16436399257158016
139, ,PASS, ,0.066913644, ,0.011503214566253816, ,0.044344055661925265, ,0.0007833868704861812, ,1.9166666666666667, ,0.8365883008795026, ,0.595967429236138, ,0.1547111283443195
140, ,PASS, ,0.06702393200000001, ,0.01154936758962417, ,0.04447874863615029, ,0.0007873505007765251, ,1.9166666666666667, ,0.8395034236359585, ,0.5961919144507255, ,0.14058896757209036
141, ,PASS, ,0.066799919, ,0.011504853586116756, ,0.04434392218750638, ,0.0007824190299204295, ,1.9166666666666667, ,0.8397184193681538, ,0.5967429236138038, ,0.17222097508214118
142, ,PASS, ,0.067046103, ,0.011535468856593572, ,0.04428595392869533, ,0.0007872870298928275, ,1.9166666666666667, ,0.837168292716444, ,0.5958857982490153, ,0.14995612334442154
143, ,PASS, ,0.067123607, ,0.011574919113094953, ,0.044350631834860516, ,0.0007907770499288392, ,1.9166666666666667, ,0.8410629830216941, ,0.5949674496438848, ,0.17552703006061102
144, ,PASS, ,0.06726599199999998, ,0.011573560207055847, ,0.04440505436133957, ,0.0007922922551262784, ,1.9166666666666667, ,0.8391604351743467, ,0.5965388461459971, ,0.16787412501785678
145, ,PASS, ,0.06735412600000001, ,0.011603698524529577, ,0.04420369057753924, ,0.0007955938026877023, ,1.9166666666666667, ,0.8389663656204843, ,0.5963755841717516, ,0.1672823003612171
146, ,PASS, ,0.06836169899999998, ,0.011742285628043971, ,0.04460365708107998, ,0.0008171078907226274, ,1.9166666666666667, ,0.8355819095587808, ,0.5963551764249709, ,0.16430276933123814
147, ,PASS, ,0.06731828699999999, ,0.011641922461300185, ,0.04423545381196302, ,0.0007973965847430462, ,1.9166666666666667, ,0.8406214668532836, ,0.5936001306095794, ,0.16569049611232423
148, ,PASS, ,0.067042764, ,0.011555836695033093, ,0.04445409615232342, ,0.0007885469460101973, ,1.9166666666666667, ,0.8400741405852534, ,0.5963143609314095, ,0.17632293218505746
149, ,PASS, ,0.06705777099999997, ,0.011570934880730367, ,0.04460234725638253, ,0.0007894023923002625, ,1.9166666666666667, ,0.8399461611233482, ,0.5963959919185323, ,0.15809881430991204
150, ,PASS, ,0.067234577, ,0.011569804881732, ,0.044404025895185814, ,0.000791862526329283, ,1.9166666666666667, ,0.8380429323313012, ,0.594763372176078, ,0.16671088345135812
151, ,PASS, ,0.06723955499999998, ,0.011583440789938235, ,0.04424442371563846, ,0.0007926496827076965, ,1.9166666666666667, ,0.8371184868887404, ,0.5935797228627987, ,0.15589477765759882
152, ,PASS, ,0.06738908099999998, ,0.011532776818822817, ,0.044578238605334594, ,0.0007909236443896691, ,1.9166666666666667, ,0.8349937831574374, ,0.5952939735923757, ,0.1343441970572029
153, ,PASS, ,0.06741023199999999, ,0.01156063700333088, ,0.044539113232995246, ,0.0007932033722585617, ,1.9166666666666667, ,0.8376741325292782, ,0.5962531376910676, ,0.15991510377339238
154, ,PASS, ,0.06849809999999998, ,0.011781497461972249, ,0.04456283632293219, ,0.000821452829723496, ,1.9166666666666667, ,0.8343700879202746, ,0.5961715067039448, ,0.17022101589763475
155, ,PASS, ,0.06712406500000001, ,0.011525857045196949, ,0.044417659985510505, ,0.0007873657546076014, ,1.9166666666666667, ,0.8381837352619016, ,0.5964572151588743, ,0.16903736658435542
156, ,PASS, ,0.06731565499999999, ,0.011583437999824576, ,0.044603257682700355, ,0.0007935515942583865, ,1.9166666666666667, ,0.838842872851294, ,0.5950694883777882, ,0.16636395175608662
157, ,PASS, ,0.06724979499999997, ,0.011600541522397189, ,0.044480789336952306, ,0.000794058372277741, ,1.9166666666666667, ,0.8397006514096459, ,0.5956000897940859, ,0.16528234117671067
158, ,PASS, ,0.06724417799999999, ,0.011577686978915414, ,0.044693841413848696, ,0.000792521380214677, ,1.9166666666666667, ,0.8390663348325508, ,0.595906205995796, ,0.16169057774331136
159, ,PASS, ,0.06718360899999999, ,0.01157815614171471, ,0.04433926450562234, ,0.0007917793017297391, ,1.9166666666666667, ,0.8397993866954705, ,0.5960898757168221, ,0.16495581722821984
160, ,PASS, ,0.06732893899999999, ,0.011564927006775366, ,0.04448057038019632, ,0.0007925650039917988, ,1.9166666666666667, ,0.8381008924477089, ,0.5956000897940859, ,0.1581396298034734
161, ,PASS, ,0.06735015799999997, ,0.011620816076218716, ,0.04431782835105406, ,0.0007962140112364745, ,1.9166666666666667, ,0.8401848590620352, ,0.594579702455052, ,0.16764963980326933
162, ,PASS, ,0.06709222899999999, ,0.011564943179724818, ,0.044515378985122755, ,0.0007898160703561555, ,1.9166666666666667, ,0.8401689018938747, ,0.5959266137425767, ,0.1668333299320422
163, ,PASS, ,0.06697567999999997, ,0.011560054460177492, ,0.0444110565619069, ,0.0007880924786676875, ,1.9166666666666667, ,0.840941573707101, ,0.5961919144507255, ,0.16911899757147814
164, ,PASS, ,0.06731160799999998, ,0.011544398089841404, ,0.04453246555213159, ,0.0007908955176642629, ,1.9166666666666667, ,0.835910993878753, ,0.5957021285279892, ,0.15007856982510562
165, ,PASS, ,0.067170077, ,0.011555332684118083, ,0.04457933947266383, ,0.0007901286120852893, ,1.9166666666666667, ,0.8394342170836971, ,0.5962123221975062, ,0.15724168894512358
166, ,PASS, ,0.067228902, ,0.011560541834290682, ,0.04460693382420767, ,0.0007911373462552468, ,1.9166666666666667, ,0.8390655396589956, ,0.5963959919185323, ,0.15503765229281036
167, ,PASS, ,0.06735215499999997, ,0.011603430670781307, ,0.044071042416073146, ,0.0007953587972716468, ,1.9166666666666667, ,0.839137494737272, ,0.593498091875676, ,0.16587416583335035
168, ,PASS, ,0.06740395399999997, ,0.011623115219037762, ,0.04435738317952695, ,0.0007973986636519145, ,1.9166666666666667, ,0.8408002052440693, ,0.5948858186567622, ,0.17115977224954593
169, ,PASS, ,0.06738771599999999, ,0.011631426726614788, ,0.04424132986163548, ,0.0007977234819424862, ,1.9166666666666667, ,0.8416403716850456, ,0.5957633517683313, ,0.1758943695026632
170, ,PASS, ,0.06732795499999998, ,0.011683345112816858, ,0.04450269768208812, ,0.0008002670213311873, ,1.9166666666666667, ,0.8436947018652567, ,0.5946001102018326, ,0.18240444072569947
171, ,PASS, ,0.06745407399999997, ,0.011561582857643644, ,0.0445666446807208, ,0.0007937523728832039, ,1.9166666666666667, ,0.8371752830996086, ,0.595396012326279, ,0.14654802963204833
172, ,PASS, ,0.06753556199999998, ,0.011606068068421299, ,0.04447235703455032, ,0.0007977371653616937, ,1.9166666666666667, ,0.8390940030179694, ,0.5959878369829187, ,0.15546621497520458
173, ,PASS, ,0.06745755, ,0.01160553758178765, ,0.04443117957490664, ,0.0007967920084024861, ,1.9166666666666667, ,0.8392652537910595, ,0.5956204975408665, ,0.15671108752882595
174, ,PASS, ,0.06726508499999997, ,0.011636917524306041, ,0.04443917047101079, ,0.0007964241627633336, ,1.9166666666666667, ,0.8418130601632849, ,0.5936817615967022, ,0.1653639721638334
175, ,PASS, ,0.06734298899999998, ,0.011589460308807132, ,0.044572021472418934, ,0.0007944263818694187, ,1.9166666666666667, ,0.8404685210550324, ,0.5960694679700415, ,0.1668537376788229
176, ,PASS, ,0.06757480899999999, ,0.01164439903837484, ,0.04453756263259934, ,0.0008009721665472933, ,1.9166666666666667, ,0.8393304492504022, ,0.595967429236138, ,0.15585396216403746
177, ,PASS, ,0.06770732899999996, ,0.011678035761864783, ,0.04448042530989164, ,0.0008045883874781586, ,1.9166666666666667, ,0.8418001161808487, ,0.5962939531846289, ,0.17097610252851983
178, ,PASS, ,0.067715885, ,0.011688546362670093, ,0.044276426573743394, ,0.0008052479733201901, ,1.9166666666666667, ,0.8411198707538969, ,0.5932940144078692, ,0.1635068672067917
179, ,PASS, ,0.06755742099999998, ,0.011702697607002573, ,0.04431633740535908, ,0.0008041206976662185, ,1.9166666666666667, ,0.8457945048563102, ,0.5965184383992164, ,0.18336360482439135
180, ,PASS, ,0.06761795999999996, ,0.01163602371924302, ,0.04455303319850615, ,0.0008007990367160429, ,1.9166666666666667, ,0.8410783839742774, ,0.595844982755454, ,0.16348645946001103
181, ,PASS, ,0.06796216699999998, ,0.011708059835722547, ,0.04439106516234363, ,0.0008096179494568997, ,1.9166666666666667, ,0.8410086574076712, ,0.594640925695394, ,0.1605477439235934
182, ,PASS, ,0.06789248199999999, ,0.0116421941032872, ,0.044523227239444095, ,0.0008044005131581096, ,1.9166666666666667, ,0.8380498078310352, ,0.5960490602232608, ,0.1536907410052856
183, ,PASS, ,0.06758135000000001, ,0.011626746642604185, ,0.04421299783371768, ,0.0007997107680886341, ,1.9166666666666667, ,0.8406239652351282, ,0.5960082447296994, ,0.15926205587641068
184, ,PASS, ,0.06808513599999996, ,0.011689206125002951, ,0.04434747950980592, ,0.0008100722718793322, ,1.9166666666666667, ,0.8393151204951941, ,0.5951715271116916, ,0.15520091426705576
185, ,PASS, ,0.06772352499999999, ,0.01167673515768893, ,0.044592539619803674, ,0.0008049920037058793, ,1.9166666666666667, ,0.8416211182154913, ,0.5963959919185323, ,0.1627721883226873
186, ,PASS, ,0.06939405699999997, ,0.011958107327334612, ,0.04482408517560865, ,0.0008442802944004377, ,1.9166666666666667, ,0.8413237283986266, ,0.5948041876696394, ,0.1634048284728883
187, ,PASS, ,0.14438057, ,0.020154937627895084, ,0.04840721687802289, ,0.0029611059105752366, ,1.75, ,0.7126317506297711, ,0.596600069386339, ,0.08546764351747924
188, ,PASS, ,0.11097089999999998, ,0.016105304372336825, ,0.046418782092406276, ,0.0018187827825345304, ,1.75, ,0.7337032192013886, ,0.596477622905655, ,0.09489602253015245
189, ,PASS, ,0.06207201800000002, ,0.0107417108720035, ,0.04419784793636865, ,0.0006786412002094376, ,1.9166666666666667, ,0.8426131832246495, ,0.5963347686781902, ,0.17258831452419338
190, ,PASS, ,0.06112674199999998, ,0.010573935000291688, ,0.044066958846350084, ,0.0006579089018149119, ,1.9166666666666667, ,0.8433031470781918, ,0.5962531376910676, ,0.17060876308646764
191, ,PASS, ,0.061072023, ,0.010586573124393508, ,0.043767403641354265, ,0.0006581622852522509, ,1.9166666666666667, ,0.8431517442770163, ,0.5954776433134018, ,0.1690577743311361
192, ,PASS, ,0.060720490000000016, ,0.010526281291486327, ,0.044034993683598304, ,0.000650613632874922, ,1.9166666666666667, ,0.8431019535014274, ,0.5961919144507255, ,0.17511887512499744
193, ,PASS, ,0.060873988, ,0.010557398616730164, ,0.04392629471480174, ,0.0006541376140163388, ,1.9166666666666667, ,0.8414675346353558, ,0.5943960327340259, ,0.15654782555458052
194, ,PASS, ,0.06089339200000002, ,0.010527017862311003, ,0.04394894690904268, ,0.000652430037177804, ,1.9166666666666667, ,0.84271400647042, ,0.5962123221975062, ,0.16773127079039205
195, ,PASS, ,0.06072262900000001, ,0.010520400767226587, ,0.04407590540131835, ,0.0006501114710624895, ,1.9166666666666667, ,0.8442506359637341, ,0.5963551764249709, ,0.16697618415950694
196, ,PASS, ,0.06109452900000003, ,0.01060517364688087, ,0.04371954291361401, ,0.0006592164850622503, ,1.9166666666666667, ,0.8424086393919699, ,0.5933552376482113, ,0.161017122099549
197, ,PASS, ,0.06110191399999999, ,0.010572328128663116, ,0.043939347723515855, ,0.0006574464368639345, ,1.9166666666666667, ,0.8427488315349181, ,0.5960694679700415, ,0.17030264688475746
198, ,PASS, ,0.06097688300000001, ,0.010537615249345716, ,0.04394100461500786, ,0.0006539952684023738, ,1.9166666666666667, ,0.841705875531179, ,0.595783759515112, ,0.16707822289341034
199, ,PASS, ,0.061042705000000023, ,0.010596295064713192, ,0.04374186416971083, ,0.0006580197445197324, ,1.9166666666666667, ,0.8456436316519923, ,0.5957633517683313, ,0.1820166935368666
200, ,PASS, ,0.06082340900000001, ,0.010513919484370497, ,0.04384430876859656, ,0.00065091910660582, ,1.9166666666666667, ,0.842356865802352, ,0.595844982755454, ,0.16746597008224323
201, ,PASS, ,0.06069139800000002, ,0.010499227004078161, ,0.04406047857411074, ,0.0006486337705371258, ,1.9166666666666667, ,0.8423009974519382, ,0.5962327299442869, ,0.1660986510479378
202, ,PASS, ,0.060794930000000025, ,0.010485940607014573, ,0.04382546033182997, ,0.0006489275404032327, ,1.9166666666666667, ,0.8409983327502536, ,0.595844982755454, ,0.16673129119813881
203, ,PASS, ,0.06066936900000003, ,0.010497351223799599, ,0.04394533036040082, ,0.0006481850776891902, ,1.9166666666666667, ,0.8434753822392833, ,0.5960286524764801, ,0.17575151527519847
204, ,PASS, ,0.06071759400000001, ,0.01048504767324774, ,0.04381595943980736, ,0.0006478994406620534, ,1.9166666666666667, ,0.8411314311773025, ,0.5954980510601825, ,0.16540478765739475
205, ,PASS, ,0.06074412, ,0.010496537140254239, ,0.04401308193036877, ,0.0006488311549457956, ,1.9166666666666667, ,0.8420709995668152, ,0.5958041672618927, ,0.1504459092671578
206, ,PASS, ,0.06073153100000001, ,0.01043961200568091, ,0.04387975750413257, ,0.0006454861156995048, ,1.9166666666666667, ,0.8389092198513467, ,0.5956000897940859, ,0.15440501214260932
207, ,PASS, ,0.06081052700000001, ,0.010421038211772515, ,0.043908432062610976, ,0.0006451480659738507, ,1.9166666666666667, ,0.836217560800025, ,0.595906205995796, ,0.11312014040529784
208, ,PASS, ,0.06049313800000003, ,0.010452946310051616, ,0.04402771337482909, ,0.0006435674043374706, ,1.9166666666666667, ,0.8435012521297575, ,0.5964368074120936, ,0.1711801799963266
209, ,PASS, ,0.06056899300000003, ,0.010456977541687557, ,0.04392777996714354, ,0.0006446989472269684, ,1.9166666666666667, ,0.8419603711155453, ,0.5964572151588743, ,0.16867002714230322
210, ,PASS, ,0.060468556000000034, ,0.010442756238684783, ,0.04404223114446644, ,0.0006427198845060145, ,1.9166666666666667, ,0.8415817580683572, ,0.5953551968327176, ,0.16246607212097713
211, ,PASS, ,0.06056610300000002, ,0.010435575518779244, ,0.04383468085488052, ,0.0006432707470519384, ,1.9166666666666667, ,0.8399982317400022, ,0.5955796820473052, ,0.15487439031856493
212, ,PASS, ,0.060803390000000006, ,0.010477797748386338, ,0.043802599893675645, ,0.0006484417606364039, ,1.9166666666666667, ,0.8385780528105479, ,0.5933960531417726, ,0.14942552192812392
213, ,PASS, ,0.060685763, ,0.01044159898278252, ,0.043951467348421466, ,0.0006450534597406245, ,1.9166666666666667, ,0.8418789744326457, ,0.596987816575172, ,0.1708944715413971
214, ,PASS, ,0.06032455000000002, ,0.010437009297557037, ,0.04379850192424645, ,0.0006408937223644798, ,1.9166666666666667, ,0.8371278333945094, ,0.5954368278198404, ,0.13887471684251343
215, ,PASS, ,0.06031843900000004, ,0.01040978233330733, ,0.043890222449337775, ,0.0006391570390107057, ,1.9166666666666667, ,0.8422170639766424, ,0.5963347686781902, ,0.16977204546845984
216, ,PASS, ,0.060915862000000015, ,0.01044904182016301, ,0.0439292553437685, ,0.0006479363490148688, ,1.9166666666666667, ,0.837214047548239, ,0.5961510989571641, ,0.15264994591947104
217, ,PASS, ,0.06069140500000001, ,0.010487486026988723, ,0.04411964404665211, ,0.0006474742291757738, ,1.9166666666666667, ,0.8417099554536931, ,0.595396012326279, ,0.16299667353727476
218, ,PASS, ,0.060553499000000024, ,0.010457129287779606, ,0.043851052320156736, ,0.0006445908391087303, ,1.9166666666666667, ,0.842653664623083, ,0.596477622905655, ,0.1778535131936083
219, ,PASS, ,0.06093661700000002, ,0.010506329386945401, ,0.043557719924899506, ,0.0006516974400519035, ,1.9166666666666667, ,0.8382779844463794, ,0.5936409461031408, ,0.1570376114773168
220, ,PASS, ,0.06100975600000001, ,0.010479749703748228, ,0.04382621328483093, ,0.0006508922645972559, ,1.9166666666666667, ,0.8363954118109184, ,0.5953551968327176, ,0.13675231117732292
221, ,PASS, ,0.06208230100000003, ,0.010698885175088898, ,0.043938385280300404, ,0.0006760527327678364, ,1.9166666666666667, ,0.8392389237417357, ,0.5957429440215506, ,0.16977204546845984
222, ,PASS, ,0.06069293100000002, ,0.010455043699582988, ,0.04407817580518766, ,0.0006460012518482518, ,1.9166666666666667, ,0.840776210365145, ,0.5960898757168221, ,0.16430276933123814
223, ,PASS, ,0.06064461900000004, ,0.010426960616854206, ,0.043771514834595224, ,0.0006436715485845859, ,1.9166666666666667, ,0.8408320909379663, ,0.5964980306524357, ,0.16707822289341034
224, ,PASS, ,0.060684050000000024, ,0.010478655955354198, ,0.04373214273178099, ,0.0006470514008068025, ,1.9166666666666667, ,0.8417320550913047, ,0.5961306912103834, ,0.16995571518948593
225, ,PASS, ,0.06064627700000001, ,0.01051790914131501, ,0.043742973863594624, ,0.0006490797342809219, ,1.9166666666666667, ,0.84126267223958, ,0.5943960327340259, ,0.16318034325830086
226, ,PASS, ,0.06107968700000003, ,0.010538271554000458, ,0.04356627243035857, ,0.0006547232425615615, ,1.9166666666666667, ,0.8395402520778532, ,0.592926674965817, ,0.16467010877329033
227, ,PASS, ,0.06057759400000001, ,0.010469415388799514, ,0.0437182578118814, ,0.0006451377128769398, ,1.9166666666666667, ,0.8411482158016093, ,0.5957021285279892, ,0.16142527703516255
228, ,PASS, ,0.060570485000000014, ,0.01048676854631489, ,0.04400383086120692, ,0.0006461968754848259, ,1.9166666666666667, ,0.8424558123027318, ,0.5956817207812085, ,0.16089467561886492
229, ,PASS, ,0.06203767000000002, ,0.010719041527272702, ,0.043789296880879985, ,0.0006769392714596269, ,1.9166666666666667, ,0.8389939868812772, ,0.5959878369829187, ,0.17771065896614355
230, ,PASS, ,0.060405367000000036, ,0.01042585979462246, ,0.043685082786677834, ,0.0006409564884232717, ,1.9166666666666667, ,0.8402632225721365, ,0.5960082447296994, ,0.17058835533968694
231, ,PASS, ,0.06019153800000004, ,0.010376340783869181, ,0.04361761677333116, ,0.0006356617639859158, ,1.9166666666666667, ,0.8380171739826136, ,0.5956613130344278, ,0.1546294973571968
232, ,PASS, ,0.06034498000000001, ,0.010385016708980217, ,0.043810972974225024, ,0.0006378076017296103, ,1.9166666666666667, ,0.8403652571737774, ,0.595396012326279, ,0.16487418624109712
233, ,PASS, ,0.06028565500000002, ,0.01037341138375408, ,0.043813069378175966, ,0.0006364737361325755, ,1.9166666666666667, ,0.8398310151537087, ,0.5955796820473052, ,0.16107834533989102
234, ,PASS, ,0.06010207400000005, ,0.01033127918860659, ,0.043671590394073596, ,0.0006319703330477366, ,1.9166666666666667, ,0.8394271589857295, ,0.5950490806310075, ,0.16113956858023307
235, ,PASS, ,0.060316175, ,0.01042991912167416, ,0.043683149328381056, ,0.000639997581793636, ,1.9166666666666667, ,0.8414078406109952, ,0.5929062672190364, ,0.16750678557580456
236, ,PASS, ,0.06077101400000001, ,0.01044651490000035, ,0.043671279637966576, ,0.0006461282234162095, ,1.9166666666666667, ,0.8377869913498234, ,0.5947429644292974, ,0.14707863104834595
237, ,PASS, ,0.06080234100000001, ,0.010472103486568234, ,0.04370069075222955, ,0.0006480220608736366, ,1.9166666666666667, ,0.8392237635374408, ,0.5955184588069631, ,0.15854778473908696
238, ,PASS, ,0.060668842999999986, ,0.010434385175932072, ,0.043780986096814356, ,0.0006443174672450527, ,1.9166666666666667, ,0.838635244910459, ,0.5959470214893574, ,0.1449766331299361
239, ,PASS, ,0.06058061500000003, ,0.010420759883773684, ,0.043888541848737785, ,0.0006425318317243548, ,1.9166666666666667, ,0.8361027695919507, ,0.5951511193649109, ,0.1493642986877819
240, ,PASS, ,0.06079161900000001, ,0.010468200035711474, ,0.043848668238403304, ,0.0006477346852949503, ,1.9166666666666667, ,0.8409457156923649, ,0.5956409052876472, ,0.1669353686659456
241, ,PASS, ,0.061015787, ,0.010564519339525003, ,0.04380146490867534, ,0.0006558597729641563, ,1.9166666666666667, ,0.8430886687981508, ,0.5936001306095794, ,0.17318013918083305
242, ,PASS, ,0.06099168600000002, ,0.010468694750313133, ,0.04387458238893084, ,0.0006498623139209522, ,1.9166666666666667, ,0.8367536473450262, ,0.5953347890859371, ,0.14322156690679783
243, ,PASS, ,0.06122345, ,0.010579437788837695, ,0.043727688345543976, ,0.0006589613188560528, ,1.9166666666666667, ,0.8405516412916484, ,0.5928858594722557, ,0.16077222913818084
244, ,PASS, ,0.06136718499999999, ,0.010602369414515082, ,0.04372650151303035, ,0.0006618399918883136, ,1.9166666666666667, ,0.8403445200516858, ,0.5931715679271852, ,0.16371094467459849
245, ,PASS, ,0.06141019600000002, ,0.010590187448152892, ,0.043648236429052474, ,0.0006619812633376787, ,1.9166666666666667, ,0.8384208519196256, ,0.5931919756739659, ,0.16762923205648864
246, ,PASS, ,0.061574007000000014, ,0.010548800449511234, ,0.043963898747372505, ,0.0006607366309172628, ,1.9166666666666667, ,0.8354741460492925, ,0.5951715271116916, ,0.13867063937470664
247, ,PASS, ,0.061244052000000035, ,0.01050690295190192, ,0.043966909636333956, ,0.0006549117915313914, ,1.9166666666666667, ,0.8360607973374504, ,0.5951511193649109, ,0.1385277851472419
248, ,PASS, ,0.06115278900000001, ,0.010544481489469048, ,0.043796083465643565, ,0.000656223910966444, ,1.9166666666666667, ,0.8392993002454727, ,0.5957021285279892, ,0.16134364604803983
249, ,PASS, ,0.06125945000000001, ,0.010585886181740122, ,0.0440459747007204, ,0.0006597573022015486, ,1.9166666666666667, ,0.8419978722147474, ,0.5963143609314095, ,0.1733229934082978
250, ,PASS, ,0.06106759700000003, ,0.010500123198981517, ,0.0438498765655803, ,0.0006526454088664522, ,1.9166666666666667, ,0.8400229091558773, ,0.5963551764249709, ,0.1660170200608151
251, ,PASS, ,0.060803604000000025, ,0.010478492160507476, ,0.04401310864676232, ,0.0006482634887876514, ,1.9166666666666667, ,0.8415862683559353, ,0.5958857982490153, ,0.1635068672067917
252, ,PASS, ,0.06018942800000002, ,0.010371677422401117, ,0.0439122001920369, ,0.0006355486850917133, ,1.9166666666666667, ,0.8416577955721745, ,0.5961102834636027, ,0.16503744821534255
253, ,PASS, ,0.060336892000000024, ,0.010382801370969369, ,0.043983258529825923, ,0.0006376625742098233, ,1.9166666666666667, ,0.8398835612716842, ,0.5961715067039448, ,0.16122119956735576
254, ,PASS, ,0.060654203, ,0.010407430021248616, ,0.04391915302442808, ,0.0006425979988700368, ,1.9166666666666667, ,0.8387041313823488, ,0.5961715067039448, ,0.14991530785086019
255, ,PASS, ,0.060674078, ,0.010417751200259593, ,0.04391028558172283, ,0.0006433267265608174, ,1.9166666666666667, ,0.8393963844835769, ,0.5956409052876472, ,0.15252749943878696
