Channel, ,Pass/Fail, ,Amplitude, ,Sorting Function Response, ,Mean, ,Variance
60, ,PASS, ,0.035557450000000004, ,0.015654589186273934, ,-0.00071041073512785483, ,0.00011429744673737803
61, ,PASS, ,0.053786349999999969, ,0.027178014471256905, ,-0.0018765271915062926, ,0.00029992824506440283
62, ,PASS, ,0.048672880000000016, ,0.023730486658310956, ,-0.0016080044396644937, ,0.00023819999008665857
63, ,PASS, ,0.02500974600000001, ,0.011340466782437046, ,-0.00050545870499581831, ,5.8186059924570272e-05
64, ,PASS, ,0.033925949999999983, ,0.015126454338203553, ,-0.00071921442041999138, ,0.00010530288186302656
65, ,PASS, ,0.054779089999999982, ,0.027706354341891792, ,-0.0017076826481500355, ,0.00031128829550861492
66, ,PASS, ,0.049447200000000011, ,0.024160080101676605, ,-0.001691303004081546, ,0.00024656263783244444
67, ,PASS, ,0.025462671000000006, ,0.011428617328941272, ,-0.00052542630953041948, ,5.9618847647578333e-05
68, ,PASS, ,0.034515189999999987, ,0.018133563271173485, ,-0.0010974451670782226, ,0.00012829007376510826
69, ,PASS, ,0.057044409999999934, ,0.033645774867424733, ,-0.0028896654623374982, ,0.00039394520084273972
70, ,PASS, ,0.053119169999999979, ,0.029773280449795925, ,-0.0025991639027366756, ,0.00032594379353667808
71, ,PASS, ,0.026428920999999994, ,0.014855762038577297, ,-0.0010120548515948678, ,8.0525819077524141e-05
72, ,PASS, ,0.036808140000000017, ,0.018683193584351256, ,-0.0012460212867492519, ,0.00014089111055573579
73, ,PASS, ,0.059782379999999954, ,0.035084592234743271, ,-0.0026813172023019906, ,0.00043008923870938015
74, ,PASS, ,0.056647749999999955, ,0.032562533613733395, ,-0.0024406388849207124, ,0.00038004269870812627
75, ,PASS, ,0.029292789999999989, ,0.01566010978244705, ,-0.00091155993498091988, ,9.391376614163869e-05
76, ,PASS, ,0.038841690000000026, ,0.019528230832604875, ,-0.00091020853813187708, ,0.00015544085571270733
77, ,PASS, ,0.06079049999999997, ,0.035464317766878098, ,-0.0027233219630211614, ,0.0004422632382648926
78, ,PASS, ,0.056603309999999948, ,0.032375505442447355, ,-0.0026826337064549664, ,0.00037751504752514406
79, ,PASS, ,0.029252379999999981, ,0.015631235993006587, ,-0.00076214598822473164, ,9.3614183289845068e-05
80, ,PASS, ,0.036393919999999996, ,0.020590674055578573, ,-0.0013575531640170626, ,0.00015349304997384832
81, ,PASS, ,0.066315969999999974, ,0.041715114330133272, ,-0.003025063789718581, ,0.00056765251041292707
82, ,PASS, ,0.064788120000000005, ,0.039171130363367779, ,-0.0031439425877022933, ,0.00052288157870356922
83, ,PASS, ,0.035813829999999998, ,0.02157694629560665, ,-0.0010179257317401687, ,0.00015855438369321789
84, ,PASS, ,0.038343230000000034, ,0.020194099761861178, ,-0.0011273261764249728, ,0.00015850845583806911
85, ,PASS, ,0.066813539999999991, ,0.039469045884662601, ,-0.0031127877141282879, ,0.00054085926358703662
86, ,PASS, ,0.063723109999999999, ,0.037125727735553546, ,-0.0031399858119222075, ,0.00048713947200535894
87, ,PASS, ,0.033763049999999982, ,0.018726963019092227, ,-0.00096418689085937077, ,0.00012957238221405874
88, ,PASS, ,0.038844890000000049, ,0.022617492202070013, ,-0.0012204089905512151, ,0.00018006213866353412
89, ,PASS, ,0.066378999999999994, ,0.043144094603210552, ,-0.0034499474357666217, ,0.00058784378556116712
90, ,PASS, ,0.063555340000000016, ,0.040256459278612364, ,-0.0031596344531744243, ,0.00052704540044750932
91, ,PASS, ,0.033345369999999985, ,0.020780798536681834, ,-0.0012939941875471925, ,0.00014209574000526162
92, ,PASS, ,0.034320329999999996, ,0.01945593319441297, ,-0.0014420952862798718, ,0.00013665146119722107
93, ,PASS, ,0.064528870000000002, ,0.041184395270597418, ,-0.0031983390559376353, ,0.00054516638359364451
94, ,PASS, ,0.063111290000000028, ,0.040322430545698118, ,-0.0033107330683047271, ,0.0005238557261897889
95, ,PASS, ,0.032333719999999976, ,0.020007579491882262, ,-0.0013671199712046692, ,0.00013263040820532261
96, ,PASS, ,0.03043052999999999, ,0.017236046516610561, ,-0.0010263280953245861, ,0.00010745834170352203
97, ,PASS, ,0.062895250000000028, ,0.040504778788820757, ,-0.0031132606679455509, ,0.00052287522230503865
98, ,PASS, ,0.06200551, ,0.039620672363462832, ,-0.0033716982565661908, ,0.00050602012938868622
99, ,PASS, ,0.02882077999999999, ,0.01794564171903237, ,-0.0011595043045448073, ,0.00010606027739857018
100, ,PASS, ,0.028461069999999977, ,0.013102080285929919, ,-0.00070698571931185209, ,7.6255428010930186e-05
101, ,PASS, ,0.061380409999999969, ,0.034104352240461315, ,-0.0020913224897655138, ,0.00042920982992508141
102, ,PASS, ,0.06021914999999993, ,0.034210006205225567, ,-0.002693870662843613, ,0.00042377848472201869
103, ,PASS, ,0.025512229999999997, ,0.012950876648468517, ,-0.00078599962127303715, ,6.7659393466503273e-05
198, ,PASS, ,0.027927570999999984, ,0.0092263906954512896, ,-0.0006220422130976933, ,5.4225092041945263e-05
199, ,PASS, ,0.019162593999999991, ,0.011752575835776371, ,-0.00048522047454133751, ,4.6164261242076705e-05
200, ,PASS, ,0.023655562000000008, ,0.015805376239237362, ,-0.00082523292740964546, ,7.6179275972645388e-05
201, ,PASS, ,0.037984379999999998, ,0.027600710971699912, ,-0.0017360457841880813, ,0.00021263602335997188
202, ,PASS, ,0.041765269999999986, ,0.029068890467791136, ,-0.0020135492130364686, ,0.00024623770818048762
203, ,PASS, ,0.042282150000000004, ,0.030096265576756525, ,-0.0020389760857941657, ,0.00025813507345632663
204, ,PASS, ,0.067037340000000001, ,0.043706445816544717, ,-0.0034810530323870909, ,0.00059444915267352762
205, ,PASS, ,0.11259169000000008, ,0.017013320166314207, ,0.00054434505639272838, ,0.00040348657046216735
206, ,PASS, ,0.057135070000000093, ,0.035827092227913755, ,-0.0025887899506132472, ,0.00041566233775652237
207, ,PASS, ,0.060874200000000045, ,0.03386933359846131, ,-0.0023864548454113118, ,0.00041914446195046457
208, ,PASS, ,0.061687070000000101, ,0.031171312909550618, ,-0.0021792277004550852, ,0.00039136141323591381
209, ,PASS, ,0.19979999999999964, ,0.22503844161639469, ,-0.029368623194016136, ,0.0094978801096537273
210, ,PASS, ,0.05857011000000005, ,0.029305155283080097, ,-0.0024046725628048362, ,0.00034968223569550253
211, ,PASS, ,0.055575990000000061, ,0.032071016147337213, ,-0.0022797417534335973, ,0.00036205423737079446
212, ,PASS, ,0.075249119999999906, ,0.049419931568723791, ,-0.003880601489765512, ,0.0007550109315287984
213, ,PASS, ,0.11191483000000009, ,0.015951889634078946, ,0.00080639695538254513, ,0.00037875157751973405
214, ,PASS, ,0.051683839999999995, ,0.036945822930165559, ,-0.002680410567947589, ,0.00038713244039925075
215, ,PASS, ,0.031620769999999979, ,0.019913910354919542, ,-0.0013310223182588113, ,0.00012830946120415815
216, ,PASS, ,0.016214394, ,0.0081958922651869503, ,-0.00021204021722005798, ,2.7436081186785779e-05
217, ,PASS, ,0.032330679999999987, ,0.0023544830621599223, ,0.00089322601615966996, ,1.8891408416139642e-05
