Channel, ,Pass/Fail, ,Amplitude, ,Sorting Function Response, ,Mean, ,Variance, ,NPeaksRatio, ,PosIntegralRatio, ,ToT50, ,ToT99
36, ,PASS, ,0.015734520000000002, ,0.00219537346988332, ,0.036185028249831636, ,3.528922272237145e-05, ,1.8333333333333333, ,0.7596009777774941, ,0.5728862676271913, ,0.027060672231178955
37, ,PASS, ,0.022348380000000008, ,0.0033575387344233027, ,0.03673178088590029, ,7.628192410302424e-05, ,1.9166666666666667, ,0.7899130989223747, ,0.5779473888287994, ,0.08224321952613212
38, ,PASS, ,0.0202691, ,0.003044962976766572, ,0.03650882760821208, ,6.294579673228837e-05, ,1.8333333333333333, ,0.7890010719261599, ,0.5827636170690395, ,0.09210016122119957
39, ,PASS, ,0.011190030000000014, ,0.0015617398158719671, ,0.03608301014162976, ,1.7811821793265995e-05, ,1.75, ,0.7525589965301643, ,0.5852125466827207, ,0.019162874227056592
40, ,PASS, ,0.014825970000000018, ,0.002199769972479219, ,0.03611338644823575, ,3.3261303833570735e-05, ,1.9166666666666667, ,0.7845719354465418, ,0.578416767004755, ,0.0682843207281484
41, ,PASS, ,0.023903599999999994, ,0.0036878956344760477, ,0.03675729897410257, ,8.957785885742615e-05, ,1.9166666666666667, ,0.7974953415127867, ,0.576641293034836, ,0.08293708291667518
42, ,PASS, ,0.022186869999999997, ,0.003380154951798705, ,0.0365356125695394, ,7.639234673454498e-05, ,1.8333333333333333, ,0.7901367234688368, ,0.581457521275076, ,0.05834574804595825
43, ,PASS, ,0.01165761000000001, ,0.0016874169635406515, ,0.0358530773082182, ,2.0068888045439083e-05, ,1.8333333333333333, ,0.7731911025671719, ,0.5889267565968042, ,0.03648905124385217
44, ,PASS, ,0.014896259999999991, ,0.0021565210239909275, ,0.03603990659680415, ,3.2758066033155154e-05, ,1.8333333333333333, ,0.779611944386842, ,0.5793555233566662, ,0.0844880716720067
45, ,PASS, ,0.025388370000000007, ,0.003924820094455948, ,0.0367709649162262, ,0.00010139230268265103, ,1.9166666666666667, ,0.7997746378444621, ,0.5711312014040529, ,0.08732474847452093
46, ,PASS, ,0.024156069999999995, ,0.0036709394048370474, ,0.03677143726495378, ,9.038676698888588e-05, ,1.8333333333333333, ,0.793929448285983, ,0.5813758902879533, ,0.09583477888206363
47, ,PASS, ,0.01261942, ,0.0018128278249699605, ,0.036059835384175835, ,2.3299532303298324e-05, ,1.9166666666666667, ,0.7700277895579369, ,0.5818656762106896, ,0.043713393604212156
48, ,PASS, ,0.017267359999999995, ,0.0029286773647764566, ,0.03601444675965797, ,5.109118544160154e-05, ,2.0, ,0.8138768707480614, ,0.574233178914716, ,0.1048345952123426
49, ,PASS, ,0.030827700000000006, ,0.00529932497596482, ,0.03687519172118937, ,0.0001647385918888811, ,1.9166666666666667, ,0.8120836654770572, ,0.5668863900736719, ,0.14899695924572967
50, ,PASS, ,0.030602409999999993, ,0.005205016557788017, ,0.0368160987781882, ,0.0001609350192529568, ,1.9166666666666667, ,0.8085609657723836, ,0.5692332809534499, ,0.14356849860206936
51, ,PASS, ,0.01748007000000001, ,0.00292976706032687, ,0.03611403267974123, ,5.185115091527097e-05, ,2.0, ,0.8078823422646095, ,0.5728454521336299, ,0.0925287239035938
52, ,PASS, ,0.01829277, ,0.0029610607288313986, ,0.03644705313320137, ,5.488309980097173e-05, ,2.0, ,0.8012071012805845, ,0.5800289790004286, ,0.08954919287361482
53, ,PASS, ,0.03394527, ,0.0056883248815960945, ,0.03720503775494378, ,0.00019501755623420975, ,1.9166666666666667, ,0.807767964086654, ,0.5677843309320217, ,0.08265137446174568
54, ,PASS, ,0.03470852000000002, ,0.005755334608727889, ,0.03712894741290994, ,0.00020178206016738896, ,1.9166666666666667, ,0.8024939163066838, ,0.5696822513826248, ,0.1360380400399992
55, ,PASS, ,0.0198048, ,0.0032237021806781727, ,0.036361517249852045, ,6.454781891380503e-05, ,2.0, ,0.7958996164703307, ,0.568723087283933, ,0.0697740862431379
56, ,PASS, ,0.02231048, ,0.003814193878039236, ,0.03614561255933552, ,8.554914881903352e-05, ,1.8333333333333333, ,0.7912100015926264, ,0.5646619456745781, ,0.16597620456725373
57, ,PASS, ,0.03920510000000001, ,0.006480313605046722, ,0.036765857767596576, ,0.00025562743366348866, ,1.75, ,0.7689834133726396, ,0.5609681435072753, ,0.13467072100569377
58, ,PASS, ,0.04041544, ,0.006808901520580068, ,0.03689634082467705, ,0.00027671523854764764, ,1.75, ,0.7798875170344793, ,0.562825248464317, ,0.17456786596191914
59, ,PASS, ,0.025584090000000004, ,0.004382908497893915, ,0.036310245172547495, ,0.0001128275397258678, ,1.8333333333333333, ,0.7916852154626017, ,0.5653558090651212, ,0.1613844615416012
