Channel, ,Pass/Fail, ,Amplitude, ,Sorting Function Response, ,Mean, ,Variance
49, ,PASS, ,0.06550104362713999, ,0.04976851305069093, ,0.0056610815976011735, ,0.0006798022979006616
50, ,PASS, ,0.036292540008082, ,0.02780754538234663, ,0.0031154933661823704, ,0.00020959002214253285
51, ,PASS, ,0.06567462216036601, ,0.05077858696281995, ,0.005704411275178306, ,0.0006962054689669979
52, ,PASS, ,0.050595784892667, ,0.039864380426795916, ,0.004341818259362294, ,0.0004212008685068145
53, ,PASS, ,0.06576805184387902, ,0.05064176439349416, ,0.005619147706576974, ,0.0006948475174665892
54, ,PASS, ,0.050603232940930006, ,0.039846811831911584, ,0.004378283078286416, ,0.00042077887475471416
55, ,PASS, ,0.06848680530123, ,0.05327053920955021, ,0.005900576554825867, ,0.0007609940376212076
56, ,PASS, ,0.051480673407405, ,0.04113203080023908, ,0.004480823915284564, ,0.0004419142665278356
57, ,PASS, ,0.06091845046156001, ,0.04904939132613659, ,0.0053178569283091415, ,0.0006243301642261107
58, ,PASS, ,0.054587324493692004, ,0.04284120415773686, ,0.004732383856256374, ,0.00048825640181722707
59, ,PASS, ,0.056939693944549, ,0.04594913265673959, ,0.004966149786071896, ,0.0005467381730917933
60, ,PASS, ,0.054612707731829004, ,0.04268626158489257, ,0.004759026171101941, ,0.00048661653339592513
61, ,PASS, ,0.057470239308285, ,0.047158520070549895, ,0.0049914546046849395, ,0.0005667980342916472
62, ,PASS, ,0.054546561888942996, ,0.04276687680372149, ,0.004758947331278124, ,0.0004871770311778857
63, ,PASS, ,0.063922758537975, ,0.04974275404532554, ,0.005499066108906862, ,0.0006656014399535933
64, ,PASS, ,0.056958175037889, ,0.043655995029889684, ,0.0049509971557060665, ,0.0005195859697239969
65, ,PASS, ,0.063781754084764, ,0.0485406448146585, ,0.0054914077414218035, ,0.000647827192508454
66, ,PASS, ,0.056935112674485006, ,0.04334429007473665, ,0.004901195382869129, ,0.000515738448378809
67, ,PASS, ,0.062587147202953, ,0.047453992425319856, ,0.005376058133986409, ,0.0006215451275162129
68, ,PASS, ,0.056668864709502, ,0.0433780670924162, ,0.004899530186106124, ,0.0005139088530859737
69, ,PASS, ,0.06331853996381898, ,0.04739268658445961, ,0.005401279117474621, ,0.0006286651669157881
70, ,PASS, ,0.059197300123478, ,0.04383562977494399, ,0.005045109111583874, ,0.0005428809413519683
71, ,PASS, ,0.062124520429571006, ,0.046424561248545576, ,0.0053186499491255914, ,0.0006042476754231511
72, ,PASS, ,0.05957037409047199, ,0.04363225047813138, ,0.005082564121065469, ,0.0005435841938514818
73, ,PASS, ,0.061656263853636, ,0.046219688521930584, ,0.005291282283401535, ,0.0005971821122896006
74, ,PASS, ,0.05941194539734801, ,0.0437394426272705, ,0.005089727549541353, ,0.0005434468311004468
75, ,PASS, ,0.05898858678840901, ,0.04506762645442633, ,0.005120698987226306, ,0.000557438425989976
76, ,PASS, ,0.05654776164693601, ,0.04225662348896153, ,0.004893426434814397, ,0.0004998215791791004
77, ,PASS, ,0.052684910318232005, ,0.04375169734670014, ,0.004685540967611566, ,0.00048240971275643053
78, ,PASS, ,0.0505291235635, ,0.0407980200974691, ,0.004450586604214615, ,0.0004304169926286803
198, ,PASS, ,0.09999999997600004, ,0.10212829879151647, ,0.010300466990843629, ,0.0023450507803605618
199, ,PASS, ,0.09999999997600004, ,0.1065350484299352, ,0.010244803686249868, ,0.0023372273184486905
200, ,PASS, ,0.09999999997600004, ,0.10856980391426282, ,0.010172327973867025, ,0.0022953440241871644
201, ,PASS, ,0.09999999997600004, ,0.10903142584812622, ,0.010247649391241401, ,0.0023273414204784664
202, ,PASS, ,0.09999999997600004, ,0.11100131526430355, ,0.010245470926953229, ,0.0023204131314099093
203, ,PASS, ,0.09999999997600004, ,0.11042458849654956, ,0.010251155248253117, ,0.002321604235570534
204, ,PASS, ,0.09999999997600004, ,0.11030550344721217, ,0.010265417675679686, ,0.0023229610990616687
205, ,PASS, ,0.09999999997600004, ,0.10994369250114593, ,0.010275329911284298, ,0.002323960883301034
206, ,PASS, ,0.09999999997600004, ,0.1096823814989604, ,0.0102642087858228, ,0.002323717729799742
207, ,PASS, ,0.09999999997600004, ,0.10941455408009895, ,0.010272203820730602, ,0.0023254914621153268
208, ,PASS, ,0.09999999997600004, ,0.1092689563289869, ,0.010271998414009862, ,0.0023260541316024864
209, ,PASS, ,0.09999999997600004, ,0.10844777593799984, ,0.010281413087312466, ,0.0023259482009628006
210, ,PASS, ,0.09999999997600004, ,0.10867969600327637, ,0.01028200694102136, ,0.002324664124330732
211, ,PASS, ,0.09999999997600004, ,0.10807695464420705, ,0.010280842491076001, ,0.0023270569673893783
212, ,FAIL, ,0.00012295994111355234, ,1.4872059888827747e-05, ,6.100154698336567e-05, ,4.5679530307799134e-10
213, ,PASS, ,0.09999999997600004, ,0.10736421511187841, ,0.010279247641561224, ,0.0023276923073337623
214, ,PASS, ,0.09999999997600004, ,0.10741843251737182, ,0.010279001806307286, ,0.0023275621350865887
215, ,PASS, ,0.09999999997600004, ,0.10694084127477564, ,0.010288455981465074, ,0.0023295334650246355
216, ,PASS, ,0.09999999997600004, ,0.10565274758897078, ,0.010294762121447205, ,0.002330998502612538
217, ,PASS, ,0.09999999997600004, ,0.10495669355521192, ,0.010292388917458772, ,0.0023319136673522665
218, ,PASS, ,0.09999999997600004, ,0.10465863429230601, ,0.010295360899617703, ,0.0023319125599692288
219, ,PASS, ,0.09999999997600004, ,0.10442156804699822, ,0.010296987859974295, ,0.0023332687763362035
220, ,PASS, ,0.046342179157575006, ,0.028428415731109394, ,0.0027329411449088913, ,0.00028588941113881505
221, ,PASS, ,0.037925672096386, ,0.023209749473965934, ,0.0022662024818857866, ,0.0001908165121179512
222, ,PASS, ,0.043618056805744, ,0.025377323967149434, ,0.002502713370197583, ,0.00024032573315697307
223, ,PASS, ,0.04283273964775801, ,0.02572191361253888, ,0.002506429932675714, ,0.00023914670054708432
224, ,PASS, ,0.08207102672349793, ,0.04411289151521698, ,0.004650668476110179, ,0.0007975038456139955
225, ,PASS, ,0.065994286883913, ,0.03447178668360652, ,0.003579063403132469, ,0.0004969408538817386
226, ,PASS, ,0.073606317868575, ,0.042277170649766375, ,0.004195530271077911, ,0.0006780549122558301
227, ,PASS, ,0.08724642267248496, ,0.059209616665953944, ,0.006179883806139875, ,0.0011116014560377443
