Channel, ,Pass/Fail, ,Amplitude, ,Sorting Function Response, ,Mean, ,Variance, ,NPeaksRatio, ,PosIntegralRatio, ,ToT50, ,ToT99
0, ,PASS, ,0.069900168, ,0.010316912366149416, ,0.03364266717365237, ,0.0007269649446853656, ,1.75, ,0.7596737265186317, ,0.6005795800085713, ,0.12044652149956123
1, ,PASS, ,0.06903666400000001, ,0.010229930202359159, ,0.03366103705302137, ,0.0007115451944120422, ,1.75, ,0.7603404494490484, ,0.5996612314034407, ,0.11916083345237852
2, ,PASS, ,0.069408593, ,0.01021819040661075, ,0.0336545873026526, ,0.0007149925532255537, ,1.75, ,0.759072580188085, ,0.602497908205955, ,0.12369135323768903
3, ,PASS, ,0.06918307200000001, ,0.010216094328153395, ,0.03361721608743087, ,0.0007124600903548477, ,1.75, ,0.7595415095085222, ,0.6002938715536418, ,0.1207526377012714
4, ,PASS, ,0.06885266700000003, ,0.01012898175508222, ,0.03368551273264219, ,0.0007034968407366365, ,1.75, ,0.7601279990648793, ,0.6035182955449889, ,0.1243648088814514
5, ,PASS, ,0.06889946800000002, ,0.010205362910781899, ,0.03359250432569091, ,0.0007090612953042577, ,1.75, ,0.762530003422868, ,0.5999061243648088, ,0.1243648088814514
6, ,PASS, ,0.06870660900000002, ,0.010114471123467838, ,0.03362296776775821, ,0.000700575904635943, ,1.75, ,0.7577911017759759, ,0.600599987755352, ,0.11207934531948327
7, ,PASS, ,0.06853922900000002, ,0.010148852549026508, ,0.03368815070960471, ,0.0007012921618277653, ,1.75, ,0.7620239188483419, ,0.6008652884635007, ,0.12950756107018224
8, ,PASS, ,0.06851993900000003, ,0.010098203617287499, ,0.033422828995975186, ,0.0006975753796175099, ,1.75, ,0.7597521386538533, ,0.6011305891716495, ,0.12138527785147242
9, ,PASS, ,0.06837392400000002, ,0.010095680558704917, ,0.03348592497823963, ,0.0006956864381022859, ,1.75, ,0.7593404966400983, ,0.5996204159098794, ,0.12018122079141243
10, ,PASS, ,0.06810491300000002, ,0.009972128668694645, ,0.033624905080135506, ,0.0006847448246952691, ,1.75, ,0.7550749437794755, ,0.6031713638497174, ,0.10981408542682802
11, ,PASS, ,0.06805474500000004, ,0.010062459410507782, ,0.03346321948365258, ,0.0006900054680826152, ,1.75, ,0.7585949161371139, ,0.5984775820901614, ,0.11705883553396869
12, ,PASS, ,0.06783685700000001, ,0.01001522476888375, ,0.03338576929110589, ,0.0006845007216920211, ,1.75, ,0.7579333921278969, ,0.5986816595579683, ,0.11558947776575988
13, ,PASS, ,0.06762478000000001, ,0.01002854288034908, ,0.03331692188673251, ,0.0006830737922015953, ,1.75, ,0.7593017885790699, ,0.5979673884206445, ,0.12169139405318259
14, ,PASS, ,0.06758755300000002, ,0.009955220392136954, ,0.033640289951442214, ,0.000677953675230471, ,1.75, ,0.7574088104430291, ,0.6002530560600804, ,0.11679353482581988
15, ,PASS, ,0.06733199100000001, ,0.00996902735737462, ,0.03336454444082937, ,0.0006758766628092556, ,1.75, ,0.7585358483702243, ,0.5970490398155139, ,0.12079345319483276
16, ,PASS, ,0.06712467700000001, ,0.009930370834684937, ,0.033431188161916287, ,0.000671331904659517, ,1.75, ,0.7572229550459032, ,0.5974163792575662, ,0.11332421787310464
17, ,PASS, ,0.06709515699999999, ,0.009907293041139029, ,0.033441556289757354, ,0.0006700194014415887, ,1.75, ,0.7601092751464052, ,0.6006203955021326, ,0.12377298422481174
18, ,PASS, ,0.067036475, ,0.009877490648241416, ,0.03354203080003387, ,0.000667452770651026, ,1.75, ,0.7573697052732388, ,0.6005591722617906, ,0.11487520662843616
19, ,PASS, ,0.06830308700000001, ,0.01002289519927242, ,0.03347031295052468, ,0.0006891822526362403, ,1.75, ,0.7534268802186872, ,0.5986000285708455, ,0.11787514540519581
20, ,PASS, ,0.06711914099999998, ,0.009869618029217703, ,0.033303863620971, ,0.0006674821762011367, ,1.75, ,0.7577238375069328, ,0.6001102018326157, ,0.11765066019060835
21, ,PASS, ,0.066541648, ,0.009836131867053436, ,0.03330614322604191, ,0.0006591751935362974, ,1.75, ,0.7596193001761886, ,0.5985388053305034, ,0.12171180179996327
22, ,PASS, ,0.06650161999999997, ,0.009833451732800765, ,0.033490415407679434, ,0.0006590604356411516, ,1.75, ,0.7602141035100111, ,0.5996204159098794, ,0.1261198751045897
23, ,PASS, ,0.06647946599999999, ,0.009791804292856143, ,0.0334677881633436, ,0.0006561334873673822, ,1.75, ,0.7591152893197611, ,0.6004367257811065, ,0.12040570600599988
24, ,PASS, ,0.06632314899999998, ,0.009791957462334688, ,0.03337124336253056, ,0.0006546038413645054, ,1.75, ,0.7588375789302901, ,0.6004571335278872, ,0.11795677639231852
25, ,PASS, ,0.06641746699999998, ,0.009883764869780903, ,0.03307129428855574, ,0.0006611984328179734, ,1.75, ,0.7601305892430997, ,0.5946613334421746, ,0.11524254607048835
26, ,PASS, ,0.06631504699999999, ,0.009814341919907403, ,0.033444797981543234, ,0.0006558837197227068, ,1.75, ,0.7603876269523365, ,0.6002530560600804, ,0.12346686802310157
27, ,PASS, ,0.06795591400000002, ,0.009907531297414755, ,0.03340926875979266, ,0.000678000475226721, ,1.75, ,0.7492461180295363, ,0.6004571335278872, ,0.09758984510520194
28, ,PASS, ,0.066654573, ,0.009857031674639869, ,0.0331850246368319, ,0.0006618560590290791, ,1.75, ,0.7591317230342383, ,0.5992122609742658, ,0.12534438072692394
29, ,PASS, ,0.06585077299999999, ,0.009746881226214659, ,0.033215417233496046, ,0.0006463559693606691, ,1.75, ,0.7587021141707881, ,0.5979469806738638, ,0.11736495173567886
30, ,PASS, ,0.06589513299999998, ,0.009737667901686297, ,0.03333807404041754, ,0.000646832687740222, ,1.75, ,0.7601173298254342, ,0.6011918124119916, ,0.1250994877655558
31, ,PASS, ,0.06570970899999998, ,0.009714434033407006, ,0.03313069557471888, ,0.0006429546510238659, ,1.75, ,0.7573237214755849, ,0.5977837186996183, ,0.11414052774433175
32, ,PASS, ,0.065273584, ,0.009656166347111968, ,0.03317752664612354, ,0.0006351885717978886, ,1.75, ,0.7585477910994434, ,0.5984979898369421, ,0.10552845860288565
33, ,PASS, ,0.06526380099999998, ,0.009625734549598967, ,0.03329347232501786, ,0.0006335728437132271, ,1.75, ,0.7591855798071928, ,0.6014571131201404, ,0.11287524744392971
34, ,PASS, ,0.06506897299999999, ,0.009623641162578491, ,0.03324934706893737, ,0.0006315745089639661, ,1.75, ,0.7617001437729389, ,0.6020081222832188, ,0.12428317789432869
35, ,PASS, ,0.064933036, ,0.009608361813011109, ,0.03324317089434501, ,0.0006293087722560342, ,1.75, ,0.7620035345429146, ,0.6019468990428767, ,0.12409950817330259
36, ,PASS, ,0.06511300099999999, ,0.009546011112243588, ,0.033451008980890186, ,0.0006265406573049121, ,1.75, ,0.7566564165274107, ,0.604844799085733, ,0.12007918205750903
37, ,PASS, ,0.06513199699999998, ,0.009689332686695652, ,0.03311133799998286, ,0.000635576005842701, ,1.75, ,0.7598314945954364, ,0.5970898553090753, ,0.11879349401032632
38, ,PASS, ,0.06500622499999999, ,0.009604905493517312, ,0.03336256458469827, ,0.0006296453270118232, ,1.75, ,0.7632960818591172, ,0.6047019448582682, ,0.13340544070529173
39, ,PASS, ,0.06479089499999999, ,0.00962726476230572, ,0.03299644978275137, ,0.0006283966254533839, ,1.75, ,0.761170629726036, ,0.595273565845595, ,0.10950796922511785
40, ,PASS, ,0.06478460099999998, ,0.009578283094740661, ,0.032941327766339464, ,0.0006250507751495378, ,1.75, ,0.7575075150689218, ,0.5978653496867411, ,0.10630395298055141
41, ,PASS, ,0.06467037999999999, ,0.009636093022270842, ,0.032865568868084324, ,0.0006278262529073554, ,1.75, ,0.7625157643773615, ,0.5961102834636027, ,0.12132405461113038
42, ,PASS, ,0.06425074799999998, ,0.009554462876050761, ,0.033064071082426885, ,0.0006184250662640124, ,1.75, ,0.7618832337162256, ,0.5996816391502214, ,0.12597702087712495
43, ,PASS, ,0.06438551199999999, ,0.0094726549475469, ,0.03324457860473663, ,0.0006149984874278961, ,1.75, ,0.7584783920169506, ,0.6047019448582682, ,0.12148731658537582
44, ,PASS, ,0.06446079999999997, ,0.009520941403802522, ,0.032961172501767305, ,0.0006184618447585415, ,1.75, ,0.7590801133458047, ,0.6000081630987123, ,0.11379359604906022
45, ,PASS, ,0.06438070099999997, ,0.009584380639005352, ,0.032872147587973716, ,0.0006216927967380939, ,1.75, ,0.7628127133721914, ,0.598191873635232, ,0.12150772433215648
46, ,PASS, ,0.054669260580000024, ,0.008357332582727119, ,0.03275672639031857, ,0.000462636005203343, ,1.75, ,0.7901588358175651, ,0.6075794371543438, ,0.1280790187955348
47, ,PASS, ,0.06420649299999998, ,0.009509730631143517, ,0.033027910305826406, ,0.0006152599225208873, ,1.75, ,0.7602666963687454, ,0.5993551152017306, ,0.11793636864553785
48, ,PASS, ,0.06408567399999998, ,0.009495360143050817, ,0.032972130706944755, ,0.0006131291235031293, ,1.75, ,0.7602684252230603, ,0.5986612518111876, ,0.11667108834513581
49, ,PASS, ,0.06415923999999998, ,0.00947336347439151, ,0.033072215921122014, ,0.0006124521488865697, ,1.75, ,0.7586213847887683, ,0.5993551152017306, ,0.10793657272300565
50, ,PASS, ,0.06395991599999999, ,0.00946966673560006, ,0.03299058784255015, ,0.0006107837948121426, ,1.75, ,0.7621612070817896, ,0.6022734229913675, ,0.12379339197159242
51, ,PASS, ,0.06367971699999997, ,0.009482272332521172, ,0.03294741624431134, ,0.0006082869498243392, ,1.75, ,0.7624529776234737, ,0.5983959511030387, ,0.12081386094161344
52, ,PASS, ,0.06367487999999999, ,0.009442636202015965, ,0.033155451761529356, ,0.0006060222519842945, ,1.75, ,0.7622529008752394, ,0.6021305687639028, ,0.12342605252954021
53, ,PASS, ,0.06379549099999998, ,0.009469273642562392, ,0.032842475354917244, ,0.0006088038979178411, ,1.75, ,0.7609946178238137, ,0.5993347074549499, ,0.11275280096324565
54, ,PASS, ,0.06290437499999998, ,0.009406396664705432, ,0.03293647985328871, ,0.000596372236125584, ,1.75, ,0.7658849338613704, ,0.6004367257811065, ,0.12901777514744597
55, ,PASS, ,0.06345218699999998, ,0.00941812750460293, ,0.03304096591529969, ,0.0006022743357629429, ,1.75, ,0.7623671657989898, ,0.6005795800085713, ,0.1132629946327626
56, ,PASS, ,0.06322011299999998, ,0.009425892956061555, ,0.03298238014702965, ,0.0006003504802480373, ,1.75, ,0.7646895940602434, ,0.6001918328197384, ,0.12656884553376463
57, ,PASS, ,0.06362928999999998, ,0.00946077834629751, ,0.0331071484559458, ,0.0006067523870143346, ,1.75, ,0.7623540627792514, ,0.6017224138282892, ,0.12397706169261852
58, ,PASS, ,0.05635853206000003, ,0.00805631387893546, ,0.032690518224077064, ,0.00046027722760806454, ,1.75, ,0.7606703477858355, ,0.6076814758882472, ,0.09214097671476092
59, ,PASS, ,0.056545210060000024, ,0.007950621800729902, ,0.03256590430170813, ,0.00045600857210963206, ,1.75, ,0.7506760507921364, ,0.6101099977551478, ,0.04959082467704741
60, ,PASS, ,0.07668164999999999, ,0.01207018649105557, ,0.033602722525397435, ,0.0009316555271118978, ,1.75, ,0.779911969419831, ,0.5960286524764801, ,0.13387481888124733
61, ,PASS, ,0.1277853, ,0.020390307106898983, ,0.03717248190771617, ,0.002613407243881134, ,1.75, ,0.7747009268310132, ,0.5873349523479112, ,0.20577131078957572
62, ,PASS, ,0.053806565840000015, ,0.008292667089543711, ,0.03289726997142915, ,0.00045318524519642067, ,2.0, ,0.7957400566002069, ,0.612130364686435, ,0.0987326789249199
63, ,PASS, ,0.05176391239999999, ,0.007989709023406646, ,0.03274781304722352, ,0.00042006593982770997, ,2.0, ,0.800213705698967, ,0.6115793555233566, ,0.11895675598457174
64, ,PASS, ,0.05155397939999997, ,0.00791936404325687, ,0.032622718910491615, ,0.0004144500021983216, ,1.9166666666666667, ,0.7983522785690949, ,0.6110691618538397, ,0.10838554315218057
65, ,PASS, ,0.05135400289999998, ,0.007910981158081917, ,0.03262683993640946, ,0.0004126731700870962, ,1.9166666666666667, ,0.7986414266220977, ,0.6133140139997143, ,0.11667108834513581
66, ,PASS, ,0.05116571999999997, ,0.007891704849802766, ,0.032616466924491334, ,0.0004104322838034276, ,2.0, ,0.8000290566256146, ,0.6134772759739597, ,0.11860982428930023
67, ,PASS, ,0.051163574099999984, ,0.00787317027713385, ,0.03240698498422481, ,0.0004089739670940147, ,1.9166666666666667, ,0.7962359603749187, ,0.6108650843860329, ,0.10171220995489888
68, ,PASS, ,0.05101220229999998, ,0.007868185670781305, ,0.03249937582604436, ,0.0004077963381290425, ,2.0, ,0.7994145954722242, ,0.613456868227179, ,0.1165078263708904
69, ,PASS, ,0.05104914959999997, ,0.007901961789529299, ,0.03242637437478827, ,0.00040961118112900095, ,1.9166666666666667, ,0.8003621380427695, ,0.6111303850941817, ,0.11744658272280158
70, ,PASS, ,0.05090052949999998, ,0.007885130857303222, ,0.03254791748562274, ,0.0004074329842399426, ,1.9166666666666667, ,0.801332848275099, ,0.6107630456521296, ,0.1188955327442297
71, ,PASS, ,0.05101632519999997, ,0.007868798551058587, ,0.032551146941980774, ,0.0004077841950586032, ,2.0, ,0.7985673082602834, ,0.6113344625619885, ,0.11046713332380972
72, ,PASS, ,0.050990165839999976, ,0.0079083787741276, ,0.03242129341311401, ,0.0004094407369081458, ,1.9166666666666667, ,0.7999772643128832, ,0.6100487745148058, ,0.1174261749760209
73, ,PASS, ,0.05098858419999997, ,0.007894536910313896, ,0.03255644597457195, ,0.00040877350071378594, ,1.9166666666666667, ,0.800005761982846, ,0.6119671027121896, ,0.11314054815207852
74, ,PASS, ,0.05086611889999997, ,0.00792513691885893, ,0.03229071549250015, ,0.00040915068300996054, ,1.9166666666666667, ,0.8025920284881898, ,0.6100895900083672, ,0.12540560396726597
75, ,PASS, ,0.050840246999999984, ,0.007907516659520627, ,0.03262015096510275, ,0.0004084006329178191, ,2.0, ,0.8008054027288639, ,0.6123140344074611, ,0.11605885594171547
76, ,PASS, ,0.05081383199999997, ,0.007847010397111684, ,0.0325296601177527, ,0.0004046080722695507, ,1.9166666666666667, ,0.7967279926552536, ,0.6081100385706414, ,0.10122242403216261
77, ,PASS, ,0.05070222679999997, ,0.007880255712760457, ,0.03245608229317769, ,0.00040554219254349986, ,1.9166666666666667, ,0.8016228252003442, ,0.6097018428195343, ,0.12236484969694496
78, ,PASS, ,0.05078968849999998, ,0.00781436842399358, ,0.03252059407381482, ,0.00040313655376869313, ,1.9166666666666667, ,0.7985805083591782, ,0.6139466541499153, ,0.11097732699332667
79, ,PASS, ,0.05063463899999996, ,0.007839291984540598, ,0.032450200045509275, ,0.00040295402512101146, ,1.9166666666666667, ,0.7964462794837275, ,0.6094161343646048, ,0.09807963102793821
80, ,PASS, ,0.05078161329999997, ,0.007894501804483053, ,0.03232360055837636, ,0.00040688642542356716, ,1.9166666666666667, ,0.8005056113723281, ,0.6106814146650068, ,0.10912022203628498
81, ,PASS, ,0.05178765209999997, ,0.00807955182556589, ,0.03233533079935103, ,0.00042440276939444534, ,1.9166666666666667, ,0.8004848013903473, ,0.6082120773045449, ,0.10809983469725108
82, ,PASS, ,0.050970686999999966, ,0.007921841042852533, ,0.032279212371910775, ,0.00040984557235374425, ,1.9166666666666667, ,0.7999546091371126, ,0.6125589273688292, ,0.11277320871002633
83, ,PASS, ,0.05054554139999998, ,0.007879072851036643, ,0.03240448245829677, ,0.0004040956634983653, ,1.9166666666666667, ,0.8019740531344909, ,0.6096814350727536, ,0.12244648068406767
84, ,PASS, ,0.05073399569999997, ,0.00784318072089163, ,0.03229791765319075, ,0.0004037241267732036, ,1.9166666666666667, ,0.7957984998663379, ,0.6098651047937798, ,0.09469194506234567
85, ,PASS, ,0.050722445399999976, ,0.00784761842128167, ,0.03252564279447358, ,0.0004042711364716747, ,2.0, ,0.8002113314444034, ,0.6122936266606804, ,0.11134466643537887
86, ,PASS, ,0.05053074579999997, ,0.007862042031624317, ,0.032274789426256605, ,0.00040316468250573283, ,1.9166666666666667, ,0.80003236642837, ,0.6092936878839207, ,0.11132425868859819
87, ,PASS, ,0.05049448559999997, ,0.0077782453364012875, ,0.032507611033631964, ,0.0003989050597567999, ,2.0, ,0.7979165392480443, ,0.6148854105018265, ,0.1068753698904104
88, ,PASS, ,0.05032012499999997, ,0.007814641828731024, ,0.03256148272467909, ,0.00039923396053692266, ,1.9166666666666667, ,0.8016975891754965, ,0.6120895491928736, ,0.11987510458970226
89, ,PASS, ,0.05128741479999997, ,0.0079917362312721, ,0.03252143409877349, ,0.00041608477003839134, ,2.0, ,0.801073526254292, ,0.6115589477765759, ,0.11458949817350667
90, ,PASS, ,0.050921909599999975, ,0.007922793188637738, ,0.032581267805922326, ,0.0004096028600648355, ,2.0, ,0.8004631629748891, ,0.6117630252443828, ,0.1138956347829636
91, ,PASS, ,0.050271561599999966, ,0.007796229837465439, ,0.03232153378639212, ,0.0003979928205477368, ,2.0, ,0.7996277853038473, ,0.6127221893430747, ,0.11077324952551988
92, ,PASS, ,0.05017726299999997, ,0.007748642384163772, ,0.032624393388420644, ,0.00039487444778362325, ,2.0, ,0.7994860164252743, ,0.6148445950082652, ,0.10932429950409175
93, ,PASS, ,0.04986056499999997, ,0.007806254900983943, ,0.032302438484663576, ,0.0003949183452888025, ,1.9166666666666667, ,0.8033743839324949, ,0.609212056896798, ,0.1268545539886941
94, ,PASS, ,0.049905483999999986, ,0.007792898826647473, ,0.032118243692843, ,0.00039445814615191954, ,1.9166666666666667, ,0.800389615029223, ,0.6063957878410645, ,0.11099773474010735
95, ,PASS, ,0.04992861799999999, ,0.0077227767390897935, ,0.03240973887447195, ,0.0003916822338327784, ,2.0, ,0.7980058469058189, ,0.6122732189138997, ,0.10454888675741311
96, ,PASS, ,0.049756419999999975, ,0.0077308324547707115, ,0.03226174555474378, ,0.00039035994272367566, ,1.9166666666666667, ,0.7982323676454257, ,0.6103957062100773, ,0.09865104793779719
97, ,PASS, ,0.04944427199999997, ,0.0076826632826677435, ,0.03230212340217547, ,0.00038551057300669937, ,1.9166666666666667, ,0.8008093607930282, ,0.6110895696006204, ,0.11463031366706802
98, ,PASS, ,0.04931554299999998, ,0.007657260223101509, ,0.03220358873514827, ,0.00038323708448089974, ,1.9166666666666667, ,0.8004124958627603, ,0.6110487541070591, ,0.11287524744392971
99, ,PASS, ,0.04907430799999997, ,0.007624415100347771, ,0.032476750488683905, ,0.00037976185781377124, ,1.9166666666666667, ,0.7993279940935414, ,0.6104773371972001, ,0.10628354523377075
100, ,PASS, ,0.04905851999999999, ,0.0075721552675968645, ,0.03214518748513295, ,0.00037720634462298975, ,1.9166666666666667, ,0.7986769317789272, ,0.612191587926777, ,0.11205893757270259
101, ,PASS, ,0.04887321199999998, ,0.007612619858954189, ,0.032096163276524974, ,0.00037755028428330235, ,1.8333333333333333, ,0.801468261026902, ,0.6072120977122916, ,0.12120160813044632
102, ,PASS, ,0.04885504999999999, ,0.0075583264708989776, ,0.03222748024828065, ,0.00037488093939103346, ,2.0, ,0.7978023158643284, ,0.610926307626375, ,0.10769167976163752
103, ,PASS, ,0.049022500000000004, ,0.00758881800715457, ,0.032170540431134056, ,0.0003777980808294505, ,1.9166666666666667, ,0.7989941895553221, ,0.6113548703087692, ,0.10932429950409175
104, ,PASS, ,0.049252668999999985, ,0.007636219547228771, ,0.03232287392455256, ,0.00038167619755288053, ,1.9166666666666667, ,0.8002133096043011, ,0.6107018224117875, ,0.11781392216485378
105, ,PASS, ,0.04940807799999998, ,0.007780581540223477, ,0.03191562723883186, ,0.0003897474157226203, ,1.9166666666666667, ,0.8027882571390319, ,0.60204893777678, ,0.11403848901042836
106, ,PASS, ,0.04979345989999999, ,0.007720174290045154, ,0.032065176543968496, ,0.0003901540415915104, ,1.9166666666666667, ,0.7998894794473416, ,0.6109671231199363, ,0.1107528417787392
107, ,PASS, ,0.049977482999999975, ,0.007821535068224982, ,0.032326943311095695, ,0.0003965253575827208, ,1.9166666666666667, ,0.8010088420751303, ,0.6092324646435787, ,0.1142833819717965
108, ,PASS, ,0.05027951529999999, ,0.007899601838007355, ,0.03218242235109488, ,0.0004027044254650448, ,1.9166666666666667, ,0.8014745886237342, ,0.608007999836738, ,0.11330381012632396
109, ,PASS, ,0.04843691699999999, ,0.007037788028492808, ,0.0323456649180629, ,0.0003473130074225145, ,1.9166666666666667, ,0.7802163588422131, ,0.6115997632701373, ,0.08561049774494398
