Channel, ,Pass/Fail, ,Amplitude, ,Sorting Function Response, ,Mean, ,Variance
36, ,PASS, ,0.007530813672975199, ,0.005137813893456968, ,0.0003140195865900029, ,8.1031004565161e-06
37, ,PASS, ,0.0133245854304638, ,0.008930380088908167, ,0.0004953568384000126, ,2.488741980085162e-05
38, ,PASS, ,0.011879652153444501, ,0.007959025458713364, ,0.0004268657748860296, ,1.979552703291245e-05
39, ,PASS, ,0.0049858520938787, ,0.0028089536704973108, ,0.0001409863118684605, ,2.932971715926097e-06
40, ,PASS, ,0.0075569329197508, ,0.005243783623679196, ,0.0003557307910947811, ,8.307663895499567e-06
41, ,PASS, ,0.013709831731252602, ,0.009240024726580344, ,0.0004948618101380627, ,2.6523899212662644e-05
42, ,PASS, ,0.012006236804904098, ,0.008067655762563146, ,0.0004454512301705803, ,2.0292488552936162e-05
43, ,PASS, ,0.004560636644321, ,0.0027429576157982664, ,0.00016060232119933786, ,2.6282394078847043e-06
44, ,PASS, ,0.0076369941411779, ,0.006819907008388759, ,0.00037105110064821053, ,1.0950002394434394e-05
45, ,PASS, ,0.0140724999872479, ,0.011638579151736994, ,0.0005592124946376318, ,3.435381965956807e-05
46, ,PASS, ,0.0118912799092714, ,0.010195928125380059, ,0.0005622205106974459, ,2.5474989875749528e-05
47, ,PASS, ,0.004814726944035201, ,0.003737204983350822, ,0.00023360511382201167, ,3.7810163148873674e-06
48, ,PASS, ,0.009634934792829999, ,0.0077682165317323115, ,0.0004302567016851543, ,1.555073745315973e-05
49, ,PASS, ,0.017970646867969602, ,0.014262564361143789, ,0.0007553271925296481, ,5.3199633095026846e-05
50, ,PASS, ,0.0158858843464613, ,0.012678729710817524, ,0.0007390321587266845, ,4.182760729330009e-05
51, ,PASS, ,0.005241576597073999, ,0.004272902422135538, ,0.0002695830329473771, ,4.685627645159565e-06
52, ,PASS, ,0.010161991300133599, ,0.008333827009180754, ,0.00043717724363229865, ,1.7601849874694484e-05
53, ,PASS, ,0.019136432809334303, ,0.015512901567958367, ,0.0008709218083789489, ,6.157360440893206e-05
54, ,PASS, ,0.016737380023670204, ,0.01359806148173887, ,0.0007771244022803461, ,4.723269304654057e-05
55, ,PASS, ,0.0060477101511319, ,0.004360307631064975, ,0.000292139326804987, ,5.473382957712567e-06
56, ,PASS, ,0.011356353143206599, ,0.00791324931534, ,0.000640595218137369, ,1.8861871559272525e-05
57, ,PASS, ,0.0171561007832401, ,0.015009121854263808, ,0.00095947218320962, ,5.382006119044179e-05
58, ,PASS, ,0.0147574283864123, ,0.013093672470183738, ,0.0008182124743495807, ,4.041050663019422e-05
59, ,PASS, ,0.006460694130810901, ,0.005397837851641396, ,0.00041762488309436745, ,7.294969958524838e-06
