Channel, ,Pass/Fail, ,Amplitude, ,Sorting Function Response, ,Mean, ,Variance, ,NPeaksRatio, ,IntegralRatio, ,ToT50, ,ToT99
0, ,PASS, ,0.06839047000000004, ,0.055683992684355116, ,0.00026978960898757477, ,0.0007925281798637934, ,1.0, ,0.4019713110369101, ,0.4880920797534744, ,0.09799800004081549
1, ,PASS, ,0.06804233000000004, ,0.0553764123061953, ,0.0005171176967817021, ,0.0007839635254276542, ,1.0, ,0.40527993903948256, ,0.4883981959551846, ,0.08256974347462297
2, ,PASS, ,0.06846674000000004, ,0.055745901977364044, ,0.00021619769759801083, ,0.0007940568233946347, ,1.0, ,0.3998983959605244, ,0.4897246994959287, ,0.10469174098487787
3, ,PASS, ,0.06822597000000005, ,0.05552815319819286, ,0.00018289074141344356, ,0.0007884403366651903, ,1.0, ,0.40076188570342786, ,0.48815330299381643, ,0.09038591049162262
4, ,PASS, ,0.06807642000000005, ,0.05559609044775066, ,0.00021441879655517525, ,0.0007874317041624164, ,1.0, ,0.40161981691674215, ,0.4883777882084039, ,0.09710005918246567
5, ,PASS, ,0.06793579000000002, ,0.05559660591225544, ,0.00037179493908287944, ,0.0007859985020435347, ,1.0, ,0.4047811979844543, ,0.4880512642599131, ,0.09534499295932736
6, ,PASS, ,0.06827940000000005, ,0.055687376043763205, ,0.0002904187277810689, ,0.0007913061950906631, ,1.0, ,0.4023338096051343, ,0.4884594191955266, ,0.08887573722985245
7, ,PASS, ,0.06805695000000003, ,0.055254639105086885, ,0.0004514937007408046, ,0.000782240221924387, ,1.0, ,0.40316085994291473, ,0.4893165445603151, ,0.10205914165017041
8, ,PASS, ,0.06789781000000003, ,0.05520961751342762, ,0.0003474929558580466, ,0.0007801863053573363, ,1.0, ,0.40267141013764374, ,0.4886634966633334, ,0.09181445276627008
9, ,PASS, ,0.06812726000000005, ,0.055370712371545616, ,0.0003908563121160821, ,0.0007850372706372553, ,1.0, ,0.40291382403702597, ,0.4889083896247015, ,0.09667149650007142
10, ,PASS, ,0.06779812000000003, ,0.05551936605150891, ,0.0005185990894063419, ,0.0007832082955326412, ,1.0, ,0.40653303439442245, ,0.4888471663843595, ,0.10120201628538193
11, ,PASS, ,0.06787532000000004, ,0.055326657080802435, ,0.0004437167623109766, ,0.0007812500885718777, ,1.0, ,0.4043361613932978, ,0.4888675741311402, ,0.095304177465766
12, ,PASS, ,0.06816349000000002, ,0.055030274038741056, ,0.0006904391657313154, ,0.0007804805371073532, ,1.0, ,0.4051927486231833, ,0.49003081569763884, ,0.09861023244423583
13, ,PASS, ,0.06792489000000006, ,0.05530289870470235, ,0.00014988231097324843, ,0.0007817739577800647, ,1.0, ,0.39988839003005844, ,0.48876553539723677, ,0.1019775106630477
14, ,PASS, ,0.06862718000000004, ,0.055695892312131706, ,0.0005634341511397763, ,0.0007952815239810688, ,1.0, ,0.4039391353127548, ,0.48996959245729677, ,0.09536540070610804
15, ,PASS, ,0.06918631000000003, ,0.05616902933959726, ,0.00034864535866615225, ,0.0008083947784823351, ,1.0, ,0.4011501438223197, ,0.4893369523070958, ,0.09256953939715516
16, ,PASS, ,0.06782429000000006, ,0.05543268523093889, ,7.99353390747153e-05, ,0.0007823912701433405, ,1.0, ,0.3991773577478721, ,0.48925532131997307, ,0.09756943735842126
17, ,PASS, ,0.06788891000000005, ,0.05553368361458927, ,0.0004644838105344823, ,0.0007843930276830661, ,1.0, ,0.40592666037504527, ,0.48827574947450053, ,0.09134507459031449
18, ,PASS, ,0.06770551, ,0.05544875990057873, ,0.00047467685006428816, ,0.0007809393491132368, ,1.0, ,0.4063174392435273, ,0.4880308565131324, ,0.0999367359849799
19, ,PASS, ,0.06823874000000003, ,0.05558492041102846, ,0.0004517467792494065, ,0.0007895039489251174, ,1.0, ,0.40370045362411827, ,0.48956143752168324, ,0.08912063019122059
20, ,PASS, ,0.06817978000000004, ,0.055576355925544586, ,0.0002738633942164477, ,0.0007884992686362932, ,1.0, ,0.40172963814516904, ,0.4888471663843595, ,0.10812024244403176
21, ,PASS, ,0.06867788000000004, ,0.05566258689989572, ,0.0003121104299912277, ,0.0007948855894462777, ,1.0, ,0.40123514439053604, ,0.48825534172771984, ,0.08081467725148467
22, ,PASS, ,0.06906534000000003, ,0.0561225619927275, ,0.00041140254402971624, ,0.0008060520761465725, ,1.0, ,0.40196354918904514, ,0.48992877696373544, ,0.10183465643558295
23, ,PASS, ,0.06958984000000004, ,0.05662400759889519, ,0.0005051660698761276, ,0.0008196209761092939, ,1.0, ,0.40418767855995663, ,0.48862268116977203, ,0.09485520703659109
24, ,PASS, ,0.06839259000000003, ,0.05594502919247279, ,6.757178873900771e-05, ,0.0007959843296772841, ,1.0, ,0.39928416482595824, ,0.48876553539723677, ,0.09363074222975042
25, ,PASS, ,0.06846572000000004, ,0.055949990037379424, ,0.00027350964470113147, ,0.0007968293671399062, ,1.0, ,0.40279134481045104, ,0.4880920797534744, ,0.09597763310952838
26, ,PASS, ,0.06834766000000003, ,0.05583550553788737, ,0.0002894847917389469, ,0.0007941177907510775, ,1.0, ,0.40238853244327805, ,0.48876553539723677, ,0.10128364727250465
27, ,PASS, ,0.06835941000000004, ,0.05548581157863928, ,0.00015569252117303997, ,0.0007888937740926366, ,1.0, ,0.3983619402723171, ,0.4897859227362707, ,0.10765086426807616
28, ,PASS, ,0.06810960000000002, ,0.05541320760254951, ,0.0001883180765698687, ,0.0007856216542813641, ,1.0, ,0.4003128374977128, ,0.4888879818779209, ,0.09199812248729618
29, ,PASS, ,0.06802948000000003, ,0.055155859567065875, ,0.00020516814269096816, ,0.0007809168919316299, ,1.0, ,0.3997501275785486, ,0.4889900206118242, ,0.10477337197200057
30, ,PASS, ,0.06784093000000002, ,0.055107143025743766, ,0.00019096861594661602, ,0.0007778083339613118, ,1.0, ,0.40016964700202023, ,0.48874512765045613, ,0.09589600212240566
31, ,PASS, ,0.06750725000000002, ,0.05502776471511078, ,0.00027838945939879074, ,0.0007732024237841211, ,1.0, ,0.40187330244846403, ,0.4893981755474378, ,0.09883471765882329
32, ,PASS, ,0.06823271000000003, ,0.05516220370520285, ,0.0004816391089977788, ,0.0007829182771380805, ,1.0, ,0.40323687438059, ,0.48882675863757885, ,0.09363074222975042
33, ,PASS, ,0.06786378000000003, ,0.05542446829664872, ,0.0004770889345115442, ,0.0007827612602359479, ,1.0, ,0.4055289697282486, ,0.48874512765045613, ,0.10007959021244464
34, ,PASS, ,0.06775328000000005, ,0.05549066937744078, ,6.639623089324928e-05, ,0.0007822823630036395, ,1.0, ,0.3993878339520659, ,0.48952062202812185, ,0.11183445235811514
35, ,PASS, ,0.06786264000000006, ,0.05555657624286556, ,0.0001742809116140512, ,0.0007846673291624764, ,1.0, ,0.4016997980865724, ,0.4885410501826493, ,0.10524275014795616
36, ,PASS, ,0.06812724000000003, ,0.05572775002945325, ,0.0005188838674720959, ,0.0007900749882973582, ,1.0, ,0.40544836346140606, ,0.49003081569763884, ,0.10809983469725108
37, ,PASS, ,0.06895219000000002, ,0.05659342526756863, ,0.0004902825405603997, ,0.0008118152205901167, ,1.0, ,0.4063558271818955, ,0.48874512765045613, ,0.09954898879614701
38, ,PASS, ,0.07270591000000001, ,0.05932714372818833, ,0.00019205283586049194, ,0.0008974530166239156, ,1.0, ,0.4006093148689909, ,0.48833697271484255, ,0.10654884594191956
39, ,PASS, ,0.21116375999999995, ,0.15512954119424166, ,-0.0011470426623946396, ,0.0067908702463953825, ,1.0, ,0.36359936047743635, ,0.48815330299381643, ,0.12405869267974123
40, ,PASS, ,0.07836704999999998, ,0.06370669732821818, ,-9.23967551682634e-05, ,0.0010380813572143791, ,1.0, ,0.3957095344617185, ,0.4884594191955266, ,0.10681414665006837
41, ,PASS, ,0.07179268000000003, ,0.05861794049419601, ,9.917043733801377e-05, ,0.0008754899961298562, ,1.0, ,0.39984020290182914, ,0.48856145792943, ,0.10638558396767413
42, ,PASS, ,0.07110033000000002, ,0.05819879451896636, ,0.00033071512152813254, ,0.0008611219771069756, ,1.0, ,0.40443026982517294, ,0.48807167200669377, ,0.09997755147854126
43, ,PASS, ,0.07101454000000004, ,0.05802814221962851, ,0.00019548947490867597, ,0.0008571525892378081, ,1.0, ,0.40185377395792043, ,0.4882961572212812, ,0.09912042611375278
44, ,PASS, ,0.07108561000000002, ,0.058198545152153815, ,8.919423603599985e-05, ,0.0008607055729117297, ,1.0, ,0.40070630801408214, ,0.48831656496806186, ,0.10214077263729311
45, ,PASS, ,0.07090615000000004, ,0.05780137164151015, ,0.00023768912654843893, ,0.0008526627748672517, ,1.0, ,0.4017217062924693, ,0.4885206424358687, ,0.091692006285586
46, ,PASS, ,0.07105339000000002, ,0.05799815081080921, ,4.326607028428027e-05, ,0.0008571113476003128, ,1.0, ,0.3998344062712403, ,0.48778596355176423, ,0.09314095630701415
47, ,PASS, ,0.07104191000000003, ,0.05789153862220814, ,0.0003745196402114251, ,0.0008557520413578068, ,1.0, ,0.4036921398088763, ,0.488500234689088, ,0.09797759229403481
48, ,PASS, ,0.07068541000000003, ,0.05785408528773051, ,0.0003613939554294821, ,0.0008506610794539658, ,1.0, ,0.40493356959067084, ,0.4881124875002551, ,0.09016142527703516
49, ,PASS, ,0.07091866000000002, ,0.05767132182625206, ,0.000426883195444992, ,0.0008506057404549301, ,1.0, ,0.4037786692910064, ,0.4889287973714822, ,0.08830432031999347
50, ,PASS, ,0.07096068000000004, ,0.057652244691524496, ,0.00040961068978184214, ,0.0008514591168172753, ,1.0, ,0.403357404174798, ,0.48915328258606966, ,0.10295708250852023
51, ,PASS, ,0.07089527000000004, ,0.05776864499015879, ,0.0003320298461255899, ,0.0008522652476601523, ,1.0, ,0.40272353396919497, ,0.48919409807963105, ,0.1107528417787392
52, ,PASS, ,0.07069316000000003, ,0.05801550502839307, ,0.0003736120448562284, ,0.000853278066825159, ,1.0, ,0.4055617401549865, ,0.4881328952470358, ,0.10532438113507887
53, ,PASS, ,0.07089140000000003, ,0.058208921411069876, ,0.00033717700455092846, ,0.0008586854474172469, ,1.0, ,0.40454385642928603, ,0.4886634966633334, ,0.1050182649333687
54, ,PASS, ,0.07104763000000003, ,0.058053924358095144, ,0.0006315555241729773, ,0.0008582644074848052, ,1.0, ,0.40737336070533237, ,0.4893369523070958, ,0.08628395338870636
55, ,PASS, ,0.07107223000000004, ,0.058142577691124825, ,0.00025407634211546773, ,0.0008598521255043746, ,1.0, ,0.4022518837535661, ,0.48925532131997307, ,0.1072427093324626
56, ,PASS, ,0.07077649000000003, ,0.0580268859584155, ,0.00042520435684986107, ,0.000854425077102807, ,1.0, ,0.406436183736566, ,0.4876635170710802, ,0.09607967184343176
57, ,PASS, ,0.07061883000000005, ,0.05792822351327452, ,0.00039603976000489907, ,0.0008512296618932822, ,1.0, ,0.4046346865253674, ,0.4897246994959287, ,0.11528336156404971
58, ,PASS, ,0.07096064000000003, ,0.05781738146140492, ,9.67381261606914e-05, ,0.0008536656015769802, ,1.0, ,0.3994089507630795, ,0.48917369033285035, ,0.09140629783065651
59, ,PASS, ,0.07050870000000004, ,0.058018623892004496, ,0.00029377956429460733, ,0.0008511621974834362, ,1.0, ,0.4041956635449304, ,0.48917369033285035, ,0.11432419746535785
60, ,PASS, ,0.07090591000000004, ,0.05792400071197879, ,0.00020258535784984074, ,0.0008542190816881073, ,1.0, ,0.40181527689077284, ,0.4885206424358687, ,0.09901838737984939
61, ,PASS, ,0.07102036000000003, ,0.058016968420078016, ,0.0001474817946572523, ,0.0008573457346248518, ,1.0, ,0.40001803890552967, ,0.49003081569763884, ,0.0944878675945389
62, ,PASS, ,0.07070565000000002, ,0.05811607793677228, ,0.0002637349343890948, ,0.0008547622461507531, ,1.0, ,0.40356178722810215, ,0.48913287483928897, ,0.11471194465419073
63, ,PASS, ,0.07071366000000004, ,0.057544758968443674, ,0.0002508274357666179, ,0.0008467827354387901, ,1.0, ,0.4009399560396484, ,0.4897451072427093, ,0.09361033448296974
64, ,PASS, ,0.07098603000000003, ,0.0578858241623747, ,3.902733678904578e-05, ,0.00085479315168207, ,1.0, ,0.3993426844794657, ,0.48825534172771984, ,0.09363074222975042
65, ,FAIL, ,0.006186609999999997, ,0.0013243364089437083, ,0.0013521233824064808, ,1.913348455885334e-06, ,0.5833333333333334, ,0.4110804126970886, ,0.4023387277810657, ,0.013958898797983715
66, ,PASS, ,0.07048397000000003, ,0.05789529598929609, ,-4.809814269096483e-05, ,0.0008490616548326464, ,1.0, ,0.3994110555558674, ,0.4881737107405971, ,0.10134487051284667
67, ,FAIL, ,0.006117260599999997, ,0.0013921418416001218, ,0.0011295786305912118, ,1.934176650659005e-06, ,0.6666666666666666, ,0.3969039877473282, ,0.39127772902593827, ,0.006714148690843044
68, ,PASS, ,0.07094607000000003, ,0.05823608215179758, ,0.00018269196444970574, ,0.0008596579063604009, ,1.0, ,0.40197092976094734, ,0.48915328258606966, ,0.10628354523377075
69, ,PASS, ,0.07120506000000001, ,0.058126816515609386, ,0.0003652844250117352, ,0.0008608759766319321, ,1.0, ,0.40358462469924195, ,0.48907165159894694, ,0.09118181261606906
70, ,PASS, ,0.07176449000000001, ,0.05916040007822431, ,0.0001791710177343319, ,0.0008830524229346208, ,1.0, ,0.40337226101616014, ,0.4880512642599131, ,0.10612028325952531
71, ,PASS, ,0.07198706000000002, ,0.0593442596199454, ,0.0002821328168812881, ,0.0008885709826907525, ,1.0, ,0.4040084802944436, ,0.48915328258606966, ,0.09703883594212363
72, ,PASS, ,0.07195078000000002, ,0.0586324371446818, ,0.00021622052570355752, ,0.0008770783074776611, ,1.0, ,0.4000684073795054, ,0.48990836921695474, ,0.10793657272300565
73, ,PASS, ,0.07156033000000003, ,0.05855642895755828, ,0.0002074946637823724, ,0.0008717941209554982, ,1.0, ,0.4021391813800572, ,0.48860227342299134, ,0.08289626742311382
74, ,PASS, ,0.07154267000000003, ,0.05901382266526528, ,6.447817513928307e-05, ,0.0008782213494955625, ,1.0, ,0.40093945384668495, ,0.48911246709250833, ,0.11377318830227955
75, ,PASS, ,0.009725756099999993, ,0.0022758043646960817, ,0.0007090275748923489, ,4.966028702053733e-06, ,0.8333333333333334, ,0.25903359627207595, ,0.42876675986204366, ,0.012836472725046427
76, ,PASS, ,0.07179678000000002, ,0.0587826994506675, ,0.0003552499067365976, ,0.00087778415317568, ,1.0, ,0.40381256572058516, ,0.48909205934572764, ,0.10434480928960634
77, ,PASS, ,0.07146959000000001, ,0.05873421402032095, ,0.000445797787596172, ,0.0008734737266033693, ,1.0, ,0.40618701466978685, ,0.4890104283586049, ,0.1033652374441338
78, ,PASS, ,0.07217647000000002, ,0.05915752876654166, ,0.0002938858598804105, ,0.0008883007537197951, ,1.0, ,0.40396811078678174, ,0.4880308565131324, ,0.09520213873186262
79, ,PASS, ,0.07207711000000003, ,0.05928487466972673, ,0.00018067434929899402, ,0.0008889999568673227, ,1.0, ,0.40298177177607536, ,0.4881328952470358, ,0.09626334156445787
80, ,PASS, ,0.07179946000000002, ,0.059007847628643695, ,0.00014734072794432793, ,0.0008814602088673911, ,1.0, ,0.40237420482638675, ,0.48825534172771984, ,0.09218179220832227
81, ,PASS, ,0.07215500000000002, ,0.05887598902574268, ,0.0006047093516458849, ,0.0008839793638679758, ,1.0, ,0.4069489079659742, ,0.4886430889165527, ,0.10163057896777616
82, ,PASS, ,0.07172037000000003, ,0.058816167016809445, ,0.0003419191049162264, ,0.0008772611859236718, ,1.0, ,0.4048170271946535, ,0.487928817779229, ,0.09158996755168262
83, ,PASS, ,0.07154671000000003, ,0.05871889940004878, ,0.00023133977898410286, ,0.000874347510480753, ,1.0, ,0.40340005410787394, ,0.48835738046162325, ,0.09289606334564601
84, ,PASS, ,0.07159658000000005, ,0.05881887895473944, ,0.00018029646741903255, ,0.0008761077902761943, ,1.0, ,0.4033311913424749, ,0.4878063712985449, ,0.09328381053447889
85, ,PASS, ,0.07173214000000003, ,0.05871140478738168, ,-5.731958041672582e-05, ,0.0008762340489189963, ,1.0, ,0.39967846459498313, ,0.48735740086937, ,0.08385543152180568
86, ,PASS, ,0.07157319000000002, ,0.05893502462194483, ,0.000227447954735618, ,0.0008777146223857791, ,1.0, ,0.4041284472097867, ,0.48815330299381643, ,0.10561008959000837
87, ,PASS, ,0.07179268000000003, ,0.05889517144045629, ,0.0001796961662006899, ,0.0008795767523503342, ,1.0, ,0.4027641562511546, ,0.48815330299381643, ,0.09736535989061448
88, ,PASS, ,0.07171653000000003, ,0.058671518644789866, ,0.00014992731842207346, ,0.0008752755832862766, ,1.0, ,0.40118807114208394, ,0.4886634966633334, ,0.08963082386073754
89, ,PASS, ,0.07198421000000002, ,0.059039531206764306, ,0.0003423270265912941, ,0.0008841533470972903, ,1.0, ,0.4050237576817796, ,0.48788800228566764, ,0.0923450541825677
90, ,PASS, ,0.07194989000000002, ,0.05870011892441323, ,-2.8743490949164056e-05, ,0.0008790825431017434, ,1.0, ,0.3991256238813553, ,0.4877247403114222, ,0.08369216954756026
91, ,PASS, ,0.07213078000000002, ,0.058814273146912566, ,0.00011998596661292648, ,0.0008830051974330833, ,1.0, ,0.40003558891411484, ,0.4888675741311402, ,0.09626334156445787
92, ,PASS, ,0.07212760000000004, ,0.059291986159563194, ,0.00010563799555111108, ,0.000889847264801728, ,1.0, ,0.401678909986299, ,0.4884798269423073, ,0.08877369849594906
93, ,PASS, ,0.07173689000000003, ,0.05937540926053698, ,-0.0002722467939429806, ,0.0008861523690292875, ,1.0, ,0.3975555378791133, ,0.48878594314401747, ,0.10338564519091448
94, ,PASS, ,0.0724198, ,0.05905535746022856, ,0.00016623195526621886, ,0.0008901266108793589, ,1.0, ,0.4011091839549595, ,0.4881941184873778, ,0.10050815289483889
95, ,PASS, ,0.07230844000000003, ,0.05916551646517484, ,5.50880855492743e-05, ,0.0008903789411939047, ,1.0, ,0.4004885824619551, ,0.487928817779229, ,0.1043856247831677
96, ,PASS, ,0.07211310000000001, ,0.058973667288830016, ,3.6745030101426846e-05, ,0.0008849204621666613, ,1.0, ,0.3996588135151333, ,0.488500234689088, ,0.08150854064202771
97, ,PASS, ,0.07200748000000003, ,0.05924397171606972, ,0.00010554785167649636, ,0.0008874753200176688, ,1.0, ,0.40235456512876305, ,0.4877655558049836, ,0.09820207750862227
98, ,PASS, ,0.07227731000000003, ,0.059113136119792825, ,0.00026013719638374696, ,0.0008888293167655511, ,1.0, ,0.40260776754163663, ,0.4885818656762107, ,0.10869165935389073
99, ,PASS, ,0.07177814000000002, ,0.05899494740282898, ,0.00022962014122160777, ,0.0008813279371040933, ,1.0, ,0.40369524685417574, ,0.48827574947450053, ,0.09636538029836125
100, ,PASS, ,0.07183842000000001, ,0.058984784292128056, ,-4.424110446725557e-05, ,0.0008818923657048021, ,1.0, ,0.3998860335134969, ,0.48799004101957105, ,0.09916124160731414
101, ,PASS, ,0.07181119000000001, ,0.05906262427449488, ,0.0001226408579416746, ,0.0008825206603277945, ,1.0, ,0.40185897464924575, ,0.4889083896247015, ,0.09463072182200363
102, ,PASS, ,0.07209445000000003, ,0.0592096034062619, ,0.00043254542499132653, ,0.0008882616766227291, ,1.0, ,0.40695983769216715, ,0.4872553621354666, ,0.10036529866737413
103, ,PASS, ,0.07172029000000003, ,0.05904983447815725, ,0.00038624711822207746, ,0.0008812942903311579, ,1.0, ,0.40650956312284214, ,0.48794922552600967, ,0.096508234525826
104, ,PASS, ,0.07188863000000001, ,0.05909309020352831, ,0.0004962849756127427, ,0.0008842913347857174, ,1.0, ,0.4075690141658395, ,0.4881941184873778, ,0.11289565519071039
105, ,PASS, ,0.07192155000000001, ,0.05893084263251307, ,0.0001715126483132997, ,0.0008817512832679569, ,1.0, ,0.40235771849934887, ,0.4881328952470358, ,0.09477357604946837
106, ,PASS, ,0.07175839000000002, ,0.05914317891042792, ,-0.00038200409869186335, ,0.000883422870212873, ,1.0, ,0.39595990061605446, ,0.48823493398093915, ,0.10558968184322769
107, ,PASS, ,0.07218529000000003, ,0.059241772149486116, ,0.00029230598130650375, ,0.0008898215966577916, ,1.0, ,0.40387405691361294, ,0.4888879818779209, ,0.10787534948266361
108, ,PASS, ,0.07279085000000003, ,0.05990333956714881, ,0.00020601999693883736, ,0.0009074158236975523, ,1.0, ,0.4033794840955442, ,0.48831656496806186, ,0.09532458521254668
109, ,PASS, ,0.08004698999999998, ,0.06583512501091791, ,0.0002971312328319806, ,0.0010962967552230578, ,1.0, ,0.4031806441145335, ,0.48815330299381643, ,0.11265076222934226
110, ,PASS, ,0.2024595699999999, ,0.14960667852210605, ,-0.001389910205506013, ,0.006282629649058325, ,1.0, ,0.36368448239450357, ,0.48831656496806186, ,0.12391583845227648
111, ,PASS, ,0.07513679, ,0.06202097246252452, ,0.0002659635350298959, ,0.0009698542235671954, ,1.0, ,0.4056290210103439, ,0.4883981959551846, ,0.1016918022081182
112, ,PASS, ,0.07220286000000002, ,0.05946767443669303, ,0.00013678538927776969, ,0.0008940084544950173, ,1.0, ,0.40398564702218326, ,0.4885410501826493, ,0.09193689924695414
113, ,PASS, ,0.07131326000000004, ,0.05891098566064307, ,0.0003259098289830826, ,0.0008747756681731611, ,1.0, ,0.40760851289922323, ,0.48825534172771984, ,0.09016142527703516
114, ,PASS, ,0.07126054000000001, ,0.05886797176805518, ,0.0002131628444317468, ,0.0008733188336280871, ,1.0, ,0.40609990477668545, ,0.48796963327279036, ,0.09069202669333279
115, ,PASS, ,0.07150645000000001, ,0.05891963976068607, ,0.0003006513865023166, ,0.0008770295915772534, ,1.0, ,0.4060064571101041, ,0.4888879818779209, ,0.09244709291647109
116, ,PASS, ,0.07152214000000001, ,0.058867591142388855, ,0.00020712671006714166, ,0.0008764598142452772, ,1.0, ,0.4057594891073446, ,0.4874594396032734, ,0.07879431032019754
117, ,PASS, ,0.07167474000000001, ,0.05912003367002943, ,0.0003632552333625846, ,0.0008815813367062171, ,1.0, ,0.40794935348188, ,0.4876227015775188, ,0.09499806126405584
118, ,PASS, ,0.07164034000000004, ,0.05887724954387416, ,0.00029624142323626096, ,0.0008780642941603747, ,1.0, ,0.40542290980432744, ,0.48876553539723677, ,0.08552886675782127
119, ,PASS, ,0.07135303000000004, ,0.05875212292250024, ,0.0001010362941572625, ,0.0008729693093063786, ,1.0, ,0.40385578841570025, ,0.4880920797534744, ,0.08789616538437992
120, ,PASS, ,0.07150465000000003, ,0.059201312179133596, ,0.00010081413216056835, ,0.0008808673505377714, ,1.0, ,0.40563440709000786, ,0.4868880226934144, ,0.08634517662904839
121, ,PASS, ,0.07135894000000002, ,0.05899420806325213, ,0.0002517031164670112, ,0.000876285468237667, ,1.0, ,0.4065371323190581, ,0.4881328952470358, ,0.10442644027672905
122, ,PASS, ,0.07151619000000002, ,0.05921681414087079, ,0.0004073980290198162, ,0.0008811038331197758, ,1.0, ,0.4089636279786287, ,0.48807167200669377, ,0.10209995714373175
123, ,PASS, ,0.07103494000000005, ,0.05902692449458536, ,6.438486071712855e-05, ,0.0008725940286059506, ,1.0, ,0.40518785266039137, ,0.4878267790453256, ,0.09316136405379483
124, ,PASS, ,0.07098418000000002, ,0.05855121153899441, ,0.00019269260137548308, ,0.0008653198908845287, ,1.0, ,0.40456865596784, ,0.4889696128650436, ,0.09122262810963042
125, ,PASS, ,0.07113062000000003, ,0.05882762155492422, ,0.0003597676349462261, ,0.0008706477029584664, ,1.0, ,0.40887854945734886, ,0.4870921001612212, ,0.08787575763759924
126, ,PASS, ,0.07147257000000001, ,0.059406001364414755, ,0.00028246837799228593, ,0.0008834032295635246, ,1.0, ,0.4078829324988489, ,0.48841860370196527, ,0.08620232240158364
127, ,PASS, ,0.07140705000000003, ,0.05869298091897913, ,0.0002473268839411447, ,0.0008718435216168661, ,1.0, ,0.40413435449423546, ,0.4893981755474378, ,0.09689598171465888
128, ,PASS, ,0.07098218000000003, ,0.05855741299432684, ,0.0002588836495173579, ,0.0008654816682842441, ,1.0, ,0.405766621221405, ,0.4889287973714822, ,0.09061039570621007
129, ,PASS, ,0.07107970000000005, ,0.058919947649719036, ,5.4682923409726703e-05, ,0.0008716793149511602, ,1.0, ,0.40412135705390706, ,0.4885206424358687, ,0.1006714148690843
130, ,PASS, ,0.07159128000000002, ,0.05908331559540045, ,0.0001568924156649865, ,0.0008801075819920969, ,1.0, ,0.40417593473223845, ,0.4888879818779209, ,0.10269178180037142
131, ,PASS, ,0.07135896000000003, ,0.058836876668996854, ,8.198522805657071e-05, ,0.0008739359128379988, ,1.0, ,0.40332563662711934, ,0.4886430889165527, ,0.10444684802350973
132, ,PASS, ,0.07154939000000002, ,0.0585826939196031, ,6.556483541152728e-06, ,0.0008727017214399653, ,1.0, ,0.4009847290759649, ,0.4885818656762107, ,0.07432501377522907
133, ,PASS, ,0.07103888000000003, ,0.058671958335765106, ,0.00034325465010918185, ,0.0008676463958943255, ,1.0, ,0.4080649491330412, ,0.4876431093242995, ,0.08932470765902736
134, ,PASS, ,0.07078593000000002, ,0.05875186686557922, ,0.0002330646729658586, ,0.0008650015936436258, ,1.0, ,0.40663731065421077, ,0.48874512765045613, ,0.10222240362441583
135, ,PASS, ,0.07133537000000002, ,0.05880089811886787, ,0.00020312888206363186, ,0.0008728873089478436, ,1.0, ,0.40507168158669143, ,0.4885206424358687, ,0.09061039570621007
136, ,PASS, ,0.07104760000000003, ,0.05872660129295138, ,0.00032218078671863916, ,0.0008685279629924438, ,1.0, ,0.40692853641651056, ,0.48907165159894694, ,0.09865104793779719
137, ,PASS, ,0.07136214000000002, ,0.05886131434135133, ,0.0004346458664108897, ,0.0008744249924158032, ,1.0, ,0.4082903222127858, ,0.48874512765045613, ,0.10075304585620702
138, ,PASS, ,0.07117656000000003, ,0.05867219986710005, ,0.00048722916573131224, ,0.0008691901069520975, ,1.0, ,0.4091675518991792, ,0.48843901144874596, ,0.0967939429807555
139, ,PASS, ,0.07090603000000004, ,0.05857468050811634, ,-3.847785698251023e-05, ,0.0008644777831338549, ,1.0, ,0.40177428118091657, ,0.4890104283586049, ,0.098916348645946
140, ,PASS, ,0.07120489000000002, ,0.05885297988775826, ,0.0001268589814493585, ,0.0008721420071764294, ,1.0, ,0.40488932692383967, ,0.4880104487663517, ,0.0942837901267321
141, ,PASS, ,0.07270082000000003, ,0.05970564063495266, ,0.00021363815595600063, ,0.0009033544719428009, ,1.0, ,0.40430793172375545, ,0.4882145262341585, ,0.08344727658619212
142, ,PASS, ,0.07129273000000003, ,0.05912850101596294, ,0.0001672578971857723, ,0.0008769578549062294, ,1.0, ,0.4056669679759759, ,0.48827574947450053, ,0.08469214913981347
143, ,PASS, ,0.07104367000000003, ,0.05893113806735546, ,0.00019089460113058974, ,0.0008714748766001346, ,1.0, ,0.4061429628595721, ,0.48860227342299134, ,0.09583477888206363
144, ,PASS, ,0.07092338000000002, ,0.05888202241971056, ,0.00018834203812167168, ,0.0008690872759815363, ,1.0, ,0.405979977111672, ,0.4889900206118242, ,0.10167139446133752
145, ,PASS, ,0.07091790000000003, ,0.05891467517151672, ,0.000278328095957226, ,0.0008696476217971336, ,1.0, ,0.40770901332015486, ,0.4886430889165527, ,0.09728372890349177
146, ,PASS, ,0.07118127000000003, ,0.05878150157753114, ,0.0002407005228464731, ,0.0008711466253526075, ,1.0, ,0.40569177294582337, ,0.4889083896247015, ,0.09240627742290973
147, ,PASS, ,0.07105617000000003, ,0.05882820673093799, ,-0.0002039010375298462, ,0.0008702878755355613, ,1.0, ,0.40059078799608866, ,0.4881941184873778, ,0.10487541070590396
148, ,PASS, ,0.07097416000000004, ,0.0587530355596519, ,0.00019916563559927407, ,0.0008675685150497307, ,1.0, ,0.40544668476616685, ,0.4888675741311402, ,0.10322238321666904
149, ,PASS, ,0.07174379000000003, ,0.05954732414448482, ,-0.00015761941960368173, ,0.0008890354606689804, ,1.0, ,0.40159493050744893, ,0.48796963327279036, ,0.09240627742290973
150, ,PASS, ,0.07155037000000003, ,0.05925131546489557, ,0.000214703160955899, ,0.0008822841236728542, ,1.0, ,0.4050708692362391, ,0.48943899104099914, ,0.10034489092059345
151, ,PASS, ,0.07121274000000002, ,0.0588118181447882, ,0.00031655151139772694, ,0.0008716849300779266, ,1.0, ,0.4067208728833327, ,0.48874512765045613, ,0.10091630783045244
152, ,PASS, ,0.07128021000000004, ,0.059157029762901873, ,0.00024729671047529685, ,0.0008775440613646841, ,1.0, ,0.4069108133414575, ,0.48862268116977203, ,0.10540601212220159
153, ,PASS, ,0.07151830000000003, ,0.059000791825323855, ,0.00025426010346727644, ,0.0008782075223384887, ,1.0, ,0.4063814552659681, ,0.48790841003244834, ,0.08887573722985245
154, ,PASS, ,0.07148136000000002, ,0.05927323899142699, ,0.00015832100406114186, ,0.000881927964897887, ,1.0, ,0.40616476440234056, ,0.4877655558049836, ,0.08548805126425991
155, ,PASS, ,0.07129567000000002, ,0.05893450242746771, ,0.00014066217301687763, ,0.0008745175888760099, ,1.0, ,0.4051002932970741, ,0.4878267790453256, ,0.08465133364625212
156, ,PASS, ,0.07151446000000003, ,0.059019472510599136, ,0.00022538811860982452, ,0.0008786467236689914, ,1.0, ,0.4056497704465975, ,0.48825534172771984, ,0.09461031407522295
157, ,PASS, ,0.07177798000000002, ,0.05936566591589018, ,0.0003819009050835698, ,0.0008867241438356545, ,1.0, ,0.40805379892803384, ,0.4886430889165527, ,0.08987571682210567
158, ,PASS, ,0.07154778000000002, ,0.05920631255625587, ,0.0003961462290565503, ,0.0008818623570978773, ,1.0, ,0.4081527183066349, ,0.4889492051182629, ,0.09254913165037448
159, ,PASS, ,0.07131241000000002, ,0.059131785506359065, ,0.00023718012244648107, ,0.0008777043305892769, ,1.0, ,0.4063265398952232, ,0.4890512438521663, ,0.1050182649333687
160, ,PASS, ,0.07141004000000004, ,0.05914084120349929, ,0.00032168817003734633, ,0.0008789827650014613, ,1.0, ,0.4079997762969855, ,0.48807167200669377, ,0.09350829574906634
161, ,PASS, ,0.07153095000000002, ,0.05878554058489672, ,0.0002486863423195451, ,0.000875312370895886, ,1.0, ,0.40496411278752753, ,0.48878594314401747, ,0.08407991673639313
162, ,PASS, ,0.07138757000000004, ,0.059018674220783246, ,0.0003403597808207998, ,0.00087689186727314, ,1.0, ,0.40745649886199364, ,0.48856145792943, ,0.10109997755147854
163, ,PASS, ,0.07138947000000002, ,0.059086547160800335, ,0.000315200368563907, ,0.0008777584794364991, ,1.0, ,0.4074208758856165, ,0.4882961572212812, ,0.10265096630681006
164, ,PASS, ,0.07145801000000003, ,0.05907027746892731, ,0.00048624141568539436, ,0.000878571254190298, ,1.0, ,0.41021020120511853, ,0.4876635170710802, ,0.09020224077059652
165, ,PASS, ,0.07104777000000002, ,0.058914011836971925, ,0.0004845007289647159, ,0.0008710239521029589, ,1.0, ,0.41047599560569636, ,0.48827574947450053, ,0.10118160853860125
166, ,PASS, ,0.07120470000000004, ,0.058754704713216865, ,0.0004482319160833459, ,0.0008708765417403923, ,1.0, ,0.4087781515411784, ,0.4884594191955266, ,0.10524275014795616
167, ,PASS, ,0.07134455000000003, ,0.05875360735769206, ,0.00043409152098936846, ,0.000872824003188642, ,1.0, ,0.40895473052918035, ,0.4878267790453256, ,0.09838574722964838
168, ,PASS, ,0.07118946000000004, ,0.05899639863158982, ,0.00035652957041693094, ,0.0008741379614489125, ,1.0, ,0.4093661246436449, ,0.4873778086161507, ,0.09363074222975042
169, ,PASS, ,0.07087091000000004, ,0.05861491154671641, ,9.307492112405948e-05, ,0.0008647250160675461, ,1.0, ,0.40491691113548356, ,0.48786759453888695, ,0.0871614865002755
170, ,PASS, ,0.07106242000000002, ,0.058527576452840964, ,0.0004659621913838498, ,0.0008657142878266123, ,1.0, ,0.4092095146843817, ,0.4878267790453256, ,0.0907736576804555
171, ,PASS, ,0.07121559000000002, ,0.058739912792800816, ,0.00043782293626660736, ,0.0008708446266659862, ,1.0, ,0.40859159305726805, ,0.488500234689088, ,0.0923450541825677
172, ,PASS, ,0.07124971000000004, ,0.05886945022975296, ,0.0001870447350054086, ,0.0008730615426514578, ,1.0, ,0.40558958269852274, ,0.4882961572212812, ,0.09181445276627008
173, ,PASS, ,0.07139563000000004, ,0.05903802926140578, ,0.0003762209187567603, ,0.0008771529089164877, ,1.0, ,0.40887949284923314, ,0.4876431093242995, ,0.08548805126425991
174, ,PASS, ,0.07126041000000002, ,0.05920496256105965, ,0.00034338061162017135, ,0.00087798703536827, ,1.0, ,0.40914448532545195, ,0.48788800228566764, ,0.10267137405359074
175, ,PASS, ,0.07167742, ,0.059178565285735445, ,0.00032159628252484656, ,0.0008825119866008566, ,1.0, ,0.4072152421565608, ,0.4881124875002551, ,0.088651252015265
176, ,PASS, ,0.07204544000000002, ,0.059296786101590705, ,0.00032792320095508274, ,0.0008894725967208052, ,1.0, ,0.406608314686776, ,0.4884798269423073, ,0.0892022611783433
177, ,PASS, ,0.07219103000000002, ,0.05942691649773579, ,0.00019833444888879803, ,0.0008930873328444851, ,1.0, ,0.4046486660126803, ,0.48872471990367544, ,0.09914083386053346
178, ,PASS, ,0.07228092000000003, ,0.05939699666426048, ,8.544530111630361e-05, ,0.0008941630392026263, ,1.0, ,0.40272128910906607, ,0.48868390441011406, ,0.0888349217362911
179, ,PASS, ,0.07256053000000003, ,0.060234154423064463, ,0.00014741823615844525, ,0.0009094551306366224, ,1.0, ,0.4056504267784604, ,0.4882961572212812, ,0.1092834840105304
180, ,PASS, ,0.08828527, ,0.07284521677242524, ,0.00035851649313279563, ,0.0013373017148857348, ,1.0, ,0.4030011383477346, ,0.48827574947450053, ,0.12532397298014325
181, ,PASS, ,0.19868961999999993, ,0.14506334606687965, ,-0.0009821673667884357, ,0.005976234706908247, ,1.0, ,0.3628915541730315, ,0.48835738046162325, ,0.11685475806616191
182, ,PASS, ,0.07573658999999999, ,0.06291438243744503, ,3.8348061672209616e-05, ,0.0009925504839057263, ,1.0, ,0.40516347962390203, ,0.4883981959551846, ,0.10722230158568193
183, ,PASS, ,0.07322143, ,0.06073190909307042, ,2.38242033836035e-05, ,0.0009259590861732199, ,1.0, ,0.40510518374164367, ,0.48815330299381643, ,0.10495704169302668
184, ,PASS, ,0.07271359000000001, ,0.059830475374795716, ,0.000256588725944368, ,0.0009064393916791806, ,1.0, ,0.4069969237332551, ,0.48827574947450053, ,0.09799800004081549
185, ,PASS, ,0.07262466000000001, ,0.05986489952017395, ,7.935822738311424e-05, ,0.0009057883014069987, ,1.0, ,0.4055159342373056, ,0.4876839248178609, ,0.08936552315258872
186, ,PASS, ,0.07283181000000001, ,0.06005813296004523, ,0.0002788559833472781, ,0.0009111542740393829, ,1.0, ,0.40766504907037604, ,0.48833697271484255, ,0.08122283218709822
187, ,PASS, ,0.07298066000000003, ,0.06043054446174706, ,0.0003559664308891648, ,0.0009185014659803733, ,1.0, ,0.40943661775490725, ,0.48827574947450053, ,0.10581416705781514
188, ,PASS, ,0.07299498, ,0.06041938654881083, ,0.0002878727448419412, ,0.0009184806332909913, ,1.0, ,0.40870094976548227, ,0.4878267790453256, ,0.08412073222995449
189, ,PASS, ,0.07294994, ,0.06053335205282234, ,1.1034586232933401e-05, ,0.0009197213380052474, ,1.0, ,0.40536749632417274, ,0.487928817779229, ,0.10009999795922532
190, ,PASS, ,0.07334765000000003, ,0.06048009457837879, ,0.0006054340695087847, ,0.0009235399166173271, ,1.0, ,0.4119891561486095, ,0.48794922552600967, ,0.09424297463317075
191, ,PASS, ,0.07313673000000001, ,0.060325465094810814, ,0.0004962529897349022, ,0.000918768101767075, ,1.0, ,0.41051298443438144, ,0.4881737107405971, ,0.0954062161996694
192, ,PASS, ,0.07281227000000003, ,0.06039362078932018, ,0.0003419086171710774, ,0.0009156017397321946, ,1.0, ,0.40932645774299503, ,0.488500234689088, ,0.09946735780902431
193, ,PASS, ,0.07302035000000001, ,0.06018905930046215, ,0.00023131187281892146, ,0.0009150078167556042, ,1.0, ,0.40619705994718747, ,0.48882675863757885, ,0.09254913165037448
194, ,PASS, ,0.07282012, ,0.060319263671418676, ,0.00023394422399542782, ,0.000914732318387131, ,1.0, ,0.40750963303259125, ,0.4885818656762107, ,0.10124283177894329
195, ,PASS, ,0.07273602000000001, ,0.06026746921449927, ,-0.0001386986716597625, ,0.0009128980129616938, ,1.0, ,0.40262802794910235, ,0.4885206424358687, ,0.08822268933287075
196, ,PASS, ,0.07305155000000002, ,0.060196111592308636, ,4.658528642272511e-05, ,0.0009157748735616639, ,1.0, ,0.40485118845997103, ,0.48752066284361545, ,0.08630436113548703
197, ,PASS, ,0.07276743000000002, ,0.06025475242263463, ,0.00012273727025978988, ,0.0009130512977906672, ,1.0, ,0.40583842636892237, ,0.48882675863757885, ,0.09912042611375278
198, ,PASS, ,0.07276732, ,0.06027402711325427, ,0.0001685722548519413, ,0.0009131884746356198, ,1.0, ,0.4065989938302534, ,0.48872471990367544, ,0.09556947817391481
199, ,PASS, ,0.07251034, ,0.05980421198156091, ,0.0003104400124487252, ,0.0009037070144250124, ,1.0, ,0.4077482299249898, ,0.48907165159894694, ,0.09387563519111855
200, ,PASS, ,0.07252894000000003, ,0.05980258141096786, ,-0.00014407670272035292, ,0.0009035435299124327, ,1.0, ,0.4015250123170843, ,0.4885818656762107, ,0.09477357604946837
201, ,PASS, ,0.07252814000000005, ,0.06002851349204978, ,0.0001957202855043766, ,0.0009062425827284087, ,1.0, ,0.40781611352902725, ,0.48750025509683476, ,0.08810024285218669
202, ,PASS, ,0.07255145000000002, ,0.05963631182132999, ,0.0001981690153262174, ,0.0009007767710628861, ,1.0, ,0.4057154339404917, ,0.4884594191955266, ,0.0937327809636538
203, ,PASS, ,0.07271755, ,0.05996973788985109, ,0.0003010980622844424, ,0.0009077704686887976, ,1.0, ,0.4082422131391405, ,0.48794922552600967, ,0.09173282177914736
204, ,PASS, ,0.0732379, ,0.060132862395012726, ,0.0003876205734576837, ,0.0009168564829893806, ,1.0, ,0.40770615826594997, ,0.48878594314401747, ,0.0828146364359911
205, ,PASS, ,0.07253493999999999, ,0.060274129951890555, ,0.0003900190641007319, ,0.0009104976593125226, ,1.0, ,0.4100135053290305, ,0.48917369033285035, ,0.0935491112426277
206, ,PASS, ,0.07282503000000003, ,0.05999911832596947, ,0.0004064732009550818, ,0.000909767643479876, ,1.0, ,0.4084602420241246, ,0.48913287483928897, ,0.08728393298095957
207, ,PASS, ,0.07277331000000001, ,0.06024005045725634, ,0.0002504714550723445, ,0.0009124605150359818, ,1.0, ,0.40791050340428736, ,0.48815330299381643, ,0.09644701128548397
208, ,PASS, ,0.07302132000000003, ,0.060564665044325644, ,-4.920025305606986e-06, ,0.0009206288136590366, ,1.0, ,0.40492908040098424, ,0.4880104487663517, ,0.09283484010530398
209, ,PASS, ,0.07299595000000002, ,0.0605141200254154, ,-3.6579531029979724e-05, ,0.0009195877028531805, ,1.0, ,0.40449593816987184, ,0.48778596355176423, ,0.10205914165017041
210, ,PASS, ,0.07315035, ,0.0603774210219543, ,1.0327459439602663e-05, ,0.0009194780488723073, ,1.0, ,0.4036939974820692, ,0.48862268116977203, ,0.08473296463337483
211, ,PASS, ,0.07321169000000002, ,0.06077121450411166, ,0.0001999589359400822, ,0.0009259863912856372, ,1.0, ,0.40697757120511446, ,0.4889900206118242, ,0.09995714373176058
212, ,PASS, ,0.07415239, ,0.06150193674424225, ,0.00014575541988938887, ,0.000949428023913577, ,1.0, ,0.40613963427153604, ,0.48835738046162325, ,0.0877124956633538
213, ,PASS, ,0.07332400000000003, ,0.06054526013654225, ,0.00014114783861553785, ,0.0009244436673649082, ,1.0, ,0.4054474569484798, ,0.48876553539723677, ,0.08646762310973245
214, ,PASS, ,0.07295009000000002, ,0.06021631209097894, ,7.555942490969503e-05, ,0.0009145242377591563, ,1.0, ,0.4047697346749817, ,0.4882961572212812, ,0.09916124160731414
215, ,PASS, ,0.07296763000000002, ,0.06026963879468033, ,0.00018009394583783924, ,0.0009155231565130421, ,1.0, ,0.40620127065546996, ,0.488500234689088, ,0.0831003448909206
216, ,PASS, ,0.07332011000000002, ,0.060386182302096685, ,0.0002077809793677672, ,0.0009221326324204706, ,1.0, ,0.40588809907904494, ,0.48868390441011406, ,0.09526336197220465
217, ,PASS, ,0.07329677000000002, ,0.06036088560365849, ,0.00015907770739372583, ,0.0009210915607783533, ,1.0, ,0.4060689553621733, ,0.48760229383073816, ,0.08150854064202771
218, ,PASS, ,0.07276555000000001, ,0.060336590216635844, ,-1.933382502397967e-05, ,0.0009137767711044576, ,1.0, ,0.40422281266545573, ,0.48856145792943, ,0.09314095630701415
219, ,PASS, ,0.07287474000000001, ,0.06046426234522285, ,0.00019064349237770547, ,0.0009171816904434716, ,1.0, ,0.40736362677632637, ,0.48833697271484255, ,0.10054896838840023
220, ,PASS, ,0.073621, ,0.06112103443351256, ,9.496700699985602e-05, ,0.000936728969969861, ,1.0, ,0.4061419947442521, ,0.48815330299381643, ,0.09565110916103753
221, ,PASS, ,0.07301067, ,0.06074143105383998, ,0.00017552190302238619, ,0.0009230989248802689, ,1.0, ,0.4079583118865119, ,0.48796963327279036, ,0.09171241403236668
222, ,PASS, ,0.07303129000000003, ,0.05976810957080665, ,0.00017851454317258786, ,0.0009092556736148635, ,1.0, ,0.4046204884628119, ,0.48843901144874596, ,0.09338584926838228
223, ,PASS, ,0.07296378, ,0.059931143866849154, ,0.00011056539825717773, ,0.0009100861412450307, ,1.0, ,0.40437351930863136, ,0.4880920797534744, ,0.08638599212260974
224, ,PASS, ,0.07294898000000001, ,0.06035577562030047, ,0.00046308574273994275, ,0.0009164127637670077, ,1.0, ,0.41082436000500777, ,0.4880512642599131, ,0.09295728658598804
225, ,PASS, ,0.07289823000000001, ,0.06012297682612542, ,5.6926544152159614e-05, ,0.0009127027476101863, ,1.0, ,0.4052013149261336, ,0.48741862410971204, ,0.07754943776657619
226, ,PASS, ,0.07317746, ,0.060281960295122686, ,-5.440916634354453e-05, ,0.0009185689288457245, ,1.0, ,0.4021088428516279, ,0.4890104283586049, ,0.1034468684312565
227, ,PASS, ,0.07293645000000001, ,0.06019456175328665, ,0.00012045017101691729, ,0.0009139586908421611, ,1.0, ,0.40580435535882386, ,0.4877655558049836, ,0.09356951898940838
228, ,PASS, ,0.07283475, ,0.060273518668251, ,6.973386869654691e-06, ,0.0009138286546404391, ,1.0, ,0.4054869824046696, ,0.4870104691740985, ,0.08903899920409787
229, ,PASS, ,0.07294394000000001, ,0.060189893083559015, ,-0.00024797728005550925, ,0.0009145720006431467, ,1.0, ,0.4006828188035379, ,0.4880308565131324, ,0.09775310707944736
230, ,PASS, ,0.07286421000000001, ,0.06006016567518938, ,-0.00011946912103834667, ,0.0009115068773083634, ,1.0, ,0.40231461818345504, ,0.4878267790453256, ,0.08154935613558907
231, ,PASS, ,0.07295209000000002, ,0.0603281139536367, ,0.00017385827574947378, ,0.0009160962988812148, ,1.0, ,0.4070424300519657, ,0.4874594396032734, ,0.09052876471908737
232, ,PASS, ,0.07296465000000002, ,0.06045346726066549, ,-4.648941246097688e-06, ,0.0009184510358256198, ,1.0, ,0.4045205800749219, ,0.4881124875002551, ,0.09199812248729618
233, ,PASS, ,0.07293241, ,0.06037118384688463, ,0.00018391886900267254, ,0.0009168402030947393, ,1.0, ,0.4072896717454897, ,0.4877247403114222, ,0.09440623660741618
234, ,PASS, ,0.07277331000000001, ,0.0605012530529443, ,0.0004463779435113561, ,0.0009160944733243539, ,1.0, ,0.4110422328611605, ,0.48860227342299134, ,0.10312034448276566
235, ,PASS, ,0.07297060000000002, ,0.060259391593811766, ,0.00025077353584620625, ,0.0009153618569593512, ,1.0, ,0.40756571594171626, ,0.48796963327279036, ,0.09010020203669312
236, ,PASS, ,0.07331137000000001, ,0.0603268578842995, ,0.0002061546094977645, ,0.0009208511371940608, ,1.0, ,0.4063664639736822, ,0.4877247403114222, ,0.08487581886083957
237, ,PASS, ,0.07308878000000002, ,0.060334512755009735, ,0.00010291915858859958, ,0.0009182726648359376, ,1.0, ,0.4055374638728168, ,0.48786759453888695, ,0.08410032448317381
238, ,PASS, ,0.07319032000000002, ,0.06026775660372637, ,0.0002713232952388719, ,0.0009186320059897382, ,1.0, ,0.4069457374040298, ,0.48870431215689475, ,0.09785514581335075
239, ,PASS, ,0.07285726000000002, ,0.06010730448668169, ,0.00023501610987530785, ,0.0009119856525876754, ,1.0, ,0.40729928875957455, ,0.48794922552600967, ,0.08995734780922839
240, ,PASS, ,0.07303980000000002, ,0.060069995746965726, ,0.00014785292422603538, ,0.0009136841224762069, ,1.0, ,0.40516522135070415, ,0.488500234689088, ,0.09491643027693313
241, ,PASS, ,0.07296242, ,0.05993384112532763, ,6.036686271708698e-05, ,0.0009108118984003532, ,1.0, ,0.4033692198975943, ,0.4888675741311402, ,0.09240627742290973
242, ,PASS, ,0.07293153000000001, ,0.05966026503618435, ,0.00031854907205975297, ,0.000906301543806124, ,1.0, ,0.4067600038767346, ,0.4882961572212812, ,0.08501867308830433
243, ,PASS, ,0.07300159000000002, ,0.06016783053253503, ,0.00010544126303544727, ,0.0009147782886341342, ,1.0, ,0.40523199910714097, ,0.48815330299381643, ,0.09656945776616804
244, ,PASS, ,0.07305546000000002, ,0.05987977734237881, ,0.00026519151752004983, ,0.0009111119434844863, ,1.0, ,0.40606585100877113, ,0.48841860370196527, ,0.08844717454745822
245, ,PASS, ,0.07286614000000002, ,0.06024456622838746, ,0.00026349526948429527, ,0.0009139284492181128, ,1.0, ,0.40749511120135445, ,0.48856145792943, ,0.10248770433256464
246, ,PASS, ,0.07285338000000001, ,0.05947761175071836, ,3.860888083916569e-05, ,0.0009021566403736513, ,1.0, ,0.40261486595178386, ,0.48788800228566764, ,0.08165139486949245
247, ,PASS, ,0.07282309000000001, ,0.05987831098198646, ,-0.0001642047578620851, ,0.0009083107486131357, ,1.0, ,0.40090087527035956, ,0.48860227342299134, ,0.09240627742290973
248, ,PASS, ,0.07290683000000003, ,0.060081397462365724, ,0.00016711051039774633, ,0.0009121915076013196, ,1.0, ,0.4052842795703053, ,0.48913287483928897, ,0.10181424868880228
249, ,PASS, ,0.07312291000000001, ,0.060180891671636094, ,-2.046522887288086e-05, ,0.0009160875800955042, ,1.0, ,0.4026465481404839, ,0.4885206424358687, ,0.08101875471929144
250, ,PASS, ,0.07408005000000001, ,0.060636589298395695, ,0.0002817226770882213, ,0.0009350319266838695, ,1.0, ,0.40549317426543763, ,0.48868390441011406, ,0.08675333156466195
251, ,PASS, ,0.09676500000000003, ,0.07934750388096234, ,-0.00020745158078406447, ,0.0015970378743504039, ,1.0, ,0.3952191173438304, ,0.4876227015775188, ,0.14367053733597274
252, ,PASS, ,0.19656351999999994, ,0.132364733814554, ,-0.0007741002228525975, ,0.00538278174050681, ,1.0, ,0.34556583932114576, ,0.48831656496806186, ,0.0812432399338789
253, ,PASS, ,0.13108315999999998, ,0.08151560119978529, ,0.0001399005763147672, ,0.0022062239740404236, ,1.0, ,0.3348679444484712, ,0.4869288381869758, ,0.053549927552498926
254, ,PASS, ,0.12985857, ,0.0804750763614306, ,1.9489116548634203e-06, ,0.0021578918226722163, ,1.0, ,0.33226562746507265, ,0.4881124875002551, ,0.05254994796024571
255, ,PASS, ,0.1303294, ,0.0802405235656156, ,2.7935802126486176e-05, ,0.0021581930320373555, ,1.0, ,0.33091743288236597, ,0.4885206424358687, ,0.047366380277953514
