Channel, ,Pass/Fail, ,Amplitude, ,Sorting Function Response, ,Mean, ,Variance
49, ,PASS, ,0.050330980779928994, ,0.04241837863129733, ,0.0034637895959226538, ,0.00044221325549618877
50, ,PASS, ,0.050143944699094, ,0.04080130593440383, ,0.003394192624157476, ,0.0004238104936350547
51, ,PASS, ,0.053888319748413, ,0.04604142033365009, ,0.0036597387722604553, ,0.0005138140400616773
52, ,PASS, ,0.050706707390676, ,0.04151062159921729, ,0.0035029870345524975, ,0.00043594801662145694
53, ,PASS, ,0.05522596253417801, ,0.047297287169503814, ,0.0036911314052931934, ,0.000541037938647321
54, ,PASS, ,0.050928668146247004, ,0.04157865942063171, ,0.0034533604280984026, ,0.0004386782843809407
55, ,PASS, ,0.055684331197448006, ,0.047907893264498506, ,0.003809132337113336, ,0.0005525530221116254
56, ,PASS, ,0.050551605178982995, ,0.041489489444540416, ,0.0034813280561976426, ,0.0004345224984268268
57, ,PASS, ,0.056667532141841004, ,0.04817452940508108, ,0.003784627016085317, ,0.0005656151040155494
58, ,PASS, ,0.051617171724738, ,0.0423458935396982, ,0.003469121159703714, ,0.0004529636265360899
59, ,PASS, ,0.05642355416398301, ,0.04774554058089656, ,0.003838943714084571, ,0.0005582740326114255
60, ,PASS, ,0.051390566851093, ,0.04200540666711861, ,0.0033560199877175362, ,0.00044743786563380267
61, ,PASS, ,0.056172343248365, ,0.04790399211794947, ,0.0038178238916026044, ,0.0005576560808103713
62, ,PASS, ,0.051459823307592995, ,0.042321882964428396, ,0.0035321796290304747, ,0.00045135170361085427
63, ,PASS, ,0.059725797464475, ,0.049690925521707736, ,0.004028858008378667, ,0.0006154473255544043
64, ,PASS, ,0.056075486820544, ,0.04456859347232769, ,0.003883113700458484, ,0.0005182825963697965
65, ,PASS, ,0.060795816082522006, ,0.050127670183749695, ,0.004135395712687814, ,0.000632078719643887
66, ,PASS, ,0.055651212075730996, ,0.04388872550581834, ,0.003667473961374422, ,0.0005067067965695785
67, ,PASS, ,0.061255348319979, ,0.051126439894449496, ,0.004182868321385018, ,0.0006494833988990933
68, ,PASS, ,0.055348044717488, ,0.04392989048949214, ,0.0037312181825919933, ,0.0005043694344145473
69, ,PASS, ,0.06213185758157, ,0.05009468489276323, ,0.004198264844313045, ,0.0006459757905143022
70, ,PASS, ,0.05772443620875199, ,0.04485255902696768, ,0.003906444046838824, ,0.0005373426912833451
71, ,PASS, ,0.061936348446697, ,0.049191489766746345, ,0.004098516387076311, ,0.0006325419136925375
72, ,PASS, ,0.05732526537692901, ,0.0439756604747266, ,0.0037668255240235235, ,0.000523326163614202
73, ,PASS, ,0.061839922774576006, ,0.04937502461817664, ,0.003970467152265914, ,0.0006341344059848155
74, ,PASS, ,0.05689471635715901, ,0.043782594806027766, ,0.003812323522609274, ,0.0005171261867063979
75, ,PASS, ,0.061234578054869995, ,0.048395366494094434, ,0.004117261097795897, ,0.0006155192987726107
76, ,PASS, ,0.05588143216438499, ,0.04316656620298631, ,0.0037890587681322853, ,0.0005008337139459824
77, ,PASS, ,0.055885312208697996, ,0.04754219829733551, ,0.003634747141901695, ,0.0005508653008575007
78, ,PASS, ,0.049842746809734, ,0.041333441935742676, ,0.003478659235207139, ,0.0004269703817282367
198, ,PASS, ,0.104174633146028, ,0.06939585513718674, ,0.004860781976361677, ,0.0015242654842780668
199, ,PASS, ,0.09048493821860601, ,0.030286246481348148, ,0.0007102369845972079, ,0.0005685805506279536
200, ,PASS, ,0.044987944844686996, ,0.02868215481372406, ,0.0021067152549835355, ,0.0002752522410466336
201, ,PASS, ,0.039641272127023, ,0.027533070825091942, ,0.0019539801940912063, ,0.00023216530290725074
202, ,PASS, ,0.039083366035007006, ,0.025215304005637727, ,0.0018394286657073971, ,0.0002098861165510718
203, ,PASS, ,0.03871726254070999, ,0.024927664023736088, ,0.0018451034564886566, ,0.00020552764903628557
204, ,PASS, ,0.052774209059177006, ,0.034032084163001006, ,0.002460126835473263, ,0.0003789287389460601
205, ,PASS, ,0.061460158577247, ,0.04009989690859809, ,0.0028540590545666437, ,0.000517626338884992
206, ,PASS, ,0.049604057819577003, ,0.03158942090436052, ,0.002323956914997035, ,0.0003316155921739352
207, ,PASS, ,0.05722128852776899, ,0.03735046173957759, ,0.002652599683974175, ,0.0004503818185417567
208, ,PASS, ,0.046018943162332, ,0.02949083293699442, ,0.0022159294777535686, ,0.00028782630986574773
209, ,PASS, ,0.041993740400070007, ,0.02791684837583928, ,0.00203791131142214, ,0.0002488791518921856
210, ,PASS, ,0.043864737150298004, ,0.028248101780678506, ,0.002059374053265704, ,0.00026334342366331594
211, ,PASS, ,0.045023328431319, ,0.02909534453561616, ,0.0020839686805777203, ,0.0002782320113672779
212, ,PASS, ,0.06013411115552299, ,0.03817167267304305, ,0.0027709067155933073, ,0.00048299071494837544
213, ,PASS, ,0.051241082507166004, ,0.032434253290404655, ,0.002401936063276657, ,0.0003519774998026844
214, ,PASS, ,0.049406430447422, ,0.0308798200674653, ,0.002284223686888737, ,0.00032380693181046055
215, ,PASS, ,0.060302043926993995, ,0.039196702574015474, ,0.002809895453548819, ,0.000498540135275972
216, ,PASS, ,0.046968069298468, ,0.02960756256106015, ,0.0022240413533129934, ,0.0002954930840200303
217, ,PASS, ,0.056215581476790996, ,0.035724631866990486, ,0.002589777680722993, ,0.00042478247937653284
218, ,PASS, ,0.046404371725724994, ,0.028851109791862454, ,0.002143102507881572, ,0.00028494635427397274
219, ,PASS, ,0.047821535608402015, ,0.029832018901149268, ,0.0022120730184205157, ,0.00030321920768019024
220, ,PASS, ,0.040919181840496005, ,0.02568616319081936, ,0.0018982592247706752, ,0.00022430606072191783
221, ,PASS, ,0.038739160490061, ,0.023795021145214663, ,0.0018346205038216933, ,0.00019736680352637725
222, ,PASS, ,0.03586669800829401, ,0.02071144396708527, ,0.0016466684687458436, ,0.0001596607844627365
223, ,PASS, ,0.038756552179486, ,0.02458655959296298, ,0.0018380920424052683, ,0.000203706675125915
224, ,PASS, ,0.071677281996956, ,0.0425865946097773, ,0.0031767344834723764, ,0.0006466112522128511
225, ,PASS, ,0.06226514834402001, ,0.0389519923201517, ,0.0029029247213074563, ,0.0005169383066001694
226, ,PASS, ,0.128528273405869, ,0.023748456539572187, ,4.617532608564005e-05, ,0.0006619446644854082
227, ,PASS, ,0.085871044992124, ,0.052747444747601985, ,0.0038508960455548168, ,0.00096650523931883
