Channel, ,Pass/Fail, ,Amplitude, ,Sorting Function Response, ,Mean, ,Variance, ,NPeaksRatio, ,PosIntegralRatio, ,ToT50, ,ToT99
60, ,PASS, ,0.035379459999999995, ,0.003734132547979485, ,0.03790345377196384, ,0.00013680824567470222, ,1.75, ,0.6625530306123856, ,0.6184363584416644, ,0.05254994796024571
61, ,PASS, ,0.06079114100000003, ,0.006814193930270027, ,0.04022026693047081, ,0.0004270057989534999, ,1.9166666666666667, ,0.6880895912137711, ,0.6143139935919675, ,0.07159037570661823
62, ,PASS, ,0.06399410950000003, ,0.00724169858990946, ,0.04036123684639089, ,0.00047715496897659707, ,1.9166666666666667, ,0.6914852743877739, ,0.6128854513173201, ,0.07524336238035959
63, ,PASS, ,0.04688859000000001, ,0.005134169257109366, ,0.03898493358339626, ,0.00024838976553832957, ,1.8333333333333333, ,0.6777685269226186, ,0.6153139731842208, ,0.07010061019162875
64, ,PASS, ,0.03887471999999999, ,0.004005504624163524, ,0.03815046375584172, ,0.00016137694651408789, ,1.75, ,0.6570931741481169, ,0.6185792126691292, ,0.06322319952654028
65, ,PASS, ,0.06466391399999999, ,0.00718191225574097, ,0.04060142570621008, ,0.0004787858223634951, ,1.9166666666666667, ,0.6851726750812369, ,0.6141915471112834, ,0.07077406583539111
66, ,PASS, ,0.06639558945, ,0.007483940387707637, ,0.04063255961266097, ,0.0005115595123229696, ,1.9166666666666667, ,0.688378812045402, ,0.6125589273688292, ,0.06918226158649823
67, ,PASS, ,0.042203559999999994, ,0.004599852342225568, ,0.038325549244709295, ,0.00020041218784208208, ,1.8333333333333333, ,0.6756744109295257, ,0.6147221485275811, ,0.07424338278810637
68, ,PASS, ,0.043677270000000004, ,0.005075148634538606, ,0.038770215878655534, ,0.0002285636149347581, ,2.0, ,0.7040016667505454, ,0.6133140139997143, ,0.07220260811003858
69, ,PASS, ,0.06842134251000002, ,0.008429661583500662, ,0.04076390946858228, ,0.0005917206167186262, ,2.0, ,0.723330078199745, ,0.6081100385706414, ,0.07295769474092366
70, ,PASS, ,0.06896331879000003, ,0.008578496620383742, ,0.040746103436460485, ,0.0006061938422436692, ,2.0, ,0.7248050316942676, ,0.6056407012101794, ,0.07269239403277485
71, ,PASS, ,0.046223768000000005, ,0.005595415063192699, ,0.03898192380686109, ,0.00026570153392675917, ,2.0, ,0.7174967024034578, ,0.610987530866717, ,0.07571274055631518
72, ,PASS, ,0.04487775999999999, ,0.005295905386757295, ,0.038732005412134445, ,0.0002447975262335305, ,2.0, ,0.7118349611843775, ,0.6140486928838187, ,0.07679435113569111
73, ,PASS, ,0.07043549827999998, ,0.008884198965293253, ,0.04106983960164078, ,0.000641769659904608, ,2.0, ,0.7312263630032955, ,0.6092732801371401, ,0.07220260811003858
74, ,PASS, ,0.06984143473000001, ,0.008896325805580845, ,0.041065275308463094, ,0.0006363123620355201, ,1.8333333333333333, ,0.7352189561990543, ,0.610416113956858, ,0.07463112997693924
75, ,PASS, ,0.045809591000000004, ,0.0056285167052710925, ,0.03881112112242607, ,0.00026500817550111706, ,2.0, ,0.7215919916302471, ,0.6132936062529336, ,0.07065161935470704
76, ,PASS, ,0.04406337, ,0.005140965982593339, ,0.03866250793881757, ,0.00023392434007699043, ,2.0, ,0.7090720359853352, ,0.617640456317218, ,0.07169241444052162
77, ,PASS, ,0.07049223232999999, ,0.008822337884035707, ,0.041151618072896474, ,0.0006380062146682381, ,2.0, ,0.7300649043114155, ,0.6112528315748659, ,0.07271280177955552
78, ,PASS, ,0.06958753693999999, ,0.00878512886242037, ,0.041032824759902865, ,0.0006264882416619067, ,2.0, ,0.7317334802887203, ,0.6091304259096754, ,0.07687598212281382
79, ,PASS, ,0.04125953000000001, ,0.0050220985970911266, ,0.03875135383890124, ,0.0002131862977028167, ,2.0, ,0.7209719773647859, ,0.6157629436133957, ,0.07446786800269382
80, ,PASS, ,0.05240057000000001, ,0.007041004904751585, ,0.039518957993918497, ,0.0003781592843921586, ,2.0, ,0.756444353797682, ,0.6100487745148058, ,0.07159037570661823
81, ,PASS, ,0.08045824200000005, ,0.011805385171642637, ,0.0416898009665313, ,0.0009665757696183762, ,1.8333333333333333, ,0.7797080108686226, ,0.6006408032489133, ,0.07873308707985552
82, ,PASS, ,0.083172265, ,0.012507013220670259, ,0.04177049991867514, ,0.0010563387379004469, ,1.75, ,0.7837150317552535, ,0.5972123017897594, ,0.08491663435440093
83, ,PASS, ,0.06297302800000001, ,0.009195198652536289, ,0.040070941969347566, ,0.0005884193443630982, ,1.75, ,0.7738353008430753, ,0.5972735250301014, ,0.08156976388236975
84, ,PASS, ,0.051027465, ,0.006714287662724818, ,0.039529335036631905, ,0.00035158513192369215, ,2.0, ,0.752228966711989, ,0.6132527907593722, ,0.07812085467643518
85, ,PASS, ,0.08092315200000003, ,0.011619768473302832, ,0.041792620498846966, ,0.0009578717585121426, ,1.8333333333333333, ,0.7727406942060943, ,0.6017836370686312, ,0.07301891798126568
86, ,PASS, ,0.08391331600000003, ,0.012432406326244047, ,0.0421537053369115, ,0.001060236579555025, ,1.75, ,0.7806520993595824, ,0.6027836166608844, ,0.08285545192955246
87, ,PASS, ,0.0644909275, ,0.009392160228361231, ,0.04026203632089141, ,0.0006152961690862962, ,1.75, ,0.7739321255501929, ,0.5997632701373441, ,0.08301871390379788
88, ,PASS, ,0.049238393000000005, ,0.006758944442783713, ,0.039346487651272424, ,0.0003409259221571445, ,2.0, ,0.7643972798184352, ,0.6111712005877431, ,0.07432501377522907
89, ,PASS, ,0.08143877000000002, ,0.01205393565205443, ,0.04160051449574499, ,0.0009987485363552278, ,1.8333333333333333, ,0.7826660930712126, ,0.5994775616824146, ,0.07479439195118467
90, ,PASS, ,0.08395827600000003, ,0.012552800668353473, ,0.04219854961700782, ,0.0010703797691923279, ,1.75, ,0.7817042669218249, ,0.6006612109956939, ,0.08261055896818432
91, ,PASS, ,0.05847893599999997, ,0.008514988712553202, ,0.039804568459215116, ,0.0005064907356205103, ,1.75, ,0.7754018360380759, ,0.6021101610171221, ,0.08850839778780024
92, ,PASS, ,0.043482339999999994, ,0.005799564435209003, ,0.03863641664986429, ,0.0002585538427817088, ,2.0, ,0.7562129542486181, ,0.6109058998795943, ,0.0760596722515867
93, ,PASS, ,0.07917842800000002, ,0.011316421578319224, ,0.04196730868421053, ,0.0009131015922365883, ,1.8333333333333333, ,0.7713904138917822, ,0.605477439235934, ,0.06999857145772535
94, ,PASS, ,0.08104271800000004, ,0.011632735909352042, ,0.04175572819313892, ,0.0009590140818404226, ,1.75, ,0.7702373107506617, ,0.5994571539356339, ,0.08112079345319484
95, ,PASS, ,0.04928898699999999, ,0.006651884024043541, ,0.039209168838799206, ,0.00033476891950909895, ,1.8333333333333333, ,0.7503000777332642, ,0.606803942776678, ,0.05587641068549622
96, ,PASS, ,0.040503539999999984, ,0.0053830372928833315, ,0.038477973302381584, ,0.00022370707419528795, ,2.0, ,0.7513693108556639, ,0.612701781596294, ,0.05503969306748842
97, ,PASS, ,0.07704790000000002, ,0.011204324069851118, ,0.041525585300238775, ,0.0008784316339047077, ,1.8333333333333333, ,0.775706570655782, ,0.6017224138282892, ,0.07922287300259179
98, ,PASS, ,0.078229245, ,0.011311788805140536, ,0.04136714920134283, ,0.0008995002866887206, ,1.75, ,0.771504593603841, ,0.59964082365666, ,0.07787596171506704
99, ,PASS, ,0.04431013, ,0.006134302472751505, ,0.038596118340237955, ,0.000277250511142182, ,1.8333333333333333, ,0.7620850497859664, ,0.6042529744290933, ,0.08495744984796229
100, ,PASS, ,0.03832771999999998, ,0.004457059907692143, ,0.0383847683724822, ,0.00017601579727150412, ,1.8333333333333333, ,0.6992230070627011, ,0.6144364400726515, ,0.07408012081386094
101, ,PASS, ,0.07427502400000001, ,0.009663846932850903, ,0.041366019376747415, ,0.0007343055034027215, ,1.9166666666666667, ,0.741968393294651, ,0.6096202118324116, ,0.07420256729454501
102, ,PASS, ,0.07485497099999999, ,0.009903858381653205, ,0.0413469120297545, ,0.0007565112916054594, ,1.8333333333333333, ,0.7440482471792261, ,0.6034774800514275, ,0.07514132364645619
103, ,PASS, ,0.040802519999999995, ,0.005031164016704842, ,0.03842027758372278, ,0.00021069081029394916, ,2.0, ,0.721607554841789, ,0.6145588865533357, ,0.06905981510581417
198, ,PASS, ,0.037024430780000006, ,0.0034307273137649066, ,0.03790527279361645, ,0.0001347385411165227, ,1.9166666666666667, ,0.7701148353917983, ,0.6287218628191261, ,0.0015305810085508458
199, ,PASS, ,0.02089063999999999, ,0.002242996107887568, ,0.03665461334197261, ,5.022600442065239e-05, ,1.9166666666666667, ,0.7521538600181832, ,0.6258239627762698, ,0.0017958817166996593
200, ,PASS, ,0.037430200000000004, ,0.0046975267080858986, ,0.03846816611865064, ,0.0001878610006829618, ,1.8333333333333333, ,0.826983154195566, ,0.6295177649435726, ,0.036733944205220304
201, ,PASS, ,0.074143716, ,0.009803526670713656, ,0.042048950249790815, ,0.0007710490575553475, ,1.9166666666666667, ,0.8840526251070123, ,0.629048386767617, ,0.0633864615007857
202, ,PASS, ,0.08400293999999998, ,0.010584366016986025, ,0.042771553182384035, ,0.0009480606691953903, ,1.9166666666666667, ,0.8787182267631024, ,0.6325585192138936, ,0.058835533968694516
203, ,PASS, ,0.07842838500000002, ,0.010289885695429447, ,0.04257840952592804, ,0.0008600799614635847, ,1.9166666666666667, ,0.8824557638812209, ,0.6314769086345177, ,0.05989673680128977
204, ,PASS, ,0.09841441000000002, ,0.011489988738682018, ,0.04369888993763393, ,0.0012041749641073653, ,1.9166666666666667, ,0.8752810258457588, ,0.6342931776902512, ,0.058855941715475195
205, ,PASS, ,0.10828763999999999, ,0.01259110768578938, ,0.045026150554213176, ,0.0014548615009992998, ,1.8333333333333333, ,0.8780310538208621, ,0.6400277545356218, ,0.05975388257382502
206, ,PASS, ,0.10300364000000001, ,0.011321609885577046, ,0.04418185445990898, ,0.0012487803803728906, ,1.8333333333333333, ,0.8792935170802224, ,0.6405787636987, ,0.060121222015877225
207, ,PASS, ,0.11862208000000002, ,0.01329892488095765, ,0.0456181075234179, ,0.00168083668341901, ,1.8333333333333333, ,0.8826626943172401, ,0.6427828003510132, ,0.0697740862431379
208, ,PASS, ,0.08441878000000001, ,0.009335327334938795, ,0.042576518929613685, ,0.0008469919339896566, ,1.9166666666666667, ,0.8710586882152067, ,0.6367421073039325, ,0.0526519866941491
209, ,PASS, ,0.08417164000000003, ,0.00959497858749569, ,0.04240089360584478, ,0.0008627469813771643, ,1.9166666666666667, ,0.8697524628393212, ,0.6333952368319014, ,0.05493765433358503
210, ,PASS, ,0.078605044, ,0.008786098607851145, ,0.04196614155751923, ,0.0007392733598665216, ,1.9166666666666667, ,0.8627155136720926, ,0.6332523826044366, ,0.04459092671578131
211, ,PASS, ,0.08142672000000002, ,0.009505541336530157, ,0.042219416752515254, ,0.0008252164017573101, ,1.9166666666666667, ,0.8698289597266439, ,0.6316197628619824, ,0.0516315993551152
212, ,PASS, ,0.09328113000000002, ,0.010676061709744365, ,0.043723890540846105, ,0.0010684140742240535, ,1.8333333333333333, ,0.8723457812990408, ,0.6384971735270709, ,0.048162282402399954
213, ,PASS, ,0.10586982999999998, ,0.011992489470999405, ,0.04464745274378074, ,0.0013609040006630916, ,1.8333333333333333, ,0.8802896200047641, ,0.6396195996000081, ,0.05687639027774943
214, ,PASS, ,0.09504383000000001, ,0.011160984135642408, ,0.043908907769025125, ,0.0011208622367093108, ,1.9166666666666667, ,0.8793325707548547, ,0.6402522397502092, ,0.05161119160833452
215, ,PASS, ,0.05211263000000001, ,0.0060761872862562984, ,0.03981706062243628, ,0.0003408167753408168, ,1.9166666666666667, ,0.8326858516623659, ,0.6305993755229485, ,0.034203383604416236
216, ,FAIL, ,0.026704468999999984, ,0.0022450790949748068, ,0.03708384050468358, ,6.389645615653405e-05, ,1.8333333333333333, ,0.7178658150678412, ,0.6317422093426664, ,0.0015918042488928797
217, ,PASS, ,0.031864845059999966, ,0.003204501179094693, ,0.037624062435664574, ,0.00010906405927745886, ,1.9166666666666667, ,0.7857804808875479, ,0.6283341156302933, ,0.0010612028325952532
