Channel, ,Pass/Fail, ,Amplitude, ,Sorting Function Response, ,Mean, ,Variance, ,NPeaksRatio, ,PosIntegralRatio, ,ToT50, ,ToT99
28, ,PASS, ,0.08395446, ,0.010185408609184005, ,0.027947514914940512, ,0.0008548091231200484, ,1.5833333333333333, ,0.6460062166148368, ,0.47290871614865004, ,0.038386971694455214
29, ,PASS, ,0.09964086, ,0.01108949882838401, ,0.028967466880431014, ,0.0011037987638411724, ,1.5833333333333333, ,0.6173179011915814, ,0.48874512765045613, ,0.034223791351196915
30, ,PASS, ,0.09850030000000003, ,0.010311691355214791, ,0.02960747698008204, ,0.0010145399959173036, ,1.6666666666666667, ,0.5962511954331403, ,0.4976633129936124, ,0.0284075835187037
31, ,PASS, ,0.06035912730000002, ,0.006989013031550811, ,0.028404466072714393, ,0.0004217424408983269, ,1.5833333333333333, ,0.629921845709068, ,0.4778473908695741, ,0.03567274137262505
32, ,PASS, ,0.08485450000000003, ,0.010165678990178704, ,0.028045824664578275, ,0.0008623493132870069, ,1.5833333333333333, ,0.6426485650617378, ,0.47494949082671784, ,0.03901961184465623
33, ,PASS, ,0.10669039999999999, ,0.011276883796146272, ,0.02980221311640579, ,0.0012016900917308133, ,1.6666666666666667, ,0.6014435508352106, ,0.4978061672210771, ,0.030040203261157937
34, ,PASS, ,0.0995677, ,0.010339426545421892, ,0.02994609228958593, ,0.0010281909492936207, ,1.6666666666666667, ,0.5963693994348078, ,0.5017244546029673, ,0.03206057019244505
35, ,PASS, ,0.059319191857000006, ,0.006855467346620626, ,0.028396477413222546, ,0.0004065445833238185, ,1.6666666666666667, ,0.6292057700693421, ,0.47862288524723984, ,0.03316258851860166
36, ,PASS, ,0.08449391000000002, ,0.01019431122610212, ,0.02799941370223057, ,0.0008612261023448951, ,1.5833333333333333, ,0.645336013289731, ,0.47380665700699987, ,0.03906042733821759
37, ,PASS, ,0.10774328000000002, ,0.011390393526190274, ,0.029755362489683888, ,0.0012258222719709973, ,1.6666666666666667, ,0.6013462755738559, ,0.49723475031121817, ,0.030938144119507766
38, ,PASS, ,0.10056655999999999, ,0.010390809616363855, ,0.029911221832085062, ,0.0010439883703531859, ,1.6666666666666667, ,0.5946662381254078, ,0.5034387053325442, ,0.03193812371176098
39, ,PASS, ,0.05795890933900001, ,0.006790514076956412, ,0.028340371079370177, ,0.0003934060511338905, ,1.5833333333333333, ,0.6354356537423383, ,0.4767249647966368, ,0.03483602375461725
40, ,PASS, ,0.08856281999999996, ,0.010515595761831139, ,0.0276454179704904, ,0.0009310489352753064, ,1.5833333333333333, ,0.6387980846215955, ,0.4739086957409033, ,0.03561151813228301
41, ,PASS, ,0.11079468999999999, ,0.011625749542818782, ,0.029464025705618256, ,0.0012867485295815786, ,1.6666666666666667, ,0.5980344539869652, ,0.497561274259709, ,0.030019795514377258
42, ,PASS, ,0.10360105000000001, ,0.010639158619492817, ,0.02972226448831657, ,0.0011010813959731521, ,1.6666666666666667, ,0.5921034825703496, ,0.502499948980633, ,0.029958572274035224
43, ,PASS, ,0.06081606150000002, ,0.006938527512888152, ,0.028199393209787576, ,0.00042173709228236766, ,1.6666666666666667, ,0.6247023567784853, ,0.4781126915777229, ,0.02771372012816065
44, ,PASS, ,0.08665227999999998, ,0.010344732543008554, ,0.02783237220954675, ,0.0008962161147546352, ,1.5833333333333333, ,0.6411115519128653, ,0.4736025795391931, ,0.03773392379747352
45, ,PASS, ,0.10824698000000002, ,0.011362174512274338, ,0.029603518881533033, ,0.0012285619177241417, ,1.6666666666666667, ,0.5990098500699915, ,0.4998265341523642, ,0.03218301667312912
46, ,PASS, ,0.10096410000000001, ,0.010380801958344975, ,0.02995260035331932, ,0.001046891487897748, ,1.6666666666666667, ,0.5924761403978652, ,0.5038876757617191, ,0.02940756311095692
47, ,PASS, ,0.05936767805500001, ,0.006811743391507943, ,0.028122781463992757, ,0.00040415270789969304, ,1.6666666666666667, ,0.6280073164134384, ,0.4790106324360727, ,0.03212179343278709
48, ,PASS, ,0.08633824, ,0.01038000716441265, ,0.0276692717036387, ,0.0008961130809708336, ,1.5833333333333333, ,0.643562768766246, ,0.4727454541744046, ,0.03728495336829861
49, ,PASS, ,0.10800448000000001, ,0.011340320247671454, ,0.029531212910165104, ,0.0012233678952232074, ,1.6666666666666667, ,0.5993982837122326, ,0.4993163404828473, ,0.030958551866288445
50, ,PASS, ,0.10079679000000002, ,0.010359208296223811, ,0.02987297636762515, ,0.0010433339752975277, ,1.6666666666666667, ,0.5930324796352046, ,0.5033978898389829, ,0.029836125793351157
51, ,PASS, ,0.058774872178000016, ,0.006885536657299174, ,0.027965982642160873, ,0.00040475418364485747, ,1.5833333333333333, ,0.6356977668682032, ,0.47582702393828696, ,0.0335911512009959
52, ,PASS, ,0.08982257, ,0.010563768078782138, ,0.027852591836248244, ,0.0009488954034159421, ,1.5833333333333333, ,0.6362530587410246, ,0.47462296687822697, ,0.035591110385502334
53, ,PASS, ,0.1120197, ,0.011654580288268095, ,0.029723176435093163, ,0.0013039635370351663, ,1.6666666666666667, ,0.5952236331449762, ,0.49958164119099613, ,0.02928511663027285
54, ,PASS, ,0.10472537000000004, ,0.010688146516160828, ,0.029937742861186507, ,0.001117619594886271, ,1.6666666666666667, ,0.590171402401065, ,0.5043774616844554, ,0.031366706801902004
55, ,PASS, ,0.06293593700000001, ,0.007391820295204838, ,0.027949862387161854, ,0.00046507192126683523, ,1.5833333333333333, ,0.6356641921527617, ,0.4760106936593131, ,0.03289728781045285
56, ,PASS, ,0.08643511000000001, ,0.010277894761835915, ,0.02783852341348136, ,0.0008881670491374502, ,1.5833333333333333, ,0.6396467594786219, ,0.4747658211056917, ,0.037570661823228095
57, ,PASS, ,0.10996296, ,0.01146963143926624, ,0.029771483886634968, ,0.0012600622549532666, ,1.6666666666666667, ,0.5970457835782592, ,0.5002959123283198, ,0.030672843411358952
58, ,PASS, ,0.10283336000000003, ,0.01050990035499309, ,0.029973506572396485, ,0.0010797395935690662, ,1.6666666666666667, ,0.5914336282011352, ,0.5050305095814371, ,0.030754474398481665
59, ,PASS, ,0.06213657200000003, ,0.00714835979313867, ,0.028207829572259892, ,0.0004439787890809198, ,1.6666666666666667, ,0.627645916311206, ,0.4793575641313443, ,0.03328503499928573
60, ,PASS, ,0.08830007999999998, ,0.010393498329660002, ,0.027678593430358563, ,0.0009177067759723964, ,1.5833333333333333, ,0.6347340937578659, ,0.4732148323503602, ,0.03242790963449726
61, ,PASS, ,0.11237606, ,0.011672783137441882, ,0.029633508589192063, ,0.0013104405216288848, ,1.6666666666666667, ,0.5957726879645081, ,0.49992857288626763, ,0.029856533540131833
62, ,PASS, ,0.10516854000000002, ,0.010703243106287839, ,0.029820352665966002, ,0.0011243596294469634, ,1.6666666666666667, ,0.5893204849485767, ,0.5043774616844554, ,0.029162670149588784
63, ,PASS, ,0.06312592900000001, ,0.007184769480352017, ,0.028085780989908066, ,0.00045318215941074865, ,1.6666666666666667, ,0.6237420102556658, ,0.47990857329442255, ,0.03038713495642946
64, ,PASS, ,0.07837245300000001, ,0.009422514734678162, ,0.02762174127164752, ,0.000738751944776094, ,1.5833333333333333, ,0.6438069305178697, ,0.47084753372380156, ,0.034713577273933184
65, ,PASS, ,0.10615741000000002, ,0.011021853220210865, ,0.029564765835819677, ,0.001168484151599696, ,1.6666666666666667, ,0.5956220098025437, ,0.5001938735944165, ,0.029856533540131833
66, ,PASS, ,0.09868227000000002, ,0.010065805171236517, ,0.029861141252709132, ,0.0009924043065774116, ,1.6666666666666667, ,0.5906430209330391, ,0.5048060243668496, ,0.03038713495642946
67, ,PASS, ,0.05163488299999999, ,0.006101089258284718, ,0.0279829655131732, ,0.0003150183248613148, ,1.5833333333333333, ,0.6368983603253202, ,0.4720924062774229, ,0.030366727209648784
68, ,PASS, ,0.07720680400000005, ,0.009218399716465837, ,0.02775632091020591, ,0.0007117565489810514, ,1.5833333333333333, ,0.6412130443056108, ,0.47119446541907306, ,0.036284973776045386
69, ,PASS, ,0.10624470000000003, ,0.01102441042031346, ,0.029531710209056962, ,0.0011696740580618957, ,1.6666666666666667, ,0.5946969647865307, ,0.4993571559764086, ,0.030060611007938613
70, ,PASS, ,0.09872603000000003, ,0.010065649725412667, ,0.02989438736293137, ,0.0009929408242798773, ,1.6666666666666667, ,0.5903345740045854, ,0.5051733638089019, ,0.029632048325544377
71, ,PASS, ,0.05037481599999999, ,0.005906133937237418, ,0.027955743445664375, ,0.0002975016121126728, ,1.5833333333333333, ,0.63493872325364, ,0.4746025591314463, ,0.03577478010652844
72, ,PASS, ,0.078184536, ,0.009218507366809185, ,0.027807333492051185, ,0.0007205500025172025, ,1.5833333333333333, ,0.6355162824747409, ,0.47315360911001814, ,0.03306054978469827
73, ,PASS, ,0.10653686000000004, ,0.010989712126706666, ,0.02962521960955899, ,0.001169493264264851, ,1.6666666666666667, ,0.592976133845833, ,0.5014591538948184, ,0.02989734903369319
74, ,PASS, ,0.09942217000000002, ,0.010090692100308484, ,0.02987550857984531, ,0.001002124404695344, ,1.6666666666666667, ,0.588250101721783, ,0.5051733638089019, ,0.029427970857737597
75, ,PASS, ,0.05162831549999999, ,0.005951536712994437, ,0.0281090287015367, ,0.00030708980065151967, ,1.5833333333333333, ,0.6294426197817606, ,0.4763780331013653, ,0.03187690047141895
76, ,PASS, ,0.07213751300000001, ,0.00879112253135014, ,0.027746084081651395, ,0.0006342887011084147, ,1.5833333333333333, ,0.6486064141410032, ,0.4714597661272219, ,0.041162425256627416
77, ,PASS, ,0.09826660000000001, ,0.01037692496751785, ,0.02935995997116386, ,0.0010185101576041806, ,1.6666666666666667, ,0.6007194470005041, ,0.4981122834227873, ,0.03077488214526234
78, ,PASS, ,0.09176131000000001, ,0.009463836510813155, ,0.029574316133221774, ,0.0008674922772685203, ,1.6666666666666667, ,0.5936609220409023, ,0.5045611314054815, ,0.031774861737515564
79, ,PASS, ,0.04435586800000001, ,0.005312999847735545, ,0.028097174126181103, ,0.00023559347558478277, ,1.5833333333333333, ,0.6426654562593411, ,0.47413318095549073, ,0.0377543315442542
198, ,PASS, ,0.14399951000000002, ,0.024591788516850357, ,0.016400819425705596, ,0.0036516900375594607, ,1.8333333333333333, ,0.865531848648103, ,0.4283177894328687, ,0.05840697128630028
199, ,PASS, ,0.08407422000000003, ,0.012934902258567858, ,0.02156086172012816, ,0.0011371691918950588, ,1.75, ,0.8484303280214595, ,0.4217056794759291, ,0.04179506540682843
200, ,PASS, ,0.07351493599999998, ,0.011285116155261956, ,0.022394128552009143, ,0.0008702276704239923, ,1.75, ,0.8426340661346965, ,0.4185016632313626, ,0.0363666047631681
201, ,PASS, ,0.07515237999999998, ,0.011597186595385358, ,0.022283125702353013, ,0.0009125898989460055, ,1.75, ,0.8449227252168681, ,0.4195628660639579, ,0.039162466072120976
202, ,PASS, ,0.08590168000000004, ,0.013040743989135496, ,0.021333968361421197, ,0.0011707079092394966, ,1.75, ,0.8417191267629708, ,0.4212771167935348, ,0.0472847492908308
203, ,PASS, ,0.08134088000000005, ,0.012492204538497328, ,0.021805561340033877, ,0.0010618480879912027, ,1.75, ,0.8440663649176751, ,0.4209301850982633, ,0.04757045774576029
204, ,PASS, ,0.063334875, ,0.009559783018097371, ,0.023193728323646457, ,0.0006374602158046223, ,1.8333333333333333, ,0.8362371979355838, ,0.41572620966919044, ,0.033101365278259624
205, ,PASS, ,0.06320771400000001, ,0.009636438082907938, ,0.023264508590477743, ,0.0006424573386541569, ,1.8333333333333333, ,0.8391174134018903, ,0.4153792779739189, ,0.03642782800351013
206, ,PASS, ,0.06799433200000002, ,0.010366716593053353, ,0.02275958858000857, ,0.0007418589883105327, ,1.8333333333333333, ,0.8401450722476794, ,0.4153996857206996, ,0.03983592171588335
207, ,PASS, ,0.06865258000000002, ,0.010474503555255197, ,0.02286797903883594, ,0.000755778138129485, ,1.8333333333333333, ,0.8422639208351684, ,0.4179506540682843, ,0.042937899226546394
208, ,PASS, ,0.056564535999999985, ,0.008470211746906823, ,0.02383997918575131, ,0.0005068307247140581, ,1.8333333333333333, ,0.834801419289062, ,0.4139099202057101, ,0.036693128711658946
209, ,PASS, ,0.05450501061199998, ,0.00821051093692014, ,0.02399836559080427, ,0.00047388642704048573, ,1.8333333333333333, ,0.8374882262084596, ,0.4125426011714047, ,0.03610130405501929
210, ,PASS, ,0.059211363999999995, ,0.008904215278070655, ,0.02360587173618906, ,0.0005573369005607744, ,1.8333333333333333, ,0.8389350777771772, ,0.415562947694945, ,0.038754311136507416
211, ,PASS, ,0.066910058, ,0.01026133628356164, ,0.02290901976984143, ,0.0007219375693228013, ,1.8333333333333333, ,0.8462036855936411, ,0.4177873920940389, ,0.04789698169425114
212, ,PASS, ,0.09033839000000002, ,0.014202453277415854, ,0.020994804373857187, ,0.0013379390738239758, ,1.75, ,0.8466603336675773, ,0.4205424379094304, ,0.04303993796044979
213, ,PASS, ,0.07286244699999997, ,0.011098465335809464, ,0.022467833076875984, ,0.0008507444036066897, ,1.8333333333333333, ,0.8403331034260683, ,0.4162364033387074, ,0.0351625477031081
214, ,PASS, ,0.07345567999999997, ,0.01115225847426311, ,0.02239858671435277, ,0.0008607407715263822, ,1.8333333333333333, ,0.8416465066861741, ,0.41821595477643314, ,0.04048896961286504
215, ,PASS, ,0.09738363000000001, ,0.015345117592544722, ,0.020466999151730378, ,0.001553425719312683, ,1.75, ,0.8517562442417402, ,0.4241750168363911, ,0.05369278177996367
216, ,PASS, ,0.08051338000000001, ,0.012402628036420728, ,0.021946815758188607, ,0.0010461332145392708, ,1.75, ,0.843656100707073, ,0.41874655619273077, ,0.038591049162262
217, ,PASS, ,0.07696791999999997, ,0.011726490132155093, ,0.022178967935184996, ,0.0009474520579534556, ,1.8333333333333333, ,0.839204916788605, ,0.41701189771637315, ,0.03742780759576335
218, ,PASS, ,0.09534627, ,0.015030730154912743, ,0.020573831769140367, ,0.0014930451006423871, ,1.75, ,0.8508199650843674, ,0.4222362808922267, ,0.044141956286606394
219, ,PASS, ,0.10624758000000002, ,0.016788595619787423, ,0.019601859763759926, ,0.0018556750912054642, ,1.75, ,0.8443396586632161, ,0.42107303932572804, ,0.048243913389522664
220, ,PASS, ,0.08280962000000006, ,0.012698464263273123, ,0.021653372627436173, ,0.001103290684231389, ,1.75, ,0.8389390088488559, ,0.417971061815065, ,0.03538703291769556
221, ,PASS, ,0.07937970999999999, ,0.012098946098315851, ,0.02192699554553989, ,0.0010065955693659302, ,1.75, ,0.847809069073849, ,0.4192771576090284, ,0.040060406930470804
222, ,PASS, ,0.06870021400000002, ,0.010256043055913653, ,0.022699975018958797, ,0.0007438601777683821, ,1.8333333333333333, ,0.8395084697899672, ,0.4160323258709006, ,0.03408093712373217
223, ,PASS, ,0.08682102000000003, ,0.013074966174582677, ,0.02131649817169037, ,0.0011864210525458154, ,1.75, ,0.8470971518080131, ,0.42317503724413785, ,0.047427603518295544
224, ,PASS, ,0.07281904599999997, ,0.010910574981996574, ,0.022436344076222935, ,0.000837623374899911, ,1.8333333333333333, ,0.8399379935326645, ,0.41656292728719824, ,0.037019652660149796
225, ,PASS, ,0.061790885999999996, ,0.008974470832411246, ,0.023333084682088123, ,0.0005870887208509423, ,1.8333333333333333, ,0.8372258696353755, ,0.41321605681516704, ,0.03171363849717353
226, ,PASS, ,0.07074764, ,0.010560029573329069, ,0.022580085956837616, ,0.0007868670959529552, ,1.8333333333333333, ,0.8422922340690309, ,0.4160323258709006, ,0.04250933654415216
227, ,PASS, ,0.1032699, ,0.015843191779586766, ,0.019842103408239223, ,0.0017030122494614839, ,1.75, ,0.8504537164991742, ,0.4252770351625477, ,0.053876451500989776
228, ,PASS, ,0.1849606000000001, ,0.03538900391473684, ,0.01801950551847918, ,0.006642674268043458, ,2.0, ,0.8424203631992795, ,0.4351747923511765, ,0.04967245566417012
229, ,PASS, ,0.17410370000000008, ,0.03216985253930541, ,0.01531106008850838, ,0.005701585289822035, ,2.0, ,0.8463839183917553, ,0.43709312054856025, ,0.05332544233791147
230, ,PASS, ,0.1909304, ,0.03670897458228169, ,0.020227713514724157, ,0.007109795585782078, ,2.0, ,0.8420268485935839, ,0.4345421522009755, ,0.0530193261362013
231, ,PASS, ,0.1998000000000001, ,0.04202152395770646, ,0.02662097198559211, ,0.008539637940792775, ,2.0, ,0.9071120116022521, ,0.4388890022652599, ,0.3500132650354074
232, ,PASS, ,0.09533141000000003, ,0.014801956831344562, ,0.02064197153440381, ,0.0014737887400733953, ,1.75, ,0.8536120950832453, ,0.42227709638578803, ,0.0422848513295647
233, ,PASS, ,0.07490647999999998, ,0.011263872280651505, ,0.022262040456909042, ,0.0008902578935661911, ,1.8333333333333333, ,0.8466259619270038, ,0.4172976061713026, ,0.03822370972020979
234, ,PASS, ,0.09398205000000001, ,0.014472852206283351, ,0.020749552682684066, ,0.00142368595732114, ,1.75, ,0.8498001886195742, ,0.4206444766433338, ,0.039509397767392505
235, ,PASS, ,0.11575988000000004, ,0.017772299132708662, ,0.018904094824409995, ,0.002142861288157352, ,1.75, ,0.8511635141569345, ,0.42825656619252667, ,0.04763168098610233
236, ,PASS, ,0.06451519200000001, ,0.00934474685686451, ,0.023161413084243177, ,0.0006401128226328332, ,1.8333333333333333, ,0.8371988009826337, ,0.4151956082528928, ,0.0309993673598498
237, ,PASS, ,0.08048309, ,0.011885173811601826, ,0.0219030427789841, ,0.0010082915432498133, ,1.8333333333333333, ,0.8453753550036079, ,0.41901185690087955, ,0.03806044774596437
238, ,PASS, ,0.08345368000000003, ,0.012220749695982872, ,0.021526923198995934, ,0.0010757401378095454, ,1.8333333333333333, ,0.8429702168606119, ,0.4175220913858901, ,0.03767270055713149
239, ,PASS, ,0.07654915999999998, ,0.01081832799897436, ,0.02223195149798984, ,0.000876662790628341, ,1.8333333333333333, ,0.8358340946508506, ,0.41776698434725823, ,0.03934613579314708
240, ,PASS, ,0.07780890999999998, ,0.01144253586680989, ,0.022010176066876184, ,0.0009428401639203641, ,1.8333333333333333, ,0.8345740281543544, ,0.41413440542029756, ,0.03314218077182098
241, ,PASS, ,0.08060189, ,0.011969627425636157, ,0.021849854382175873, ,0.0010180644153314194, ,1.8333333333333333, ,0.8437731697214002, ,0.41699148996959245, ,0.03732576886185996
242, ,PASS, ,0.072339725, ,0.010511164636464232, ,0.02253104107461072, ,0.0008057187304278472, ,1.8333333333333333, ,0.8412658592226154, ,0.4163792575661721, ,0.03485643150139793
243, ,PASS, ,0.063096853, ,0.008639574427933882, ,0.02346811786839044, ,0.0005816534844269669, ,1.8333333333333333, ,0.8299828723574092, ,0.4159711026305586, ,0.03567274137262505
244, ,PASS, ,0.09058005000000001, ,0.013505957829891847, ,0.02104712747872492, ,0.001287356864034548, ,1.8333333333333333, ,0.8471092495696768, ,0.41946082733005446, ,0.03634619701638742
245, ,PASS, ,0.09262441000000002, ,0.013944340601528778, ,0.020920650237825758, ,0.0013565403281995624, ,1.75, ,0.8515610419718957, ,0.42097100059182463, ,0.0393257280463664
246, ,PASS, ,0.07474055999999997, ,0.010798731838100211, ,0.022220410908859005, ,0.0008531887870536532, ,1.8333333333333333, ,0.8422728082006079, ,0.4143792983816657, ,0.03161159976327014
247, ,PASS, ,0.06678562599999999, ,0.009270112472063018, ,0.02315203471123038, ,0.0006592889566864401, ,1.8333333333333333, ,0.8344258049334172, ,0.4158486561498745, ,0.0351625477031081
248, ,PASS, ,0.06516044400000001, ,0.00920342668393155, ,0.02322474915650701, ,0.0006389492370231998, ,1.8333333333333333, ,0.8403599828252727, ,0.41523642374645414, ,0.03406052937695149
249, ,PASS, ,0.08250166000000003, ,0.011887905902955772, ,0.021765999806657003, ,0.0010410075842704205, ,1.8333333333333333, ,0.8403449741139924, ,0.4171751596906186, ,0.03157078426970878
250, ,PASS, ,0.069596295, ,0.009362438680111163, ,0.022958659215913956, ,0.0006957824808276858, ,1.8333333333333333, ,0.8360986647095647, ,0.4159302871369972, ,0.030427950449990818
251, ,PASS, ,0.056626856999999996, ,0.00737024611361057, ,0.02407553254237669, ,0.00044831212233193676, ,1.8333333333333333, ,0.8247822101282971, ,0.41395073569927143, ,0.028203506050896922
252, ,PASS, ,0.11859674000000002, ,0.018387632032598217, ,0.018637249177200468, ,0.0022806692262961705, ,1.75, ,0.8575670049064997, ,0.4229709597763311, ,0.039958368196567416
253, ,PASS, ,0.13120300000000007, ,0.01950150336137745, ,0.01785474132338116, ,0.002673398017788125, ,1.75, ,0.8544505364611633, ,0.4259096753127487, ,0.0384890104283586
254, ,PASS, ,0.16272161000000007, ,0.025562682252088135, ,0.015209778356890672, ,0.004318600472410245, ,1.75, ,0.8573872314941396, ,0.42937899226546394, ,0.042448113303810125
255, ,PASS, ,0.1998000000000001, ,0.04356050258627634, ,0.023547227891696058, ,0.009008628707192386, ,1.9166666666666667, ,0.9421882605065511, ,0.4277667802697904, ,0.37035978857574336
