Channel, ,Pass/Fail, ,Amplitude, ,Sorting Function Response, ,Mean, ,Variance
0, ,PASS, ,0.021493592365324, ,0.014754340181245267, ,0.0006820038455434251, ,7.075314986816404e-05
1, ,PASS, ,0.022970159888968, ,0.017765029496202817, ,0.0012902672047046548, ,9.01159387433779e-05
2, ,PASS, ,0.023122919094230997, ,0.01791034193907885, ,0.001298676052545573, ,9.146295635385945e-05
3, ,PASS, ,0.023076102238795, ,0.01782993223796218, ,0.0012996947365460764, ,9.083410448090401e-05
4, ,PASS, ,0.022921876882771003, ,0.017735063548005733, ,0.0012556671872365765, ,8.978329024933305e-05
5, ,PASS, ,0.023025486882698, ,0.01781303907899287, ,0.0012511535150314275, ,9.05374999759499e-05
6, ,PASS, ,0.023168047523335004, ,0.0182736773062186, ,0.0013860334646815544, ,9.319939989015694e-05
7, ,PASS, ,0.023217798993655, ,0.018292338541971997, ,0.0014571321205856947, ,9.353201826715371e-05
8, ,PASS, ,0.023112129474247997, ,0.01788839893116065, ,0.0013020258785376917, ,9.126716288342492e-05
9, ,PASS, ,0.023058572834444, ,0.017866752755282437, ,0.0012797394097482974, ,9.093870517559057e-05
10, ,PASS, ,0.023066426270339002, ,0.017884390828155176, ,0.0012917645665919588, ,9.108767353947883e-05
11, ,PASS, ,0.023086496872694, ,0.01788820023436096, ,0.0012634807187491973, ,9.11908880827901e-05
12, ,PASS, ,0.023149227697885, ,0.017807955369819047, ,0.0012936997379352046, ,9.101808794731703e-05
13, ,PASS, ,0.02312961552586, ,0.01789658382436222, ,0.0012892732325478038, ,9.141911132472167e-05
14, ,PASS, ,0.023078394982163, ,0.017903763046236087, ,0.0012678067114055282, ,9.123781374008616e-05
15, ,PASS, ,0.023076364691515, ,0.017858817223491842, ,0.001280632267248924, ,9.102137190757567e-05
16, ,PASS, ,0.023107811503152997, ,0.017922904828503627, ,0.001237285651432407, ,9.152359146821128e-05
17, ,PASS, ,0.023166924723277, ,0.01798193044979311, ,0.0013390603417268029, ,9.20362383774154e-05
18, ,PASS, ,0.023515545341484, ,0.01846621369593099, ,0.001364594281048481, ,9.579837094393278e-05
19, ,PASS, ,0.023093684564451003, ,0.01790690700548445, ,0.0012598285216955255, ,9.138748151135691e-05
20, ,PASS, ,0.023059258207722005, ,0.017816141774225136, ,0.0013382758805495438, ,9.081132622576356e-05
21, ,PASS, ,0.023128145520209996, ,0.017834046556167608, ,0.0013588172601306228, ,9.116692499218985e-05
22, ,PASS, ,0.023105223087521, ,0.017891030225021823, ,0.0012861819009527115, ,9.136169191893863e-05
23, ,PASS, ,0.023163731875084005, ,0.017832718694474375, ,0.0013178545122604461, ,9.1299980070918e-05
24, ,PASS, ,0.023210909610262002, ,0.01790940399800775, ,0.001276752219682226, ,9.186412887531469e-05
25, ,PASS, ,0.023238399772142003, ,0.01793874406038456, ,0.0012778087903808528, ,9.213418125828672e-05
26, ,PASS, ,0.023722095749735, ,0.01859502263592844, ,0.0013818642929258164, ,9.733501224414964e-05
27, ,PASS, ,0.023179358390037, ,0.01799743843343326, ,0.00125566520521311, ,9.219072214386566e-05
28, ,PASS, ,0.023093579288046, ,0.017716063902867212, ,0.001287405644225386, ,9.049966785060646e-05
29, ,PASS, ,0.023143988454695, ,0.017828040584873223, ,0.0012143749354637217, ,9.122644073691686e-05
30, ,PASS, ,0.023150452384902997, ,0.017882400732076607, ,0.0012464252723718473, ,9.153905678438715e-05
31, ,PASS, ,0.023102157035843004, ,0.01782014862720551, ,0.001287184513613131, ,9.105698021623348e-05
32, ,PASS, ,0.023154244253121, ,0.01794511500251036, ,0.0012871831705914716, ,9.184856744533287e-05
33, ,PASS, ,0.023216735112513, ,0.017936340122109425, ,0.0012696363394769864, ,9.204985409203837e-05
34, ,PASS, ,0.023179815885404003, ,0.017923636050229598, ,0.001256042082924682, ,9.185401827723402e-05
35, ,PASS, ,0.023157095268119002, ,0.01797401898674438, ,0.001265304451700203, ,9.203801569508476e-05
36, ,PASS, ,0.023195428516144, ,0.01786616273117208, ,0.001313375663357497, ,9.166190481032367e-05
37, ,PASS, ,0.023239642357887003, ,0.017999054356016585, ,0.0012672692682005465, ,9.247076476622698e-05
38, ,PASS, ,0.023142451291326, ,0.017920890697755525, ,0.0012593011534458396, ,9.17560882755635e-05
39, ,PASS, ,0.023124301886500005, ,0.01789295033808639, ,0.0012586257845706346, ,9.149985399198506e-05
40, ,PASS, ,0.023328159189309, ,0.01808821504184893, ,0.0012481015155267694, ,9.336974695257733e-05
41, ,PASS, ,0.023372702586811005, ,0.01807880936772622, ,0.0012309167762207837, ,9.351629210127596e-05
42, ,PASS, ,0.023369789958801, ,0.018047199205082763, ,0.0012769998025104004, ,9.330724030505231e-05
43, ,PASS, ,0.023493534056494, ,0.018150670717497465, ,0.0012217655533902094, ,9.433800541283579e-05
44, ,PASS, ,0.025872843276228, ,0.02007569089905741, ,0.0014471354367521702, ,0.00011450804845443358
45, ,PASS, ,0.09469803760521199, ,0.06372668820906738, ,0.0077487743273971154, ,0.0012951031311849283
46, ,PASS, ,0.029383784777608002, ,0.022954832056450568, ,0.0017375367849323245, ,0.0001484673259092048
47, ,PASS, ,0.026324232652755998, ,0.020233907935944147, ,0.0014151188953493634, ,0.00011772294102113381
48, ,PASS, ,0.026082158642021003, ,0.0199840145360438, ,0.0013111354227150179, ,0.00011526944890433372
49, ,PASS, ,0.026070399091444006, ,0.020025405646004187, ,0.0013783749754536457, ,0.00011548731716611823
50, ,PASS, ,0.026017042263245003, ,0.020071693554419862, ,0.001362601269901758, ,0.00011549636941831069
51, ,PASS, ,0.026037337717995997, ,0.019991308515025483, ,0.0012966936405337643, ,0.00011509136223774334
52, ,PASS, ,0.026038127870267998, ,0.02002098785294128, ,0.0013468915291300393, ,0.00011520939214057685
53, ,PASS, ,0.026013841081803, ,0.020114773307951035, ,0.0013642929921296038, ,0.00011567769557614834
54, ,PASS, ,0.025994723496447, ,0.020119109799582417, ,0.0013922730033794997, ,0.00011556434159340443
55, ,PASS, ,0.026032778546870007, ,0.02004403441008448, ,0.0013652812784486225, ,0.0001153185666713165
56, ,PASS, ,0.026020322260360003, ,0.020063971019571827, ,0.0014019941559270282, ,0.00011542210249774738
57, ,PASS, ,0.025987102206425, ,0.019977493554111082, ,0.001328555010269793, ,0.00011475810738244251
58, ,PASS, ,0.025939446189151002, ,0.020015729691587186, ,0.0013375104097231773, ,0.00011476593782321626
59, ,PASS, ,0.025941926465290997, ,0.019997116814933467, ,0.0013653050747513703, ,0.00011462178233414552
60, ,PASS, ,0.02612294319049, ,0.02011507841985015, ,0.0014051602337711358, ,0.00011615252089197546
61, ,PASS, ,0.026060670123513006, ,0.020060821260807885, ,0.001387851603258436, ,0.00011561019792656638
62, ,PASS, ,0.026011458713952995, ,0.020040623151670635, ,0.0014239522919119924, ,0.0001152824168721041
63, ,PASS, ,0.026053367575748, ,0.0200527556926406, ,0.001341076608149884, ,0.00011549244936184518
64, ,PASS, ,0.02615919357976, ,0.02017126880501378, ,0.0013375906150218829, ,0.0001166061535705167
65, ,PASS, ,0.026148728606699, ,0.02022674652791251, ,0.0013914053536062492, ,0.0001168634538785926
66, ,PASS, ,0.026092354923869, ,0.020226835428320156, ,0.0013901034224804336, ,0.00011660852059187086
67, ,PASS, ,0.026098106663356997, ,0.020147073377412807, ,0.0014110012040675093, ,0.00011617903568730435
68, ,PASS, ,0.026104352080407005, ,0.020102474606006587, ,0.0013304191963850601, ,0.00011597467832658424
69, ,PASS, ,0.026101173713618003, ,0.02019468845081357, ,0.0013490853626897852, ,0.00011650509341573782
70, ,PASS, ,0.026059045837059005, ,0.02010561775563715, ,0.0013241527720255339, ,0.00011579349068603843
71, ,PASS, ,0.026031196572861, ,0.02010910538491864, ,0.0013447479594928806, ,0.00011572032711735917
72, ,PASS, ,0.026389473301108, ,0.020598209380638954, ,0.0014589337423052517, ,0.00012001105702386698
73, ,PASS, ,0.026254482016371, ,0.02032573032644865, ,0.0013744477717907945, ,0.00011788247577645315
74, ,PASS, ,0.026121005241766, ,0.02023029779328222, ,0.001406296158326672, ,0.00011678230294785382
75, ,PASS, ,0.026109084492668, ,0.020196400111149936, ,0.001466396424107637, ,0.00011654841618827424
76, ,PASS, ,0.02607837553472, ,0.0200450125226965, ,0.0014044545596364562, ,0.00011561707332375126
77, ,PASS, ,0.026116922828865997, ,0.020052616160140018, ,0.0013691326271621698, ,0.00011583556271723753
78, ,PASS, ,0.026062342035685006, ,0.02008808360640262, ,0.0013980943961015475, ,0.0001157794238308103
79, ,PASS, ,0.026045276899627996, ,0.020048175570513038, ,0.0013793086326527918, ,0.00011543566245011802
80, ,PASS, ,0.026634640993908006, ,0.02082245448770781, ,0.0014857085446530781, ,0.00012242952915288532
81, ,PASS, ,0.026513601006851, ,0.02065568463322495, ,0.0014711102490150905, ,0.00012093598872526746
82, ,PASS, ,0.026253970017019, ,0.020361571839673326, ,0.0014215444766586581, ,0.00011808980820014829
83, ,PASS, ,0.026287474023175002, ,0.02039151017647982, ,0.0014238144507058412, ,0.00011846677627067853
84, ,PASS, ,0.026309232135954, ,0.020327520450284135, ,0.0013995755175782673, ,0.00011821890463668868
85, ,PASS, ,0.026369886833896995, ,0.020316744299334284, ,0.0014718262425180235, ,0.0001184252440026344
86, ,PASS, ,0.026385910387036002, ,0.020340110630559696, ,0.001446051456230124, ,0.00011859379027639892
87, ,PASS, ,0.026372961278821997, ,0.02034325842974448, ,0.0014046295933397273, ,0.00011859335277952137
88, ,PASS, ,0.026370207903344003, ,0.020421134004803047, ,0.001401351590315768, ,0.00011898762718837246
89, ,PASS, ,0.026382378446514, ,0.020354673990643994, ,0.0014215872070649364, ,0.00011870512281677397
90, ,PASS, ,0.026350847898106003, ,0.020380685907710472, ,0.0014924512739834593, ,0.00011867129690449034
91, ,PASS, ,0.026341003759681993, ,0.02035429888781279, ,0.0013892648150485214, ,0.00011850431326876358
92, ,PASS, ,0.026376558057384, ,0.020464760093158806, ,0.0014206910863544815, ,0.00011932056414937663
93, ,PASS, ,0.026424509931861, ,0.02041654620063092, ,0.0014144325204118442, ,0.00011925479317417301
94, ,PASS, ,0.026358011815981006, ,0.02047520121646524, ,0.0013924328871462368, ,0.00011929359822412536
95, ,PASS, ,0.026311108364453002, ,0.020441100008256063, ,0.0014481962954033642, ,0.0001188939205783228
96, ,PASS, ,0.026343618851235, ,0.020400499388680594, ,0.0014198994895613267, ,0.00011883354087967348
97, ,PASS, ,0.026398895424619005, ,0.020382590683277534, ,0.0013709618041862623, ,0.00011907885205185315
98, ,PASS, ,0.026284121307831, ,0.020343154246555997, ,0.001412815761716668, ,0.00011832510981941213
99, ,PASS, ,0.026245058884180997, ,0.020333141891668814, ,0.0013467641131081063, ,0.00011815110509060304
100, ,PASS, ,0.026263731088044997, ,0.02031469722855125, ,0.001347139687166262, ,0.00011808678739278304
101, ,PASS, ,0.026334751465276002, ,0.020341282036905748, ,0.0013820266771261901, ,0.00011856268510806187
102, ,PASS, ,0.026341953146763998, ,0.020390738423222927, ,0.001394306616689983, ,0.00011890587199470524
103, ,PASS, ,0.026339505452361002, ,0.02034581293424295, ,0.0013361191708919583, ,0.00011862748531951583
104, ,PASS, ,0.026430948566615, ,0.020493881119946728, ,0.0013959016493473844, ,0.00011995778381401783
105, ,PASS, ,0.026671658009571997, ,0.020609791288177377, ,0.001372214700529957, ,0.00012163906043280316
106, ,PASS, ,0.027334829795845, ,0.02124147166453901, ,0.0014221250810896873, ,0.00012841889710789255
107, ,PASS, ,0.054392316692015996, ,0.035839069112376144, ,0.004291643596574023, ,0.0004203024381438012
108, ,PASS, ,0.058135286546391995, ,0.036978601719435504, ,0.004647769655692367, ,0.0004628645535962848
109, ,PASS, ,0.028612897182966, ,0.02218676236209606, ,0.0014784010956577903, ,0.00014055671498163768
110, ,PASS, ,0.028014871786027004, ,0.02160109005310732, ,0.001376855476250815, ,0.00013405396112579042
111, ,PASS, ,0.027792253710568995, ,0.021534068050593245, ,0.0013979822637954454, ,0.00013262325978050893
112, ,PASS, ,0.027900647539178997, ,0.021506124136680863, ,0.0013742855576627847, ,0.00013298991501387508
113, ,PASS, ,0.027852539795904997, ,0.021541172577930676, ,0.0013522714393218863, ,0.00013298455671724058
114, ,PASS, ,0.027816250515142, ,0.021431805790305576, ,0.0014207074763857466, ,0.0001321566348355649
115, ,PASS, ,0.027840731988523, ,0.02140295366465573, ,0.0013480402869032614, ,0.00013208882372319215
116, ,PASS, ,0.027782032566488, ,0.021487695265797222, ,0.0013361577638554484, ,0.00013232777215312612
117, ,PASS, ,0.027862654848226004, ,0.021474844066976983, ,0.001325272976455193, ,0.0001326402842168744
118, ,PASS, ,0.027757862763470996, ,0.02145529273623618, ,0.0013470731901925432, ,0.00013198193058424463
119, ,PASS, ,0.027704520190152, ,0.021400178717333938, ,0.0013423105875968158, ,0.0001314110266738558
120, ,PASS, ,0.027725013829182, ,0.021493490718578766, ,0.0013744859283008216, ,0.00013205049801935076
121, ,PASS, ,0.027705236287872997, ,0.021457285575487036, ,0.001343998268175597, ,0.00013175356550558794
122, ,PASS, ,0.027651811184422004, ,0.021431014013045594, ,0.001349028571543706, ,0.00013128344657924873
123, ,PASS, ,0.027623037049903, ,0.021338764831425723, ,0.0013445488086099738, ,0.00013063445974889845
124, ,PASS, ,0.027292827999735, ,0.0211307694687638, ,0.0013080617526541286, ,0.0001277623882663531
125, ,PASS, ,0.027453242604788, ,0.021287024650075047, ,0.0013707372203080074, ,0.0001294565325701393
126, ,PASS, ,0.027593235764926, ,0.021319992552466506, ,0.0013774555298025355, ,0.00013037928627334378
127, ,PASS, ,0.027504913004776005, ,0.02131422036737695, ,0.0013942988951014805, ,0.0001299075462658404
128, ,PASS, ,0.027305043433126, ,0.02116998148418703, ,0.0013133250741376914, ,0.00012807753073596872
129, ,PASS, ,0.027457037163817005, ,0.021268106562895565, ,0.0013465609255786579, ,0.00012938404131325424
130, ,PASS, ,0.027627526980146998, ,0.02134237324494803, ,0.0013352195420649705, ,0.0001306546493533142
131, ,PASS, ,0.027594011890908002, ,0.02133885577468817, ,0.001273427780817243, ,0.0001304434887068448
132, ,PASS, ,0.027656103848550002, ,0.021406288597514776, ,0.0013403710939467657, ,0.0001311924139999462
133, ,PASS, ,0.027688425940745, ,0.021315681479545906, ,0.0013575272627461624, ,0.00013080017745941165
134, ,PASS, ,0.027753408405804002, ,0.021523814514020502, ,0.0013926322445252032, ,0.0001323239786342451
135, ,PASS, ,0.027884545934776, ,0.021807997136635688, ,0.0014775547017566687, ,0.00013468141443504294
136, ,PASS, ,0.027612256096098003, ,0.021424388829099975, ,0.0013455351798474886, ,0.00013106286792380576
137, ,PASS, ,0.027684237499704004, ,0.021387245151717586, ,0.0013069780974981527, ,0.00013117879385294564
138, ,PASS, ,0.027559816900484996, ,0.02138522270418855, ,0.0013447592521675105, ,0.00013056127925893215
139, ,PASS, ,0.027523606535589, ,0.021377600837039965, ,0.0013747495117008687, ,0.0001303185862471429
140, ,PASS, ,0.027525687511410997, ,0.02132786423669094, ,0.0012921406246416303, ,0.00012998138420394526
141, ,PASS, ,0.027594881020784993, ,0.021384663046306967, ,0.0013288377135025767, ,0.00013068300749109684
142, ,PASS, ,0.027502285033049995, ,0.02142060854812418, ,0.0014245110053106348, ,0.0001304820004580978
143, ,PASS, ,0.027880847355564, ,0.02189692863763804, ,0.001455506058347787, ,0.00013501776913653137
144, ,PASS, ,0.027413301468558, ,0.021215003789014048, ,0.0013609613602609703, ,0.0001288435450086732
145, ,PASS, ,0.027382137702146002, ,0.021280629887369083, ,0.00135031681668547, ,0.00012906908772559455
146, ,PASS, ,0.027343459267556998, ,0.021240240154209184, ,0.0013764487596224085, ,0.00012865761655034665
147, ,PASS, ,0.027285885485646002, ,0.021209376452097466, ,0.0013979448097275963, ,0.0001282195654097521
148, ,PASS, ,0.027241669850297995, ,0.02122407711910393, ,0.0013328238436859845, ,0.0001280299384742825
149, ,PASS, ,0.027307319856287995, ,0.02121025565974057, ,0.0013307454960772847, ,0.00012829108316673857
150, ,PASS, ,0.027184190247515, ,0.021241370802850653, ,0.001357055830974428, ,0.00012791925274034332
151, ,PASS, ,0.027229858038006, ,0.02121634277825566, ,0.0013546457376228311, ,0.00012791771055201993
152, ,PASS, ,0.027221085311091, ,0.021186844984916672, ,0.0013839156172513484, ,0.0001277584915507184
153, ,PASS, ,0.027232035240278, ,0.02117326412638842, ,0.0013201235457420805, ,0.00012770841206308532
154, ,PASS, ,0.027256109061699, ,0.021132380721714503, ,0.001353086469612402, ,0.0001276200860709342
155, ,PASS, ,0.027210913126896996, ,0.021093136170487067, ,0.0013596674787872817, ,0.0001271146887325481
156, ,PASS, ,0.027196275033273, ,0.021110314573750663, ,0.0013351473377879567, ,0.00012714195450368933
157, ,PASS, ,0.027194313993451, ,0.02110629183314749, ,0.001350743071182017, ,0.0001271535935994851
158, ,PASS, ,0.027143458906122006, ,0.02109537442033064, ,0.0013209370361017849, ,0.00012680674259190475
159, ,PASS, ,0.027092199582546, ,0.021033471849790434, ,0.001389034562084869, ,0.00012622420115922375
160, ,PASS, ,0.027174078361953, ,0.021044864237901608, ,0.0013535957189181075, ,0.00012663495922643456
161, ,PASS, ,0.027102633838136, ,0.021027272428626377, ,0.001274374070269811, ,0.000126183155832307
162, ,PASS, ,0.027055327226949002, ,0.021046150143491284, ,0.0013483937289291838, ,0.0001260894380398137
163, ,PASS, ,0.027008448150772003, ,0.021016056467945004, ,0.0013732320456591258, ,0.00012568820590881744
164, ,PASS, ,0.027095603666426, ,0.021071950468515226, ,0.0013563541230082429, ,0.0001264588518199164
165, ,PASS, ,0.027072059855232, ,0.021016124499251814, ,0.0013886946703530105, ,0.0001260451520788931
166, ,PASS, ,0.027137899656219995, ,0.02109015179013474, ,0.0013974955116051342, ,0.00012673738390217953
167, ,PASS, ,0.027170344757301002, ,0.02114280610671333, ,0.0013771260236532966, ,0.00012719125362872452
168, ,PASS, ,0.0300157462919, ,0.02346607861868924, ,0.0016009577920986474, ,0.00015541958084571453
169, ,PASS, ,0.027391810743354002, ,0.021350286276928334, ,0.0013673268842477714, ,0.00012945792141165176
170, ,PASS, ,0.031315740876639, ,0.024444662516509924, ,0.0018658494800349256, ,0.00016825475407120438
171, ,PASS, ,0.09999999997600005, ,0.07481673387114482, ,0.008274217674117417, ,0.001602436626972042
172, ,PASS, ,0.028607592501691002, ,0.022257203825630133, ,0.001533562055085526, ,0.0001403229211366243
173, ,PASS, ,0.028325403367538998, ,0.022042972670744444, ,0.001539117645560792, ,0.00013769657813560333
174, ,PASS, ,0.028259031167854002, ,0.021979559545679775, ,0.0014762447983339073, ,0.00013687274096416607
175, ,PASS, ,0.028622402057756003, ,0.02231890510829358, ,0.0015891627871474706, ,0.0001408309052517379
176, ,PASS, ,0.028233018946665998, ,0.021963676846191972, ,0.0015298267713305608, ,0.00013679246910739703
177, ,PASS, ,0.028227558036493, ,0.021963650102851947, ,0.0015654720041617224, ,0.0001367674118032199
178, ,PASS, ,0.028260103162954003, ,0.021979570763366693, ,0.001523164022983628, ,0.00013693911998721123
179, ,PASS, ,0.028071514290296008, ,0.021899310449575077, ,0.0015419355224927426, ,0.00013562935091205079
180, ,PASS, ,0.028198144619025, ,0.021956902114816382, ,0.0015451167724658465, ,0.00013647545774677955
181, ,PASS, ,0.028222405144220003, ,0.021936436987674175, ,0.0014599318057711122, ,0.00013641282863512545
182, ,PASS, ,0.028134749522595003, ,0.021898429121862427, ,0.0015365629505476018, ,0.00013580027492095283
183, ,PASS, ,0.028092434148540006, ,0.021936128342334868, ,0.0015272158810200269, ,0.0001358466824651701
184, ,PASS, ,0.028051156965907, ,0.02187012009281219, ,0.0015241031225287334, ,0.00013530299228788455
185, ,PASS, ,0.028092427554902998, ,0.02184352371106608, ,0.001541551363724261, ,0.00013531881038045861
186, ,PASS, ,0.028007841599894, ,0.02181250721348126, ,0.001517880029622195, ,0.0001346824076317691
187, ,PASS, ,0.028028626878905, ,0.021799960445289545, ,0.0015239685106879653, ,0.00013468647677517166
188, ,PASS, ,0.027958254624732996, ,0.021822178216767397, ,0.0015571728226789112, ,0.0001344805816954033
189, ,PASS, ,0.027949918419819, ,0.021792747398960245, ,0.0015461329287561256, ,0.00013427568957212824
190, ,PASS, ,0.027943259346073, ,0.02177472173944286, ,0.0014958925238166432, ,0.0001340296052783771
191, ,PASS, ,0.027824587822172002, ,0.021757039903243597, ,0.0014979616788732717, ,0.00013342462874685264
192, ,PASS, ,0.027912771514902, ,0.021738687569949535, ,0.0015289524531612072, ,0.0001337801975149085
193, ,PASS, ,0.027889889482276997, ,0.02176325903340749, ,0.0015677595043201344, ,0.00013378763973418748
194, ,PASS, ,0.027774839734445996, ,0.02166790551297, ,0.0015322513810979944, ,0.0001326548026017831
195, ,PASS, ,0.027824791849846, ,0.021733352569951306, ,0.0014875550991153856, ,0.0001332538489476394
196, ,PASS, ,0.027951936479534, ,0.02180281627982509, ,0.0015419981024800608, ,0.00013430540550784143
197, ,PASS, ,0.028503886797331, ,0.022337760725934474, ,0.0016691916881009642, ,0.00014018248028180479
198, ,PASS, ,0.027892303935263, ,0.02182209445008095, ,0.0015566423768361153, ,0.00013417510293687137
199, ,PASS, ,0.027910566603882005, ,0.02175604590002717, ,0.001572299036957053, ,0.0001337709803899828
200, ,PASS, ,0.027910613104881, ,0.021736382363517024, ,0.0015038533216114364, ,0.00013366703749647087
201, ,PASS, ,0.027777072853218995, ,0.02170081217039187, ,0.0015116214383103874, ,0.00013287366381133496
202, ,PASS, ,0.027765715482524003, ,0.021706306072316627, ,0.0015556901621555771, ,0.00013280459429842404
203, ,PASS, ,0.027752251785575, ,0.021742323711285143, ,0.001481540400650728, ,0.000132942117828841
204, ,PASS, ,0.027769034314718, ,0.0216823407754552, ,0.0015457715638918853, ,0.00013268553660999817
205, ,PASS, ,0.028363898740016, ,0.02235188708640225, ,0.0017055112471232876, ,0.000139495827357087
206, ,PASS, ,0.027956685893053997, ,0.021893259715543154, ,0.001633139722642388, ,0.00013476878260129384
207, ,PASS, ,0.027773770299959, ,0.021686980702541193, ,0.0015830350048993984, ,0.00013268026507126882
208, ,PASS, ,0.027747045895072, ,0.02173342576986453, ,0.001621877640264785, ,0.00013285044611282447
209, ,PASS, ,0.027799574229565, ,0.021659971530359572, ,0.0015601313038073967, ,0.0001326312232466266
210, ,PASS, ,0.027687393350999998, ,0.021682221690927952, ,0.0016333672156010406, ,0.00013223710811699265
211, ,PASS, ,0.027803211192886, ,0.021757967648054446, ,0.001559879964921128, ,0.0001332293382493969
212, ,PASS, ,0.027687378983498, ,0.021674036286195374, ,0.0015835987001608881, ,0.0001322073965712937
213, ,PASS, ,0.027682375217048007, ,0.021625773215689308, ,0.0016365342581927459, ,0.0001318963200347909
214, ,PASS, ,0.027528086341950003, ,0.021541137517006818, ,0.0016054969600778107, ,0.00013063390051407898
215, ,PASS, ,0.027571721938051, ,0.021588455844093166, ,0.0015829445459822299, ,0.00013112921541389545
216, ,PASS, ,0.027663015838476003, ,0.02161376076917294, ,0.0015799510264670389, ,0.00013177402305460716
217, ,PASS, ,0.027703909633732007, ,0.02164200287159289, ,0.0015960788000344667, ,0.00013211088332668484
218, ,PASS, ,0.027595427933722, ,0.02159297826469557, ,0.0015558306914046061, ,0.00013127998623998274
219, ,PASS, ,0.027713961086194998, ,0.0215806212480003, ,0.001591962029306648, ,0.00013173052311299483
220, ,PASS, ,0.027548236936356, ,0.021593498171043668, ,0.0015700984325638645, ,0.00013102683800164474
221, ,PASS, ,0.027636777425533006, ,0.021549448551627687, ,0.0015545970746323023, ,0.00013117426029686134
222, ,PASS, ,0.027581230094835, ,0.021577898719546407, ,0.0015637141754587193, ,0.0001310652677868868
223, ,PASS, ,0.027580793141155996, ,0.021636630778297042, ,0.0016095951468643075, ,0.00013141468593839818
224, ,PASS, ,0.027589922599401004, ,0.021634805822690163, ,0.0015978994507824316, ,0.00013147264293669294
225, ,PASS, ,0.027642307516468997, ,0.021609696901213296, ,0.0015843699222547309, ,0.00013155453882043007
226, ,PASS, ,0.027631636111202, ,0.021619382792246913, ,0.001599337120195663, ,0.00013154724253399398
227, ,PASS, ,0.027657647402982, ,0.02161572470564117, ,0.0015795524980313023, ,0.00013167355801610737
228, ,PASS, ,0.027525107407913002, ,0.02156401782083475, ,0.001629887151628124, ,0.0001307836160481228
229, ,PASS, ,0.027472791825740996, ,0.021514702797319395, ,0.0015615045372413866, ,0.00013025615105804385
230, ,PASS, ,0.027412570431757002, ,0.021488054672480553, ,0.00158098525207964, ,0.0001297706556328879
231, ,PASS, ,0.028219782795757, ,0.022123050618605044, ,0.001675839069058285, ,0.00013735888594305418
232, ,PASS, ,0.065819653651249, ,0.039499612945053705, ,0.005402779914718468, ,0.0005564547230768175
233, ,PASS, ,0.06423781099089199, ,0.03875105776958925, ,0.00543487308275584, ,0.0005314615633581097
234, ,PASS, ,0.035819468716871, ,0.026463399320349464, ,0.002716726950593223, ,0.00020529270709484542
235, ,PASS, ,0.035118166149691, ,0.0260443765074357, ,0.002647300239741557, ,0.00019817517916456833
236, ,PASS, ,0.035148049503208, ,0.026068746718177035, ,0.0026513035112556817, ,0.00019853355032503276
237, ,PASS, ,0.03519917082070201, ,0.02608745775949253, ,0.002682393514371848, ,0.00019890055466928423
238, ,PASS, ,0.03499136938267, ,0.026008640877470027, ,0.0025613885415045117, ,0.00019720143397165574
239, ,PASS, ,0.035077614159971994, ,0.026013883419666196, ,0.002621699006593493, ,0.0001976742882737221
240, ,PASS, ,0.035236789282773004, ,0.026104215324561066, ,0.002621488102588865, ,0.00019921110888573778
241, ,PASS, ,0.035245432477881006, ,0.026050716051289675, ,0.002650196478212125, ,0.00019885014316989302
242, ,PASS, ,0.034994869486021, ,0.02598613602067223, ,0.0026507586465926536, ,0.0001970879988017449
243, ,PASS, ,0.035186991783573, ,0.026026704768498166, ,0.002633330765207975, ,0.00019831216741680356
244, ,PASS, ,0.035181421370971994, ,0.0260442072852356, ,0.0026426300357055114, ,0.00019843481804915496
245, ,PASS, ,0.035204319998956, ,0.025996758619246194, ,0.0026690171701000895, ,0.00019820433251366534
246, ,PASS, ,0.034955109507668, ,0.025934953956266577, ,0.002653667516537552, ,0.00019637010060981854
247, ,PASS, ,0.03504820517525399, ,0.025973214525600037, ,0.00267596207345669, ,0.00019712058201055478
248, ,PASS, ,0.035192839612126006, ,0.02608091566129731, ,0.002663248593358919, ,0.00019876453076416673
249, ,PASS, ,0.03524455109874201, ,0.02601980332148641, ,0.002660558009667876, ,0.0001985324019389928
250, ,PASS, ,0.034906325924640005, ,0.02591102679355137, ,0.0026872605076488174, ,0.00019600652742074624
251, ,PASS, ,0.035058649507721, ,0.02596464805075643, ,0.0026710739734700033, ,0.00019711001559974997
252, ,PASS, ,0.034847695143713, ,0.0257539770802981, ,0.0026808999005074672, ,0.00019426185378768822
253, ,PASS, ,0.03493742113290399, ,0.025839611253461344, ,0.0026636814644274793, ,0.000195400720610604
254, ,PASS, ,0.03501738742680299, ,0.02588638221644794, ,0.002684673467948043, ,0.00019624664102872843
255, ,PASS, ,0.035073073012553996, ,0.02589117644436238, ,0.002709898123827282, ,0.00019652271058224574
