Channel, ,Pass/Fail, ,Amplitude, ,Sorting Function Response, ,Mean, ,Variance, ,NPeaksRatio, ,PosIntegralRatio, ,ToT50, ,ToT99
40, ,PASS, ,0.016488399999999986, ,0.002609673787247501, ,0.04089967782861574, ,4.3788169108856524e-05, ,1.8333333333333333, ,0.8107008960959788, ,0.5974163792575662, ,0.042448113303810125
41, ,PASS, ,0.015787520000000006, ,0.0023756007844401767, ,0.04092582748229628, ,3.809975660745341e-05, ,1.8333333333333333, ,0.7926177666911406, ,0.5989877757596783, ,0.03730536111507928
42, ,PASS, ,0.015493530000000012, ,0.0023388296205254515, ,0.04082878679333075, ,3.682337898182534e-05, ,1.8333333333333333, ,0.7895034394148328, ,0.5985183975837228, ,0.031223852574437258
43, ,PASS, ,0.014848730000000025, ,0.0022032192159542646, ,0.040612170829778985, ,3.323317421411667e-05, ,1.8333333333333333, ,0.7840590628590611, ,0.5986612518111876, ,0.09128385134997245
44, ,PASS, ,0.015574600000000008, ,0.0024029714706146426, ,0.040649340181424874, ,3.801960943174599e-05, ,1.8333333333333333, ,0.7960333346835377, ,0.593498091875676, ,0.10199791840982837
45, ,PASS, ,0.015634860000000014, ,0.0025034283105288056, ,0.04101286077733107, ,3.981930388111529e-05, ,1.8333333333333333, ,0.8178721157075342, ,0.598824513785433, ,0.09889594089916533
46, ,PASS, ,0.015950130000000007, ,0.0025276956348173176, ,0.0409484173118916, ,4.094893160713976e-05, ,1.8333333333333333, ,0.8151158527538231, ,0.598946960266117, ,0.0992836880879982
47, ,PASS, ,0.015745179999999998, ,0.0024504424024598733, ,0.04089801812738516, ,3.918493736484867e-05, ,1.8333333333333333, ,0.8048415619017716, ,0.5983959511030387, ,0.08177384135017653
48, ,PASS, ,0.016059050000000005, ,0.002538551070914254, ,0.04079613405440705, ,4.143861007161841e-05, ,1.8333333333333333, ,0.8091520779893865, ,0.5983551356094774, ,0.10103875431113651
49, ,PASS, ,0.016128589999999998, ,0.0025917196317440244, ,0.040877658034938064, ,4.248327803313586e-05, ,1.8333333333333333, ,0.8213042589643933, ,0.5980694271545479, ,0.12422195465398665
50, ,PASS, ,0.016114469999999992, ,0.0025772065008574014, ,0.04102755016346605, ,4.218942484235519e-05, ,1.8333333333333333, ,0.8140847807026157, ,0.5988041060386523, ,0.04965204791738944
51, ,PASS, ,0.015972280000000005, ,0.00254270743771589, ,0.041094104956837615, ,4.127929288873084e-05, ,1.8333333333333333, ,0.8260697967214606, ,0.6004979490214486, ,0.12699740821615885
52, ,PASS, ,0.016598549999999997, ,0.002614680104065657, ,0.04112438013775229, ,4.407984131400944e-05, ,1.8333333333333333, ,0.8124607035914355, ,0.5989877757596783, ,0.06295789881839146
53, ,PASS, ,0.016498379999999993, ,0.002577715436801781, ,0.04083667273463807, ,4.3211341163529634e-05, ,1.8333333333333333, ,0.8008874351522597, ,0.5982530968755739, ,0.0659782453419318
54, ,PASS, ,0.016304210000000013, ,0.002608746207482496, ,0.041082681622619945, ,4.3202829898474314e-05, ,1.8333333333333333, ,0.8170743204264176, ,0.6007428419828167, ,0.09897757188628803
55, ,PASS, ,0.016223509999999997, ,0.002518922104302304, ,0.04088429810820188, ,4.151939507974463e-05, ,1.8333333333333333, ,0.7980665615769253, ,0.6015183363604825, ,0.054345829676945366
56, ,PASS, ,0.016499139999999995, ,0.0026118712425707187, ,0.04100516438889003, ,4.381111162805705e-05, ,1.8333333333333333, ,0.8238978628760992, ,0.600028570845493, ,0.09446745984775821
57, ,PASS, ,0.01668389, ,0.0026082220896898652, ,0.04080303183812575, ,4.4256210651286315e-05, ,1.8333333333333333, ,0.7992253457243417, ,0.5978653496867411, ,0.04140731821799555
58, ,PASS, ,0.016547, ,0.002598513442526269, ,0.041040514755005, ,4.3682245583517836e-05, ,1.8333333333333333, ,0.807668480968498, ,0.5985592130772841, ,0.07497806167221077
59, ,PASS, ,0.016285249999999987, ,0.002529311160294253, ,0.040967853916042525, ,4.1867786469099004e-05, ,1.8333333333333333, ,0.7971361463414118, ,0.5979877961674251, ,0.05050917328217792
60, ,PASS, ,0.01655762999999999, ,0.0026505916915823317, ,0.040897816068243505, ,4.460364508620163e-05, ,1.8333333333333333, ,0.8183639646971189, ,0.5987632905450909, ,0.12822187302299953
61, ,PASS, ,0.016875530000000017, ,0.0026375606540931674, ,0.04101374531234057, ,4.525235797591132e-05, ,1.8333333333333333, ,0.803221616420335, ,0.5963755841717516, ,0.04338686965572131
62, ,PASS, ,0.016607879999999985, ,0.0026186372181756104, ,0.041029966144364396, ,4.423866940579063e-05, ,1.8333333333333333, ,0.8172406376254785, ,0.5985183975837228, ,0.09912042611375278
63, ,PASS, ,0.016696869999999996, ,0.0026321143913996987, ,0.040858220792228735, ,4.462094593132304e-05, ,1.8333333333333333, ,0.8050573064620126, ,0.5972531172833208, ,0.06395787841064468
64, ,PASS, ,0.016864300000000006, ,0.0026187187937109575, ,0.04090797545233771, ,4.4861368697874155e-05, ,1.8333333333333333, ,0.8005382101255678, ,0.5992122609742658, ,0.08336564559906941
65, ,PASS, ,0.017215030000000013, ,0.002756629557534454, ,0.041058449968776146, ,4.824338268650073e-05, ,1.8333333333333333, ,0.8267198312243139, ,0.6050896920471011, ,0.08250852023428093
66, ,PASS, ,0.01823694000000004, ,0.0030347501065417872, ,0.04120114100753046, ,5.6298055338079946e-05, ,1.9166666666666667, ,0.8220332169307117, ,0.5918246566396604, ,0.06640680802432604
67, ,PASS, ,0.016875879999999996, ,0.002591390398560035, ,0.04090096993224628, ,4.441528568836015e-05, ,1.8333333333333333, ,0.7926274692989479, ,0.5978857574335218, ,0.06677414746637823
68, ,PASS, ,0.016756180000000002, ,0.0026131060780955825, ,0.041050148567580255, ,4.449875583190543e-05, ,1.8333333333333333, ,0.8070655439688555, ,0.5986204363176262, ,0.06154976429052468
69, ,PASS, ,0.016662859999999988, ,0.0026517732898820733, ,0.04102649453398911, ,4.495431859859868e-05, ,1.8333333333333333, ,0.8196826830190067, ,0.5984367665966001, ,0.05154996836799249
70, ,PASS, ,0.016517569999999995, ,0.0026112329263402777, ,0.04108480710679374, ,4.379463470867452e-05, ,1.8333333333333333, ,0.8152010623448321, ,0.5991918532274851, ,0.0998346972510765
71, ,PASS, ,0.016952609999999983, ,0.002658447113356415, ,0.040939941541601195, ,4.580260815311379e-05, ,1.8333333333333333, ,0.8068709868475672, ,0.5969265933348299, ,0.1098344931736087
72, ,PASS, ,0.01666365000000001, ,0.0025807162487641966, ,0.04114133210444685, ,4.370419044799868e-05, ,1.8333333333333333, ,0.8042858323670232, ,0.5973347482704434, ,0.0999367359849799
73, ,PASS, ,0.016822420000000015, ,0.0026514773304384307, ,0.04095851174037264, ,4.531600959314598e-05, ,1.8333333333333333, ,0.8139542010826389, ,0.5986408440644069, ,0.05057039652251995
74, ,PASS, ,0.017183399999999995, ,0.0027491512783216214, ,0.041066031771188345, ,4.8058009773993246e-05, ,1.8333333333333333, ,0.8179228582081984, ,0.6051713230342238, ,0.08234525826003551
75, ,PASS, ,0.016398169999999997, ,0.0025797331636673985, ,0.041338898938797164, ,4.299286843760786e-05, ,1.8333333333333333, ,0.8126302758027344, ,0.5988449215322136, ,0.0917940450194894
76, ,PASS, ,0.016870379999999983, ,0.0026700521662366603, ,0.041138380022040365, ,4.5781812256883696e-05, ,1.8333333333333333, ,0.8023827493671878, ,0.5977633109528377, ,0.03934613579314708
77, ,PASS, ,0.01650869, ,0.002611635090373003, ,0.040871303113814005, ,4.3831596907322575e-05, ,1.8333333333333333, ,0.8124279581933276, ,0.5990694067468011, ,0.058937572702597904
78, ,PASS, ,0.01719107, ,0.002607746832131164, ,0.04120020280626926, ,4.5629499908618814e-05, ,1.8333333333333333, ,0.8047711398745887, ,0.6081304463174221, ,0.057162098732678926
79, ,PASS, ,0.016564799999999984, ,0.0025771246310382833, ,0.041023699913063004, ,4.3448920375938767e-05, ,1.8333333333333333, ,0.8073570504988953, ,0.6031713638497174, ,0.10054896838840023
112, ,PASS, ,0.016876719999999987, ,0.0026260224387484364, ,0.04103043199118385, ,4.503300177625934e-05, ,1.8333333333333333, ,0.8052180882376754, ,0.5985388053305034, ,0.05252954021346503
113, ,PASS, ,0.01674837000000002, ,0.002599666034731549, ,0.04119566921675068, ,4.422381666104312e-05, ,1.8333333333333333, ,0.8048202812588631, ,0.5989265525193364, ,0.10654884594191956
114, ,PASS, ,0.017329820000000017, ,0.00271601832537359, ,0.041092712584845204, ,4.776268746691764e-05, ,1.8333333333333333, ,0.8077198365626337, ,0.6044162364033387, ,0.06699863268096569
115, ,PASS, ,0.016678139999999987, ,0.002575069026104002, ,0.041169550216934345, ,4.3688036737887105e-05, ,1.8333333333333333, ,0.8024276503510291, ,0.5994775616824146, ,0.05989673680128977
116, ,PASS, ,0.017387970000000027, ,0.002744357163504033, ,0.04113985335442134, ,4.846340269492964e-05, ,1.8333333333333333, ,0.8117320770037225, ,0.6029264708883492, ,0.11189567559845717
117, ,PASS, ,0.01706439, ,0.0026948870654862163, ,0.041014382326074975, ,4.671513263995713e-05, ,1.8333333333333333, ,0.8155798209980653, ,0.5993755229485113, ,0.09944695006224363
118, ,PASS, ,0.017209180000000008, ,0.002720095871889073, ,0.04096511686516602, ,4.758606870918423e-05, ,1.8333333333333333, ,0.812503176884567, ,0.6028244321544458, ,0.0929981020795494
119, ,PASS, ,0.017081520000000017, ,0.00270354635282153, ,0.041097527143119525, ,4.693832498683517e-05, ,1.8333333333333333, ,0.8086812074808319, ,0.5988041060386523, ,0.07252913205852941
120, ,PASS, ,0.017622540000000023, ,0.0027445044118270534, ,0.04113815022938307, ,4.916933769289672e-05, ,1.8333333333333333, ,0.800466469340753, ,0.5981510581416706, ,0.05665190506316198
121, ,PASS, ,0.017313930000000022, ,0.0027240319455921844, ,0.04126202895042958, ,4.799118529436419e-05, ,1.8333333333333333, ,0.8127262372463085, ,0.5992122609742658, ,0.0609783473806657
122, ,PASS, ,0.017686690000000036, ,0.0027956142431280564, ,0.041212305954776436, ,5.024572007800725e-05, ,1.8333333333333333, ,0.8123454717119053, ,0.5993142997081692, ,0.10173261770167956
123, ,PASS, ,0.017217110000000015, ,0.0027100921542229446, ,0.041137395977837186, ,4.752290682542455e-05, ,1.8333333333333333, ,0.8125265355787283, ,0.5994163384420726, ,0.08842676680067754
124, ,PASS, ,0.01724953000000003, ,0.0027689200911329053, ,0.041216146718842474, ,4.8571170128513e-05, ,1.8333333333333333, ,0.8219708036143076, ,0.5997428623905634, ,0.09203893798085754
125, ,PASS, ,0.017694140000000025, ,0.0027689563714128136, ,0.04127234147323524, ,4.982337451635832e-05, ,1.8333333333333333, ,0.8058318210785683, ,0.5991510377339238, ,0.05048876553539724
126, ,PASS, ,0.017344220000000014, ,0.0027509218915763565, ,0.04112284004571336, ,4.8475463287659205e-05, ,1.8333333333333333, ,0.811288623098723, ,0.5989673680128977, ,0.09946735780902431
127, ,PASS, ,0.01758316000000003, ,0.0027107245649689066, ,0.04115885974571948, ,4.8475084671384534e-05, ,1.8333333333333333, ,0.8038006492720107, ,0.5996000081630987, ,0.10338564519091448
128, ,PASS, ,0.017787300000000013, ,0.002777496333598233, ,0.04144597399073489, ,5.0290323481915606e-05, ,1.8333333333333333, ,0.8066724456081605, ,0.5988041060386523, ,0.06420277137201282
129, ,PASS, ,0.017759640000000035, ,0.0027924598827045073, ,0.04140265202465256, ,5.0441724268001524e-05, ,1.8333333333333333, ,0.8047217824181088, ,0.5988653292789943, ,0.047835758453909104
130, ,PASS, ,0.01799793000000002, ,0.0028631692345492455, ,0.041594153605028474, ,5.240547000871426e-05, ,1.8333333333333333, ,0.8216208595794491, ,0.5997836778841248, ,0.09430419787351278
131, ,PASS, ,0.021014480000000023, ,0.002917848217943718, ,0.04037537954388686, ,6.242508136408891e-05, ,1.8333333333333333, ,0.7417443268196017, ,0.597681679965715, ,0.007571274055631518
132, ,PASS, ,0.020219920000000023, ,0.0029889070945575092, ,0.04086341212281382, ,6.139465031732758e-05, ,1.8333333333333333, ,0.7656394757052555, ,0.5970694475622946, ,0.0415501724454603
133, ,PASS, ,0.062250719999999996, ,0.01088768568837222, ,0.04584090217852697, ,0.0006888841711776496, ,2.0, ,0.8517561564514714, ,0.6000693863390543, ,0.15726209669190425
134, ,PASS, ,0.02670988999999999, ,0.004375294225582087, ,0.04248903357727393, ,0.00011878319043381923, ,1.8333333333333333, ,0.828307303493525, ,0.5987632905450909, ,0.10338564519091448
135, ,PASS, ,0.02236336000000001, ,0.0035263476725670016, ,0.04206266576906595, ,8.014304930948062e-05, ,1.8333333333333333, ,0.8141713086187414, ,0.5984979898369421, ,0.10720189383890125
136, ,PASS, ,0.022025450000000012, ,0.0035158428867149956, ,0.041875876854554, ,7.87473855256061e-05, ,1.8333333333333333, ,0.8197332771582256, ,0.5936613538499215, ,0.09426338237995142
137, ,PASS, ,0.021708590000000014, ,0.003478204907135338, ,0.04188960204322362, ,7.677008775463154e-05, ,1.8333333333333333, ,0.8200286119952864, ,0.5990489990000204, ,0.10667129242260362
138, ,PASS, ,0.021697790000000012, ,0.003461701666839281, ,0.042034486550070416, ,7.635472607211914e-05, ,1.8333333333333333, ,0.8131700520539265, ,0.5987836982918716, ,0.07571274055631518
139, ,PASS, ,0.021800750000000015, ,0.0035048455017635638, ,0.04199452418766965, ,7.764470902964248e-05, ,1.8333333333333333, ,0.8183288429833321, ,0.6013958898797984, ,0.07181486092120569
140, ,PASS, ,0.021203810000000028, ,0.0033373084695294992, ,0.04200775014305831, ,7.192508668712497e-05, ,1.8333333333333333, ,0.8125014900305151, ,0.6023958694720516, ,0.09601844860308974
141, ,PASS, ,0.020375750000000022, ,0.00307402656070101, ,0.041961569216138445, ,6.375319675962207e-05, ,1.8333333333333333, ,0.7962227369615714, ,0.5997632701373441, ,0.05777433113609926
142, ,PASS, ,0.021148880000000012, ,0.0032695736200978646, ,0.041834483002387714, ,7.032352078999198e-05, ,1.8333333333333333, ,0.7964492358640229, ,0.5926001510173262, ,0.04634599293891961
143, ,PASS, ,0.02118573000000001, ,0.003319191474859054, ,0.04192322306177425, ,7.152621821344182e-05, ,1.8333333333333333, ,0.8112348973725133, ,0.6046611293647068, ,0.11522213832370767
176, ,PASS, ,0.02176703, ,0.003396187635603651, ,0.04202267145935798, ,7.514349473021434e-05, ,1.8333333333333333, ,0.8092595398474238, ,0.5994979694291953, ,0.08538601253035652
177, ,PASS, ,0.021513260000000017, ,0.003443961488347993, ,0.04200516376849453, ,7.535217795272881e-05, ,1.8333333333333333, ,0.8154894234281006, ,0.599008183506459, ,0.0763453807065162
178, ,PASS, ,0.02168900000000001, ,0.00337026697354671, ,0.04233110309136549, ,7.458380824533444e-05, ,1.9166666666666667, ,0.8120220567462627, ,0.6178445337850248, ,0.0805085610497745
179, ,PASS, ,0.021024390000000018, ,0.0033632847515873057, ,0.04181870823615846, ,7.183318131370282e-05, ,1.8333333333333333, ,0.8167310807714901, ,0.5994163384420726, ,0.0909573274014816
180, ,PASS, ,0.021998120000000013, ,0.003448005500180897, ,0.04202705212832392, ,7.709763600596255e-05, ,1.8333333333333333, ,0.8051040051514042, ,0.5984367665966001, ,0.06273341360380401
181, ,PASS, ,0.021739560000000033, ,0.00347481002174374, ,0.04190158410256934, ,7.67833067555959e-05, ,1.8333333333333333, ,0.8193149287234495, ,0.5994979694291953, ,0.10193669516948634
182, ,PASS, ,0.021813410000000023, ,0.0035010527387346582, ,0.04181354985469685, ,7.762807293127586e-05, ,1.8333333333333333, ,0.8190894696504333, ,0.5990285912532397, ,0.11705883553396869
183, ,PASS, ,0.020968480000000015, ,0.003426824013887991, ,0.0419697845503153, ,7.304631675871749e-05, ,1.8333333333333333, ,0.8333905674969063, ,0.5986000285708455, ,0.10224281137119651
184, ,PASS, ,0.021629100000000012, ,0.003447665425661764, ,0.041984310073467895, ,7.587263458169144e-05, ,1.8333333333333333, ,0.8254470134890239, ,0.5994979694291953, ,0.11485479888165548
185, ,PASS, ,0.021961370000000008, ,0.0033696925058476148, ,0.04180360360380401, ,7.507037019555166e-05, ,1.8333333333333333, ,0.789967048014922, ,0.6049060223260749, ,0.06257015162955858
186, ,PASS, ,0.021763260000000024, ,0.003414582273221828, ,0.04182300609232466, ,7.54895571523475e-05, ,1.8333333333333333, ,0.8100711924231163, ,0.5989061447725557, ,0.0680190200199996
187, ,PASS, ,0.021386630000000018, ,0.0033717297473197278, ,0.041831230486112536, ,7.32805172114541e-05, ,1.8333333333333333, ,0.8151452075561325, ,0.5983959511030387, ,0.10342646068447582
188, ,PASS, ,0.021953560000000007, ,0.0034755421373476396, ,0.041925066403746866, ,7.750544000703231e-05, ,1.8333333333333333, ,0.8084389675642093, ,0.602436684965613, ,0.05771310789575723
189, ,PASS, ,0.021957279999999996, ,0.0035188473210620275, ,0.04194705418787372, ,7.85743350097518e-05, ,1.8333333333333333, ,0.8212433011158558, ,0.5991918532274851, ,0.10185506418236362
190, ,PASS, ,0.022108550000000008, ,0.003487095574704007, ,0.041756672065263976, ,7.829012563027975e-05, ,1.8333333333333333, ,0.8082907833572059, ,0.5989877757596783, ,0.074773984204404
191, ,PASS, ,0.02201487000000002, ,0.0034783013163827547, ,0.04181023499683681, ,7.776578904354155e-05, ,1.8333333333333333, ,0.8098440182465039, ,0.5986816595579683, ,0.07254953980531009
192, ,PASS, ,0.0225782, ,0.003608391074427245, ,0.04183255126691293, ,8.279260155853897e-05, ,1.8333333333333333, ,0.8202366982627505, ,0.5961919144507255, ,0.10916103752984634
193, ,PASS, ,0.023411869999999994, ,0.0039548712093261254, ,0.04192920077814739, ,9.410269959248847e-05, ,1.8333333333333333, ,0.8398287422205665, ,0.597804126446399, ,0.1257525356625375
194, ,PASS, ,0.022336760000000015, ,0.0036185516007094325, ,0.041980710674271955, ,8.209295185727151e-05, ,1.8333333333333333, ,0.8224332160543252, ,0.600089794085835, ,0.06805983551356094
195, ,PASS, ,0.02247543000000002, ,0.0035747132618425574, ,0.04187412015795597, ,8.157304622968027e-05, ,1.8333333333333333, ,0.8086581156627023, ,0.5980286116609865, ,0.06526397420460807
196, ,PASS, ,0.02230225000000001, ,0.003575483002101622, ,0.041875451417726174, ,8.099655780241446e-05, ,1.8333333333333333, ,0.8205965822321138, ,0.5988653292789943, ,0.10879369808779413
197, ,PASS, ,0.022295289999999992, ,0.0035388244206071007, ,0.04195193494438889, ,8.027903570873486e-05, ,1.8333333333333333, ,0.812582595275108, ,0.5985183975837228, ,0.10591620579171854
198, ,PASS, ,0.022080650000000014, ,0.0035254219917239915, ,0.04187205434460522, ,7.908124153298141e-05, ,1.8333333333333333, ,0.8194695955908855, ,0.5990489990000204, ,0.09303891757311075
199, ,PASS, ,0.022053000000000007, ,0.0034602352479805388, ,0.04202995312687497, ,7.75224214697327e-05, ,1.8333333333333333, ,0.812710356943234, ,0.5990489990000204, ,0.05920287341074672
200, ,PASS, ,0.022087950000000023, ,0.0035122459797049662, ,0.041953638519826135, ,7.884950838929503e-05, ,1.8333333333333333, ,0.8215102924805129, ,0.5989877757596783, ,0.11593640946103141
201, ,PASS, ,0.022389990000000012, ,0.0036033785968358468, ,0.041867610912226294, ,8.205619026880318e-05, ,1.8333333333333333, ,0.8170893044579569, ,0.5963143609314095, ,0.07891675680088162
202, ,PASS, ,0.022171100000000013, ,0.0034533307625359976, ,0.04187889451888738, ,7.769791387796313e-05, ,1.8333333333333333, ,0.8081444331901586, ,0.5992938919613885, ,0.1032631987102304
203, ,PASS, ,0.02152281000000002, ,0.003308057554680643, ,0.04173565936184977, ,7.236203682328425e-05, ,1.8333333333333333, ,0.8019759111487836, ,0.5973347482704434, ,0.09307973306667211
204, ,PASS, ,0.022065200000000028, ,0.0034132460059095376, ,0.0417891836482929, ,7.653728712704899e-05, ,1.8333333333333333, ,0.8050520972120714, ,0.5986204363176262, ,0.09367155772331177
205, ,PASS, ,0.02237229000000002, ,0.0034985719518730108, ,0.041838992165874174, ,7.957471047492491e-05, ,1.8333333333333333, ,0.8107878523777723, ,0.598946960266117, ,0.08750841819554703
206, ,PASS, ,0.02228686000000001, ,0.0034582612480178404, ,0.041798914901532626, ,7.83512288592656e-05, ,1.8333333333333333, ,0.8077337465516898, ,0.5989265525193364, ,0.10120201628538193
207, ,PASS, ,0.022404090000000015, ,0.003438668865389299, ,0.04185788919654702, ,7.821339796051626e-05, ,1.8333333333333333, ,0.7992967469211658, ,0.5987836982918716, ,0.08169221036305381
208, ,PASS, ,0.022680580000000002, ,0.003514905849204448, ,0.04179557321768944, ,8.103021047193395e-05, ,1.8333333333333333, ,0.8049349829297083, ,0.5969470010816106, ,0.10746719454705006
209, ,PASS, ,0.022661090000000023, ,0.003515930181752867, ,0.04191917944388891, ,8.095493540677797e-05, ,1.8333333333333333, ,0.8070142073785737, ,0.5990898144935818, ,0.09693679720822024
210, ,PASS, ,0.02249375000000003, ,0.0034882993043789277, ,0.041957122755862136, ,7.973434651419407e-05, ,1.8333333333333333, ,0.8066254415004448, ,0.5994367461888533, ,0.10722230158568193
211, ,PASS, ,0.02241628000000002, ,0.003488964087145674, ,0.0420313310226322, ,7.949584826610277e-05, ,1.8333333333333333, ,0.8032419688000072, ,0.6006612109956939, ,0.05295810289585927
212, ,PASS, ,0.022779429999999993, ,0.003498701432253326, ,0.041875728566559876, ,8.099822189302347e-05, ,1.8333333333333333, ,0.8025803213860827, ,0.598885737025775, ,0.10087549233689108
213, ,PASS, ,0.022638439999999996, ,0.0035639535889730885, ,0.04171835545560295, ,8.196445538394989e-05, ,1.8333333333333333, ,0.8113606913684192, ,0.5988041060386523, ,0.07491683843186873
214, ,PASS, ,0.022430500000000013, ,0.003474535432956805, ,0.04193049684435012, ,7.924564593469117e-05, ,1.8333333333333333, ,0.8078896049971057, ,0.5995796004163181, ,0.10903859104916226
215, ,PASS, ,0.022564580000000015, ,0.0034738010837726966, ,0.04169930124303586, ,7.965179274577106e-05, ,1.8333333333333333, ,0.8012034912793037, ,0.5990694067468011, ,0.09285524785208465
216, ,PASS, ,0.023126579999999987, ,0.0034578427850327437, ,0.04198291032672803, ,8.141529761980553e-05, ,1.8333333333333333, ,0.7817952573559078, ,0.5989673680128977, ,0.04840717536376809
217, ,PASS, ,0.022854080000000006, ,0.0035364934967084386, ,0.04192678394134814, ,8.217955020031417e-05, ,1.8333333333333333, ,0.8087589539357145, ,0.5995591926695374, ,0.10367135364584396
218, ,PASS, ,0.022943649999999982, ,0.0034795981811832585, ,0.04191482555804984, ,8.109804466168775e-05, ,1.8333333333333333, ,0.7920983661355904, ,0.596987816575172, ,0.07138629823881146
219, ,PASS, ,0.022803189999999997, ,0.0035334288007786052, ,0.042083402759739603, ,8.192747584293033e-05, ,1.8333333333333333, ,0.8101992913228209, ,0.5991102222403625, ,0.1182628925940287
220, ,PASS, ,0.02296739999999998, ,0.0035161040493850194, ,0.04206921439113488, ,8.20526118437648e-05, ,1.8333333333333333, ,0.8017969709970094, ,0.602559131446297, ,0.05446827615762943
221, ,PASS, ,0.021884010000000006, ,0.003721829571236123, ,0.04200817909267159, ,8.283039956981692e-05, ,1.8333333333333333, ,0.8481804917110739, ,0.5991510377339238, ,0.13338503295851106
222, ,PASS, ,0.02317874999999999, ,0.003553130985165906, ,0.0418894609256954, ,8.355011521764254e-05, ,1.8333333333333333, ,0.7916884112035212, ,0.5985183975837228, ,0.052284647252096896
223, ,PASS, ,0.022793649999999985, ,0.003608957474379202, ,0.042105739864696644, ,8.356788888964903e-05, ,1.8333333333333333, ,0.8089658644725831, ,0.5982530968755739, ,0.08083508499826535
224, ,PASS, ,0.023932069999999996, ,0.003735248786616216, ,0.04199825465582335, ,9.083537248230518e-05, ,1.8333333333333333, ,0.8091372469417074, ,0.5989877757596783, ,0.1058549825513765
225, ,PASS, ,0.02822904, ,0.004917059816773493, ,0.04257155172527091, ,0.0001412341078335179, ,2.0, ,0.8448904353039189, ,0.5992326687210465, ,0.15618048611252833
226, ,PASS, ,0.022652030000000004, ,0.0040529285521569165, ,0.04232161612232403, ,9.340771368483121e-05, ,1.8333333333333333, ,0.8626106010120204, ,0.5970286320687332, ,0.10224281137119651
227, ,PASS, ,0.023558739999999988, ,0.004187563373043457, ,0.04214581092508317, ,0.00010033038974100017, ,1.8333333333333333, ,0.8658623758834776, ,0.5990489990000204, ,0.1560988551254056
228, ,PASS, ,0.026099669999999988, ,0.004186057892091462, ,0.04223871308381462, ,0.00011090002985386416, ,1.8333333333333333, ,0.821741644921173, ,0.599008183506459, ,0.1075284177873921
229, ,PASS, ,0.08027503016999997, ,0.014378799879987327, ,0.04775860701802004, ,0.0011738015734762959, ,1.8333333333333333, ,0.8686678779705961, ,0.5996000081630987, ,0.16462929327972897
230, ,PASS, ,0.15873314000000005, ,0.027936285649211863, ,0.05472192459541642, ,0.004511246444081478, ,1.9166666666666667, ,0.852423870812459, ,0.5990898144935818, ,0.1800779575927022
