Channel, ,Pass/Fail, ,Amplitude, ,Sorting Function Response, ,Mean, ,Variance, ,NPeaksRatio, ,PosIntegralRatio, ,ToT50, ,ToT99
0, ,PASS, ,0.02426198999999999, ,0.002759249999163505, ,0.03985018454296851, ,6.749266719143567e-05, ,1.5, ,0.6632938800508829, ,0.5134180935082957, ,0.0696720475092345
1, ,PASS, ,0.02393260999999999, ,0.002683407153291765, ,0.039821266079059614, ,6.473371235107756e-05, ,1.5, ,0.6576115453251027, ,0.5141731801391808, ,0.06830472847492908
2, ,PASS, ,0.02402473999999999, ,0.0026613976136799626, ,0.03976574164731332, ,6.446049565110191e-05, ,1.5, ,0.6489479650955559, ,0.5117446582722801, ,0.040448154119303685
3, ,PASS, ,0.023814619999999995, ,0.002695205656847797, ,0.039940815437235974, ,6.470108778278049e-05, ,1.5, ,0.6615252902894577, ,0.5167445562335462, ,0.07593722577090263
4, ,PASS, ,0.024303279999999993, ,0.0027759686434308743, ,0.03952656600661211, ,6.793316534216519e-05, ,1.5, ,0.6649355708553204, ,0.5146425583151364, ,0.08812065059896737
5, ,PASS, ,0.03562508000000003, ,0.004855201686265043, ,0.03825888477337197, ,0.00017271225809156737, ,1.8333333333333333, ,0.6909023089734084, ,0.4865206832513622, ,0.05299891838942063
6, ,PASS, ,0.024042559999999984, ,0.00271121447847342, ,0.03980636981816698, ,6.57419950871636e-05, ,1.5, ,0.6645415844788991, ,0.5134589090018571, ,0.07093732780963653
7, ,PASS, ,0.02381414999999999, ,0.0026864164306968645, ,0.03969498174486235, ,6.446233135345132e-05, ,1.5, ,0.662314133045219, ,0.515234382971776, ,0.07987592089957347
8, ,PASS, ,0.024211389999999996, ,0.002778582524006473, ,0.039864569065937425, ,6.776181416695083e-05, ,1.5, ,0.665653193503663, ,0.5114385420705699, ,0.07240668557784535
9, ,PASS, ,0.03563188000000003, ,0.0048616890699536355, ,0.03835629965143569, ,0.0001729689261509969, ,1.8333333333333333, ,0.6938567603889084, ,0.48629619803677476, ,0.052366278239219605
10, ,PASS, ,0.024351309999999994, ,0.002799698183901461, ,0.03991597711699761, ,6.875653878314145e-05, ,1.5, ,0.6692619161263342, ,0.5138670639374706, ,0.08307993714413991
11, ,PASS, ,0.02418913, ,0.00275747328055551, ,0.03987110142609335, ,6.726226922405156e-05, ,1.5, ,0.6654672996771155, ,0.5138262484439093, ,0.07687598212281382
12, ,PASS, ,0.03988655999999999, ,0.005432428274164703, ,0.03901013228750434, ,0.0002166912246910913, ,1.8333333333333333, ,0.7118478867211764, ,0.4947041897104141, ,0.081426909654905
13, ,PASS, ,0.0029299800000000056, ,0.0001259789270336627, ,0.038566993034427864, ,4.023815941927298e-07, ,1.25, ,0.35897444348271995, ,0.6521295483765638, ,0.008612069141446093
