Channel, ,Pass/Fail, ,Amplitude, ,Sorting Function Response, ,Mean, ,Variance, ,NPeaksRatio, ,PosIntegralRatio, ,ToT50, ,ToT99
16, ,PASS, ,0.008704369999999989, ,0.0012136483082988243, ,0.036605452076896396, ,1.0894717171459278e-05, ,1.75, ,0.7745720443949929, ,0.6275178057590661, ,0.020509785514581335
17, ,PASS, ,0.022698490000000012, ,0.0036188425342846657, ,0.038260338666149675, ,8.382587130382574e-05, ,1.8333333333333333, ,0.804089321656352, ,0.6184159506948838, ,0.09785514581335075
18, ,PASS, ,0.03304610000000001, ,0.005225576725126742, ,0.03915157203832575, ,0.00017521168360761996, ,1.9166666666666667, ,0.7997144523996033, ,0.6128650435705394, ,0.12469133282994224
19, ,PASS, ,0.036066360000000006, ,0.005656343612238467, ,0.03955065803391768, ,0.00020701810877978217, ,1.8333333333333333, ,0.7968414561790315, ,0.615354788677782, ,0.12226281096304158
20, ,PASS, ,0.03276158000000001, ,0.005212237491515241, ,0.039140269034305425, ,0.00017342884122206672, ,1.9166666666666667, ,0.8042523079313026, ,0.6120895491928736, ,0.138140037958409
21, ,PASS, ,0.021831160000000027, ,0.0034669661246426522, ,0.03811166423134222, ,7.712428803714881e-05, ,1.8333333333333333, ,0.8072851221462908, ,0.6178649415318055, ,0.13087488010448767
22, ,PASS, ,0.008063330000000007, ,0.0011544644693686102, ,0.0368601888216567, ,9.614394040939417e-06, ,1.8333333333333333, ,0.766047345287949, ,0.6295789881839147, ,0.03436664557866166
23, ,PASS, ,0.007291610000000011, ,0.0009415693268904349, ,0.036554872923409726, ,7.143647219718811e-06, ,1.75, ,0.7516702875428458, ,0.6382930960592641, ,0.0846717413930328
101, ,PASS, ,0.014942599999999993, ,0.00175269210851156, ,0.036571265162751776, ,2.614039400294474e-05, ,1.6666666666666667, ,0.637791569395871, ,0.5864166037427807, ,0.0339584906430481
102, ,PASS, ,0.029615210000000003, ,0.004018170284219277, ,0.03785375508030448, ,0.00011932113486313786, ,1.75, ,0.7023834772254814, ,0.5961306912103834, ,0.062223219934287054
103, ,PASS, ,0.04171651999999999, ,0.006025340073896754, ,0.038633243531152425, ,0.00025224255828417433, ,1.75, ,0.7307922741237242, ,0.5902328523907675, ,0.10536519662864023
104, ,PASS, ,0.04723867000000002, ,0.007077443816175457, ,0.03907202295014388, ,0.0003350079636098419, ,1.75, ,0.7472900850553784, ,0.5862329340217547, ,0.15060917124140324
105, ,PASS, ,0.04262495999999998, ,0.006359129496732516, ,0.03902243995449072, ,0.0002724545045480074, ,1.75, ,0.7467510732862191, ,0.5975796412318116, ,0.13487479847350053
106, ,PASS, ,0.030656830000000017, ,0.004721108662663497, ,0.0384427536572723, ,0.00014588569344353315, ,1.75, ,0.7631345417929191, ,0.6031713638497174, ,0.14193587885961512
107, ,PASS, ,0.016029429999999994, ,0.0023029586334235358, ,0.03676171434787045, ,3.7123111154144906e-05, ,1.75, ,0.7327387459366138, ,0.6025795391930777, ,0.1247321483235036
108, ,PASS, ,0.008422760000000008, ,0.001239960968846321, ,0.0366220637950246, ,1.0689565709643932e-05, ,1.9166666666666667, ,0.7829488501050648, ,0.6264361951796902, ,0.028346360278361665
109, ,PASS, ,0.02450387, ,0.0039444635869264316, ,0.037882383589110426, ,9.78230077505381e-05, ,1.9166666666666667, ,0.8007056610929116, ,0.6116813942572601, ,0.16107834533989102
110, ,PASS, ,0.03985553, ,0.006263469385893011, ,0.03910749473194424, ,0.0002514923758157219, ,1.75, ,0.7809093913650057, ,0.5999877553519316, ,0.16362931368747577
111, ,PASS, ,0.046833440000000004, ,0.007286790761905393, ,0.03965874435317646, ,0.0003431602238097588, ,1.75, ,0.7711427698990629, ,0.5958857982490153, ,0.14926225995387848
112, ,PASS, ,0.04239687999999999, ,0.006668328890879685, ,0.03930171786290076, ,0.0002848025291308294, ,1.75, ,0.7802532941252094, ,0.5999469398583702, ,0.15013979306544764
113, ,PASS, ,0.026238759999999993, ,0.004258459936881539, ,0.03823277340788963, ,0.00011322305586064891, ,1.9166666666666667, ,0.8045122559348248, ,0.6131711597722496, ,0.16048652068325137
114, ,PASS, ,0.009276420000000007, ,0.0012952308111975623, ,0.03689686020999572, ,1.2420498293988479e-05, ,1.75, ,0.7674766506493995, ,0.6310075304585621, ,0.03887675761719148
115, ,PASS, ,0.009447929999999993, ,0.0014543489416419884, ,0.03677855620395502, ,1.4135787775471644e-05, ,1.8333333333333333, ,0.8042915415660234, ,0.6289259402869329, ,0.04420317952694843
116, ,PASS, ,0.0243514, ,0.003918058046908687, ,0.03805432002163221, ,9.665004552792537e-05, ,1.9166666666666667, ,0.8023459408288389, ,0.6118650639782861, ,0.15824166853737678
117, ,PASS, ,0.03806532999999998, ,0.006054504103036921, ,0.03916390799718373, ,0.00023231288764314335, ,1.75, ,0.7873678326141645, ,0.6009877349441848, ,0.14609905920287342
118, ,PASS, ,0.04354732999999999, ,0.006864558941183978, ,0.03918534239688985, ,0.00030101545899815564, ,1.75, ,0.7835930097140371, ,0.5984571743433807, ,0.15926205587641068
119, ,PASS, ,0.03994064999999998, ,0.006310135641324248, ,0.039088044258892674, ,0.00025437300607093397, ,1.75, ,0.7865501911534909, ,0.6025387236995163, ,0.13883390134895207
120, ,PASS, ,0.025252789999999987, ,0.004056788999952885, ,0.03819337070610804, ,0.00010382426245002551, ,1.9166666666666667, ,0.8020382187215699, ,0.6148650027550459, ,0.12138527785147242
121, ,PASS, ,0.009534310000000004, ,0.0013117740163946063, ,0.03683830959327361, ,1.2892355509768482e-05, ,1.75, ,0.7610426311169601, ,0.6305993755229485, ,0.05303973388298198
122, ,PASS, ,0.008508589999999996, ,0.0011828018711725332, ,0.0366704797373523, ,1.037030550360467e-05, ,1.75, ,0.7692199597259156, ,0.6301912205873349, ,0.04850921409767148
123, ,PASS, ,0.019929070000000014, ,0.0031796875396107004, ,0.037794465621109774, ,6.454337581485223e-05, ,2.0, ,0.8077181306711004, ,0.6183139119609804, ,0.07848819411848738
124, ,PASS, ,0.03202833000000001, ,0.005087032348627167, ,0.03893955641537928, ,0.00016532748667589224, ,1.9166666666666667, ,0.8034819479977334, ,0.6126609661027326, ,0.12471174057672292
125, ,PASS, ,0.036434669999999995, ,0.005758719958812467, ,0.03920785362849737, ,0.00021257521833292255, ,1.75, ,0.7996254524446, ,0.606803942776678, ,0.1282422807697802
126, ,PASS, ,0.032789070000000003, ,0.0051799162490216875, ,0.039029546904961125, ,0.00017236289232072194, ,1.9166666666666667, ,0.8004092945295634, ,0.6119466949654089, ,0.10828350441827718
127, ,PASS, ,0.020802010000000017, ,0.003301458371895524, ,0.03788171703087692, ,6.997281881005197e-05, ,2.0, ,0.810923398177451, ,0.619599600008163, ,0.09922246484765616
