Channel, ,Pass/Fail, ,Amplitude, ,Sorting Function Response, ,Mean, ,Variance, ,NPeaksRatio, ,PosIntegralRatio, ,ToT50, ,ToT99
15, ,PASS, ,0.022688800000000016, ,0.003794808194937665, ,0.029300795187037005, ,8.675983617203774e-05, ,1.9166666666666667, ,0.7728026904430749, ,0.4778269831227934, ,0.09620211832411583
16, ,PASS, ,0.10362672000000003, ,0.01671111551066745, ,0.02459199427493317, ,0.0017456630779707804, ,1.75, ,0.7139732189856389, ,0.4609293687883921, ,0.12028325952531581
17, ,PASS, ,0.07268370300000002, ,0.012227264222883756, ,0.027079215384032983, ,0.0008955476664297571, ,1.9166666666666667, ,0.7454355568502649, ,0.4688475745392951, ,0.09710005918246567
18, ,PASS, ,0.015965739999999982, ,0.002444594300161945, ,0.02982112734127875, ,3.933900539043161e-05, ,1.9166666666666667, ,0.753650457860246, ,0.4905001938735944, ,0.023387277810656925
19, ,PASS, ,0.013442680000000016, ,0.001947425537444836, ,0.029988889736331913, ,2.6501414597388467e-05, ,1.8333333333333333, ,0.7484306266665114, ,0.49417358829411645, ,0.04175424991326707
20, ,PASS, ,0.01254530000000001, ,0.0018336145772903049, ,0.029999957948001064, ,2.3291114958185462e-05, ,1.8333333333333333, ,0.7648942455203079, ,0.49639803269321037, ,0.06416195587845146
21, ,PASS, ,0.012642770000000015, ,0.0017983873015263736, ,0.029946038886145183, ,2.301807466355249e-05, ,1.8333333333333333, ,0.7391669944260832, ,0.49472459745719477, ,0.05273361768127181
22, ,PASS, ,0.01342688999999999, ,0.001940654130658154, ,0.02978035440766515, ,2.6379965936471033e-05, ,1.8333333333333333, ,0.7659898464817935, ,0.49462255872329136, ,0.0755086630885084
23, ,PASS, ,0.012706300000000018, ,0.0018477106279359845, ,0.029874412067100672, ,2.379024859905856e-05, ,1.8333333333333333, ,0.7656204094382254, ,0.49539805310095714, ,0.0861410991612416
24, ,PASS, ,0.01246462000000001, ,0.0017963883196895475, ,0.03004542513948695, ,2.2734580600479494e-05, ,1.8333333333333333, ,0.7505132395378727, ,0.4946837819636334, ,0.04936633946245995
25, ,PASS, ,0.012502710000000004, ,0.001808092210657623, ,0.029847122094447055, ,2.289595746636069e-05, ,1.8333333333333333, ,0.7697644019941478, ,0.49664292565457846, ,0.06281504459092671
26, ,PASS, ,0.012635570000000002, ,0.001797218377979029, ,0.02981483765882329, ,2.2955479757525573e-05, ,1.8333333333333333, ,0.7568880321101098, ,0.49639803269321037, ,0.04001959143690945
27, ,PASS, ,0.012501140000000004, ,0.0017849838402211069, ,0.029680909588987982, ,2.260137610844135e-05, ,1.8333333333333333, ,0.7545856480044406, ,0.49460215097651067, ,0.03693802167302708
28, ,PASS, ,0.012410970000000004, ,0.0018390189609103467, ,0.02994961376951491, ,2.3105584593739312e-05, ,1.8333333333333333, ,0.7708477760984813, ,0.4961531397318422, ,0.08163098712271179
29, ,PASS, ,0.012506270000000007, ,0.0017888317091356864, ,0.029939457282300363, ,2.2637551623119765e-05, ,1.8333333333333333, ,0.7488757503189283, ,0.4953164221138344, ,0.03646864349707149
30, ,PASS, ,0.012509820000000015, ,0.0018139289658901483, ,0.030078218207383524, ,2.2920621845701733e-05, ,1.8333333333333333, ,0.760844323223439, ,0.49584702353013205, ,0.05465194587865554
31, ,PASS, ,0.012418949999999998, ,0.00178929564319653, ,0.030092500650190816, ,2.2499336162909445e-05, ,1.8333333333333333, ,0.7647083183803959, ,0.4958878390236934, ,0.06022326074978061
32, ,PASS, ,0.012468440000000018, ,0.0018170930709271776, ,0.029979538868390443, ,2.2928364557323973e-05, ,1.8333333333333333, ,0.7696825642835803, ,0.4967245566417012, ,0.0772637293116467
33, ,PASS, ,0.012421960000000003, ,0.0017638308779111896, ,0.02995642036223751, ,2.2211283426823702e-05, ,1.8333333333333333, ,0.7653243859305305, ,0.49703067284341135, ,0.04795820493459317
34, ,PASS, ,0.01254938000000001, ,0.0018049108465367392, ,0.030023271053856045, ,2.2891804149676466e-05, ,1.8333333333333333, ,0.7658457760767303, ,0.4976633129936124, ,0.09220219995510295
35, ,PASS, ,0.012307169999999992, ,0.001767396123173996, ,0.030068985815799684, ,2.202852252413934e-05, ,1.8333333333333333, ,0.7580074317921014, ,0.4955817228219832, ,0.06067223117895553
36, ,PASS, ,0.012550260000000004, ,0.001750555500970869, ,0.029867290330605503, ,2.2271047692481702e-05, ,1.8333333333333333, ,0.7433937730193494, ,0.49427562702801986, ,0.021428134119711843
37, ,PASS, ,0.012385550000000006, ,0.0017828742162698614, ,0.029985585319687355, ,2.2299372037127184e-05, ,1.8333333333333333, ,0.7575180454342033, ,0.4960919164915002, ,0.03924409705924369
38, ,PASS, ,0.012187340000000019, ,0.001778731049043436, ,0.02972409347115365, ,2.1950419769981082e-05, ,1.8333333333333333, ,0.7630813214334039, ,0.49576539254300933, ,0.03810126323952572
39, ,PASS, ,0.01217530000000001, ,0.0017339957066161006, ,0.03021321044999082, ,2.1367561422332774e-05, ,1.8333333333333333, ,0.7528200350755146, ,0.49547968408807985, ,0.03363196669455725
40, ,PASS, ,0.012357560000000014, ,0.0017816083331182477, ,0.02989033996632722, ,2.2294194999786728e-05, ,1.8333333333333333, ,0.7553718914933641, ,0.49452051998938795, ,0.04708067182302402
41, ,PASS, ,0.012763570000000023, ,0.001762648603437814, ,0.029709824310728356, ,2.2763678886701337e-05, ,1.8333333333333333, ,0.7379632507022328, ,0.49511234464602766, ,0.034672761780371826
42, ,PASS, ,0.012622590000000006, ,0.0018018321267340323, ,0.029635605882328935, ,2.3018900066179823e-05, ,1.8333333333333333, ,0.7561522122454131, ,0.4956633538091059, ,0.03936654353992776
43, ,PASS, ,0.01269753999999999, ,0.001775879643359232, ,0.02968812039101243, ,2.2749526061674093e-05, ,1.8333333333333333, ,0.7330086676302183, ,0.4941123650537744, ,0.040835901308136566
44, ,PASS, ,0.012608450000000007, ,0.001779605237008644, ,0.029752958709822253, ,2.268478662199332e-05, ,1.8333333333333333, ,0.7452708929221701, ,0.49452051998938795, ,0.039509397767392505
45, ,PASS, ,0.012447400000000018, ,0.0018958212211182225, ,0.02973392137282913, ,2.3847435124465404e-05, ,1.8333333333333333, ,0.764238807608859, ,0.4925409685516622, ,0.04030529989183894
46, ,PASS, ,0.012683930000000013, ,0.0018492000627030095, ,0.029645790610395708, ,2.3787481505285856e-05, ,1.8333333333333333, ,0.7564185825555311, ,0.49419399604089714, ,0.04716230281014673
47, ,PASS, ,0.012380019999999985, ,0.0017998251840033624, ,0.029912078606967207, ,2.2497915258105672e-05, ,1.8333333333333333, ,0.7405454235788979, ,0.49247974531132016, ,0.03573396461296708
48, ,PASS, ,0.012437750000000011, ,0.0018103260329675654, ,0.030014561092018534, ,2.275489420498119e-05, ,1.8333333333333333, ,0.7596667035500118, ,0.4946837819636334, ,0.05224383175853554
49, ,PASS, ,0.012348900000000017, ,0.0018150002066541825, ,0.029706991548131674, ,2.270850886776206e-05, ,1.8333333333333333, ,0.7620359805138035, ,0.49380624885206426, ,0.03867268014938471
50, ,PASS, ,0.012201, ,0.0018262948487615433, ,0.029740262431991186, ,2.2515415148901933e-05, ,1.8333333333333333, ,0.7660237982674347, ,0.49452051998938795, ,0.08195751107120262
51, ,PASS, ,0.0124604, ,0.001803603467856686, ,0.029692955003775435, ,2.2760599551101388e-05, ,1.8333333333333333, ,0.7611865538808749, ,0.49503071365890494, ,0.03157078426970878
52, ,PASS, ,0.012564480000000017, ,0.001790381996296682, ,0.029678912453827474, ,2.2814490319201424e-05, ,1.8333333333333333, ,0.7578249036403519, ,0.49492867492500153, ,0.032938103304014206
53, ,PASS, ,0.012568070000000018, ,0.0019342650350493166, ,0.029368260382645256, ,2.4584669922075486e-05, ,1.9166666666666667, ,0.7526231322768935, ,0.4905818248607171, ,0.019509805922328115
54, ,PASS, ,0.012228489999999998, ,0.0018734061104020712, ,0.029785331628742272, ,2.3161585573685733e-05, ,1.8333333333333333, ,0.7734502902697198, ,0.49409195730699373, ,0.06693740944062367
55, ,PASS, ,0.012433480000000004, ,0.0017966272530298016, ,0.02961848944327667, ,2.26102883418782e-05, ,1.8333333333333333, ,0.7572388212951785, ,0.4950511214056856, ,0.04850921409767148
56, ,PASS, ,0.012480650000000013, ,0.0018011503644667776, ,0.029822715839676744, ,2.2725622938256805e-05, ,1.8333333333333333, ,0.7592033341515108, ,0.49507152915246627, ,0.038305340707332505
57, ,PASS, ,0.012199350000000001, ,0.0018007446755086399, ,0.03002562253076468, ,2.2185754984820872e-05, ,1.8333333333333333, ,0.7572752283318457, ,0.4935613558906961, ,0.0431215689475725
58, ,PASS, ,0.012434429999999979, ,0.0017738664081502929, ,0.02983914839227771, ,2.2224614622556588e-05, ,1.8333333333333333, ,0.7301528966196238, ,0.49213281361604866, ,0.04936633946245995
59, ,PASS, ,0.012275090000000016, ,0.0017948042258866706, ,0.029639503972163837, ,2.227614723188387e-05, ,1.8333333333333333, ,0.7676582510919705, ,0.49625517846574557, ,0.08844717454745822
60, ,PASS, ,0.012488259999999998, ,0.001829405273338917, ,0.029647261958123308, ,2.314648516188265e-05, ,1.8333333333333333, ,0.7626277849208235, ,0.4952551988734924, ,0.0408971245484786
61, ,PASS, ,0.01255429000000001, ,0.001785763542782619, ,0.029790064641946085, ,2.268379137031946e-05, ,1.8333333333333333, ,0.7443081277427602, ,0.4943572580151426, ,0.046631701393849104
62, ,PASS, ,0.012481489999999994, ,0.0018209633660957395, ,0.030027365216628236, ,2.2984170764174738e-05, ,1.8333333333333333, ,0.7617769375126452, ,0.4939899185730903, ,0.037080875900491826
63, ,PASS, ,0.012788630000000016, ,0.001800632065930286, ,0.029636802515050714, ,2.331349232179282e-05, ,1.8333333333333333, ,0.7468160777592381, ,0.4947041897104141, ,0.03785637027815759
64, ,PASS, ,0.012574359999999996, ,0.0017964089389638429, ,0.029613635087651274, ,2.2833881787384246e-05, ,1.8333333333333333, ,0.7430569750452828, ,0.4935409481439154, ,0.0391420583253403
65, ,PASS, ,0.01253035000000001, ,0.0018000516724009366, ,0.029649090935082962, ,2.2864839916673284e-05, ,1.8333333333333333, ,0.7599504115619472, ,0.49507152915246627, ,0.04061141609354911
66, ,PASS, ,0.012423380000000001, ,0.0017752859265066302, ,0.029896037931878946, ,2.2257894997382667e-05, ,1.8333333333333333, ,0.7412469147844156, ,0.49388787983918697, ,0.03279524907654946
67, ,PASS, ,0.012222960000000012, ,0.0017947195405483417, ,0.029831579549192876, ,2.2158498647622783e-05, ,1.8333333333333333, ,0.7718767137733019, ,0.49586743127691274, ,0.10726311707924328
68, ,PASS, ,0.012110200000000019, ,0.001808242943023609, ,0.029835361113650743, ,2.2148680077396747e-05, ,1.8333333333333333, ,0.7652936997206178, ,0.49464296647007205, ,0.06265178261668129
69, ,PASS, ,0.012203690000000003, ,0.001822230138684481, ,0.029740993474622966, ,2.2434075626120352e-05, ,1.8333333333333333, ,0.7666511412807635, ,0.4946837819636334, ,0.06834554396849044
70, ,PASS, ,0.012532270000000012, ,0.0017752579507062133, ,0.02961490969714904, ,2.252066761923667e-05, ,1.8333333333333333, ,0.7490078343447152, ,0.4955817228219832, ,0.03906042733821759
71, ,PASS, ,0.01262922000000001, ,0.001735475505173658, ,0.029832137675557646, ,2.213481113695897e-05, ,1.8333333333333333, ,0.729429524943752, ,0.49507152915246627, ,0.04714189506336605
72, ,PASS, ,0.012285130000000009, ,0.0018354644295564394, ,0.029848845602538726, ,2.2778356546176397e-05, ,1.8333333333333333, ,0.7640039029998603, ,0.4942144037876778, ,0.06601906083549315
73, ,PASS, ,0.012161730000000003, ,0.001812834677570871, ,0.02974288106916186, ,2.2289978759319313e-05, ,1.8333333333333333, ,0.765744244800289, ,0.4942348115344585, ,0.06973327074957654
74, ,PASS, ,0.012395580000000007, ,0.0018210901391517524, ,0.0298756765202751, ,2.2834328332703834e-05, ,1.8333333333333333, ,0.761877336132055, ,0.4942960347748005, ,0.06105997836778841
75, ,PASS, ,0.012769219999999998, ,0.001793517895981015, ,0.029986121723638293, ,2.3230638782117e-05, ,1.8333333333333333, ,0.7469331312026544, ,0.4950511214056856, ,0.039101242831778946
76, ,PASS, ,0.012429690000000018, ,0.0017725522602952519, ,0.029681203340544075, ,2.2321192710907784e-05, ,1.8333333333333333, ,0.7510929080148975, ,0.4956021305687639, ,0.04308075345401114
77, ,PASS, ,0.012332440000000035, ,0.001759675234962753, ,0.029781739140629784, ,2.1947161441743378e-05, ,1.8333333333333333, ,0.7568974580491565, ,0.4956021305687639, ,0.02769331238137997
78, ,PASS, ,0.012403650000000013, ,0.0017869712237217983, ,0.029849368467786373, ,2.2433019631273095e-05, ,1.8333333333333333, ,0.7629114339967813, ,0.4960306932511581, ,0.05889675720903655
79, ,PASS, ,0.012266020000000006, ,0.0017489801707176486, ,0.029578730537540055, ,2.1674001425889086e-05, ,1.8333333333333333, ,0.7482314627739025, ,0.4943980735087039, ,0.04061141609354911
112, ,PASS, ,0.013655650000000012, ,0.002031814506423542, ,0.02975851467521071, ,2.798471608031583e-05, ,1.8333333333333333, ,0.752621780864271, ,0.4921940368563907, ,0.04232566682312606
113, ,PASS, ,0.0552677263, ,0.00836226520461878, ,0.02666147680147344, ,0.00046644626177202975, ,1.75, ,0.6794981744771075, ,0.45666414971123037, ,0.09799800004081549
114, ,PASS, ,0.016274540000000004, ,0.002713140905070162, ,0.02930369246076611, ,4.444907061773292e-05, ,1.9166666666666667, ,0.7630303112694772, ,0.48001061202832596, ,0.10426317830248362
115, ,PASS, ,0.010205900000000007, ,0.0014646407234996633, ,0.029759659899593886, ,1.5096220045204072e-05, ,1.8333333333333333, ,0.7534773579373659, ,0.4960102855043775, ,0.04393787881879962
116, ,PASS, ,0.009924280000000008, ,0.0014192931438571468, ,0.030027265864574198, ,1.4276794450500515e-05, ,1.8333333333333333, ,0.7517791891424942, ,0.496418440439991, ,0.04224403583600335
117, ,PASS, ,0.01012701000000001, ,0.0013849257823794559, ,0.029632806468031268, ,1.4221917256801267e-05, ,1.8333333333333333, ,0.7448029503939779, ,0.4981530989163486, ,0.044488887981877924
118, ,PASS, ,0.010035450000000019, ,0.0013924577729335348, ,0.02961750799085733, ,1.417154523326168e-05, ,1.8333333333333333, ,0.7545333554508594, ,0.4982755453970327, ,0.04346850064284402
119, ,PASS, ,0.009541150000000016, ,0.0013812272692663903, ,0.029780210082651373, ,1.333036846339617e-05, ,1.8333333333333333, ,0.7488951455155223, ,0.4950511214056856, ,0.059325319891430785
120, ,PASS, ,0.010061000000000025, ,0.001399540942642394, ,0.02980964248464317, ,1.4252372750149792e-05, ,1.8333333333333333, ,0.7538330939229362, ,0.4974592355258056, ,0.0439582865655803
121, ,PASS, ,0.01006130000000002, ,0.0013892854044028717, ,0.029597002234648274, ,1.4176200570041642e-05, ,1.8333333333333333, ,0.7440574472540122, ,0.49584702353013205, ,0.036795167445562334
122, ,PASS, ,0.009696230000000014, ,0.0013891931554049078, ,0.029873308775535196, ,1.3638861709363114e-05, ,1.8333333333333333, ,0.7471089677998124, ,0.49535723760739575, ,0.04279504499908165
123, ,PASS, ,0.009976830000000013, ,0.0013850105993771864, ,0.03004087561110998, ,1.3989409263135743e-05, ,1.8333333333333333, ,0.7552791602125654, ,0.496928634109508, ,0.04634599293891961
124, ,PASS, ,0.009606210000000014, ,0.0014053609966303794, ,0.02976992238015551, ,1.362187458673392e-05, ,1.8333333333333333, ,0.7542860946039761, ,0.49578580028979, ,0.02791779759596743
125, ,PASS, ,0.00979525000000002, ,0.0013305132739287124, ,0.02967089761943634, ,1.3256190797582347e-05, ,1.8333333333333333, ,0.7457010194223626, ,0.4961531397318422, ,0.02671374053590743
126, ,PASS, ,0.009916280000000013, ,0.0013628155708369164, ,0.02943423262300769, ,1.3656071579889983e-05, ,1.8333333333333333, ,0.7165938097453988, ,0.49335727842288934, ,0.041162425256627416
127, ,PASS, ,0.009751120000000012, ,0.0013882682306879158, ,0.02966253439950205, ,1.3732687518691402e-05, ,1.8333333333333333, ,0.7605108615763423, ,0.49619395522540355, ,0.04352972388318606
128, ,PASS, ,0.009763350000000021, ,0.0013593397158403945, ,0.029906848120038368, ,1.3376051327135252e-05, ,1.8333333333333333, ,0.728212550267207, ,0.4926225995387849, ,0.0455296830676925
129, ,PASS, ,0.009977890000000031, ,0.0013529775712695518, ,0.029839279755311116, ,1.364514867610097e-05, ,1.8333333333333333, ,0.7337195322813835, ,0.4955409073284219, ,0.03844819493479725
130, ,PASS, ,0.01001131000000002, ,0.0013760901024357493, ,0.029833749656333546, ,1.3955113515322421e-05, ,1.8333333333333333, ,0.7384431753922742, ,0.4958878390236934, ,0.04393787881879962
131, ,PASS, ,0.010003010000000007, ,0.0013757144338919936, ,0.02983565716903737, ,1.392337503516711e-05, ,1.8333333333333333, ,0.7438010799857242, ,0.49584702353013205, ,0.035917634333993184
132, ,PASS, ,0.009845180000000012, ,0.0013658675118798655, ,0.030167640505091735, ,1.3586391261772454e-05, ,1.8333333333333333, ,0.7426431271607729, ,0.4968674108691659, ,0.04850921409767148
133, ,PASS, ,0.009982010000000027, ,0.001329023705886714, ,0.0297677504999898, ,1.3454261389330277e-05, ,1.8333333333333333, ,0.7305827727443767, ,0.4965204791738944, ,0.016346605171323036
134, ,PASS, ,0.010027140000000021, ,0.0014122278009049444, ,0.02994875374380115, ,1.4335276963429564e-05, ,1.8333333333333333, ,0.7624164314862951, ,0.4969694496030693, ,0.08338605334585009
135, ,PASS, ,0.009818010000000009, ,0.001395537982181635, ,0.030020460480398366, ,1.3874731864807537e-05, ,1.8333333333333333, ,0.7584825771251962, ,0.49621436297218424, ,0.07454949898981654
136, ,PASS, ,0.010028860000000021, ,0.001384929962177346, ,0.02998113987122712, ,1.4058605281597492e-05, ,1.8333333333333333, ,0.7274348051356908, ,0.4943164425215812, ,0.020285300299993876
137, ,PASS, ,0.009949980000000011, ,0.0013357684177300734, ,0.03001125690312443, ,1.349953986802065e-05, ,1.8333333333333333, ,0.7387520977530632, ,0.4968061876288239, ,0.039121650578559625
138, ,PASS, ,0.010022330000000006, ,0.0013968067667727232, ,0.029938420674067878, ,1.4138549480685139e-05, ,1.8333333333333333, ,0.7461240856208692, ,0.49623477071896493, ,0.03855023366870064
139, ,PASS, ,0.009834110000000014, ,0.0013855651761188706, ,0.02996284758331463, ,1.3761691579864395e-05, ,1.8333333333333333, ,0.7367450102955612, ,0.49454092773616865, ,0.0308156976388237
140, ,PASS, ,0.009326770000000012, ,0.001323669282391129, ,0.030089335556825372, ,1.2476514681415085e-05, ,1.8333333333333333, ,0.7401247939047123, ,0.49341850166323137, ,0.04763168098610233
141, ,PASS, ,0.009662690000000019, ,0.0013689195784052429, ,0.03006123495581723, ,1.335211932527201e-05, ,1.8333333333333333, ,0.7417303811015349, ,0.4956633538091059, ,0.044468480235097245
142, ,PASS, ,0.009576760000000007, ,0.00139941195552162, ,0.029858725320707744, ,1.3535646046584744e-05, ,1.8333333333333333, ,0.7593931753128887, ,0.495214383379931, ,0.06312116079263688
143, ,PASS, ,0.009828090000000012, ,0.0013612911676729878, ,0.029792932935858454, ,1.3539502089001193e-05, ,1.8333333333333333, ,0.7462650919216005, ,0.4967245566417012, ,0.07112099753066264
176, ,PASS, ,0.009623200000000016, ,0.0014464277905420781, ,0.02986114865349687, ,1.406357361069532e-05, ,1.8333333333333333, ,0.7638510174390224, ,0.4939286953327483, ,0.06138650231627926
177, ,PASS, ,0.00969745000000001, ,0.0014322192685135321, ,0.02981015912654844, ,1.4036502634696586e-05, ,1.8333333333333333, ,0.7644301844695871, ,0.4944184812554846, ,0.08234525826003551
178, ,PASS, ,0.00961509000000002, ,0.0013463075830940144, ,0.029961727973510748, ,1.3089359242171187e-05, ,1.8333333333333333, ,0.753699014487368, ,0.49707148833697273, ,0.03246872512805861
179, ,PASS, ,0.009604750000000013, ,0.0013682200675008273, ,0.030015208820024085, ,1.3302285902433537e-05, ,1.8333333333333333, ,0.7576171537163903, ,0.4968265953756046, ,0.07444746025591314
180, ,PASS, ,0.009718070000000002, ,0.0013489796534478888, ,0.029943695310912028, ,1.3279659806657986e-05, ,1.8333333333333333, ,0.7317044345576946, ,0.49674496438848187, ,0.03779514703781556
181, ,PASS, ,0.009464230000000004, ,0.0013508396338046647, ,0.03001305022815861, ,1.2924157243537119e-05, ,1.8333333333333333, ,0.7485420754740044, ,0.4951735678863697, ,0.06803942776678026
182, ,PASS, ,0.00976602000000001, ,0.0013546675312495998, ,0.02958469448358197, ,1.3391056858138614e-05, ,1.8333333333333333, ,0.7451962432830644, ,0.496418440439991, ,0.038591049162262
183, ,PASS, ,0.00958953000000002, ,0.001316085552496546, ,0.029943611055284588, ,1.2771775701814207e-05, ,1.8333333333333333, ,0.7462164163141422, ,0.49703067284341135, ,0.05448868390441011
184, ,PASS, ,0.009908990000000013, ,0.0014278088438661803, ,0.029722517052100977, ,1.4313601155337554e-05, ,1.8333333333333333, ,0.7534680100269486, ,0.4943776657619232, ,0.05979469806738638
185, ,PASS, ,0.009943630000000023, ,0.001490451845300198, ,0.029774869332258525, ,1.4983311767505626e-05, ,1.9166666666666667, ,0.76292248418607, ,0.4919083284014612, ,0.04101957102916267
186, ,PASS, ,0.009814050000000005, ,0.0013299352730837901, ,0.0298896738348197, ,1.3199444912896569e-05, ,1.8333333333333333, ,0.7337485565471532, ,0.49631640170608765, ,0.03650945899063284
187, ,PASS, ,0.009456730000000003, ,0.0013047613564419734, ,0.030037250245505194, ,1.2459157707003032e-05, ,1.8333333333333333, ,0.7350750423432737, ,0.49572457704944795, ,0.027142303218301668
188, ,PASS, ,0.009664240000000022, ,0.0013467487403131492, ,0.02997833992857289, ,1.3177930158854619e-05, ,1.8333333333333333, ,0.7517953975958679, ,0.49707148833697273, ,0.05744780718760842
189, ,PASS, ,0.009690760000000003, ,0.0013493466328906567, ,0.030215085719271038, ,1.3224075672711387e-05, ,1.8333333333333333, ,0.7495468529547784, ,0.49584702353013205, ,0.04916226199465317
190, ,PASS, ,0.009606500000000028, ,0.001334788293536887, ,0.029960868152894844, ,1.2941183151053968e-05, ,1.8333333333333333, ,0.7480109667673662, ,0.4955204995816412, ,0.04428481051407114
191, ,PASS, ,0.009659090000000023, ,0.0013372682362278912, ,0.030028714194608275, ,1.3053157813896342e-05, ,1.8333333333333333, ,0.7449145404340294, ,0.4969082263627273, ,0.054284606436603336
192, ,PASS, ,0.009504350000000012, ,0.001375869638093237, ,0.029840222561784455, ,1.3204316455589632e-05, ,1.8333333333333333, ,0.7561466512273863, ,0.4939082875859676, ,0.0585702332605457
193, ,PASS, ,0.009528370000000012, ,0.0013112336211963827, ,0.029946501277729028, ,1.266891077582606e-05, ,1.8333333333333333, ,0.7425587318633591, ,0.49582661578335135, ,0.03561151813228301
194, ,PASS, ,0.009641850000000021, ,0.0013419318264984359, ,0.029886330951001003, ,1.3122911297375085e-05, ,1.8333333333333333, ,0.7464630486620071, ,0.4948266361910981, ,0.05701924450521418
195, ,PASS, ,0.00973916000000001, ,0.0013601807943043962, ,0.029928985780902435, ,1.3400397182811177e-05, ,1.8333333333333333, ,0.7445455911121819, ,0.4951735678863697, ,0.05093773596457215
196, ,PASS, ,0.00969109000000003, ,0.0013428372289963648, ,0.0298351735658456, ,1.3139013800240026e-05, ,1.8333333333333333, ,0.7238408391419653, ,0.4935613558906961, ,0.03826452521377115
197, ,PASS, ,0.009681260000000018, ,0.0013523578430564226, ,0.02997852635497235, ,1.322359021956029e-05, ,1.8333333333333333, ,0.7385644324459443, ,0.4948470439378788, ,0.0471010795698047
198, ,PASS, ,0.009807990000000013, ,0.0013693245931469722, ,0.029867865318258816, ,1.3594981772491228e-05, ,1.8333333333333333, ,0.7427211023561172, ,0.49419399604089714, ,0.030754474398481665
199, ,PASS, ,0.009687730000000023, ,0.0013496368412791897, ,0.030020354144201143, ,1.3222862838586671e-05, ,1.8333333333333333, ,0.7385816937735381, ,0.4940307340666517, ,0.0311830370808759
200, ,PASS, ,0.009430660000000004, ,0.00131525266955157, ,0.030048888749617357, ,1.2564066724174023e-05, ,1.8333333333333333, ,0.7527823969296633, ,0.4943980735087039, ,0.01818330238158405
201, ,PASS, ,0.009540400000000018, ,0.0013165524553037935, ,0.029973158262892596, ,1.2698782677216082e-05, ,1.8333333333333333, ,0.746043891823998, ,0.49660211016101713, ,0.03528499418379217
202, ,PASS, ,0.00952591000000002, ,0.0013028176019032206, ,0.029915735997020472, ,1.2548575597360357e-05, ,1.8333333333333333, ,0.7404228307731169, ,0.4956837615558866, ,0.04838676761698741
203, ,PASS, ,0.009586240000000013, ,0.001346109754132489, ,0.029943536290687946, ,1.3090701451390055e-05, ,1.8333333333333333, ,0.7479921601403489, ,0.4955204995816412, ,0.03742780759576335
204, ,PASS, ,0.00957303000000001, ,0.001324209134550572, ,0.030065543356870273, ,1.2830579015263093e-05, ,1.8333333333333333, ,0.7392626140103448, ,0.4956021305687639, ,0.04061141609354911
205, ,PASS, ,0.009652290000000011, ,0.001306794556507825, ,0.03013196991224669, ,1.2724594727926488e-05, ,1.8333333333333333, ,0.7395624396810768, ,0.4969082263627273, ,0.06905981510581417
206, ,PASS, ,0.009706880000000029, ,0.0012942648049955353, ,0.029965736204771335, ,1.2670619004537981e-05, ,1.8333333333333333, ,0.7100769966542698, ,0.492806269259811, ,0.0377543315442542
207, ,PASS, ,0.009494740000000008, ,0.0012927260122693677, ,0.03020871976959654, ,1.2418574683439385e-05, ,1.8333333333333333, ,0.723738209690012, ,0.49425521928123917, ,0.023387277810656925
208, ,PASS, ,0.009323239999999997, ,0.0013490836696012606, ,0.030130332019958777, ,1.2688740833101536e-05, ,1.8333333333333333, ,0.7579853908464388, ,0.4961327319850615, ,0.06342727699434705
209, ,PASS, ,0.009512810000000007, ,0.0013104608399364527, ,0.030009898233301364, ,1.2592782229957665e-05, ,1.8333333333333333, ,0.7566676160627372, ,0.4967857798820432, ,0.06659047774535214
210, ,PASS, ,0.009419150000000022, ,0.0012680404399144519, ,0.030034335349482664, ,1.212612821106211e-05, ,1.8333333333333333, ,0.7387349787241723, ,0.4959490622640354, ,0.050611212016081306
211, ,PASS, ,0.00919291000000002, ,0.0012230429886570416, ,0.030072621249566337, ,1.1423535417490348e-05, ,1.8333333333333333, ,0.7412989121959577, ,0.49715311932409545, ,0.08318197587804331
212, ,PASS, ,0.009331330000000016, ,0.0012316374190094721, ,0.029884930016530278, ,1.1643202650565637e-05, ,1.8333333333333333, ,0.7325612494538367, ,0.4974592355258056, ,0.033407481479969796
213, ,PASS, ,0.009244670000000007, ,0.0012793789450462065, ,0.029965561150792845, ,1.1959017881441757e-05, ,1.8333333333333333, ,0.7424129951975477, ,0.49664292565457846, ,0.0743046060284484
214, ,PASS, ,0.009440630000000005, ,0.001268604959738941, ,0.03002843485255403, ,1.2055630850998082e-05, ,1.8333333333333333, ,0.7035863051436038, ,0.4920919981224873, ,0.030917736372727087
215, ,PASS, ,0.007747769999999998, ,0.0009002104610616765, ,0.0300383014491541, ,7.086898784896393e-06, ,1.75, ,0.697674519610974, ,0.5005408052896879, ,0.044509295728658596
