Channel, ,Pass/Fail, ,Amplitude, ,Sorting Function Response, ,Mean, ,Variance, ,NPeaksRatio, ,PosIntegralRatio, ,ToT50, ,ToT99
0, ,FAIL, ,0.0017759000000000177, ,8.55098661819468e-05, ,0.038176344554192776, ,1.4698123924153285e-07, ,1.3333333333333333, ,0.48422881251146704, ,0.668965939470623, ,0.013591559355931511
1, ,FAIL, ,0.00152037, ,5.488133554809427e-05, ,0.03849526882512602, ,8.934114372286826e-08, ,0.8333333333333334, ,0.304286593868931, ,0.5710087549233689, ,0.00446929654496847
2, ,PASS, ,0.003075170000000016, ,0.00011689161345897243, ,0.03800960195893962, ,3.6985451740131343e-07, ,0.9166666666666666, ,0.3438518209065878, ,0.43033815636415584, ,0.01361196710271219
3, ,PASS, ,0.03181777000000001, ,0.00320860698702745, ,0.0400225386912512, ,0.00010269731363982786, ,1.5833333333333333, ,0.5758255694254184, ,0.5879675924981123, ,0.039488990020611826
4, ,PASS, ,0.03267253000000002, ,0.003283082930837487, ,0.04058563922940348, ,0.00010844572993244355, ,1.5833333333333333, ,0.5861433971580189, ,0.6188649211240587, ,0.05085610497744944
5, ,PASS, ,0.032646629999999996, ,0.0032723482598810178, ,0.04074076251770372, ,0.00010764753470369732, ,1.5833333333333333, ,0.5790596461192001, ,0.6183955429481031, ,0.04479500418358809
6, ,PASS, ,0.032512800000000015, ,0.0032756610315358434, ,0.039821431998530644, ,0.00010636701454397332, ,1.5833333333333333, ,0.5689944072222176, ,0.591661394665415, ,0.03695842941980776
7, ,PASS, ,0.03228481000000002, ,0.003159387209609189, ,0.04047877197159242, ,0.00010338076414712126, ,1.6666666666666667, ,0.5762654800202107, ,0.620619987347197, ,0.03332585049284709
8, ,PASS, ,0.03208791000000001, ,0.0031968907493412427, ,0.040216963743597074, ,0.00010283878995267412, ,1.6666666666666667, ,0.5780419333532616, ,0.6061917103732577, ,0.03644823575029081
9, ,PASS, ,0.032151580000000006, ,0.003251360168181295, ,0.04037268978388196, ,0.00010495869310899952, ,1.5833333333333333, ,0.5847382296424474, ,0.6110487541070591, ,0.0446929654496847
10, ,PASS, ,0.032148120000000016, ,0.0033413181948547853, ,0.040104843304218284, ,0.00010745443451933687, ,1.5833333333333333, ,0.5815461186182254, ,0.5938654313177282, ,0.032550356115181325
11, ,PASS, ,0.032658570000000026, ,0.0032980035418182056, ,0.03973250649680619, ,0.00010761801062529287, ,1.5833333333333333, ,0.5719858305946289, ,0.5934572763821147, ,0.038325748454113184
12, ,PASS, ,0.04972793000000002, ,0.005674320514728842, ,0.042231512912797704, ,0.00028657802709244966, ,1.9166666666666667, ,0.6612627082421003, ,0.6181302422399543, ,0.04936633946245995
13, ,PASS, ,0.05235505, ,0.005815152878510201, ,0.0425461432415665, ,0.00031107523298934707, ,1.9166666666666667, ,0.6533346944334939, ,0.6234362564029305, ,0.045672537295157245
