Channel, ,Pass/Fail, ,Amplitude, ,Sorting Function Response, ,Mean, ,Variance, ,NPeaksRatio, ,PosIntegralRatio, ,ToT50, ,ToT99
0, ,PASS, ,0.018877220000000014, ,0.0016289453373140718, ,0.02867049527172915, ,3.130565315052077e-05, ,1.4166666666666667, ,0.5840442780883744, ,0.4792351176506602, ,0.044958266157833514
1, ,PASS, ,0.01851876000000001, ,0.0015723481318047452, ,0.028419888479010634, ,2.963500182104908e-05, ,1.4166666666666667, ,0.5733190062175844, ,0.47825554580518764, ,0.02193832778922879
2, ,PASS, ,0.018814340000000002, ,0.0016164958448400854, ,0.02864189731576907, ,3.096450454634639e-05, ,1.4166666666666667, ,0.5768207384774906, ,0.4782147303116263, ,0.04152976469867962
3, ,PASS, ,0.01821476, ,0.0015271943335225093, ,0.028476885160915084, ,2.8272182412835894e-05, ,1.3333333333333333, ,0.5521451393793825, ,0.4718271055692741, ,0.024570927123936246
4, ,PASS, ,0.018555070000000007, ,0.001623349721633211, ,0.028637571776086206, ,3.070414614077148e-05, ,1.4166666666666667, ,0.5892603758500453, ,0.47966368033305445, ,0.05157037611477317
5, ,PASS, ,0.01833809, ,0.0015969999708435845, ,0.02846559758494725, ,2.9865852501415665e-05, ,1.4166666666666667, ,0.58912028871846, ,0.4805003979510622, ,0.04828472888308402
6, ,PASS, ,0.018512950000000028, ,0.001606665256474102, ,0.028726923098100043, ,3.0205241979081327e-05, ,1.4166666666666667, ,0.5788688206237206, ,0.47958204934593174, ,0.049488785943144015
7, ,PASS, ,0.01813551000000001, ,0.0015826599207800626, ,0.02849081793391972, ,2.921492682436084e-05, ,1.5, ,0.5862327001007948, ,0.4780106528438195, ,0.05418256770269995
8, ,PASS, ,0.018042230000000013, ,0.0015713255050653332, ,0.0286425754886635, ,2.886521358517975e-05, ,1.4166666666666667, ,0.5863370900562189, ,0.4788881859553887, ,0.04306034570723046
9, ,PASS, ,0.018035940000000014, ,0.0015571295815248094, ,0.028530430051835677, ,2.8561358315008808e-05, ,1.4166666666666667, ,0.5758970040255963, ,0.4775820901614253, ,0.022713822166894552
10, ,PASS, ,0.017860460000000012, ,0.0015388277225615234, ,0.02844558175873962, ,2.8056516140966176e-05, ,1.4166666666666667, ,0.5901088594097507, ,0.4785412542601171, ,0.04528479010632436
11, ,PASS, ,0.017864470000000007, ,0.001561516021051111, ,0.028646843529315735, ,2.849502300027183e-05, ,1.4166666666666667, ,0.5913027141834232, ,0.47874533172792394, ,0.0460806922307708
12, ,PASS, ,0.018002430000000007, ,0.0015572398722620766, ,0.028461486452317303, ,2.8596400763164203e-05, ,1.4166666666666667, ,0.5859448952910339, ,0.48029632048325543, ,0.05281524866839452
13, ,PASS, ,0.017990200000000005, ,0.0015770573119641641, ,0.028538118708393706, ,2.889951825108624e-05, ,1.4166666666666667, ,0.5835734934196541, ,0.47619436338033916, ,0.021244464398685742
14, ,PASS, ,0.017501750000000014, ,0.0015538355813612121, ,0.02868426331340177, ,2.7733757706263252e-05, ,1.5, ,0.59727279449045, ,0.47788820636313545, ,0.04281545274586233
15, ,PASS, ,0.017439820000000005, ,0.0015176749900960497, ,0.028666466804759087, ,2.7007320478776035e-05, ,1.5, ,0.5888538084613332, ,0.47880655496826596, ,0.05085610497744944
16, ,PASS, ,0.017644740000000023, ,0.0015122245128957037, ,0.028774375324585214, ,2.723273240646346e-05, ,1.4166666666666667, ,0.5826036121025943, ,0.4781330993245036, ,0.025183159527356586
17, ,PASS, ,0.017555220000000017, ,0.001519975279219839, ,0.028705040805901923, ,2.7217455847720902e-05, ,1.4166666666666667, ,0.587299030877099, ,0.47703108099834696, ,0.04273382175873962
18, ,PASS, ,0.017391390000000014, ,0.001530612220607167, ,0.028628858804718275, ,2.7162102883214438e-05, ,1.5, ,0.5870324356276331, ,0.4793983796249056, ,0.030427950449990818
19, ,PASS, ,0.017286209999999996, ,0.0015020027812318135, ,0.028628814328074938, ,2.6411904075545176e-05, ,1.5, ,0.5744193109677764, ,0.47656170282239135, ,0.029815718046570478
20, ,PASS, ,0.017145079999999993, ,0.0014912465859400264, ,0.028559347154751946, ,2.609818073117382e-05, ,1.4166666666666667, ,0.5881167150189848, ,0.4776841288953287, ,0.029264708883492172
21, ,PASS, ,0.01721399000000003, ,0.001489085752116317, ,0.02864849597314341, ,2.6175374001146648e-05, ,1.5, ,0.5876664472063288, ,0.4785004387665558, ,0.03601967306789657
22, ,PASS, ,0.017457060000000014, ,0.0015201958825133012, ,0.02857621091100182, ,2.703725525204121e-05, ,1.5, ,0.5852620363453689, ,0.4773576049468378, ,0.03426460684475827
23, ,PASS, ,0.017483160000000015, ,0.0015061322939764114, ,0.028320247200261224, ,2.6880541328210756e-05, ,1.4166666666666667, ,0.586219318673592, ,0.4776841288953287, ,0.02832595253158099
24, ,PASS, ,0.017554530000000002, ,0.0015323890641442508, ,0.028680434578477992, ,2.7468760777077574e-05, ,1.4166666666666667, ,0.5916938666549534, ,0.4801738740025714, ,0.04767249647966368
25, ,PASS, ,0.01762809, ,0.0015555941454249984, ,0.02865382339788984, ,2.804061015925227e-05, ,1.5, ,0.5906666416639392, ,0.4786637007408012, ,0.05444786841084876
26, ,PASS, ,0.01740333000000001, ,0.001536126230643219, ,0.028717254116650683, ,2.7277371432674287e-05, ,1.5, ,0.593180907521596, ,0.4777453521356707, ,0.039570621007734536
27, ,PASS, ,0.017327100000000012, ,0.0015313071277051542, ,0.028652755503765233, ,2.7090333651799226e-05, ,1.4166666666666667, ,0.5882792901987913, ,0.4786024775004592, ,0.04828472888308402
28, ,PASS, ,0.01746508000000002, ,0.0015525887501975164, ,0.028527232043631764, ,2.7638701604603322e-05, ,1.5, ,0.5975977587874215, ,0.47760249790820597, ,0.052366278239219605
29, ,PASS, ,0.017633070000000025, ,0.0015436910350825617, ,0.028494403491357324, ,2.78282751763747e-05, ,1.4166666666666667, ,0.5934124518339582, ,0.4785412542601171, ,0.052223424011754865
30, ,PASS, ,0.017791820000000017, ,0.0015610136801125878, ,0.02875342500744883, ,2.8373816614030256e-05, ,1.5, ,0.5949759785578626, ,0.477663721148548, ,0.027081079977959634
31, ,PASS, ,0.017949600000000024, ,0.001568861030393705, ,0.028456637803106064, ,2.8744388048539788e-05, ,1.5, ,0.5839775678672324, ,0.4776433134017673, ,0.02453011163037489
32, ,PASS, ,0.01767626000000001, ,0.001512981589023665, ,0.028670657095773558, ,2.7374737962855245e-05, ,1.4166666666666667, ,0.5835303177538125, ,0.4785616620068978, ,0.05336625783147283
33, ,PASS, ,0.01785847000000001, ,0.0015380040641068044, ,0.02852046119303688, ,2.8042795055845863e-05, ,1.4166666666666667, ,0.5870889622881343, ,0.477663721148548, ,0.0320197546988837
34, ,PASS, ,0.017864920000000003, ,0.0015516224410613605, ,0.028753821514458894, ,2.832055461674145e-05, ,1.5, ,0.5900467217644266, ,0.47823513805840695, ,0.05008061059978368
35, ,PASS, ,0.01810368000000001, ,0.0015656694922405417, ,0.028681569058590643, ,2.8960132759955255e-05, ,1.4166666666666667, ,0.5878970470537642, ,0.4780718760841616, ,0.05279484092161384
36, ,PASS, ,0.018375950000000005, ,0.0016001324564036239, ,0.028616294925817843, ,3.0047496043243582e-05, ,1.5, ,0.5841264385625425, ,0.4772147507193731, ,0.025326013754821332
37, ,PASS, ,0.01860193000000001, ,0.0016068568344362929, ,0.028463736506805986, ,3.062624615077964e-05, ,1.4166666666666667, ,0.5930043841845597, ,0.4773167894532765, ,0.022183220750596925
38, ,PASS, ,0.018430590000000004, ,0.0016252569324915903, ,0.028467422879328994, ,3.062837765219436e-05, ,1.5, ,0.5965958284595253, ,0.4777045366421093, ,0.038754311136507416
39, ,PASS, ,0.018539020000000007, ,0.0016196072522992769, ,0.02855997551192833, ,3.070195912753629e-05, ,1.5, ,0.5965258402861672, ,0.4785616620068978, ,0.028958592681782004
40, ,PASS, ,0.019953580000000002, ,0.0017355279598425496, ,0.02841815789187976, ,3.543879426886076e-05, ,1.5, ,0.5926571260418629, ,0.47868410848758186, ,0.036733944205220304
41, ,PASS, ,0.03860481699999999, ,0.004903362962733943, ,0.027810223086447216, ,0.00019105997611104232, ,1.8333333333333333, ,0.7170731098738778, ,0.46770474071957713, ,0.07185567641476705
42, ,PASS, ,0.020514000000000015, ,0.00247270220746371, ,0.027892651681802418, ,5.147162210948469e-05, ,1.8333333333333333, ,0.7052052045511569, ,0.46945980694271544, ,0.051509152874431134
43, ,FAIL, ,0.003315959999999993, ,8.493060428340835e-05, ,0.02806906140078774, ,3.4318063364313576e-07, ,0.6666666666666666, ,0.2455385348098707, ,0.42329748372482195, ,0.007183526866798637
44, ,PASS, ,0.02081086000000001, ,0.001830490609813093, ,0.02829433666170078, ,3.8884167964311556e-05, ,1.5, ,0.5897314174050525, ,0.47760249790820597, ,0.03616252729536132
45, ,PASS, ,0.020734940000000014, ,0.001797121810247514, ,0.028385603704414196, ,3.8093392492413986e-05, ,1.5833333333333333, ,0.5934664066362626, ,0.47713311973225037, ,0.02740760392645048
46, ,PASS, ,0.02035808000000002, ,0.0017834219826563138, ,0.02842938631048346, ,3.7029485798097585e-05, ,1.5833333333333333, ,0.5969859117715757, ,0.47705148874512765, ,0.04265219077161691
47, ,PASS, ,0.02054926000000001, ,0.0017773049705217838, ,0.02833228052978511, ,3.7311798593652655e-05, ,1.5833333333333333, ,0.5862423052206052, ,0.4749698985734985, ,0.02604028489214506
48, ,PASS, ,0.02043101000000001, ,0.0017938868348325375, ,0.02853146813452787, ,3.7505714525529335e-05, ,1.5833333333333333, ,0.5967446601920651, ,0.4771943429725924, ,0.042488928797371484
49, ,PASS, ,0.02038203000000001, ,0.0017722913543158781, ,0.02839643790698149, ,3.691079218661938e-05, ,1.5833333333333333, ,0.5958469800834657, ,0.4773576049468378, ,0.03824411746699047
50, ,PASS, ,0.020265180000000004, ,0.0017653399634763394, ,0.028391377660047755, ,3.650628486260888e-05, ,1.5, ,0.5907582219644367, ,0.47625558662068124, ,0.032550356115181325
51, ,PASS, ,0.020139990000000024, ,0.001754279499648116, ,0.028261361186914555, ,3.6108248821638e-05, ,1.5, ,0.5857990236061756, ,0.47668414930307546, ,0.02830554478480031
52, ,PASS, ,0.020240430000000014, ,0.0017822143366743224, ,0.028242670663864006, ,3.682189209807504e-05, ,1.5833333333333333, ,0.5957282393887766, ,0.4760311014060937, ,0.04681537111487521
53, ,PASS, ,0.02027041000000001, ,0.001761184800967539, ,0.028405166584559504, ,3.6531324697283884e-05, ,1.5, ,0.5947825704428161, ,0.47713311973225037, ,0.029734087059447765
54, ,PASS, ,0.020178770000000002, ,0.0017750439102555608, ,0.02818836611558948, ,3.662894086182465e-05, ,1.5833333333333333, ,0.5959880727498383, ,0.47580661619150627, ,0.03575437235974776
55, ,PASS, ,0.020297840000000008, ,0.0017522113160097135, ,0.028566349104303994, ,3.6249719932029456e-05, ,1.5, ,0.5822351270668443, ,0.47586783943184835, ,0.026162731372829127
56, ,PASS, ,0.019887380000000007, ,0.0017767180441834647, ,0.028541149114711947, ,3.6047183821358345e-05, ,1.5833333333333333, ,0.6038133991046001, ,0.47660251831595274, ,0.048590845084794186
57, ,PASS, ,0.02000218000000001, ,0.0017804467502998379, ,0.02838325388726761, ,3.6351033617367406e-05, ,1.5833333333333333, ,0.6035913800991658, ,0.4761739556335585, ,0.05306014162976266
58, ,PASS, ,0.019990890000000004, ,0.001755509817029556, ,0.028175512353421365, ,3.5888564394687025e-05, ,1.5833333333333333, ,0.5986562753377846, ,0.47748005142752187, ,0.04459092671578131
59, ,PASS, ,0.019862410000000025, ,0.001768739614400821, ,0.02836152604497868, ,3.5883120850133417e-05, ,1.5833333333333333, ,0.5951864739411872, ,0.4762759943674619, ,0.04434603375441318
60, ,PASS, ,0.02044398000000001, ,0.0018002862056687452, ,0.028050830537335977, ,3.750899893264382e-05, ,1.5833333333333333, ,0.5848386684193533, ,0.47492908307993714, ,0.02740760392645048
61, ,PASS, ,0.02062807, ,0.0017943741357498485, ,0.028210360925083163, ,3.777495386743656e-05, ,1.5833333333333333, ,0.5829176352460695, ,0.4748678598395951, ,0.02812187506377421
62, ,PASS, ,0.02020015, ,0.0017599764007063818, ,0.028493921132834027, ,3.63693805554639e-05, ,1.5833333333333333, ,0.5980519261277205, ,0.4768678190241015, ,0.032611579355523355
63, ,PASS, ,0.020266520000000017, ,0.0017763566462091341, ,0.028344685490500194, ,3.676794403388256e-05, ,1.5833333333333333, ,0.5938226572920177, ,0.47548009224301546, ,0.04389706332523826
64, ,PASS, ,0.020225690000000008, ,0.0017836096757925426, ,0.028414108239627766, ,3.683932867151531e-05, ,1.5833333333333333, ,0.5982384649319363, ,0.47631680986102326, ,0.049019407767188425
65, ,PASS, ,0.020331020000000016, ,0.0017716234869532646, ,0.0282623983253403, ,3.6803425907619265e-05, ,1.5, ,0.5934256558939336, ,0.47548009224301546, ,0.03901961184465623
66, ,PASS, ,0.020245510000000005, ,0.0017546371035431778, ,0.028236666730678966, ,3.63132131987229e-05, ,1.5833333333333333, ,0.5917033135565721, ,0.47705148874512765, ,0.04303993796044979
67, ,PASS, ,0.020458260000000006, ,0.0017515966311654227, ,0.028239950508356974, ,3.662873097966092e-05, ,1.5, ,0.5926159675959399, ,0.4778269831227934, ,0.04101957102916267
68, ,PASS, ,0.02041847000000001, ,0.0017871730627942446, ,0.028312666462521174, ,3.730501306193841e-05, ,1.5, ,0.597332975891259, ,0.47713311973225037, ,0.05152956062121181
69, ,PASS, ,0.020831310000000006, ,0.0018664482179611619, ,0.027870260135711516, ,3.968114928656128e-05, ,1.5833333333333333, ,0.5894370283973529, ,0.4736638027795351, ,0.024672965857839634
70, ,PASS, ,0.019543890000000008, ,0.0017487006562972125, ,0.02711265953756046, ,3.452569749521114e-05, ,1.5833333333333333, ,0.5740932350296755, ,0.47299034713577276, ,0.02848921450582641
71, ,PASS, ,0.020542420000000006, ,0.0017628886767416321, ,0.028436761760780395, ,3.7002526327724164e-05, ,1.5, ,0.5900887982377491, ,0.47703108099834696, ,0.021693434827860656
72, ,PASS, ,0.02055097000000002, ,0.0017568350419877195, ,0.028590062081998328, ,3.698135940594134e-05, ,1.5833333333333333, ,0.5840801352535112, ,0.47613314013999714, ,0.02612191587926777
73, ,PASS, ,0.02061546000000001, ,0.0017760377989471598, ,0.02822488841880778, ,3.7455516710066965e-05, ,1.5, ,0.5912599309650156, ,0.477092304238689, ,0.027632089141037937
74, ,PASS, ,0.020627670000000004, ,0.0017729491646658808, ,0.028307542241178756, ,3.744134882071072e-05, ,1.5, ,0.595555528226087, ,0.4788881859553887, ,0.04426440276729046
75, ,PASS, ,0.02024522000000001, ,0.0017658545518489442, ,0.0285513116538438, ,3.657322959112881e-05, ,1.5833333333333333, ,0.5969528693220529, ,0.4768270035305402, ,0.04977449439807351
76, ,PASS, ,0.02058345, ,0.0017475842166755455, ,0.028465694181139162, ,3.688210293093885e-05, ,1.5833333333333333, ,0.5850598714013289, ,0.4777453521356707, ,0.023775024999489806
77, ,PASS, ,0.02074966000000002, ,0.0018466899747089747, ,0.028429277476173957, ,3.91935118966388e-05, ,1.5833333333333333, ,0.6084875944122159, ,0.47696985775800493, ,0.05563151772412808
78, ,PASS, ,0.020713780000000005, ,0.001744953606617539, ,0.028546932674435217, ,3.696467588412208e-05, ,1.5, ,0.5761818186224077, ,0.47668414930307546, ,0.024897451072427093
79, ,PASS, ,0.020567699999999998, ,0.0017520042706225148, ,0.02808914010877329, ,3.692281557125757e-05, ,1.5, ,0.5874197978816584, ,0.47739842044039915, ,0.0526519866941491
80, ,PASS, ,0.02119748000000001, ,0.001808359221453584, ,0.028312374106650887, ,3.9248302057867455e-05, ,1.5833333333333333, ,0.5916167608651801, ,0.4783984000326524, ,0.043672578110650805
81, ,PASS, ,0.021052359999999996, ,0.001815743120420431, ,0.028100339655313156, ,3.910703197756052e-05, ,1.5833333333333333, ,0.5907614835074346, ,0.47752086692108325, ,0.03906042733821759
82, ,PASS, ,0.020861470000000007, ,0.001813379131765884, ,0.028244040596722517, ,3.875745675493801e-05, ,1.5, ,0.5994179856642171, ,0.4772759739597151, ,0.05467235362543622
83, ,PASS, ,0.02091380000000001, ,0.0018068934714072088, ,0.028386909251852006, ,3.8615720264245906e-05, ,1.5, ,0.5839763215662331, ,0.4739699189812453, ,0.030325911716087426
84, ,PASS, ,0.021197850000000008, ,0.0018026882781081068, ,0.028523837223934208, ,3.913315321264979e-05, ,1.5, ,0.5882408628173402, ,0.47833717679231036, ,0.03375441317524132
85, ,PASS, ,0.02144467000000001, ,0.001839870002005759, ,0.028457563435644175, ,4.03764626128837e-05, ,1.5, ,0.5836463253893673, ,0.47750045917430256, ,0.038693087896165386
86, ,PASS, ,0.02149672000000001, ,0.0018215572526646467, ,0.028337156674557665, ,4.0099420299827836e-05, ,1.5, ,0.5869142705532261, ,0.47623517887390054, ,0.03444827656578437
87, ,PASS, ,0.021179570000000012, ,0.0018098203163986507, ,0.02824400900226526, ,3.9258993084290016e-05, ,1.5833333333333333, ,0.5879009527344048, ,0.476459664088488, ,0.037897185771718946
88, ,PASS, ,0.021487830000000013, ,0.0018524326035880894, ,0.02839575557151895, ,4.070815293362477e-05, ,1.5, ,0.5916127409366406, ,0.47696985775800493, ,0.04918266974143385
89, ,PASS, ,0.02141571000000002, ,0.0018306814475847807, ,0.028427093723801557, ,4.019943771019999e-05, ,1.5, ,0.5958769216033417, ,0.47831676904552967, ,0.049427562702801985
90, ,PASS, ,0.0212986, ,0.0018573213213356908, ,0.028369842606681496, ,4.0504423862778085e-05, ,1.5833333333333333, ,0.5977686977715351, ,0.4768678190241015, ,0.05250913246668435
91, ,PASS, ,0.021928029999999994, ,0.0018308309644188396, ,0.027882216365176224, ,4.107216657723417e-05, ,1.5, ,0.5666872628502838, ,0.475888247178629, ,0.02712189547152099
92, ,PASS, ,0.02163558000000002, ,0.0018394068948227975, ,0.028186376110487542, ,4.077162919952926e-05, ,1.5, ,0.5850072907942894, ,0.47694945001122424, ,0.03248913287483929
93, ,PASS, ,0.02189858999999999, ,0.0018176118672642897, ,0.028224204305626416, ,4.085915770074794e-05, ,1.5, ,0.5773161864385841, ,0.47788820636313545, ,0.021468949613273197
94, ,PASS, ,0.02145327, ,0.0018423364602267486, ,0.028530581465888456, ,4.045655531556203e-05, ,1.5, ,0.5853161879819094, ,0.47623517887390054, ,0.05259076345380707
95, ,PASS, ,0.021775160000000005, ,0.0018522909579266836, ,0.02836790400563254, ,4.1381068916864575e-05, ,1.5, ,0.58852005240057, ,0.4780106528438195, ,0.04473378094324606
96, ,PASS, ,0.02172846000000001, ,0.001844878915305383, ,0.028397458905940698, ,4.11742330472139e-05, ,1.5833333333333333, ,0.5909758316012165, ,0.47892900144895, ,0.023081161608946757
97, ,PASS, ,0.021691570000000004, ,0.0018602803184622281, ,0.028562938553702986, ,4.1325030447149727e-05, ,1.5, ,0.5869965265886234, ,0.47668414930307546, ,0.0339584906430481
98, ,PASS, ,0.02171650000000001, ,0.0018528358409239827, ,0.02843898188996143, ,4.13081760470179e-05, ,1.5, ,0.5937051636817434, ,0.4781943225648456, ,0.049835717638415544
99, ,PASS, ,0.021637450000000013, ,0.001861362476113305, ,0.028340991321401606, ,4.13219445736953e-05, ,1.5833333333333333, ,0.5919220533620508, ,0.477092304238689, ,0.04106038652272403
100, ,PASS, ,0.021811890000000007, ,0.00184136839834534, ,0.028300214564396645, ,4.117109169957632e-05, ,1.5, ,0.582624669564759, ,0.47707189649190834, ,0.02236689047162303
101, ,PASS, ,0.02160148000000002, ,0.0018570303983223937, ,0.02838644874063795, ,4.117132964667168e-05, ,1.5833333333333333, ,0.595190970534434, ,0.47788820636313545, ,0.046611293647068425
102, ,PASS, ,0.02184472000000002, ,0.0018486283663713173, ,0.0283869173661762, ,4.1515314802215936e-05, ,1.5833333333333333, ,0.5930200539809478, ,0.4792351176506602, ,0.04585620701618334
103, ,PASS, ,0.02190045000000002, ,0.001861828259626488, ,0.02836115118752679, ,4.194477201441882e-05, ,1.5833333333333333, ,0.5941481204683899, ,0.47694945001122424, ,0.03852982592191996
104, ,PASS, ,0.02924291000000003, ,0.0033655848957942452, ,0.028045089015122142, ,9.990016062194552e-05, ,1.8333333333333333, ,0.6876106673587288, ,0.4707046794963368, ,0.061325279075937225
105, ,PASS, ,0.03936957699999998, ,0.005248713388347073, ,0.0275626224786637, ,0.00020882533643985373, ,1.9166666666666667, ,0.7328306208242676, ,0.46770474071957713, ,0.07426379053488705
106, ,PASS, ,0.024630149999999993, ,0.0021480666018398927, ,0.028409306894349094, ,5.408862392649885e-05, ,1.5, ,0.5960852186227561, ,0.47668414930307546, ,0.04212158935531928
107, ,PASS, ,0.02385525999999999, ,0.0020582621517220723, ,0.028255134264810924, ,5.0375921306458876e-05, ,1.5833333333333333, ,0.5964527372561567, ,0.4768882267708822, ,0.05003979510622232
108, ,PASS, ,0.023760419999999973, ,0.0020429164108010833, ,0.02842300826248444, ,4.9676964862990344e-05, ,1.5, ,0.5911223900298103, ,0.47650047958204933, ,0.04461133446256199
109, ,PASS, ,0.02382571999999999, ,0.0020447830454908616, ,0.028503164856839656, ,4.996189303148585e-05, ,1.5833333333333333, ,0.5884795056384349, ,0.4768882267708822, ,0.025142344033795228
110, ,PASS, ,0.02362062999999998, ,0.0020678674007167364, ,0.02858362674190323, ,4.993716582591415e-05, ,1.5833333333333333, ,0.5953127619278273, ,0.47482704434603373, ,0.04520315911920165
111, ,PASS, ,0.023451760000000006, ,0.002049215056548881, ,0.028565403490949166, ,4.913452870050285e-05, ,1.5833333333333333, ,0.5936183392048675, ,0.47576580069794494, ,0.04171343441970572
112, ,PASS, ,0.02358298999999999, ,0.002069289746519963, ,0.028665877415562948, ,4.995051793726946e-05, ,1.5833333333333333, ,0.6018967842018824, ,0.4763780331013653, ,0.044550111222219954
113, ,PASS, ,0.023404259999999993, ,0.0020707881744779976, ,0.028499009470827126, ,4.963971466098807e-05, ,1.5833333333333333, ,0.6021812915308713, ,0.4768065957837595, ,0.05195812330360605
114, ,PASS, ,0.02351847999999999, ,0.0020830239450804287, ,0.028350593396461298, ,5.0132261908503695e-05, ,1.5833333333333333, ,0.6007338897417314, ,0.476398440848146, ,0.04481541193036877
115, ,PASS, ,0.023895929999999975, ,0.002215076926072464, ,0.02838447920695496, ,5.36175929384263e-05, ,1.5, ,0.6002593137359246, ,0.4759086549254097, ,0.03128507581477929
116, ,PASS, ,0.023797579999999978, ,0.002234908614122569, ,0.028362740624885207, ,5.383340761311041e-05, ,1.5833333333333333, ,0.6100677558027233, ,0.4763780331013653, ,0.0556111099773474
117, ,PASS, ,0.024076409999999986, ,0.0022894261300384126, ,0.02871449819085325, ,5.565606524582618e-05, ,1.5, ,0.6104467213836763, ,0.4770106732515663, ,0.059284504397869434
118, ,PASS, ,0.025905009999999992, ,0.0029521199877767497, ,0.028441852284443174, ,7.66611941858624e-05, ,1.5833333333333333, ,0.6639089526142886, ,0.4784188077794331, ,0.062121181200383666
119, ,PASS, ,0.025525219999999987, ,0.0029641776844952852, ,0.028594701218954716, ,7.602634502440834e-05, ,1.6666666666666667, ,0.6655178180245968, ,0.4788881859553887, ,0.06924348482684027
120, ,PASS, ,0.02548545999999998, ,0.0027896449027844314, ,0.028351978122487298, ,7.14132590844526e-05, ,1.4166666666666667, ,0.6464519881286565, ,0.4788473704618273, ,0.06805983551356094
121, ,PASS, ,0.025616369999999986, ,0.0029016229146272728, ,0.02821671118956756, ,7.465992034687815e-05, ,1.5833333333333333, ,0.6581041396831466, ,0.47662292606273343, ,0.03746862308932471
122, ,PASS, ,0.02563046999999999, ,0.0029437545730424427, ,0.02836080824799494, ,7.581573665972642e-05, ,1.5833333333333333, ,0.6646713407922317, ,0.47780657537601273, ,0.04516234362564029
123, ,PASS, ,0.025930639999999984, ,0.002876532625487664, ,0.028288416053754005, ,7.48844446860076e-05, ,1.5833333333333333, ,0.6501386176869179, ,0.47750045917430256, ,0.035468663904818266
124, ,PASS, ,0.025125899999999993, ,0.002910437477618083, ,0.02829049390624681, ,7.338381859066246e-05, ,1.6666666666666667, ,0.6655711156564251, ,0.47754127466786395, ,0.06689659394706231
125, ,PASS, ,0.025362079999999988, ,0.0029284575120396106, ,0.02826422140772637, ,7.462673473884178e-05, ,1.6666666666666667, ,0.665849576567471, ,0.47615354788677783, ,0.04838676761698741
126, ,PASS, ,0.02560963999999999, ,0.0029650793906679093, ,0.028250486890879778, ,7.619318458122575e-05, ,1.5833333333333333, ,0.6642888989320875, ,0.47703108099834696, ,0.03928491255280504
127, ,PASS, ,0.02538732999999998, ,0.0029810414464226677, ,0.02836803362176282, ,7.602643383638592e-05, ,1.5833333333333333, ,0.6647448322178833, ,0.47576580069794494, ,0.07301891798126568
128, ,PASS, ,0.025070109999999982, ,0.002932957903245525, ,0.02839723498663293, ,7.375035475240545e-05, ,1.6666666666666667, ,0.6694882181727074, ,0.4781330993245036, ,0.08132487092100162
129, ,PASS, ,0.025742739999999993, ,0.00292321308844965, ,0.028620226923532173, ,7.54667384403624e-05, ,1.5833333333333333, ,0.6550021328010341, ,0.4768678190241015, ,0.03861145690904267
130, ,PASS, ,0.025459949999999988, ,0.0029644820709838543, ,0.028520872121793432, ,7.590803138417243e-05, ,1.6666666666666667, ,0.6707453110305955, ,0.47833717679231036, ,0.056774351543846045
131, ,PASS, ,0.025291569999999985, ,0.0029352584313493, ,0.028318469222056695, ,7.459438500164296e-05, ,1.6666666666666667, ,0.6664056185094869, ,0.4759698781657517, ,0.04028489214505827
132, ,PASS, ,0.025965259999999976, ,0.003050067542364689, ,0.028474968613293607, ,7.942739558672418e-05, ,1.6666666666666667, ,0.6702579193725006, ,0.4771943429725924, ,0.04726434154405012
133, ,PASS, ,0.02548324999999998, ,0.0029799985390256112, ,0.02866338937756372, ,7.6212362537308e-05, ,1.6666666666666667, ,0.6669870547424416, ,0.47705148874512765, ,0.06177424950511214
134, ,PASS, ,0.025607209999999984, ,0.002937464127739426, ,0.02842850172935246, ,7.56213268173663e-05, ,1.6666666666666667, ,0.6643651358722656, ,0.47956164159915105, ,0.07191689965510908
135, ,FAIL, ,0.004349060000000005, ,0.00010998811409042658, ,0.02820474187955348, ,5.769632899393681e-07, ,0.6666666666666666, ,0.28611360645880685, ,0.5357645762331381, ,0.006040693047080672
136, ,PASS, ,0.026558829999999985, ,0.003802499425268412, ,0.027421944733372786, ,0.00010105933963622009, ,1.9166666666666667, ,0.7254788221179821, ,0.46497010265096633, ,0.06128446358237587
137, ,FAIL, ,0.005005060000000006, ,0.00013680176368267448, ,0.02799184197342911, ,7.978100568960016e-07, ,0.75, ,0.2544157752204031, ,0.42239954286647213, ,0.007061080386114569
138, ,PASS, ,0.02552019999999999, ,0.0028839549387028717, ,0.028485557010877332, ,7.39004431920773e-05, ,1.5833333333333333, ,0.6547636261144695, ,0.47868410848758186, ,0.0422848513295647
139, ,PASS, ,0.02530524999999998, ,0.0029108959746211075, ,0.028656491407318217, ,7.394807311720312e-05, ,1.5833333333333333, ,0.6653537503013705, ,0.47882696271504666, ,0.0637538009428379
140, ,PASS, ,0.02599081999999999, ,0.0030075273704239154, ,0.028389683220954674, ,7.841117491134869e-05, ,1.5833333333333333, ,0.6566544650808135, ,0.4764800718352687, ,0.03993796044978674
141, ,PASS, ,0.02564438999999999, ,0.0030034424646861865, ,0.02856755683659517, ,7.734123830122884e-05, ,1.6666666666666667, ,0.6690854432291254, ,0.47668414930307546, ,0.07234546233750332
142, ,PASS, ,0.025442299999999994, ,0.0029612990278938506, ,0.028654691485071732, ,7.564791391472605e-05, ,1.6666666666666667, ,0.6685373956071062, ,0.47750045917430256, ,0.06391706291708332
143, ,PASS, ,0.02558154999999998, ,0.002916463339149008, ,0.028297985773147488, ,7.4847171152631e-05, ,1.5833333333333333, ,0.652849430783922, ,0.4757045774576029, ,0.04010122242403216
144, ,PASS, ,0.02586619999999999, ,0.002935445771483306, ,0.028404048764719084, ,7.625804774041915e-05, ,1.5833333333333333, ,0.6612111289561494, ,0.47780657537601273, ,0.056284565621109776
145, ,PASS, ,0.02557613999999998, ,0.0029840360941990407, ,0.028476707530050407, ,7.659338754771514e-05, ,1.6666666666666667, ,0.6682230908961139, ,0.4777045366421093, ,0.06805983551356094
146, ,PASS, ,0.025647189999999993, ,0.0029102407466727277, ,0.028385997292504236, ,7.496316909287059e-05, ,1.5833333333333333, ,0.6542507349734618, ,0.4770106732515663, ,0.040835901308136566
147, ,PASS, ,0.025575779999999992, ,0.002908101544058939, ,0.02838161414746638, ,7.47740395182765e-05, ,1.5833333333333333, ,0.65594580400892, ,0.4776841288953287, ,0.034693169527152505
148, ,PASS, ,0.025444969999999994, ,0.0029310061424969464, ,0.02834558791922614, ,7.502957400918022e-05, ,1.5833333333333333, ,0.6668632998474486, ,0.4793371563845636, ,0.06918226158649823
149, ,PASS, ,0.025291109999999978, ,0.0029238653431076663, ,0.028635832318524113, ,7.434165331914355e-05, ,1.5833333333333333, ,0.667484800838363, ,0.47835758453909105, ,0.07369237362502806
150, ,PASS, ,0.02580824999999999, ,0.0029675144633835113, ,0.028291552211995676, ,7.686370959152623e-05, ,1.5833333333333333, ,0.6547403915983592, ,0.4760106936593131, ,0.04095834778882063
151, ,PASS, ,0.02534033999999999, ,0.0029311834015030343, ,0.02845104579620824, ,7.459415442848898e-05, ,1.5833333333333333, ,0.6649422103723119, ,0.4785820697536785, ,0.07816167016999653
152, ,PASS, ,0.025496289999999984, ,0.0029384623427138466, ,0.028675892502193833, ,7.531146131196677e-05, ,1.5833333333333333, ,0.6656124380116449, ,0.47829636129874903, ,0.06581498336768637
153, ,PASS, ,0.02550522999999999, ,0.0029690260499360722, ,0.028396915222750556, ,7.602757638319825e-05, ,1.5833333333333333, ,0.6704930534340333, ,0.4773167894532765, ,0.08083508499826535
154, ,PASS, ,0.025589099999999993, ,0.0029685935599025807, ,0.02848404465827228, ,7.625892727144744e-05, ,1.6666666666666667, ,0.6703234604365498, ,0.4768474112773209, ,0.06979449398991858
155, ,PASS, ,0.02529158, ,0.002967600914152508, ,0.02849083055100916, ,7.537060218654999e-05, ,1.6666666666666667, ,0.6708003040133232, ,0.47843921552621377, ,0.06812105875390298
156, ,PASS, ,0.02552091, ,0.0029375657192879765, ,0.028487293999306138, ,7.522609205572489e-05, ,1.5833333333333333, ,0.6624040155744505, ,0.4776433134017673, ,0.05263157894736842
157, ,PASS, ,0.025363299999999978, ,0.002951780924628038, ,0.028586720191424664, ,7.519664990383728e-05, ,1.5833333333333333, ,0.6655595446656141, ,0.4797044958266158, ,0.07256994755209077
158, ,PASS, ,0.025425559999999982, ,0.002917715253934881, ,0.028475574884186033, ,7.451624802017393e-05, ,1.5833333333333333, ,0.6634279204441118, ,0.47815350707128423, ,0.06508030448358197
159, ,PASS, ,0.02557715999999998, ,0.0029637163705204155, ,0.02857687529336136, ,7.613097178906993e-05, ,1.5833333333333333, ,0.6635646545612653, ,0.47745964368074123, ,0.06499867349645926
160, ,PASS, ,0.025505919999999984, ,0.00294766946492398, ,0.028635517210056936, ,7.55174975812807e-05, ,1.6666666666666667, ,0.6658329129649597, ,0.4793983796249056, ,0.05457031489153283
161, ,PASS, ,0.025645939999999992, ,0.0029411546831337844, ,0.028530550594273587, ,7.590827562423401e-05, ,1.5833333333333333, ,0.6635614645758169, ,0.4785208465133365, ,0.06763127283116671
162, ,PASS, ,0.025831129999999973, ,0.0029631311506499703, ,0.028672468900022445, ,7.698088558481328e-05, ,1.6666666666666667, ,0.6648735441985346, ,0.47878614722148527, ,0.05738658394726638
163, ,PASS, ,0.025159029999999995, ,0.0029318960780607825, ,0.028458549250831616, ,7.415590793121174e-05, ,1.6666666666666667, ,0.6704338602898542, ,0.47788820636313545, ,0.07369237362502806
164, ,PASS, ,0.02542790999999999, ,0.0029449694384691594, ,0.028341894339503276, ,7.519076006514354e-05, ,1.5833333333333333, ,0.6630982372681461, ,0.47707189649190834, ,0.05097855145813351
165, ,PASS, ,0.025381909999999994, ,0.002969115258278413, ,0.028489148574110734, ,7.572307094250749e-05, ,1.6666666666666667, ,0.6713973842076755, ,0.4781126915777229, ,0.07914124201546907
166, ,PASS, ,0.025983859999999987, ,0.00300546939729532, ,0.0283857286812514, ,7.850815868085234e-05, ,1.6666666666666667, ,0.6703827212637713, ,0.4777453521356707, ,0.07346788841044061
167, ,PASS, ,0.027753299999999977, ,0.0032999643528775556, ,0.028434249133895226, ,9.190140009852202e-05, ,1.6666666666666667, ,0.6727745559740326, ,0.4768270035305402, ,0.07330462643619517
168, ,PASS, ,0.02986529000000003, ,0.00367097768040185, ,0.028212048697985756, ,0.0001099019171948894, ,1.6666666666666667, ,0.683195009772127, ,0.4756841697108222, ,0.0762433419726128
169, ,PASS, ,0.08510838999999996, ,0.012034725914724476, ,0.025784523192587908, ,0.0010232038027791581, ,1.9166666666666667, ,0.7133963436303357, ,0.4638884920715904, ,0.06457011081406502
170, ,PASS, ,0.02757461, ,0.0033982819376660875, ,0.028391124011346705, ,9.391771892689191e-05, ,1.6666666666666667, ,0.6895302096220947, ,0.47511275280096327, ,0.09191649150017346
171, ,PASS, ,0.027407539999999994, ,0.003319224031143784, ,0.028236464323177075, ,9.115007560329868e-05, ,1.6666666666666667, ,0.6838216616670522, ,0.475888247178629, ,0.08387583926858636
172, ,PASS, ,0.02682456999999999, ,0.003331337280996783, ,0.028045010662843615, ,8.956567458276081e-05, ,1.6666666666666667, ,0.6878067728556303, ,0.475255607028428, ,0.07238627783106467
173, ,PASS, ,0.026548529999999987, ,0.0032629106687914354, ,0.028319160130405502, ,8.686415650714392e-05, ,1.6666666666666667, ,0.6890202204458719, ,0.47417399644905206, ,0.09148792881777923
174, ,PASS, ,0.026744189999999987, ,0.0033254680193198147, ,0.028060017779841226, ,8.911022744606359e-05, ,1.6666666666666667, ,0.6898025985988848, ,0.4748678598395951, ,0.07118222077100467
175, ,PASS, ,0.02649533999999998, ,0.0032983897750544083, ,0.028229979418379215, ,8.758335363120672e-05, ,1.6666666666666667, ,0.6914902769149381, ,0.47499030632027917, ,0.0912430358564111
176, ,PASS, ,0.026658659999999973, ,0.0033177749890317856, ,0.028339772736474766, ,8.862891753176787e-05, ,1.6666666666666667, ,0.6885264719209022, ,0.4743780739168588, ,0.04599906124364809
177, ,PASS, ,0.026775579999999972, ,0.0032779831452684925, ,0.0281960915650701, ,8.79552591474698e-05, ,1.6666666666666667, ,0.6921360627369995, ,0.4763780331013653, ,0.09110018162894634
178, ,PASS, ,0.026686229999999977, ,0.003286018984865931, ,0.02829775659476337, ,8.793528509769177e-05, ,1.6666666666666667, ,0.6913960116732296, ,0.47594947041897107, ,0.08630436113548703
179, ,PASS, ,0.026642329999999985, ,0.0032739403573691663, ,0.028278044281545272, ,8.737862980885007e-05, ,1.6666666666666667, ,0.6810164279380457, ,0.47374543376665784, ,0.04799902042815453
180, ,PASS, ,0.02661445999999999, ,0.003289835112349398, ,0.028483968470847533, ,8.767755287520893e-05, ,1.6666666666666667, ,0.6890935399780701, ,0.47545968449623477, ,0.08095753147894941
181, ,PASS, ,0.02674268999999998, ,0.0032828205869465527, ,0.02818721384461541, ,8.804313501958294e-05, ,1.6666666666666667, ,0.6845082315250031, ,0.47623517887390054, ,0.06520275096426603
182, ,PASS, ,0.02642593999999998, ,0.003283914429482784, ,0.02821689253321361, ,8.689401155776937e-05, ,1.6666666666666667, ,0.6930323241464491, ,0.47378624926021917, ,0.09024305626415788
183, ,PASS, ,0.02652171999999998, ,0.0032622253959067745, ,0.028350120701618332, ,8.675123980323381e-05, ,1.6666666666666667, ,0.6899523298402156, ,0.4750515295606212, ,0.08432480969776127
184, ,PASS, ,0.02650775999999999, ,0.003260475651553246, ,0.028108554987041078, ,8.648437558157877e-05, ,1.5833333333333333, ,0.6863013057438327, ,0.47427603518295547, ,0.062121181200383666
185, ,PASS, ,0.026290289999999987, ,0.0032699237796974313, ,0.02829642818962878, ,8.611590297387143e-05, ,1.6666666666666667, ,0.6892720861964379, ,0.47566376196404153, ,0.05279484092161384
186, ,PASS, ,0.026298879999999983, ,0.0032650964886530767, ,0.028272628986143137, ,8.60661959907141e-05, ,1.6666666666666667, ,0.6900830627746185, ,0.4756229464704802, ,0.07554947858206976
187, ,PASS, ,0.026242109999999985, ,0.003257076861034319, ,0.02820441235260505, ,8.552743122262529e-05, ,1.6666666666666667, ,0.6910914170556671, ,0.475255607028428, ,0.08626354564192568
188, ,PASS, ,0.02656051999999999, ,0.0032824510752038445, ,0.028417764020734267, ,8.735543780104582e-05, ,1.6666666666666667, ,0.6900103877432613, ,0.4755004999897961, ,0.07738617579233077
189, ,PASS, ,0.026307569999999975, ,0.003268794930085781, ,0.028438492694434808, ,8.617048515879732e-05, ,1.6666666666666667, ,0.6895314289082713, ,0.47490867533315645, ,0.0786514560927328
190, ,PASS, ,0.026341489999999995, ,0.0032774744292736724, ,0.02824208882410563, ,8.638799223700581e-05, ,1.5833333333333333, ,0.6860607872232812, ,0.4742964429297361, ,0.07265157853921349
191, ,PASS, ,0.026281509999999987, ,0.0032788172787122363, ,0.028254967371686292, ,8.644619863986543e-05, ,1.6666666666666667, ,0.6933143456321336, ,0.47582702393828696, ,0.08875329074916838
192, ,PASS, ,0.026581319999999978, ,0.003269339908825872, ,0.028178419969592458, ,8.706496641165973e-05, ,1.6666666666666667, ,0.6899448879921538, ,0.4761739556335585, ,0.08418195547029653
193, ,PASS, ,0.026407919999999974, ,0.0032871063012374835, ,0.02820244210424277, ,8.69306709998839e-05, ,1.6666666666666667, ,0.6940620659425789, ,0.4755004999897961, ,0.09538580845288872
194, ,PASS, ,0.02655621999999998, ,0.0032694005696482847, ,0.028153404426440275, ,8.688796666329437e-05, ,1.5833333333333333, ,0.6836281442636765, ,0.47333727883104426, ,0.06481500377543316
195, ,PASS, ,0.026389989999999985, ,0.003276002787305559, ,0.028299500697536784, ,8.669008822350727e-05, ,1.6666666666666667, ,0.6899434297091297, ,0.4748474520928144, ,0.0405297851064264
196, ,PASS, ,0.026456049999999988, ,0.0032695761563100397, ,0.02823237388114528, ,8.662550266128292e-05, ,1.5833333333333333, ,0.6862104263348235, ,0.4757045774576029, ,0.067549641844044
197, ,PASS, ,0.02651030999999998, ,0.003273927724373216, ,0.028273099372461783, ,8.683963199608046e-05, ,1.5833333333333333, ,0.6857641300186492, ,0.47466378237178836, ,0.07418215954776433
198, ,PASS, ,0.026399899999999976, ,0.003292670230976792, ,0.028235070632231997, ,8.710121834928159e-05, ,1.6666666666666667, ,0.691470324164334, ,0.47529642252198934, ,0.08946756188649212
199, ,PASS, ,0.02642601999999998, ,0.003261083631420223, ,0.02822782186567621, ,8.643099358741807e-05, ,1.6666666666666667, ,0.686583164251454, ,0.47535764576233136, ,0.042448113303810125
200, ,PASS, ,0.02637317999999999, ,0.003240654023868618, ,0.028496964564192567, ,8.560826278372929e-05, ,1.6666666666666667, ,0.6829958267434763, ,0.4748882675863758, ,0.04106038652272403
201, ,PASS, ,0.02632759999999998, ,0.0032650653508672425, ,0.028310903569927146, ,8.607325389039276e-05, ,1.6666666666666667, ,0.686946241742114, ,0.4736025795391931, ,0.08885532948307177
202, ,PASS, ,0.02646266999999998, ,0.003267504342606754, ,0.02822787401991796, ,8.653255858130714e-05, ,1.6666666666666667, ,0.6840691112766314, ,0.47419440419583275, ,0.04677455562131385
203, ,PASS, ,0.02650968999999999, ,0.0032733222737771467, ,0.028192864105630495, ,8.702562453415398e-05, ,1.5833333333333333, ,0.6909240556150222, ,0.4755004999897961, ,0.05810085508459011
204, ,PASS, ,0.026314739999999982, ,0.0033035819383845774, ,0.028216969459602864, ,8.70139401247732e-05, ,1.5833333333333333, ,0.693527639445344, ,0.47445970490398154, ,0.09303891757311075
205, ,PASS, ,0.026520329999999967, ,0.003321906076386761, ,0.02822675828881043, ,8.823107540631044e-05, ,1.6666666666666667, ,0.6904126240133514, ,0.47411277320871004, ,0.0831003448909206
206, ,PASS, ,0.026396919999999977, ,0.003299882092182942, ,0.02835196969918981, ,8.722962719612025e-05, ,1.6666666666666667, ,0.6930457861547862, ,0.47529642252198934, ,0.09693679720822024
207, ,PASS, ,0.026505809999999977, ,0.0033352690227672665, ,0.028262455249892855, ,8.843476288977014e-05, ,1.6666666666666667, ,0.6940727894847961, ,0.4743576661700782, ,0.09014101753025448
208, ,PASS, ,0.026855639999999986, ,0.003463840692189089, ,0.028185135917430253, ,9.308566349363077e-05, ,1.75, ,0.7014310893456137, ,0.4727046386808432, ,0.08850839778780024
209, ,PASS, ,0.026608309999999972, ,0.0033385907232479106, ,0.028269446688434927, ,8.898829876176324e-05, ,1.75, ,0.6912262928667268, ,0.4743780739168588, ,0.07910042652190771
210, ,PASS, ,0.02655655999999998, ,0.0033549248116891937, ,0.028223491287116587, ,8.917458816701331e-05, ,1.75, ,0.6890488889830738, ,0.4726434154405012, ,0.08112079345319484
211, ,PASS, ,0.026918519999999987, ,0.0033704829522063443, ,0.028256160505908044, ,9.090688735541282e-05, ,1.6666666666666667, ,0.6947266121079473, ,0.4751331605477439, ,0.0861410991612416
212, ,PASS, ,0.026580879999999984, ,0.003357856744887103, ,0.028353229319401645, ,8.932880506417038e-05, ,1.75, ,0.6982132392373679, ,0.47541886900267344, ,0.09967143527683109
213, ,PASS, ,0.026961059999999995, ,0.00337543201186852, ,0.02806481326340279, ,9.106598573110026e-05, ,1.6666666666666667, ,0.6904289543737282, ,0.47368421052631576, ,0.07346788841044061
214, ,PASS, ,0.026765189999999987, ,0.0033691366650495783, ,0.028236188613905838, ,9.025026981873873e-05, ,1.75, ,0.691484777552782, ,0.47378624926021917, ,0.07926368849615315
215, ,PASS, ,0.02691851999999998, ,0.0033678343492709725, ,0.028095569445113364, ,9.076283069503936e-05, ,1.75, ,0.6928796618503795, ,0.47368421052631576, ,0.08063100753045856
216, ,PASS, ,0.027384749999999992, ,0.003519143385020321, ,0.028290282366278237, ,9.642527562605441e-05, ,1.75, ,0.6978698394458932, ,0.47327605559070224, ,0.08044733780943246
217, ,PASS, ,0.027348639999999987, ,0.0033931011364244906, ,0.028230594408073302, ,9.302689560286463e-05, ,1.6666666666666667, ,0.688493835538257, ,0.47417399644905206, ,0.048590845084794186
218, ,PASS, ,0.027117389999999984, ,0.00335969439105208, ,0.028219665668047587, ,9.125250985328264e-05, ,1.6666666666666667, ,0.6904162403617489, ,0.47456174363788495, ,0.04232566682312606
219, ,PASS, ,0.02703501999999998, ,0.0033793225609213655, ,0.02829074041590988, ,9.145856910490688e-05, ,1.75, ,0.6937265918818738, ,0.47456174363788495, ,0.08242688924715823
220, ,PASS, ,0.026878259999999987, ,0.0033428148719246618, ,0.028089640242239953, ,9.005269751990503e-05, ,1.6666666666666667, ,0.6917416048460571, ,0.47482704434603373, ,0.0631007530458562
221, ,PASS, ,0.026820069999999974, ,0.0033416402017327033, ,0.028235497238831862, ,8.975234002427209e-05, ,1.6666666666666667, ,0.6906908410721025, ,0.47492908307993714, ,0.08912063019122059
222, ,PASS, ,0.026823949999999982, ,0.003342842666168501, ,0.028190749165935388, ,8.971383412689012e-05, ,1.75, ,0.6897844736512152, ,0.47325564784392155, ,0.07316177220873044
223, ,PASS, ,0.026483979999999987, ,0.003355339424850506, ,0.028254902985653352, ,8.893968675780779e-05, ,1.75, ,0.6965967341679419, ,0.47501071406705986, ,0.09418175139282872
224, ,PASS, ,0.026798019999999978, ,0.0033488133787856296, ,0.02820536162445664, ,8.980960478344596e-05, ,1.6666666666666667, ,0.6889369479576362, ,0.47448011265076223, ,0.08232485051325483
225, ,PASS, ,0.026689599999999983, ,0.0033303652961936612, ,0.028156695844574597, ,8.892409394990849e-05, ,1.75, ,0.6843949562552992, ,0.4730107548825534, ,0.05957021285279892
226, ,PASS, ,0.026750489999999967, ,0.003314081324792159, ,0.028243312544846022, ,8.878035192713319e-05, ,1.5833333333333333, ,0.6918699257206299, ,0.4751739760413053, ,0.08538601253035652
227, ,PASS, ,0.026536739999999975, ,0.0033592350362160236, ,0.02829444848411257, ,8.918635519134653e-05, ,1.75, ,0.6937273312301492, ,0.47370461827309646, ,0.06479459602865248
228, ,PASS, ,0.026551399999999992, ,0.0033399040704120025, ,0.028260954653578495, ,8.878016852446402e-05, ,1.6666666666666667, ,0.6893281022024547, ,0.47494949082671784, ,0.08342686883941144
229, ,PASS, ,0.02634282999999998, ,0.003282661422915146, ,0.02829699879104508, ,8.651888014465677e-05, ,1.5833333333333333, ,0.6877028603141926, ,0.47490867533315645, ,0.08246770474071957
230, ,PASS, ,0.026505929999999983, ,0.0032924870273056167, ,0.028287622557906983, ,8.723624883732679e-05, ,1.75, ,0.6867675861254107, ,0.47399032672802593, ,0.057223321973020956
231, ,PASS, ,0.026778599999999986, ,0.0032530266936625475, ,0.0282912726111712, ,8.727992384634989e-05, ,1.6666666666666667, ,0.6734938834557055, ,0.47411277320871004, ,0.02771372012816065
232, ,PASS, ,0.026492279999999993, ,0.003352005028725137, ,0.028133004720515907, ,8.869461631415465e-05, ,1.75, ,0.6927257646179493, ,0.4739086957409033, ,0.08761045692945042
233, ,PASS, ,0.026671759999999982, ,0.003362815265944179, ,0.028208898997163324, ,8.978768804322965e-05, ,1.75, ,0.6930858016508389, ,0.4731944246035795, ,0.08403910124283177
234, ,PASS, ,0.02683681999999999, ,0.0034111944653767608, ,0.02810964428664721, ,9.157890196220144e-05, ,1.75, ,0.6947143976668034, ,0.4751535682945246, ,0.09475316830268771
235, ,PASS, ,0.026857819999999977, ,0.00338966903063435, ,0.028367928362890555, ,9.103712789846069e-05, ,1.75, ,0.6922415484865336, ,0.47409236546192934, ,0.07493724617864941
236, ,PASS, ,0.027008959999999988, ,0.0034217376117114673, ,0.028273465749066345, ,9.241525641549996e-05, ,1.75, ,0.6944139260493272, ,0.47215362951776496, ,0.08505948858186567
237, ,PASS, ,0.027134419999999992, ,0.003438021577730375, ,0.02818140448092896, ,9.331470678257761e-05, ,1.75, ,0.6929132175486965, ,0.47333727883104426, ,0.07838615538458399
238, ,PASS, ,0.027247009999999988, ,0.00347421822638271, ,0.028202769283279933, ,9.469962456917876e-05, ,1.75, ,0.6978462338449625, ,0.4727250464276239, ,0.09152874431134059
239, ,PASS, ,0.027381800000000005, ,0.0034124988540487704, ,0.028370226853941756, ,9.342699437999586e-05, ,1.75, ,0.6800263639093113, ,0.4727046386808432, ,0.04259096753127487
240, ,PASS, ,0.027632219999999985, ,0.0035004117915567066, ,0.02816923019101651, ,9.671978917915056e-05, ,1.75, ,0.6931678818741542, ,0.4720107752903002, ,0.0855084590110406
241, ,PASS, ,0.027886760000000007, ,0.003539075081800252, ,0.028104575259280423, ,9.879518991179952e-05, ,1.75, ,0.6993434621903456, ,0.47374543376665784, ,0.07981469765923145
242, ,PASS, ,0.027907610000000006, ,0.003535790321527891, ,0.028222309394298074, ,9.875636049164458e-05, ,1.75, ,0.6959510531656511, ,0.4726230076937205, ,0.05444786841084876
243, ,PASS, ,0.027675530000000007, ,0.0035795514891262085, ,0.028190069817146588, ,9.906032190415637e-05, ,1.75, ,0.7003863602838168, ,0.4730515703761148, ,0.08705944776637212
244, ,PASS, ,0.02808924, ,0.003582684808537573, ,0.02806350812391584, ,0.0001006007966519839, ,1.75, ,0.6971694696872155, ,0.4731127936164568, ,0.09007979428991245
245, ,PASS, ,0.02789811000000001, ,0.003603944586624483, ,0.028203740003469317, ,0.0001005934759205578, ,1.75, ,0.6992724637892644, ,0.4730107548825534, ,0.08077386175792331
246, ,PASS, ,0.027922680000000012, ,0.003616446949712154, ,0.028304818789004305, ,0.00010102348672302183, ,1.75, ,0.6993758619327272, ,0.4727658619211853, ,0.05120303667272096
247, ,PASS, ,0.027799529999999992, ,0.0036016882073674197, ,0.028074253495438867, ,0.00010022278422939928, ,1.75, ,0.7023826270421064, ,0.47343931756494767, ,0.09387563519111855
248, ,PASS, ,0.02801516, ,0.003595712867635609, ,0.028083728880635088, ,0.00010082342425396561, ,1.75, ,0.6967463832499649, ,0.47370461827309646, ,0.06081508540642028
249, ,PASS, ,0.027883410000000004, ,0.003579072441748885, ,0.02826292298830636, ,9.985203191573089e-05, ,1.75, ,0.6994291757219622, ,0.47325564784392155, ,0.0909573274014816
250, ,PASS, ,0.027999780000000005, ,0.0035380286222889395, ,0.028219227364951735, ,9.921176338504663e-05, ,1.75, ,0.6966227852715441, ,0.47419440419583275, ,0.06842717495561315
251, ,PASS, ,0.027775459999999995, ,0.0035494029984391054, ,0.028083094528274934, ,9.861082300803835e-05, ,1.75, ,0.6949320760325677, ,0.4727046386808432, ,0.07965143568498602
252, ,FAIL, ,0.0025614900000000135, ,0.00010483277049735681, ,0.028092129901226507, ,2.960171009925091e-07, ,1.0833333333333333, ,0.3371860810955062, ,0.5683557478418808, ,0.012081386094161343
253, ,PASS, ,0.027020599999999978, ,0.0034599487750082035, ,0.0280893804963164, ,9.342896585060514e-05, ,1.75, ,0.6933488754824018, ,0.47317401685679883, ,0.055141731801391806
254, ,PASS, ,0.02730436, ,0.003487543304235385, ,0.028042313536050283, ,9.532299604026563e-05, ,1.75, ,0.6979102518405267, ,0.47454133589110425, ,0.085039080835085
255, ,PASS, ,0.024509509999999988, ,0.002585130272400461, ,0.028748916927205565, ,6.380134160919156e-05, ,1.4166666666666667, ,0.6356742406114954, ,0.4842962388522683, ,0.06122324034203384
