Channel, ,Pass/Fail, ,Amplitude, ,Sorting Function Response, ,Mean, ,Variance, ,NPeaksRatio, ,PosIntegralRatio, ,ToT50, ,ToT99
0, ,PASS, ,0.04525748300000001, ,0.007091487181111693, ,0.030198699555519275, ,0.0003234181574953201, ,1.9166666666666667, ,0.7720965425402716, ,0.5325605599885717, ,0.12230362645660292
1, ,PASS, ,0.04484056100000003, ,0.007012015657066235, ,0.02996146058368197, ,0.00031714917379680146, ,1.9166666666666667, ,0.7761837309388327, ,0.532662598722475, ,0.139344095018469
2, ,PASS, ,0.044987135, ,0.007087460295247431, ,0.03026937540370605, ,0.00032141973095864683, ,1.9166666666666667, ,0.7758627826229179, ,0.531846288851248, ,0.12809942654231546
3, ,PASS, ,0.04476101100000001, ,0.007006087156317184, ,0.03028850712858922, ,0.00031615272747087574, ,1.8333333333333333, ,0.7741672031498358, ,0.5365604783575846, ,0.12975245403155036
4, ,PASS, ,0.04471310900000001, ,0.006979639955792283, ,0.030352565940042042, ,0.00031479270125817137, ,1.9166666666666667, ,0.7743218027519001, ,0.532601375482133, ,0.13258913083406462
5, ,PASS, ,0.044725282000000005, ,0.006907897679435351, ,0.030127317310646728, ,0.0003114712024867559, ,1.9166666666666667, ,0.7736134218658407, ,0.5315809881430992, ,0.1255688659415114
6, ,PASS, ,0.04440620500000002, ,0.006947750088222961, ,0.030142074978326973, ,0.0003110681665770688, ,1.9166666666666667, ,0.7749392738843066, ,0.5327238219628171, ,0.1269565927225975
7, ,PASS, ,0.044431032000000016, ,0.006868983757113047, ,0.030127142977143327, ,0.0003075493265435866, ,1.9166666666666667, ,0.7684372911930225, ,0.5354584600314279, ,0.11146711291606294
8, ,PASS, ,0.04459478900000002, ,0.006953274877279159, ,0.030211228019162876, ,0.00031264714900285215, ,1.9166666666666667, ,0.7750155028177974, ,0.532540152241791, ,0.13718087385971714
9, ,PASS, ,0.044405849000000025, ,0.007014351829834285, ,0.030242104592763417, ,0.00031384924727289644, ,1.9166666666666667, ,0.7790088864483553, ,0.5321115895593967, ,0.1497112303830534
10, ,PASS, ,0.044121817000000015, ,0.006912449742452452, ,0.030311954245097042, ,0.00030752220427009754, ,1.9166666666666667, ,0.7742838631270775, ,0.5317034346237832, ,0.13771147527601477
11, ,PASS, ,0.04403401700000001, ,0.0069018808654807825, ,0.030116639749739806, ,0.0003062494786091575, ,1.9166666666666667, ,0.7762697782805774, ,0.532091181812616, ,0.14607865145609272
12, ,PASS, ,0.04465929900000001, ,0.006979422527987835, ,0.03023600988298198, ,0.00031437163648813686, ,1.9166666666666667, ,0.7758350187447629, ,0.5309687557396788, ,0.1347319442460358
13, ,PASS, ,0.06536870100000004, ,0.009739436118768947, ,0.03112152623448502, ,0.0006424949569659415, ,1.75, ,0.7704527284777157, ,0.5473357686577824, ,0.21389359400828553
14, ,PASS, ,0.07836705000000004, ,0.012590954516345402, ,0.02846653986339056, ,0.0009920883568804136, ,1.8333333333333333, ,0.8385752976452437, ,0.5773147486785984, ,0.38242076692312404
15, ,PASS, ,0.035311546, ,0.006130060073448043, ,0.02914102768739413, ,0.00021796624947230137, ,1.8333333333333333, ,0.811279247848147, ,0.5144997040876716, ,0.09934491132834024
16, ,PASS, ,0.03334563999999999, ,0.005809572750478161, ,0.02895460574233179, ,0.00019512418587836912, ,1.8333333333333333, ,0.8118103570732355, ,0.5132956470276117, ,0.08995734780922839
17, ,PASS, ,0.03330994999999999, ,0.005806529951313765, ,0.029055930357543724, ,0.00019480877471851507, ,1.8333333333333333, ,0.8138749602865566, ,0.513785432950348, ,0.10989571641395074
18, ,PASS, ,0.033645938999999986, ,0.0058693336954503544, ,0.028933774262361996, ,0.0001988312286116107, ,1.8333333333333333, ,0.813337263214879, ,0.5145609273280137, ,0.11593640946103141
19, ,PASS, ,0.03324099999999999, ,0.005804134012743692, ,0.029048666393134838, ,0.00019423324778875816, ,1.8333333333333333, ,0.8127773089276977, ,0.5151731597314341, ,0.11220179180016734
20, ,PASS, ,0.03329504999999999, ,0.0057753793114990355, ,0.02889787206016204, ,0.00019351964351704145, ,1.8333333333333333, ,0.8087316237727064, ,0.5132344237872697, ,0.0805085610497745
21, ,PASS, ,0.03371182999999999, ,0.005790448574927304, ,0.02888951938021673, ,0.0001964842883636281, ,1.8333333333333333, ,0.800887636770479, ,0.5113160955898859, ,0.06926389257362095
22, ,PASS, ,0.03333229999999998, ,0.005808358349212393, ,0.029048035063978284, ,0.00019497362547266168, ,1.8333333333333333, ,0.8130806492174122, ,0.5145201118344523, ,0.11352829534091141
23, ,PASS, ,0.03347105999999999, ,0.005801691179847047, ,0.02873121644537867, ,0.0001955119589664207, ,1.8333333333333333, ,0.811302991275048, ,0.5117038427787188, ,0.11867104752964225
24, ,PASS, ,0.03336718999999999, ,0.005807803931446122, ,0.028985611398746964, ,0.0001951963803075069, ,1.8333333333333333, ,0.8142732548344194, ,0.5147445970490399, ,0.12328319830207547
25, ,PASS, ,0.03327929999999998, ,0.005813961166075387, ,0.029025830501622416, ,0.00019480777754123934, ,1.8333333333333333, ,0.8151412617880374, ,0.513785432950348, ,0.12458929409603886
26, ,PASS, ,0.03333492, ,0.0058006942600898, ,0.02882086185547234, ,0.00019480728541744114, ,1.8333333333333333, ,0.814681646210021, ,0.5157241688945123, ,0.1162221179159609
27, ,PASS, ,0.033568319999999985, ,0.00577513422373902, ,0.028865563059121243, ,0.00019512642409171308, ,1.8333333333333333, ,0.8087285870478209, ,0.5151731597314341, ,0.10987530866717006
28, ,PASS, ,0.033212200000000004, ,0.005792410620431342, ,0.028921581355890697, ,0.00019382026537032363, ,1.8333333333333333, ,0.8157857953425522, ,0.5150915287443113, ,0.12250770392440971
29, ,PASS, ,0.03327640999999999, ,0.005805524401614795, ,0.02908222181486092, ,0.00019446216069991945, ,1.8333333333333333, ,0.8141077984061623, ,0.514418073100549, ,0.1171404665210914
30, ,PASS, ,0.033111069999999986, ,0.00581252428630985, ,0.02914105697210261, ,0.00019379889487847494, ,1.8333333333333333, ,0.8169222663095796, ,0.5144384808473297, ,0.12218117997591886
31, ,PASS, ,0.03318037999999998, ,0.005760487309810872, ,0.029327353631966695, ,0.0001926396165334895, ,1.9166666666666667, ,0.8130314775208188, ,0.5185200302034653, ,0.10803861145690904
32, ,PASS, ,0.03296973999999998, ,0.00574299548701258, ,0.02901485231383033, ,0.00019072910018933713, ,1.8333333333333333, ,0.8120271645089595, ,0.5139691026713741, ,0.10044692965449685
33, ,PASS, ,0.033104869999999995, ,0.005736902510390002, ,0.028897797811677315, ,0.00019126839810990631, ,1.8333333333333333, ,0.8070951553460954, ,0.5139486949245934, ,0.10207954939695109
34, ,PASS, ,0.03328444999999998, ,0.0056971641416742585, ,0.028782809482051388, ,0.00019074821567507808, ,1.8333333333333333, ,0.8000092184541764, ,0.5110916103752985, ,0.06185588049223485
35, ,PASS, ,0.03313309, ,0.005718562002902785, ,0.02886074301218343, ,0.00019067410889280124, ,1.8333333333333333, ,0.8037421932776727, ,0.5127446378645334, ,0.0912430358564111
36, ,PASS, ,0.03345334999999999, ,0.005707719341260602, ,0.029142580201016306, ,0.0001922418413505264, ,1.8333333333333333, ,0.8103058525748135, ,0.5160506928430032, ,0.06869247566376196
37, ,PASS, ,0.033213919999999994, ,0.005784544338355629, ,0.028925255658047797, ,0.00019347685238127701, ,1.8333333333333333, ,0.8128395382530149, ,0.5164588477786167, ,0.11273239321646497
38, ,PASS, ,0.03316471000000001, ,0.005756697292531682, ,0.02897660416767005, ,0.00019228084367325847, ,1.8333333333333333, ,0.814289530338784, ,0.5153772371992408, ,0.11677312707903921
39, ,PASS, ,0.03294847999999999, ,0.005737410604563461, ,0.028906980913858904, ,0.0001904331944832148, ,1.8333333333333333, ,0.8153787472459002, ,0.5154180526928022, ,0.12020162853819309
40, ,PASS, ,0.033135319999999996, ,0.005705762827860442, ,0.02888222262198731, ,0.0001904188558153936, ,1.8333333333333333, ,0.8078001746970582, ,0.5169282259545723, ,0.05342748107181486
41, ,PASS, ,0.03300324, ,0.005745664131126768, ,0.028536668533295242, ,0.0001909965432069507, ,1.8333333333333333, ,0.8143059994841482, ,0.5155404991734862, ,0.10220199587763515
42, ,PASS, ,0.03306297000000001, ,0.005815944532775995, ,0.02872164612232404, ,0.00019356385552532726, ,1.8333333333333333, ,0.8174354935953512, ,0.5155609069202669, ,0.1307524336238036
43, ,PASS, ,0.033200089999999995, ,0.005813004934187192, ,0.028637711036713538, ,0.0001945154861272711, ,1.8333333333333333, ,0.8177797371536819, ,0.5155200914267056, ,0.1303850941817514
44, ,PASS, ,0.03321154000000001, ,0.00577710525704587, ,0.028768554086039063, ,0.00019317975570633583, ,1.8333333333333333, ,0.8130294659314494, ,0.5152547907185567, ,0.10250811207934532
45, ,PASS, ,0.03326124999999999, ,0.00576989906354183, ,0.02894597513152793, ,0.00019322300608475677, ,1.8333333333333333, ,0.8080657257760848, ,0.5188057386583947, ,0.09499806126405584
46, ,PASS, ,0.03317741000000001, ,0.0057484921980586945, ,0.02856938108018204, ,0.0001922076163581904, ,1.8333333333333333, ,0.8112858403785479, ,0.5131936082937083, ,0.10358972265872125
47, ,PASS, ,0.03353760999999998, ,0.005869369023379321, ,0.028855351606293753, ,0.00019832630759735267, ,1.8333333333333333, ,0.8169467847609794, ,0.5157853921348544, ,0.11846697006183547
48, ,PASS, ,0.033195850000000006, ,0.005777808772390519, ,0.028663947597804128, ,0.00019329175992853132, ,1.8333333333333333, ,0.811333223795768, ,0.513907879431032, ,0.10952837697189853
49, ,PASS, ,0.033072349000000015, ,0.005787716055346592, ,0.028674638084324813, ,0.00019280996102245536, ,1.8333333333333333, ,0.8149323449439835, ,0.5145609273280137, ,0.10991612416073142
50, ,PASS, ,0.033033756000000004, ,0.005785792477594764, ,0.028820365536417626, ,0.00019262699393927943, ,1.8333333333333333, ,0.816958757071365, ,0.5153160139588988, ,0.12950756107018224
51, ,PASS, ,0.03327361, ,0.005757544569481309, ,0.028675578274320934, ,0.00019317493905428085, ,1.8333333333333333, ,0.8105750913158547, ,0.5141527723924002, ,0.1076100487745148
52, ,PASS, ,0.03312568999999999, ,0.005833187345035995, ,0.028748510813656866, ,0.00019464340349034897, ,1.8333333333333333, ,0.817711881395961, ,0.5150098977571886, ,0.12028325952531581
53, ,PASS, ,0.033230279999999994, ,0.005722875450346235, ,0.028860470102038738, ,0.00019141803434632665, ,1.8333333333333333, ,0.8111527696320256, ,0.5151527519846534, ,0.07114140527744332
54, ,PASS, ,0.033089889000000004, ,0.0057603334159322325, ,0.028755473860737537, ,0.00019187824172033562, ,1.8333333333333333, ,0.8148492213207243, ,0.5154180526928022, ,0.07150874471949552
55, ,PASS, ,0.03385979, ,0.0059176557188202784, ,0.02884203205771311, ,0.00020187836285922426, ,1.8333333333333333, ,0.8165188038189274, ,0.5160915083365646, ,0.1024264810922226
56, ,PASS, ,0.03350645999999999, ,0.005803584978946295, ,0.028856467913920124, ,0.00019559168770013531, ,1.8333333333333333, ,0.8078469404154586, ,0.5153364217056795, ,0.09642660353870329
57, ,PASS, ,0.033222539999999995, ,0.005808143874447204, ,0.028865973037489032, ,0.00019426862264467035, ,1.8333333333333333, ,0.8117969793379185, ,0.5143772576069876, ,0.09963061978326973
58, ,PASS, ,0.03330163, ,0.0058056999925028665, ,0.028820825663966043, ,0.00019490321191681752, ,1.8333333333333333, ,0.8126178644794863, ,0.5149486745168466, ,0.10518152690761413
59, ,PASS, ,0.033206579999999986, ,0.005791293325306199, ,0.028799711560784477, ,0.00019364795436165933, ,1.8333333333333333, ,0.815909793862505, ,0.514989490010408, ,0.11528336156404971
60, ,PASS, ,0.03327715, ,0.0058306715751855745, ,0.02876692297034755, ,0.00019545721185652753, ,1.8333333333333333, ,0.815473094028389, ,0.515234382971776, ,0.11267116997612293
61, ,PASS, ,0.033607389999999994, ,0.005783494232673755, ,0.02892904669435318, ,0.00019587574665313475, ,1.8333333333333333, ,0.8060441712743704, ,0.5148874512765046, ,0.06252933613599722
62, ,PASS, ,0.03342759, ,0.005805226106213668, ,0.02863393665333361, ,0.00019526350413451963, ,1.8333333333333333, ,0.8087942542317946, ,0.5135609477357604, ,0.06408032489132875
63, ,PASS, ,0.033338519, ,0.005842936237947812, ,0.02879027730985082, ,0.00019627611237210688, ,1.8333333333333333, ,0.8157388839386301, ,0.5151527519846534, ,0.11540580804473378
64, ,PASS, ,0.03332249000000001, ,0.005845392988229876, ,0.028773813240954266, ,0.00019607980121844642, ,1.8333333333333333, ,0.8157091286169685, ,0.515622130160609, ,0.12048733699312258
65, ,PASS, ,0.033327899999999994, ,0.005810383127245504, ,0.02874808108569213, ,0.00019508931422966983, ,1.8333333333333333, ,0.8159012919860397, ,0.5139282871778127, ,0.11124262770147549
66, ,PASS, ,0.03311470999999999, ,0.005791405487548414, ,0.028779848618191467, ,0.00019315109412398947, ,1.8333333333333333, ,0.8175809217336747, ,0.5169690414481337, ,0.07473316871084264
67, ,PASS, ,0.03303361000000001, ,0.005797545492259357, ,0.02876452849166344, ,0.00019305357949753746, ,1.8333333333333333, ,0.816561270556096, ,0.5143160343666455, ,0.08138609416134365
68, ,PASS, ,0.03342567, ,0.00579973794407424, ,0.02866912046754148, ,0.00019503100005098805, ,1.8333333333333333, ,0.8102405345243218, ,0.5141527723924002, ,0.09861023244423583
69, ,PASS, ,0.03327671999999999, ,0.005817840682978956, ,0.028767751332625865, ,0.00019504923674567353, ,1.8333333333333333, ,0.8155404874926729, ,0.513907879431032, ,0.12669129201444868
70, ,PASS, ,0.03310622499999999, ,0.005771844559668079, ,0.028701793546866392, ,0.00019237054346099593, ,1.8333333333333333, ,0.8208742264442358, ,0.5164792555253974, ,0.14501744862349747
71, ,PASS, ,0.033050616000000005, ,0.005792533770278272, ,0.028511642764025225, ,0.00019272964369968166, ,1.8333333333333333, ,0.8186777588679537, ,0.5158874308687578, ,0.1282422807697802
72, ,PASS, ,0.032822189999999994, ,0.005745408169775048, ,0.028843562755249894, ,0.00018990187020481364, ,1.8333333333333333, ,0.817899386115085, ,0.5157649843880737, ,0.11995673557682496
73, ,PASS, ,0.03266950000000001, ,0.005688801100294714, ,0.028696716058243713, ,0.0001873656663805644, ,1.8333333333333333, ,0.8160092822927159, ,0.5154180526928022, ,0.12099753066263953
74, ,PASS, ,0.03248765000000002, ,0.005696716977877205, ,0.028510699334911536, ,0.00018626050426228692, ,1.8333333333333333, ,0.8185010283547772, ,0.51505071325075, ,0.12379339197159242
75, ,PASS, ,0.032481600000000006, ,0.0057030328905530924, ,0.028715539211852822, ,0.00018657049415711957, ,1.8333333333333333, ,0.8168985478381182, ,0.5150303055039693, ,0.1228750433664619
76, ,PASS, ,0.03243809000000002, ,0.005655093664785867, ,0.028710213967265974, ,0.00018476652447153467, ,1.8333333333333333, ,0.8131692442663805, ,0.5150915287443113, ,0.10532438113507887
77, ,PASS, ,0.03221684000000001, ,0.005635417947542446, ,0.02884714209485521, ,0.00018287960560586328, ,1.8333333333333333, ,0.8174598891892233, ,0.5147241893022592, ,0.11601804044815411
78, ,PASS, ,0.03228791, ,0.0056353592754898076, ,0.02862532909103896, ,0.00018318315234348433, ,1.8333333333333333, ,0.8148250497979772, ,0.5148058202893818, ,0.11005897838819616
79, ,PASS, ,0.03235708000000001, ,0.005617313066494444, ,0.028568016426807622, ,0.00018295487556736943, ,1.8333333333333333, ,0.8144267298240553, ,0.5153160139588988, ,0.09534499295932736
80, ,PASS, ,0.032588090000000014, ,0.005667422964780526, ,0.028719806546805168, ,0.00018603804448122122, ,1.8333333333333333, ,0.8123188680700393, ,0.5142548111263036, ,0.09965102753005041
81, ,PASS, ,0.03264014999999999, ,0.005650760039101652, ,0.02868263721924043, ,0.0001859819259111108, ,1.8333333333333333, ,0.8116225220338003, ,0.5143568498602069, ,0.07385563559927348
82, ,PASS, ,0.03247951, ,0.005685340630875684, ,0.028582171007530462, ,0.00018595133446524162, ,1.8333333333333333, ,0.8155941280632178, ,0.5139895104181548, ,0.11691598130650395
83, ,PASS, ,0.03267696, ,0.005699194241591476, ,0.028620206761698744, ,0.0001874977089320835, ,1.8333333333333333, ,0.8112656901197922, ,0.5142548111263036, ,0.09918164935409482
84, ,PASS, ,0.03249383000000001, ,0.0057084407386145865, ,0.028546946534968677, ,0.00018690875741173615, ,1.8333333333333333, ,0.8184740919385429, ,0.5146017428215751, ,0.12797698006163138
85, ,PASS, ,0.03269188000000001, ,0.005729372484013532, ,0.02868635035631926, ,0.00018849722860995327, ,1.8333333333333333, ,0.8145312554406577, ,0.5143772576069876, ,0.122426072937287
86, ,PASS, ,0.03247594, ,0.005733312150035402, ,0.02856010389400217, ,0.00018753695357101848, ,1.8333333333333333, ,0.8198134135588897, ,0.5148670435297239, ,0.11995673557682496
87, ,PASS, ,0.033099107, ,0.005817951777688435, ,0.028529363578702477, ,0.00019402864437619434, ,1.8333333333333333, ,0.8199378746470535, ,0.5145201118344523, ,0.1270586314565009
88, ,PASS, ,0.058793588800000005, ,0.008963659222327367, ,0.030458292382435175, ,0.0005315505303863889, ,1.9166666666666667, ,0.7685667445160945, ,0.5344584804391748, ,0.14252770351625477
89, ,PASS, ,0.08024675000000003, ,0.012517595145982973, ,0.02840192011995675, ,0.0010100090558563494, ,1.8333333333333333, ,0.8347074143798812, ,0.5851921389359401, ,0.375767841472623
90, ,PASS, ,0.04238922400000001, ,0.007205489575781111, ,0.029497669711699766, ,0.0003077703631480594, ,1.8333333333333333, ,0.8072687019819096, ,0.5229893267484337, ,0.13899716332319748
91, ,PASS, ,0.040863776000000004, ,0.006979348476190173, ,0.02931192885271729, ,0.0002871326877677217, ,1.8333333333333333, ,0.8100546236717255, ,0.52347911267117, ,0.14946633742168527
92, ,PASS, ,0.040563137000000006, ,0.006928784713505217, ,0.029271843056427417, ,0.00028324805940921235, ,1.8333333333333333, ,0.8093133884758319, ,0.5225199485724781, ,0.1408338605334585
93, ,PASS, ,0.040570718000000006, ,0.006909314753439521, ,0.029221489800595905, ,0.0002821424291608089, ,1.8333333333333333, ,0.8097090729700276, ,0.5209077365768046, ,0.13746658231464665
94, ,PASS, ,0.04043402600000001, ,0.006888110917882624, ,0.02939057651725475, ,0.0002805119733478429, ,1.8333333333333333, ,0.8076564344636308, ,0.5223362788514521, ,0.12528315748658192
95, ,PASS, ,0.04032824399999999, ,0.0068575829386929845, ,0.029107241324523987, ,0.0002783926616541751, ,1.8333333333333333, ,0.8070939545190595, ,0.5220097549029612, ,0.1257525356625375
96, ,PASS, ,0.039739837999999986, ,0.006777159045724509, ,0.029179658536642106, ,0.00027127449258374404, ,1.8333333333333333, ,0.808774118602075, ,0.5243770535295198, ,0.13928287177812698
97, ,PASS, ,0.039644912000000004, ,0.006745758798366397, ,0.02937057736925777, ,0.00026929277358161475, ,1.8333333333333333, ,0.80946407937564, ,0.5238464521132222, ,0.1374869900614273
98, ,PASS, ,0.03968553899999999, ,0.006700319266439341, ,0.029204546645088873, ,0.00026774476087298754, ,1.8333333333333333, ,0.807270714784254, ,0.5233158506969245, ,0.13042590967531276
99, ,PASS, ,0.039623641, ,0.006717915283504943, ,0.029338306115813957, ,0.0002681901065993726, ,1.8333333333333333, ,0.8054289990090845, ,0.5217240464480317, ,0.11083447276586192
100, ,PASS, ,0.03897440099999999, ,0.006638492316986593, ,0.02912557038419624, ,0.00026067740544339713, ,1.8333333333333333, ,0.8112963467386757, ,0.5230913654823371, ,0.1396298034733985
101, ,PASS, ,0.03907015800000001, ,0.00668390981578628, ,0.029153201346074565, ,0.0002629678709279019, ,1.8333333333333333, ,0.8070747664751164, ,0.5197036795167446, ,0.12283422787290055
102, ,PASS, ,0.03879878199999999, ,0.006601791361021476, ,0.029358967213342583, ,0.00025821930653742903, ,1.8333333333333333, ,0.8083057660017036, ,0.5254586641088957, ,0.12765045611314055
103, ,FAIL, ,0.005806740000000008, ,0.0003584212235474883, ,0.027718090990183877, ,2.118156056080072e-06, ,1.25, ,0.34519437829089766, ,0.42790963449725516, ,0.006734556437623722
104, ,PASS, ,0.03925928499999999, ,0.006711779517079802, ,0.029134154509724286, ,0.0002653351320634958, ,1.8333333333333333, ,0.8114527288704323, ,0.5227648415338463, ,0.1445480704475419
105, ,PASS, ,0.04013721500000001, ,0.006756994188219114, ,0.02899849726942307, ,0.0002730468288589084, ,1.8333333333333333, ,0.7989356579062524, ,0.5215199689802249, ,0.0829983061570172
106, ,PASS, ,0.040023618, ,0.006834542746275076, ,0.029148791334421744, ,0.0002755670495575211, ,1.8333333333333333, ,0.8100316639022804, ,0.5239484908471256, ,0.14405828452480562
107, ,PASS, ,0.040783687999999985, ,0.0068710254347011885, ,0.029248634660394686, ,0.0002822083384064494, ,1.8333333333333333, ,0.7997514801746854, ,0.5226423950531622, ,0.08024326034162568
108, ,PASS, ,0.04114759700000001, ,0.006930176688570344, ,0.02933706443217485, ,0.0002875366363123274, ,1.8333333333333333, ,0.8049280319966355, ,0.5249076549458175, ,0.11963021162833412
