Channel, ,Pass/Fail, ,Amplitude, ,Sorting Function Response, ,Mean, ,Variance, ,NPeaksRatio, ,PosIntegralRatio, ,ToT50, ,ToT99
15, ,PASS, ,0.027148770000000013, ,0.00454953836647764, ,0.0316441829064713, ,0.00012571293534987296, ,1.9166666666666667, ,0.8292963992172142, ,0.5981102426481092, ,0.057202914226240284
16, ,PASS, ,0.09029565000000003, ,0.015845189609110702, ,0.037534161760984466, ,0.0014565130355384897, ,1.9166666666666667, ,0.8493604370033828, ,0.5977633109528377, ,0.17199648986755373
17, ,PASS, ,0.070285364, ,0.012364809249088681, ,0.035725858585334995, ,0.0008844732449129813, ,2.0, ,0.8557332098618831, ,0.5965796616395583, ,0.15216015999673477
18, ,PASS, ,0.02194322000000001, ,0.003525326279866968, ,0.0311313929417767, ,7.867513449249078e-05, ,1.8333333333333333, ,0.8194000720869976, ,0.5980490194077672, ,0.10565090508356972
19, ,PASS, ,0.02059444000000001, ,0.003346071512248363, ,0.031177428087794123, ,7.011526133212745e-05, ,1.8333333333333333, ,0.8305258550790582, ,0.5984367665966001, ,0.09767147609232464
20, ,PASS, ,0.01981726999999999, ,0.0031752836825885184, ,0.03087302209607967, ,6.402119822812906e-05, ,1.8333333333333333, ,0.8179585477491466, ,0.597742903206057, ,0.06193751147935756
21, ,PASS, ,0.01965754999999999, ,0.0032197288567914818, ,0.03073579552111181, ,6.438944886286521e-05, ,1.8333333333333333, ,0.8307070341514995, ,0.5982530968755739, ,0.09861023244423583
22, ,PASS, ,0.020293460000000006, ,0.0033114941275857604, ,0.031060325133772777, ,6.834664814742539e-05, ,1.8333333333333333, ,0.829225130945928, ,0.5977224954592764, ,0.11656904961123242
23, ,PASS, ,0.020121869999999993, ,0.0032953945702980433, ,0.030769707386583942, ,6.747221140650529e-05, ,1.9166666666666667, ,0.8342939591318972, ,0.5987836982918716, ,0.10646721495479684
24, ,PASS, ,0.01977963, ,0.003200566443744096, ,0.030664205621722004, ,6.432234238248909e-05, ,1.8333333333333333, ,0.8218833560153833, ,0.5935184996224567, ,0.0817942490969572
25, ,PASS, ,0.01986572, ,0.003215134062400847, ,0.030786504264402766, ,6.500952596419136e-05, ,1.9166666666666667, ,0.8249344141065247, ,0.5979877961674251, ,0.06610069182261587
26, ,PASS, ,0.01957599999999999, ,0.0031717274078793575, ,0.030996054159915097, ,6.313332095575078e-05, ,1.8333333333333333, ,0.8275365491072881, ,0.5979469806738638, ,0.08597783718699618
27, ,PASS, ,0.019275969999999996, ,0.0031866735480563023, ,0.030803973476051506, ,6.25004131884848e-05, ,1.9166666666666667, ,0.8358802593822547, ,0.5972123017897594, ,0.11858941654251955
28, ,PASS, ,0.019504739999999996, ,0.0031591514954327224, ,0.030740547265566003, ,6.268282770814777e-05, ,1.8333333333333333, ,0.827785742164062, ,0.5974980102446888, ,0.07695761310993653
29, ,PASS, ,0.01950442999999999, ,0.0031800602860841357, ,0.030936070595293966, ,6.308037472528876e-05, ,1.8333333333333333, ,0.8344091374720226, ,0.5990694067468011, ,0.06954960102855044
30, ,PASS, ,0.019248989999999983, ,0.003166166529543849, ,0.030867523133405437, ,6.195063542772068e-05, ,1.8333333333333333, ,0.8336316353170677, ,0.5984163588498194, ,0.10138568600640803
31, ,PASS, ,0.019610079999999988, ,0.0031247871033408875, ,0.03089388378339217, ,6.228668855151648e-05, ,1.8333333333333333, ,0.8123490342984728, ,0.5974980102446888, ,0.04630517744535826
32, ,PASS, ,0.01903058999999999, ,0.0030587966162295126, ,0.030777148141058343, ,5.9219102130949846e-05, ,1.8333333333333333, ,0.8224821941727175, ,0.5980286116609865, ,0.055549886737005366
33, ,PASS, ,0.01906929999999999, ,0.0031047156431352947, ,0.030827350025305598, ,6.014641461189073e-05, ,1.8333333333333333, ,0.8250554239241904, ,0.5984979898369421, ,0.10109997755147854
34, ,PASS, ,0.019404480000000005, ,0.0030977471249248375, ,0.030798795798657165, ,6.108354187994967e-05, ,1.8333333333333333, ,0.822762709644823, ,0.5964980306524357, ,0.0879165731311606
35, ,PASS, ,0.01918348999999999, ,0.0030934476382883562, ,0.030852130586926794, ,6.0303775332678345e-05, ,1.8333333333333333, ,0.825661956273769, ,0.5982326891287932, ,0.12989530825901513
36, ,PASS, ,0.01903758999999999, ,0.003103876973596148, ,0.030961050663659923, ,6.00818200794117e-05, ,1.8333333333333333, ,0.828572300503752, ,0.5980082039142058, ,0.09652864227260669
37, ,PASS, ,0.01943748999999998, ,0.003131850290660286, ,0.0307229282990143, ,6.185736052976375e-05, ,1.8333333333333333, ,0.8129064734585031, ,0.597110263055856, ,0.057590661415073165
38, ,PASS, ,0.01914682999999998, ,0.0031203196741874813, ,0.030843493019530207, ,6.071066390736085e-05, ,1.8333333333333333, ,0.833910419151396, ,0.5985388053305034, ,0.11632415664986429
39, ,PASS, ,0.018724569999999968, ,0.003105277571098637, ,0.030899012052815242, ,5.910571884708321e-05, ,1.8333333333333333, ,0.8387352254934752, ,0.6016611905879472, ,0.12087508418195547
40, ,PASS, ,0.019010159999999984, ,0.0031045849122773683, ,0.03052037440419583, ,5.998100371235086e-05, ,1.8333333333333333, ,0.8262392102828341, ,0.5980694271545479, ,0.07167200669374095
41, ,PASS, ,0.019169380000000003, ,0.0030953297980229966, ,0.030496144215832324, ,6.023155481059786e-05, ,1.8333333333333333, ,0.8248064460523189, ,0.5993142997081692, ,0.10477337197200057
42, ,PASS, ,0.01906441999999999, ,0.0031201304438681463, ,0.030688835395400092, ,6.0420781247387225e-05, ,1.8333333333333333, ,0.8291166129268679, ,0.5980082039142058, ,0.10887532907491684
43, ,PASS, ,0.01888918999999999, ,0.003106854983032045, ,0.03076896301381604, ,5.9608938044542354e-05, ,1.8333333333333333, ,0.835028357602646, ,0.6024162772188323, ,0.10636517622089345
44, ,PASS, ,0.018909889999999985, ,0.003052667164566978, ,0.030700309811024257, ,5.8741089641520436e-05, ,1.8333333333333333, ,0.8254301796492066, ,0.5990694067468011, ,0.09089610416113957
45, ,PASS, ,0.01936003999999999, ,0.0031919135849201663, ,0.030548785183567677, ,6.283176929790139e-05, ,1.8333333333333333, ,0.8338777665090906, ,0.5978245341931797, ,0.11026305585600293
46, ,PASS, ,0.01929716, ,0.003143399536489542, ,0.030670483368094522, ,6.164231685934115e-05, ,1.8333333333333333, ,0.8277181150734048, ,0.5983755433562581, ,0.075406624354605
47, ,PASS, ,0.01925752999999999, ,0.003131105636270254, ,0.03076010999938776, ,6.132147981216815e-05, ,1.8333333333333333, ,0.8256213926666645, ,0.6018448603089733, ,0.04473378094324606
48, ,PASS, ,0.01882427999999999, ,0.003062140518747052, ,0.030571076596804143, ,5.860283183036608e-05, ,1.8333333333333333, ,0.8322233594455019, ,0.6000693863390543, ,0.08205954980510602
49, ,PASS, ,0.01908354, ,0.00317378973236619, ,0.03046348308707985, ,6.158437009512174e-05, ,1.8333333333333333, ,0.8371003537887889, ,0.5973755637640048, ,0.12311993632783004
50, ,PASS, ,0.018981649999999992, ,0.00311338839500227, ,0.0305809217660864, ,6.0030698377507584e-05, ,1.8333333333333333, ,0.8308315418418386, ,0.5975388257382502, ,0.061733434011550785
51, ,PASS, ,0.01917495999999998, ,0.003104303017368106, ,0.030525902089549188, ,6.0553484044476757e-05, ,1.8333333333333333, ,0.817354321011697, ,0.5933348299014306, ,0.051468337380869776
52, ,PASS, ,0.01890159999999998, ,0.003064592695497842, ,0.030568402391991996, ,5.8909156903114614e-05, ,1.8333333333333333, ,0.8190361826398865, ,0.5982939123691353, ,0.04344809289606334
53, ,PASS, ,0.019501809999999984, ,0.0032828959577162016, ,0.030520918120446515, ,6.516540475557905e-05, ,2.0, ,0.8392457676753818, ,0.5973755637640048, ,0.10189587967592498
54, ,PASS, ,0.01932449999999999, ,0.0031274859731866425, ,0.03045075377441276, ,6.142697936839587e-05, ,1.8333333333333333, ,0.8245778425742906, ,0.597804126446399, ,0.053407073325034186
55, ,PASS, ,0.019058999999999993, ,0.003126906748584632, ,0.030720994479092257, ,6.0599786887206016e-05, ,1.9166666666666667, ,0.8297698902795214, ,0.598191873635232, ,0.06430481010591621
56, ,PASS, ,0.019378059999999996, ,0.0032024526994789706, ,0.0305281829815718, ,6.310957623283228e-05, ,1.9166666666666667, ,0.8298672899851572, ,0.5918654721332218, ,0.06779453480541213
57, ,PASS, ,0.01921513999999999, ,0.0031663433159621196, ,0.030674543359931427, ,6.180129747168196e-05, ,1.8333333333333333, ,0.8244409836438609, ,0.6052937695149079, ,0.045305197853105036
58, ,PASS, ,0.019452879999999992, ,0.0032288157338609545, ,0.0307539578506561, ,6.384423999988412e-05, ,2.0, ,0.8406496055590307, ,0.6004367257811065, ,0.09795718454725413
59, ,PASS, ,0.019164980000000005, ,0.0032336084786330917, ,0.030646436124364802, ,6.29731525568972e-05, ,1.8333333333333333, ,0.8422391340029943, ,0.5983755433562581, ,0.10334482969735312
60, ,PASS, ,0.01916222999999999, ,0.0031542734489235745, ,0.030596592280361618, ,6.14607729711943e-05, ,1.8333333333333333, ,0.8319469355833818, ,0.5978653496867411, ,0.0594069508785535
61, ,PASS, ,0.019561209999999996, ,0.003154331602172312, ,0.030584617746576597, ,6.273660629828064e-05, ,1.8333333333333333, ,0.83545291462869, ,0.6044366441501194, ,0.07128425950490806
62, ,PASS, ,0.019067199999999986, ,0.0031583523441118494, ,0.030502422269545512, ,6.127724410422588e-05, ,1.9166666666666667, ,0.8322760063448172, ,0.5977633109528377, ,0.08338605334585009
63, ,PASS, ,0.018945759999999985, ,0.0031403125392766825, ,0.030464815432542185, ,6.0464540406061835e-05, ,1.8333333333333333, ,0.8385115466312919, ,0.5986000285708455, ,0.12793616456807003
64, ,PASS, ,0.019115229999999993, ,0.0031072688520547235, ,0.030418277414542557, ,6.038169011887868e-05, ,1.9166666666666667, ,0.8260505983190071, ,0.5970082243219527, ,0.0743046060284484
65, ,PASS, ,0.01897058999999998, ,0.003144611232550906, ,0.030708863258913078, ,6.068467191713841e-05, ,1.9166666666666667, ,0.8348915385033604, ,0.5986612518111876, ,0.08693700128568804
66, ,PASS, ,0.01893344999999999, ,0.0030733459649406277, ,0.030635164487051277, ,5.9191656556695346e-05, ,1.8333333333333333, ,0.8297472487376362, ,0.598946960266117, ,0.06299871431195282
67, ,PASS, ,0.018989739999999984, ,0.0031129325005552484, ,0.030563532419134298, ,6.006084260610401e-05, ,1.8333333333333333, ,0.8325787921510892, ,0.5978653496867411, ,0.11873227076998429
68, ,PASS, ,0.01880472999999997, ,0.0030562571858272934, ,0.030597423602783613, ,5.848787147354185e-05, ,1.8333333333333333, ,0.8314438404455035, ,0.5983551356094774, ,0.09554907042713413
69, ,PASS, ,0.01911825999999998, ,0.003127992316166349, ,0.030584991805881506, ,6.077964757772693e-05, ,2.0, ,0.831999873543899, ,0.6020693455235607, ,0.11705883553396869
70, ,PASS, ,0.019206729999999988, ,0.003076472933636648, ,0.030618617890043057, ,6.000647154189924e-05, ,1.8333333333333333, ,0.8197552868906391, ,0.598191873635232, ,0.05591722617905757
71, ,PASS, ,0.019032969999999996, ,0.0030949648438485236, ,0.030634431758739613, ,5.988701750415198e-05, ,1.8333333333333333, ,0.824308004178766, ,0.5974776024979082, ,0.07852900961204873
72, ,PASS, ,0.019039890000000004, ,0.003133980971092884, ,0.030585955166629247, ,6.068865230655395e-05, ,1.8333333333333333, ,0.837561342059134, ,0.5985183975837228, ,0.1300993857268219
73, ,PASS, ,0.019122229999999976, ,0.003178665477194847, ,0.030528353972367906, ,6.180697429110058e-05, ,1.9166666666666667, ,0.8318666906648509, ,0.5976000489785923, ,0.08201873431154466
74, ,PASS, ,0.019293379999999978, ,0.0031566176043006902, ,0.030497988030244276, ,6.1916282996844e-05, ,1.8333333333333333, ,0.8246878809873202, ,0.5980082039142058, ,0.055896818432276896
75, ,PASS, ,0.01948325, ,0.0031747189555669407, ,0.03057489455623354, ,6.289625614265607e-05, ,2.0, ,0.8279376326057362, ,0.5978857574335218, ,0.0879165731311606
76, ,PASS, ,0.018918789999999984, ,0.003022264294290978, ,0.030676565009489596, ,5.8093934483246956e-05, ,1.8333333333333333, ,0.8216014797827638, ,0.5998653088712476, ,0.10414073182179956
77, ,PASS, ,0.01910780999999999, ,0.0031120796561889897, ,0.0304019499238791, ,6.044301038238578e-05, ,1.8333333333333333, ,0.8295854118670559, ,0.5978653496867411, ,0.12228321870982224
78, ,PASS, ,0.019082920000000003, ,0.003118564033196165, ,0.03059908182098324, ,6.046486279517288e-05, ,1.8333333333333333, ,0.8325429397381793, ,0.5988041060386523, ,0.11726291300177548
79, ,PASS, ,0.019385430000000002, ,0.003113437438681, ,0.030763162894226644, ,6.133518436937847e-05, ,1.8333333333333333, ,0.8216271813604733, ,0.5972123017897594, ,0.06869247566376196
112, ,PASS, ,0.019729539999999993, ,0.0032019751816516778, ,0.030626435506010078, ,6.431166866869381e-05, ,1.8333333333333333, ,0.8258654214097876, ,0.5984367665966001, ,0.060937531887104344
113, ,PASS, ,0.030467820000000007, ,0.005213134641228391, ,0.03188208461704863, ,0.00016165342245405364, ,1.8333333333333333, ,0.8459196513469224, ,0.5972531172833208, ,0.11424256647823514
114, ,PASS, ,0.01746212999999997, ,0.002887510004833879, ,0.030560706937409438, ,5.1248183739766526e-05, ,1.8333333333333333, ,0.8413971548542774, ,0.6029672863819105, ,0.14911940572641375
115, ,PASS, ,0.01704520999999999, ,0.0027044971237250555, ,0.030223458915736412, ,4.682259924220175e-05, ,1.8333333333333333, ,0.7982411272682381, ,0.5960082447296994, ,0.03767270055713149
116, ,PASS, ,0.01658325999999999, ,0.0026746516440940464, ,0.030339550376114775, ,4.5089390407315615e-05, ,1.8333333333333333, ,0.8292929007142579, ,0.5988041060386523, ,0.09273280137140058
117, ,PASS, ,0.01670176999999998, ,0.00268572030236021, ,0.030444842064651742, ,4.564966746862871e-05, ,1.9166666666666667, ,0.8227360473173244, ,0.5973347482704434, ,0.09414093589926736
118, ,PASS, ,0.01604324999999998, ,0.002644061067733984, ,0.03039369096304157, ,4.312376765072065e-05, ,1.8333333333333333, ,0.822243105926271, ,0.59964082365666, ,0.06640680802432604
119, ,PASS, ,0.01639309, ,0.0026549856198731466, ,0.030331051839554295, ,4.424064181613426e-05, ,1.8333333333333333, ,0.8217875923937743, ,0.597804126446399, ,0.09132466684353381
120, ,PASS, ,0.016308580000000007, ,0.0026454193140666993, ,0.030400200094487864, ,4.389838950848189e-05, ,1.8333333333333333, ,0.8307816988778404, ,0.5991102222403625, ,0.126038244117467
121, ,PASS, ,0.016043809999999988, ,0.0026152797132599193, ,0.03046809357584539, ,4.2690668895844705e-05, ,1.8333333333333333, ,0.8278409390531102, ,0.5982735046223546, ,0.07363115038468603
122, ,PASS, ,0.016118389999999986, ,0.0026119728317034836, ,0.03034913974531132, ,4.2794015630682584e-05, ,1.8333333333333333, ,0.8191065597812649, ,0.6046815371114875, ,0.04801942817493521
123, ,PASS, ,0.01612568999999999, ,0.0026256228432437623, ,0.03034847553968286, ,4.307029575228748e-05, ,1.9166666666666667, ,0.8248031114770408, ,0.597681679965715, ,0.09565110916103753
124, ,FAIL, ,0.0020436899999999904, ,4.853286429502606e-05, ,0.02890594817615967, ,1.1320286635100161e-07, ,0.75, ,0.27762008246743186, ,0.28799412256892715, ,0.008101875471929145
125, ,PASS, ,0.015718409999999995, ,0.0026054118611593398, ,0.030416868785739067, ,4.1621848961632636e-05, ,1.8333333333333333, ,0.8369676090967606, ,0.5982122813820127, ,0.10456929450419379
126, ,PASS, ,0.015888420000000004, ,0.0025811365952790022, ,0.030324860163057896, ,4.16829421493541e-05, ,1.8333333333333333, ,0.8272828355481207, ,0.597620456725373, ,0.09867145568457787
127, ,PASS, ,0.015793759999999987, ,0.002590615429920141, ,0.03028617291402216, ,4.158230296065981e-05, ,1.8333333333333333, ,0.8284908143047164, ,0.5975388257382502, ,0.0486724760719169
128, ,PASS, ,0.015593200000000002, ,0.0024847277396466156, ,0.03059321091140997, ,3.943593699510277e-05, ,1.9166666666666667, ,0.8193399592942613, ,0.5980490194077672, ,0.05828452480561621
129, ,PASS, ,0.01580592999999998, ,0.002557568652986299, ,0.03060327246872513, ,4.108880973090653e-05, ,1.8333333333333333, ,0.8212980452302306, ,0.5977020877124957, ,0.10038570641415481
130, ,PASS, ,0.01609498999999998, ,0.0025579872219383113, ,0.03046553928797371, ,4.188624867840134e-05, ,1.8333333333333333, ,0.7998885816758472, ,0.5993755229485113, ,0.06387624742352196
131, ,PASS, ,0.015825529999999987, ,0.002535807200625067, ,0.030372579004918264, ,4.0817553694946086e-05, ,1.9166666666666667, ,0.8153922865728855, ,0.5918450643864411, ,0.06481500377543316
132, ,PASS, ,0.01577146, ,0.002470695275767244, ,0.03030779706618232, ,3.967034856006835e-05, ,1.9166666666666667, ,0.8110784133494167, ,0.5978653496867411, ,0.06408032489132875
133, ,PASS, ,0.015532359999999985, ,0.002509741115012254, ,0.03060393324054611, ,3.962741529073096e-05, ,1.8333333333333333, ,0.829971931423527, ,0.5979265729270831, ,0.11467112916062938
134, ,PASS, ,0.015547429999999994, ,0.0025218246096679843, ,0.03054799203648905, ,3.9914326728834225e-05, ,1.9166666666666667, ,0.8294607643806352, ,0.5943552172404645, ,0.06410073263810942
135, ,PASS, ,0.01582051, ,0.002553356933326521, ,0.03046189308748801, ,4.108153020848048e-05, ,1.9166666666666667, ,0.8256339888827728, ,0.599008183506459, ,0.09407971265892533
136, ,PASS, ,0.015568559999999999, ,0.0025376352418155835, ,0.030555793228505542, ,4.022558210580763e-05, ,1.9166666666666667, ,0.8307788110392665, ,0.5975388257382502, ,0.09430419787351278
137, ,PASS, ,0.015443939999999986, ,0.0025284849925000163, ,0.030373586331911593, ,3.973439712212035e-05, ,2.0, ,0.8352444624584348, ,0.5981306503948899, ,0.14695618456766188
138, ,PASS, ,0.01566198999999999, ,0.0024766760746273353, ,0.03041529208240648, ,3.944973097878115e-05, ,1.8333333333333333, ,0.810586268827608, ,0.5968857778412685, ,0.04706026407624334
139, ,PASS, ,0.0155017, ,0.0025170310676914816, ,0.030458253694822555, ,3.96823245157921e-05, ,1.9166666666666667, ,0.8255871881551443, ,0.5987836982918716, ,0.10154894798065346
140, ,PASS, ,0.015409469999999998, ,0.002458401010423897, ,0.03033801013469113, ,3.8523675537333385e-05, ,1.8333333333333333, ,0.8117438451350817, ,0.5974571947511276, ,0.05534580926919859
141, ,PASS, ,0.01536251999999999, ,0.0025021829094775904, ,0.03052710312687496, ,3.909533049043657e-05, ,1.9166666666666667, ,0.8223921781726132, ,0.5965796616395583, ,0.062121181200383666
142, ,PASS, ,0.015513359999999993, ,0.0025500646067934886, ,0.030508704606232527, ,4.0211091359684336e-05, ,1.8333333333333333, ,0.8221601317799672, ,0.5965184383992164, ,0.06248852064243587
143, ,PASS, ,0.015296539999999994, ,0.0024952902264597106, ,0.03052327457031489, ,3.8856049174614686e-05, ,1.9166666666666667, ,0.8281645999153309, ,0.5948450031632008, ,0.067549641844044
176, ,PASS, ,0.01552745999999999, ,0.002516185145977927, ,0.030580923896451093, ,3.978681268927274e-05, ,2.0, ,0.8292073026813189, ,0.5990489990000204, ,0.027468827166792515
177, ,PASS, ,0.015456539999999984, ,0.002566025430527703, ,0.030570469708373297, ,4.0323095556381994e-05, ,1.8333333333333333, ,0.8301586459457424, ,0.5979469806738638, ,0.09985510499785719
178, ,PASS, ,0.015560259999999989, ,0.002463019733316166, ,0.030377621810983448, ,3.8979892124949944e-05, ,1.8333333333333333, ,0.8104215442255762, ,0.5933960531417726, ,0.046937817595559275
179, ,PASS, ,0.015075700000000008, ,0.002464756258063821, ,0.03028704803330544, ,3.776571526305678e-05, ,1.8333333333333333, ,0.8237462280537403, ,0.5981306503948899, ,0.09348788800228566
180, ,PASS, ,0.015370620000000002, ,0.0024492290782948912, ,0.03057439188649211, ,3.831144986741071e-05, ,1.9166666666666667, ,0.8108678367217182, ,0.597620456725373, ,0.04114201750984674
181, ,PASS, ,0.015414759999999996, ,0.0024354619498431706, ,0.030403636589049203, ,3.811550578414955e-05, ,1.8333333333333333, ,0.8009696750568145, ,0.5967837391073652, ,0.044937858411052835
182, ,PASS, ,0.015007629999999997, ,0.002423002243272378, ,0.030324324807248833, ,3.700556988265125e-05, ,1.9166666666666667, ,0.824562419585315, ,0.5979265729270831, ,0.11003857064141548
183, ,PASS, ,0.015254839999999995, ,0.002412466161054502, ,0.030466718166568027, ,3.744396303401882e-05, ,1.9166666666666667, ,0.8137562640836674, ,0.5976612722189343, ,0.08056978429011653
184, ,PASS, ,0.015639379999999998, ,0.002514049313732212, ,0.030468418135548254, ,3.9970228390246573e-05, ,1.8333333333333333, ,0.8212342824180421, ,0.5985388053305034, ,0.0756107018224118
185, ,PASS, ,0.015639439999999987, ,0.0026091863950881335, ,0.030434314999285728, ,4.153344952073482e-05, ,1.9166666666666667, ,0.8373630305295928, ,0.5952939735923757, ,0.11683435031938123
186, ,PASS, ,0.015080219999999991, ,0.0024081397767468813, ,0.030637204431338133, ,3.6908011339673036e-05, ,1.8333333333333333, ,0.8207833126172384, ,0.5994163384420726, ,0.08171261810983449
187, ,PASS, ,0.015196409999999976, ,0.00240876103963638, ,0.030268468701659147, ,3.721831198371095e-05, ,1.9166666666666667, ,0.8097390542368554, ,0.5968041468541458, ,0.04301953021366911
188, ,PASS, ,0.015208470000000009, ,0.0024111267990617425, ,0.030481116442929737, ,3.7234711228312575e-05, ,1.8333333333333333, ,0.812203493476064, ,0.5980490194077672, ,0.0706924348482684
189, ,PASS, ,0.015265499999999998, ,0.0024223018927541466, ,0.030370304032978915, ,3.7573656011138255e-05, ,1.8333333333333333, ,0.812581846211311, ,0.5994979694291953, ,0.09054917246586805
190, ,PASS, ,0.015326159999999998, ,0.002437298250395246, ,0.03041635410603865, ,3.7986305218165275e-05, ,1.9166666666666667, ,0.8224803096152689, ,0.5985183975837228, ,0.07483520744474603
191, ,PASS, ,0.015065830000000002, ,0.002414423147314072, ,0.03033652433582988, ,3.6962255357536944e-05, ,1.8333333333333333, ,0.820003199119649, ,0.5980082039142058, ,0.08397787800248975
192, ,PASS, ,0.014875689999999976, ,0.00236710335859293, ,0.03030475369053693, ,3.583207471579023e-05, ,1.9166666666666667, ,0.8202736857032457, ,0.5983347278626967, ,0.10893655231525887
193, ,PASS, ,0.01494057, ,0.0024216089720285995, ,0.030413801000795902, ,3.6782417998045175e-05, ,1.9166666666666667, ,0.8250951519907717, ,0.5997224546437828, ,0.08983490132854431
194, ,PASS, ,0.015035669999999987, ,0.002403819325843196, ,0.030551694901736696, ,3.6772169374834694e-05, ,1.8333333333333333, ,0.8216666399094874, ,0.5984367665966001, ,0.09061039570621007
195, ,PASS, ,0.014950019999999991, ,0.0023935213795914507, ,0.030704347674741332, ,3.636759579139014e-05, ,1.8333333333333333, ,0.811257408764412, ,0.5971510785494174, ,0.04212158935531928
196, ,PASS, ,0.014920529999999987, ,0.002371956881560369, ,0.03022462628599416, ,3.597860709174432e-05, ,1.8333333333333333, ,0.8107990959725148, ,0.5974163792575662, ,0.05293769514907859
197, ,PASS, ,0.015187729999999986, ,0.0023916386340249356, ,0.030368418135344178, ,3.688313186535961e-05, ,1.8333333333333333, ,0.8168600134386909, ,0.5993142997081692, ,0.09046754147874533
198, ,PASS, ,0.015223620000000004, ,0.0023989850685344747, ,0.030302104352360155, ,3.7106628646000795e-05, ,1.8333333333333333, ,0.8113978618281182, ,0.5980490194077672, ,0.04363176261708945
199, ,PASS, ,0.01523279, ,0.0024155913816861292, ,0.03038633662945654, ,3.737613580430454e-05, ,1.8333333333333333, ,0.8159496693052942, ,0.5972531172833208, ,0.055182547294953165
200, ,PASS, ,0.015183990000000012, ,0.0023808521947026834, ,0.03024857638782882, ,3.676845758888856e-05, ,1.9166666666666667, ,0.8010315345476875, ,0.5953143813391564, ,0.04601946899042877
201, ,PASS, ,0.015168689999999981, ,0.002402608313965125, ,0.030541437759433483, ,3.7037149272694253e-05, ,1.8333333333333333, ,0.8204840504581031, ,0.5994571539356339, ,0.09377359645721516
202, ,PASS, ,0.01516175999999999, ,0.0023986995279938962, ,0.03034614640558356, ,3.700735234151558e-05, ,1.8333333333333333, ,0.8118480523648144, ,0.5945592947082713, ,0.0422848513295647
203, ,PASS, ,0.014944819999999998, ,0.002409937051223371, ,0.030517007375359687, ,3.661365511144094e-05, ,1.8333333333333333, ,0.8196315419658832, ,0.6004979490214486, ,0.09138589008387583
204, ,PASS, ,0.015039909999999993, ,0.0023476738410457654, ,0.030590450862431375, ,3.5872937461788513e-05, ,1.8333333333333333, ,0.802336146475192, ,0.5967633313605845, ,0.0519989387971674
205, ,PASS, ,0.014593749999999992, ,0.0023602169985945513, ,0.03033611092998102, ,3.504201713458764e-05, ,1.8333333333333333, ,0.8231850245638777, ,0.5982939123691353, ,0.10701822411787515
206, ,PASS, ,0.015168020000000008, ,0.0023223057424022263, ,0.030382222732597296, ,3.5756808442132996e-05, ,1.8333333333333333, ,0.7868884916044571, ,0.5986000285708455, ,0.044448072488316566
207, ,PASS, ,0.014883000000000004, ,0.0023596515952412542, ,0.030337350459582458, ,3.569042178610854e-05, ,1.8333333333333333, ,0.8080769803773131, ,0.5979061651803025, ,0.0407134548274525
208, ,PASS, ,0.014669959999999996, ,0.00238328249525722, ,0.030615032078324934, ,3.553975994374718e-05, ,1.8333333333333333, ,0.8267446905839961, ,0.5996204159098794, ,0.10203873390338973
209, ,PASS, ,0.015291099999999995, ,0.0024050304740413793, ,0.030517366856390685, ,3.74054632242198e-05, ,1.8333333333333333, ,0.8049729260584995, ,0.5972327095365401, ,0.05414175220913859
210, ,PASS, ,0.015097909999999999, ,0.0023487331038659592, ,0.03046522533785025, ,3.606512650033061e-05, ,1.9166666666666667, ,0.7996217381044545, ,0.5950082651374462, ,0.03020346523540336
211, ,PASS, ,0.014826309999999995, ,0.0023165186299930344, ,0.03040525640619579, ,3.4899977296501035e-05, ,1.9166666666666667, ,0.8149190249700793, ,0.5982326891287932, ,0.09450827534131956
212, ,PASS, ,0.01525081, ,0.002300856994861638, ,0.030305596598640842, ,3.565769304717248e-05, ,1.8333333333333333, ,0.7952989698347706, ,0.5983755433562581, ,0.02483622783208506
213, ,PASS, ,0.015137829999999988, ,0.0024104056168771297, ,0.03056757875084182, ,3.7125793718477704e-05, ,1.8333333333333333, ,0.8174574645436508, ,0.5977224954592764, ,0.10287545152139753
214, ,PASS, ,0.0153404, ,0.0025119078506091303, ,0.03063008991449154, ,3.920351435447595e-05, ,1.8333333333333333, ,0.833603597615036, ,0.5990694067468011, ,0.10797738821656701
215, ,PASS, ,0.013504729999999996, ,0.001840977501403971, ,0.03009489398767372, ,2.520697685473601e-05, ,1.8333333333333333, ,0.7432222542627467, ,0.595783759515112, ,0.07583518703699925
