Channel, ,Pass/Fail, ,Amplitude, ,Sorting Function Response, ,Mean, ,Variance, ,NPeaksRatio, ,PosIntegralRatio, ,ToT50, ,ToT99
0, ,PASS, ,0.030640440000000005, ,0.014880614051104081, ,-0.0006961152042203224, ,9.338262678778218e-05, ,0.9166666666666666, ,0.5802487906514475, ,0.45966408848799006, ,0.04634599293891961
1, ,PASS, ,0.03019741, ,0.014584588577978164, ,-0.0006421817121691395, ,9.020530573007573e-05, ,1.0, ,0.569315563960085, ,0.4593579722862799, ,0.045713352788718596
2, ,PASS, ,0.03039837, ,0.01469028164933938, ,-0.0009162418721862821, ,9.145377886813323e-05, ,0.9166666666666666, ,0.579099695281739, ,0.4600518356768229, ,0.05195812330360605
3, ,PASS, ,0.030696900000000006, ,0.01469541380571991, ,-0.0008458555144588889, ,9.244473623609494e-05, ,1.0, ,0.5717207110782688, ,0.458398808187588, ,0.04648884716638436
4, ,PASS, ,0.030078059999999997, ,0.014628228410811774, ,-0.0006398138235546217, ,9.01277389122509e-05, ,0.9166666666666666, ,0.5832087558835427, ,0.45997020468970023, ,0.04595824575008673
5, ,PASS, ,0.03003759999999999, ,0.014611506753997694, ,-0.0005478922544233793, ,8.986693777633595e-05, ,0.9166666666666666, ,0.5763272793345884, ,0.45994979694291954, ,0.04224403583600335
6, ,PASS, ,0.03022604, ,0.014729728153657569, ,-0.000789144966000694, ,9.110251492230076e-05, ,1.0, ,0.5798716905840626, ,0.4598681659557968, ,0.04850921409767148
7, ,PASS, ,0.03013659, ,0.014393567336264677, ,-0.0007574942517907799, ,8.8866904779785e-05, ,1.0, ,0.5771467198278961, ,0.45907226383135036, ,0.041570580192240976
8, ,PASS, ,0.030210160000000003, ,0.014686600149466602, ,-0.0006729157716781292, ,9.077387022613718e-05, ,0.9166666666666666, ,0.5821868097095684, ,0.45952123426052527, ,0.03885634987041081
9, ,PASS, ,0.030030130000000002, ,0.014604377265386199, ,-0.0009185837632905452, ,8.981150460922218e-05, ,0.9166666666666666, ,0.5734425059493214, ,0.45872533213607886, ,0.039591028754515215
10, ,PASS, ,0.030053499999999993, ,0.014494910013367196, ,-0.0007026512786065593, ,8.924438227039641e-05, ,0.9166666666666666, ,0.5763565463472554, ,0.45874573988285955, ,0.04528479010632436
11, ,PASS, ,0.03113947000000001, ,0.015122494331787712, ,-0.0006587862785861514, ,9.639890987413314e-05, ,1.0, ,0.5714920906523162, ,0.45917430256525377, ,0.04528479010632436
12, ,PASS, ,0.06694820000000001, ,0.05292580562529683, ,-0.0025910949550009186, ,0.0007316232738017047, ,1.0, ,0.7810433080733722, ,0.4584396236811494, ,0.07046794963368094
13, ,PASS, ,0.06295236000000001, ,0.052113284435152465, ,-0.0025179034448684716, ,0.0006788564311074084, ,1.0, ,0.8014456808224519, ,0.45880696312320157, ,0.0736515581314667
