Channel, ,Pass/Fail, ,Amplitude, ,Sorting Function Response, ,Mean, ,Variance
0, ,PASS, ,0.049102799999999995, ,0.03633318447724712, ,0.00397082594130732, ,0.00036605754743157564
1, ,PASS, ,0.05339434, ,0.04467946141076055, ,0.004972305805391727, ,0.000490039196576621
2, ,PASS, ,0.05406086, ,0.04512465481881925, ,0.0048765154029509605, ,0.0005011744380186094
3, ,PASS, ,0.05356330000000001, ,0.044878986309395935, ,0.004945625296830678, ,0.0004939921529605018
4, ,PASS, ,0.053514010000000015, ,0.044759589544820635, ,0.0050250191898124534, ,0.0004921577220651848
5, ,PASS, ,0.05317382000000001, ,0.044606650044016864, ,0.0048597581465684376, ,0.000487443251711552
6, ,PASS, ,0.05331272, ,0.0446477125826879, ,0.0049706662859941644, ,0.000489213907311778
7, ,PASS, ,0.05344457, ,0.04443774850924767, ,0.004905782842186895, ,0.0004880469631762862
8, ,PASS, ,0.053368460000000006, ,0.04448051318130199, ,0.004932171614048694, ,0.00048781168810577033
9, ,PASS, ,0.05320725, ,0.044513047001870705, ,0.004913232544641947, ,0.00048669170916761236
10, ,PASS, ,0.053366000000000004, ,0.04448867514039944, ,0.0048575979618783295, ,0.00048779329656038425
11, ,PASS, ,0.053263220000000014, ,0.04436835096446731, ,0.004993738035346218, ,0.0004855691756456845
12, ,PASS, ,0.05325692000000001, ,0.04451679924962208, ,0.004885365871104672, ,0.0004871171222008208
13, ,PASS, ,0.05383974, ,0.044416508929706104, ,0.00489447238729822, ,0.0004912404051075819
14, ,PASS, ,0.05356418, ,0.04452030168803608, ,0.005085120750596928, ,0.0004899384712136788
15, ,PASS, ,0.05353038, ,0.044637671544001487, ,0.005104899436338035, ,0.0004910310637780169
16, ,PASS, ,0.05425289, ,0.045038331410389286, ,0.00505614776208649, ,0.000501921066597983
17, ,PASS, ,0.05399193, ,0.04524594830130514, ,0.005068008264729292, ,0.0005018044894753361
18, ,PASS, ,0.053679580000000005, ,0.04483623712235726, ,0.004979995897226588, ,0.0004943786500173555
19, ,PASS, ,0.05388023, ,0.044713994259101504, ,0.004959109505316219, ,0.0004947608951059686
20, ,PASS, ,0.05449553000000001, ,0.04540596070960856, ,0.005005384069712864, ,0.0005081792301256018
21, ,PASS, ,0.06449719999999999, ,0.05438432465792587, ,0.006088129010632437, ,0.0007208439085345249
22, ,PASS, ,0.18873949, ,0.15315906192384565, ,0.018514541098140862, ,0.005953992061521843
23, ,PASS, ,0.05417039, ,0.04460442414354975, ,0.005123065267239445, ,0.0004962604151944267
24, ,PASS, ,0.048948849999999995, ,0.03999087395723812, ,0.004435448873084223, ,0.0004021824957881304
25, ,PASS, ,0.048702579999999995, ,0.039807688548828456, ,0.004407396296606192, ,0.0003984134222148696
26, ,PASS, ,0.04863305, ,0.03966916501699267, ,0.004442318631048346, ,0.0003962921977773914
27, ,PASS, ,0.04855429, ,0.03991454213546436, ,0.004545205476622926, ,0.00039805268415581173
28, ,PASS, ,0.04851907, ,0.03956408471745813, ,0.004434790258362074, ,0.00039433786207047694
29, ,PASS, ,0.04888955999999999, ,0.039707240196188646, ,0.004499159042468521, ,0.0003986886641089698
30, ,PASS, ,0.04860840999999999, ,0.039725625631138024, ,0.004424477305973348, ,0.0003965390722309793
31, ,PASS, ,0.04862555, ,0.03978479871671895, ,0.00441005068182282, ,0.0003972555489852232
32, ,PASS, ,0.04859168, ,0.03992608049223961, ,0.004450353014428277, ,0.00039833498440436556
33, ,PASS, ,0.048945249999999996, ,0.040082741141237846, ,0.004517081246097019, ,0.000402946965581411
34, ,PASS, ,0.04916584999999998, ,0.0403476224832927, ,0.004440073079528989, ,0.0004074276860551327
35, ,PASS, ,0.04924358999999999, ,0.040290648768505036, ,0.00470639988469623, ,0.0004073863224287239
36, ,PASS, ,0.04928498999999999, ,0.04050933122701241, ,0.004438581717720047, ,0.0004099752235737206
37, ,PASS, ,0.04978776999999998, ,0.0402806852839745, ,0.004559491159160017, ,0.00041190274242482183
38, ,PASS, ,0.04940643999999998, ,0.04042188438241704, ,0.004356885605191731, ,0.0004101377031575811
39, ,PASS, ,0.04928607999999999, ,0.04029767744078145, ,0.004368742545254179, ,0.0004081638227479107
40, ,PASS, ,0.04954024999999999, ,0.040244128217553105, ,0.004396292574029102, ,0.00040968413080994925
41, ,PASS, ,0.04979833999999998, ,0.040459543749555925, ,0.0044107201820371015, ,0.00041401504458066604
42, ,PASS, ,0.049398919999999985, ,0.040391918250449695, ,0.0045347788949205116, ,0.0004099422948663249
43, ,PASS, ,0.04988611999999998, ,0.04018996728524586, ,0.004406480222648518, ,0.0004120033113869813
44, ,PASS, ,0.04956153999999999, ,0.040354674414894084, ,0.004654754737454337, ,0.00041104989025203325
45, ,PASS, ,0.04989955999999999, ,0.04047249535976478, ,0.004392367606375381, ,0.0004151473326320185
46, ,PASS, ,0.04954956999999997, ,0.04046148525311205, ,0.004510766767821065, ,0.0004122333669641408
47, ,PASS, ,0.04978053999999999, ,0.040476511538172784, ,0.004360124525621926, ,0.0004142060996280479
48, ,PASS, ,0.04963402999999998, ,0.04021207561748938, ,0.004433759671027122, ,0.00041039006311619413
49, ,PASS, ,0.0509116, ,0.042156136356334084, ,0.00480819806820269, ,0.0004414168710665408
50, ,PASS, ,0.04984088999999998, ,0.04047093876094636, ,0.00445447842125671, ,0.0004146515711323371
51, ,PASS, ,0.049659069999999986, ,0.040251182363738404, ,0.004384445666210894, ,0.0004108094005229446
52, ,PASS, ,0.049632309999999985, ,0.04033520498725641, ,0.0046118870582233015, ,0.0004114249604499306
53, ,PASS, ,0.04982911999999998, ,0.04022040414337682, ,0.0043243668988388, ,0.00041180294165295766
54, ,PASS, ,0.04950637999999998, ,0.04039983697945219, ,0.00455002332768719, ,0.00041085027947833374
55, ,PASS, ,0.049361639999999984, ,0.040399747880887994, ,0.004489901877104549, ,0.0004096058878085698
56, ,PASS, ,0.04984297999999998, ,0.040445077407917994, ,0.00447224622742393, ,0.0004140907663253959
57, ,PASS, ,0.05082176999999999, ,0.04181843660674928, ,0.004617689654905002, ,0.00043644087532612795
58, ,PASS, ,0.05019558999999998, ,0.0404685923947736, ,0.004603742689741026, ,0.00041716804799232684
59, ,PASS, ,0.049680169999999996, ,0.040337060695186375, ,0.004601022069549601, ,0.00041145777176648194
60, ,PASS, ,0.05003867999999998, ,0.040704911880315595, ,0.004515586851084672, ,0.0004181806367747888
61, ,PASS, ,0.04986083999999998, ,0.04047602279006148, ,0.004441488649619396, ,0.0004142298302252424
62, ,PASS, ,0.04990580999999998, ,0.04051130657602645, ,0.00443351615007857, ,0.0004149645814674274
63, ,PASS, ,0.04974728999999998, ,0.04056692582248038, ,0.0044681189924695415, ,0.00041419239507467254
64, ,PASS, ,0.050238939999999996, ,0.04100929894060841, ,0.004474075209281444, ,0.00042288329021675957
65, ,PASS, ,0.050318869999999995, ,0.040877176717480486, ,0.004375525731719761, ,0.00042216833220785454
66, ,PASS, ,0.050218709999999986, ,0.040885576720807004, ,0.0043932574394400115, ,0.0004213824399928462
67, ,PASS, ,0.05006210999999999, ,0.040831906031436965, ,0.004702897046794963, ,0.00041972422976738796
68, ,PASS, ,0.049924099999999985, ,0.040818002766487345, ,0.004572837909634497, ,0.00041832207652209383
69, ,PASS, ,0.050315049999999986, ,0.040851815801201535, ,0.00452801128630028, ,0.0004217799383453263
70, ,PASS, ,0.050148479999999995, ,0.04074135218240904, ,0.004337697491887921, ,0.0004192869721935996
71, ,PASS, ,0.05021696999999999, ,0.04081119752337739, ,0.004470688039631844, ,0.00042070944853070814
72, ,PASS, ,0.05027686999999999, ,0.04086249853208442, ,0.004605986737209444, ,0.00042179315851310033
73, ,PASS, ,0.050418799999999986, ,0.041159259492593546, ,0.004519495752127507, ,0.0004262109920782622
74, ,PASS, ,0.05058141999999999, ,0.04114191807662472, ,0.004367961250994878, ,0.00042750246314352414
75, ,PASS, ,0.05064448999999998, ,0.04068226829400658, ,0.004527942621579151, ,0.0004234798054528167
76, ,PASS, ,0.05048187999999999, ,0.04047958914781003, ,0.004581785351115283, ,0.0004201164016635691
77, ,PASS, ,0.05032061999999999, ,0.0406731575315961, ,0.004644273231158547, ,0.00042083916697763956
78, ,PASS, ,0.05065216999999998, ,0.04093097311149887, ,0.004621510791820575, ,0.00042632581018391125
79, ,PASS, ,0.05031603, ,0.04070821035268454, ,0.0046120837360462035, ,0.0004213748680016598
80, ,PASS, ,0.05128505, ,0.041129944787873386, ,0.004316739413889512, ,0.0004338726838510853
81, ,PASS, ,0.05125583, ,0.04132739746382951, ,0.004361080884471745, ,0.0004359724101780307
82, ,PASS, ,0.05111150999999999, ,0.04127110370907287, ,0.004629542888512479, ,0.00043411501479735345
83, ,PASS, ,0.05322671000000001, ,0.04331851556055243, ,0.00498641605906002, ,0.0004742752738064646
84, ,PASS, ,0.13365433999999998, ,0.10779221322988071, ,0.012980073746250079, ,0.002972238555072414
85, ,PASS, ,0.07321363, ,0.06256699406813156, ,0.007151560969572052, ,0.0009449327273424216
86, ,PASS, ,0.04961760999999999, ,0.04014503908936004, ,0.0043315179359604905, ,0.00041028578865223047
87, ,PASS, ,0.04889151, ,0.03939085825568374, ,0.004118290100610191, ,0.00039690388393993366
88, ,PASS, ,0.04908552999999999, ,0.03949319227467503, ,0.004139027432909532, ,0.00039938228887756157
89, ,PASS, ,0.04866788999999999, ,0.03929649569630813, ,0.004293459494296034, ,0.0003942190932804667
90, ,PASS, ,0.04887862, ,0.039549789515891436, ,0.004269439722454644, ,0.00039855476737520615
91, ,PASS, ,0.048889109999999986, ,0.039482747810244884, ,0.004268951080182037, ,0.0003977945120302039
92, ,PASS, ,0.04866411999999999, ,0.0396181668065223, ,0.004099143277484133, ,0.0003974160783192627
93, ,PASS, ,0.048762839999999995, ,0.03955607020422972, ,0.0041265346454154, ,0.0003976281672498383
94, ,PASS, ,0.0484421, ,0.03922411988683803, ,0.004270897304544805, ,0.0003917242977086954
95, ,PASS, ,0.04860244, ,0.039451601730437866, ,0.0041430548725536216, ,0.00039516374995913594
96, ,PASS, ,0.04876644999999999, ,0.03933610722736411, ,0.004398038184322769, ,0.00039538599525850825
97, ,PASS, ,0.04881575, ,0.0393670376789712, ,0.004198017435154385, ,0.0003960233281270738
98, ,PASS, ,0.04857403, ,0.039193440331183105, ,0.004130683117487398, ,0.0003923426482729216
99, ,PASS, ,0.04857689, ,0.03884055418883948, ,0.004213345397644945, ,0.00038866958958492826
100, ,PASS, ,0.0483621, ,0.03924820418102143, ,0.004497755873145446, ,0.00039087085586583423
101, ,PASS, ,0.04873334, ,0.03928782221815839, ,0.004292213297687802, ,0.0003944001286970043
102, ,PASS, ,0.048546280000000004, ,0.039637324402292236, ,0.004458122320973041, ,0.0003962594913109612
103, ,PASS, ,0.048162739999999996, ,0.03916097181158656, ,0.004269896896389869, ,0.00038852368267435785
104, ,PASS, ,0.048873299999999995, ,0.03952005026947414, ,0.0044634944399093894, ,0.0003972876109209157
105, ,PASS, ,0.049757799999999984, ,0.041495377638876695, ,0.004397598134936022, ,0.0004253077688218981
106, ,PASS, ,0.049288339999999986, ,0.0414182452152371, ,0.0045714427591273645, ,0.00042086976417405193
107, ,PASS, ,0.04896510999999998, ,0.03949975948917441, ,0.00471241703087692, ,0.0003985515983927724
108, ,PASS, ,0.04895583999999999, ,0.03990473615522919, ,0.004488761994245015, ,0.0004024316267515463
109, ,PASS, ,0.04886012999999999, ,0.03955155576830393, ,0.0042246494583784, ,0.00039803142784035535
110, ,PASS, ,0.0487856, ,0.03972422190945449, ,0.004303454733780943, ,0.0003989798967398804
111, ,PASS, ,0.04911624999999999, ,0.04047827916632008, ,0.004289156258239628, ,0.000409299901682066
112, ,PASS, ,0.04938869999999998, ,0.04033903023771726, ,0.004395309285524785, ,0.00040978782553350267
113, ,PASS, ,0.048836069999999995, ,0.039535868069536545, ,0.004311855460908961, ,0.0003970572536792478
114, ,PASS, ,0.04909933999999999, ,0.03963666246045645, ,0.004205856585375809, ,0.00040027357830910284
115, ,PASS, ,0.049050949999999996, ,0.03956775847454533, ,0.0043486941495071525, ,0.000398713545022958
116, ,PASS, ,0.04867895999999999, ,0.039455761558835525, ,0.004344426288647171, ,0.00039481704605963814
117, ,PASS, ,0.04885460999999999, ,0.03945990858455604, ,0.004368301915471113, ,0.00039639205806475116
118, ,PASS, ,0.04882181, ,0.039529459143284436, ,0.004401297031897309, ,0.00039666441812236266
119, ,PASS, ,0.04907328999999999, ,0.04009658706744256, ,0.004480257117813922, ,0.0004043471152535415
120, ,PASS, ,0.04935194999999998, ,0.04031836555496965, ,0.0044927657453929515, ,0.0004090823273648694
121, ,PASS, ,0.04887382999999999, ,0.03959577942918998, ,0.004370864602355054, ,0.0003980164788418109
122, ,PASS, ,0.04878683999999999, ,0.039418926357531206, ,0.004343355335197241, ,0.00039545715212623505
123, ,PASS, ,0.04853855, ,0.039348526465963984, ,0.0043825813536458435, ,0.00039249511159243357
124, ,PASS, ,0.04801595000000001, ,0.039017552572063165, ,0.0043691710979367766, ,0.0003849044694900594
125, ,PASS, ,0.04885748999999999, ,0.03933100796699893, ,0.00407827375400502, ,0.0003944146217776595
126, ,PASS, ,0.048827909999999995, ,0.03944585898125561, ,0.004384963112997693, ,0.0003953213742439483
127, ,PASS, ,0.04871405999999998, ,0.03947652025896032, ,0.004537921601599967, ,0.00039460931781018396
128, ,PASS, ,0.0482732, ,0.03900503124362307, ,0.004269216608232485, ,0.00038631317007718904
129, ,PASS, ,0.04860551, ,0.03933754663664075, ,0.0042983897861268135, ,0.00039224516242247954
130, ,PASS, ,0.04898494, ,0.039658621231431955, ,0.0043777445503153, ,0.0003985814471573326
131, ,PASS, ,0.04856503999999999, ,0.03933898892732415, ,0.004447319896328647, ,0.0003918893446047351
132, ,PASS, ,0.04888118999999999, ,0.03969403583449712, ,0.004428424171343441, ,0.0003981578957408308
133, ,PASS, ,0.04924320999999998, ,0.0398007183964691, ,0.004355051621191404, ,0.00040220319177271735
134, ,PASS, ,0.04931854999999999, ,0.03989879502713805, ,0.0043360841074671945, ,0.00040398675122543223
135, ,PASS, ,0.04939832999999998, ,0.03980373267603117, ,0.004359234293789923, ,0.00040387924883088764
136, ,PASS, ,0.04911663999999999, ,0.03979829753238287, ,0.004195338494724598, ,0.00040185708535644103
137, ,PASS, ,0.049604469999999984, ,0.03966003057255769, ,0.0043482871774045435, ,0.0004044487141314015
138, ,PASS, ,0.04926777999999998, ,0.03969802888617134, ,0.004303237979224914, ,0.00040209763831770644
139, ,PASS, ,0.04902563999999998, ,0.039719026575273576, ,0.004218421484051346, ,0.00040036032114046887
140, ,PASS, ,0.05024434999999999, ,0.04041973784769608, ,0.004234136783126875, ,0.000417437969722682
141, ,PASS, ,0.049564049999999985, ,0.04014825364914851, ,0.004490305941919553, ,0.0004091678274112921
142, ,PASS, ,0.049377859999999996, ,0.039811776120740855, ,0.00418237635640089, ,0.0004043165024978102
143, ,PASS, ,0.04935935999999999, ,0.039817587650482156, ,0.004326211969347565, ,0.0004041665823888288
144, ,PASS, ,0.04923637999999998, ,0.03999435576093621, ,0.0043961079963674215, ,0.00040482615755208136
145, ,PASS, ,0.04991247999999998, ,0.04076148041031083, ,0.004564903017489439, ,0.0004184200919579451
146, ,PASS, ,0.06255097000000001, ,0.053532387278266244, ,0.0058659441664455836, ,0.0006887610994158025
147, ,PASS, ,0.13841626, ,0.11161659022666168, ,0.01345564985122753, ,0.003184805325752875
148, ,PASS, ,0.05094003, ,0.04123690705597545, ,0.004555227352707088, ,0.00043169796630747624
149, ,PASS, ,0.04853303, ,0.03919429997448945, ,0.004258305343156262, ,0.0003910459099234552
150, ,PASS, ,0.04875526999999999, ,0.03893211565716366, ,0.004258761034876839, ,0.0003902475509908811
151, ,PASS, ,0.048541429999999997, ,0.03886943660294378, ,0.0042910572976061715, ,0.00038787074624518897
152, ,PASS, ,0.04848851999999999, ,0.03878225624876161, ,0.0043811120015918035, ,0.00038660718664416905
153, ,PASS, ,0.048473459999999996, ,0.03881903217738025, ,0.004322755141935879, ,0.00038681740301879165
154, ,PASS, ,0.048322149999999994, ,0.03834124025584226, ,0.004363298964715006, ,0.0003809748173597365
155, ,PASS, ,0.048369060000000005, ,0.03855741136516964, ,0.004398138198608191, ,0.00038341650583155387
156, ,PASS, ,0.0489847, ,0.038692408825768645, ,0.0041026660688557376, ,0.00038957708847635976
157, ,PASS, ,0.0484725, ,0.038644843007341424, ,0.00424198302708108, ,0.0003850943461342978
158, ,PASS, ,0.048403449999999994, ,0.03878138728474971, ,0.004281997349645925, ,0.00038571463003142503
159, ,PASS, ,0.04839415999999999, ,0.03829108813257125, ,0.004188243468500642, ,0.0003809695499923675
160, ,PASS, ,0.04836873, ,0.038557354503382005, ,0.00414110332360564, ,0.00038335031473408625
161, ,PASS, ,0.048377819999999995, ,0.03858687665140309, ,0.004155275040101222, ,0.0003837950303232079
162, ,PASS, ,0.048609259999999994, ,0.038801704728805, ,0.004098440867329238, ,0.00038782890134071474
163, ,PASS, ,0.04838917000000001, ,0.03866200491522832, ,0.0042307327079039204, ,0.0003847427046913978
164, ,PASS, ,0.04840025999999999, ,0.03830629020593096, ,0.004366147804942756, ,0.0003813091513219935
165, ,PASS, ,0.04815401000000001, ,0.038532095028411956, ,0.004119410182853411, ,0.0003816523459211116
166, ,PASS, ,0.0484131, ,0.03869619803498984, ,0.004368818999408175, ,0.00038533129669286303
167, ,PASS, ,0.04825042, ,0.03858351589834689, ,0.00411523810922226, ,0.0003828700577287396
168, ,PASS, ,0.04848764999999999, ,0.03838362808085844, ,0.004307296527621885, ,0.00038270182024609977
169, ,PASS, ,0.04820837, ,0.03845312166677054, ,0.004283426687210465, ,0.0003813264988665643
170, ,PASS, ,0.04826603000000001, ,0.03833473172024003, ,0.004238427894940919, ,0.0003807097266775203
171, ,PASS, ,0.04812558, ,0.03833248504935129, ,0.0041461352082610555, ,0.0003794475235386519
172, ,PASS, ,0.04802588000000001, ,0.0385463582771333, ,0.004237167264953776, ,0.00038071102779745894
173, ,PASS, ,0.048443700000000006, ,0.03859114601763485, ,0.004081012942593008, ,0.000384593614147736
174, ,PASS, ,0.049058959999999985, ,0.04018472713420779, ,0.004603213826860676, ,0.00040550559198700674
175, ,PASS, ,0.04814218, ,0.03861985440396445, ,0.0041273348029632045, ,0.0003822350058998354
176, ,PASS, ,0.04864974, ,0.03846041155029841, ,0.004090628227587192, ,0.0003847127779004445
177, ,PASS, ,0.04837379, ,0.03845611516337415, ,0.004288114940511418, ,0.0003824553862682964
178, ,PASS, ,0.048838369999999985, ,0.03849863945891309, ,0.004215522138323707, ,0.0003867170522826588
179, ,PASS, ,0.048865059999999995, ,0.03831593287891059, ,0.004212618911246709, ,0.00038484858955995584
180, ,PASS, ,0.048450959999999994, ,0.038679559424706925, ,0.004078333731760577, ,0.00038514470212560855
181, ,PASS, ,0.048480819999999994, ,0.0387031685041336, ,0.004041133636048243, ,0.00038579598684561263
182, ,PASS, ,0.04904971999999999, ,0.03977695428411002, ,0.004574429968980224, ,0.0004013091468067922
183, ,PASS, ,0.0482648, ,0.03884181540375089, ,0.0041561564329299396, ,0.0003854002520644243
184, ,PASS, ,0.04797610000000001, ,0.03816866560198592, ,0.004387808274320931, ,0.00037650110050042206
185, ,PASS, ,0.04792064, ,0.03792568052817539, ,0.004219498633905429, ,0.00037354640181900585
186, ,PASS, ,0.04810794, ,0.0384117134994278, ,0.0041075651394869486, ,0.00037981731836545744
187, ,PASS, ,0.048084890000000005, ,0.03818551045971482, ,0.004233650193873594, ,0.0003775137732611867
188, ,PASS, ,0.04814958999999999, ,0.03847809520683895, ,0.0039836268306769245, ,0.0003807858276714928
189, ,PASS, ,0.04836026, ,0.03824919778241553, ,0.004207697867798616, ,0.0003804740062710317
190, ,PASS, ,0.048272899999999994, ,0.038554921327792833, ,0.004046847924940307, ,0.00038266159746109396
191, ,PASS, ,0.04793409, ,0.03826271817634603, ,0.0041158115856819244, ,0.00037729746475891794
192, ,PASS, ,0.04814103, ,0.03827155326322541, ,0.004259875707026387, ,0.0003788917574155319
193, ,PASS, ,0.04828074, ,0.038417127199406285, ,0.00432852243709312, ,0.0003814442905827629
194, ,PASS, ,0.04796091999999999, ,0.038196039502570535, ,0.004148533266259871, ,0.0003767309244923115
195, ,PASS, ,0.048010670000000005, ,0.03847959678273933, ,0.004192006058447786, ,0.00037984951301804013
196, ,PASS, ,0.04877829999999999, ,0.038829050726038795, ,0.004012757355972328, ,0.00038941825696994916
197, ,PASS, ,0.04837023, ,0.03855305510611169, ,0.004121052169343483, ,0.00038338255273294506
198, ,PASS, ,0.048298940000000005, ,0.03852591364314532, ,0.004100760541009367, ,0.0003825633095065834
199, ,PASS, ,0.04836080999999999, ,0.03814818859540487, ,0.004033045579682047, ,0.00037926565808412246
200, ,PASS, ,0.048448229999999995, ,0.038745607017054394, ,0.004187256690883859, ,0.0003859480722805636
201, ,PASS, ,0.048406569999999996, ,0.03842704435790561, ,0.004193506122732189, ,0.00038246664314527286
202, ,PASS, ,0.04829187000000001, ,0.03825528289836835, ,0.0041143949260219175, ,0.0003798409625961175
203, ,PASS, ,0.048420809999999995, ,0.038437697897457566, ,0.004242190031632007, ,0.00038266539490192173
204, ,PASS, ,0.04832263, ,0.03828941709888045, ,0.004155184479500419, ,0.0003805781111897523
205, ,PASS, ,0.0485192, ,0.038608231541279694, ,0.004129260815493562, ,0.00038535948868328204
206, ,PASS, ,0.0485257, ,0.03844118614643595, ,0.0041133642962388525, ,0.00038366658215597984
207, ,PASS, ,0.04877539, ,0.03859623970393395, ,0.004223050742841982, ,0.0003872988412097198
208, ,PASS, ,0.050938269999999994, ,0.040701430573503936, ,0.004421660893655231, ,0.00042625023592483726
209, ,PASS, ,0.11982686000000004, ,0.0967964375429981, ,0.011650011749760207, ,0.0023929724236408175
210, ,PASS, ,0.07274542, ,0.06123529601331478, ,0.007193614151139775, ,0.0009179017175870813
211, ,PASS, ,0.04699265000000001, ,0.03874042197603186, ,0.004232988817371072, ,0.0003744773320913185
212, ,PASS, ,0.04567384, ,0.03742810028206466, ,0.004102916838023713, ,0.0003515961175499642
213, ,PASS, ,0.04582048000000001, ,0.03746354351347779, ,0.004206597177608618, ,0.00035298957379035085
214, ,PASS, ,0.04569487000000001, ,0.03753708768576863, ,0.00396039198812269, ,0.00035265792489156886
215, ,PASS, ,0.04613924000000001, ,0.03790881866494901, ,0.004202753133813594, ,0.00035947496870187184
216, ,PASS, ,0.045876850000000004, ,0.03751620223357268, ,0.004102872896675576, ,0.000353828983613782
217, ,PASS, ,0.04593088000000001, ,0.03798556219084697, ,0.00418994210016122, ,0.00035872702055711914
218, ,PASS, ,0.04586220000000001, ,0.03777152689584139, ,0.004133993557478417, ,0.00035617834871602146
219, ,PASS, ,0.04622472000000001, ,0.03797036391467658, ,0.004253158594722556, ,0.00036056268870591606
220, ,PASS, ,0.04577276000000001, ,0.03780739606160866, ,0.004079256943939918, ,0.00035583282821595674
221, ,PASS, ,0.04599872000000001, ,0.0378980569742094, ,0.004269697988612476, ,0.0003582708249196893
222, ,PASS, ,0.045639540000000006, ,0.037819345438546634, ,0.004262875489683883, ,0.0003547870951923223
223, ,PASS, ,0.04620867000000001, ,0.03809144934034871, ,0.0043701943946041905, ,0.0003618235109371909
224, ,PASS, ,0.046162850000000005, ,0.03808272729736455, ,0.004188795256015182, ,0.0003613054224686038
225, ,PASS, ,0.046262760000000014, ,0.03813517381406027, ,0.004156775920899572, ,0.000362489234985883
226, ,PASS, ,0.046260320000000014, ,0.037955355919231555, ,0.004344769168792472, ,0.0003605673437304839
227, ,PASS, ,0.046169, ,0.03800566315704609, ,0.004254834009305931, ,0.0003604457132182828
228, ,PASS, ,0.04623237000000002, ,0.03796368932947427, ,0.004181965374176036, ,0.0003604082579577881
229, ,PASS, ,0.045774950000000016, ,0.037718440559960494, ,0.0042562390683863575, ,0.0003547153418221083
230, ,PASS, ,0.04603965000000001, ,0.03790466433832697, ,0.004170880781208545, ,0.00035830393559708985
231, ,PASS, ,0.046300400000000005, ,0.03802599744520529, ,0.004149319882451376, ,0.00036149419637406986
232, ,PASS, ,0.04614339000000002, ,0.037743123205235464, ,0.004286595504785615, ,0.00035770632311133587
233, ,PASS, ,0.046110520000000016, ,0.03774921755591836, ,0.0041519129064712945, ,0.0003574616003347272
234, ,PASS, ,0.046075790000000005, ,0.03790875095288316, ,0.004111887721270992, ,0.00035871772673044
235, ,PASS, ,0.04625189000000001, ,0.0376965171840013, ,0.004080967379237157, ,0.0003580358961380809
236, ,PASS, ,0.04752486, ,0.0387542730017182, ,0.004221418427787187, ,0.0003783132042993133
237, ,PASS, ,0.04732404000000001, ,0.0391616755040546, ,0.0044327804908063095, ,0.0003805607556537647
238, ,PASS, ,0.04655242000000002, ,0.03770435701571, ,0.004298984420522029, ,0.00036035687659064506
239, ,PASS, ,0.04647084000000003, ,0.03825024844427839, ,0.004452951287320666, ,0.0003649800274800734
240, ,PASS, ,0.04659963000000002, ,0.03830906913917011, ,0.0044566208573294415, ,0.000366661045187962
241, ,PASS, ,0.047182360000000007, ,0.03867411484572843, ,0.004281564948878593, ,0.0003746032243734535
242, ,PASS, ,0.046762899999999996, ,0.038198561652228916, ,0.004385447484337053, ,0.00036649854248901144
243, ,PASS, ,0.04677662000000001, ,0.0382655825475248, ,0.004401703493398092, ,0.0003673337491931355
244, ,PASS, ,0.04742179999999999, ,0.03917758931199856, ,0.004242754540723658, ,0.0003814850430067337
245, ,PASS, ,0.04787152000000001, ,0.03945746909758275, ,0.004193125067039448, ,0.0003878372439807328
246, ,PASS, ,0.04671404000000001, ,0.038006863973974736, ,0.004308708336972713, ,0.00036438304670217254
247, ,PASS, ,0.04693559000000001, ,0.03806561098758525, ,0.004028463527274952, ,0.00036672048898977463
248, ,PASS, ,0.046850130000000004, ,0.038352455581287206, ,0.0042099649482663605, ,0.00036881739966649707
249, ,PASS, ,0.047064890000000005, ,0.0385521685448892, ,0.00426831598151058, ,0.0003724669400751931
250, ,PASS, ,0.046872930000000014, ,0.037843564750983584, ,0.004280041660986509, ,0.00036404456091376547
251, ,PASS, ,0.04685383000000001, ,0.038437973244672935, ,0.004320687785555395, ,0.00036968333874493883
252, ,PASS, ,0.0466182, ,0.037943967387554366, ,0.004053261512418112, ,0.00036315777153222756
253, ,PASS, ,0.04692766, ,0.038046308797254715, ,0.004100607060059997, ,0.00036654071497079643
254, ,PASS, ,0.04724240000000002, ,0.03820675007510075, ,0.004305010430807533, ,0.00037049703978685937
255, ,PASS, ,0.04749526000000001, ,0.03862375341167608, ,0.004249694534601334, ,0.00037652561557124345
