Channel, ,Pass/Fail, ,Amplitude, ,Sorting Function Response, ,Mean, ,Variance, ,NPeaksRatio, ,PosIntegralRatio, ,ToT50, ,ToT99
0, ,PASS, ,0.034877720000000015, ,0.0043671953625051075, ,0.03920381307483521, ,0.00015647217088216416, ,1.8333333333333333, ,0.7312410073641966, ,0.6200281626905574, ,0.08034529907552906
1, ,PASS, ,0.03591864, ,0.0052130144205450755, ,0.03943287733229934, ,0.00019109237995520594, ,2.0, ,0.7835245963619374, ,0.6166812922185262, ,0.10452847901063243
2, ,PASS, ,0.036136360000000006, ,0.005166563558600797, ,0.03954748094814392, ,0.00019069176707500198, ,2.0, ,0.777410469869969, ,0.6171506703944818, ,0.08773290341013448
3, ,PASS, ,0.03576142999999999, ,0.005091866166034439, ,0.03932186312156895, ,0.000185955175523702, ,2.0, ,0.7749944702920225, ,0.6166404767249648, ,0.08295749066345585
4, ,PASS, ,0.03540381000000002, ,0.005020873783331066, ,0.039462593075447444, ,0.0001816675086247336, ,2.0, ,0.7785523402988339, ,0.6173955633558499, ,0.10222240362441583
5, ,PASS, ,0.0352132, ,0.005050659645891621, ,0.03933946039978776, ,0.0001817149846599957, ,2.0, ,0.7776351210280752, ,0.6119671027121896, ,0.09683475847431686
6, ,PASS, ,0.03520436000000001, ,0.005003490822800591, ,0.039241281162629336, ,0.00018015085472405462, ,2.0, ,0.7798426259311552, ,0.6145180710597743, ,0.10718148609212057
7, ,PASS, ,0.03513389, ,0.004997585608942837, ,0.039408041197730656, ,0.0001794295335654525, ,2.0, ,0.7767614637699014, ,0.6154772351584662, ,0.0944878675945389
8, ,PASS, ,0.03509693000000001, ,0.004996627084117072, ,0.03956315800106121, ,0.0001792872175232837, ,2.0, ,0.7776942447741194, ,0.6140895083773801, ,0.09201853023407686
9, ,PASS, ,0.035204999999999986, ,0.004985358333991206, ,0.039530234650109186, ,0.00017938006705856652, ,2.0, ,0.7766905410121181, ,0.6147017407808004, ,0.08828391257321279
10, ,PASS, ,0.03496384999999999, ,0.004983086427584712, ,0.039483555559070224, ,0.00017814082224582752, ,2.0, ,0.7776711186585127, ,0.6170486316605783, ,0.09173282177914736
11, ,PASS, ,0.034964940000000014, ,0.004990443138464848, ,0.03937603801126508, ,0.00017836636793919922, ,2.0, ,0.7776726826008638, ,0.616946592926675, ,0.09403889716536397
12, ,PASS, ,0.034878050000000015, ,0.004962539067758553, ,0.03942335031509561, ,0.00017692785329303978, ,2.0, ,0.780421915314338, ,0.6209465112956879, ,0.0971612824228077
13, ,PASS, ,0.0349778, ,0.004967941719782621, ,0.03936609564763984, ,0.00017760178929984133, ,2.0, ,0.7760423569159707, ,0.6173343401155078, ,0.08971245484786025
14, ,PASS, ,0.03496266000000001, ,0.004943261534699423, ,0.039374903433195246, ,0.00017665811815918215, ,2.0, ,0.7767968496885028, ,0.6147833717679231, ,0.09399808167180261
15, ,PASS, ,0.03486887000000001, ,0.004950810787621967, ,0.0391538928303504, ,0.00017646187611171138, ,2.0, ,0.776513257434655, ,0.6172935246219465, ,0.09481439154302973
16, ,PASS, ,0.03497670000000001, ,0.004953659120978503, ,0.039264444781126916, ,0.00017703761724842902, ,2.0, ,0.7739970837618472, ,0.6118650639782861, ,0.08885532948307177
17, ,PASS, ,0.03529637, ,0.004960704749551099, ,0.03935496475990286, ,0.00017889102642586153, ,2.0, ,0.769843805627292, ,0.6177833105446827, ,0.04093794004203996
18, ,PASS, ,0.03547398, ,0.00514333683396769, ,0.03959882968796555, ,0.00018630552767501273, ,2.0, ,0.7857562988216463, ,0.6190689985918655, ,0.10505908042693006
19, ,PASS, ,0.035040440000000006, ,0.004938048398330915, ,0.039448112822391385, ,0.00017687540962566466, ,2.0, ,0.7745859954514794, ,0.6180894267463929, ,0.09487561478337177
20, ,PASS, ,0.03480857000000001, ,0.0049140037308379085, ,0.039340354425419895, ,0.0001749310286187445, ,2.0, ,0.775188959326624, ,0.6150894879696333, ,0.09042672598518398
21, ,PASS, ,0.03483570000000001, ,0.004948936633248278, ,0.03936800141221608, ,0.00017624914566500736, ,2.0, ,0.779375372020247, ,0.6183955429481031, ,0.1019775106630477
22, ,PASS, ,0.03514399, ,0.004922589461667476, ,0.03961707867614947, ,0.0001769561437589781, ,2.0, ,0.7753414178952339, ,0.6167016999653069, ,0.08214118079222874
23, ,PASS, ,0.03495140000000001, ,0.00490783502995996, ,0.039480648514316034, ,0.0001755640877448409, ,2.0, ,0.7767403485142738, ,0.6214975204587662, ,0.10544682761576295
24, ,PASS, ,0.03510789000000001, ,0.0049476451324451075, ,0.03952018963796657, ,0.00017758415125590027, ,2.0, ,0.773933199389102, ,0.6180486112528316, ,0.09063080345299075
25, ,PASS, ,0.03514040000000001, ,0.004960871059958074, ,0.03962201514132365, ,0.00017839374880732634, ,2.0, ,0.776239623990496, ,0.6199465317034346, ,0.08830432031999347
26, ,PASS, ,0.03607233, ,0.005191990531278839, ,0.03958778512785453, ,0.00019118624240038268, ,2.0, ,0.7851146241191399, ,0.6173139323687271, ,0.10228362686475787
27, ,PASS, ,0.035021739999999996, ,0.004924595297030614, ,0.03965318680394278, ,0.00017652729751186378, ,2.0, ,0.7732937010417266, ,0.6201302014244607, ,0.0951205077447399
28, ,PASS, ,0.034876630000000006, ,0.004895087746894539, ,0.03946338969184303, ,0.00017453276859812208, ,2.0, ,0.7704750489798933, ,0.6179261647721475, ,0.08393706250892839
29, ,PASS, ,0.0349257, ,0.00490092445247039, ,0.039272409365319075, ,0.00017505665417752407, ,2.0, ,0.7754055064026807, ,0.6188853288708394, ,0.09867145568457787
30, ,PASS, ,0.03482551, ,0.00491684587495043, ,0.039338403221566905, ,0.00017501234670995987, ,2.0, ,0.7706799229965432, ,0.6147221485275811, ,0.07693720536315585
31, ,PASS, ,0.03484270999999999, ,0.004885688561755571, ,0.0393575544615416, ,0.00017408138645611264, ,2.0, ,0.7716376744581421, ,0.6151507112099753, ,0.09644701128548397
32, ,PASS, ,0.03519771000000002, ,0.004937258214047744, ,0.03940025970878146, ,0.00017774577868423603, ,2.0, ,0.776183680012188, ,0.6159874288279831, ,0.0974265831309565
33, ,PASS, ,0.034945770000000015, ,0.004902191233505675, ,0.0392955295163364, ,0.00017524446067818607, ,2.0, ,0.7750537038266389, ,0.6163343605232546, ,0.0942021591396094
34, ,PASS, ,0.034844940000000005, ,0.004923917337066828, ,0.03944047729781025, ,0.00017550352558140587, ,2.0, ,0.775176709793422, ,0.6159262055876411, ,0.08393706250892839
35, ,PASS, ,0.03480840000000001, ,0.004899257087606051, ,0.03950354974061754, ,0.0001743506177619607, ,2.0, ,0.7727681986096749, ,0.6180690189996123, ,0.09320217954735617
36, ,PASS, ,0.03500523999999999, ,0.004904861834174712, ,0.03934536102487705, ,0.00017550468861083363, ,2.0, ,0.7699967144808557, ,0.6130487132915655, ,0.07648823493398094
37, ,PASS, ,0.03507538000000002, ,0.004890491927108594, ,0.03936648577273934, ,0.0001753608908669093, ,2.0, ,0.7706453045227859, ,0.6156609048794922, ,0.07508010040611417
38, ,PASS, ,0.034700550000000004, ,0.004879118342979496, ,0.0394724225903553, ,0.0001732987414405572, ,2.0, ,0.7728934215554827, ,0.6157017203730536, ,0.08677373931144262
39, ,PASS, ,0.03473254, ,0.004859647770355101, ,0.03946025467541479, ,0.0001725521348674056, ,2.0, ,0.7696487246478744, ,0.6178445337850248, ,0.07736576804555009
40, ,PASS, ,0.034975600000000016, ,0.004898693450206521, ,0.039070774978061676, ,0.0001753825618675382, ,2.0, ,0.7733406463939716, ,0.6208852880553458, ,0.09748780637129854
41, ,PASS, ,0.03487711000000002, ,0.004905073865095054, ,0.03907698737413522, ,0.00017502783184951656, ,2.0, ,0.7742019894420015, ,0.6160078365747638, ,0.09393685843146059
42, ,PASS, ,0.03497401, ,0.004875813429358206, ,0.03914423631211608, ,0.00017449578274413, ,2.0, ,0.7714385310612998, ,0.6194975612742597, ,0.09016142527703516
43, ,PASS, ,0.03493765, ,0.0048909058522577835, ,0.03930260120589376, ,0.0001748620840079439, ,2.0, ,0.7691009975790887, ,0.617069039407359, ,0.07185567641476705
44, ,PASS, ,0.037500470000000015, ,0.005540336080776022, ,0.03935650963551764, ,0.0002118640229320975, ,1.9166666666666667, ,0.7900730564862516, ,0.6131507520254689, ,0.09212056896798025
45, ,PASS, ,0.08875000199999998, ,0.012568746003850132, ,0.04083375057064141, ,0.0011146118640359315, ,1.8333333333333333, ,0.7077462250972669, ,0.5779882043223608, ,0.05495806208036571
46, ,FAIL, ,0.007422040000000012, ,0.00029605543993867515, ,0.03586621580722843, ,2.3144218341056886e-06, ,0.6666666666666666, ,0.3593706439059517, ,0.4760719168996551, ,0.010550805085610498
47, ,PASS, ,0.04118514000000001, ,0.006026223425715264, ,0.0399581018358809, ,0.00025331940171761935, ,2.0, ,0.7913453862814591, ,0.6184567661884451, ,0.11632415664986429
48, ,PASS, ,0.04061497000000001, ,0.005958361924503555, ,0.0399068524436236, ,0.0002468022036897655, ,2.0, ,0.7916316367981777, ,0.6181098344931736, ,0.09865104793779719
49, ,PASS, ,0.04524594, ,0.006921381210320252, ,0.040315364619905716, ,0.00031812742801349896, ,1.9166666666666667, ,0.795210700578158, ,0.6156609048794922, ,0.12636476806595784
50, ,PASS, ,0.04478647999999999, ,0.00691933316303618, ,0.04003863011367115, ,0.0003144071514061496, ,1.9166666666666667, ,0.7969716540870868, ,0.6099671435276831, ,0.12073222995449072
51, ,PASS, ,0.04508928999999999, ,0.006942105562834686, ,0.04024648254668272, ,0.00031774739783747337, ,1.9166666666666667, ,0.7958767934183569, ,0.6118446562315055, ,0.12165057855962123
52, ,PASS, ,0.04483666, ,0.006934380452869939, ,0.04004708005836616, ,0.0003155653060590178, ,1.9166666666666667, ,0.7998678565181335, ,0.6104773371972001, ,0.14816024162772187
53, ,PASS, ,0.04499760999999999, ,0.006900285024842245, ,0.04016964631946287, ,0.0003154182207728033, ,1.9166666666666667, ,0.796463482645856, ,0.6135180914675211, ,0.12391583845227648
54, ,PASS, ,0.04522869999999999, ,0.006933129944659481, ,0.04009472148772474, ,0.00031813906431422365, ,1.9166666666666667, ,0.7961175420530315, ,0.6107426379053489, ,0.11920164894593988
55, ,PASS, ,0.04492119999999998, ,0.006900893330370166, ,0.04018213062161997, ,0.0003148242447644489, ,1.9166666666666667, ,0.7961601299076115, ,0.6129874900512234, ,0.1227934123793392
56, ,PASS, ,0.04497576999999999, ,0.006946667880395167, ,0.03997329486602314, ,0.000317170811239334, ,1.9166666666666667, ,0.7964922718553015, ,0.6088651252015265, ,0.12795657231485072
57, ,PASS, ,0.04493429, ,0.006956327731130866, ,0.040025153828697375, ,0.00031698350897637603, ,1.9166666666666667, ,0.7989311279540653, ,0.6073549519397563, ,0.14881328952470357
58, ,PASS, ,0.044835509999999995, ,0.006927675199016596, ,0.04013860219668986, ,0.0003151030791617738, ,1.9166666666666667, ,0.7987208104110781, ,0.6116813942572601, ,0.14381339156343748
59, ,PASS, ,0.04480205999999999, ,0.006885502602597549, ,0.040122984245219484, ,0.0003133600177695695, ,1.9166666666666667, ,0.799950910615291, ,0.6152527499438787, ,0.145364380318769
60, ,PASS, ,0.044731889999999996, ,0.006940338274613764, ,0.04009171157302912, ,0.00031498493048595774, ,1.9166666666666667, ,0.8016113947823339, ,0.6096610273259729, ,0.14501744862349747
61, ,PASS, ,0.04469248999999999, ,0.006866065361536325, ,0.04016183220648558, ,0.00031173603370687064, ,1.9166666666666667, ,0.7991224763531231, ,0.6172323013816045, ,0.14256851900981612
62, ,PASS, ,0.044777149999999974, ,0.006915819358500845, ,0.04013674311034469, ,0.00031422217059326707, ,1.9166666666666667, ,0.7985976199216718, ,0.6102120364890512, ,0.13687475765800697
63, ,PASS, ,0.04487255999999999, ,0.006850906634277579, ,0.040212647286177836, ,0.00031215930030884653, ,1.9166666666666667, ,0.7931516077169635, ,0.612946674557662, ,0.10630395298055141
64, ,PASS, ,0.044676699999999986, ,0.006883002795450928, ,0.040111785493765435, ,0.00031214887478104176, ,1.9166666666666667, ,0.7974772561622494, ,0.6135589069610824, ,0.1259362053835636
65, ,PASS, ,0.044744389999999974, ,0.00690787337154936, ,0.03991836296422522, ,0.0003136868452256225, ,1.9166666666666667, ,0.7999476213424268, ,0.6110895696006204, ,0.14260933450337748
66, ,PASS, ,0.04473681999999998, ,0.006844905507392866, ,0.040005502443827674, ,0.0003109011041707528, ,1.9166666666666667, ,0.7944047815647447, ,0.6131099365319075, ,0.12365053774412767
67, ,PASS, ,0.044703669999999994, ,0.006894412488761689, ,0.039937015402746884, ,0.0003127810601963572, ,1.9166666666666667, ,0.7977884816001811, ,0.6110283463602784, ,0.12848717373114835
68, ,PASS, ,0.044815289999999994, ,0.006843749858285979, ,0.040066185030305505, ,0.00031145371094177155, ,1.9166666666666667, ,0.7944529305305541, ,0.6135997224546438, ,0.11038550233668701
69, ,PASS, ,0.044691099999999984, ,0.006874367569629451, ,0.04006360920409788, ,0.00031189886122649855, ,1.9166666666666667, ,0.7954730319822642, ,0.6115181322830147, ,0.12128323911756902
70, ,PASS, ,0.04470438999999998, ,0.006914854938706313, ,0.0399409846888839, ,0.00031377744393842877, ,1.9166666666666667, ,0.7992141894865485, ,0.6075998449011245, ,0.13773188302279546
71, ,PASS, ,0.04470627999999997, ,0.00687260258303953, ,0.040116857609844694, ,0.0003120576688067102, ,1.9166666666666667, ,0.7964092886435115, ,0.6135793147078631, ,0.12883410542641988
72, ,PASS, ,0.04584283899999999, ,0.0071167425373682034, ,0.040149601184873776, ,0.00033059421057349514, ,1.9166666666666667, ,0.7985798987657349, ,0.6093549111242628, ,0.14326238240035918
73, ,PASS, ,0.045143199999999994, ,0.00696850192778298, ,0.04014402271178139, ,0.0003190150208103409, ,1.9166666666666667, ,0.7966188524836757, ,0.6100691822615865, ,0.14691536907410052
74, ,PASS, ,0.045068066999999976, ,0.006925514397677973, ,0.04009526258341666, ,0.0003165003776225579, ,1.9166666666666667, ,0.7960559902147114, ,0.6104773371972001, ,0.132691169567968
75, ,PASS, ,0.04496520899999999, ,0.006976876554771702, ,0.03995175982102406, ,0.0003181657930722088, ,1.9166666666666667, ,0.7997811774885819, ,0.6071508744719496, ,0.14418073100548967
76, ,PASS, ,0.04502255, ,0.006927945105446717, ,0.039974594642558314, ,0.00031651431957404545, ,1.9166666666666667, ,0.7963684670810476, ,0.6091304259096754, ,0.12358931450378564
77, ,PASS, ,0.045256349999999994, ,0.00695629729910248, ,0.04013650568172078, ,0.00031948606323982924, ,1.9166666666666667, ,0.7982519498199739, ,0.6131711597722496, ,0.14579294300116324
78, ,PASS, ,0.044836909999999994, ,0.006957927221172123, ,0.0401711480816718, ,0.00031624754552444167, ,1.9166666666666667, ,0.7986872407361358, ,0.6095793963388503, ,0.13660945694985815
79, ,PASS, ,0.04484569999999998, ,0.00692622024473705, ,0.04012724520744475, ,0.0003151835914144556, ,1.9166666666666667, ,0.7979949354825129, ,0.6113344625619885, ,0.1358339625721924
80, ,PASS, ,0.04623690999999999, ,0.0071738383115925635, ,0.040175412171384255, ,0.0003362410115941732, ,1.9166666666666667, ,0.7971499022223135, ,0.6101712209954899, ,0.1424052570355707
81, ,PASS, ,0.04575779899999999, ,0.007012469545182824, ,0.040151240055509074, ,0.00032553519180559116, ,1.9166666666666667, ,0.7955588618949082, ,0.612946674557662, ,0.1342625660700802
82, ,PASS, ,0.04516861999999999, ,0.006942017930499629, ,0.040244553240954266, ,0.00031823626080309007, ,1.9166666666666667, ,0.7961522352629206, ,0.6128038203301973, ,0.12479337156384564
83, ,PASS, ,0.045077669999999986, ,0.006936254541114918, ,0.04016364071508745, ,0.0003172232894799805, ,1.9166666666666667, ,0.7979911994615378, ,0.6117834329911634, ,0.14485418664925206
84, ,PASS, ,0.04515441999999999, ,0.0069572413400957964, ,0.0403237584828881, ,0.00031879701575842186, ,1.9166666666666667, ,0.7992595270237639, ,0.612946674557662, ,0.14091549152058122
85, ,PASS, ,0.04507178, ,0.006968161045969511, ,0.040198339274504606, ,0.00031860648699985795, ,1.9166666666666667, ,0.7983606928010173, ,0.6130283055447848, ,0.14030325911716088
86, ,PASS, ,0.04523811999999998, ,0.006944900280042128, ,0.04022311192587907, ,0.00031884532220619185, ,1.9166666666666667, ,0.7967968243804352, ,0.6134772759739597, ,0.1376706597824534
87, ,PASS, ,0.04526896999999999, ,0.006959602598750391, ,0.04015870033101365, ,0.00031976696702625283, ,1.9166666666666667, ,0.7985558387761013, ,0.6131303442786882, ,0.13828289218587375
88, ,PASS, ,0.045207489999999996, ,0.00692940046264417, ,0.04001767193485847, ,0.00031753969436750445, ,1.9166666666666667, ,0.7914648047296816, ,0.6072325054590723, ,0.07838615538458399
89, ,PASS, ,0.04497596999999999, ,0.0069756903297580625, ,0.04008098016264974, ,0.00031817131947701707, ,1.9166666666666667, ,0.8007272699978556, ,0.6127425970898553, ,0.1585273769923063
90, ,PASS, ,0.04489453999999999, ,0.006924413248255638, ,0.04014689395767433, ,0.000315381162447286, ,1.9166666666666667, ,0.797369185584115, ,0.6095385808452889, ,0.1300993857268219
91, ,PASS, ,0.045237579999999986, ,0.006939960256159692, ,0.040037574173588296, ,0.00031878364818701513, ,1.9166666666666667, ,0.7944108420143063, ,0.6136813534417664, ,0.1173241362421175
92, ,PASS, ,0.04492467, ,0.006951457119574969, ,0.04021985346829657, ,0.00031674924412768076, ,1.9166666666666667, ,0.7969491011764855, ,0.6098242893002184, ,0.12942593008305953
93, ,PASS, ,0.045112819999999984, ,0.0069505833195277434, ,0.04012257016285382, ,0.00031826202761164185, ,1.9166666666666667, ,0.7996382258332351, ,0.6131711597722496, ,0.13493602171384259
94, ,PASS, ,0.04481504999999998, ,0.006947299276686389, ,0.040224916011918126, ,0.0003156820501454939, ,1.9166666666666667, ,0.7996877551236631, ,0.609783473806657, ,0.1423032183016673
95, ,PASS, ,0.044722630000000006, ,0.006885083141521059, ,0.040018875956613124, ,0.00031241341881796907, ,1.9166666666666667, ,0.7947554897603447, ,0.6090487949225526, ,0.10612028325952531
96, ,PASS, ,0.044920530000000014, ,0.006936208390554398, ,0.04022211832391176, ,0.0003160340390408279, ,1.9166666666666667, ,0.7968506840335073, ,0.6106610069182261, ,0.13087488010448767
97, ,PASS, ,0.04466564, ,0.006942647612322389, ,0.04019557172384237, ,0.0003144113928804972, ,1.9166666666666667, ,0.8002306852680207, ,0.6084977857594743, ,0.14322156690679783
98, ,PASS, ,0.04493723999999999, ,0.006929030662067994, ,0.040097961839350216, ,0.0003160287744828725, ,1.9166666666666667, ,0.7995380140874188, ,0.6140486928838187, ,0.14909899797963308
99, ,PASS, ,0.04456954999999998, ,0.006882932264589533, ,0.04023970722291382, ,0.00031165905381127466, ,1.9166666666666667, ,0.8000574568309511, ,0.6175996408236567, ,0.13940531825881106
100, ,PASS, ,0.044428039999999995, ,0.00688465334287746, ,0.040220874870716926, ,0.00031021137798094853, ,1.9166666666666667, ,0.8013905212291675, ,0.6116609865104794, ,0.14532356482520764
101, ,PASS, ,0.04450254999999999, ,0.006850953227588053, ,0.04019030605906002, ,0.00030962150046665504, ,1.9166666666666667, ,0.8012750946636532, ,0.6154772351584662, ,0.1541601191812412
102, ,PASS, ,0.044622679999999984, ,0.006838128024277737, ,0.04026135280667741, ,0.00030999322959574703, ,1.9166666666666667, ,0.7969320320895217, ,0.6165792534846227, ,0.1222424032162609
103, ,PASS, ,0.044628509999999975, ,0.0068600415199059584, ,0.0400825584349299, ,0.0003106800943297884, ,1.9166666666666667, ,0.7967162276144213, ,0.6119875104589703, ,0.12207914124201547
104, ,PASS, ,0.044760659999999994, ,0.0069032323092166155, ,0.04000297840125711, ,0.0003136127886935063, ,1.9166666666666667, ,0.7992872799451107, ,0.6110487541070591, ,0.13246668435338055
105, ,PASS, ,0.04489467999999999, ,0.006945681226876254, ,0.04020850157874329, ,0.0003162583872902268, ,1.9166666666666667, ,0.7981284531163504, ,0.6107834533989103, ,0.1313034427868819
106, ,PASS, ,0.046744548999999976, ,0.007168392970382685, ,0.03999044833227893, ,0.00034000733790360156, ,1.9166666666666667, ,0.7978549083668971, ,0.6124364808881452, ,0.1271402624436236
107, ,PASS, ,0.10674973, ,0.014709675712895994, ,0.042648397065202744, ,0.0015693626564131091, ,1.6666666666666667, ,0.7038219047298605, ,0.586212526274974, ,0.10207954939695109
108, ,PASS, ,0.086373751, ,0.012242682100084792, ,0.041620767563402786, ,0.0010595415869012847, ,1.75, ,0.7267572608175501, ,0.5902532601375482, ,0.09985510499785719
109, ,PASS, ,0.04870582399999998, ,0.007545505493194433, ,0.04040079667374136, ,0.000372730867728434, ,1.9166666666666667, ,0.7979575948808912, ,0.6096814350727536, ,0.1364053794820514
110, ,PASS, ,0.048131604999999994, ,0.00737770339471071, ,0.04025344918838391, ,0.00036062181902029943, ,1.9166666666666667, ,0.7962844469281563, ,0.613905838656354, ,0.12854839697149037
111, ,PASS, ,0.04766909700000001, ,0.007375653246159843, ,0.04019460355237648, ,0.00035680172037201206, ,1.9166666666666667, ,0.8001445309843833, ,0.6110283463602784, ,0.13660945694985815
112, ,PASS, ,0.04798436499999999, ,0.007399116733320706, ,0.04043933327217812, ,0.0003600088898864536, ,1.9166666666666667, ,0.7996634589540844, ,0.6106610069182261, ,0.1443644007265158
113, ,PASS, ,0.047878286999999985, ,0.007387145222307333, ,0.040442117730658554, ,0.00035909256605012136, ,1.9166666666666667, ,0.7954956202756491, ,0.612763004836636, ,0.1235280912634436
114, ,PASS, ,0.048072781999999994, ,0.007423470748887625, ,0.04009083987326789, ,0.00036199565786777224, ,1.9166666666666667, ,0.7970897440290003, ,0.606293749107161, ,0.1251811187526785
115, ,PASS, ,0.04792046800000001, ,0.007398293748732017, ,0.04042085374931124, ,0.0003598750268805994, ,1.9166666666666667, ,0.7940502635588629, ,0.6140691006305994, ,0.1187118630232036
116, ,PASS, ,0.047927275999999984, ,0.007451701922530435, ,0.04031631593069529, ,0.0003620158442898981, ,1.9166666666666667, ,0.7999865428849, ,0.6064570110814065, ,0.14124201546907206
117, ,PASS, ,0.048144286999999994, ,0.00742080136211172, ,0.040592649607967185, ,0.00036251080038904516, ,1.9166666666666667, ,0.7947287772437307, ,0.6118446562315055, ,0.12163017081284055
118, ,PASS, ,0.04788183500000001, ,0.007422818529499304, ,0.04043281693536867, ,0.000360560839821606, ,1.9166666666666667, ,0.798920332629473, ,0.6127834125834166, ,0.1541397114344605
119, ,PASS, ,0.047781809, ,0.007442030989686015, ,0.04032454112365054, ,0.0003605835757350312, ,1.9166666666666667, ,0.8006877464845144, ,0.6086202322401584, ,0.1474051549968368
120, ,PASS, ,0.047781108, ,0.007376327196987216, ,0.040251322133221766, ,0.00035751976866657835, ,1.9166666666666667, ,0.7952720616703784, ,0.611497724536234, ,0.1276708638599212
121, ,PASS, ,0.04762813199999999, ,0.007330752951669835, ,0.04048758761392625, ,0.00035460068496140183, ,1.9166666666666667, ,0.7983547678411463, ,0.6164568070039387, ,0.14291545070508765
122, ,PASS, ,0.047291064000000015, ,0.007340440544229297, ,0.04038736190485909, ,0.0003521074266080915, ,1.9166666666666667, ,0.7992274768551296, ,0.6111712005877431, ,0.14411950776514765
123, ,PASS, ,0.047511009, ,0.007295223970766873, ,0.04032338135425807, ,0.0003521451602153774, ,1.9166666666666667, ,0.7988238520975071, ,0.6181302422399543, ,0.14377257606987612
124, ,PASS, ,0.04696191300000002, ,0.007224133005878669, ,0.04016634259545723, ,0.0003444492078720709, ,1.9166666666666667, ,0.798121739439351, ,0.6149262259953878, ,0.14856839656333545
125, ,PASS, ,0.047033660000000005, ,0.007291303363402578, ,0.04021398807371278, ,0.00034772061070046533, ,1.9166666666666667, ,0.7958757226616151, ,0.6068243505234587, ,0.11328340237954328
126, ,PASS, ,0.04715216800000001, ,0.0072695984983148, ,0.04043758319299606, ,0.00034784650054017145, ,1.9166666666666667, ,0.7994196903774186, ,0.6136405379482052, ,0.139915511928328
127, ,PASS, ,0.04696144, ,0.007269712159014717, ,0.040395510122242406, ,0.0003464031285138625, ,1.9166666666666667, ,0.8000780204937182, ,0.6131507520254689, ,0.15316013958898797
128, ,PASS, ,0.04666526999999999, ,0.007199136444064847, ,0.0405253486912512, ,0.0003408523265341857, ,1.9166666666666667, ,0.7967065205116707, ,0.609089610416114, ,0.12840554274402563
129, ,PASS, ,0.046729660000000006, ,0.007221693476402026, ,0.04063597551356095, ,0.0003425824145906233, ,1.9166666666666667, ,0.7992588065614797, ,0.6111712005877431, ,0.14213995632742188
130, ,PASS, ,0.047097710000000015, ,0.007231252021875481, ,0.04049986761208955, ,0.000345831392002285, ,1.9166666666666667, ,0.796446335972511, ,0.6125997428623906, ,0.12209954898879614
131, ,PASS, ,0.046770040000000006, ,0.007253164693180999, ,0.04055322320585294, ,0.0003441658033675828, ,1.9166666666666667, ,0.7998867290522925, ,0.6078447378624926, ,0.1407522295463358
132, ,PASS, ,0.047193040000000006, ,0.007245204583709193, ,0.04070050194506235, ,0.0003470818940578695, ,1.9166666666666667, ,0.798032065191559, ,0.6116405787636987, ,0.12795657231485072
133, ,PASS, ,0.047100900000000015, ,0.007262080415119623, ,0.04060506052876472, ,0.00034729677504663004, ,1.9166666666666667, ,0.7987189410639361, ,0.612763004836636, ,0.1364870104691741
134, ,PASS, ,0.04739612000000001, ,0.007299377627990441, ,0.04053105583947267, ,0.0003510392264571138, ,1.9166666666666667, ,0.7960765468367292, ,0.6118650639782861, ,0.1319564906838636
135, ,PASS, ,0.04780494800000001, ,0.007352152232443428, ,0.04048763002755046, ,0.00035651886762252813, ,1.9166666666666667, ,0.7965786825605917, ,0.6124977041284871, ,0.12146690883859514
136, ,PASS, ,0.04710916, ,0.007248944648980065, ,0.0405030189085937, ,0.0003465927736187243, ,1.9166666666666667, ,0.7994209178552422, ,0.612701781596294, ,0.14171139364502766
137, ,PASS, ,0.047133980000000006, ,0.007285851509412527, ,0.04046141784228893, ,0.0003481287909725187, ,1.9166666666666667, ,0.7982640518894316, ,0.6114160935491112, ,0.13944613375237241
138, ,PASS, ,0.04694665900000001, ,0.007264284375129455, ,0.040520573201159156, ,0.0003459698447800868, ,1.9166666666666667, ,0.7989303655703555, ,0.6115181322830147, ,0.14177261688536968
139, ,PASS, ,0.046968650000000015, ,0.007262244270552234, ,0.04060591544009306, ,0.00034598609251967633, ,1.9166666666666667, ,0.7988531933294228, ,0.6100487745148058, ,0.13977265770086325
140, ,PASS, ,0.04686814000000001, ,0.007242511914525651, ,0.04059901499357156, ,0.00034456087989833274, ,1.9166666666666667, ,0.8004746333251543, ,0.6108854921328136, ,0.14365012958919204
141, ,PASS, ,0.046921085000000015, ,0.007238234979043272, ,0.04059750243260342, ,0.0003446481066257401, ,1.9166666666666667, ,0.7989318743736494, ,0.6113956858023306, ,0.14479296340891
142, ,PASS, ,0.047406186, ,0.00735199581826717, ,0.04039480130487133, ,0.00035356893282292146, ,1.9166666666666667, ,0.7980085372217908, ,0.6095998040856309, ,0.1343441970572029
143, ,PASS, ,0.04812624099999999, ,0.00745264457662758, ,0.040648016661088554, ,0.000363717375693839, ,1.9166666666666667, ,0.7976346661651599, ,0.6120487336993122, ,0.14136446194975613
144, ,PASS, ,0.047359706999999994, ,0.007295224774541045, ,0.0402934778335136, ,0.0003505797189165822, ,1.9166666666666667, ,0.7964248711691019, ,0.6098242893002184, ,0.12071182220771004
145, ,PASS, ,0.047067379000000006, ,0.007288280957363096, ,0.040353250639578786, ,0.0003479678775800736, ,1.9166666666666667, ,0.7994548723328572, ,0.6106405991714455, ,0.14842554233587069
146, ,PASS, ,0.04696889, ,0.007323915406004083, ,0.04032383049284709, ,0.0003486203706435753, ,1.9166666666666667, ,0.8012461773334764, ,0.6096406195791922, ,0.15289483888083916
147, ,PASS, ,0.047090545, ,0.007284203907555648, ,0.040567334237056385, ,0.00034796026637012514, ,1.9166666666666667, ,0.7975125212619271, ,0.6112936470684271, ,0.1238954307054958
148, ,PASS, ,0.04691681000000002, ,0.007320201924800145, ,0.04034263136201302, ,0.0003482358873690716, ,1.9166666666666667, ,0.8001850495744193, ,0.6095998040856309, ,0.1489561437521683
149, ,PASS, ,0.046957410000000005, ,0.007290302462510394, ,0.040360726346401095, ,0.0003473054085218734, ,1.9166666666666667, ,0.7994007759368773, ,0.6113956858023306, ,0.1454664190526724
150, ,PASS, ,0.04733476000000001, ,0.007318359549416116, ,0.04045021186526806, ,0.00035131230789795903, ,1.9166666666666667, ,0.7991858103102774, ,0.6104773371972001, ,0.1349156139670619
151, ,PASS, ,0.04726316700000001, ,0.007289690657670087, ,0.04044740691047121, ,0.0003493852698081946, ,1.9166666666666667, ,0.7958872674974824, ,0.6091304259096754, ,0.12440562437501275
152, ,PASS, ,0.047320208000000016, ,0.007281223178256841, ,0.04052705242341993, ,0.00034958488563656827, ,1.9166666666666667, ,0.7988914786821398, ,0.6122324034203384, ,0.1425072957694741
153, ,PASS, ,0.04724924000000002, ,0.007257190481719195, ,0.040638426601089774, ,0.0003480001127228314, ,1.9166666666666667, ,0.7951871424198084, ,0.6120487336993122, ,0.11218138405338667
154, ,PASS, ,0.047282094000000004, ,0.007293004345946962, ,0.04048543078508602, ,0.0003496827892939365, ,1.9166666666666667, ,0.7949208957473682, ,0.609905920287341, ,0.12432399338789005
155, ,PASS, ,0.046831080000000004, ,0.007285898903889343, ,0.040519754413583395, ,0.00034603760421439276, ,1.9166666666666667, ,0.8002450175685428, ,0.6101508132487092, ,0.1374257668210853
156, ,PASS, ,0.047263415999999996, ,0.007278612053696099, ,0.04038832460704884, ,0.0003487449038575258, ,1.9166666666666667, ,0.793644424543502, ,0.6091916491500173, ,0.10744678680026938
157, ,PASS, ,0.04688812, ,0.007272106120904945, ,0.04043989231383033, ,0.00034593734993752367, ,1.9166666666666667, ,0.8004652649878463, ,0.6103752984632966, ,0.14836431909552866
158, ,PASS, ,0.046994498999999995, ,0.007255843868965798, ,0.04035447311034469, ,0.0003460641645063192, ,1.9166666666666667, ,0.7973748803248945, ,0.6101916287422706, ,0.12097712291585885
159, ,PASS, ,0.04667153000000002, ,0.007218317451554495, ,0.04044911265729271, ,0.00034174159514696655, ,1.9166666666666667, ,0.7993869689057937, ,0.6103548907165159, ,0.1376910675292341
160, ,PASS, ,0.046666420000000014, ,0.007218069049883549, ,0.04022229977082101, ,0.00034174772849416337, ,1.9166666666666667, ,0.7998283986403845, ,0.6106814146650068, ,0.12832391175690291
161, ,PASS, ,0.04662784999999999, ,0.007232758746962321, ,0.04016697443868492, ,0.00034194951769261184, ,1.9166666666666667, ,0.7997872245872271, ,0.6078447378624926, ,0.1358339625721924
162, ,PASS, ,0.046459789999999994, ,0.007194797751562519, ,0.040434695443970534, ,0.0003391437702633027, ,1.9166666666666667, ,0.8007957510887568, ,0.6105997836778841, ,0.14293585845186832
163, ,PASS, ,0.046528019999999996, ,0.007127794457891749, ,0.04057419545519479, ,0.0003366950711983979, ,1.9166666666666667, ,0.798348544744212, ,0.6140691006305994, ,0.13034427868819004
164, ,PASS, ,0.04672297, ,0.007178838289178927, ,0.04041704925593355, ,0.00034025061716250383, ,1.9166666666666667, ,0.7944813369022632, ,0.6123140344074611, ,0.1213036468643497
165, ,PASS, ,0.04675365000000001, ,0.00719454606253553, ,0.04039830683843187, ,0.00034117547303804665, ,1.9166666666666667, ,0.7991465943388943, ,0.6083549315320096, ,0.1326707618211873
166, ,PASS, ,0.04657230000000001, ,0.007183996775447784, ,0.040489217212097715, ,0.0003395384839769172, ,1.9166666666666667, ,0.7973043789537138, ,0.6118854717250668, ,0.13118099630619784
167, ,PASS, ,0.04665105999999999, ,0.007215051375706904, ,0.04039886326830065, ,0.0003415439503746318, ,1.9166666666666667, ,0.8002249755242399, ,0.611620171016918, ,0.1453847880655497
168, ,PASS, ,0.05229524800000001, ,0.008084257542265329, ,0.04085266750556111, ,0.000428147172905362, ,1.9166666666666667, ,0.793790198610264, ,0.6093549111242628, ,0.14375216832309545
169, ,PASS, ,0.04714545000000001, ,0.007280330524370979, ,0.040534401421399566, ,0.0003480921671486005, ,1.9166666666666667, ,0.7979401632585937, ,0.6113548703087692, ,0.1357523315850697
170, ,PASS, ,0.05344203300000001, ,0.00817802069311633, ,0.04098424716638436, ,0.0004424349427103689, ,1.8333333333333333, ,0.7865570351207857, ,0.6083345237852289, ,0.1221403644823575
171, ,PASS, ,0.19630648999999994, ,0.028074633151059944, ,0.04909357321932205, ,0.005514637436182842, ,1.75, ,0.728319491765082, ,0.5800085712536479, ,0.10865084386032937
172, ,PASS, ,0.049663144999999985, ,0.007662625906505257, ,0.040653845288259424, ,0.00038542725161256106, ,1.9166666666666667, ,0.7939336653614524, ,0.6064161955878451, ,0.14362972184241138
173, ,PASS, ,0.04922835099999999, ,0.0075591143203444, ,0.04044022622701578, ,0.00037720645604785523, ,1.9166666666666667, ,0.7919714116759694, ,0.6103548907165159, ,0.13424215832329953
174, ,PASS, ,0.04890343699999999, ,0.007542821920475274, ,0.04048189474908675, ,0.00037377073621248843, ,1.9166666666666667, ,0.7894258050605085, ,0.6078651456092733, ,0.11285483969714903
175, ,PASS, ,0.04973979999999999, ,0.007656775751267829, ,0.040761612602599945, ,0.00038576632180264395, ,1.8333333333333333, ,0.7918832004113033, ,0.6078243301157119, ,0.1388951245892941
176, ,PASS, ,0.049136708, ,0.007573643346542713, ,0.0407042996340891, ,0.00037696669093438936, ,1.8333333333333333, ,0.7928846078826146, ,0.6082120773045449, ,0.14281341197118427
177, ,PASS, ,0.04928840099999998, ,0.007548414477689629, ,0.040866646961898734, ,0.00037712566171153156, ,1.9166666666666667, ,0.7909607375379972, ,0.6126609661027326, ,0.13636456398849003
178, ,PASS, ,0.049201641, ,0.007554479592077847, ,0.040396373784820715, ,0.00037677667210100283, ,1.9166666666666667, ,0.7907295438846398, ,0.6095589885920696, ,0.12691577722903613
179, ,PASS, ,0.04898823799999999, ,0.007529825141146542, ,0.04051636645762332, ,0.0003739114803608228, ,1.8333333333333333, ,0.7924844974469528, ,0.6131507520254689, ,0.1480582028938185
180, ,PASS, ,0.04933210499999998, ,0.007529422987027976, ,0.04064301588763495, ,0.000376209859867534, ,1.9166666666666667, ,0.7862414055058979, ,0.6078447378624926, ,0.10434480928960634
181, ,PASS, ,0.049242168999999975, ,0.007545865006568232, ,0.04063598835595192, ,0.00037646663456245065, ,1.8333333333333333, ,0.7918299009561711, ,0.611109977347401, ,0.14438480847329646
182, ,PASS, ,0.049066545999999996, ,0.007564646052019812, ,0.040586292701577514, ,0.00037590267578747964, ,1.9166666666666667, ,0.792299347070104, ,0.6080488153302994, ,0.13356870267953716
183, ,PASS, ,0.04919592199999998, ,0.007522718454941215, ,0.04057004729148385, ,0.0003747474785227443, ,1.9166666666666667, ,0.7900333015087452, ,0.6108242688924715, ,0.13214016040488968
184, ,PASS, ,0.04926450299999999, ,0.00755018813165728, ,0.04062116061039571, ,0.000377091169462265, ,1.9166666666666667, ,0.7935237300030002, ,0.6107222301585682, ,0.14381339156343748
185, ,PASS, ,0.049030950999999996, ,0.0075916057590671975, ,0.04066419999897961, ,0.0003770016642227493, ,1.9166666666666667, ,0.7938901646479746, ,0.6087222709740617, ,0.14816024162772187
186, ,PASS, ,0.049174209999999975, ,0.007530612009035005, ,0.04051904817269035, ,0.0003754433748515728, ,1.9166666666666667, ,0.78962481768991, ,0.6107222301585682, ,0.11828330034080937
187, ,PASS, ,0.049100249, ,0.007532686950836701, ,0.04040563909001857, ,0.00037481332041792835, ,1.8333333333333333, ,0.7912811863212557, ,0.6093140956307014, ,0.13899716332319748
188, ,PASS, ,0.04911894799999998, ,0.007559851810658253, ,0.04041568611375278, ,0.00037616751889811545, ,1.9166666666666667, ,0.7925116418433139, ,0.6084977857594743, ,0.1462827289238995
189, ,PASS, ,0.049003836, ,0.007526521848671376, ,0.0404354846245995, ,0.00037358118802116835, ,1.8333333333333333, ,0.7898934192908057, ,0.608579416746597, ,0.13330340197138835
190, ,PASS, ,0.04878367, ,0.007532066422150653, ,0.04066902816513949, ,0.0003721029803497194, ,1.9166666666666667, ,0.7933823207240691, ,0.6092732801371401, ,0.14830309585518664
191, ,PASS, ,0.048852341, ,0.007513582222437003, ,0.040402644353992774, ,0.000371750939168598, ,1.9166666666666667, ,0.7927801429610817, ,0.6103140752229547, ,0.14418073100548967
192, ,PASS, ,0.048744722000000004, ,0.007504936999417212, ,0.04035137606457011, ,0.00037053293615549565, ,1.9166666666666667, ,0.7928622315828564, ,0.6089263484418685, ,0.14275218873084222
193, ,PASS, ,0.0488794, ,0.007471274265187904, ,0.04071666978469827, ,0.0003700644746004611, ,1.9166666666666667, ,0.7919567845954681, ,0.610416113956858, ,0.14297667394542968
194, ,PASS, ,0.048657164, ,0.007507260008985327, ,0.040412669645721516, ,0.0003703919827257107, ,1.9166666666666667, ,0.7943630769810307, ,0.6091916491500173, ,0.1345482745250097
195, ,PASS, ,0.0487581, ,0.0074765028432671994, ,0.040734961369155734, ,0.00036929415637364097, ,1.9166666666666667, ,0.7917393906293423, ,0.6105589681843228, ,0.14030325911716088
196, ,PASS, ,0.048792834, ,0.0075343633043489485, ,0.040544017705761104, ,0.0003725129837881704, ,1.8333333333333333, ,0.7926823244664709, ,0.607497806167221, ,0.14430317748617374
197, ,PASS, ,0.05031615199999999, ,0.007771012512862602, ,0.04054106221566906, ,0.00039554938156953403, ,1.75, ,0.7886602166092759, ,0.60566110895696, ,0.13875227036182936
198, ,PASS, ,0.04926042999999998, ,0.007543338194142396, ,0.040584150450398974, ,0.00037639259571995635, ,1.9166666666666667, ,0.7898904952665476, ,0.6103140752229547, ,0.1365686414562968
199, ,PASS, ,0.048673772, ,0.007499583906795512, ,0.040425246946184774, ,0.00036973744428048005, ,1.9166666666666667, ,0.792295673215664, ,0.6088855329483072, ,0.1383441154262158
200, ,PASS, ,0.048713005999999996, ,0.007514715004530831, ,0.040489520136731905, ,0.0003706188817819449, ,1.9166666666666667, ,0.79241812005445, ,0.607885553356054, ,0.14887451276504562
201, ,PASS, ,0.048762129999999994, ,0.007503944224593174, ,0.040584549575518866, ,0.00037059176492149927, ,1.8333333333333333, ,0.7929628404684917, ,0.6093549111242628, ,0.14422154649905103
202, ,PASS, ,0.048503615, ,0.007498974298097269, ,0.040428341597110264, ,0.00036826704901215705, ,1.8333333333333333, ,0.790875886933898, ,0.607375359686537, ,0.13689516540478766
203, ,PASS, ,0.04874281299999998, ,0.007487539445939264, ,0.040577056556804963, ,0.0003696437095310285, ,1.9166666666666667, ,0.7925677400464994, ,0.6100079590212445, ,0.14905818248607172
204, ,PASS, ,0.048809900999999996, ,0.0075174201510759655, ,0.04046956154670313, ,0.00037150907338202963, ,1.9166666666666667, ,0.7920712537968946, ,0.6077018836350279, ,0.13756862104855003
205, ,PASS, ,0.05058162799999999, ,0.0077678451476604895, ,0.040435529922042406, ,0.00039751943246450495, ,1.75, ,0.7873602802302737, ,0.60686516601702, ,0.1362217097610253
206, ,PASS, ,0.04936406899999998, ,0.007598485432932335, ,0.04047012351625477, ,0.00037965071605275614, ,1.75, ,0.7894159318309314, ,0.6075590294075631, ,0.1333442174649497
207, ,PASS, ,0.04863555699999999, ,0.007501880790904756, ,0.04033387884410523, ,0.00036940735273353214, ,1.8333333333333333, ,0.7907824153731288, ,0.6070488357380461, ,0.14260933450337748
208, ,PASS, ,0.04900684599999998, ,0.007526206051310653, ,0.04034016891940981, ,0.0003736613848930353, ,1.8333333333333333, ,0.7900891935222031, ,0.6075590294075631, ,0.12709944695006226
209, ,PASS, ,0.048826203000000006, ,0.0075175489727763445, ,0.04027643599375523, ,0.00037184621966684266, ,1.9166666666666667, ,0.7924445457099442, ,0.6100487745148058, ,0.14732352400971407
210, ,PASS, ,0.048761985, ,0.007508478927378352, ,0.04052203272810759, ,0.0003706580987315924, ,1.9166666666666667, ,0.791157956478549, ,0.608007999836738, ,0.13728291259362055
211, ,PASS, ,0.04874459499999999, ,0.007516483209882015, ,0.040441672870757735, ,0.00037108855671825434, ,1.8333333333333333, ,0.7904238141188966, ,0.6073345441929756, ,0.13126262729332056
212, ,PASS, ,0.04883176099999998, ,0.007547534197860606, ,0.04041835374849493, ,0.0003731938742126157, ,1.8333333333333333, ,0.793082868547141, ,0.608007999836738, ,0.14699700006122324
213, ,PASS, ,0.048938208999999996, ,0.007525678793846288, ,0.040600204064815, ,0.00037260812891131806, ,1.8333333333333333, ,0.7873527242164102, ,0.6070080202444849, ,0.12275259688577785
214, ,PASS, ,0.048715245000000004, ,0.007481483207953418, ,0.040462938394318484, ,0.00036911217988656273, ,1.8333333333333333, ,0.789189625486056, ,0.6085998244933777, ,0.12983408501867308
215, ,PASS, ,0.048713624999999997, ,0.007505035298443361, ,0.04054660146221505, ,0.00037015905215790463, ,1.9166666666666667, ,0.7915444792970592, ,0.6081100385706414, ,0.13634415624170934
216, ,PASS, ,0.048920503, ,0.007563425854752237, ,0.04060621150017347, ,0.00037451701653256004, ,1.9166666666666667, ,0.7920393863595305, ,0.6092732801371401, ,0.1474867859839595
217, ,PASS, ,0.049001922, ,0.007499137726029317, ,0.04054403069814902, ,0.00037225522985342914, ,1.8333333333333333, ,0.7904720588733951, ,0.6104773371972001, ,0.13618089426746394
218, ,PASS, ,0.04885012200000001, ,0.007531551538744724, ,0.040394157478826964, ,0.00037253805113661605, ,1.9166666666666667, ,0.7914839606677092, ,0.6082120773045449, ,0.13744617456786595
219, ,PASS, ,0.048742557000000006, ,0.007520013052663533, ,0.04034939018958796, ,0.0003711930407805281, ,1.9166666666666667, ,0.7939129555273369, ,0.6078447378624926, ,0.14611946694965408
220, ,PASS, ,0.048578253999999994, ,0.007479849109778147, ,0.04045715316340483, ,0.00036800031192682795, ,1.9166666666666667, ,0.7902060695625759, ,0.6076814758882472, ,0.12777290259382462
221, ,PASS, ,0.048434837999999994, ,0.0074806710679158825, ,0.040347999095732744, ,0.0003670693425754309, ,1.9166666666666667, ,0.7930814509342081, ,0.6077835146221505, ,0.13838493091977716
222, ,PASS, ,0.04820203500000001, ,0.007433964403902378, ,0.040524196624966834, ,0.00036291492723387165, ,1.8333333333333333, ,0.7921406532016162, ,0.6098855125405604, ,0.14275218873084222
223, ,PASS, ,0.04804755399999999, ,0.0074071774963710745, ,0.040527614570110816, ,0.0003606078608606024, ,1.9166666666666667, ,0.794729769790071, ,0.6091916491500173, ,0.14534397257198833
224, ,PASS, ,0.048208077999999994, ,0.007427436210982452, ,0.0402904186585988, ,0.00036293061328262626, ,1.8333333333333333, ,0.7925990394514323, ,0.609783473806657, ,0.1424052570355707
225, ,PASS, ,0.04822566400000001, ,0.007410645312624, ,0.04041421612599743, ,0.0003620398726807006, ,1.8333333333333333, ,0.7926387846335738, ,0.6101304055019285, ,0.13501765270096527
226, ,PASS, ,0.04817277299999999, ,0.007401085816154416, ,0.040424459059406954, ,0.00036107040168403224, ,1.9166666666666667, ,0.7906856516394214, ,0.6090283871757719, ,0.1322217913920124
227, ,PASS, ,0.04806375400000001, ,0.007386172007988199, ,0.04050611781004469, ,0.0003597007806747344, ,1.9166666666666667, ,0.7920802781870281, ,0.6102528519826126, ,0.14026244362359952
228, ,PASS, ,0.048082604, ,0.007381052676948026, ,0.040304219345319484, ,0.0003595204818158956, ,1.8333333333333333, ,0.7906733611989265, ,0.6094569498581661, ,0.11948735740086937
229, ,PASS, ,0.047773855999999996, ,0.007367750497870446, ,0.040459487189445115, ,0.00035655764462362967, ,1.9166666666666667, ,0.7923012242378465, ,0.6090487949225526, ,0.13634415624170934
230, ,PASS, ,0.047814355999999995, ,0.007370574000724518, ,0.04036815720128161, ,0.00035689661276399806, ,1.9166666666666667, ,0.7926493215750521, ,0.6091304259096754, ,0.13226260688557376
231, ,PASS, ,0.048892999999999985, ,0.007541761630951534, ,0.040608976089263484, ,0.0003734221444825103, ,1.9166666666666667, ,0.7934473994427731, ,0.6106405991714455, ,0.1591600171425073
232, ,PASS, ,0.11107645999999999, ,0.015359952663314237, ,0.04257264925348462, ,0.0017024507188828095, ,1.75, ,0.7020411843626126, ,0.5770902634640109, ,0.09885512540560397
233, ,PASS, ,0.11288819000000001, ,0.015497533373714335, ,0.04234508826411706, ,0.0017446644599124854, ,1.8333333333333333, ,0.6975367949188771, ,0.5736413542580764, ,0.0983653394828677
234, ,PASS, ,0.062474611999999985, ,0.009099176988088098, ,0.040666115815065, ,0.0005708562291236614, ,1.75, ,0.7459690654330505, ,0.5932327911675271, ,0.12103834615620089
235, ,PASS, ,0.06134271799999996, ,0.008928788604153115, ,0.040600399068182275, ,0.0005498941189906539, ,1.75, ,0.7444921538220819, ,0.591783841146099, ,0.11089569600620396
236, ,PASS, ,0.06171917999999997, ,0.009015093317874744, ,0.04036867230134079, ,0.0005587779319435425, ,1.75, ,0.74674375661747, ,0.5900899981633028, ,0.11716087426787208
237, ,PASS, ,0.06153497500000001, ,0.00894347975401603, ,0.04067736710540601, ,0.0005523073636780894, ,1.75, ,0.7413692092414841, ,0.592987898206159, ,0.1066917001693843
238, ,PASS, ,0.06136511299999999, ,0.008892431471700648, ,0.040656985526764756, ,0.0005483783285144284, ,1.75, ,0.7413316245459128, ,0.5930287136997204, ,0.09563070141425685
239, ,PASS, ,0.06146594299999998, ,0.008927543095501875, ,0.04071713440872635, ,0.0005509686706646897, ,1.75, ,0.743432611481062, ,0.5928246362319136, ,0.11189567559845717
240, ,FAIL, ,0.006688330000000013, ,0.00038243122077107647, ,0.036442815407032515, ,2.669465917523347e-06, ,1.25, ,0.38656893099014983, ,0.6010693659313076, ,0.010448766351707108
241, ,PASS, ,0.06781639749999999, ,0.009289052750433097, ,0.039766094537295155, ,0.0006288330980137038, ,1.8333333333333333, ,0.6995933191403522, ,0.5798657170261832, ,0.097712291585886
242, ,PASS, ,0.06163412200000002, ,0.008920633969858422, ,0.040607724268708796, ,0.0005522733737431684, ,1.75, ,0.7422121050189529, ,0.5935389073692373, ,0.1101202016285382
243, ,PASS, ,0.061720742999999995, ,0.00897509276847114, ,0.04044331174339299, ,0.0005561012276489988, ,1.75, ,0.7424818216992819, ,0.5924981122834228, ,0.1149364298687782
244, ,PASS, ,0.061899909999999995, ,0.008977345394092133, ,0.04050974967602702, ,0.0005580551484194231, ,1.75, ,0.7414793124296097, ,0.5931715679271852, ,0.1065080304483582
245, ,PASS, ,0.06198653099999996, ,0.008983610661722184, ,0.040345830893512374, ,0.0005590723414608923, ,1.75, ,0.7410676352710741, ,0.5914369094508275, ,0.10895696006203955
246, ,PASS, ,0.061873719999999986, ,0.008981945477310072, ,0.040726344252892795, ,0.0005580962532687111, ,1.75, ,0.7443404370766395, ,0.5928246362319136, ,0.11699761229362667
247, ,PASS, ,0.06170561999999997, ,0.009026903557489346, ,0.04052489064263994, ,0.0005591792482406568, ,1.75, ,0.7432522269844171, ,0.5891104263178303, ,0.11350788759413073
248, ,PASS, ,0.06212779099999999, ,0.00902016768189352, ,0.040738532737658414, ,0.0005627697690426386, ,1.75, ,0.7428733440719811, ,0.5928858594722557, ,0.11189567559845717
249, ,PASS, ,0.06244859600000002, ,0.009041729390594467, ,0.04064688558606967, ,0.0005671745099300907, ,1.75, ,0.7422787061971547, ,0.592987898206159, ,0.10934470725087243
250, ,PASS, ,0.06211341999999999, ,0.009041466761333824, ,0.04062990774510724, ,0.0005636322858293216, ,1.75, ,0.7438615481184767, ,0.5925797432705455, ,0.12058937572702598
251, ,PASS, ,0.062362257999999976, ,0.00907489919883452, ,0.040601430157323315, ,0.0005680333349763991, ,1.75, ,0.7433024944765828, ,0.5909675312748719, ,0.1187118630232036
252, ,PASS, ,0.06183193900000002, ,0.008952575416222035, ,0.040601607897798, ,0.000555300050423067, ,1.75, ,0.738479920748927, ,0.5903552988714516, ,0.09597763310952838
253, ,PASS, ,0.061909789, ,0.009004605139139041, ,0.04062764560343666, ,0.0005597444588770662, ,1.75, ,0.7409824984841971, ,0.5903552988714516, ,0.10765086426807616
254, ,PASS, ,0.062270246, ,0.009022018387680693, ,0.04088094448009224, ,0.0005640816324525158, ,1.75, ,0.7423555914891081, ,0.5936817615967022, ,0.11207934531948327
255, ,PASS, ,0.06235650399999997, ,0.009064520423465831, ,0.040444342063876246, ,0.0005674415656514225, ,1.75, ,0.7406028806838799, ,0.5893553192791984, ,0.1051203036672721
