Channel, ,Pass/Fail, ,Amplitude, ,Sorting Function Response, ,Mean, ,Variance, ,NPeaksRatio, ,PosIntegralRatio, ,ToT50, ,ToT99
24, ,PASS, ,0.017682149999999983, ,0.0029127797673212993, ,0.028690124899083697, ,5.184754583411668e-05, ,1.8333333333333333, ,0.7923954193809448, ,0.5120303667272097, ,0.13258913083406462
25, ,PASS, ,0.032166270000000004, ,0.005238448043552421, ,0.029050864838472686, ,0.00016890115767792535, ,1.8333333333333333, ,0.7780275887221426, ,0.5126221913838493, ,0.08046774555621314
26, ,PASS, ,0.037772732, ,0.006125669978481139, ,0.029153371866002732, ,0.0002320274468344902, ,1.75, ,0.7836593627934617, ,0.5198873492377707, ,0.11301810167139446
27, ,PASS, ,0.035767787999999995, ,0.005828487148617728, ,0.029437277203404014, ,0.00020890302510152955, ,1.75, ,0.7881226427696225, ,0.5253974408685537, ,0.1208546764351748
28, ,PASS, ,0.02700799, ,0.004450833975691525, ,0.02898733726719863, ,0.000120602428585367, ,1.8333333333333333, ,0.7912072624402223, ,0.5147854125426011, ,0.08577375971918941
29, ,PASS, ,0.012805090000000005, ,0.0020813166804056226, ,0.028615491207934537, ,2.6760133370275562e-05, ,1.8333333333333333, ,0.7921371268052542, ,0.5127242301177527, ,0.1330585090100202
30, ,PASS, ,0.01744522, ,0.002927874854156922, ,0.028744810978143305, ,5.1309656089484485e-05, ,1.8333333333333333, ,0.800200463905478, ,0.5098467378216771, ,0.11322217913920124
31, ,PASS, ,0.033827302, ,0.005581493210262841, ,0.02914125275055611, ,0.00018932061949508905, ,1.75, ,0.790706401798702, ,0.5166017020060815, ,0.12203832574845411
32, ,PASS, ,0.039285832, ,0.006435382921394738, ,0.029373331875431116, ,0.00025346523588862214, ,1.75, ,0.787457567275108, ,0.5208669210832432, ,0.12330360604885615
33, ,PASS, ,0.037057004000000004, ,0.006105511357128644, ,0.02909204781124875, ,0.00022715549813086348, ,1.8333333333333333, ,0.7893346450301987, ,0.5144384808473297, ,0.11648741862410972
34, ,PASS, ,0.027309180000000023, ,0.004557243648317479, ,0.028880015388461466, ,0.00012499227598690362, ,1.8333333333333333, ,0.7978889369647151, ,0.5128670843452174, ,0.11701802004040734
35, ,PASS, ,0.011312500000000003, ,0.0019413246365483812, ,0.02841232042407298, ,2.2168767557600315e-05, ,1.9166666666666667, ,0.8120370354568858, ,0.5007448827574947, ,0.0677333115650701
36, ,PASS, ,0.020208739999999982, ,0.0033476781311473644, ,0.028696569098385746, ,6.842188566577158e-05, ,1.8333333333333333, ,0.7999961859476351, ,0.5009897757188628, ,0.11785473765841513
37, ,PASS, ,0.037739108000000014, ,0.006135208251375274, ,0.029460125552070365, ,0.00023231029079066794, ,1.75, ,0.7910138697809234, ,0.5218056774351544, ,0.16136405379482052
38, ,PASS, ,0.044224778000000006, ,0.007088229281330222, ,0.030102676800840805, ,0.00031476090394679337, ,1.75, ,0.7842529410768887, ,0.5242137915552744, ,0.17532295259280423
39, ,PASS, ,0.041205438000000004, ,0.0067084261602877735, ,0.029857805290973653, ,0.0002773304413517332, ,1.75, ,0.789296964346727, ,0.5235199281647314, ,0.16032325870900593
40, ,PASS, ,0.03031779000000002, ,0.005047636737488247, ,0.028963823270953662, ,0.00015376231922078885, ,1.8333333333333333, ,0.801410692886203, ,0.5149282667700659, ,0.13791555274382156
41, ,PASS, ,0.012458239999999999, ,0.0021142756982614605, ,0.02822175772514847, ,2.6654768824788378e-05, ,1.9166666666666667, ,0.8029258560465395, ,0.49584702353013205, ,0.023285239076753537
42, ,PASS, ,0.021960139999999986, ,0.003277244051210245, ,0.028886414526642312, ,7.250281091846411e-05, ,1.75, ,0.7552469412800195, ,0.514418073100549, ,0.061651803024428076
43, ,PASS, ,0.041932907, ,0.006323843183812052, ,0.029882927087059447, ,0.0002664781200821829, ,1.8333333333333333, ,0.7630975821140751, ,0.5308054937654334, ,0.18666965980286115
44, ,PASS, ,0.0499877816, ,0.007244227593885976, ,0.030452511481255485, ,0.0003642473842362197, ,1.8333333333333333, ,0.749292603387183, ,0.5371318952674435, ,0.1578539213485439
45, ,PASS, ,0.04816154799999999, ,0.007088117776415414, ,0.030403091024877045, ,0.00034322846934826034, ,1.8333333333333333, ,0.75460934751706, ,0.5346625579069815, ,0.17360870186322727
46, ,PASS, ,0.03617575899999999, ,0.005599816199974974, ,0.029425453890328766, ,0.000203731483190564, ,1.75, ,0.7774048985729509, ,0.5238260443664415, ,0.21154670312850757
47, ,PASS, ,0.014471290000000001, ,0.002393010300043776, ,0.028424283676659664, ,3.4819953196530726e-05, ,1.8333333333333333, ,0.8038197582465073, ,0.5104181547315361, ,0.07442705250913247
48, ,PASS, ,0.020288449999999993, ,0.0031722811163593647, ,0.02872945917144548, ,6.482543008760388e-05, ,1.75, ,0.7796403650995365, ,0.5140711414052774, ,0.16503744821534255
49, ,PASS, ,0.043138730000000014, ,0.006314874929975142, ,0.03008583797591886, ,0.0002740229852362268, ,1.8333333333333333, ,0.7536503635038381, ,0.5326421909756943, ,0.15905797840860392
50, ,PASS, ,0.051126338599999994, ,0.0073399704569731, ,0.030704768461215077, ,0.00037732012945020994, ,1.75, ,0.7439239517860685, ,0.5394175629068795, ,0.1588743086875778
51, ,PASS, ,0.049355014999999995, ,0.007158706432232385, ,0.030691868081569762, ,0.00035529735022009644, ,1.75, ,0.7497325217237992, ,0.5408256974347462, ,0.16750678557580456
52, ,PASS, ,0.03641933, ,0.005655876221632275, ,0.029415135147037814, ,0.00020726249584922317, ,1.75, ,0.77670761346519, ,0.5247239852247914, ,0.17262913001775473
53, ,PASS, ,0.013838310000000013, ,0.0023613800618048665, ,0.028270533183404424, ,3.290741143238399e-05, ,1.8333333333333333, ,0.809910425236563, ,0.5041325687230873, ,0.07030468765943552
54, ,PASS, ,0.021680689999999992, ,0.0024590753226523846, ,0.02920266282871778, ,5.396687992081992e-05, ,1.75, ,0.6649330632569149, ,0.536213546662313, ,0.031836084977857594
55, ,PASS, ,0.026502830000000012, ,0.0032038407207641063, ,0.029611704415216017, ,8.576252526584476e-05, ,1.75, ,0.6852604552189236, ,0.5392134854390727, ,0.036284973776045386
56, ,PASS, ,0.028134510000000012, ,0.0032706596429638514, ,0.029738693549723475, ,9.294838607002868e-05, ,1.75, ,0.6735108694693974, ,0.5514785412542601, ,0.04977449439807351
57, ,PASS, ,0.027176560000000016, ,0.0031014315814804545, ,0.029657052748719413, ,8.518278186482734e-05, ,1.75, ,0.666869048457673, ,0.5490500193873594, ,0.02393828697373523
58, ,PASS, ,0.025124670000000005, ,0.002643276655999196, ,0.029406203024223997, ,6.7322604879056e-05, ,1.75, ,0.6392296380414206, ,0.5441317524132161, ,0.02871369972041387
59, ,PASS, ,0.01622037, ,0.001573555782249065, ,0.0287024447441889, ,2.5911985588781656e-05, ,1.5833333333333333, ,0.6069265776831565, ,0.5580090202240771, ,0.02404032570763862
