Channel, ,Pass/Fail, ,Amplitude, ,Sorting Function Response, ,Mean, ,Variance, ,NPeaksRatio, ,PosIntegralRatio, ,ToT50, ,ToT99
231, ,PASS, ,0.04995159999999997, ,0.011104855274839533, ,0.025475785953347874, ,0.0005732163890970742, ,1.9166666666666667, ,0.9551505610530792, ,0.41348135752331583, ,0.3676047427603518
232, ,PASS, ,0.04995159999999997, ,0.011111323548432177, ,0.025446024895410282, ,0.0005737396266792307, ,1.9166666666666667, ,0.9563176524454742, ,0.4128691251198955, ,0.36768637374747454
233, ,PASS, ,0.0466953709, ,0.005488946727318391, ,0.026382230555309076, ,0.00025992076273141965, ,1.75, ,0.6540978356056086, ,0.4146650068365952, ,0.06189669598579621
234, ,PASS, ,0.03429704599999998, ,0.0036259266280864906, ,0.02732828071859758, ,0.00012641862522808683, ,1.6666666666666667, ,0.6087375111574747, ,0.41493030754474397, ,0.05824370931205486
235, ,PASS, ,0.03360908900000001, ,0.0035308114700844323, ,0.02744195011395686, ,0.00012065148268673555, ,1.5833333333333333, ,0.6046546546724196, ,0.4146854145833758, ,0.05706005999877554
236, ,PASS, ,0.033257971, ,0.0034646535238201915, ,0.02748466395855187, ,0.0001170928897381253, ,1.5833333333333333, ,0.6028851743681718, ,0.41393032795249074, ,0.05016224158690639
237, ,PASS, ,0.03330159099999999, ,0.0034984435629795236, ,0.027485299059794698, ,0.00011830688336737948, ,1.6666666666666667, ,0.6057542055579154, ,0.41493030754474397, ,0.05095814371135283
238, ,PASS, ,0.033321543, ,0.003485383881949473, ,0.02755758763827269, ,0.00011807894426280491, ,1.6666666666666667, ,0.6029696580863404, ,0.41442011387522704, ,0.05218260851819351
239, ,PASS, ,0.033146911, ,0.0034681865368674774, ,0.027543109919164914, ,0.0001168223384286286, ,1.6666666666666667, ,0.6042682824197598, ,0.41523642374645414, ,0.05303973388298198
240, ,PASS, ,0.034229840000000004, ,0.0035826622153385316, ,0.027320658773371972, ,0.00012462120334775836, ,1.5833333333333333, ,0.6018562248255646, ,0.4138895124589294, ,0.0496928634109508
241, ,PASS, ,0.033811391, ,0.0035366202694276797, ,0.027348876875614783, ,0.00012165961290570025, ,1.6666666666666667, ,0.6071893543089179, ,0.41615477235158466, ,0.05210097753107079
242, ,PASS, ,0.03346400200000001, ,0.003538017423704072, ,0.027538190009489604, ,0.00012043924107600283, ,1.5833333333333333, ,0.6120195746932334, ,0.41646088855329483, ,0.05710087549233689
243, ,PASS, ,0.033581653, ,0.0034951037403407087, ,0.02725805706840677, ,0.00011937788265467863, ,1.6666666666666667, ,0.6050610109029492, ,0.41405277443317484, ,0.050611212016081306
244, ,PASS, ,0.033761915999999996, ,0.0035675493811599523, ,0.027307034434440117, ,0.0001224062893663399, ,1.6666666666666667, ,0.6111079172221554, ,0.4154609089610416, ,0.05961102834636028
245, ,PASS, ,0.033865119, ,0.0035853263091904695, ,0.027273359941388953, ,0.0001234160693837275, ,1.6666666666666667, ,0.6071884707151319, ,0.4148078610640599, ,0.05346829656537622
246, ,PASS, ,0.033932476, ,0.0035638299514872047, ,0.02750294369541438, ,0.00012291506095874006, ,1.6666666666666667, ,0.6086329686311345, ,0.4151956082528928, ,0.05169282259545724
247, ,PASS, ,0.03362681800000002, ,0.003564142410733153, ,0.02738224906099876, ,0.00012184175289124669, ,1.6666666666666667, ,0.6079482308494085, ,0.4150119385318667, ,0.04808065141527724
248, ,PASS, ,0.033957534, ,0.0035845486628607146, ,0.027286937668231263, ,0.00012371853021610785, ,1.6666666666666667, ,0.6085731722681914, ,0.41488949205118264, ,0.055243770535295195
249, ,PASS, ,0.033827211999999995, ,0.003566388630873933, ,0.02755961850366319, ,0.00012263384476822695, ,1.6666666666666667, ,0.6053266187338187, ,0.41448133711556906, ,0.051917307810044694
250, ,PASS, ,0.033489790000000005, ,0.0035030035060782958, ,0.027530589902185668, ,0.0001193083677421824, ,1.6666666666666667, ,0.6054441624750406, ,0.41452215260913045, ,0.05601926491296096
251, ,PASS, ,0.03345928799999999, ,0.0035124973426456036, ,0.027435502216689455, ,0.0001194931025573086, ,1.6666666666666667, ,0.6042481548258881, ,0.4151343850125508, ,0.04963164017060876
252, ,PASS, ,0.032757587000000005, ,0.00343693412420726, ,0.027402879496295995, ,0.00011444344396068545, ,1.5833333333333333, ,0.6024716324289199, ,0.4135017652700965, ,0.053162180363666045
253, ,PASS, ,0.03353987699999999, ,0.0035045888825425216, ,0.02752287026356605, ,0.00011950123809030841, ,1.6666666666666667, ,0.6077201526049643, ,0.41615477235158466, ,0.05620293463398706
254, ,PASS, ,0.033351038, ,0.0034955455809681196, ,0.027428260466500685, ,0.00011848390621085466, ,1.6666666666666667, ,0.60375511053815, ,0.4146854145833758, ,0.052611171200587746
255, ,PASS, ,0.033358465, ,0.0034881905979435137, ,0.02740033919709802, ,0.00011835337710585885, ,1.6666666666666667, ,0.6044493024487144, ,0.4147262300769372, ,0.05495806208036571
