Channel, ,Pass/Fail, ,Amplitude, ,Sorting Function Response, ,Mean, ,Variance
0, ,PASS, ,0.033446887868899, ,0.022861335508291537, ,0.0011374127992145083, ,0.00015706261412893601
1, ,PASS, ,0.03636151204162, ,0.029864669544315197, ,0.0015807166192533574, ,0.00022350946323940668
2, ,PASS, ,0.036651378459088, ,0.030221064385690284, ,0.0016458231864589154, ,0.0002280080551912944
3, ,PASS, ,0.036145872315535996, ,0.029419565913977576, ,0.0016052908615936496, ,0.0002188185874096332
4, ,PASS, ,0.036030256369359, ,0.02939741223149617, ,0.0016246083553570435, ,0.00021797376903128692
5, ,PASS, ,0.035877872517258005, ,0.028911705588016832, ,0.0015679062176783246, ,0.00021342934223420192
6, ,PASS, ,0.03594659810069001, ,0.029129214463865617, ,0.0015691938656087392, ,0.00021547859971376236
7, ,PASS, ,0.035718591386706994, ,0.028717566057404345, ,0.0016090112686630088, ,0.00021103360894401558
8, ,PASS, ,0.035900194214142, ,0.02910793856996376, ,0.001558684462450189, ,0.00021504632726533556
9, ,PASS, ,0.035806231707401, ,0.02878261937459136, ,0.0015656876546860602, ,0.00021203839992611586
10, ,PASS, ,0.035933209787887, ,0.02918239815404246, ,0.0015958001566378202, ,0.0002157817767583555
11, ,PASS, ,0.035767112796163, ,0.028809272165064473, ,0.0016367492148192388, ,0.00021201175503007756
12, ,PASS, ,0.035992360743388005, ,0.029233090821635024, ,0.0015994247554702514, ,0.00021652921508873678
13, ,PASS, ,0.035824658995006003, ,0.028815067270553472, ,0.0016114036470059562, ,0.0002123783055764995
14, ,PASS, ,0.035947039780698006, ,0.029254390436055072, ,0.001638090012836211, ,0.00021636717358491627
15, ,PASS, ,0.035899743438567, ,0.028941199818902166, ,0.0016370391792803164, ,0.00021373585005424753
16, ,PASS, ,0.03610896621779399, ,0.029380290381039165, ,0.001643651396529623, ,0.00021827958849486193
17, ,PASS, ,0.036099937045702996, ,0.029150191072483612, ,0.0015822002146914245, ,0.00021648712696067306
18, ,PASS, ,0.03627387269299401, ,0.029653654847898045, ,0.0016729108156518947, ,0.0002213248220819173
19, ,PASS, ,0.036230918270362, ,0.02929877866678063, ,0.0016474453311133173, ,0.00021837937157437944
20, ,PASS, ,0.036382220658061, ,0.02969105926910144, ,0.001687326419029584, ,0.00022225713014103714
21, ,PASS, ,0.036310420501763994, ,0.0293606773200122, ,0.001637387647176359, ,0.000219323606627129
22, ,PASS, ,0.036569378149919, ,0.02985013780673882, ,0.0016613106870202344, ,0.0002246136769246791
23, ,PASS, ,0.03631049337405201, ,0.029215060253898723, ,0.0016569838629846851, ,0.0002182249788114887
24, ,PASS, ,0.036454367263643, ,0.02962535765776385, ,0.0016557401538708856, ,0.00022223728939876157
25, ,PASS, ,0.036352023301855, ,0.02915065882713469, ,0.0016435864199231538, ,0.00021795596609508269
26, ,PASS, ,0.036532362789153006, ,0.02956972779609849, ,0.0016859045813051306, ,0.00022224534960587787
27, ,PASS, ,0.036408779840954, ,0.02920435109045467, ,0.0015835625660994557, ,0.0002186930068527183
28, ,PASS, ,0.036575872894709996, ,0.029465851601553784, ,0.0016392084382587581, ,0.00022167604579226096
29, ,PASS, ,0.036642753001145, ,0.029284833971900157, ,0.0016368252627393845, ,0.00022070044617415586
30, ,PASS, ,0.039269050126529, ,0.03118865551654955, ,0.0017727316703819403, ,0.0002522454184361003
31, ,PASS, ,0.034571182841278, ,0.027316973578154484, ,0.0014905700046789756, ,0.00019433203637781208
32, ,PASS, ,0.034531730852681, ,0.02770527081876358, ,0.001540140656419404, ,0.00019690040757386706
33, ,PASS, ,0.034403478066863, ,0.0273168468390868, ,0.0014686662396921014, ,0.0001933875707163382
34, ,PASS, ,0.034650798769029004, ,0.0279708484036991, ,0.0015212909294541827, ,0.0001994940574503321
35, ,PASS, ,0.03459763330455, ,0.027567980421660695, ,0.001571162341404179, ,0.00019625161986559816
36, ,PASS, ,0.034834291820127, ,0.028051952658293737, ,0.0015221780162106928, ,0.0002011295141485219
37, ,PASS, ,0.034802417035092, ,0.02781240433367609, ,0.0014961980073700842, ,0.0001991894330473272
38, ,PASS, ,0.034913142139782014, ,0.028165203014919402, ,0.001549899437284316, ,0.00020237528540112442
39, ,PASS, ,0.03477953560411699, ,0.02780986674886277, ,0.0015380515756319602, ,0.00019901131886406435
40, ,PASS, ,0.03515657286721899, ,0.02823571190949553, ,0.0015854049488599634, ,0.00020427346245193513
41, ,PASS, ,0.034965921089417, ,0.02781010993214745, ,0.0015450239341045593, ,0.00020007590282121218
42, ,PASS, ,0.034988308020279996, ,0.028131474875229157, ,0.0015460141002360372, ,0.00020255456307009267
43, ,PASS, ,0.034768349478537, ,0.027598821980604194, ,0.0014865696081751314, ,0.00019742370768182512
44, ,PASS, ,0.034931632700966, ,0.02804793659148391, ,0.0015519847245244304, ,0.00020159065153371579
45, ,PASS, ,0.034565765939168006, ,0.027295473766484946, ,0.0014981805324817377, ,0.00019409399293285679
46, ,PASS, ,0.03473081406669701, ,0.027990029539288832, ,0.0015418075962945405, ,0.00020003514079078633
47, ,PASS, ,0.034533082498699, ,0.027437824860506006, ,0.001548622381906624, ,0.00019493826758299948
48, ,PASS, ,0.034751512410976994, ,0.027765748990457594, ,0.0015063379837116045, ,0.00019851403791477029
49, ,PASS, ,0.034514738385951, ,0.027221615419327994, ,0.001470954968351788, ,0.00019327148004882514
50, ,PASS, ,0.034431734388588, ,0.0274166580873528, ,0.0015036266423964033, ,0.00019421552052352895
51, ,PASS, ,0.03422612390433501, ,0.026944430035028992, ,0.0014115249334372515, ,0.00018967263245437267
52, ,PASS, ,0.034204746870451, ,0.027506415510054075, ,0.0015226427221870572, ,0.00019356053127956451
53, ,PASS, ,0.034104237000791, ,0.027210741294549996, ,0.001477826042671945, ,0.00019088216813784495
54, ,PASS, ,0.034251888683411, ,0.02768310422737559, ,0.0015256608878207354, ,0.00019511059071147455
55, ,PASS, ,0.034166780213327995, ,0.027381475834653238, ,0.0015673194021969712, ,0.0001924510937274384
56, ,PASS, ,0.034256191042462, ,0.027665682642112988, ,0.0015629171437713052, ,0.00019496763333499864
57, ,PASS, ,0.034085095449001, ,0.0271259906757394, ,0.0014811653400653802, ,0.00019015826172032483
58, ,PASS, ,0.03406158230837, ,0.027341119774614366, ,0.001515689157648732, ,0.0001915663774162285
59, ,PASS, ,0.03388270764903201, ,0.026906868623274294, ,0.0014627287920359632, ,0.00018747859908122645
60, ,PASS, ,0.034185663320066006, ,0.02728796487335917, ,0.0014826809376210159, ,0.000191865626117715
61, ,PASS, ,0.034095736118273004, ,0.026931058335411102, ,0.0014569497271526752, ,0.00018881985527550857
62, ,PASS, ,0.034169977416518, ,0.02727072529168335, ,0.001575386409118754, ,0.00019168161567790256
63, ,PASS, ,0.03438341732116201, ,0.027560865208912707, ,0.0015094087112473285, ,0.0001949305473184129
64, ,PASS, ,0.034613553908689004, ,0.028342306691121092, ,0.0016013190360450226, ,0.00020190299834839701
65, ,PASS, ,0.03413313703764201, ,0.02726354178473928, ,0.0015046609734008791, ,0.00019140859639566612
66, ,PASS, ,0.034290383864325, ,0.027657679944803632, ,0.0015171413643217488, ,0.00019511519428122708
67, ,PASS, ,0.034016050542252, ,0.027153017547609237, ,0.0015017921531165369, ,0.0001899498897131194
68, ,PASS, ,0.03331965959734701, ,0.026923723119615394, ,0.0015349028529042911, ,0.00018453640827577886
69, ,FAIL, ,0.00010486945551814415, ,6.08379512829352e-06, ,0.00015451507211241023, ,2.459616705529595e-10
70, ,FAIL, ,5.861202841619277e-05, ,8.630100890033975e-06, ,3.258234688154533e-05, ,1.489694071039184e-10
71, ,PASS, ,0.033535045769130994, ,0.02679088873140734, ,0.0014437152621407934, ,0.00018478830699452195
72, ,PASS, ,0.034632851293413994, ,0.02820770374474897, ,0.0015823740606425083, ,0.00020100206074194016
73, ,PASS, ,0.034162029855065, ,0.027187064433197707, ,0.0014795322240286392, ,0.00019102578899321275
74, ,PASS, ,0.034203192346237005, ,0.027467276697529453, ,0.0015145439836730858, ,0.00019323265875841256
75, ,PASS, ,0.03398241494101201, ,0.02698514096382776, ,0.0015175833587195617, ,0.00018858720519844538
76, ,PASS, ,0.03407731011594399, ,0.027186265633732932, ,0.0015108412687541747, ,0.0001905308808893435
77, ,PASS, ,0.034056343813461995, ,0.026783415060225167, ,0.0014786899001466727, ,0.0001875577458967433
78, ,PASS, ,0.034074448107052006, ,0.027155266328355472, ,0.0015055792890398356, ,0.00019029438522369244
79, ,PASS, ,0.033690214308327, ,0.026561407037636136, ,0.0014592944243098122, ,0.00018402103493663207
80, ,PASS, ,0.034136421121312994, ,0.027268035625177246, ,0.0014574127573127786, ,0.0001914663222118442
81, ,PASS, ,0.034058774465391004, ,0.02698456248688201, ,0.0014439287643162515, ,0.00018902753781195188
82, ,PASS, ,0.034054119120507, ,0.02730563623042128, ,0.0015123370044469592, ,0.00019128023854378368
83, ,PASS, ,0.03400970995627199, ,0.026919574178283365, ,0.0015113431796391142, ,0.0001882958973424911
84, ,PASS, ,0.034094682066205, ,0.02713834824672345, ,0.001517363728446451, ,0.00019033650703837926
85, ,PASS, ,0.034011843260472005, ,0.026733349410279557, ,0.0014667324147009438, ,0.000187011082984684
86, ,PASS, ,0.03404519435928301, ,0.027136868634725933, ,0.001476802413886916, ,0.00019007146722185606
87, ,PASS, ,0.034038471944316, ,0.026787590970928515, ,0.0014632666108807502, ,0.00018753608525887218
88, ,PASS, ,0.03410143589782201, ,0.027329637374955577, ,0.001512699635361563, ,0.00019173743014827148
89, ,PASS, ,0.033950469217709, ,0.026869779578682553, ,0.0014580592305770944, ,0.00018763625201213358
90, ,PASS, ,0.034127454411831, ,0.027380605087990166, ,0.0015011597855828969, ,0.00019225574854997993
91, ,PASS, ,0.034015217078017995, ,0.026870382394257094, ,0.001505693940211924, ,0.00018799300985516645
92, ,PASS, ,0.034218372645042, ,0.027429894628285947, ,0.0015140583528821959, ,0.0001931301838916764
93, ,PASS, ,0.034095529073701995, ,0.026955041149113488, ,0.0014852558120116792, ,0.00018903305021768666
94, ,PASS, ,0.034178753251425, ,0.027321717807876948, ,0.00150532041018094, ,0.0001921301085364637
95, ,PASS, ,0.033949989136276004, ,0.026875403576085987, ,0.001486504014585981, ,0.00018771184904376457
96, ,PASS, ,0.034061900692375004, ,0.02709322474171197, ,0.0015163143483039013, ,0.000189864857000141
97, ,PASS, ,0.034045224338200994, ,0.02674941426811051, ,0.0014645264189837826, ,0.0001873517053051811
98, ,PASS, ,0.034128962896183, ,0.027142200475231925, ,0.001494822422956731, ,0.0001905974309497
99, ,PASS, ,0.034130198426006, ,0.026821650315845914, ,0.001438591952480972, ,0.0001883175624123925
100, ,PASS, ,0.034211172354906005, ,0.027382239737560123, ,0.001460469801498057, ,0.0001927782290955731
101, ,PASS, ,0.034326137818901994, ,0.027111435063270236, ,0.0014650769225990807, ,0.0001914845105056386
102, ,PASS, ,0.034493713063517006, ,0.027577451928450552, ,0.0015085609062836407, ,0.00019575055199733945
103, ,PASS, ,0.034338204446655, ,0.02710378090005633, ,0.0014578759522635187, ,0.0001914988676564683
104, ,PASS, ,0.034656287325411005, ,0.02759723663397091, ,0.0015101114264953373, ,0.0001968259112430771
105, ,PASS, ,0.03722505377889901, ,0.028579522544041697, ,0.0014910345036807842, ,0.00021919685710172166
106, ,PASS, ,0.034353116370938006, ,0.026694000241095143, ,0.0014273742492169937, ,0.00018900847687791035
107, ,PASS, ,0.034131380663093, ,0.025992177566920148, ,0.0012936760834081668, ,0.00018277424139769908
108, ,PASS, ,0.034168169521627004, ,0.02665118027655925, ,0.00140727700864371, ,0.00018765176722331664
109, ,PASS, ,0.034014780972198996, ,0.026051140012630012, ,0.001373447871920671, ,0.00018259644438934266
110, ,PASS, ,0.03413583700704299, ,0.026674896623865626, ,0.001372573414315432, ,0.0001876455247387722
111, ,PASS, ,0.03392615368571099, ,0.026242033522995704, ,0.0013920366484029352, ,0.00018347670899994682
112, ,PASS, ,0.034042168575231006, ,0.02646334189574574, ,0.001433207204181787, ,0.00018565544406534042
113, ,PASS, ,0.033910526951656, ,0.02594208524799474, ,0.0013558881926373635, ,0.000181276166414102
114, ,PASS, ,0.03391794707395699, ,0.02638588865750931, ,0.0014320138084664602, ,0.00018441885194163076
115, ,PASS, ,0.03380965888953599, ,0.025986102252243643, ,0.0013669804569003514, ,0.00018106004018857047
116, ,PASS, ,0.034000634891590005, ,0.026454244146061814, ,0.0013961148398873194, ,0.00018536545531789526
117, ,PASS, ,0.033897304053059005, ,0.025987188047409078, ,0.0013584750477801265, ,0.0001815365994031317
118, ,PASS, ,0.03386024455921101, ,0.02647020481974403, ,0.0014477342352675908, ,0.00018472063106091477
119, ,PASS, ,0.033703725073973, ,0.025893597479947305, ,0.0013781983965904122, ,0.00017985814410026308
120, ,PASS, ,0.033901881060132005, ,0.026489476361360415, ,0.0014156881034188846, ,0.00018508935236372507
121, ,PASS, ,0.033750019660992, ,0.025988651869371573, ,0.0013589655137957496, ,0.00018075887767768405
122, ,PASS, ,0.033697853416832, ,0.02628538884188831, ,0.0014675652572865385, ,0.0001825375148978194
123, ,PASS, ,0.03379374814501601, ,0.025921872063254227, ,0.001357827505642904, ,0.0001805207508698469
124, ,PASS, ,0.033456947731919, ,0.026161095102508407, ,0.0014204094919948009, ,0.00018041201648730902
125, ,PASS, ,0.03349618086677, ,0.025653767429164594, ,0.0013028369575059009, ,0.00017709813941711256
126, ,PASS, ,0.03371084492255401, ,0.025967094016051174, ,0.001331036631187926, ,0.0001803975165920533
127, ,PASS, ,0.033414177584512, ,0.02541896360384031, ,0.0013240170570420935, ,0.00017503186781732202
128, ,PASS, ,0.03325250933663701, ,0.02550410209554832, ,0.0013660857850961161, ,0.00017479158565125586
129, ,PASS, ,0.033353902003664, ,0.02523320472496278, ,0.0013065404988095552, ,0.0001734506929699292
130, ,PASS, ,0.033773276720475004, ,0.02593049557157363, ,0.0013467786769575235, ,0.00018051944123890926
131, ,PASS, ,0.033701498650669, ,0.02559935744507425, ,0.0013136426981954128, ,0.00017779889333704391
132, ,PASS, ,0.03388352829121501, ,0.026078032496667868, ,0.0014215619098128034, ,0.00018213463886092223
133, ,PASS, ,0.03376478270150699, ,0.025544145757629536, ,0.0013709794741545212, ,0.00017777392398650343
134, ,PASS, ,0.033813896964315, ,0.026163279468598637, ,0.0013907067200333442, ,0.00018238254141683154
135, ,PASS, ,0.033800499980294, ,0.025656519097711317, ,0.0013271124683114385, ,0.0001787561788597056
136, ,PASS, ,0.033806590841937004, ,0.026182550209656, ,0.0014045586347274828, ,0.00018246120384102826
137, ,PASS, ,0.03376468919713901, ,0.025708111002444682, ,0.0013536898389564427, ,0.00017892316243273523
138, ,PASS, ,0.033947173918253, ,0.026706289440952845, ,0.0013976464110096749, ,0.00018694683647910802
139, ,PASS, ,0.033937384746375, ,0.026455515944233232, ,0.0013706571525498269, ,0.00018511742696035498
140, ,PASS, ,0.033709831592045006, ,0.02614462114735316, ,0.0013747166824785576, ,0.00018167395081787634
141, ,PASS, ,0.033614223831295004, ,0.02562854385327542, ,0.0013141059686136048, ,0.0001775774336759914
142, ,PASS, ,0.033572540451387994, ,0.025843325995244998, ,0.0013949876507326317, ,0.00017888095326319665
143, ,PASS, ,0.033388579510315, ,0.025326021555401233, ,0.0013236515678149436, ,0.0001743258157501147
144, ,PASS, ,0.03343143778719299, ,0.025695515604877973, ,0.0013498061452061239, ,0.00017712452236272132
145, ,PASS, ,0.033418089195726, ,0.025268194813084337, ,0.0012671269989444865, ,0.00017408276013990023
146, ,PASS, ,0.0334332278195, ,0.02583496898751903, ,0.0013829819309683297, ,0.00017811557580367575
147, ,PASS, ,0.033534883348990005, ,0.025962166431579458, ,0.0013650050955515197, ,0.00017951803971000017
148, ,PASS, ,0.03321289552795, ,0.025686291066357055, ,0.0013072230833620793, ,0.00017590944208728003
149, ,PASS, ,0.033368861310518, ,0.025455041549905404, ,0.0012958297647230744, ,0.00017510403066525507
150, ,PASS, ,0.033356822691432, ,0.025993073711965724, ,0.0013315307651823418, ,0.00017875354079458452
151, ,PASS, ,0.03330299383365999, ,0.025526188799328744, ,0.0013252870428279648, ,0.0001752530756683365
152, ,PASS, ,0.033366529004480006, ,0.02584898435949462, ,0.0013720861341119193, ,0.00017781840208409743
153, ,PASS, ,0.033240364265605005, ,0.02539045304739785, ,0.0013145513706280705, ,0.00017396544370024532
154, ,PASS, ,0.033296963183085004, ,0.025708850138551176, ,0.0013524368629788189, ,0.0001764771181081685
155, ,PASS, ,0.033051917013107, ,0.02514779313799811, ,0.0013260927597348875, ,0.00017133533408871814
156, ,PASS, ,0.033391547500795996, ,0.0256115947006787, ,0.0013243808670367662, ,0.00017630543218717
157, ,PASS, ,0.03329956100230799, ,0.025120503866475345, ,0.0012484617344557132, ,0.00017243177545359412
158, ,PASS, ,0.03325176060103101, ,0.02552288499294424, ,0.0013413527376183098, ,0.00017494747497681968
159, ,PASS, ,0.033239135445722004, ,0.025162955678069178, ,0.0012871043822376856, ,0.00017241373418014022
160, ,PASS, ,0.03335083430086799, ,0.025654277153210003, ,0.0013071650584431309, ,0.00017641953675132452
161, ,PASS, ,0.033382606612240996, ,0.025295575276518417, ,0.001287311542821749, ,0.00017407604090479925
162, ,PASS, ,0.033291697440247, ,0.025583006747803182, ,0.0013313977632321346, ,0.0001756022711891458
163, ,PASS, ,0.03325041182167, ,0.025137111576064578, ,0.0013084174814475588, ,0.00017229590297168523
164, ,PASS, ,0.033351208859105, ,0.02543795745827776, ,0.0013268056194168422, ,0.00017488955780536718
165, ,PASS, ,0.033277334056975014, ,0.024984722671065294, ,0.0012963814451968248, ,0.00017137972578398932
166, ,PASS, ,0.033310916960967996, ,0.025479824713701985, ,0.0013791486378782038, ,0.00017498367851112988
167, ,PASS, ,0.03323891145209201, ,0.025056860372122382, ,0.0012908330881823624, ,0.00017168754665125715
168, ,PASS, ,0.033260728040592005, ,0.025117757904540006, ,0.0013065740327205873, ,0.00017221831034788278
169, ,PASS, ,0.033382320569564, ,0.025478839631702138, ,0.0013347784223994954, ,0.00017532382569323125
170, ,PASS, ,0.03327314288179001, ,0.025164951679129393, ,0.0013133268785644528, ,0.00017260454362961444
171, ,PASS, ,0.033354420448489006, ,0.0255837296654888, ,0.0013016584098365042, ,0.00017593628894304158
172, ,PASS, ,0.03338760303404, ,0.02567040161706847, ,0.0013831740038654354, ,0.00017670633756680198
173, ,PASS, ,0.033468395074469, ,0.02522990417117091, ,0.0012541578124076482, ,0.00017408481086706164
174, ,PASS, ,0.033429813530455994, ,0.025790120043736597, ,0.0012892851647665347, ,0.00017777523343854776
175, ,PASS, ,0.033533407206913, ,0.02540303600802688, ,0.0013140518786616514, ,0.00017566365832090295
176, ,PASS, ,0.033840281409394005, ,0.02577798026633404, ,0.0013776358456933698, ,0.0001798599182622275
177, ,PASS, ,0.033885183485806006, ,0.0253954521979724, ,0.0012964520342046242, ,0.00017742197015776552
178, ,PASS, ,0.033906839728035, ,0.02582765170775599, ,0.0013522213790737366, ,0.00018055756350765533
179, ,PASS, ,0.033776326053722994, ,0.025366125262667922, ,0.0012190902121310741, ,0.00017669190781949694
180, ,PASS, ,0.037065227875109005, ,0.027856418069060657, ,0.0014152303377364497, ,0.0002131493305175382
181, ,PASS, ,0.032582869962749006, ,0.024887422218838818, ,0.0013063223947188767, ,0.00016734237486646508
182, ,PASS, ,0.032387658715926, ,0.025133761276739202, ,0.0012729080924126735, ,0.0001680350615732757
183, ,PASS, ,0.03223067200442, ,0.024711423826292794, ,0.0012709188237375495, ,0.00016437882906374603
184, ,PASS, ,0.032278988940016004, ,0.025008378395741694, ,0.0013334603440972256, ,0.00016658486559799625
185, ,PASS, ,0.03212102033551199, ,0.024511482727411018, ,0.0012975311415875817, ,0.00016246915456509547
186, ,PASS, ,0.032198815124171, ,0.02507790324398371, ,0.0013020833792328442, ,0.00016667686462065414
187, ,PASS, ,0.032064217164493, ,0.024586760228859833, ,0.0012622872932624943, ,0.00016268010863344925
188, ,PASS, ,0.032137470203736, ,0.02519413423874283, ,0.0013317080448681533, ,0.0001670863665183523
189, ,PASS, ,0.032017656339469, ,0.024725233136576704, ,0.001318841663792415, ,0.00016338199265916365
190, ,PASS, ,0.03197231473424201, ,0.025205025083880863, ,0.001303124470244474, ,0.00016632566660511694
191, ,PASS, ,0.031879132709143, ,0.024756803810933026, ,0.0012707809959310336, ,0.00016288114779739336
192, ,PASS, ,0.031977271669621, ,0.02509265256846795, ,0.0013219744448764233, ,0.00016559293976233086
193, ,PASS, ,0.031884874892776006, ,0.02459477640773838, ,0.0012725997143844842, ,0.00016182811479757087
194, ,PASS, ,0.031726168602939, ,0.02483898085101741, ,0.0012934683971593112, ,0.00016262910079195905
195, ,PASS, ,0.031690711099931004, ,0.024410559431568023, ,0.00128856789681689, ,0.00015963004330088698
196, ,PASS, ,0.031878603470228, ,0.02486326635828777, ,0.0013041289109966595, ,0.0001635721035173828
197, ,PASS, ,0.03186172656243699, ,0.024543117438406554, ,0.0012462501520913286, ,0.00016131844778637504
198, ,PASS, ,0.031832556835195994, ,0.025017977653209747, ,0.0012433851359810518, ,0.00016433847261696896
199, ,PASS, ,0.031592301161942005, ,0.02447509892341, ,0.0013193313321692298, ,0.00015950639866445603
200, ,PASS, ,0.031616776670346, ,0.024770275272978468, ,0.001322207689323899, ,0.00016156617682439072
201, ,PASS, ,0.031481769234648, ,0.024167481527452694, ,0.0012508110107314827, ,0.00015695886243301838
202, ,PASS, ,0.031408752171319, ,0.024407315675476493, ,0.001240591455412737, ,0.00015813912548374905
203, ,PASS, ,0.03126033216438, ,0.023913238820954728, ,0.0012049030248248262, ,0.00015419497698056166
204, ,PASS, ,0.031357759764143, ,0.024341163373778077, ,0.0012599632018352302, ,0.00015746029394894293
205, ,PASS, ,0.031339332986579996, ,0.024128824048900217, ,0.0012878072104304946, ,0.00015596947806852349
206, ,PASS, ,0.031349477949284, ,0.024627773145751642, ,0.0012982108707520657, ,0.0001592545627166714
207, ,PASS, ,0.031331777489575, ,0.024193347943900174, ,0.0012741497545118447, ,0.00015632890134301852
208, ,PASS, ,0.031302712247697, ,0.02473549627773082, ,0.0013083057859508086, ,0.00015973174992372748
209, ,PASS, ,0.031177015695627, ,0.02421984869719532, ,0.0012419530606072998, ,0.00015573285341561338
210, ,PASS, ,0.03114311412425, ,0.024455260052164127, ,0.0013951391486599607, ,0.00015707580119575501
211, ,PASS, ,0.031085184471866003, ,0.024244282642070465, ,0.0012810286330110145, ,0.00015542050697270232
212, ,PASS, ,0.031119969527167, ,0.024534457150547095, ,0.0012903445536160956, ,0.00015748736200287152
213, ,PASS, ,0.031319558245616996, ,0.0247774782185621, ,0.0013104455777457795, ,0.0001600720311459192
214, ,PASS, ,0.031432187462941005, ,0.02544032637155308, ,0.0013384796561438596, ,0.00016497506803641877
215, ,PASS, ,0.031003776734335003, ,0.024248486723476976, ,0.0012849928659365694, ,0.00015501241360534835
216, ,PASS, ,0.031311993091005005, ,0.024795990534949443, ,0.0013569726938356906, ,0.00016010688794989965
217, ,PASS, ,0.031336701543827, ,0.02461528946196996, ,0.0012315045983328373, ,0.00015902650861685175
218, ,PASS, ,0.031311722583085004, ,0.025036326350474116, ,0.0012863053609109172, ,0.0001616330341732238
219, ,PASS, ,0.031134377182497, ,0.024573758018683115, ,0.0012913709381445016, ,0.0001577295150353026
220, ,PASS, ,0.03134408337755, ,0.02497764949583167, ,0.0013414987423018164, ,0.00016138907601524025
221, ,PASS, ,0.031317753580176, ,0.024743213993097396, ,0.0013056323562307892, ,0.00015975352421416104
222, ,PASS, ,0.03149453088161601, ,0.02544419813753519, ,0.0013977835861105508, ,0.00016523083200866603
223, ,PASS, ,0.031126403696416005, ,0.024431118520753754, ,0.0012818929427829517, ,0.00015673729967004786
224, ,PASS, ,0.031213209005823, ,0.024819038871192536, ,0.0012566182694696679, ,0.0001596976462119624
225, ,PASS, ,0.031093411274642997, ,0.024381778927571957, ,0.0012734559708774608, ,0.0001562700276711678
226, ,PASS, ,0.031273401872824, ,0.024865357712859148, ,0.0012790577551236337, ,0.00016027531557431365
227, ,PASS, ,0.031079233690539, ,0.024429089094008948, ,0.001281843742282539, ,0.00015649338599443442
228, ,PASS, ,0.031302835430481, ,0.024977125749822332, ,0.0012987429922314106, ,0.0001611675425293555
229, ,PASS, ,0.031284500820760994, ,0.024611524421114406, ,0.001264440956907965, ,0.00015866502127746717
230, ,PASS, ,0.031365881559064, ,0.02512591288228638, ,0.0013598712834667075, ,0.00016246065076925997
231, ,PASS, ,0.031231806884850007, ,0.024785201992460416, ,0.0013603610780221142, ,0.00015953088537691104
232, ,PASS, ,0.031334045010145, ,0.025143429014522767, ,0.0013379693743566067, ,0.0001623824211880659
233, ,PASS, ,0.031227689865881002, ,0.02475527333364443, ,0.001373226352646891, ,0.00015930892521344447
234, ,PASS, ,0.031312513211971996, ,0.025207645808481893, ,0.0013576851618632658, ,0.00016268796277268594
235, ,PASS, ,0.031243219191174003, ,0.02474815526241776, ,0.001318873505036716, ,0.000159323236228257
236, ,PASS, ,0.031527325115901, ,0.0252567191025617, ,0.0013422978121577294, ,0.00016409871805464341
237, ,PASS, ,0.031518509741399, ,0.024985749702132937, ,0.001332378207190406, ,0.00016226430683608705
238, ,PASS, ,0.031473558513973, ,0.025092604092262265, ,0.0013743589879623415, ,0.00016272984054652195
239, ,PASS, ,0.031555781065979005, ,0.024974971773474595, ,0.0013473618163854723, ,0.00016234791947470254
240, ,PASS, ,0.031833947645121, ,0.025459892510516488, ,0.0013580073632857986, ,0.00016698523454418873
241, ,PASS, ,0.03168913084795899, ,0.0252030172497649, ,0.0013591053082232928, ,0.00016451945607751824
242, ,PASS, ,0.03178844069421301, ,0.02527048700320725, ,0.001402213902764763, ,0.00016544834446034887
243, ,PASS, ,0.031713825676942003, ,0.02508788044255407, ,0.0013622088908559358, ,0.00016384967113391392
244, ,PASS, ,0.031950490588707, ,0.02559843161535768, ,0.0013959706996675677, ,0.00016845985995237042
245, ,PASS, ,0.031905403716163, ,0.025318798760771186, ,0.0014068934126672988, ,0.00016636831537676834
246, ,PASS, ,0.03202759791562501, ,0.025452822416921067, ,0.0013879613209217365, ,0.00016789264528363655
247, ,PASS, ,0.03207907140988, ,0.025331008251511616, ,0.0013697849349901313, ,0.00016730289049643143
248, ,PASS, ,0.03227765196747401, ,0.025852681968141968, ,0.0013831625190455091, ,0.00017184525952588386
249, ,PASS, ,0.032216492200174, ,0.025671511463679856, ,0.0013663585844650328, ,0.00017028700415376994
250, ,PASS, ,0.032399806270502, ,0.025806746175051482, ,0.0014426160229629574, ,0.00017213003420588958
251, ,PASS, ,0.032452844532946, ,0.025843759956353674, ,0.0013666837423408087, ,0.00017267620285158066
252, ,PASS, ,0.03250572698722101, ,0.026302486996565906, ,0.0014441956092127832, ,0.00017603592792921074
253, ,PASS, ,0.032676691644729, ,0.02614066734282429, ,0.001419713510511892, ,0.00017583837575161666
254, ,PASS, ,0.033193549634789, ,0.026823513228169397, ,0.0014494858731072431, ,0.00018326466884305555
255, ,PASS, ,0.038497386926095, ,0.03096365381818993, ,0.0016821922534004797, ,0.00024497374271776733
