Channel, ,Pass/Fail, ,Amplitude, ,Sorting Function Response, ,Mean, ,Variance, ,NPeaksRatio, ,PosIntegralRatio, ,ToT50, ,ToT99
40, ,PASS, ,0.016433419999999994, ,0.002585652273492764, ,0.039452699280831, ,4.30428476631286e-05, ,1.75, ,0.805637260555127, ,0.5892124650517336, ,0.09028387175771924
41, ,PASS, ,0.01587698, ,0.0024418900749041796, ,0.039244794599497965, ,3.9211364440529114e-05, ,1.75, ,0.7900893778813325, ,0.5870900593865431, ,0.08671251607110059
42, ,PASS, ,0.01560638999999999, ,0.002355989168079525, ,0.03929519779371849, ,3.718822567211523e-05, ,1.75, ,0.7789163841652563, ,0.5866206812105875, ,0.05414175220913859
43, ,PASS, ,0.015176660000000008, ,0.002267365369821063, ,0.03917175527132099, ,3.4733687156863794e-05, ,1.75, ,0.7680106136351884, ,0.5849880614681333, ,0.03783596253137691
44, ,PASS, ,0.015053249999999997, ,0.0023026185018399075, ,0.03940143460500806, ,3.502263173469789e-05, ,1.75, ,0.7855756391976736, ,0.5870084283994205, ,0.08869206750882636
45, ,PASS, ,0.015960640000000012, ,0.0023837120250545427, ,0.039353681464868055, ,3.852518896680876e-05, ,1.75, ,0.7653872187559364, ,0.5868655741719557, ,0.05450909165119079
46, ,PASS, ,0.015419360000000007, ,0.002353667383751422, ,0.03921283032448317, ,3.669201949780316e-05, ,1.75, ,0.7804261221148493, ,0.5861717107814126, ,0.037101283647272505
47, ,PASS, ,0.015375340000000012, ,0.0023382067048285634, ,0.03945415971714862, ,3.6390517173542966e-05, ,1.75, ,0.7806843285821781, ,0.587926777004551, ,0.03901961184465623
48, ,PASS, ,0.015280670000000003, ,0.002340449001707025, ,0.03936680555458051, ,3.61825353371677e-05, ,1.75, ,0.7799121729087853, ,0.5864574192363421, ,0.032529948368400646
49, ,PASS, ,0.01553626000000002, ,0.00232556888893274, ,0.03938184461766086, ,3.65574826948775e-05, ,1.75, ,0.7750204375811759, ,0.5860492643007286, ,0.03942776678026979
50, ,PASS, ,0.015299790000000004, ,0.0023204674397864977, ,0.03920090288218607, ,3.592528936511916e-05, ,1.75, ,0.777374640899869, ,0.5861717107814126, ,0.04963164017060876
51, ,PASS, ,0.015395529999999998, ,0.002241500262914413, ,0.03918335430848349, ,3.479091132257803e-05, ,1.75, ,0.7463906881114529, ,0.5833554417256791, ,0.031080998346972512
52, ,PASS, ,0.01542205, ,0.002340247387350043, ,0.03924220656966184, ,3.656266268425533e-05, ,1.75, ,0.7825759809478449, ,0.5879471847513316, ,0.06252933613599722
53, ,PASS, ,0.01539838000000002, ,0.002336462422657351, ,0.03947622362870145, ,3.637245403868283e-05, ,1.75, ,0.7797668680820515, ,0.5869676129058591, ,0.05734576845370502
54, ,PASS, ,0.015223740000000017, ,0.002332717998039602, ,0.03943141670659782, ,3.595858775967908e-05, ,1.75, ,0.7828491288786642, ,0.5872125058672272, ,0.05834574804595825
55, ,PASS, ,0.01524472, ,0.0023387380651271376, ,0.03920835952511172, ,3.601287511053156e-05, ,1.75, ,0.7856121532770532, ,0.5854166241505275, ,0.05752943817473113
56, ,PASS, ,0.01575409000000001, ,0.002370988034961061, ,0.03923536349135731, ,3.780295092600788e-05, ,1.75, ,0.769894897769897, ,0.5852533621762821, ,0.032142201179567766
57, ,PASS, ,0.015620280000000021, ,0.002409115002619727, ,0.03945374113283402, ,3.807871259893534e-05, ,1.75, ,0.7856995753497514, ,0.5854982551376503, ,0.06573335238056366
58, ,PASS, ,0.015375340000000001, ,0.002375414220917485, ,0.03937230454602966, ,3.691280336338837e-05, ,1.75, ,0.7867127541377223, ,0.5868247586783943, ,0.06454970306728434
59, ,PASS, ,0.01521295000000001, ,0.002335176223883648, ,0.03942068519805718, ,3.589705252403246e-05, ,1.75, ,0.7851049661865876, ,0.5869880206526398, ,0.03159119201648946
60, ,PASS, ,0.01593251, ,0.0024597906363502194, ,0.039307288595130704, ,3.9643194499136265e-05, ,1.75, ,0.7901761644354494, ,0.5876818840431828, ,0.08091671598538805
61, ,PASS, ,0.01566240000000001, ,0.002431922144462092, ,0.03932864160751821, ,3.853019587558942e-05, ,1.75, ,0.7969178936660968, ,0.5880084079916736, ,0.06534560519173079
62, ,PASS, ,0.0157954, ,0.002403506559256715, ,0.039254120462847694, ,3.84176900098627e-05, ,1.75, ,0.781417342009046, ,0.5868859819187363, ,0.06479459602865248
63, ,PASS, ,0.01559985000000002, ,0.0024068061533834206, ,0.03931682734413583, ,3.797083924563305e-05, ,1.75, ,0.7876155741763368, ,0.586273749515316, ,0.08775331115691516
64, ,PASS, ,0.015694239999999998, ,0.002433745951256861, ,0.03925646157302912, ,3.865088675420188e-05, ,1.75, ,0.7950300511329249, ,0.5877839227770861, ,0.0803248913287484
65, ,PASS, ,0.015863790000000006, ,0.002532795883111853, ,0.039391741096712306, ,4.0679109123055e-05, ,1.75, ,0.8082743231787066, ,0.5882941164466031, ,0.11638537989020632
66, ,PASS, ,0.0162859, ,0.0025877158560517676, ,0.03949569565212954, ,4.270472578062264e-05, ,1.75, ,0.8087227773426856, ,0.5897634742148119, ,0.07997795963347687
67, ,PASS, ,0.015675170000000023, ,0.002399193589045831, ,0.03938144394216444, ,3.806135367414395e-05, ,1.75, ,0.7875245972070589, ,0.5876002530560601, ,0.0704067263933389
68, ,PASS, ,0.015705859999999978, ,0.0024535597216814972, ,0.03926172755311116, ,3.901822248180389e-05, ,1.75, ,0.7979127589955187, ,0.5887226791289973, ,0.08748801044876635
69, ,PASS, ,0.01552275999999999, ,0.002407064461430638, ,0.03940020347992897, ,3.775158179391336e-05, ,1.75, ,0.7884762200516144, ,0.5857635558457991, ,0.0798555131527928
70, ,PASS, ,0.015301489999999984, ,0.0023789034053570066, ,0.03915569811105895, ,3.682979404215811e-05, ,1.75, ,0.8014365885874207, ,0.5870084283994205, ,0.098916348645946
71, ,PASS, ,0.015531229999999983, ,0.002366301075409185, ,0.0392481561615069, ,3.718566889922277e-05, ,1.75, ,0.7807563019477438, ,0.5875798453092794, ,0.060876308646762314
72, ,PASS, ,0.015457959999999979, ,0.0023610930469399835, ,0.03920699625987224, ,3.694666637753014e-05, ,1.75, ,0.7909372772992603, ,0.5878451460174282, ,0.08497785759474297
73, ,PASS, ,0.015619569999999985, ,0.002412778355556313, ,0.03915517464194608, ,3.8140608165122636e-05, ,1.75, ,0.7985842549835127, ,0.5886410481418747, ,0.10469174098487787
74, ,PASS, ,0.015906269999999997, ,0.0025008172908395614, ,0.03926011916675169, ,4.027249718920015e-05, ,1.75, ,0.8001129491843092, ,0.5884777861676292, ,0.08418195547029653
75, ,PASS, ,0.015570529999999992, ,0.002412443835361267, ,0.03927038340074692, ,3.797485157006811e-05, ,1.75, ,0.7919615909890656, ,0.5884981939144099, ,0.08730434072774025
76, ,PASS, ,0.015814060000000015, ,0.0024206523753578695, ,0.0392769321691394, ,3.869374154280715e-05, ,1.75, ,0.7726748880942838, ,0.5839880818758801, ,0.03785637027815759
77, ,PASS, ,0.015941040000000014, ,0.0024798781272751804, ,0.03940222964408889, ,4.0046864945291885e-05, ,1.75, ,0.7971200821514106, ,0.5884369706740679, ,0.08773290341013448
78, ,PASS, ,0.01594167, ,0.002476129913134775, ,0.03935444545029693, ,4.001226473448637e-05, ,1.75, ,0.7946061602484358, ,0.5881308544723577, ,0.06961082426889247
79, ,PASS, ,0.015814729999999985, ,0.0024508486752859533, ,0.03928209342788922, ,3.926315596565577e-05, ,1.75, ,0.7912580125290808, ,0.5870696516397624, ,0.03873390338972674
112, ,PASS, ,0.015864100000000003, ,0.0024643471861598015, ,0.03924057666721087, ,3.962516679866787e-05, ,1.75, ,0.7929137325632726, ,0.586783943184833, ,0.051080590192036895
113, ,PASS, ,0.01580895000000001, ,0.0024366759392497966, ,0.03944620734964592, ,3.892277530181289e-05, ,1.75, ,0.7811581235530591, ,0.5833758494724598, ,0.04912144650109181
114, ,PASS, ,0.015859640000000005, ,0.002480694473824181, ,0.03924268878798391, ,3.983596605853979e-05, ,1.75, ,0.7877450483463386, ,0.5854574396440889, ,0.07928409624293382
115, ,PASS, ,0.01617933, ,0.002439344300231402, ,0.039218239166139465, ,3.989352813971027e-05, ,1.75, ,0.7737537578516815, ,0.5843554213179323, ,0.032958511050794885
116, ,PASS, ,0.015747130000000012, ,0.0024466407127373456, ,0.03924735107303932, ,3.893904115774502e-05, ,1.75, ,0.7785536202365588, ,0.5829881022836269, ,0.025570906716189466
117, ,PASS, ,0.016064230000000013, ,0.002506785635508052, ,0.03933277005489683, ,4.075034966320301e-05, ,1.75, ,0.7909835357618864, ,0.5859472255668252, ,0.06789657353931552
118, ,PASS, ,0.016063049999999995, ,0.0024787173421101103, ,0.03933501065508867, ,4.0316689734266566e-05, ,1.75, ,0.7902073363666131, ,0.5865798657170261, ,0.056284565621109776
119, ,PASS, ,0.016275089999999992, ,0.0024945909412241764, ,0.03927100539988979, ,4.108494877579401e-05, ,1.75, ,0.784381929026061, ,0.5859472255668252, ,0.06840676720883247
120, ,PASS, ,0.016316539999999994, ,0.0024701938957065244, ,0.03929686929450419, ,4.0773913463161446e-05, ,1.75, ,0.7737925789645271, ,0.5841513438501255, ,0.025326013754821332
121, ,PASS, ,0.016200310000000006, ,0.002516731690856921, ,0.03937671176955572, ,4.126717096433935e-05, ,1.75, ,0.7923295704388116, ,0.5857635558457991, ,0.07989632864635415
122, ,PASS, ,0.01671366999999999, ,0.002499538729963251, ,0.03932024566661904, ,4.226299850285908e-05, ,1.75, ,0.771835078710188, ,0.5857635558457991, ,0.036223750535703356
123, ,PASS, ,0.016579449999999996, ,0.002546577472739508, ,0.039307362512193626, ,4.274710208825997e-05, ,1.75, ,0.7799257277299463, ,0.5851717311891594, ,0.03742780759576335
124, ,PASS, ,0.016318550000000015, ,0.0025545941264866457, ,0.0394130756462113, ,4.224987416409154e-05, ,1.75, ,0.79840073564196, ,0.5864370114895614, ,0.06297830656517214
125, ,PASS, ,0.016374730000000004, ,0.002531514710124704, ,0.03913775687394134, ,4.2047104815581615e-05, ,1.75, ,0.7907163994579021, ,0.5861921185281933, ,0.04683577886165589
126, ,PASS, ,0.016611409999999986, ,0.002556003624542594, ,0.039374726023754615, ,4.304181963506327e-05, ,1.75, ,0.7881954540882224, ,0.5864370114895614, ,0.05812126283137079
127, ,PASS, ,0.016402939999999998, ,0.0025950053442421487, ,0.03925281398808187, ,4.3128781876446804e-05, ,1.75, ,0.8035683042696121, ,0.585702332605457, ,0.0987326789249199
128, ,PASS, ,0.016445349999999973, ,0.0025631789594566744, ,0.03970113893022591, ,4.269178351091323e-05, ,1.75, ,0.793667208768063, ,0.585579886124773, ,0.053876451500989776
129, ,PASS, ,0.016434499999999998, ,0.0025707548748972074, ,0.03963332101202016, ,4.275111834147809e-05, ,1.75, ,0.791309036008673, ,0.5850901002020367, ,0.0834676843329728
130, ,PASS, ,0.016628629999999988, ,0.0025561096767518494, ,0.0397492741644048, ,4.2992349913426045e-05, ,1.75, ,0.7852014072827916, ,0.5840084896226607, ,0.061406910063059934
131, ,PASS, ,0.01716186999999999, ,0.002586063362827377, ,0.03942756018387379, ,4.4905033112483646e-05, ,1.75, ,0.7712017382517568, ,0.5833350339788984, ,0.02828513703801963
132, ,PASS, ,0.018122610000000015, ,0.0027604358837556133, ,0.03971768004877452, ,5.0600236283700766e-05, ,1.8333333333333333, ,0.7819550371168396, ,0.5828656558029428, ,0.04634599293891961
133, ,PASS, ,0.030739410000000012, ,0.0048573574045683784, ,0.04076849227158629, ,0.0001512362961381511, ,1.8333333333333333, ,0.7981200819837369, ,0.5827636170690395, ,0.06869247566376196
134, ,PASS, ,0.0200057, ,0.003152464775771288, ,0.039956364276647414, ,6.38699167135512e-05, ,1.75, ,0.7968334235721363, ,0.5866614967041489, ,0.07601885675802535
135, ,PASS, ,0.019737019999999994, ,0.0031025829498110167, ,0.039846622879329, ,6.202806234582502e-05, ,1.75, ,0.8017316081034432, ,0.5884573784208486, ,0.09381441195077651
136, ,PASS, ,0.019754079999999983, ,0.00311249660876047, ,0.039916702697087816, ,6.23018546108588e-05, ,1.75, ,0.8060914416357495, ,0.5890492030774882, ,0.09801840778759617
137, ,PASS, ,0.01977432999999999, ,0.003127650109696023, ,0.03993085562682394, ,6.258362970026401e-05, ,1.75, ,0.799688562138503, ,0.5868247586783943, ,0.040060406930470804
138, ,PASS, ,0.01976042999999999, ,0.0031143332543781405, ,0.03990701549805106, ,6.230383474232481e-05, ,1.75, ,0.798642194332623, ,0.5881716699659191, ,0.07144752147915348
139, ,PASS, ,0.019460909999999994, ,0.0030948371529565567, ,0.03986062229525928, ,6.0958847604167404e-05, ,1.75, ,0.8034948129263942, ,0.5862941572620967, ,0.09212056896798025
140, ,PASS, ,0.01929262000000001, ,0.003075394613481925, ,0.03971038707781474, ,6.0136648623553754e-05, ,1.75, ,0.8066627061712041, ,0.5870492438929817, ,0.09401848941858329
141, ,PASS, ,0.019639739999999996, ,0.0030844379384772766, ,0.03990662263974205, ,6.138171792850424e-05, ,1.75, ,0.8009313113808946, ,0.5889063488500235, ,0.08018203710128365
142, ,PASS, ,0.01995657999999999, ,0.003123274440976881, ,0.03997148843370544, ,6.319348451282647e-05, ,1.75, ,0.7991582426860654, ,0.5897022509744699, ,0.10261015081324872
143, ,PASS, ,0.01943055000000001, ,0.0030866419156618786, ,0.03980127188996143, ,6.0814308937547566e-05, ,1.75, ,0.8057729119827274, ,0.589130834064611, ,0.09258994714393584
176, ,PASS, ,0.019682690000000017, ,0.0030916658725078324, ,0.0399081154180527, ,6.167323191643257e-05, ,1.75, ,0.8027536834497147, ,0.5888859411032428, ,0.05985592130772841
177, ,PASS, ,0.019549450000000003, ,0.003074079277900975, ,0.040064643097895966, ,6.088858550717947e-05, ,1.75, ,0.798247904096353, ,0.5888451256096814, ,0.039570621007734536
178, ,PASS, ,0.019501099999999993, ,0.0030626398471313323, ,0.03995185341503235, ,6.051391109913701e-05, ,1.75, ,0.8001548186430063, ,0.5890287953307075, ,0.0929981020795494
179, ,PASS, ,0.01907332000000003, ,0.003020619316753164, ,0.039701730732229955, ,5.842559289716226e-05, ,1.75, ,0.8037404196633706, ,0.5883145241933838, ,0.0982633007489643
180, ,PASS, ,0.01941831000000001, ,0.0030515616038457338, ,0.03980550808738597, ,6.008266631280845e-05, ,1.75, ,0.7992573148391005, ,0.5887839023693394, ,0.06667210873247485
181, ,PASS, ,0.019354880000000005, ,0.003048798051882636, ,0.039865700524275016, ,5.983673776876729e-05, ,1.75, ,0.802130783995095, ,0.5896206199873472, ,0.07995755188669619
182, ,PASS, ,0.019412999999999996, ,0.003068403701940717, ,0.03982554196342932, ,6.0370964451074796e-05, ,1.75, ,0.8017839880686364, ,0.589824697455154, ,0.05332544233791147
183, ,PASS, ,0.01949041, ,0.0030420645017975806, ,0.03973319944674599, ,6.00672889864996e-05, ,1.75, ,0.7974273664139728, ,0.5888451256096814, ,0.09301850982633007
184, ,PASS, ,0.01918202000000002, ,0.0030558814116136974, ,0.039820969156139675, ,5.934438243971426e-05, ,1.75, ,0.8081939033008362, ,0.5888859411032428, ,0.08601865268055754
185, ,PASS, ,0.019458370000000016, ,0.003067580545372016, ,0.0397876339915512, ,6.0475752010000474e-05, ,1.75, ,0.801369603870887, ,0.5893553192791984, ,0.0731005489683884
186, ,PASS, ,0.019196079999999994, ,0.003030382707305665, ,0.03980001797289851, ,5.893925894656593e-05, ,1.75, ,0.7957996981818385, ,0.5882941164466031, ,0.05618252688720638
187, ,PASS, ,0.01951102, ,0.003033264998971666, ,0.039899052313626254, ,5.998683536098823e-05, ,1.75, ,0.7940172173293693, ,0.5894981735066631, ,0.0755086630885084
188, ,PASS, ,0.019569330000000013, ,0.003114751371018403, ,0.03994138914756842, ,6.180883906548619e-05, ,1.75, ,0.8097715390696577, ,0.5904777453521357, ,0.11081406501908124
189, ,PASS, ,0.019522099999999994, ,0.00309874637390007, ,0.040005421061610986, ,6.136289067717232e-05, ,1.75, ,0.8091720175910422, ,0.5905389685924777, ,0.10161017122099548
190, ,PASS, ,0.01938627, ,0.003114613642529586, ,0.039832215032958515, ,6.124782665632006e-05, ,1.75, ,0.8100202690305018, ,0.5900083671761801, ,0.09310014081345279
191, ,PASS, ,0.019661679999999994, ,0.003131121155294446, ,0.03999604517642497, ,6.246755545147312e-05, ,1.75, ,0.8049973885843322, ,0.5898859206954961, ,0.057733515642537904
192, ,PASS, ,0.02020680000000001, ,0.0031543941460046984, ,0.03997015426277015, ,6.460743460860011e-05, ,1.75, ,0.7913491885017377, ,0.5889471643435849, ,0.046509254913165037
193, ,PASS, ,0.02060075, ,0.0033238083570696687, ,0.039894476189465525, ,6.951425045736494e-05, ,1.75, ,0.8183500327286067, ,0.5911103855023366, ,0.12181384053386665
194, ,PASS, ,0.019626570000000003, ,0.0031372500051054302, ,0.039908241336095183, ,6.242784556482774e-05, ,1.75, ,0.809019673857487, ,0.5895593967470052, ,0.09079406542723618
195, ,PASS, ,0.019613300000000014, ,0.003078678260904486, ,0.03982273704414196, ,6.119665790181705e-05, ,1.75, ,0.8061769418404221, ,0.5900491826697414, ,0.10320197546988837
196, ,PASS, ,0.01999158000000001, ,0.0031503534824710937, ,0.03979326717434338, ,6.387994863005877e-05, ,1.75, ,0.7955353335675839, ,0.5878451460174282, ,0.04914185424787249
197, ,PASS, ,0.019581249999999994, ,0.0031030829916586424, ,0.040000332412603826, ,6.164087837873769e-05, ,1.75, ,0.8109460845295544, ,0.590518560845697, ,0.0949368380237138
198, ,PASS, ,0.019835569999999997, ,0.003140650595628944, ,0.03984533499214302, ,6.311607692798451e-05, ,1.75, ,0.799455502357265, ,0.5878451460174282, ,0.05712128323911757
199, ,PASS, ,0.019722500000000014, ,0.003119386484483277, ,0.03984860666721088, ,6.230715730737456e-05, ,1.75, ,0.8024841654482404, ,0.5885798249015326, ,0.09163078304524397
200, ,PASS, ,0.020257030000000006, ,0.003155784446512319, ,0.03987764199016347, ,6.471266243868325e-05, ,1.75, ,0.7902587452318718, ,0.5885186016611906, ,0.048631660578355544
201, ,PASS, ,0.020190380000000008, ,0.003242946794760664, ,0.03994395544458277, ,6.639451196922915e-05, ,1.75, ,0.8165000856723819, ,0.5902124446439868, ,0.08732474847452093
202, ,PASS, ,0.019719140000000013, ,0.0031304814054626223, ,0.03990403741127732, ,6.258743857200228e-05, ,1.75, ,0.8057454370371258, ,0.5887634946225587, ,0.09052876471908737
203, ,PASS, ,0.02003909000000001, ,0.0030939662675271208, ,0.039787887519438375, ,6.28858112600278e-05, ,1.75, ,0.7890420926558414, ,0.5881308544723577, ,0.05154996836799249
204, ,PASS, ,0.019704840000000005, ,0.003144350504729696, ,0.0397722753337687, ,6.275130372816487e-05, ,1.75, ,0.8080284326028058, ,0.5885594171547519, ,0.10791616497622497
205, ,PASS, ,0.019809700000000003, ,0.003155838713451438, ,0.03997359010591621, ,6.33341053600691e-05, ,1.75, ,0.8068941365601356, ,0.5888451256096814, ,0.10075304585620702
206, ,PASS, ,0.019685759999999997, ,0.0031475333470413363, ,0.03997239597436787, ,6.278381239502762e-05, ,1.75, ,0.8113130482793142, ,0.5890083875839268, ,0.0967939429807555
207, ,PASS, ,0.019881140000000016, ,0.0031356678379628952, ,0.03972092307830453, ,6.319140204189144e-05, ,1.75, ,0.8007748934631091, ,0.587416583335034, ,0.08963082386073754
208, ,PASS, ,0.020107480000000004, ,0.003150781982569459, ,0.03980080511601804, ,6.418714659825368e-05, ,1.75, ,0.8011890887978412, ,0.5892736882920757, ,0.08601865268055754
209, ,PASS, ,0.020074490000000007, ,0.003200689020047481, ,0.03980482332238118, ,6.507267993876935e-05, ,1.75, ,0.8053136886599945, ,0.5881512622191384, ,0.09426338237995142
210, ,PASS, ,0.020115980000000002, ,0.003158986144527857, ,0.03987478219566948, ,6.437007744729522e-05, ,1.75, ,0.7989836566774794, ,0.5880696312320157, ,0.10097753107079448
211, ,PASS, ,0.020160600000000018, ,0.003141915176243986, ,0.03994201239178792, ,6.422690696680333e-05, ,1.75, ,0.7973753736250809, ,0.5887839023693394, ,0.05873349523479113
212, ,PASS, ,0.02030834000000002, ,0.0031733462740476497, ,0.03981987441297116, ,6.533910955832463e-05, ,1.75, ,0.7943121148320073, ,0.58729413685435, ,0.06154976429052468
213, ,PASS, ,0.020023530000000008, ,0.003178799693191092, ,0.039928140651823436, ,6.44825578526352e-05, ,1.75, ,0.8099612711282013, ,0.5886818636354361, ,0.08881451398951042
214, ,PASS, ,0.020078500000000003, ,0.0031609717734661516, ,0.03989171858860024, ,6.429911159897017e-05, ,1.75, ,0.8005751311558563, ,0.5879471847513316, ,0.08597783718699618
215, ,PASS, ,0.02006342000000001, ,0.0031802903517215235, ,0.03976087807167201, ,6.46522591834594e-05, ,1.75, ,0.8028011088266694, ,0.587539029815718, ,0.09132466684353381
216, ,PASS, ,0.020425300000000007, ,0.0032080756631051033, ,0.03989321062488521, ,6.640030207931777e-05, ,1.75, ,0.8001241279300635, ,0.5876818840431828, ,0.07240668557784535
217, ,PASS, ,0.020635569999999992, ,0.003238926410837403, ,0.03990743328176976, ,6.769883388570543e-05, ,1.75, ,0.7998970020030951, ,0.5871920981204465, ,0.10275300504071345
218, ,PASS, ,0.02064529, ,0.0032490739916566595, ,0.039836040175506626, ,6.7896370946945e-05, ,1.75, ,0.7994412286149747, ,0.5868655741719557, ,0.03930532029958572
219, ,PASS, ,0.020532280000000014, ,0.003248590099803471, ,0.03965769266586396, ,6.75750433257598e-05, ,1.75, ,0.800144345854623, ,0.5862533417685354, ,0.0781004469296545
220, ,PASS, ,0.020828989999999995, ,0.0032577268842408735, ,0.03983593594130732, ,6.875783133304221e-05, ,1.75, ,0.7960760019151394, ,0.5867227199444909, ,0.051407114140527746
221, ,PASS, ,0.020760080000000007, ,0.0032956062431558496, ,0.039797989368992474, ,6.93612347531743e-05, ,1.75, ,0.8061590854507223, ,0.5859268178200445, ,0.08601865268055754
222, ,PASS, ,0.020805350000000014, ,0.0033035596763572035, ,0.03996859061468133, ,6.959172171524034e-05, ,1.75, ,0.8014729847224978, ,0.5864574192363421, ,0.07526377012714026
223, ,PASS, ,0.021307230000000007, ,0.003300605552492198, ,0.03992925902165262, ,7.118646650061298e-05, ,1.75, ,0.7885057990447201, ,0.5859064100732638, ,0.049509193689924694
224, ,PASS, ,0.021484310000000003, ,0.003398797890305608, ,0.04003019551376503, ,7.401627512717463e-05, ,1.75, ,0.8061892672221889, ,0.5881308544723577, ,0.08597783718699618
225, ,PASS, ,0.021507430000000015, ,0.0033816846663896004, ,0.04005725794004204, ,7.372153113591794e-05, ,1.75, ,0.7970179648193962, ,0.5871920981204465, ,0.07646782718720026
226, ,PASS, ,0.021771790000000017, ,0.00341209572018232, ,0.04007022184424808, ,7.53935974060136e-05, ,1.75, ,0.8007902398313421, ,0.5877226995367442, ,0.060059998775535195
227, ,PASS, ,0.021777400000000013, ,0.0034211154312960633, ,0.04002097651558132, ,7.540725171305656e-05, ,1.75, ,0.7957770247770837, ,0.585130915695598, ,0.04106038652272403
228, ,PASS, ,0.02356635000000002, ,0.0036780686706756154, ,0.040250960810799784, ,8.777684529616986e-05, ,1.75, ,0.8009691047913076, ,0.5869880206526398, ,0.08146772514846636
229, ,PASS, ,0.072094852, ,0.011957628190252199, ,0.04553587040876717, ,0.000877712807696729, ,1.8333333333333333, ,0.8353523309938213, ,0.5977633109528377, ,0.17528213709924287
230, ,PASS, ,0.09990000000000014, ,0.016936036178959613, ,0.05027635376998433, ,0.0017319030449712274, ,1.9166666666666667, ,0.8380078187894228, ,0.612763004836636, ,0.3573600538764515
