Channel, ,Pass/Fail, ,Amplitude, ,Sorting Function Response, ,Mean, ,Variance, ,NPeaksRatio, ,PosIntegralRatio, ,ToT50, ,ToT99
0, ,PASS, ,0.05450100000000002, ,0.007923017337378466, ,0.04436006259545724, ,0.00044206837419704964, ,1.8333333333333333, ,0.759627867056391, ,0.616436399257158, ,0.05799881635068672
1, ,PASS, ,0.053087770000000006, ,0.007818390925690269, ,0.043374025559070224, ,0.00042473943054904893, ,1.8333333333333333, ,0.7806890902912046, ,0.6192322605661109, ,0.10597742903206057
2, ,PASS, ,0.05338242999999999, ,0.007926807832570411, ,0.04350345689985919, ,0.00043288626136958044, ,1.8333333333333333, ,0.7852811655079895, ,0.6180690189996123, ,0.10901818330238158
3, ,PASS, ,0.05182790999999999, ,0.007991569602313965, ,0.043687001213240546, ,0.0004231236639675806, ,1.8333333333333333, ,0.7921200047815882, ,0.6146405175404583, ,0.09926328034121752
4, ,PASS, ,0.05230312999999999, ,0.007853141986998761, ,0.04379629310177343, ,0.00042025497178810496, ,1.8333333333333333, ,0.7872287259926136, ,0.6182322809738576, ,0.0957735556417216
5, ,PASS, ,0.05164461999999999, ,0.007770698267035959, ,0.04358203456337626, ,0.0004107252151810535, ,1.8333333333333333, ,0.7838220204242338, ,0.6177833105446827, ,0.08973286259464093
6, ,PASS, ,0.051270259999999984, ,0.007945675846006339, ,0.04317384315911921, ,0.00041625037222715736, ,1.8333333333333333, ,0.7966584739717365, ,0.6164568070039387, ,0.11716087426787208
7, ,PASS, ,0.05225400999999998, ,0.007639329658359283, ,0.043842663655435606, ,0.0004089879782804031, ,1.8333333333333333, ,0.7745838087152733, ,0.6185179894287872, ,0.05881512622191384
8, ,PASS, ,0.05233762999999998, ,0.00776566443872808, ,0.04352842731883023, ,0.00041612350674966996, ,1.8333333333333333, ,0.7860468730486967, ,0.6198853084630926, ,0.11116099671435277
9, ,PASS, ,0.0525892, ,0.00771322813885699, ,0.04362800813105855, ,0.00041537324018479086, ,1.8333333333333333, ,0.7750046150633346, ,0.6183139119609804, ,0.05257035570702639
10, ,PASS, ,0.051190389999999975, ,0.007891553814806834, ,0.04390073772453624, ,0.00041305175752123774, ,1.8333333333333333, ,0.7936603686649555, ,0.615803759106957, ,0.10216118038407379
11, ,PASS, ,0.05215440999999997, ,0.007604274723364396, ,0.044020500615497636, ,0.0004069858813425057, ,1.8333333333333333, ,0.7754987875667728, ,0.6211505887634946, ,0.10369176139262463
12, ,PASS, ,0.052654880000000015, ,0.007815629258893305, ,0.04332052200179588, ,0.00042133340620113146, ,1.8333333333333333, ,0.7816521314888106, ,0.6192118528193302, ,0.09193689924695414
13, ,PASS, ,0.052551089999999974, ,0.0077937164312211525, ,0.04391276654700925, ,0.00041948173321626806, ,1.8333333333333333, ,0.784286134317749, ,0.6210485500295913, ,0.1081610579375931
14, ,PASS, ,0.05232518999999998, ,0.008186903183157714, ,0.04324438716413951, ,0.00043776756980556063, ,1.8333333333333333, ,0.7998004740290575, ,0.6160486520683252, ,0.12377298422481174
15, ,PASS, ,0.052342390000000016, ,0.007620774895710526, ,0.04415317393542989, ,0.00040868438575918347, ,1.8333333333333333, ,0.7717884469119448, ,0.6188036978837167, ,0.10261015081324872
16, ,FAIL, ,0.00821661, ,0.00024185569085715165, ,0.038702319839799194, ,2.201581370876377e-06, ,0.9166666666666666, ,0.3258682763839889, ,0.671945470500602, ,0.007938613497683721
17, ,PASS, ,0.052088209999999975, ,0.007813588748779781, ,0.04354543799432665, ,0.00041660597426036483, ,1.8333333333333333, ,0.7834780853447698, ,0.6178241260382441, ,0.10818146568437378
18, ,PASS, ,0.05128688000000002, ,0.007964689149596235, ,0.04321557367033326, ,0.0004175579675596186, ,1.8333333333333333, ,0.7989100043042624, ,0.616436399257158, ,0.12132405461113038
19, ,PASS, ,0.05256523999999997, ,0.007604695391704465, ,0.043927655108875335, ,0.00040955413481442017, ,1.8333333333333333, ,0.7758056810501386, ,0.6208444725617844, ,0.0966919042468521
20, ,PASS, ,0.05240936999999999, ,0.0076771249538123525, ,0.04426723974449501, ,0.00041247867685935397, ,1.8333333333333333, ,0.7774853351264532, ,0.6201302014244607, ,0.09356951898940838
21, ,PASS, ,0.053387180000000034, ,0.007692868898447839, ,0.04408416379910614, ,0.00042052816535453164, ,1.8333333333333333, ,0.7663037663021572, ,0.6196200077549437, ,0.056753943797065366
22, ,PASS, ,0.052414540000000016, ,0.007586974744105081, ,0.04402697320197547, ,0.00040749484261008815, ,1.8333333333333333, ,0.7788613237099904, ,0.6206403950939777, ,0.1032631987102304
23, ,PASS, ,0.05310618000000002, ,0.007812789127458588, ,0.044271171144466444, ,0.000424523579483082, ,1.8333333333333333, ,0.7841889017590051, ,0.6188649211240587, ,0.11475276014775208
24, ,PASS, ,0.05338327999999999, ,0.007709246892889103, ,0.04345150021754658, ,0.00042141485020665253, ,1.8333333333333333, ,0.7705520919513752, ,0.6202730556519255, ,0.058060039591028755
25, ,PASS, ,0.05288940000000001, ,0.007662824906533458, ,0.04420944742474644, ,0.00041543175119333097, ,1.8333333333333333, ,0.7765484738532326, ,0.62131385073774, ,0.09246750066325177
26, ,PASS, ,0.053912140000000025, ,0.007749860225372456, ,0.04412028649088794, ,0.0004275137861448161, ,1.8333333333333333, ,0.7651531398365552, ,0.6190689985918655, ,0.055100916307830455
27, ,PASS, ,0.052218259999999996, ,0.0075402375416529855, ,0.044225189696332726, ,0.0004037963043821292, ,1.8333333333333333, ,0.7758805838404538, ,0.6224566845574581, ,0.10107956980469786
28, ,PASS, ,0.05308043999999999, ,0.007714184387754384, ,0.04397287890206323, ,0.00041963828537061625, ,1.8333333333333333, ,0.777196436521745, ,0.6201710169180221, ,0.10532438113507887
29, ,PASS, ,0.05338876, ,0.007725714594015632, ,0.04389456913797678, ,0.00042247227660852896, ,1.8333333333333333, ,0.7749067433354266, ,0.6209056958021265, ,0.05863145650088774
30, ,PASS, ,0.05323864, ,0.007891193504350963, ,0.04379483398951042, ,0.0004299202949332286, ,1.8333333333333333, ,0.7798270921840555, ,0.6178853492785862, ,0.08020244484806432
31, ,PASS, ,0.05267466999999997, ,0.007613677002638634, ,0.043742359872247505, ,0.0004110467756110691, ,1.8333333333333333, ,0.7717308241604947, ,0.6205179486132936, ,0.08501867308830433
32, ,PASS, ,0.05295110000000002, ,0.007700088661407192, ,0.0442057554407053, ,0.00041775852345784804, ,1.8333333333333333, ,0.774622726421897, ,0.6199057162098732, ,0.10381420787330871
33, ,PASS, ,0.053524700000000036, ,0.00769030973024, ,0.044161408286973736, ,0.00042197711948229523, ,1.8333333333333333, ,0.7680665437491729, ,0.6197832697291892, ,0.08534519703679516
34, ,PASS, ,0.053357700000000036, ,0.0076747206140415445, ,0.044624947322503626, ,0.00041920959501675915, ,1.8333333333333333, ,0.7731050973811984, ,0.6187016591498132, ,0.0530193261362013
35, ,PASS, ,0.05268034999999999, ,0.007643072903919412, ,0.044223529150629576, ,0.0004124777713671987, ,1.8333333333333333, ,0.7784821927972295, ,0.6213546662313014, ,0.09556947817391481
36, ,PASS, ,0.05493007000000002, ,0.007979136173790487, ,0.04434849424481134, ,0.00044913193779362104, ,1.8333333333333333, ,0.7741333793707778, ,0.6186200281626906, ,0.10677333115650701
37, ,PASS, ,0.08581638399999997, ,0.014519069763104075, ,0.044295795617926154, ,0.0012692785578866201, ,1.75, ,0.8634365806750531, ,0.6212322197506174, ,0.41993020550601007
38, ,PASS, ,0.08696027099999998, ,0.014715487356676688, ,0.04395748865385603, ,0.0013026643285672123, ,1.75, ,0.8622492032905477, ,0.6230689169608783, ,0.42123630129997347
39, ,PASS, ,0.052503390000000004, ,0.00753645744733605, ,0.044097899609191644, ,0.00040619636400932095, ,1.75, ,0.7765935670497431, ,0.6251300993857268, ,0.09824289300218363
40, ,PASS, ,0.05145516999999999, ,0.007069051276509559, ,0.043913987306177425, ,0.0003739389650927046, ,1.75, ,0.7612641822772058, ,0.6244566437419644, ,0.09356951898940838
41, ,PASS, ,0.05196004000000001, ,0.007009593717167073, ,0.04367680291953226, ,0.0003745269235420114, ,1.75, ,0.7536837682481029, ,0.626640272647497, ,0.09475316830268771
42, ,PASS, ,0.050362629999999985, ,0.006908036648261051, ,0.04384187071712822, ,0.00035774681059775687, ,1.8333333333333333, ,0.7614475160720428, ,0.6257627395359279, ,0.09967143527683109
43, ,PASS, ,0.05248317, ,0.007323462398844361, ,0.04368506863635436, ,0.0003948156741540424, ,1.75, ,0.7600923204995447, ,0.6245790902226486, ,0.05287647190873656
44, ,PASS, ,0.05194061, ,0.00721823663333031, ,0.043970760834676846, ,0.00038508745115229634, ,1.75, ,0.7591756212690384, ,0.6259668170037346, ,0.09042672598518398
45, ,PASS, ,0.051665529999999946, ,0.007144206774641518, ,0.04369639242586886, ,0.0003791663495611864, ,1.75, ,0.7518662467572486, ,0.6232934021754658, ,0.05159078386155384
46, ,PASS, ,0.051447929999999996, ,0.007427860212569438, ,0.04366735861104876, ,0.0003920587999442141, ,1.8333333333333333, ,0.7759414854614924, ,0.620681210587539, ,0.09705924368890431
47, ,PASS, ,0.05083990999999998, ,0.007289389018565857, ,0.043793415213362996, ,0.0003804886147288927, ,1.75, ,0.7722584426248129, ,0.6234158486561499, ,0.09273280137140058
48, ,PASS, ,0.050867799999999984, ,0.006740832089191808, ,0.0440231045250097, ,0.00035305497669680557, ,1.9166666666666667, ,0.7425906049939488, ,0.6246199057162098, ,0.08275341319564906
49, ,PASS, ,0.05208892999999997, ,0.006896186968399366, ,0.04396708689496133, ,0.0003696748310677996, ,1.9166666666666667, ,0.7423966185868573, ,0.6235382951368339, ,0.04624395420501622
50, ,PASS, ,0.05297389999999999, ,0.007262647293933066, ,0.04381394294157262, ,0.0003952092991389059, ,1.75, ,0.7556258771919995, ,0.624293381767719, ,0.07616171098549009
51, ,PASS, ,0.05036437999999999, ,0.00673765902016949, ,0.044039153689720625, ,0.00034918377115979784, ,1.8333333333333333, ,0.7476188125862385, ,0.6263953796861289, ,0.07789636946184772
52, ,PASS, ,0.05194312999999999, ,0.007189682205411776, ,0.04404364984796229, ,0.0003835358976413619, ,1.75, ,0.758489172679087, ,0.6243341972612804, ,0.07859023285239077
53, ,PASS, ,0.05172690999999999, ,0.00725592556607184, ,0.04398683352482602, ,0.000385429621361831, ,1.75, ,0.7653242680271921, ,0.624109712046693, ,0.09128385134997245
54, ,PASS, ,0.052416499999999984, ,0.007469072174154247, ,0.0437497468453705, ,0.0004018426086780678, ,1.75, ,0.7714086369151084, ,0.6235791106303953, ,0.095304177465766
55, ,PASS, ,0.05084032000000001, ,0.0068169568849719515, ,0.043782267977184146, ,0.0003564185548250514, ,1.8333333333333333, ,0.7496270541496036, ,0.626762719128181, ,0.08695740903246872
56, ,PASS, ,0.051640589999999986, ,0.0071880267580123084, ,0.04397523548029632, ,0.00038124121781168047, ,1.75, ,0.764388026284633, ,0.6236811493642986, ,0.09363074222975042
57, ,PASS, ,0.05168264999999998, ,0.006874609961150672, ,0.043918957714536445, ,0.00036549220670737656, ,1.75, ,0.7458507072902376, ,0.6250892838921654, ,0.06599865308871247
58, ,PASS, ,0.052548599999999994, ,0.007165481476157785, ,0.04425867125854574, ,0.0003863531834961671, ,1.75, ,0.7567408504412675, ,0.6227832085059488, ,0.07842697087814535
59, ,PASS, ,0.05066945999999999, ,0.006818037084683711, ,0.04401927293810331, ,0.0003552256438137177, ,1.8333333333333333, ,0.7529964715114132, ,0.6266198649007163, ,0.09414093589926736
60, ,PASS, ,0.05220869, ,0.007219245856000325, ,0.043829462861982416, ,0.0003872060472783323, ,1.75, ,0.7588633744847364, ,0.6244974592355258, ,0.09054917246586805
61, ,PASS, ,0.05274983999999998, ,0.007237420341672825, ,0.04378355674537254, ,0.00039222974471526614, ,1.75, ,0.7605766733189344, ,0.6249872451582621, ,0.08336564559906941
62, ,PASS, ,0.05163313999999998, ,0.00697480550569919, ,0.04428022229627967, ,0.00037025766691460793, ,1.75, ,0.7468665603063279, ,0.6252321381196302, ,0.08026366808840636
63, ,PASS, ,0.052865909999999974, ,0.007617350066518697, ,0.043469093307279445, ,0.00041294735800391817, ,1.75, ,0.7668953091454339, ,0.6221505683557479, ,0.05512132405461113
64, ,PASS, ,0.05255771999999999, ,0.007499403526198767, ,0.044078827925144386, ,0.0004045510792584103, ,1.75, ,0.7666832452151514, ,0.6222730148364319, ,0.07030468765943552
65, ,PASS, ,0.05238972999999999, ,0.007551307356632842, ,0.044021109171037326, ,0.0004059745668245896, ,1.75, ,0.7749201454210956, ,0.6229464704801942, ,0.10832431991183854
66, ,PASS, ,0.05192687, ,0.007705481131239912, ,0.04325034988877778, ,0.0004098924767914895, ,1.8333333333333333, ,0.7828550367965614, ,0.6207832493214425, ,0.09622252607089651
67, ,PASS, ,0.05220137, ,0.00721279399482154, ,0.04418138409705924, ,0.0003865035117566383, ,1.75, ,0.7622993469969748, ,0.6230485092140977, ,0.09875308667170057
68, ,PASS, ,0.05246367, ,0.007386604443086935, ,0.043123345308463096, ,0.00039779402818814055, ,1.75, ,0.7666884659335439, ,0.624232158527377, ,0.09977347401073447
69, ,PASS, ,0.05232311000000002, ,0.007217702639707535, ,0.04452203218077182, ,0.0003879789175539447, ,1.75, ,0.7590667065996629, ,0.6235791106303953, ,0.07736576804555009
70, ,PASS, ,0.05222839999999999, ,0.007715298384063357, ,0.043102820346523546, ,0.0004129654903909997, ,1.8333333333333333, ,0.7845410509042209, ,0.6209261035489072, ,0.10750801004061142
71, ,PASS, ,0.05297674999999999, ,0.007270843521773047, ,0.04406605244464398, ,0.0003958382226210898, ,1.75, ,0.7614943688939978, ,0.6268647578620844, ,0.09665108875329075
72, ,PASS, ,0.052932139999999996, ,0.00760656051675962, ,0.04328090072590356, ,0.0004129112742499953, ,1.75, ,0.7757721286878813, ,0.6208444725617844, ,0.10071223036264566
73, ,PASS, ,0.05267617000000001, ,0.007545070831985497, ,0.043533681488949205, ,0.0004075755882705304, ,1.8333333333333333, ,0.7762181332001502, ,0.6221505683557479, ,0.1056713128303504
74, ,PASS, ,0.05126382000000002, ,0.007862945634204522, ,0.042873202970143465, ,0.00041222830196462144, ,1.8333333333333333, ,0.7951143895731311, ,0.6166608844717455, ,0.11885471725066836
75, ,PASS, ,0.05262590999999998, ,0.0073785486502598065, ,0.04368995530703455, ,0.00039865921561951583, ,1.75, ,0.7618598719097776, ,0.6232525866819044, ,0.08567172098528601
76, ,PASS, ,0.053702529999999984, ,0.00745365370688186, ,0.04351573291483848, ,0.00041099503912453834, ,1.75, ,0.7609787781741852, ,0.6253545846003142, ,0.050631619762861985
77, ,PASS, ,0.05312581999999998, ,0.007460311601969736, ,0.04343810635150303, ,0.00040709697091481574, ,1.75, ,0.7631081181209647, ,0.6238035958449828, ,0.0813452786677823
78, ,PASS, ,0.05159390999999999, ,0.00775030274778655, ,0.04304865739352258, ,0.00040958961492249224, ,1.8333333333333333, ,0.7915113817954035, ,0.6223546458235546, ,0.11495683761555886
79, ,PASS, ,0.05321101000000001, ,0.0072989211170020095, ,0.04369025029672864, ,0.00039899648270110276, ,1.75, ,0.7581825014534954, ,0.6243546050080611, ,0.08103916246607212
80, ,PASS, ,0.052349752, ,0.0073842593689825995, ,0.042541489290830806, ,0.00039675301840285803, ,1.75, ,0.7676578511385368, ,0.6232934021754658, ,0.09638578804514193
81, ,FAIL, ,0.007065770000000006, ,0.0002461305002029626, ,0.03883593887247199, ,1.8427609925985841e-06, ,0.8333333333333334, ,0.29897879273496125, ,0.5761106916185385, ,0.01122426072937287
82, ,PASS, ,0.0517599, ,0.008263345716316548, ,0.04374946309912043, ,0.0004363790882050883, ,1.8333333333333333, ,0.8043833550032633, ,0.613456868227179, ,0.12746678639211445
83, ,PASS, ,0.05301597, ,0.007626580062327572, ,0.043760492807901875, ,0.0004148087324888033, ,1.8333333333333333, ,0.7756502040324492, ,0.624803575437236, ,0.10469174098487787
84, ,PASS, ,0.052634489999999985, ,0.007034539369900551, ,0.04366786565559887, ,0.0003807903188927438, ,1.75, ,0.7460531273607073, ,0.6259055937633926, ,0.09128385134997245
85, ,PASS, ,0.052829140000000004, ,0.007166797233302383, ,0.04401672973592376, ,0.0003892465080732227, ,1.75, ,0.7493801725829466, ,0.6250280606518235, ,0.09112058937572702
86, ,PASS, ,0.051453979999999996, ,0.0068928606186538, ,0.04404523999632661, ,0.0003646809835957425, ,1.75, ,0.748804634876781, ,0.6255790698149017, ,0.08279422868921042
87, ,PASS, ,0.05337295999999999, ,0.007393759440701764, ,0.043625687866165996, ,0.000405124895535357, ,1.75, ,0.7602417278949469, ,0.6240484888063509, ,0.09171241403236668
88, ,PASS, ,0.052456299999999983, ,0.00689182007799554, ,0.04400927429787147, ,0.0003719083748673064, ,1.8333333333333333, ,0.7359953976593187, ,0.6250688761453848, ,0.05467235362543622
89, ,PASS, ,0.052939880000000016, ,0.006951412392431788, ,0.04456712842248118, ,0.00037865961985090324, ,1.75, ,0.7329580756632526, ,0.6239872655660088, ,0.04008081467725148
90, ,PASS, ,0.05268511999999998, ,0.007381073560743203, ,0.04382406881553438, ,0.00039930963940607755, ,1.75, ,0.7660220280877562, ,0.6240076733127895, ,0.10226321911797719
91, ,PASS, ,0.05161534999999998, ,0.0067966257661302015, ,0.04408377302218323, ,0.0003609976494768285, ,1.8333333333333333, ,0.7456205534543555, ,0.6264974184200323, ,0.09501846901083652
92, ,PASS, ,0.05319833, ,0.007390586279922217, ,0.04388853779861635, ,0.00040337681408503256, ,1.75, ,0.7581429027441166, ,0.6230689169608783, ,0.050692843003204015
93, ,PASS, ,0.05282385999999999, ,0.007369351518592982, ,0.044210093686047225, ,0.0003998079502412622, ,1.75, ,0.7592646011755074, ,0.623599518377176, ,0.08412073222995449
94, ,PASS, ,0.053272630000000015, ,0.007569568828152911, ,0.04390192851186711, ,0.00041383832223984665, ,1.75, ,0.7675400747964909, ,0.6224566845574581, ,0.09303891757311075
95, ,PASS, ,0.05238677, ,0.007321600423700709, ,0.04401938129670823, ,0.0003939070111293074, ,1.75, ,0.7612603914603847, ,0.6250892838921654, ,0.0795698046978633
96, ,PASS, ,0.05282212, ,0.007120682087355031, ,0.04397388700169384, ,0.00038677285099882806, ,1.75, ,0.7488410624385298, ,0.6235791106303953, ,0.07501887716577213
97, ,PASS, ,0.053220680000000006, ,0.0072544785734512856, ,0.04408944582763617, ,0.0003968292445130831, ,1.75, ,0.752523548107811, ,0.6252729536131916, ,0.07842697087814535
98, ,PASS, ,0.05330668, ,0.0075043104801038145, ,0.0440128695534785, ,0.0004104119868928764, ,1.75, ,0.7684135718182272, ,0.6222526070896512, ,0.07679435113569111
99, ,PASS, ,0.051868299999999985, ,0.007029207162756652, ,0.04366291752515255, ,0.00037483931217069833, ,1.75, ,0.7525207085234644, ,0.6239872655660088, ,0.09171241403236668
100, ,PASS, ,0.052844539999999995, ,0.007409119206009232, ,0.04401009238137997, ,0.0004020978712355426, ,1.75, ,0.7640523378402204, ,0.62372196485786, ,0.09589600212240566
101, ,PASS, ,0.05316680999999998, ,0.007433169236875852, ,0.04352090784473787, ,0.0004056291273254855, ,1.75, ,0.7616670014375235, ,0.6232729944286851, ,0.07381482010571212
102, ,PASS, ,0.05382463999999999, ,0.007746971051996444, ,0.043575343527070876, ,0.00042774419994965257, ,1.75, ,0.7679214656122417, ,0.6221097528621865, ,0.09158996755168262
103, ,PASS, ,0.05291444999999999, ,0.00737615732273454, ,0.04386051337972694, ,0.0004006925651874483, ,1.75, ,0.7624004416870426, ,0.6245586824758679, ,0.06118242484847248
104, ,PASS, ,0.052084530000000004, ,0.007409857145559329, ,0.04399681778637171, ,0.00039611036211973467, ,1.75, ,0.772181003341503, ,0.6233342176690272, ,0.1006714148690843
105, ,PASS, ,0.05273218, ,0.007431848039302746, ,0.04374524075529072, ,0.0004023358680518351, ,1.75, ,0.765890416085825, ,0.6232321789351237, ,0.0905899879594294
106, ,PASS, ,0.05289973, ,0.007551773951009674, ,0.044130416572314854, ,0.00040999111538134365, ,1.75, ,0.7710203968010934, ,0.6232934021754658, ,0.10352849941837922
107, ,PASS, ,0.05364232000000002, ,0.007487424019524235, ,0.04439228514581335, ,0.00041232175972610635, ,1.75, ,0.7624898794435817, ,0.6233342176690272, ,0.0803248913287484
108, ,PASS, ,0.053805860000000004, ,0.0075562388771262, ,0.043725482003836656, ,0.0004173754818559615, ,1.75, ,0.7634381279130511, ,0.6230485092140977, ,0.08801861186506398
109, ,PASS, ,0.053015179999999995, ,0.007467666789484167, ,0.04363298900573458, ,0.00040637511693543854, ,1.75, ,0.7603263293574133, ,0.6226811697720455, ,0.06336605375400502
110, ,PASS, ,0.053595980000000015, ,0.007363462030056615, ,0.044091984216852724, ,0.0004052752434304524, ,1.75, ,0.7585763768461794, ,0.6240484888063509, ,0.0682843207281484
111, ,PASS, ,0.053783450000000024, ,0.007690237383393476, ,0.044004228414114, ,0.00042441247018560154, ,1.75, ,0.7705979473806492, ,0.622905654986633, ,0.08710026325993347
112, ,PASS, ,0.08221102799999996, ,0.013811594697481406, ,0.04540273154629496, ,0.001157651263960461, ,1.8333333333333333, ,0.8573586910155689, ,0.6204771331197323, ,0.3712373216873125
113, ,PASS, ,0.08313465499999997, ,0.01412137672028731, ,0.045262568716577196, ,0.0011963928740156347, ,1.75, ,0.864876874158352, ,0.6213546662313014, ,0.405869267974123
114, ,PASS, ,0.051876289999999985, ,0.007103654860722076, ,0.04398358500602029, ,0.0003787745505581184, ,1.75, ,0.7546058038055671, ,0.6247015367033326, ,0.07128425950490806
115, ,PASS, ,0.050218019999999995, ,0.006791284090196793, ,0.043647390005306014, ,0.00035087403239400565, ,1.8333333333333333, ,0.7507771158393207, ,0.6250280606518235, ,0.08463092589947144
116, ,PASS, ,0.05184190999999998, ,0.0069966080929472745, ,0.044043008831452415, ,0.0003731388441193286, ,1.75, ,0.7443333165333652, ,0.6245994979694292, ,0.046121507724332156
117, ,PASS, ,0.05056827999999998, ,0.006964648276489439, ,0.04381721574988266, ,0.0003621197995740434, ,1.75, ,0.7605152440647731, ,0.6252933613599723, ,0.09548784718679211
118, ,PASS, ,0.050641639999999995, ,0.007013316907903309, ,0.044020553962980345, ,0.00036504284528271393, ,1.75, ,0.7603364991932334, ,0.6244974592355258, ,0.08463092589947144
119, ,PASS, ,0.04999993999999999, ,0.0069301615679258095, ,0.04384245548539826, ,0.0003561178243795868, ,1.75, ,0.758770548453774, ,0.6247831676904553, ,0.07373318911858942
120, ,PASS, ,0.05165152999999998, ,0.006975983686841142, ,0.04393269931246301, ,0.00037047973448773886, ,1.75, ,0.748667447331541, ,0.6243750127548418, ,0.04636640068570029
121, ,PASS, ,0.05066654000000001, ,0.006930331095183251, ,0.04413325747413318, ,0.0003610868130713038, ,1.8333333333333333, ,0.7583412810295039, ,0.6242525662741577, ,0.08065141527723924
122, ,PASS, ,0.050586209999999986, ,0.006988986058899719, ,0.04395443491071611, ,0.0003635060008903855, ,1.75, ,0.7644836537971449, ,0.6254770310809984, ,0.09795718454725413
123, ,PASS, ,0.05037271999999999, ,0.0069486974869589395, ,0.043956153020142455, ,0.00035974953645354616, ,1.75, ,0.7587950106184578, ,0.6245178669823065, ,0.07591681802412195
124, ,PASS, ,0.049495779999999975, ,0.0068723407743399596, ,0.04362054103773393, ,0.0003496724348902615, ,1.75, ,0.7614544974351632, ,0.6248443909307974, ,0.08889614497663313
125, ,PASS, ,0.05009934999999998, ,0.006900996701171282, ,0.04404153766208853, ,0.00035547657262919967, ,1.75, ,0.7592746846349782, ,0.6250688761453848, ,0.08828391257321279
126, ,PASS, ,0.05026835, ,0.006886657904863714, ,0.04371214616864962, ,0.00035599692814158727, ,1.75, ,0.7594730613640954, ,0.626007632497296, ,0.08983490132854431
127, ,PASS, ,0.050958959999999984, ,0.006977577924885877, ,0.0437900199004102, ,0.000365601205488054, ,1.75, ,0.7527873682781114, ,0.6249056141711393, ,0.06818228199424502
128, ,PASS, ,0.04928060000000003, ,0.006068094318928919, ,0.04352092324177058, ,0.00030838331904829106, ,1.8333333333333333, ,0.7189873283868142, ,0.6254770310809984, ,0.0683863594620518
129, ,PASS, ,0.050615869999999986, ,0.006072574867542829, ,0.043539212676475994, ,0.00031709788668791695, ,1.8333333333333333, ,0.7047181556487256, ,0.6262321177118835, ,0.05501928532070774
130, ,PASS, ,0.05109389000000002, ,0.006395102726768362, ,0.04331873892308321, ,0.0003366763817338074, ,1.8333333333333333, ,0.7275687886554046, ,0.6252321381196302, ,0.0787534948266362
131, ,PASS, ,0.051912159999999985, ,0.006930582733637539, ,0.04364168289300219, ,0.0003699284196318276, ,1.8333333333333333, ,0.7502026567135853, ,0.6255994775616824, ,0.07667190465500703
132, ,PASS, ,0.05173106999999999, ,0.006877516155440767, ,0.044197551184465625, ,0.00036601598398671185, ,1.8333333333333333, ,0.7471253961164286, ,0.6262729332054447, ,0.09387563519111855
133, ,PASS, ,0.05107821999999999, ,0.00668352489409463, ,0.0440173837984939, ,0.0003512894852982183, ,1.8333333333333333, ,0.7392724611572007, ,0.6262933409522254, ,0.08136568641456297
134, ,PASS, ,0.051027799999999984, ,0.0067455992170399135, ,0.04403384718903696, ,0.0003542104175311698, ,1.8333333333333333, ,0.7527001955046693, ,0.6262321177118835, ,0.0933654415216016
135, ,PASS, ,0.05075246999999999, ,0.0065647875992183085, ,0.043951780447133736, ,0.00034294517434352116, ,1.9166666666666667, ,0.735769852865977, ,0.6258443705230505, ,0.06746801085692129
136, ,PASS, ,0.05023254999999999, ,0.006590898885803121, ,0.04367483550805086, ,0.0003408156184973818, ,1.9166666666666667, ,0.7425622628567762, ,0.626007632497296, ,0.08473296463337483
137, ,PASS, ,0.050952360000000016, ,0.00672990286713728, ,0.044150530156323343, ,0.00035295122371556506, ,1.9166666666666667, ,0.7457054821034188, ,0.6258443705230505, ,0.08648803085651313
138, ,PASS, ,0.05089358999999999, ,0.006780849066584917, ,0.043967692652190776, ,0.0003550812016557916, ,1.8333333333333333, ,0.7473079733409256, ,0.6260892634844187, ,0.08542682802391788
139, ,PASS, ,0.05166437, ,0.006879153220816194, ,0.04397395748372482, ,0.0003656735950214108, ,1.9166666666666667, ,0.747856930480304, ,0.6244770514887451, ,0.0831003448909206
140, ,PASS, ,0.05055079, ,0.006548216924244747, ,0.043504103752984635, ,0.0003407283807829948, ,1.9166666666666667, ,0.7371541501517466, ,0.6263953796861289, ,0.06973327074957654
141, ,PASS, ,0.05131168999999998, ,0.006567745987506671, ,0.04384194989204302, ,0.00034717987185515673, ,1.9166666666666667, ,0.7366087197944049, ,0.6266198649007163, ,0.08616150690802228
142, ,PASS, ,0.05104652, ,0.006547752395435353, ,0.04387716158527377, ,0.00034423100873600987, ,1.9166666666666667, ,0.7350856779355434, ,0.6239464500724475, ,0.07505969265933349
143, ,PASS, ,0.05261281999999999, ,0.0069995648376043225, ,0.0438006128485133, ,0.00037876144117730376, ,1.9166666666666667, ,0.7420385029925647, ,0.6252117303728495, ,0.08191669557764127
144, ,PASS, ,0.050284140000000026, ,0.0065563697678877285, ,0.0437295847731679, ,0.00033948716309955195, ,1.9166666666666667, ,0.7378758487323595, ,0.6259872247505153, ,0.07640660394685823
145, ,PASS, ,0.05060911, ,0.006488741077629771, ,0.04362144274280117, ,0.0003383186701548156, ,1.9166666666666667, ,0.7334277640986042, ,0.6257423317891472, ,0.07991673639313483
146, ,PASS, ,0.05159924999999997, ,0.006840007526085456, ,0.04367816589008388, ,0.00036324242874597313, ,1.8333333333333333, ,0.7441674832483609, ,0.624293381767719, ,0.08485541111405889
147, ,PASS, ,0.052659620000000004, ,0.007039547776418786, ,0.04387399280014694, ,0.00038130473817486846, ,1.9166666666666667, ,0.7442024512142709, ,0.6234158486561499, ,0.04836635987020673
148, ,PASS, ,0.050092059999999994, ,0.006692991449476152, ,0.0437623102744842, ,0.0003451172388461412, ,1.9166666666666667, ,0.7493536487151414, ,0.6242729740209384, ,0.08393706250892839
149, ,PASS, ,0.05207909999999998, ,0.006891054136678104, ,0.04320424746862309, ,0.00036928593413495186, ,1.9166666666666667, ,0.7453428106030356, ,0.6263137486990061, ,0.09005938654313177
150, ,PASS, ,0.05140085000000001, ,0.006861857061336039, ,0.043256076330687135, ,0.00036293822727350306, ,1.9166666666666667, ,0.7517962965401885, ,0.6249668374114814, ,0.10036529866737413
151, ,PASS, ,0.05200554999999998, ,0.007021991073552888, ,0.04366528472316892, ,0.00037538510107716367, ,1.75, ,0.7511205730816205, ,0.6256402930552438, ,0.08501867308830433
152, ,PASS, ,0.05148549999999998, ,0.0069459511168448295, ,0.043838517508010044, ,0.00036781889510548535, ,1.75, ,0.7522632206963799, ,0.6243137895144997, ,0.09644701128548397
153, ,PASS, ,0.051804180000000005, ,0.0067848560055510454, ,0.04441267627987184, ,0.0003616562960983582, ,1.75, ,0.7320717002991964, ,0.6248852064243587, ,0.03977469847554132
154, ,PASS, ,0.05307266, ,0.007381953179182328, ,0.04377555953939716, ,0.00040232965126974683, ,1.75, ,0.7605112350667926, ,0.6239464500724475, ,0.07436582926879043
155, ,PASS, ,0.051211099999999996, ,0.006927210209687742, ,0.0437840792120569, ,0.0003647621536437825, ,1.75, ,0.7542265754430282, ,0.6240280810595702, ,0.09087569641435889
156, ,PASS, ,0.05259564000000002, ,0.006896437086530462, ,0.04355251486826799, ,0.00037322616426175887, ,1.9166666666666667, ,0.7390438477413932, ,0.6243954205016224, ,0.0720801616293545
157, ,PASS, ,0.05265436999999999, ,0.006932870382265707, ,0.043233992172608725, ,0.0003755684437269508, ,1.8333333333333333, ,0.7397489725071362, ,0.6255178465745597, ,0.04679496336809453
158, ,PASS, ,0.053343829999999995, ,0.007284244878758827, ,0.04348697021713843, ,0.000398756389618434, ,1.75, ,0.75076292944356, ,0.6236199261239567, ,0.052203016264974186
159, ,PASS, ,0.051524219999999975, ,0.006637894608443357, ,0.043709196594151144, ,0.00035213550746920235, ,1.9166666666666667, ,0.7375318778573033, ,0.6264566029264709, ,0.0803248913287484
160, ,PASS, ,0.052038299999999996, ,0.006887008481712542, ,0.04382054174282157, ,0.0003687326685407724, ,1.9166666666666667, ,0.7484400338648248, ,0.6250688761453848, ,0.09469194506234567
161, ,PASS, ,0.051982640000000004, ,0.006741706038634327, ,0.043947572616681294, ,0.0003607470073105567, ,1.9166666666666667, ,0.7388517568499966, ,0.6253749923470949, ,0.07661068141466501
162, ,PASS, ,0.050795179999999975, ,0.006758052377531952, ,0.04374729184057468, ,0.0003533270775740205, ,1.9166666666666667, ,0.746098971933148, ,0.6247219444501133, ,0.086243137895145
163, ,PASS, ,0.052681450000000005, ,0.007076628734863322, ,0.04399109320401625, ,0.00038331116687685235, ,1.75, ,0.7457420855227254, ,0.623660741617518, ,0.08001877512703823
164, ,PASS, ,0.05258982999999999, ,0.006945760214158815, ,0.04348329141935879, ,0.00037590578849602574, ,1.9166666666666667, ,0.742734536169102, ,0.6250688761453848, ,0.08452888716556806
165, ,PASS, ,0.05273804999999999, ,0.006782888472937887, ,0.044071662335870704, ,0.00036833640415582754, ,1.9166666666666667, ,0.7327076515509857, ,0.6247423521968939, ,0.07756984551335687
166, ,PASS, ,0.050856409999999984, ,0.006521515502403228, ,0.0437512972376074, ,0.00034179032994583147, ,1.9166666666666667, ,0.7250047400688227, ,0.6253749923470949, ,0.0427542295055203
167, ,PASS, ,0.052749420000000005, ,0.007174816372403182, ,0.04436986110242649, ,0.00038920596399257554, ,1.75, ,0.752012488565282, ,0.6244770514887451, ,0.07832493214424195
168, ,PASS, ,0.05144399999999999, ,0.006710034873756753, ,0.044029881202628525, ,0.0003553778990084008, ,1.9166666666666667, ,0.7401840768697365, ,0.6247627599436746, ,0.08459011040591008
169, ,PASS, ,0.05143082999999998, ,0.006675921452514237, ,0.04418362124609702, ,0.0003535668127242946, ,1.9166666666666667, ,0.7370181496516517, ,0.62492602191792, ,0.08499826534152365
170, ,PASS, ,0.052567630000000004, ,0.0071090904802743795, ,0.044110950997734745, ,0.00038428300063544983, ,1.75, ,0.7489532285607646, ,0.6238444113385441, ,0.06510071223036265
171, ,PASS, ,0.05077629999999999, ,0.0066367947445274585, ,0.04409776697271484, ,0.0003469000893185358, ,1.9166666666666667, ,0.7441792966219715, ,0.6250892838921654, ,0.08907981469765923
172, ,PASS, ,0.052115529999999986, ,0.006922250316225824, ,0.043835287928205555, ,0.00037113212780509565, ,1.8333333333333333, ,0.7456632622849458, ,0.6264974184200323, ,0.07556988632885044
173, ,PASS, ,0.052545649999999985, ,0.0068901970720263005, ,0.04368946763494622, ,0.0003725891314972266, ,1.9166666666666667, ,0.7462368729037452, ,0.6255994775616824, ,0.09054917246586805
174, ,PASS, ,0.05149133999999999, ,0.006813096965405343, ,0.044101430881002435, ,0.00036096799122494437, ,1.8333333333333333, ,0.7441067964694201, ,0.6261913022183221, ,0.0756923328095345
175, ,PASS, ,0.05232433999999999, ,0.007121136281751453, ,0.04379938242403216, ,0.0003830674694282467, ,1.75, ,0.7600497725344915, ,0.6252321381196302, ,0.09597763310952838
176, ,PASS, ,0.05303733000000001, ,0.006989111524877046, ,0.04420655613069121, ,0.0003815847197182944, ,1.9166666666666667, ,0.7460885385572901, ,0.6247423521968939, ,0.09087569641435889
177, ,PASS, ,0.05323398, ,0.006976215563073854, ,0.0438211199546948, ,0.00038210665148955545, ,1.8333333333333333, ,0.74765828384744, ,0.6272320973041366, ,0.09103895838860432
178, ,PASS, ,0.05235450000000001, ,0.007414748030624926, ,0.043509189667557804, ,0.00039856890300581267, ,1.75, ,0.7693593023918135, ,0.6245994979694292, ,0.0728148405134589
179, ,PASS, ,0.05273899000000001, ,0.00670729027230786, ,0.04444017728454522, ,0.00036435794096048357, ,1.9166666666666667, ,0.7214150748038164, ,0.6262729332054447, ,0.03650945899063284
180, ,PASS, ,0.05309201999999997, ,0.007173381504637287, ,0.043385491153854004, ,0.0003915667888837183, ,1.75, ,0.7501607444750211, ,0.6257219240423665, ,0.08236566600681619
181, ,PASS, ,0.053520780000000025, ,0.0070748943292780414, ,0.04381873551682619, ,0.0003891024150808156, ,1.8333333333333333, ,0.7313848746007205, ,0.6240076733127895, ,0.04763168098610233
182, ,PASS, ,0.052538510000000004, ,0.006806918518111037, ,0.04404144907450869, ,0.0003681982169286763, ,1.9166666666666667, ,0.7367162478748938, ,0.625313769106753, ,0.07720250607130466
183, ,PASS, ,0.0522501, ,0.00749413978711587, ,0.043631193004020324, ,0.0004018527484815376, ,1.8333333333333333, ,0.7676660000021552, ,0.6224566845574581, ,0.05483561559968164
184, ,PASS, ,0.05401896000000003, ,0.006907043390073715, ,0.04470508171098549, ,0.00038437970637512957, ,1.9166666666666667, ,0.7284272350180573, ,0.6244362359951837, ,0.04677455562131385
185, ,PASS, ,0.05334723999999999, ,0.006738890569661464, ,0.04388014445725598, ,0.0003702538298650898, ,1.8333333333333333, ,0.7317523158058538, ,0.6268239423685231, ,0.08520234280933042
186, ,PASS, ,0.05246630000000001, ,0.006269303003594142, ,0.04388289803718292, ,0.0003393327057154553, ,1.8333333333333333, ,0.7039536870786601, ,0.6247423521968939, ,0.06028448399012265
187, ,PASS, ,0.08156757099999996, ,0.013688097723091354, ,0.045407907330258554, ,0.0011375061291632336, ,1.8333333333333333, ,0.853036395419166, ,0.6187016591498132, ,0.34940103263198713
188, ,PASS, ,0.08367020199999997, ,0.014061549502593786, ,0.044961328975939255, ,0.001199766890350859, ,1.75, ,0.8576805207788867, ,0.6222526070896512, ,0.37658415134385015
189, ,PASS, ,0.049806179999999985, ,0.006794244163451732, ,0.04323895372278117, ,0.0003480043806676301, ,1.8333333333333333, ,0.7566144616771592, ,0.6244158282484031, ,0.07812085467643518
190, ,PASS, ,0.04726006000000001, ,0.006256624359244493, ,0.04329363968796556, ,0.00030442293963960185, ,1.9166666666666667, ,0.7427439268344856, ,0.6242117507805963, ,0.07975347441888941
191, ,PASS, ,0.04696130000000001, ,0.006968818527926323, ,0.043001277237403324, ,0.00033565684658486085, ,1.8333333333333333, ,0.7864757227993626, ,0.6240484888063509, ,0.09871227117813922
192, ,PASS, ,0.04826861, ,0.006563541213534261, ,0.04332917892124651, ,0.00032576663995187915, ,1.8333333333333333, ,0.7537401509812262, ,0.625313769106753, ,0.09118181261606906
193, ,PASS, ,0.04889409, ,0.006477749855492966, ,0.042886299671231205, ,0.000325877718524205, ,1.8333333333333333, ,0.744987488607915, ,0.6247219444501133, ,0.07342707291687925
194, ,PASS, ,0.04725131000000002, ,0.006161433623202631, ,0.04364565608967164, ,0.00029983033877148066, ,1.9166666666666667, ,0.7426236307478175, ,0.626068855737638, ,0.0854064202771372
195, ,PASS, ,0.04752935999999999, ,0.006839958770841298, ,0.04322660957572295, ,0.0003335061885839945, ,1.75, ,0.7771175029924542, ,0.6234566641497112, ,0.10805901920368972
196, ,PASS, ,0.047972009999999995, ,0.006417657917751243, ,0.0433234994349095, ,0.00031673090178624316, ,1.8333333333333333, ,0.7482348965027265, ,0.6257015162955858, ,0.08381461602824432
197, ,PASS, ,0.04781965, ,0.006496814145992864, ,0.043769359574498484, ,0.00031938133933966453, ,1.75, ,0.7571845979669954, ,0.6251300993857268, ,0.0912430358564111
198, ,PASS, ,0.04816946999999999, ,0.006662677620191028, ,0.04422929019285321, ,0.000329739116223763, ,1.75, ,0.7596774660834118, ,0.6244158282484031, ,0.09430419787351278
199, ,PASS, ,0.04721484000000001, ,0.006205875084588714, ,0.04336729383298301, ,0.0003015728302159015, ,1.8333333333333333, ,0.7427001437834738, ,0.6246811289565519, ,0.08934511540580804
200, ,PASS, ,0.04842880000000001, ,0.006224741980814637, ,0.04347584576171915, ,0.0003104866789636362, ,1.9166666666666667, ,0.7255707850511258, ,0.6240280810595702, ,0.036672720964878266
201, ,PASS, ,0.04844134000000001, ,0.006397287736299033, ,0.043563981521397524, ,0.00031883597643550424, ,1.8333333333333333, ,0.7438367120668369, ,0.6257015162955858, ,0.07842697087814535
202, ,PASS, ,0.04712712000000001, ,0.006395778800078873, ,0.04363865020591417, ,0.00031003317954859694, ,1.9166666666666667, ,0.7530223351884909, ,0.6240893042999123, ,0.08610028366768026
203, ,PASS, ,0.04871435999999999, ,0.0066287689038902605, ,0.043421271157119246, ,0.00033197804677015906, ,1.8333333333333333, ,0.7567808257348141, ,0.6236811493642986, ,0.08259015122140365
204, ,PASS, ,0.04949084, ,0.0064624243199532866, ,0.04336255649905105, ,0.0003288303549832865, ,1.8333333333333333, ,0.7289713604827186, ,0.6255178465745597, ,0.04757045774576029
205, ,PASS, ,0.04857921000000002, ,0.006502947439519345, ,0.04337917019428175, ,0.0003248804231084431, ,1.9166666666666667, ,0.7468080569204688, ,0.6232321789351237, ,0.06385583967674129
206, ,PASS, ,0.047724729999999986, ,0.006423055105767903, ,0.043542828877165776, ,0.00031524929822008863, ,1.8333333333333333, ,0.7508185524811128, ,0.6247627599436746, ,0.08395747025570907
207, ,PASS, ,0.048530230000000035, ,0.006753107610389411, ,0.04376999068427175, ,0.00033666778360900626, ,1.75, ,0.7599795239874998, ,0.6243137895144997, ,0.053488704312156896
208, ,PASS, ,0.04883409, ,0.006387131552467702, ,0.04331554043733802, ,0.0003210221036231969, ,1.9166666666666667, ,0.7339698454205441, ,0.624864798677578, ,0.045733760535499275
209, ,PASS, ,0.048153070000000006, ,0.006306904880605384, ,0.043707282306279474, ,0.00031252382777340217, ,1.9166666666666667, ,0.7452995578899912, ,0.6258443705230505, ,0.0827125977020877
210, ,PASS, ,0.047378930000000014, ,0.006200865552718077, ,0.04348586118140447, ,0.00030251978847268667, ,1.9166666666666667, ,0.7412838597470277, ,0.623028101467317, ,0.08959000836717618
211, ,PASS, ,0.04876343, ,0.006568994412093647, ,0.04388969166037428, ,0.0003293700183277964, ,1.8333333333333333, ,0.7510063234134189, ,0.6247219444501133, ,0.08222281177935144
212, ,PASS, ,0.048266710000000004, ,0.006484743800500572, ,0.043687821907308015, ,0.00032206439194385264, ,1.9166666666666667, ,0.7582544649243723, ,0.6254770310809984, ,0.09840615497642906
213, ,PASS, ,0.048456550000000015, ,0.006527565064234628, ,0.04384764390298158, ,0.000325240990289863, ,1.75, ,0.7529947454169557, ,0.6230689169608783, ,0.08720230199383686
214, ,PASS, ,0.047261210000000026, ,0.006460809024214775, ,0.043490949417154756, ,0.0003139631701342155, ,1.8333333333333333, ,0.7598209188212912, ,0.6237015571110793, ,0.095304177465766
215, ,PASS, ,0.04850941000000002, ,0.006713782854336337, ,0.04343241865676212, ,0.0003345270777067236, ,1.75, ,0.761074172550477, ,0.6250484683986041, ,0.09767147609232464
216, ,PASS, ,0.04780251000000001, ,0.006502141425874304, ,0.04433370174669905, ,0.0003196718434117589, ,1.8333333333333333, ,0.7549167912121304, ,0.6240688965531316, ,0.08622273014836432
217, ,PASS, ,0.047956269999999995, ,0.006509214425446952, ,0.043584272105263167, ,0.0003208388103791547, ,1.75, ,0.752428152015238, ,0.6258239627762698, ,0.07530458562070162
218, ,PASS, ,0.04804294000000001, ,0.006583351495668463, ,0.04356576375727027, ,0.00032520478201900164, ,1.8333333333333333, ,0.7603407402676958, ,0.6242729740209384, ,0.10348768392481786
219, ,PASS, ,0.04743155000000001, ,0.006634440842320891, ,0.043529256375176024, ,0.00032326889149660937, ,1.75, ,0.7655284334451415, ,0.6242729740209384, ,0.09916124160731414
220, ,PASS, ,0.04765315000000001, ,0.005921390570196614, ,0.043632388733087085, ,0.0002908371559445703, ,1.8333333333333333, ,0.7171696515503949, ,0.6253545846003142, ,0.03985632946266403
221, ,PASS, ,0.048136190000000016, ,0.006367744127717733, ,0.043702550983857474, ,0.0003154733752248199, ,1.9166666666666667, ,0.7476078281725942, ,0.624232158527377, ,0.08620232240158364
222, ,PASS, ,0.04664358000000002, ,0.005860001685259617, ,0.043378278677782094, ,0.0002816745717704751, ,1.8333333333333333, ,0.724320715738454, ,0.6250280606518235, ,0.04340727740250199
223, ,PASS, ,0.049026590000000016, ,0.006466068796529054, ,0.04370455993632784, ,0.000326036009729059, ,1.8333333333333333, ,0.7520816100859561, ,0.6244974592355258, ,0.08020244484806432
224, ,PASS, ,0.04802606000000001, ,0.006600095351283031, ,0.04363954317360871, ,0.00032573770084245134, ,1.8333333333333333, ,0.7579836724355599, ,0.6226811697720455, ,0.08477378012693619
225, ,PASS, ,0.04812936000000002, ,0.006516384904221464, ,0.04351388578886145, ,0.0003224901195373141, ,1.8333333333333333, ,0.750989005065543, ,0.6229260627334136, ,0.07454949898981654
226, ,PASS, ,0.047508800000000004, ,0.006573763745190274, ,0.04356042679537153, ,0.00032084511407382726, ,1.75, ,0.7601015248237608, ,0.623089324707659, ,0.08630436113548703
227, ,PASS, ,0.04871508000000002, ,0.006643594223362869, ,0.04389588998449012, ,0.0003324112348543999, ,1.75, ,0.7523524684315636, ,0.6245382747290872, ,0.0530193261362013
228, ,PASS, ,0.04798667000000002, ,0.006539056179125689, ,0.04391910742066489, ,0.0003225507994810304, ,1.8333333333333333, ,0.7578864596190646, ,0.6228648394930716, ,0.08975327034142161
229, ,PASS, ,0.048283099999999995, ,0.0066087472432957315, ,0.04393243663761964, ,0.00032794810374826226, ,1.75, ,0.7585889079541348, ,0.6232321789351237, ,0.09173282177914736
230, ,PASS, ,0.04707690000000001, ,0.00628712391165909, ,0.04397751750413257, ,0.00030436962649514214, ,1.75, ,0.7448805445850455, ,0.6255790698149017, ,0.0764270116936389
231, ,PASS, ,0.04821979000000004, ,0.006585626997887113, ,0.0438840257568213, ,0.0003263328106094235, ,1.75, ,0.7557662645321388, ,0.6250688761453848, ,0.08248811248750025
232, ,PASS, ,0.04760532000000002, ,0.0064305394524549015, ,0.0442092702518316, ,0.0003146427326813104, ,1.75, ,0.7463277166220624, ,0.623089324707659, ,0.06693740944062367
233, ,PASS, ,0.04791910000000002, ,0.006493121861416702, ,0.04415460372788311, ,0.00031995019571407786, ,1.8333333333333333, ,0.7549582431545347, ,0.6233954409093692, ,0.08746760270198567
234, ,PASS, ,0.0474213, ,0.006499295569204431, ,0.04372581072325055, ,0.0003167036042318532, ,1.75, ,0.7528233819186609, ,0.6249872451582621, ,0.07193730740188976
235, ,PASS, ,0.048231860000000015, ,0.006451036541028755, ,0.0441546828087182, ,0.00031991495329814737, ,1.75, ,0.753183287204872, ,0.6260892634844187, ,0.09110018162894634
236, ,PASS, ,0.04812984000000001, ,0.006374496216118852, ,0.043973739855513165, ,0.00031551614361471377, ,1.8333333333333333, ,0.7524921133598981, ,0.6261504867247607, ,0.09671231199363278
237, ,PASS, ,0.049191770000000024, ,0.00664857039442272, ,0.04382948266035387, ,0.0003362017387817484, ,1.8333333333333333, ,0.7520610753983932, ,0.625313769106753, ,0.05263157894736842
238, ,PASS, ,0.04980648, ,0.0067266626807146, ,0.044131013893185855, ,0.0003441872340579527, ,1.75, ,0.7572299764627408, ,0.6263545641925675, ,0.0905899879594294
239, ,PASS, ,0.04975363000000001, ,0.006825843343161517, ,0.04365967475786209, ,0.00034901606687586585, ,1.75, ,0.7514580893087154, ,0.6226811697720455, ,0.04636640068570029
240, ,PASS, ,0.04923208999999999, ,0.006458166508480451, ,0.044108934136242124, ,0.000327130952445924, ,1.75, ,0.7373368949465308, ,0.6253954000938756, ,0.06724352564233382
241, ,PASS, ,0.04943000999999999, ,0.006593714772901494, ,0.043701525663353814, ,0.00033504442636055916, ,1.75, ,0.7432270021032362, ,0.6235382951368339, ,0.05703965225199486
242, ,PASS, ,0.04926574999999998, ,0.006550898329980522, ,0.04419146458460032, ,0.0003319147541780695, ,1.8333333333333333, ,0.7463953426922704, ,0.6240280810595702, ,0.08887573722985245
243, ,PASS, ,0.04934737000000001, ,0.006674135912958825, ,0.04375656668619008, ,0.00033839861921244803, ,1.75, ,0.7558270453002627, ,0.6262933409522254, ,0.08979408583498295
244, ,PASS, ,0.04903454999999996, ,0.006552344148288131, ,0.04422044860166119, ,0.00033045017386589806, ,1.8333333333333333, ,0.7501491960112849, ,0.6232321789351237, ,0.09001857104957042
245, ,PASS, ,0.049272459999999976, ,0.00652719108143412, ,0.043984348907981474, ,0.00033079851767256176, ,1.8333333333333333, ,0.7452496918943426, ,0.6236199261239567, ,0.044958266157833514
246, ,PASS, ,0.04931324000000002, ,0.006630030310141049, ,0.043824346477418834, ,0.0003362320119239316, ,1.8333333333333333, ,0.749566744013926, ,0.6235587028836146, ,0.09499806126405584
247, ,PASS, ,0.04916167999999998, ,0.006699771135025117, ,0.044019304062162, ,0.00033850633392833884, ,1.75, ,0.7526415163628644, ,0.6254566233342177, ,0.09285524785208465
248, ,PASS, ,0.05032133, ,0.006771437409074565, ,0.044333158070039395, ,0.0003502544850513234, ,1.75, ,0.7511747560241839, ,0.6247831676904553, ,0.08710026325993347
249, ,PASS, ,0.049250810000000006, ,0.006541343276359941, ,0.04384736952470359, ,0.00033133959706058906, ,1.75, ,0.7478866182482427, ,0.6248443909307974, ,0.08407991673639313
250, ,PASS, ,0.04931005000000001, ,0.006588841805318902, ,0.043827759931634055, ,0.0003338904386992516, ,1.75, ,0.7411868474145449, ,0.6251300993857268, ,0.04673374012775249
251, ,PASS, ,0.04923129000000004, ,0.006489327361172825, ,0.04363856458602886, ,0.0003284666363778114, ,1.8333333333333333, ,0.7396776187833993, ,0.6252117303728495, ,0.07216179261647722
252, ,PASS, ,0.04762115000000001, ,0.005726961059075237, ,0.04366184435746209, ,0.00028121201901394713, ,1.8333333333333333, ,0.7086007603556455, ,0.6247423521968939, ,0.07979428991245077
253, ,PASS, ,0.04937564999999999, ,0.006233915113141431, ,0.04398670598620437, ,0.00031688189651507694, ,1.8333333333333333, ,0.7302396122943782, ,0.6250280606518235, ,0.077814738474725
254, ,PASS, ,0.0506871, ,0.006350517566917695, ,0.04397828450480603, ,0.0003314951077063547, ,1.8333333333333333, ,0.7139844853919183, ,0.6245382747290872, ,0.0434889083896247
255, ,PASS, ,0.050971939999999986, ,0.006586194072488342, ,0.044006037222913824, ,0.0003450783319832976, ,1.75, ,0.7325945354843184, ,0.6251913226260688, ,0.050692843003204015
