Channel, ,Pass/Fail, ,Amplitude, ,Sorting Function Response, ,Mean, ,Variance, ,NPeaksRatio, ,PosIntegralRatio, ,ToT50, ,ToT99
41, ,PASS, ,0.03866148999999998, ,0.03295645241601507, ,0.042182715557029446, ,0.0002668888274971314, ,0.8333333333333334, ,0.8021006613725359, ,0.4573171976082121, ,0.08316156813126263
42, ,PASS, ,0.07517601500000001, ,0.06095123625283266, ,0.0406715096000898, ,0.0009520496457412079, ,0.9166666666666666, ,0.7653743227040497, ,0.4574804595824575, ,0.143527683108508
43, ,PASS, ,0.04820072999999997, ,0.04057056272815338, ,0.04193565288810432, ,0.0004077430324381457, ,0.8333333333333334, ,0.7893061756613321, ,0.45780698353094834, ,0.13971143446052123
44, ,PASS, ,0.03826207999999996, ,0.032659287067001636, ,0.041822575392134846, ,0.000261609641457977, ,0.8333333333333334, ,0.8009233584567478, ,0.457194751127528, ,0.09089610416113957
45, ,PASS, ,0.07710515899999999, ,0.062168723817684776, ,0.040371266517009854, ,0.0009961540158574572, ,0.9166666666666666, ,0.764041102822641, ,0.45735801310177343, ,0.1597110263055856
46, ,PASS, ,0.05363577000000002, ,0.04367239356204008, ,0.04076464942593008, ,0.00048777646870448786, ,0.9166666666666666, ,0.772001617287442, ,0.4569294504193792, ,0.15140507336584969
47, ,PASS, ,0.03800543000000001, ,0.03192532645452425, ,0.041220788690638964, ,0.0002541492632244116, ,0.8333333333333334, ,0.7957862586231301, ,0.4576029060631416, ,0.07803922368931246
48, ,PASS, ,0.075067829, ,0.061331120300198994, ,0.039791543820860795, ,0.00095691241021328, ,1.0, ,0.7681659678725327, ,0.4569294504193792, ,0.1330789167568009
49, ,PASS, ,0.05428648999999998, ,0.045297446360759684, ,0.04033246176629048, ,0.0005121480023732626, ,1.0, ,0.7818402818635899, ,0.4572967898614314, ,0.13618089426746394
50, ,PASS, ,0.04007198999999996, ,0.03350289344182826, ,0.04077056863737475, ,0.00028152312316643966, ,0.8333333333333334, ,0.7981893733497107, ,0.45754168282279956, ,0.07738617579233077
51, ,PASS, ,0.07555283000000002, ,0.0620501656627716, ,0.03953942772586273, ,0.0009747480159518598, ,1.0, ,0.7710248538288174, ,0.45707230464684395, ,0.13550743862370157
52, ,PASS, ,0.057063489999999994, ,0.04795725018722997, ,0.040128989342462396, ,0.0005699545287033349, ,1.0, ,0.7838203607225134, ,0.4577253525438256, ,0.1235280912634436
53, ,PASS, ,0.04880803000000001, ,0.04255962244307793, ,0.04028519798146977, ,0.00043487227775330825, ,0.9166666666666666, ,0.8101463618220924, ,0.45754168282279956, ,0.10340605293769516
54, ,PASS, ,0.08232031062999996, ,0.0639722494777575, ,0.03928698530087141, ,0.001093655845040741, ,0.9166666666666666, ,0.7481647026516026, ,0.45694985816615985, ,0.1408338605334585
55, ,PASS, ,0.0552395, ,0.045700630535126165, ,0.04021813803697884, ,0.0005258108908876325, ,0.9166666666666666, ,0.7775178212671218, ,0.4571743433807473, ,0.1631191200179588
56, ,PASS, ,0.051393749999999995, ,0.04459706055136112, ,0.03995889050509173, ,0.0004795002796522845, ,0.9166666666666666, ,0.807114562015686, ,0.45741923634211545, ,0.09777351482622804
57, ,PASS, ,0.08216602067999998, ,0.06325165690510073, ,0.03916366077347401, ,0.0010786307951156696, ,0.9166666666666666, ,0.7438494630592138, ,0.45735801310177343, ,0.13801759147772494
58, ,PASS, ,0.04826296000000001, ,0.04020421162898566, ,0.040249296204567256, ,0.0004042870004157765, ,0.8333333333333334, ,0.7796472305172994, ,0.4567865961919145, ,0.1476704557049856
59, ,PASS, ,0.04962793, ,0.043153696267437903, ,0.04002670071325075, ,0.00044812952582197913, ,0.9166666666666666, ,0.8077852765194725, ,0.45709271239362465, ,0.08718189424705618
60, ,PASS, ,0.08283957801999997, ,0.06405296068923548, ,0.039194909826697405, ,0.0011013438775963824, ,0.9166666666666666, ,0.7456563531626071, ,0.4569090426725985, ,0.13867063937470664
61, ,PASS, ,0.04785530000000002, ,0.040247390023095464, ,0.04031573444399094, ,0.00040141890377613543, ,0.8333333333333334, ,0.784002522981368, ,0.45709271239362465, ,0.15187445154180526
62, ,PASS, ,0.051532149999999985, ,0.045590022461138795, ,0.03990957232464643, ,0.0004919362791956186, ,0.9166666666666666, ,0.8162700501428073, ,0.45762331380992227, ,0.12103834615620089
63, ,PASS, ,0.08931819500000004, ,0.06572267768356625, ,0.03906545969527766, ,0.0012180632978536215, ,0.9166666666666666, ,0.7250464504750287, ,0.4566437419644497, ,0.10038570641415481
64, ,PASS, ,0.05628548000000001, ,0.044567093159823226, ,0.04002927657762086, ,0.0005220363535866758, ,0.9166666666666666, ,0.7574192630721112, ,0.45741923634211545, ,0.14275218873084222
65, ,PASS, ,0.049616669999999974, ,0.04352910242064774, ,0.04009454714393584, ,0.0004523109713353575, ,0.9166666666666666, ,0.813348577855246, ,0.457194751127528, ,0.10107956980469786
66, ,PASS, ,0.08729277440000004, ,0.06472995560420547, ,0.039092663734413585, ,0.0011721367378455406, ,0.9166666666666666, ,0.7284760680986266, ,0.45735801310177343, ,0.10587539029815718
67, ,PASS, ,0.059420040000000014, ,0.048013700928115355, ,0.0397559165347646, ,0.0005936541258382767, ,0.9166666666666666, ,0.765974987419098, ,0.4569090426725985, ,0.16095589885920694
68, ,PASS, ,0.04804429, ,0.04277069717354335, ,0.04001356615395604, ,0.00043075003180507987, ,0.9166666666666666, ,0.8218936873385027, ,0.45707230464684395, ,0.11214056855982531
69, ,PASS, ,0.08730477739000003, ,0.06500275297425745, ,0.03908151584451338, ,0.001177499558471579, ,0.9166666666666666, ,0.7295055279393166, ,0.4567661884451338, ,0.10465092549131651
70, ,PASS, ,0.061506230000000016, ,0.05066207541137689, ,0.03980040543192996, ,0.0006486418260416562, ,1.0, ,0.7737137733218723, ,0.45715393563396667, ,0.14985408461051816
71, ,PASS, ,0.04945769000000001, ,0.043999097855034794, ,0.04008331004836636, ,0.00045616558643617877, ,0.9166666666666666, ,0.8223599249006813, ,0.4577253525438256, ,0.12922185261525276
72, ,PASS, ,0.09137549900000001, ,0.06554094248704066, ,0.039069157188082494, ,0.0012425855937351557, ,0.9166666666666666, ,0.7148587219209047, ,0.4572967898614314, ,0.07936572723005653
73, ,PASS, ,0.061210690000000026, ,0.0485992160033201, ,0.03976870408603906, ,0.0006189620682475039, ,0.9166666666666666, ,0.7589663578566839, ,0.4568274116854758, ,0.13777269851635682
74, ,PASS, ,0.046299589999999995, ,0.04129561812896661, ,0.04000329283912573, ,0.00040092374418106646, ,0.9166666666666666, ,0.8225953472985739, ,0.45709271239362465, ,0.12558927368829206
75, ,PASS, ,0.08811525160000006, ,0.06441334102079249, ,0.039141116913675236, ,0.0011772296580386493, ,0.9166666666666666, ,0.7221936741645413, ,0.45725597436787, ,0.09291647109242669
76, ,PASS, ,0.05345182999999999, ,0.043920074580756745, ,0.0399434543356258, ,0.0004890862991700339, ,0.9166666666666666, ,0.7746399290983131, ,0.45701108140650193, ,0.16705781514662965
77, ,PASS, ,0.04680830999999999, ,0.042202846570106325, ,0.04002375103650946, ,0.00041469125690481493, ,0.9166666666666666, ,0.8296001190714457, ,0.4571131201404053, ,0.12503826452521377
78, ,PASS, ,0.08784014380000008, ,0.06445010217810102, ,0.03899951819830208, ,0.0011743024967166376, ,0.9166666666666666, ,0.7248284938292389, ,0.45658251872410766, ,0.09865104793779719
79, ,PASS, ,0.05351957000000001, ,0.044441604842622155, ,0.03995311384318687, ,0.0004957290634875383, ,0.9166666666666666, ,0.7790632375499561, ,0.4568682271790372, ,0.17156792718515948
80, ,PASS, ,0.04823582999999998, ,0.04340242468345586, ,0.039995506809452866, ,0.00043958845488434995, ,0.9166666666666666, ,0.8281674265604474, ,0.457133527887186, ,0.14193587885961512
81, ,PASS, ,0.093065058, ,0.06545852100339151, ,0.0389556698799449, ,0.0012633742773171905, ,0.9166666666666666, ,0.7083872364274839, ,0.4568274116854758, ,0.07169241444052162
82, ,PASS, ,0.05916601000000001, ,0.04711772945258063, ,0.039755018157180466, ,0.0005808013470933011, ,0.9166666666666666, ,0.7613630923074735, ,0.4568070039386951, ,0.13579314707863105
83, ,PASS, ,0.04530810000000002, ,0.03957512624541993, ,0.04017481754229506, ,0.000376245716284782, ,0.9166666666666666, ,0.8122092805127158, ,0.45694985816615985, ,0.15587436991081816
84, ,PASS, ,0.09474064000000006, ,0.06501570734895362, ,0.03888718949953512, ,0.0012767368701485852, ,0.9166666666666666, ,0.6997497822792575, ,0.4572151588743087, ,0.06720271014877248
85, ,PASS, ,0.06389275399999997, ,0.0502153936347651, ,0.039558456082733, ,0.000667889916138605, ,0.9166666666666666, ,0.7555984312967055, ,0.4572151588743087, ,0.12650762229342258
198, ,PASS, ,0.14760245, ,0.09508948018604647, ,0.03719315906175384, ,0.0030646133808646518, ,0.9166666666666666, ,0.8790399062921455, ,0.4718271055692741, ,0.052223424011754865
199, ,PASS, ,0.06257965900000001, ,0.03946462328727395, ,0.04036591115262954, ,0.0005490239837973124, ,0.9166666666666666, ,0.852177601801366, ,0.4643374625007653, ,0.03459113079324912
200, ,PASS, ,0.063999295, ,0.03886707534536077, ,0.040358705155200916, ,0.0005536657253580949, ,0.9166666666666666, ,0.8347977284609145, ,0.4635823758698802, ,0.026468847574539295
201, ,PASS, ,0.06004376499999997, ,0.03717543422818935, ,0.04046711228668803, ,0.0004970588245529523, ,0.9166666666666666, ,0.8315148445194278, ,0.4635619681230995, ,0.027448419420011836
202, ,PASS, ,0.05482323599999997, ,0.034073646332901296, ,0.04066745858757984, ,0.00041652762458143717, ,0.9166666666666666, ,0.828176296340431, ,0.4634803371359768, ,0.02483622783208506
203, ,PASS, ,0.05589616500000001, ,0.03450290631814502, ,0.04049905731066713, ,0.0004307929735934145, ,0.9166666666666666, ,0.822683662242828, ,0.4627252505050917, ,0.02710148772474031
204, ,PASS, ,0.05725126199999999, ,0.035409005998517, ,0.04056188822779127, ,0.0004521802668943144, ,0.9166666666666666, ,0.8308726788793448, ,0.46370482235056426, ,0.030713658904920307
205, ,PASS, ,0.06232320699999998, ,0.03910722646108281, ,0.04040828374645415, ,0.0005432899621807772, ,0.9166666666666666, ,0.836577086538059, ,0.4638680843248097, ,0.0320197546988837
206, ,PASS, ,0.060883400999999976, ,0.03811915938093001, ,0.04032750405828452, ,0.0005173451010703823, ,0.9166666666666666, ,0.8359725550825439, ,0.4638680843248097, ,0.03267280259586539
207, ,PASS, ,0.06641204900000003, ,0.04147241369237421, ,0.040188502191179774, ,0.0006139200431869421, ,0.9166666666666666, ,0.8380961604238922, ,0.4644395012346687, ,0.032203424419909796
208, ,PASS, ,0.05585365699999997, ,0.03462817092657028, ,0.04056853896369462, ,0.0004313405437629581, ,0.9166666666666666, ,0.8271198531245098, ,0.46290892022611785, ,0.03061162017101692
209, ,PASS, ,0.051525610000000006, ,0.031921601355888396, ,0.040677450865492536, ,0.0003666402284856729, ,0.9166666666666666, ,0.8286711511285001, ,0.46286810473255646, ,0.028652476480071836
210, ,PASS, ,0.04731222999999998, ,0.029390058766667292, ,0.04083791526519867, ,0.00030978202627990147, ,0.9166666666666666, ,0.8289738227953113, ,0.46262321177118837, ,0.026346401093855228
211, ,PASS, ,0.052608759999999984, ,0.03205927217411658, ,0.040678319561233446, ,0.0003759699410549277, ,0.9166666666666666, ,0.8227676905431228, ,0.4626844350115304, ,0.022815860900797943
212, ,PASS, ,0.05454317000000001, ,0.032462756204395114, ,0.04059066787106386, ,0.0003952331024192116, ,0.9166666666666666, ,0.8268507519839781, ,0.4635619681230995, ,0.02520356727413726
213, ,PASS, ,0.06769487200000003, ,0.04136513175115235, ,0.04018932119977143, ,0.0006247068272316008, ,0.9166666666666666, ,0.8353768550469632, ,0.4640313462990551, ,0.03038713495642946
214, ,PASS, ,0.065808651, ,0.03987272735513357, ,0.04030320415522132, ,0.0005864707838527699, ,0.9166666666666666, ,0.8363223576116726, ,0.4643986857411073, ,0.0309993673598498
215, ,PASS, ,0.07366268291, ,0.045921641850052215, ,0.039965214918266975, ,0.0007540265587795883, ,0.9166666666666666, ,0.8415387587007249, ,0.46448031672823004, ,0.031223852574437258
216, ,PASS, ,0.06093035199999999, ,0.03709711184479926, ,0.04039955578845329, ,0.0005042497715798115, ,0.9166666666666666, ,0.8381137628023198, ,0.46411297728617784, ,0.031223852574437258
217, ,PASS, ,0.07223286226, ,0.043955604261465143, ,0.040027228472072, ,0.0007083806320318759, ,0.9166666666666666, ,0.8403626599894949, ,0.46458235546213345, ,0.03199934695210302
218, ,PASS, ,0.06955239000000003, ,0.04136592172697728, ,0.04020314091936899, ,0.0006424894801292005, ,0.9166666666666666, ,0.8357495580380173, ,0.46448031672823004, ,0.030468765943552172
219, ,PASS, ,0.07176802049999999, ,0.04310574837085251, ,0.040115089754698886, ,0.0006905416071294482, ,0.9166666666666666, ,0.8299449640519113, ,0.4637660455909063, ,0.02832595253158099
220, ,PASS, ,0.045544989999999994, ,0.0266357566292663, ,0.040906610617130267, ,0.00027099180819421223, ,0.9166666666666666, ,0.8147053798121698, ,0.4618273096467419, ,0.021468949613273197
221, ,PASS, ,0.04995309999999998, ,0.029426289335570382, ,0.04076672327972898, ,0.00032840667615331145, ,0.9166666666666666, ,0.8203939539548142, ,0.4621946490887941, ,0.025550498969408787
222, ,PASS, ,0.04478420999999999, ,0.02506217286545924, ,0.04098276403787678, ,0.0002509909081735826, ,0.9166666666666666, ,0.8072138952561794, ,0.46170486316605786, ,0.01910165098671456
223, ,PASS, ,0.056355461999999995, ,0.03295157045547764, ,0.04058582067610865, ,0.00041552687075022463, ,0.9166666666666666, ,0.8245229489184098, ,0.4626028040244077, ,0.022775045407236585
224, ,PASS, ,0.08362076900000001, ,0.043132868396834494, ,0.03993978626946389, ,0.0008116218204158085, ,0.9166666666666666, ,0.8320019270017985, ,0.46548029632048327, ,0.020795493969510827
225, ,PASS, ,0.07609642959999999, ,0.04024654356707949, ,0.04011249186771698, ,0.0006850018673995394, ,0.9166666666666666, ,0.8424607127483315, ,0.4647864329299402, ,0.023060753862166078
226, ,PASS, ,0.08612261799999998, ,0.046320290860707186, ,0.03986241663717067, ,0.0008888138401252093, ,0.9166666666666666, ,0.8548147720565715, ,0.46625579069814904, ,0.027856574355625396
227, ,PASS, ,0.18746840000000004, ,0.12174981590315734, ,0.03781453623415849, ,0.004985979844985247, ,0.8333333333333334, ,0.8806017158284181, ,0.4718271055692741, ,0.05050917328217792
