Channel, ,Pass/Fail, ,Amplitude, ,Sorting Function Response, ,Mean, ,Variance, ,NPeaksRatio, ,PosIntegralRatio, ,ToT50, ,ToT99
0, ,PASS, ,0.07492190506000002, ,0.009628690302360743, ,0.0346353867810861, ,0.0007305273580993677, ,1.75, ,0.6538123583929781, ,0.47966368033305445, ,0.04569294504193792
1, ,PASS, ,0.07442683151000001, ,0.00965875411783599, ,0.034736631047529644, ,0.0007278428895726697, ,1.75, ,0.6557328890146618, ,0.4797453113201771, ,0.04383584008489623
2, ,PASS, ,0.07468423953000003, ,0.009698071817505033, ,0.03456468698679619, ,0.0007330330247841254, ,1.75, ,0.6545377991732785, ,0.47882696271504666, ,0.045672537295157245
3, ,PASS, ,0.07460360411000003, ,0.009689776117235174, ,0.03467384379053488, ,0.0007316997203762615, ,1.75, ,0.6546123146023802, ,0.48041876696393954, ,0.04187669639395114
4, ,PASS, ,0.07462036727, ,0.009691182660791072, ,0.03456552878471868, ,0.0007321542442694323, ,1.75, ,0.6557290379882166, ,0.48123507683516664, ,0.04846839860411012
5, ,PASS, ,0.07436839290000002, ,0.00962439987545247, ,0.03449148730311626, ,0.0007247813598986149, ,1.75, ,0.6545818153204648, ,0.47870451623436255, ,0.04471337319646538
6, ,PASS, ,0.07461829364999997, ,0.009675668698196858, ,0.034480510828962675, ,0.0007305627746667366, ,1.75, ,0.6536379058085305, ,0.4790514479296341, ,0.04667251688741046
7, ,PASS, ,0.07470687903000003, ,0.009774082751513273, ,0.034588003933185035, ,0.0007389836524444394, ,1.75, ,0.6564798363838475, ,0.4833982979939185, ,0.047835758453909104
8, ,PASS, ,0.07457674545000002, ,0.009628589923285085, ,0.03478899230301422, ,0.0007273004612761419, ,1.75, ,0.6544441482919756, ,0.48029632048325543, ,0.04097875553560131
9, ,PASS, ,0.07449357980000001, ,0.00966281495222695, ,0.03475924259708985, ,0.000728960401750933, ,1.75, ,0.6570837848435354, ,0.4814391543029734, ,0.04726434154405012
10, ,PASS, ,0.07430246980000003, ,0.009647786075187164, ,0.03453085055529479, ,0.000725935710575263, ,1.75, ,0.6556129287690469, ,0.48045958245750087, ,0.04271341401195894
11, ,PASS, ,0.07439192434000001, ,0.00965779264565362, ,0.03465651488683904, ,0.000727347085635755, ,1.75, ,0.6566564277026374, ,0.48119426134160526, ,0.04887655353972368
12, ,PASS, ,0.07410089471000002, ,0.009661468593698774, ,0.0346042799320422, ,0.0007248813827940097, ,1.75, ,0.6571992393393129, ,0.48119426134160526, ,0.04993775637231893
13, ,PASS, ,0.07417317292000002, ,0.009678849523736459, ,0.034757125383359525, ,0.0007268268187886655, ,1.75, ,0.6572727512948814, ,0.4808881451398951, ,0.04763168098610233
14, ,PASS, ,0.07493618464000001, ,0.009699600173344126, ,0.0346381994320524, ,0.0007359360306742381, ,1.75, ,0.655157777160102, ,0.4805820289381849, ,0.04926430072855656
15, ,PASS, ,0.07575339458000001, ,0.009780647703284896, ,0.0345934005524377, ,0.0007501836407763578, ,1.75, ,0.6536405270160763, ,0.4811534458480439, ,0.04667251688741046
16, ,PASS, ,0.07436423611000004, ,0.009730711257850992, ,0.03470517549458174, ,0.0007325051385033531, ,1.75, ,0.6584471393828354, ,0.48158200853043814, ,0.04997857186588029
17, ,PASS, ,0.07446919616000003, ,0.009708826931140583, ,0.03448521037284953, ,0.0007317242906070517, ,1.75, ,0.6555674374417259, ,0.4794187873716863, ,0.04587661476296402
18, ,PASS, ,0.07476191174, ,0.009682252096037267, ,0.034555891614456845, ,0.0007329251243485472, ,1.75, ,0.6535498745439481, ,0.4801942817493521, ,0.03899920409787555
19, ,PASS, ,0.07474719432000002, ,0.009782867985000063, ,0.034503058064529295, ,0.0007399621965250509, ,1.75, ,0.6565903090691315, ,0.4815003775433154, ,0.046509254913165037
20, ,PASS, ,0.07491564588000003, ,0.009774665986675615, ,0.03477096274769902, ,0.0007414127325262328, ,1.75, ,0.6559604891923131, ,0.48119426134160526, ,0.043692985857431484
21, ,PASS, ,0.07506509359000002, ,0.009801320521155475, ,0.034660388417379236, ,0.000744803438373096, ,1.75, ,0.6591222672394472, ,0.4818677169853676, ,0.05661108956960062
22, ,PASS, ,0.07574001771, ,0.009850544142627933, ,0.03476104098549009, ,0.0007554590208708651, ,1.75, ,0.6545579209391946, ,0.4815207852900961, ,0.03936654353992776
23, ,PASS, ,0.07666389029, ,0.009897321299152335, ,0.03473425212036489, ,0.000768466981495933, ,1.75, ,0.6548398092277777, ,0.4811534458480439, ,0.048141874655619275
24, ,PASS, ,0.07486853227000001, ,0.009810394538614644, ,0.034401975800085714, ,0.0007438014731335254, ,1.75, ,0.6581253445686687, ,0.4806228444317463, ,0.04703985632946266
25, ,PASS, ,0.07473547818, ,0.009857874618850862, ,0.03476594147670456, ,0.0007463883436778202, ,1.75, ,0.6612629606612592, ,0.48211260994673577, ,0.05201934654394808
26, ,PASS, ,0.07448724398000002, ,0.009818434593951255, ,0.03446189037386992, ,0.0007405386166810649, ,1.75, ,0.6605929375865578, ,0.4803371359768168, ,0.04965204791738944
27, ,PASS, ,0.07441755425000003, ,0.009806392943938414, ,0.0348485779494296, ,0.000739071050399008, ,1.75, ,0.662877341471378, ,0.4836635987020673, ,0.055998857166180284
28, ,PASS, ,0.07443097441000003, ,0.009870200987034934, ,0.03473638942001184, ,0.0007436565982984864, ,1.75, ,0.6615503461684493, ,0.4860104895818453, ,0.04836635987020673
29, ,PASS, ,0.07391651649000004, ,0.009799398794938453, ,0.03458827005469276, ,0.0007334255180398613, ,1.75, ,0.6647607723939091, ,0.48247994938878797, ,0.05426419868982266
30, ,PASS, ,0.07388001107000003, ,0.009813083948871757, ,0.03473585597008224, ,0.0007343765771489236, ,1.75, ,0.6644472080389919, ,0.4838880839166548, ,0.050713250749984694
31, ,PASS, ,0.07356377348000004, ,0.009807823952283561, ,0.03453705970041428, ,0.0007307127845907759, ,1.75, ,0.6650798464763722, ,0.4821738331870778, ,0.053978490234893164
32, ,PASS, ,0.07382920253000004, ,0.009838441640256494, ,0.03480195570621008, ,0.0007359561956574615, ,1.75, ,0.6671135510884837, ,0.4842146078651456, ,0.05544784800310198
33, ,PASS, ,0.07383384470000001, ,0.0098826759860394, ,0.0348405028883084, ,0.0007390971179744846, ,1.75, ,0.6667039058271901, ,0.48452072406685576, ,0.056835574784188075
34, ,PASS, ,0.07420585321000003, ,0.009876742926032618, ,0.03450017755025408, ,0.0007417183481134613, ,1.75, ,0.6637674798693339, ,0.483112589538989, ,0.048529621844452156
35, ,PASS, ,0.07461492987, ,0.009914589496069775, ,0.03474201950796922, ,0.0007489723379206051, ,1.75, ,0.6636813926186768, ,0.48537784943164425, ,0.04771331197322504
36, ,PASS, ,0.07467708465000002, ,0.009977908269527718, ,0.03484276943592988, ,0.0007547088957160205, ,1.75, ,0.6672568454405949, ,0.4847452092814432, ,0.05918246566396604
37, ,PASS, ,0.07556695585, ,0.010066164713864978, ,0.034801708099222464, ,0.0007704911344227452, ,1.75, ,0.6644897995603739, ,0.4855615191526704, ,0.05489683884002367
38, ,PASS, ,0.08128587000000005, ,0.010628035863826544, ,0.03453110729454501, ,0.0008744198444372636, ,1.75, ,0.6569930189777904, ,0.4831329972857697, ,0.04926430072855656
39, ,PASS, ,0.19600492000000003, ,0.021570854936034244, ,0.031083231811656908, ,0.004271351888060283, ,1.5833333333333333, ,0.5968401703422906, ,0.46511295687843107, ,0.022081182016693537
40, ,PASS, ,0.08340117800000005, ,0.011172670438873648, ,0.034516034653170345, ,0.0009434626618139212, ,1.75, ,0.6667134551439996, ,0.4856839656333544, ,0.055570294483786045
41, ,PASS, ,0.08125857300000004, ,0.010994910590596412, ,0.03472449443848085, ,0.0009047988122528935, ,1.75, ,0.6710953283300659, ,0.4881124875002551, ,0.06420277137201282
42, ,PASS, ,0.08020775900000005, ,0.010787960593192213, ,0.03443265443031775, ,0.0008765604193910497, ,1.75, ,0.6696389862520065, ,0.48364319095528663, ,0.06108038611456909
43, ,PASS, ,0.08019768660000004, ,0.01082190817594071, ,0.0345675536409461, ,0.0008790336152593433, ,1.75, ,0.6703135146879082, ,0.4851533642170568, ,0.06240688965531316
44, ,PASS, ,0.07983900860000002, ,0.010655643989467252, ,0.03430261780188159, ,0.0008619755658306005, ,1.75, ,0.6679794896568617, ,0.4829289198179629, ,0.053509112058937575
45, ,PASS, ,0.07968486300000002, ,0.01074170599886849, ,0.03429851697067406, ,0.0008672122666320894, ,1.75, ,0.6706674919129233, ,0.48445950082651373, ,0.06024366849656129
46, ,PASS, ,0.07956979200000003, ,0.010733600973245884, ,0.034398382924634194, ,0.0008651228133950916, ,1.75, ,0.6693186560832491, ,0.4847860247750046, ,0.05871308748801045
47, ,PASS, ,0.07914559760000003, ,0.01073956476328266, ,0.03435142254443787, ,0.0008608823872400429, ,1.75, ,0.6716907774408482, ,0.48492887900246934, ,0.06450888757372299
48, ,PASS, ,0.0790830202, ,0.010666069725651442, ,0.03456309372931165, ,0.0008543324485148525, ,1.75, ,0.6713496236248918, ,0.4847860247750046, ,0.060100814269096546
49, ,PASS, ,0.07889485759999999, ,0.010616617164796642, ,0.0343383816130283, ,0.0008485452000321188, ,1.75, ,0.6708996581769068, ,0.4847248015346626, ,0.058876349462255874
50, ,PASS, ,0.07877977880000002, ,0.010615776360039169, ,0.034403610534682966, ,0.0008470938977215531, ,1.75, ,0.6693505827056901, ,0.4839493071569968, ,0.0554274402563213
51, ,PASS, ,0.07846604313000002, ,0.010548262807179843, ,0.034362728147588825, ,0.0008380896103558781, ,1.75, ,0.6688560183806956, ,0.48160241627721884, ,0.060121222015877225
52, ,PASS, ,0.07863404060000001, ,0.010505847258221266, ,0.034442705447643926, ,0.0008367243266150337, ,1.75, ,0.6675584533245382, ,0.4830921817922083, ,0.05324381135078876
53, ,PASS, ,0.07843747920000002, ,0.010526511511404178, ,0.03414215852574437, ,0.0008361616927428429, ,1.75, ,0.667673002985294, ,0.48166363951756086, ,0.05957021285279892
54, ,PASS, ,0.07845176240000001, ,0.01050203960844009, ,0.034558975674986225, ,0.0008346716397729387, ,1.75, ,0.6678114830767288, ,0.4831329972857697, ,0.0585702332605457
55, ,PASS, ,0.0784551208, ,0.010544745371403607, ,0.0343647523358707, ,0.0008376796288893216, ,1.75, ,0.668682659488102, ,0.4836635987020673, ,0.055998857166180284
56, ,PASS, ,0.0784601606, ,0.01052675861315757, ,0.034318807507805964, ,0.0008364566129185828, ,1.75, ,0.6682912796258903, ,0.48325544376645374, ,0.05536621701597927
57, ,PASS, ,0.07873820120000001, ,0.010536087285868965, ,0.03461723306197832, ,0.0008406450764889446, ,1.75, ,0.6689828177542796, ,0.4853166261913022, ,0.06081508540642028
58, ,PASS, ,0.07866133800000001, ,0.010468751629761174, ,0.03434071256055999, ,0.0008342316501758342, ,1.75, ,0.6662848876421131, ,0.48335748250035715, ,0.052774433174833164
59, ,PASS, ,0.0784500792, ,0.010466374120265654, ,0.034128315686006404, ,0.0008318444839658745, ,1.75, ,0.6664703523956457, ,0.48203097895961305, ,0.06201914246648028
60, ,PASS, ,0.07880708020000003, ,0.010464138302081887, ,0.03447647079059611, ,0.0008352869150773721, ,1.75, ,0.6670110225174997, ,0.48288810432440155, ,0.056855982530968754
61, ,PASS, ,0.0789213182, ,0.010515362348819342, ,0.03442643968898594, ,0.0008402155681639623, ,1.75, ,0.6659940525857506, ,0.48252076488234935, ,0.05257035570702639
62, ,PASS, ,0.07870124040000001, ,0.01053474647579144, ,0.034392249890002245, ,0.0008389775424629929, ,1.75, ,0.6656368508643361, ,0.48294932756474357, ,0.05546825574988266
63, ,PASS, ,0.0786525236, ,0.010504556961234953, ,0.03454425770739372, ,0.0008368954138775231, ,1.75, ,0.6658440595894909, ,0.48452072406685576, ,0.05289687965551723
64, ,PASS, ,0.07859834253000002, ,0.010466352234632749, ,0.034189228494928676, ,0.0008328516124616866, ,1.75, ,0.6641006833139156, ,0.48045958245750087, ,0.05587641068549622
65, ,PASS, ,0.07862102480000002, ,0.010490535864405563, ,0.03455167891104263, ,0.0008350880203366273, ,1.75, ,0.6671656385338547, ,0.4830105508050856, ,0.05993755229485113
66, ,PASS, ,0.078680663, ,0.010441264757009471, ,0.034575103172384235, ,0.0008319547069270165, ,1.75, ,0.6643254197552143, ,0.48288810432440155, ,0.05154996836799249
67, ,PASS, ,0.07864621920000002, ,0.010490949747435372, ,0.03463510717924124, ,0.0008359257736054002, ,1.75, ,0.6686148074388515, ,0.48535744168486356, ,0.05785596212322198
68, ,PASS, ,0.078897378, ,0.01047076380265461, ,0.03415774183465643, ,0.0008363831395295112, ,1.75, ,0.6649274182278829, ,0.4828268810840595, ,0.05420297544948062
69, ,PASS, ,0.07902505860000002, ,0.010484334117509774, ,0.03449456413828289, ,0.000839396403975692, ,1.75, ,0.6655824125771382, ,0.48176567825146427, ,0.05328462684435011
70, ,PASS, ,0.08047317800000003, ,0.010598158294608322, ,0.03405592569131242, ,0.0008633413646851179, ,1.75, ,0.6613325427929171, ,0.4814595620497541, ,0.05346829656537622
71, ,PASS, ,0.08011914700000006, ,0.010581429754831966, ,0.034372565904573375, ,0.0008586139587389686, ,1.75, ,0.6630404877557148, ,0.48211260994673577, ,0.05208056978429012
72, ,PASS, ,0.07955005400000002, ,0.010514510572579468, ,0.03441278728985123, ,0.0008466154482323409, ,1.75, ,0.6625764393194535, ,0.4839084916634354, ,0.05299891838942063
73, ,PASS, ,0.07978987300000003, ,0.010581389367269513, ,0.03419651395685802, ,0.0008551222288990211, ,1.75, ,0.6628937458407732, ,0.48239831840166525, ,0.05612130364686435
74, ,PASS, ,0.07944169700000005, ,0.010528453796327846, ,0.03445637230076937, ,0.0008469448707691568, ,1.75, ,0.6629570223615615, ,0.4815207852900961, ,0.05299891838942063
75, ,PASS, ,0.07963363400000005, ,0.010543117733970394, ,0.03414704381114671, ,0.0008501933128208099, ,1.75, ,0.6618601382765485, ,0.4804391747107202, ,0.052284647252096896
76, ,PASS, ,0.07974408500000003, ,0.010554846628453924, ,0.03451946433644211, ,0.0008526071729671584, ,1.75, ,0.6640886126419758, ,0.48466357829432055, ,0.05363155853962164
77, ,PASS, ,0.07952611700000004, ,0.010595478679044312, ,0.034444603630946306, ,0.0008532125871595106, ,1.75, ,0.664123720900313, ,0.48213301769351646, ,0.05344788881859554
78, ,PASS, ,0.08070292300000007, ,0.010637723570545873, ,0.03425109501846901, ,0.0008691313500224023, ,1.75, ,0.6620206013733521, ,0.4814799697965348, ,0.05401930572845452
79, ,PASS, ,0.08048285900000005, ,0.010592294630905802, ,0.034316488551254055, ,0.0008637357832152361, ,1.75, ,0.6636277321560272, ,0.4818064937450256, ,0.05618252688720638
80, ,PASS, ,0.07939297560000003, ,0.010650025421135861, ,0.03426420289341034, ,0.0008561470708089595, ,1.75, ,0.6670528861682975, ,0.48284728883084016, ,0.05946817411889553
81, ,PASS, ,0.07946563200000004, ,0.01061628639964418, ,0.03441106656353952, ,0.0008544151320290901, ,1.75, ,0.6670312492909678, ,0.4835819677149446, ,0.058080447337809434
82, ,PASS, ,0.07955803100000002, ,0.01061278308839886, ,0.03429258472398523, ,0.000855159019054865, ,1.75, ,0.6663602004250657, ,0.4827656578437175, ,0.05871308748801045
83, ,PASS, ,0.08017079400000003, ,0.010620222546479251, ,0.034186632423828085, ,0.0008624743766889871, ,1.75, ,0.6648204784730982, ,0.4827656578437175, ,0.04920307748821453
84, ,PASS, ,0.08006832900000001, ,0.010626382950836446, ,0.0340840113911961, ,0.0008612956832610876, ,1.75, ,0.6627103556873287, ,0.48111263035448254, ,0.05016224158690639
85, ,PASS, ,0.08004186000000003, ,0.01065393263670726, ,0.03426155746658231, ,0.0008638772932905537, ,1.75, ,0.6668929617059155, ,0.48294932756474357, ,0.06038652272402604
86, ,PASS, ,0.07988142000000005, ,0.010724811202847307, ,0.03435355853411155, ,0.0008673478586445002, ,1.75, ,0.6684693426141027, ,0.48280647333727883, ,0.059284504397869434
87, ,PASS, ,0.08015064000000002, ,0.010677434602547484, ,0.034534605127650456, ,0.0008667857326160726, ,1.75, ,0.6669824487673301, ,0.4869288381869758, ,0.05618252688720638
88, ,PASS, ,0.07978693000000003, ,0.010753517127825423, ,0.03428913557458011, ,0.00086850990594825, ,1.75, ,0.668509399993283, ,0.48284728883084016, ,0.06040693047080672
89, ,PASS, ,0.07996207000000002, ,0.010723575693749963, ,0.03423031338176771, ,0.0008684646508155899, ,1.75, ,0.6681297121476089, ,0.48315340503255033, ,0.058917164955817225
90, ,PASS, ,0.07985328800000002, ,0.010690656110986895, ,0.034375290363666045, ,0.0008648134134706055, ,1.75, ,0.6680412659098522, ,0.48331666700679576, ,0.0574682149343891
91, ,PASS, ,0.08021278300000002, ,0.010736006730582108, ,0.034245075322952595, ,0.0008721708316961622, ,1.75, ,0.6673396611275343, ,0.4836635987020673, ,0.05540703250954062
92, ,PASS, ,0.08030308900000005, ,0.010771055117310182, ,0.03420678624191343, ,0.0008757135083026772, ,1.75, ,0.6678351401909384, ,0.4822962796677619, ,0.05787636987000265
93, ,PASS, ,0.08042237400000005, ,0.010803447766744622, ,0.03427699046407216, ,0.0008797614629275707, ,1.75, ,0.6686907951213554, ,0.4832962592600151, ,0.0590396114365013
94, ,PASS, ,0.08056346900000004, ,0.010737502353427703, ,0.03403451150507132, ,0.0008758974950647348, ,1.75, ,0.6655330254943198, ,0.4814595620497541, ,0.05252954021346503
95, ,PASS, ,0.08072811800000003, ,0.01077697681759434, ,0.034283980833656455, ,0.0008813753953081475, ,1.75, ,0.6658037917796545, ,0.48307177404542767, ,0.05444786841084876
96, ,PASS, ,0.08056432100000005, ,0.010879074944123652, ,0.03394442003510133, ,0.0008866699334094913, ,1.75, ,0.6669393779677057, ,0.4810922226077019, ,0.051917307810044694
97, ,PASS, ,0.08085786300000004, ,0.010884142566882785, ,0.034179465916613944, ,0.0008912277315177404, ,1.75, ,0.6697885431265576, ,0.48456153956041714, ,0.06275382135058469
98, ,PASS, ,0.08076715300000004, ,0.010874987667697716, ,0.03414388442868513, ,0.000889438843880219, ,1.75, ,0.6700121476302108, ,0.4844186853329524, ,0.062447705148874516
99, ,PASS, ,0.08078187000000005, ,0.010921158576875596, ,0.03424789637007408, ,0.0008934544193323189, ,1.75, ,0.6693431797019571, ,0.4839084916634354, ,0.05671312830350401
100, ,PASS, ,0.08069072900000004, ,0.010817505343504584, ,0.03406485317034346, ,0.0008840673300860171, ,1.75, ,0.6667550510841911, ,0.4820105712128324, ,0.05463153813187486
101, ,PASS, ,0.08047402800000004, ,0.010886819843860732, ,0.034269855976204563, ,0.0008872201483899093, ,1.75, ,0.6710119307101071, ,0.48409216138446154, ,0.057651884655415195
102, ,PASS, ,0.08050805300000004, ,0.010869029034158637, ,0.03449425730760597, ,0.000886670062831678, ,1.75, ,0.6718870589233414, ,0.4847248015346626, ,0.06161098753086672
103, ,PASS, ,0.08047023900000003, ,0.010834655606917688, ,0.03420669044692966, ,0.0008833026313252134, ,1.75, ,0.6701761864763074, ,0.48290851207118224, ,0.055590702230566724
104, ,PASS, ,0.08085033000000003, ,0.011011436402322215, ,0.034320136132527906, ,0.0009017333216589001, ,1.75, ,0.674112743537716, ,0.4863370135303361, ,0.0645905185608457
105, ,PASS, ,0.08107837300000004, ,0.011014297982971315, ,0.03456506653762168, ,0.0009048436313339775, ,1.75, ,0.6735126175428559, ,0.4877655558049836, ,0.06261096712311993
106, ,PASS, ,0.08112330200000005, ,0.011041424107653528, ,0.03425884855329483, ,0.000906877944197298, ,1.75, ,0.6731511380751592, ,0.4860104895818453, ,0.05936613538499214
107, ,PASS, ,0.08112710200000003, ,0.011036050041567805, ,0.034414320314891535, ,0.0009070612783971915, ,1.75, ,0.672981663177853, ,0.4859084508479419, ,0.06032529948368401
108, ,PASS, ,0.08193505800000003, ,0.011137442241485484, ,0.034260890600191836, ,0.0009245112694019627, ,1.75, ,0.6743455278063556, ,0.4856839656333544, ,0.0673659721230179
109, ,PASS, ,0.090140095, ,0.011816789439242172, ,0.03426641588661456, ,0.0010785033480612, ,1.75, ,0.6597129967526325, ,0.4835207444746026, ,0.05195812330360605
110, ,PASS, ,0.19712202000000006, ,0.021962448626360025, ,0.03095505641109365, ,0.004375556062167721, ,1.6666666666666667, ,0.6022170581821349, ,0.4667251688741046, ,0.024999489806330485
111, ,PASS, ,0.08623312800000006, ,0.011712698573200345, ,0.0343379012173221, ,0.001022931060440042, ,1.75, ,0.6724337187995741, ,0.48580641211403847, ,0.06287626783126875
112, ,PASS, ,0.08398817400000005, ,0.011426744531017156, ,0.034424983130752436, ,0.0009723092256999965, ,1.75, ,0.6747609173742513, ,0.48658190649170424, ,0.06432521785269689
113, ,PASS, ,0.08323943800000004, ,0.011351858140854152, ,0.03436868920246526, ,0.0009575637450875701, ,1.75, ,0.6753776266959558, ,0.48621456704965205, ,0.06259055937633926
114, ,PASS, ,0.08317392000000005, ,0.011392355539240938, ,0.034407563640946104, ,0.0009600076507289469, ,1.75, ,0.6750341300005566, ,0.4884798269423073, ,0.0638354319299606
115, ,PASS, ,0.08283927800000006, ,0.011352622470605742, ,0.034375362682190165, ,0.0009521448428092377, ,1.75, ,0.6744896079946957, ,0.48572478112691575, ,0.06577416787412502
116, ,PASS, ,0.08309291100000005, ,0.01125544556603881, ,0.03414515513009939, ,0.0009473540662929742, ,1.75, ,0.6710223314493086, ,0.4817248627579029, ,0.054345829676945366
117, ,PASS, ,0.08305964300000006, ,0.011268739552226474, ,0.034128985264994596, ,0.0009481852394664923, ,1.75, ,0.673268917978478, ,0.48492887900246934, ,0.06628436154364196
118, ,PASS, ,0.08291605000000005, ,0.011201146392760316, ,0.03412079398685741, ,0.0009410589966578335, ,1.75, ,0.6705761718869682, ,0.4838880839166548, ,0.055182547294953165
119, ,PASS, ,0.08276151800000005, ,0.011330168370243443, ,0.03425188280157548, ,0.0009491980219913176, ,1.75, ,0.6749215803411168, ,0.48696965368053713, ,0.06661088549213282
120, ,PASS, ,0.08252594600000004, ,0.011154686253906781, ,0.03433756941368544, ,0.0009326980311952173, ,1.75, ,0.6734634223732667, ,0.48535744168486356, ,0.0647741882818718
121, ,PASS, ,0.08231472000000006, ,0.011109019203800575, ,0.03417806330687129, ,0.0009266355085268917, ,1.75, ,0.6719775739877493, ,0.4827452500969368, ,0.05914165017040469
122, ,PASS, ,0.08233152500000004, ,0.011141113592390292, ,0.034491821008142694, ,0.0009295375253579018, ,1.75, ,0.6747353168320666, ,0.4864390522642395, ,0.06471296504152976
123, ,PASS, ,0.08228536600000005, ,0.01114031299285055, ,0.03433465742209343, ,0.0009282077763650347, ,1.75, ,0.6712897133341854, ,0.48445950082651373, ,0.05950898961245689
124, ,PASS, ,0.08181286600000005, ,0.010995672127878673, ,0.034184666432317705, ,0.000911435821024944, ,1.75, ,0.670112883087894, ,0.48374522968919004, ,0.05832534029917757
125, ,PASS, ,0.08220679900000005, ,0.01109036953650245, ,0.03421756321646497, ,0.0009231155152310965, ,1.75, ,0.6700694021292541, ,0.4835615599681639, ,0.06063141568539417
126, ,PASS, ,0.08210219900000006, ,0.011036908017354505, ,0.03434112968674109, ,0.0009182807111740099, ,1.75, ,0.6721331460272403, ,0.48576559662047714, ,0.056060080406522314
127, ,PASS, ,0.08223913300000005, ,0.01100851094769262, ,0.03421958991061407, ,0.000917090177885564, ,1.75, ,0.6684814038144306, ,0.48290851207118224, ,0.05457031489153283
128, ,PASS, ,0.08160628600000004, ,0.011015616725735968, ,0.03415488175465807, ,0.0009104424053681878, ,1.75, ,0.6693923612049371, ,0.48166363951756086, ,0.057651884655415195
129, ,PASS, ,0.08205986700000006, ,0.011054258892981249, ,0.0345262877873921, ,0.0009187436492174099, ,1.75, ,0.6710717705807997, ,0.4834799289810412, ,0.06359053896859247
130, ,PASS, ,0.08231058700000006, ,0.01108695588829437, ,0.034675011467521076, ,0.0009247366538583638, ,1.75, ,0.6714379915836832, ,0.4856839656333544, ,0.0604273382175874
131, ,PASS, ,0.08234548100000007, ,0.011029441738818589, ,0.034655832325666824, ,0.0009197286186310406, ,1.75, ,0.6687716962965008, ,0.4834799289810412, ,0.05954980510601825
132, ,PASS, ,0.08227022500000004, ,0.011103548843465016, ,0.03401575546519459, ,0.0009243908237805861, ,1.75, ,0.6670010021508571, ,0.48082692189955306, ,0.05624375012754842
133, ,PASS, ,0.08199018100000006, ,0.011016594733379383, ,0.03440797014285423, ,0.0009146008648110076, ,1.75, ,0.6679109925022055, ,0.48252076488234935, ,0.05538662476275994
134, ,PASS, ,0.08176969900000006, ,0.010950379978055511, ,0.034608199332462605, ,0.0009070345855001019, ,1.75, ,0.6685331882150073, ,0.4827044346033754, ,0.05791718536356401
135, ,PASS, ,0.08156559200000006, ,0.010972454414748237, ,0.03444738780922839, ,0.0009065434983688446, ,1.75, ,0.6685141865066627, ,0.4811738535948246, ,0.0569988367584335
136, ,PASS, ,0.08190364200000005, ,0.010898916663819098, ,0.0343018462702802, ,0.0009039582913196151, ,1.75, ,0.665571986368424, ,0.48076569865921104, ,0.050998959204914186
137, ,PASS, ,0.08165209000000005, ,0.011038485850384671, ,0.03437518349625518, ,0.0009124410587302204, ,1.75, ,0.6690456846488081, ,0.4832962592600151, ,0.06318238403297892
138, ,PASS, ,0.08173693900000004, ,0.010902655134868922, ,0.03455084498336768, ,0.0009028155298516344, ,1.75, ,0.666587357914689, ,0.4825615803759107, ,0.051978531050386724
139, ,PASS, ,0.08184526200000006, ,0.010885516649021406, ,0.034472909993673605, ,0.0009023338362034269, ,1.75, ,0.6662277659280265, ,0.48325544376645374, ,0.05193771555682537
140, ,PASS, ,0.08166301500000006, ,0.010965909487738772, ,0.03439413015958858, ,0.0009069090481431585, ,1.75, ,0.6679213408334768, ,0.48260239586947207, ,0.054794800106120284
141, ,PASS, ,0.08327560000000006, ,0.011052446400971073, ,0.03426500473745434, ,0.0009321135052862357, ,1.75, ,0.6640965840448033, ,0.4818269014918063, ,0.0516315993551152
142, ,PASS, ,0.08229421500000006, ,0.010994431026700925, ,0.034453152370767945, ,0.0009162297329218307, ,1.75, ,0.6662727347450972, ,0.48254117262913004, ,0.05695802126487214
143, ,PASS, ,0.08150132200000006, ,0.010906088003968724, ,0.03434134690659374, ,0.0009003222092824994, ,1.75, ,0.6678656103298207, ,0.4809697761270178, ,0.055651925470908754
144, ,PASS, ,0.08169786300000006, ,0.010922585768826097, ,0.03449561323830126, ,0.0009038899120926547, ,1.75, ,0.6678404272791817, ,0.48374522968919004, ,0.05920287341074672
145, ,PASS, ,0.08148031200000005, ,0.01093331596864145, ,0.03447652912532398, ,0.0009027110063606794, ,1.75, ,0.6690089467041466, ,0.4826432113630334, ,0.062121181200383666
146, ,PASS, ,0.08167138700000005, ,0.010916902430596105, ,0.034440162818717986, ,0.0009031582201048263, ,1.75, ,0.668224933113959, ,0.48278606559049814, ,0.05761106916185384
147, ,PASS, ,0.08196033200000005, ,0.011011980582890593, ,0.03438860757821269, ,0.0009133763927562483, ,1.75, ,0.6677548115406883, ,0.48417379237158426, ,0.05742739944082774
148, ,PASS, ,0.08181417900000004, ,0.010903751652559968, ,0.034148895122140366, ,0.0009033752294568622, ,1.75, ,0.6649818501384928, ,0.48111263035448254, ,0.0519989387971674
149, ,PASS, ,0.08331299800000005, ,0.011088120386697523, ,0.03436940796351095, ,0.0009352489836478391, ,1.75, ,0.6650655992418717, ,0.4830921817922083, ,0.052366278239219605
150, ,PASS, ,0.08350618300000005, ,0.010989782814422321, ,0.03442169129221853, ,0.0009294325391527801, ,1.75, ,0.6613175242312195, ,0.4813575233158507, ,0.0422848513295647
151, ,PASS, ,0.08225762800000005, ,0.01097551413317904, ,0.03436148583253403, ,0.0009145133195119694, ,1.75, ,0.66763102500675, ,0.48343911348747987, ,0.06169261851798943
152, ,PASS, ,0.08246001300000004, ,0.011017458131858044, ,0.03422391942878717, ,0.0009198218278675009, ,1.75, ,0.6674629738480445, ,0.48307177404542767, ,0.05938654313177282
153, ,PASS, ,0.08253270500000005, ,0.011017991762449305, ,0.03433812513397686, ,0.0009212551116291619, ,1.75, ,0.6680560272340518, ,0.48307177404542767, ,0.060080406522315874
154, ,PASS, ,0.08272300200000005, ,0.01113595540531228, ,0.03458335134670721, ,0.0009326741855129337, ,1.75, ,0.6687019476270436, ,0.4856023346462317, ,0.05673353605028469
155, ,PASS, ,0.08253857600000004, ,0.01108686629562192, ,0.03428501010836514, ,0.0009263190729190894, ,1.75, ,0.6682295094228714, ,0.4833982979939185, ,0.05777433113609926
156, ,PASS, ,0.08267212500000005, ,0.011036443567757011, ,0.03431396985102345, ,0.0009242045863297224, ,1.75, ,0.6679019615520307, ,0.4818064937450256, ,0.0530193261362013
157, ,PASS, ,0.08263051900000006, ,0.01107798833465931, ,0.03443841374767862, ,0.0009277584948064371, ,1.75, ,0.6706021143388344, ,0.4855002959123283, ,0.05918246566396604
158, ,PASS, ,0.08262930700000007, ,0.011054340613419773, ,0.03440041915144589, ,0.0009254359366944571, ,1.75, ,0.6696470708091521, ,0.48323503601967305, ,0.05630497336789045
159, ,PASS, ,0.08247605100000006, ,0.011106989025123694, ,0.03445119680006531, ,0.0009276823374172236, ,1.75, ,0.6692529550199794, ,0.4833982979939185, ,0.0573661762004857
160, ,PASS, ,0.08265998600000005, ,0.011126229600270715, ,0.03445308358523296, ,0.000931222766696432, ,1.75, ,0.6696989427281046, ,0.4835003367278219, ,0.0566314973163813
161, ,PASS, ,0.08245585200000007, ,0.011109453768518707, ,0.034506129003285646, ,0.0009283842331529106, ,1.75, ,0.6723580821604495, ,0.4845003163200751, ,0.06146813330340197
162, ,PASS, ,0.08226860700000005, ,0.011157819321872575, ,0.03452411026815779, ,0.0009296613623285692, ,1.75, ,0.6718984195604751, ,0.48458194730719784, ,0.06432521785269689
163, ,PASS, ,0.08234961100000006, ,0.01122271616127897, ,0.03450081640170609, ,0.0009358282632931478, ,1.75, ,0.6740279667662373, ,0.4869900614273178, ,0.06446807208016163
164, ,PASS, ,0.08199768500000006, ,0.011196437618183555, ,0.034368003096263346, ,0.0009296142724246292, ,1.75, ,0.674794204977, ,0.4851533642170568, ,0.06283545233770739
165, ,PASS, ,0.08210857200000007, ,0.011158390087223807, ,0.0344058568716965, ,0.0009284853352170876, ,1.75, ,0.6744608577881887, ,0.48415338462480356, ,0.05832534029917757
166, ,PASS, ,0.08204015100000007, ,0.011258881253267418, ,0.034420026448439826, ,0.0009351061146169195, ,1.75, ,0.6750146342056809, ,0.4855002959123283, ,0.06179465725189282
167, ,PASS, ,0.08190653700000007, ,0.011258079259598394, ,0.034411932359543686, ,0.0009341283479598453, ,1.75, ,0.6771872511759046, ,0.48535744168486356, ,0.06471296504152976
168, ,PASS, ,0.08237940400000004, ,0.011315186923806123, ,0.03434144070100611, ,0.0009438206674381662, ,1.8333333333333333, ,0.6763624021849992, ,0.4859084508479419, ,0.06103957062100773
169, ,PASS, ,0.08197585800000005, ,0.011271178711665003, ,0.03446985706557009, ,0.0009356266653074169, ,1.8333333333333333, ,0.6774867102952215, ,0.486092120568968, ,0.06610069182261587
170, ,PASS, ,0.08270829500000006, ,0.011473944535670267, ,0.0347402127534132, ,0.0009607270429737717, ,1.8333333333333333, ,0.6805233298341428, ,0.4888675741311402, ,0.06746801085692129
171, ,PASS, ,0.08235088800000005, ,0.011336432107439643, ,0.03451747515050713, ,0.0009453645368965657, ,1.8333333333333333, ,0.6780058518954624, ,0.4859696740882839, ,0.06416195587845146
172, ,PASS, ,0.08246339200000004, ,0.011355693300152682, ,0.03426852767821065, ,0.000948795859586356, ,1.8333333333333333, ,0.6794216022991512, ,0.48494928674925003, ,0.06554968265953756
173, ,PASS, ,0.08288795700000005, ,0.011456392794292313, ,0.03441146703597886, ,0.0009623449417073972, ,1.8333333333333333, ,0.680370971062349, ,0.48713291565478256, ,0.06961082426889247
174, ,PASS, ,0.08306183600000004, ,0.01146080949536959, ,0.034432635307646786, ,0.0009642204458273139, ,1.8333333333333333, ,0.6792195956625775, ,0.48547988816554766, ,0.06444766433338095
175, ,PASS, ,0.08322565100000007, ,0.011537104327148995, ,0.03463499763106876, ,0.0009728796497485638, ,1.8333333333333333, ,0.680695411754302, ,0.48788800228566764, ,0.06842717495561315
176, ,PASS, ,0.08370683900000005, ,0.011616725625988188, ,0.034559048989816536, ,0.000985241578840286, ,1.8333333333333333, ,0.682044429578943, ,0.48862268116977203, ,0.06701904042774637
177, ,PASS, ,0.08440140500000004, ,0.011726934088713503, ,0.03444927194200119, ,0.0010023639586210036, ,1.8333333333333333, ,0.6808473084949527, ,0.4881328952470358, ,0.06675373971959755
178, ,PASS, ,0.08459923000000007, ,0.011701716516868292, ,0.034698691035284994, ,0.0010031847757483697, ,1.8333333333333333, ,0.6817188713797354, ,0.4892145058264117, ,0.0683863594620518
179, ,PASS, ,0.08507963300000007, ,0.011869819123455222, ,0.03466606593526664, ,0.001022870246333362, ,1.75, ,0.6840816091142212, ,0.48956143752168324, ,0.0743046060284484
180, ,PASS, ,0.09521716600000005, ,0.012680985043270698, ,0.034339277934919706, ,0.001222729767131193, ,1.75, ,0.6651220191772632, ,0.48627579028999407, ,0.052284647252096896
181, ,PASS, ,0.19679520000000006, ,0.02239456320037291, ,0.03157442470390401, ,0.004455972324773722, ,1.6666666666666667, ,0.608178951478001, ,0.469806738637987, ,0.0244280728964715
182, ,PASS, ,0.08895075900000003, ,0.012680561485187035, ,0.034654434271484263, ,0.001142577721309701, ,1.75, ,0.69135233440631, ,0.4906022326074978, ,0.08007999836738025
183, ,PASS, ,0.08627972200000006, ,0.012320229584671749, ,0.034480388184077886, ,0.0010771294058951083, ,1.75, ,0.6939309119850259, ,0.4890104283586049, ,0.0829983061570172
184, ,PASS, ,0.08564068100000005, ,0.012307215606609068, ,0.03476489900622437, ,0.0010682554268140083, ,1.75, ,0.6966506911160034, ,0.49082671782208526, ,0.0871614865002755
185, ,PASS, ,0.08554196600000004, ,0.01227524880263691, ,0.0346769517378625, ,0.0010641476630245954, ,1.75, ,0.6952406104145541, ,0.49047978612681375, ,0.08363094630721822
186, ,PASS, ,0.08484537600000006, ,0.012165338391777348, ,0.03485208831691191, ,0.0010461657407098233, ,1.8333333333333333, ,0.6951219423827278, ,0.4902348931654456, ,0.08632476888226771
187, ,PASS, ,0.08476042500000006, ,0.01214822988699108, ,0.034420102311054884, ,0.0010436120149450135, ,1.8333333333333333, ,0.6945867097479996, ,0.488500234689088, ,0.08316156813126263
188, ,PASS, ,0.08494439500000005, ,0.012048967012100044, ,0.03465334369718986, ,0.0010376406685343998, ,1.8333333333333333, ,0.6917291916123174, ,0.4894185832942185, ,0.07816167016999653
189, ,PASS, ,0.08527317200000004, ,0.012039878117995848, ,0.03442312150405094, ,0.001040384805420805, ,1.8333333333333333, ,0.6890410508496594, ,0.48796963327279036, ,0.07150874471949552
190, ,PASS, ,0.08496241700000004, ,0.011997077478825268, ,0.03430423882186078, ,0.0010327412989368328, ,1.8333333333333333, ,0.6886242545636388, ,0.4860717128221873, ,0.07489643068508806
191, ,PASS, ,0.08497425200000007, ,0.01199061852057116, ,0.034688650838554325, ,0.001032547343678595, ,1.8333333333333333, ,0.6890503414502708, ,0.48794922552600967, ,0.07377400461215078
192, ,PASS, ,0.08438711500000007, ,0.012017357536018281, ,0.0343253125505602, ,0.0010267384215871598, ,1.8333333333333333, ,0.689781813153784, ,0.48739821636293135, ,0.07818207791677721
193, ,PASS, ,0.08446612300000003, ,0.011978912263841606, ,0.03467355537050265, ,0.0010252079477187093, ,1.8333333333333333, ,0.689681988356503, ,0.4889900206118242, ,0.07322299544907247
194, ,PASS, ,0.08393775400000006, ,0.011836130278782721, ,0.03441016784126855, ,0.00100684754493207, ,1.8333333333333333, ,0.6896202096382871, ,0.48750025509683476, ,0.07669231240178771
195, ,PASS, ,0.08365811300000006, ,0.01185167780633476, ,0.03433088735270709, ,0.0010043845936519716, ,1.8333333333333333, ,0.6904031378747852, ,0.4860308973286259, ,0.07910042652190771
196, ,PASS, ,0.08377955400000008, ,0.01187896074479445, ,0.03464370568967981, ,0.0010082277283825854, ,1.8333333333333333, ,0.690115148578975, ,0.48788800228566764, ,0.08234525826003551
197, ,PASS, ,0.08382699900000005, ,0.011827708076168614, ,0.03469619090732842, ,0.0010047928903530422, ,1.8333333333333333, ,0.6893210041897987, ,0.4876431093242995, ,0.07579437154343789
198, ,PASS, ,0.08389626600000007, ,0.011778489198193222, ,0.034532939332666684, ,0.0010020319033668523, ,1.8333333333333333, ,0.6890831083145044, ,0.4857043733801351, ,0.07891675680088162
199, ,PASS, ,0.08348215200000005, ,0.011824099095364152, ,0.03437589154813168, ,0.0010001876044264486, ,1.8333333333333333, ,0.6900541911205536, ,0.48752066284361545, ,0.08112079345319484
200, ,PASS, ,0.08346074300000006, ,0.011782011346033324, ,0.034499031605681525, ,0.0009962606847988898, ,1.8333333333333333, ,0.6893343173492281, ,0.4877043325646415, ,0.07873308707985552
201, ,PASS, ,0.08363423600000006, ,0.011731971215301739, ,0.03460283125977021, ,0.0009946965801645943, ,1.8333333333333333, ,0.6867909072480683, ,0.48713291565478256, ,0.07387604334605416
202, ,PASS, ,0.08337046300000005, ,0.011714177195387789, ,0.03430073793187895, ,0.0009893025201829506, ,1.8333333333333333, ,0.68707373184913, ,0.4848676557621273, ,0.07520254688679823
203, ,PASS, ,0.08362828000000005, ,0.011711981785024687, ,0.03440006854023388, ,0.000992383924275429, ,1.8333333333333333, ,0.6864485968292342, ,0.48758188608395747, ,0.07354951939756331
204, ,PASS, ,0.08350241400000004, ,0.011765783070203617, ,0.034663974991122636, ,0.0009950343661915843, ,1.8333333333333333, ,0.6866986075714406, ,0.4868063917062917, ,0.07767188424726026
205, ,PASS, ,0.08359304600000006, ,0.01168936255932923, ,0.03448067659496745, ,0.0009903157334022505, ,1.8333333333333333, ,0.6854974065298107, ,0.48666353747882696, ,0.07161078345339891
206, ,PASS, ,0.08339988800000006, ,0.01171923336218956, ,0.03461082216444563, ,0.000990063715119331, ,1.8333333333333333, ,0.6872711113890566, ,0.48703087692087915, ,0.07683516662925247
207, ,PASS, ,0.08347672300000006, ,0.011655552063346206, ,0.03437284914511949, ,0.0009857250412035029, ,1.8333333333333333, ,0.6848979396444711, ,0.48511254872349546, ,0.0755086630885084
208, ,PASS, ,0.08363380600000003, ,0.01172293695447436, ,0.03457374534009511, ,0.0009934505273977998, ,1.8333333333333333, ,0.6864855427659037, ,0.48713291565478256, ,0.07514132364645619
209, ,PASS, ,0.08367363100000007, ,0.011667562094460689, ,0.0342196478326973, ,0.0009892650183347604, ,1.8333333333333333, ,0.6837045593588738, ,0.4842350156119263, ,0.06932511581396299
210, ,PASS, ,0.08378576400000004, ,0.011677133720997986, ,0.03426287031019776, ,0.000991361236256172, ,1.8333333333333333, ,0.683756249556641, ,0.48445950082651373, ,0.07193730740188976
211, ,PASS, ,0.08396173800000005, ,0.011720165503716889, ,0.03460237831758536, ,0.000997498214905604, ,1.75, ,0.685977716061003, ,0.4889492051182629, ,0.07585559478377993
212, ,PASS, ,0.08565074600000006, ,0.01173707636116994, ,0.034474868394114414, ,0.0010187298989212533, ,1.75, ,0.6793595759533493, ,0.4833778902471378, ,0.06799861227321892
213, ,PASS, ,0.08463283400000005, ,0.011764654164449098, ,0.034479674828268816, ,0.0010085000964023697, ,1.8333333333333333, ,0.6815734875457855, ,0.4852554029509602, ,0.06777412705863145
214, ,PASS, ,0.08427589800000007, ,0.011630639844195502, ,0.03457954809779393, ,0.0009932837798101296, ,1.8333333333333333, ,0.6802484613258225, ,0.48576559662047714, ,0.06330483051366298
215, ,PASS, ,0.08355698400000004, ,0.011665657327838284, ,0.03471458304136651, ,0.000987704399816298, ,1.8333333333333333, ,0.6858205563054289, ,0.4870104691740985, ,0.07930450398971449
216, ,PASS, ,0.08389333600000003, ,0.011644181200286402, ,0.03455946707414135, ,0.0009896599200810538, ,1.8333333333333333, ,0.6829719229798862, ,0.48537784943164425, ,0.07177404542764433
217, ,PASS, ,0.08377029900000005, ,0.011705644798255931, ,0.034516561672006695, ,0.0009935084193815286, ,1.8333333333333333, ,0.6843095024660162, ,0.48580641211403847, ,0.07046794963368094
218, ,PASS, ,0.08363838100000005, ,0.011745368331641408, ,0.03432395246280689, ,0.0009952109278128845, ,1.8333333333333333, ,0.6885269269323481, ,0.4844186853329524, ,0.07981469765923145
219, ,PASS, ,0.08371318600000006, ,0.011565569458111456, ,0.034447010736719665, ,0.0009806498857092693, ,1.8333333333333333, ,0.6798186386415055, ,0.48482684026856593, ,0.06048856145792943
220, ,PASS, ,0.08448588600000007, ,0.011676373789978265, ,0.034541014383584014, ,0.0009997220471780325, ,1.8333333333333333, ,0.6805635500663124, ,0.484316646599049, ,0.0694883777882084
221, ,PASS, ,0.08367452900000005, ,0.01170737928127141, ,0.034514526243137895, ,0.0009921305323849427, ,1.8333333333333333, ,0.6858585175393095, ,0.48621456704965205, ,0.07261076304565213
222, ,PASS, ,0.08306645200000005, ,0.011622041582337933, ,0.03448097065284383, ,0.0009780466485117356, ,1.8333333333333333, ,0.685687099121461, ,0.48613293606252933, ,0.07556988632885044
223, ,PASS, ,0.08286360800000005, ,0.011613684998208838, ,0.03439775114079305, ,0.0009750529491743064, ,1.8333333333333333, ,0.6865685000316687, ,0.4848472480153466, ,0.07648823493398094
224, ,PASS, ,0.08317562400000006, ,0.011571603688161354, ,0.034300921629354504, ,0.0009752497516669254, ,1.8333333333333333, ,0.6828544819367647, ,0.4847860247750046, ,0.06901899961225282
225, ,PASS, ,0.08302650100000006, ,0.011569259097222003, ,0.03424561002550969, ,0.0009732460881152804, ,1.8333333333333333, ,0.6839211972941367, ,0.4852145874573988, ,0.07222301585681924
226, ,PASS, ,0.08303239600000005, ,0.011572463192473305, ,0.034441951362829334, ,0.0009736648638258668, ,1.8333333333333333, ,0.685078393942973, ,0.48658190649170424, ,0.07397808207995756
227, ,PASS, ,0.08291739900000006, ,0.011539567232684156, ,0.03441604336972715, ,0.0009693247603328273, ,1.8333333333333333, ,0.6831623361639869, ,0.4842962388522683, ,0.07256994755209077
228, ,PASS, ,0.08310555100000007, ,0.011579974564600538, ,0.034684895873757685, ,0.0009749211030851353, ,1.8333333333333333, ,0.6846737292381816, ,0.48629619803677476, ,0.07422297504132569
229, ,PASS, ,0.08312525100000007, ,0.011496564581046078, ,0.03452703196975572, ,0.0009685157970144685, ,1.8333333333333333, ,0.6805008649521443, ,0.48752066284361545, ,0.06240688965531316
230, ,PASS, ,0.08289221500000005, ,0.011578546944345746, ,0.03473457629089203, ,0.0009725159698471779, ,1.8333333333333333, ,0.6853998451927502, ,0.4872757698822473, ,0.07397808207995756
231, ,PASS, ,0.08303538300000007, ,0.01157983099892541, ,0.03458937406461093, ,0.0009740693889230103, ,1.8333333333333333, ,0.6845865858512755, ,0.4872553621354666, ,0.0736515581314667
232, ,PASS, ,0.08306895400000004, ,0.011526151237738117, ,0.034301555299891845, ,0.0009700701275758262, ,1.8333333333333333, ,0.6828396109628245, ,0.4851533642170568, ,0.06965163976245382
233, ,PASS, ,0.08308204100000004, ,0.011640562349844216, ,0.03464462512887492, ,0.0009797983374186066, ,1.8333333333333333, ,0.6855129751767538, ,0.4868063917062917, ,0.07426379053488705
234, ,PASS, ,0.08291196400000003, ,0.011603959263065866, ,0.03475183383910533, ,0.0009752480648273427, ,1.8333333333333333, ,0.6862229209405393, ,0.48735740086937, ,0.07140670598559214
235, ,PASS, ,0.08302994300000006, ,0.0117062591506958, ,0.034558127826370896, ,0.000984529136218429, ,1.8333333333333333, ,0.6877067202545688, ,0.48694924593375644, ,0.07824330115711925
236, ,PASS, ,0.08336801900000006, ,0.011707250448101192, ,0.034622161874655624, ,0.0009885025556753628, ,1.8333333333333333, ,0.6861019245242198, ,0.487296177629028, ,0.07336584967653721
237, ,PASS, ,0.08345368900000005, ,0.011737396733783502, ,0.034686251075692336, ,0.000992552618836397, ,1.8333333333333333, ,0.6874206926618929, ,0.4880104487663517, ,0.07663108916144569
238, ,PASS, ,0.08325333800000004, ,0.011731740891124696, ,0.03447900719291443, ,0.0009895956520272588, ,1.8333333333333333, ,0.6860396628418892, ,0.4872553621354666, ,0.07163119120017959
239, ,PASS, ,0.08361785200000005, ,0.011722383199718857, ,0.03438458658013102, ,0.0009924092476301298, ,1.8333333333333333, ,0.6845702597853177, ,0.4855615191526704, ,0.06473337278831044
240, ,PASS, ,0.08339687500000005, ,0.011783744212933952, ,0.03429618689190017, ,0.0009955668638212908, ,1.8333333333333333, ,0.6883901631895909, ,0.4881124875002551, ,0.07332503418297585
241, ,PASS, ,0.08321253200000005, ,0.011756086358374756, ,0.034485871223648504, ,0.000991715493221597, ,1.8333333333333333, ,0.6909005737469918, ,0.4890308361053856, ,0.0806922307708006
242, ,PASS, ,0.08274054000000004, ,0.011772281659915654, ,0.034423300229179, ,0.0009871780052687594, ,1.8333333333333333, ,0.6924694259442077, ,0.4890308361053856, ,0.08303912165057856
243, ,PASS, ,0.08304587800000007, ,0.011763174713051945, ,0.03460751494112365, ,0.000990344790672552, ,1.8333333333333333, ,0.6908849634831857, ,0.4894185832942185, ,0.07812085467643518
244, ,PASS, ,0.08335452200000006, ,0.011856254483581796, ,0.03445414048254118, ,0.0010013253810631413, ,1.8333333333333333, ,0.6903630022111605, ,0.4886430889165527, ,0.07491683843186873
245, ,PASS, ,0.08335961300000007, ,0.0118895037536025, ,0.03463507394134814, ,0.0010043816386727988, ,1.8333333333333333, ,0.6916976090248301, ,0.4890512438521663, ,0.07918205750903043
246, ,PASS, ,0.08343563300000004, ,0.01190098923608229, ,0.034778956096671504, ,0.0010061363029832448, ,1.8333333333333333, ,0.6929091386586834, ,0.49035733964612965, ,0.08167180261627313
247, ,PASS, ,0.08424648000000005, ,0.011925086775948768, ,0.034547350435868665, ,0.0010182150026294319, ,1.75, ,0.6885718492247568, ,0.48882675863757885, ,0.06559049815309892
248, ,PASS, ,0.08432502900000007, ,0.012009101655544446, ,0.034618161094569506, ,0.0010258279108644776, ,1.75, ,0.6921922705200215, ,0.48833697271484255, ,0.08140650190812432
249, ,PASS, ,0.08494063800000004, ,0.012058071789116245, ,0.034711705756474365, ,0.0010383084615424498, ,1.75, ,0.6900830080460845, ,0.4901736699251036, ,0.07359033489112467
250, ,PASS, ,0.08555333300000006, ,0.012108963253070567, ,0.034633557780637134, ,0.0010500351702719647, ,1.75, ,0.6886583124377218, ,0.48862268116977203, ,0.07012101793840941
251, ,PASS, ,0.10440628, ,0.013409674252493939, ,0.03404972742650151, ,0.001417523405599033, ,1.75, ,0.6517671362753059, ,0.4848472480153466, ,0.043733801350992835
252, ,PASS, ,0.1824464, ,0.019101382694084134, ,0.03114702452276484, ,0.0035182505907617387, ,1.6666666666666667, ,0.5798020923341025, ,0.4604395828656558, ,0.019836329870818962
253, ,PASS, ,0.11121448000000002, ,0.011004099412515225, ,0.03278326719475114, ,0.0012346920326009982, ,1.5833333333333333, ,0.5594261544518219, ,0.45880696312320157, ,0.015632334033999305
254, ,PASS, ,0.10971970000000003, ,0.010888894215429896, ,0.03282614563049734, ,0.0012048745666788925, ,1.5833333333333333, ,0.5607733706274799, ,0.4586028856553948, ,0.01636701291810371
255, ,PASS, ,0.10964158000000003, ,0.010748230658735742, ,0.033028098273096475, ,0.0011886679492305373, ,1.5833333333333333, ,0.5565877378480106, ,0.45819473071978123, ,0.014816024162772189
