Channel, ,Pass/Fail, ,Amplitude, ,Sorting Function Response, ,Mean, ,Variance, ,NPeaksRatio, ,PosIntegralRatio, ,ToT50, ,ToT99
32, ,PASS, ,0.04126311000000003, ,0.004981754971777051, ,0.034979995189281854, ,0.00020808954912772144, ,1.75, ,0.6293879212925194, ,0.4805208056978429, ,0.027754535621722004
33, ,PASS, ,0.10086498000000008, ,0.009523355870787974, ,0.03271703764086448, ,0.0009678212908163395, ,1.5833333333333333, ,0.5459108417149353, ,0.4468072080161629, ,0.013897675557641681
34, ,PASS, ,0.11018313999999998, ,0.010617952552403477, ,0.03268824172547499, ,0.0011799043886908016, ,1.5833333333333333, ,0.5519631044471066, ,0.4508887573722985, ,0.014754800922430155
35, ,PASS, ,0.10663278, ,0.011106447862533973, ,0.03309604852676476, ,0.001195679389977765, ,1.6666666666666667, ,0.5768741434417335, ,0.45990898144935816, ,0.016530274892349137
36, ,PASS, ,0.06227273399999996, ,0.0090754244315058, ,0.03516185436399257, ,0.0005729090505064033, ,1.75, ,0.7021331475207893, ,0.4935001326503541, ,0.06528438195138875
37, ,PASS, ,0.049148499999999956, ,0.005788253852307277, ,0.03484444525723965, ,0.00028776019547079723, ,1.75, ,0.6190701765074479, ,0.47862288524723984, ,0.022591375686210485
38, ,PASS, ,0.10298353999999994, ,0.009752087500817403, ,0.03258846165976205, ,0.0010117755992363985, ,1.5833333333333333, ,0.5449379016226825, ,0.4468072080161629, ,0.013693598089834901
39, ,PASS, ,0.11120901000000007, ,0.010757888196800175, ,0.03267681365870084, ,0.0012057996527712785, ,1.5833333333333333, ,0.5518708235316508, ,0.45215403767270057, ,0.015938450235709476
40, ,PASS, ,0.10827667999999996, ,0.011198919871670642, ,0.03281795144180731, ,0.0012241472571378814, ,1.6666666666666667, ,0.5749585802384448, ,0.4592763412991572, ,0.016122119956735577
41, ,PASS, ,0.0704199371, ,0.009881366457587477, ,0.03500683098875533, ,0.0007055448338790969, ,1.8333333333333333, ,0.6881435253523751, ,0.49252056080488155, ,0.048692883818697574
42, ,PASS, ,0.06205402199999996, ,0.007124090458682332, ,0.03441060558947777, ,0.00044693124615679695, ,1.75, ,0.6095154281180266, ,0.47631680986102326, ,0.01985673761759964
43, ,PASS, ,0.11013049, ,0.010337260302717055, ,0.032520605085406426, ,0.0011473249051321814, ,1.5833333333333333, ,0.5436878447174929, ,0.44746025591314464, ,0.013591559355931511
44, ,PASS, ,0.11804234, ,0.011274156741492708, ,0.03213850341829758, ,0.0013412640844151565, ,1.5833333333333333, ,0.5479300390010317, ,0.44866431297320464, ,0.01420379175935185
45, ,PASS, ,0.11638304999999996, ,0.011871846953665461, ,0.03262547206016204, ,0.001394390712590443, ,1.75, ,0.5680399067907794, ,0.45862329340217545, ,0.015020101630578968
46, ,PASS, ,0.08364644000000002, ,0.011397846750435795, ,0.03435081097426583, ,0.0009650358758553219, ,1.8333333333333333, ,0.6742617853831179, ,0.48664312973204626, ,0.046060284483990126
47, ,PASS, ,0.06242674199999994, ,0.007106313607430419, ,0.03434738839554295, ,0.0004485315179080989, ,1.6666666666666667, ,0.6085289051813046, ,0.47260259994693987, ,0.0230403461153854
48, ,PASS, ,0.10814647999999996, ,0.010175129851232693, ,0.03251587304973368, ,0.0011093029374406186, ,1.5833333333333333, ,0.543835640406549, ,0.4472765861921185, ,0.014020122038325748
49, ,PASS, ,0.11620717999999995, ,0.011165395247654416, ,0.032138819036550276, ,0.0013077305371742597, ,1.5833333333333333, ,0.5501135785394222, ,0.44982755453970324, ,0.014530315707842698
50, ,PASS, ,0.11439467000000009, ,0.011598058412545294, ,0.03241017274810718, ,0.0013387869082900033, ,1.6666666666666667, ,0.5681258400692972, ,0.45619477153527477, ,0.016428236158445745
51, ,PASS, ,0.08700218999999998, ,0.011593639404784393, ,0.03436648576988224, ,0.0010215947920146765, ,1.75, ,0.6669842488578103, ,0.48464317054753986, ,0.04112160976306606
52, ,PASS, ,0.06708707239999996, ,0.007546622421766974, ,0.03434906884512561, ,0.0005117310250553529, ,1.75, ,0.6025706288559437, ,0.47445970490398154, ,0.02212199751025489
53, ,PASS, ,0.11080219000000001, ,0.010483986492596816, ,0.032158291786902306, ,0.0011702060455153762, ,1.5833333333333333, ,0.5452254723771528, ,0.4472765861921185, ,0.013652782596273545
54, ,PASS, ,0.11903131000000004, ,0.011438503037583005, ,0.03223936032223832, ,0.0013723393161998985, ,1.5833333333333333, ,0.55101989150652, ,0.44921532213628296, ,0.013775229076957614
55, ,PASS, ,0.11763930999999997, ,0.011949352689932274, ,0.032662758920022045, ,0.0014190244229060627, ,1.6666666666666667, ,0.5678723277813748, ,0.4586028856553948, ,0.014530315707842698
56, ,PASS, ,0.09264375500000002, ,0.012385683818904272, ,0.03428251360645702, ,0.001162430254301529, ,1.75, ,0.6684666552638122, ,0.48619415930287135, ,0.03761147731678945
57, ,PASS, ,0.06263874999999998, ,0.007301727535516749, ,0.03432389158466154, ,0.00046259851896498025, ,1.75, ,0.6166771486280095, ,0.4760106936593131, ,0.023489316544560317
58, ,PASS, ,0.10488131999999994, ,0.009927810021163209, ,0.03254766397930655, ,0.0010491433012099532, ,1.5833333333333333, ,0.5456160072361802, ,0.4472765861921185, ,0.014571131201404052
59, ,PASS, ,0.11326896000000006, ,0.010779027879591707, ,0.032572323741760376, ,0.0012307743544092565, ,1.5833333333333333, ,0.5479897535120121, ,0.4497867390461419, ,0.014326238240035918
60, ,PASS, ,0.11193272000000008, ,0.011393656111892131, ,0.032523251459970204, ,0.001286411233638879, ,1.6666666666666667, ,0.5685303192952782, ,0.4558274320932226, ,0.01599967347605151
61, ,PASS, ,0.08747778500000002, ,0.0121734522880068, ,0.03437338766433338, ,0.001078460929379944, ,1.8333333333333333, ,0.6815902761867393, ,0.48823493398093915, ,0.05085610497744944
62, ,PASS, ,0.06480051700000007, ,0.007492044362094764, ,0.034314996588845126, ,0.0004907870054675106, ,1.75, ,0.6108333968771622, ,0.4760515091528744, ,0.020285300299993876
63, ,PASS, ,0.10595290999999998, ,0.010059990669964618, ,0.032515934683986045, ,0.001074279856658431, ,1.5833333333333333, ,0.5490153922374363, ,0.44990918552682596, ,0.014162976265790495
64, ,PASS, ,0.11418724000000005, ,0.010948283791811883, ,0.03214566191424665, ,0.0012599867104056616, ,1.5833333333333333, ,0.5509176155915876, ,0.4471337319646538, ,0.014734393175649476
65, ,PASS, ,0.11333088000000012, ,0.011457735847692697, ,0.03259736724883166, ,0.0013103802011272775, ,1.6666666666666667, ,0.5676973206095609, ,0.45574580110609986, ,0.01538744107263117
66, ,PASS, ,0.09126706500000004, ,0.01234959972061856, ,0.034376861198955125, ,0.0011409301133803139, ,1.75, ,0.6712321512350892, ,0.48758188608395747, ,0.05014183384012571
67, ,PASS, ,0.06812436509999999, ,0.007836079683373265, ,0.034285073494622564, ,0.0005399243921011194, ,1.75, ,0.6091369493839366, ,0.47656170282239135, ,0.018244525621926085
68, ,PASS, ,0.11044670000000002, ,0.010421625036883684, ,0.032643850408154935, ,0.0011601764481775116, ,1.5833333333333333, ,0.5448418856514005, ,0.44984796228648394, ,0.013326258647782698
69, ,PASS, ,0.11840763000000001, ,0.011385467475451444, ,0.032106343667476174, ,0.0013590773379332155, ,1.6666666666666667, ,0.5516194668041178, ,0.4500928552478521, ,0.014346645986816595
70, ,PASS, ,0.11730501999999994, ,0.01191593615993056, ,0.03245530092528724, ,0.0014101880900206437, ,1.6666666666666667, ,0.5685678309522892, ,0.45715393563396667, ,0.01616293545029693
71, ,PASS, ,0.10387543000000003, ,0.01366505119914563, ,0.034068272879022886, ,0.001437556141158845, ,1.75, ,0.6612276717231222, ,0.48425542335870697, ,0.03765229281035081
72, ,PASS, ,0.061717084999999935, ,0.007276777080917248, ,0.03435744102773413, ,0.00045408003629608885, ,1.75, ,0.6191280325387449, ,0.47715352747903106, ,0.026264770106732515
73, ,PASS, ,0.10627476000000001, ,0.01011285269738172, ,0.03226424393053203, ,0.0010833091152963755, ,1.5833333333333333, ,0.5453851053739246, ,0.44782759535519684, ,0.013979306544764392
74, ,PASS, ,0.11352144000000007, ,0.010918472469955103, ,0.0321477200969368, ,0.0012491681729337924, ,1.5833333333333333, ,0.5512981585041686, ,0.4479704495826616, ,0.01420379175935185
75, ,PASS, ,0.11366591000000006, ,0.011540156863883742, ,0.03277184825350503, ,0.0013238490703588598, ,1.6666666666666667, ,0.5680082284157356, ,0.45735801310177343, ,0.015244586845166426
76, ,PASS, ,0.10175709000000009, ,0.012825903462416214, ,0.03366679884818677, ,0.001321180602118848, ,1.75, ,0.6449883915901004, ,0.4793371563845636, ,0.033897267402706065
77, ,PASS, ,0.06693842960000002, ,0.007594947870295274, ,0.03410562408542683, ,0.0005138337780256717, ,1.75, ,0.6038017200286983, ,0.47288830840186935, ,0.018917981265688454
78, ,PASS, ,0.10712602999999996, ,0.010146567001070434, ,0.03258133107487603, ,0.0010955499616251755, ,1.5833333333333333, ,0.5460331380337214, ,0.44772555662129343, ,0.013836452317299647
79, ,PASS, ,0.11377072000000008, ,0.010959878582967092, ,0.032167615765392545, ,0.0012565654872170992, ,1.5833333333333333, ,0.551421035003048, ,0.448072488316565, ,0.015020101630578968
80, ,PASS, ,0.11395395000000008, ,0.011541676160401231, ,0.032243484016448644, ,0.0013267567936993763, ,1.6666666666666667, ,0.5680460838754442, ,0.4556437623721965, ,0.016346605171323036
81, ,PASS, ,0.10172573000000008, ,0.012735627023811067, ,0.03366014763310953, ,0.0013110026241467381, ,1.75, ,0.6407153652758192, ,0.4800514275218873, ,0.030468765943552172
82, ,PASS, ,0.078943889, ,0.008626777904760519, ,0.03389661930368768, ,0.0006881792175279753, ,1.5833333333333333, ,0.5919752930627192, ,0.46862308932470764, ,0.017938409420215913
83, ,PASS, ,0.1124094700000001, ,0.01070982658466845, ,0.03220236770698558, ,0.0012132706035215654, ,1.5833333333333333, ,0.546460814530577, ,0.44907246790881816, ,0.014162976265790495
84, ,PASS, ,0.11992337000000003, ,0.011562439705876688, ,0.03245440411889553, ,0.0013982630836664792, ,1.6666666666666667, ,0.5508568027716283, ,0.4525009693679721, ,0.013918083304422358
85, ,PASS, ,0.11839078999999998, ,0.012007626013962667, ,0.03241405743556254, ,0.0014345623485580716, ,1.6666666666666667, ,0.5684437058024675, ,0.45750086732923817, ,0.015469072059753883
86, ,PASS, ,0.10308594000000004, ,0.012993505060735369, ,0.0338758939552254, ,0.0013563850674766238, ,1.75, ,0.6448948806647313, ,0.48039835921715884, ,0.03495847023530132
87, ,PASS, ,0.07850090100000003, ,0.008367211352010323, ,0.03363265400522438, ,0.0006631293095978203, ,1.6666666666666667, ,0.584633102209876, ,0.462643619517969, ,0.0188771657721271
88, ,PASS, ,0.10904697999999995, ,0.010315774612705992, ,0.032484921286912515, ,0.0011335068895443313, ,1.5833333333333333, ,0.5460869577340414, ,0.44695006224362765, ,0.013591559355931511
89, ,PASS, ,0.11561572999999993, ,0.011152666714232784, ,0.03229480471827106, ,0.0012998861512284366, ,1.5833333333333333, ,0.5508428622108558, ,0.44982755453970324, ,0.013775229076957614
90, ,PASS, ,0.11460495000000004, ,0.011638157441459024, ,0.03252550270606722, ,0.0013456687502739352, ,1.6666666666666667, ,0.5683749557176122, ,0.45694985816615985, ,0.015897634742148118
91, ,PASS, ,0.09815982999999993, ,0.012310942318065586, ,0.03390752747494949, ,0.001223408567134726, ,1.75, ,0.6422521970550262, ,0.4797044958266158, ,0.03079528989204302
92, ,PASS, ,0.07965314699999995, ,0.008330327955104723, ,0.03369106161751801, ,0.0006699827412984841, ,1.6666666666666667, ,0.57820735057138, ,0.46280688149221444, ,0.01806085590089998
93, ,PASS, ,0.10938705999999997, ,0.010407040956233937, ,0.03210714790616518, ,0.0011470775042819058, ,1.5833333333333333, ,0.5481148662217291, ,0.446297014346646, ,0.014591538948184732
94, ,PASS, ,0.11614323999999997, ,0.011195836133736219, ,0.03219232576967817, ,0.0013108238081306809, ,1.5833333333333333, ,0.5528789701989318, ,0.45005203975429076, ,0.014591538948184732
95, ,PASS, ,0.11444134000000006, ,0.011634661658440324, ,0.03216400931613641, ,0.0013429023910568603, ,1.6666666666666667, ,0.5682481658018572, ,0.4535621722005673, ,0.01577518826146405
96, ,PASS, ,0.09757459999999998, ,0.011901211271965839, ,0.03364523434521745, ,0.0011747827284495187, ,1.75, ,0.6322602912207841, ,0.4775616824146446, ,0.030713658904920307
97, ,PASS, ,0.085780147, ,0.009012219069180106, ,0.03357989223505643, ,0.0007810425422982694, ,1.6666666666666667, ,0.5781661777657984, ,0.46299055121324056, ,0.014183384012571172
98, ,PASS, ,0.11571496999999989, ,0.011028777273594267, ,0.03217669104263178, ,0.0012859717481370548, ,1.5833333333333333, ,0.5483450000419833, ,0.4481541193036877, ,0.014265014999693884
99, ,PASS, ,0.12341660000000003, ,0.01200955960506776, ,0.03189844788902267, ,0.0014938954190277475, ,1.6666666666666667, ,0.5547749872250692, ,0.45152139752249953, ,0.01659149813269117
100, ,PASS, ,0.12121031999999998, ,0.012336056684372945, ,0.032457285726413744, ,0.001508911031206981, ,1.6666666666666667, ,0.5695322811246617, ,0.45799065325197447, ,0.01616293545029693
101, ,PASS, ,0.10043544000000001, ,0.012192298020913586, ,0.033787341559151855, ,0.001239599458120264, ,1.75, ,0.6315108927503192, ,0.4786637007408012, ,0.030856513132385053
198, ,PASS, ,0.085964667, ,0.01509755996926137, ,0.03864057846433746, ,0.0013499084742592958, ,2.0, ,0.8995708527347269, ,0.5478459623272994, ,0.09007979428991245
199, ,PASS, ,0.058960501999999956, ,0.009930395123707922, ,0.038011960222342406, ,0.0006119533860546736, ,1.9166666666666667, ,0.8904952700942743, ,0.5457643721556703, ,0.08248811248750025
200, ,PASS, ,0.05557010400000002, ,0.009218034479310123, ,0.03796487707538622, ,0.0005356361597445001, ,2.0, ,0.8828835512239314, ,0.5471520989367564, ,0.0717128221873023
201, ,PASS, ,0.05815276399999999, ,0.0096728796012844, ,0.03803858425174997, ,0.000587448643740749, ,2.0, ,0.884310588529802, ,0.5456419256749863, ,0.07481479969796535
202, ,PASS, ,0.06821026115999997, ,0.010805701773352064, ,0.038388081547592906, ,0.0007682425216446014, ,2.0, ,0.8800454810089834, ,0.5483357482500357, ,0.07536580886104365
203, ,PASS, ,0.06460099250000004, ,0.010041555074556802, ,0.03846199850562233, ,0.000676883556303616, ,2.0, ,0.8760333203166925, ,0.5502336687006387, ,0.06581498336768637
204, ,PASS, ,0.06220819360000002, ,0.01025442160229888, ,0.03818323758164119, ,0.0006648958415894627, ,2.0, ,0.8852146971618309, ,0.5479275933144222, ,0.06987612497704128
205, ,PASS, ,0.06925121380000003, ,0.011268681593542346, ,0.038374535123805224, ,0.0008120573881759618, ,2.0, ,0.8853228302664676, ,0.5477031080998347, ,0.0736515581314667
206, ,PASS, ,0.07290452299999998, ,0.011619245008819095, ,0.03861299363742985, ,0.0008815357169791249, ,2.0, ,0.8831880714878454, ,0.5510091630783045, ,0.07632497295973552
207, ,PASS, ,0.08075214399999994, ,0.012822840514876541, ,0.03887617278996346, ,0.001075931230148219, ,2.0, ,0.883344683568863, ,0.5516826187220669, ,0.0760596722515867
208, ,FAIL, ,0.07858264999999999, ,0.006394440792678065, ,0.03910664179628987, ,0.0005277556115127612, ,1.6666666666666667, ,0.564370551839484, ,0.5452949939797147, ,0.030938144119507766
209, ,PASS, ,0.058975315999999965, ,0.009401763181458515, ,0.03819635585302341, ,0.0005790121361173912, ,2.0, ,0.880653703811329, ,0.5492336891083855, ,0.06469255729474908
210, ,PASS, ,0.060065019999999934, ,0.009292316949315184, ,0.03820865615175201, ,0.0005826199070819297, ,2.0, ,0.8736195628470972, ,0.5473765841513438, ,0.06650884675822942
211, ,PASS, ,0.06423918268000005, ,0.009903556174329383, ,0.038363365902553015, ,0.0006635219901182959, ,2.0, ,0.8739347191838654, ,0.5484173792371584, ,0.06261096712311993
212, ,PASS, ,0.06406441090000004, ,0.010490001607123914, ,0.038250103462725255, ,0.0007004399046869805, ,2.0, ,0.8857660539618433, ,0.5470704679496337, ,0.0743046060284484
213, ,PASS, ,0.07530978400000003, ,0.011942578677447944, ,0.0387873423018918, ,0.0009344044979329729, ,2.0, ,0.8831997302331536, ,0.5515601722413829, ,0.07442705250913247
214, ,PASS, ,0.07932503, ,0.01248343145427943, ,0.038671277268545544, ,0.0010298767135052602, ,1.9166666666666667, ,0.8810507382489764, ,0.5489683884002368, ,0.06979449398991858
215, ,PASS, ,0.09255684, ,0.014635002067523262, ,0.03913326799310218, ,0.001403204563698628, ,2.0, ,0.88258104971559, ,0.5508050856104978, ,0.07716169057774332
216, ,PASS, ,0.07739257599999999, ,0.012362413957933378, ,0.03864037193859309, ,0.0009992877348973226, ,1.9166666666666667, ,0.8819247973439605, ,0.5483561559968164, ,0.07399848982673823
217, ,PASS, ,0.08423100700000002, ,0.013472560419830658, ,0.03879791936993123, ,0.0011801834019929708, ,1.9166666666666667, ,0.88470760347802, ,0.5490500193873594, ,0.07701883635027856
218, ,PASS, ,0.0896075, ,0.014154776184117496, ,0.03929739342446072, ,0.001314742451861031, ,2.0, ,0.885378507762193, ,0.5523560743658292, ,0.08514111956898839
219, ,PASS, ,0.08812012, ,0.013706385654246117, ,0.03906295313489521, ,0.0012536501875011381, ,2.0, ,0.8812751884846665, ,0.5501724454602968, ,0.07142711373237282
220, ,PASS, ,0.05533483900000001, ,0.008713633570632517, ,0.038082067615048676, ,0.0005062714634111059, ,2.0, ,0.8748357854450173, ,0.5484786024775005, ,0.06187628823901553
221, ,PASS, ,0.056161563, ,0.008597954515313594, ,0.03804533599965307, ,0.0005041817934518808, ,2.0, ,0.8743555817571427, ,0.5473765841513438, ,0.0619987347196996
222, ,PASS, ,0.054580635999999974, ,0.00813492868265097, ,0.0379931635197445, ,0.0004647121601995881, ,2.0, ,0.8676122217126528, ,0.5473153609110019, ,0.05491724658680435
223, ,PASS, ,0.06599277548, ,0.009988694254621336, ,0.038343539029876944, ,0.0006916774636420452, ,1.9166666666666667, ,0.8754941060731395, ,0.5482949327564743, ,0.06261096712311993
224, ,FAIL, ,0.086804976, ,0.006180277095084863, ,0.03917711473425032, ,0.000565988342667972, ,1.5833333333333333, ,0.5210908678874372, ,0.5468459827350463, ,0.02761168139425726
225, ,PASS, ,0.07327915900000002, ,0.011329252691662548, ,0.03868542871247362, ,0.0008652591612215645, ,2.0, ,0.8826877051963973, ,0.551927511683435, ,0.06757004959082467
226, ,PASS, ,0.07845247600000002, ,0.011822950178601918, ,0.03897442221342422, ,0.0009641371508621811, ,2.0, ,0.8779400432242325, ,0.5527846370482236, ,0.06440684883981959
227, ,PASS, ,0.10458150999999999, ,0.016979606201743942, ,0.039244496291708335, ,0.0018405993039964225, ,1.9166666666666667, ,0.8897817262395213, ,0.5513152792800147, ,0.08193710332442194
228, ,PASS, ,0.08075315399999994, ,0.012761751822878413, ,0.038942306724393375, ,0.001074149425568822, ,2.0, ,0.8856906628435826, ,0.5515805799881635, ,0.07444746025591314
229, ,PASS, ,0.075067072, ,0.011433244076275459, ,0.03888090004199302, ,0.0008971444698216908, ,2.0, ,0.8808051103973448, ,0.5518866961898736, ,0.07067202710148772
230, ,PASS, ,0.06583253114000004, ,0.009717579074425775, ,0.038430392030203465, ,0.0006663882000848974, ,2.0, ,0.8720724232274893, ,0.5490296116405787, ,0.062202812187506375
231, ,PASS, ,0.10780075999999995, ,0.017131905263547277, ,0.039612726888839, ,0.0019136457672734918, ,2.0, ,0.8831454713591569, ,0.5510295708250852, ,0.07628415746617416
232, ,PASS, ,0.07822360800000001, ,0.012211515388640017, ,0.03889935894345014, ,0.0009943509190047137, ,2.0, ,0.8795218506216382, ,0.5509887553315238, ,0.06781494255219281
233, ,PASS, ,0.07968158399999997, ,0.012281206243382033, ,0.038977492313340543, ,0.0010238770909306051, ,2.0, ,0.8766042379755565, ,0.5499887757392706, ,0.06612109956939655
234, ,PASS, ,0.07950749900000001, ,0.011765334944538538, ,0.038904857037876786, ,0.0009735781608628158, ,1.9166666666666667, ,0.8740236170951158, ,0.5500499989796127, ,0.0646721495479684
235, ,PASS, ,0.08200266899999994, ,0.012087421242927294, ,0.03912424961055897, ,0.001030554479139696, ,1.9166666666666667, ,0.8758489049620136, ,0.5530907532499336, ,0.0665292545050101
236, ,PASS, ,0.07059943900000004, ,0.010583594952458178, ,0.03873917846416399, ,0.0007793841614158168, ,2.0, ,0.8685586192627601, ,0.5502744841942001, ,0.05379482051386707
237, ,PASS, ,0.08381379100000003, ,0.012686471165756958, ,0.039041175838268605, ,0.0011124112324922386, ,1.9166666666666667, ,0.8778152550370811, ,0.5494377665761924, ,0.0688353298912267
238, ,PASS, ,0.08155319299999997, ,0.01187625772420957, ,0.0390486754999898, ,0.0010135290776100267, ,1.8333333333333333, ,0.8702576195726698, ,0.5497438827779025, ,0.06308034529907552
239, ,PASS, ,0.10929023999999994, ,0.01694252049006174, ,0.039325054091140996, ,0.0019133361253928036, ,1.9166666666666667, ,0.8857282518340212, ,0.5555600906103957, ,0.07659027366788433
240, ,PASS, ,0.08390445100000002, ,0.012693763630806161, ,0.03917727630323871, ,0.0011106305902865588, ,2.0, ,0.8736204236469162, ,0.5502744841942001, ,0.060835493153200956
241, ,PASS, ,0.09800807, ,0.015343910909275334, ,0.039241799736944145, ,0.001561223193828077, ,2.0, ,0.885696941493541, ,0.5510703863186466, ,0.07346788841044061
242, ,PASS, ,0.08041120600000004, ,0.011497298295629742, ,0.039037375295585805, ,0.0009609648856964875, ,1.9166666666666667, ,0.8748256284184979, ,0.5544988877778004, ,0.06040693047080672
243, ,PASS, ,0.11905571000000005, ,0.018900111532319182, ,0.03989151061794658, ,0.002324421655724366, ,1.9166666666666667, ,0.8894503369159338, ,0.5569886328850432, ,0.08046774555621314
244, ,PASS, ,0.08138040399999998, ,0.012684665115073244, ,0.03886131252362197, ,0.0010753640379322145, ,2.0, ,0.8858977741532942, ,0.5491112426277015, ,0.0707944735821718
245, ,FAIL, ,0.021277369999999983, ,0.0005850125330708012, ,0.03637917269872044, ,1.3199063121919038e-05, ,1.0, ,0.37429400574998223, ,0.6887818615946614, ,0.0017550662231383032
246, ,PASS, ,0.0764683, ,0.011416091150667315, ,0.038695490526188446, ,0.000908449451521572, ,1.9166666666666667, ,0.8803383753948102, ,0.5497642905246831, ,0.06636599253076468
247, ,PASS, ,0.10913047999999992, ,0.016804109053241423, ,0.039741938044529704, ,0.0019036452765319282, ,1.9166666666666667, ,0.8861545882469934, ,0.5541927715760903, ,0.0736515581314667
248, ,PASS, ,0.07720781100000002, ,0.011233328503985675, ,0.03888515977409196, ,0.0009093502485137366, ,1.8333333333333333, ,0.8777537592618883, ,0.5501316299667354, ,0.061713026264770106
249, ,PASS, ,0.08586114400000003, ,0.015056017595288176, ,0.038585109377400464, ,0.0013423637818858812, ,1.9166666666666667, ,0.9131325135407632, ,0.5500091834860513, ,0.16646599048999
250, ,PASS, ,0.09942542000000003, ,0.017560752951354668, ,0.03886708243668498, ,0.0018087793019664255, ,2.0, ,0.9148944722147533, ,0.552315258872268, ,0.17844533785024796
251, ,PASS, ,0.07844432100000001, ,0.011349761181372686, ,0.038828882958745745, ,0.0009332970163092157, ,1.8333333333333333, ,0.877434840812906, ,0.5499275524989286, ,0.0635701312218118
252, ,PASS, ,0.05071168200000002, ,0.007368269851698554, ,0.03790535283177894, ,0.00039317165502528124, ,2.0, ,0.8672790623092914, ,0.548886757413114, ,0.05426419868982266
253, ,PASS, ,0.05460558199999998, ,0.007933566308421559, ,0.03795543874306647, ,0.0004516270842787779, ,2.0, ,0.8676324484806301, ,0.5485194179710619, ,0.04952960143670537
254, ,PASS, ,0.0637135444, ,0.009780064590073094, ,0.03828574846897002, ,0.000652020192587542, ,2.0, ,0.8882004210036799, ,0.5471316911899757, ,0.0713454827452501
