Channel, ,Pass/Fail, ,Amplitude, ,Sorting Function Response, ,Mean, ,Variance, ,NPeaksRatio, ,PosIntegralRatio, ,ToT50, ,ToT99
24, ,PASS, ,0.074166095, ,0.009231392814334903, ,0.024754558392453215, ,0.0006929935111042422, ,1.6666666666666667, ,0.5949139582910895, ,0.43737882900348973, ,0.037080875900491826
25, ,PASS, ,0.10821285000000003, ,0.010968098567450344, ,0.021179575192057307, ,0.001209453873853682, ,1.6666666666666667, ,0.5272907762441443, ,0.4085222750556111, ,0.018040448154119305
26, ,PASS, ,0.10741234000000001, ,0.010264957329221324, ,0.021078952315493563, ,0.0011261110435148226, ,1.6666666666666667, ,0.512976431827463, ,0.3997265361931389, ,0.016938429827962696
27, ,PASS, ,0.10016494999999997, ,0.009548990508340155, ,0.021514560167157814, ,0.000977351177114427, ,1.6666666666666667, ,0.5137745940866921, ,0.39627762698720437, ,0.01661190587947185
28, ,PASS, ,0.07350951900000002, ,0.007704903341785419, ,0.02414688166868023, ,0.0005764572595662801, ,1.6666666666666667, ,0.538190970258466, ,0.41525683149323483, ,0.018775127038223708
29, ,PASS, ,0.08681307000000002, ,0.01027044522750333, ,0.02350839256617212, ,0.0009037919483993078, ,1.6666666666666667, ,0.5765664329893795, ,0.43125650496928636, ,0.029040223668904717
30, ,PASS, ,0.11366228000000003, ,0.011354058129275783, ,0.02099349995396012, ,0.0013155568733890476, ,1.6666666666666667, ,0.5235708378515845, ,0.40644068488398194, ,0.018040448154119305
31, ,PASS, ,0.11196258000000002, ,0.010606075595300418, ,0.02063046846562315, ,0.0012133295689639922, ,1.6666666666666667, ,0.5110508999431497, ,0.39858370237342094, ,0.017326177016795577
32, ,PASS, ,0.10374996, ,0.009693037974524013, ,0.021066442882156283, ,0.0010283893674933077, ,1.6666666666666667, ,0.5092568882218524, ,0.3947062304850921, ,0.01638742066488439
33, ,PASS, ,0.082186482, ,0.00803963459998653, ,0.02318787080208567, ,0.0006743710562520963, ,1.6666666666666667, ,0.5195063547430876, ,0.40201220383257485, ,0.017142507295769473
34, ,PASS, ,0.08148336399999999, ,0.009849640600016944, ,0.02403603425118875, ,0.0008128419734147902, ,1.6666666666666667, ,0.5857693538535523, ,0.43570539376747414, ,0.03367278218811861
35, ,PASS, ,0.1103939, ,0.011168139065431052, ,0.02117452124787249, ,0.0012566789935311812, ,1.6666666666666667, ,0.5276221156081874, ,0.4085222750556111, ,0.019917960857941674
36, ,PASS, ,0.10956798000000001, ,0.010408779721780963, ,0.02099613001119365, ,0.0011653853892459552, ,1.6666666666666667, ,0.5124395073205111, ,0.39817554743780736, ,0.01728536152323422
37, ,PASS, ,0.10150444, ,0.009513030059609927, ,0.021429409573900122, ,0.0009873376758468436, ,1.6666666666666667, ,0.5095940846189763, ,0.3942368523091365, ,0.017040468561866084
38, ,PASS, ,0.081044802, ,0.00785229582002652, ,0.023211053476827004, ,0.0006496849795909234, ,1.6666666666666667, ,0.5171892570819632, ,0.39999183690128776, ,0.017020060815085405
39, ,PASS, ,0.079941337, ,0.009651225905191943, ,0.024406431908669212, ,0.0007815428870415665, ,1.6666666666666667, ,0.5829183136105709, ,0.43690945082753413, ,0.02891777718822065
40, ,PASS, ,0.11321574000000001, ,0.011370589739463347, ,0.020832121518948594, ,0.0013123898246676384, ,1.6666666666666667, ,0.5251608858919714, ,0.40774678067794534, ,0.017326177016795577
41, ,PASS, ,0.11207904000000003, ,0.010597755322634269, ,0.020511119990318565, ,0.0012137270640901255, ,1.6666666666666667, ,0.5099231944726083, ,0.3984408481459562, ,0.016346605171323036
42, ,PASS, ,0.10420336000000001, ,0.009698563462019064, ,0.021055654534163793, ,0.0010334091411596702, ,1.6666666666666667, ,0.5082147839412254, ,0.39360421215893554, ,0.016530274892349137
43, ,PASS, ,0.08266920000000001, ,0.007986647452797186, ,0.02273154029599396, ,0.0006741974780761391, ,1.6666666666666667, ,0.5175177024336738, ,0.40044080733046267, ,0.01797922491377727
44, ,PASS, ,0.08017729799999998, ,0.009610187845779695, ,0.023997629528723904, ,0.0007807501058920369, ,1.6666666666666667, ,0.5804709767430789, ,0.4348074529091243, ,0.02969327156588641
45, ,PASS, ,0.10667481000000001, ,0.010719578612171033, ,0.021224362933878898, ,0.0011656101365716592, ,1.6666666666666667, ,0.5252033400688535, ,0.40782841166506806, ,0.018550641823636253
46, ,PASS, ,0.10597156999999999, ,0.010011937065225926, ,0.02093226388542683, ,0.0010843767415954235, ,1.6666666666666667, ,0.5111636489767514, ,0.39658374318891454, ,0.01679557560049795
47, ,PASS, ,0.09981791999999998, ,0.009241685953895802, ,0.021177250191877717, ,0.0009436929179341969, ,1.6666666666666667, ,0.5075893019569172, ,0.39162466072120977, ,0.016101712209954898
48, ,PASS, ,0.07890716700000001, ,0.007676636934871888, ,0.022997932162486478, ,0.0006185948643144034, ,1.6666666666666667, ,0.5194388309481868, ,0.40029795310299787, ,0.017305769270014898
49, ,PASS, ,0.07827428300000001, ,0.009456929046253431, ,0.0241197842937287, ,0.0007500319843965416, ,1.6666666666666667, ,0.5840528216085488, ,0.43705230505499887, ,0.03077488214526234
50, ,PASS, ,0.10657573999999999, ,0.010708154478124898, ,0.021111890117752698, ,0.00116337277869529, ,1.6666666666666667, ,0.524897232415909, ,0.4078692271586294, ,0.017611885471725066
51, ,PASS, ,0.10618570999999999, ,0.010023184064046396, ,0.020897652102921983, ,0.0010877568287690946, ,1.6666666666666667, ,0.5100801738231371, ,0.3972367910858962, ,0.01648945939878778
52, ,PASS, ,0.006112909999999989, ,0.00046866370088585063, ,0.029795340234280935, ,3.048641498174949e-06, ,1.8333333333333333, ,0.5841831999388752, ,0.5128670843452174, ,0.009652864227260667
53, ,PASS, ,0.07769854900000002, ,0.0075859700555778505, ,0.023300843915654783, ,0.0006015578269272445, ,1.6666666666666667, ,0.518708925884253, ,0.4017877186179874, ,0.01857104957041693
54, ,PASS, ,0.07287887200000001, ,0.008948148826267247, ,0.024669442420911004, ,0.0006603978448963621, ,1.75, ,0.5890182021874623, ,0.44225628048407173, ,0.03161159976327014
55, ,PASS, ,0.10847758000000003, ,0.010915001216870564, ,0.02102303600977531, ,0.0012069242721207854, ,1.6666666666666667, ,0.5249006940905541, ,0.40915491520581215, ,0.01808126364768066
56, ,PASS, ,0.10904166000000001, ,0.010246663255009503, ,0.020810766593428297, ,0.001141946550015409, ,1.6666666666666667, ,0.5084120177652733, ,0.39682863615028263, ,0.01640782841166507
57, ,PASS, ,0.10203078000000002, ,0.009483564831826745, ,0.021101455170523867, ,0.00098959476363432, ,1.6666666666666667, ,0.5081626705932387, ,0.39276749454092774, ,0.016550682639129812
58, ,PASS, ,0.07706417200000001, ,0.0076495961595230075, ,0.02339858850331626, ,0.0006011660783608888, ,1.6666666666666667, ,0.5220049154853201, ,0.40746107222301586, ,0.01848941858329422
59, ,PASS, ,0.05216401700000003, ,0.0072724527114470545, ,0.026531884457888615, ,0.00038343534528766923, ,1.75, ,0.6406535863046776, ,0.45615395604171344, ,0.06759045733760535
60, ,PASS, ,0.10206224999999998, ,0.010622885975152969, ,0.021556787113650742, ,0.0011034199144847054, ,1.5833333333333333, ,0.5346497328872343, ,0.41376706597824536, ,0.0192445052141793
61, ,PASS, ,0.10508140999999999, ,0.00996694876037466, ,0.021219603918233507, ,0.001070201028916748, ,1.6666666666666667, ,0.511552355659659, ,0.3979510622232199, ,0.016224158690638965
62, ,PASS, ,0.09788698999999995, ,0.009277747740045748, ,0.02147726376872431, ,0.0009281893528276199, ,1.6666666666666667, ,0.512707117828424, ,0.3958898797983715, ,0.01697924532152405
63, ,PASS, ,0.068533629, ,0.007377075984252842, ,0.024289219467398624, ,0.0005140175939946269, ,1.5833333333333333, ,0.5458682104957774, ,0.4188077794330728, ,0.022224036244158283
64, ,PASS, ,0.04980747699999999, ,0.007062981106616613, ,0.02663755336389053, ,0.00035539353756670276, ,1.75, ,0.6494819197942562, ,0.4597865349686741, ,0.06905981510581417
65, ,PASS, ,0.10111797, ,0.010539633979298867, ,0.021849237041101203, ,0.0010845767742967694, ,1.6666666666666667, ,0.5353590409366653, ,0.41374665823146467, ,0.019775106630476928
66, ,PASS, ,0.10485223999999999, ,0.009953777375600091, ,0.021115012771417318, ,0.0010664722192537917, ,1.6666666666666667, ,0.5113607867352749, ,0.397440868553703, ,0.01620375094385829
67, ,PASS, ,0.09696595, ,0.009212472562752518, ,0.0215352081462362, ,0.0009129424832343464, ,1.6666666666666667, ,0.513380569769221, ,0.3961347727597396, ,0.01657109038591049
68, ,PASS, ,0.06439200500000002, ,0.006964405006695577, ,0.024666791859533476, ,0.00045585003527645303, ,1.5833333333333333, ,0.5459284164696535, ,0.4208485541111406, ,0.01967306789657354
69, ,PASS, ,0.05288658840000002, ,0.007312397719086261, ,0.026283901663557888, ,0.00039092731876206384, ,1.75, ,0.6368082081589287, ,0.457133527887186, ,0.06277422909736537
70, ,PASS, ,0.10383005000000002, ,0.010735590202453436, ,0.02159840833676864, ,0.001134814293358566, ,1.5833333333333333, ,0.5321027334129619, ,0.41360380400399993, ,0.018999612252811167
71, ,PASS, ,0.10757084000000003, ,0.010178154281913123, ,0.02078488531375809, ,0.001118812176835157, ,1.6666666666666667, ,0.51006409249762, ,0.3979918777167813, ,0.016469051652007103
72, ,PASS, ,0.09911467999999997, ,0.009422513944341059, ,0.021299225482886472, ,0.0009543006645236876, ,1.6666666666666667, ,0.5126937041214822, ,0.39711434460521217, ,0.016550682639129812
73, ,PASS, ,0.061736248079999986, ,0.006815220481757484, ,0.025113661088834918, ,0.00042736238805992835, ,1.5, ,0.5515894967167929, ,0.42580763657884535, ,0.02173425032142201
74, ,PASS, ,0.04827785899999998, ,0.006928931941305767, ,0.026629891643068504, ,0.0003379722043660528, ,1.75, ,0.652326760750909, ,0.4584804391747107, ,0.08101875471929144
75, ,PASS, ,0.10021972999999998, ,0.010415702121236842, ,0.021884319143037897, ,0.001062441953805472, ,1.6666666666666667, ,0.534048619715916, ,0.4142568519009816, ,0.018346564355829473
76, ,PASS, ,0.10443485000000001, ,0.0099365588547053, ,0.021055534846825166, ,0.0010602738951702435, ,1.6666666666666667, ,0.5120195527241326, ,0.39813473194424603, ,0.016285381930981
77, ,PASS, ,0.09545984, ,0.009214546786515627, ,0.02191602448998429, ,0.0008982932129215985, ,1.6666666666666667, ,0.516611417602165, ,0.3988490030815698, ,0.01699965306830473
78, ,PASS, ,0.053599319700000016, ,0.006338182601364883, ,0.025644447330340197, ,0.0003443486195874204, ,1.6666666666666667, ,0.5762605658246932, ,0.43241974653578497, ,0.030162649741842004
79, ,PASS, ,0.04442672999999999, ,0.006570024941752633, ,0.02699292737611477, ,0.0002948192252131941, ,1.75, ,0.6663782231497218, ,0.46125589273688294, ,0.09046754147874533
80, ,PASS, ,0.09868810999999994, ,0.010256911295222472, ,0.022030359614824187, ,0.0010302339967412743, ,1.5833333333333333, ,0.5340565099555596, ,0.4138895124589294, ,0.018611865063978286
81, ,PASS, ,0.10395413, ,0.009848617530200117, ,0.021358017677091896, ,0.0010461875473653322, ,1.6666666666666667, ,0.5109524005091333, ,0.39782861574253586, ,0.01669353686659456
82, ,PASS, ,0.09404563999999996, ,0.009082333808891795, ,0.02204372118069223, ,0.0008721526882877787, ,1.6666666666666667, ,0.5166794786013947, ,0.39942041999142874, ,0.01728536152323422
83, ,PASS, ,0.05056258300000001, ,0.006024699500011699, ,0.025902497803799922, ,0.0003085939610565166, ,1.6666666666666667, ,0.5791660136310663, ,0.43392991979755513, ,0.0297953102997898
84, ,PASS, ,0.043704608000000006, ,0.006500731279818202, ,0.02717082015479276, ,0.0002868030640885418, ,1.75, ,0.6696598505315845, ,0.4615620089385931, ,0.09301850982633007
85, ,PASS, ,0.10060989000000002, ,0.010513804911897271, ,0.022002962877390255, ,0.0010763822283025434, ,1.5833333333333333, ,0.5354517403722128, ,0.4162364033387074, ,0.019734291136915574
86, ,PASS, ,0.10697989000000002, ,0.010157934610641104, ,0.020857701801305688, ,0.0011102752294026193, ,1.6666666666666667, ,0.5109579571323903, ,0.3976857615150711, ,0.016060896716393543
87, ,PASS, ,0.09669572999999998, ,0.009353943669894348, ,0.021840939154246237, ,0.0009234073682302711, ,1.6666666666666667, ,0.5161840479999781, ,0.40023672986265585, ,0.016652721373033204
88, ,PASS, ,0.049568817, ,0.00588966296004905, ,0.02587134707461072, ,0.0002957889659223839, ,1.6666666666666667, ,0.578760065636368, ,0.4331340176731087, ,0.033346258239627766
89, ,PASS, ,0.035680740000000016, ,0.00567243339567724, ,0.02777569660415094, ,0.00020404608797945404, ,1.75, ,0.7053593348820917, ,0.4684802350972429, ,0.0952225464786433
90, ,PASS, ,0.09545491, ,0.010233118017577175, ,0.022471353098018405, ,0.0009933170512724959, ,1.5833333333333333, ,0.542953718729913, ,0.4183384012571172, ,0.021122017918001675
91, ,PASS, ,0.10336607, ,0.009912834067002002, ,0.021149712641713024, ,0.0010466689480971762, ,1.6666666666666667, ,0.5143689804386288, ,0.39901226505581516, ,0.01757106997816371
92, ,PASS, ,0.09262640999999999, ,0.009071623796160971, ,0.022105380125286834, ,0.0008574869668328432, ,1.6666666666666667, ,0.520168408723066, ,0.40327748413297687, ,0.01728536152323422
93, ,PASS, ,0.042167150999999986, ,0.005374488192106994, ,0.0265663002073223, ,0.00022949449962351369, ,1.6666666666666667, ,0.6047294519518879, ,0.4364604803983592, ,0.052325462745658254
198, ,PASS, ,0.10003050000000002, ,0.014040831660739776, ,0.03150103457788617, ,0.0014599719872562993, ,2.0, ,0.9026446856701137, ,0.5195608252892798, ,0.10550805085610497
199, ,PASS, ,0.05770027560000003, ,0.008397062127811224, ,0.03057886920830187, ,0.0005069052895750972, ,2.0, ,0.8828676910015746, ,0.5142752188730842, ,0.06557009040631824
200, ,PASS, ,0.058209310000000014, ,0.007959561914191858, ,0.03069226557274341, ,0.0004840762638424821, ,2.0, ,0.8718324824545011, ,0.5156017224138283, ,0.05671312830350401
201, ,PASS, ,0.060445711000000006, ,0.008596895783358472, ,0.030675017454419296, ,0.0005425840288115569, ,2.0, ,0.8741203112360916, ,0.5147445970490399, ,0.05942735862533418
202, ,PASS, ,0.05424747660000003, ,0.008731075724694847, ,0.030151370852023428, ,0.0004903217894084662, ,1.8333333333333333, ,0.8618414365517055, ,0.5081528948388808, ,0.07473316871084264
203, ,PASS, ,0.056218866060000025, ,0.007850905946920792, ,0.030682182962102813, ,0.0004615110075179552, ,2.0, ,0.8667057993596695, ,0.5145813350747944, ,0.05491724658680435
204, ,PASS, ,0.05255755859999998, ,0.00768663377922938, ,0.030486111613701756, ,0.0004225491654440864, ,2.0, ,0.872051850034874, ,0.5133976857615151, ,0.06538642068529214
205, ,PASS, ,0.049944207399999975, ,0.007503861300359267, ,0.030484674743474622, ,0.000390804891548907, ,1.9166666666666667, ,0.8677940655353316, ,0.5122548519417971, ,0.06344768474112773
206, ,PASS, ,0.048248524999999994, ,0.007348370234409549, ,0.030433978656047838, ,0.00036932504166454615, ,1.9166666666666667, ,0.8655437585418191, ,0.5114385420705699, ,0.0706108038611457
207, ,PASS, ,0.052861745019999976, ,0.0075279690574917724, ,0.030491465409563066, ,0.0004159622107085596, ,2.0, ,0.8659144458925966, ,0.513907879431032, ,0.0621824044407257
208, ,PASS, ,0.04728641999999998, ,0.0065532753989083654, ,0.030583601975673964, ,0.0003244802645528697, ,2.0, ,0.8586561977064322, ,0.5140099181649355, ,0.058855941715475195
209, ,PASS, ,0.046657316000000004, ,0.006373695341368549, ,0.030536492243423603, ,0.0003116528535928736, ,2.0, ,0.8546897711613075, ,0.5139691026713741, ,0.050305095814371134
210, ,PASS, ,0.04732473899999999, ,0.006440910811306038, ,0.030475178911042632, ,0.0003189407907651288, ,2.0, ,0.8542381819597461, ,0.5142548111263036, ,0.05328462684435011
211, ,PASS, ,0.05290496505999998, ,0.007521157482783513, ,0.030456191270402642, ,0.0004153687898249161, ,2.0, ,0.8658466320134136, ,0.5143160343666455, ,0.06340686924756637
212, ,PASS, ,0.065707241, ,0.009180844086945441, ,0.03091188355866207, ,0.0006284154413470964, ,2.0, ,0.8736193112897532, ,0.516315993551152, ,0.06922307708005959
213, ,PASS, ,0.053763737499999985, ,0.007404212969391075, ,0.030592735908818187, ,0.0004153170754002549, ,2.0, ,0.866793716477066, ,0.5156629456541704, ,0.06167221077120875
214, ,PASS, ,0.05461651129999999, ,0.007554679363128631, ,0.030626501039672654, ,0.0004303148205898494, ,2.0, ,0.8650388669477928, ,0.5154384604395829, ,0.06177424950511214
215, ,FAIL, ,0.07636925700000001, ,0.004823803623738164, ,0.03305340090977735, ,0.00039146508530789, ,1.3333333333333333, ,0.521158941049935, ,0.51625477031081, ,0.02987694128691251
216, ,PASS, ,0.05949500300000002, ,0.008363152511936506, ,0.03053369926699455, ,0.0005179912153328977, ,2.0, ,0.8745500295426047, ,0.5160711005897839, ,0.07597804126446399
217, ,PASS, ,0.05748938670000003, ,0.008379686501946542, ,0.0305793315779882, ,0.0005019853914059994, ,2.0, ,0.8689474029435769, ,0.5141119568988388, ,0.059631436093140956
218, ,PASS, ,0.06733462299999997, ,0.009994809490215358, ,0.030762307868084326, ,0.0006997230721286042, ,1.9166666666666667, ,0.8668475416533726, ,0.5134997244954185, ,0.0706924348482684
219, ,PASS, ,0.06674409399999998, ,0.00963499072933569, ,0.03075622796024571, ,0.0006690791356492771, ,2.0, ,0.8700435298322197, ,0.5152751984653374, ,0.06585579886124773
220, ,PASS, ,0.06792737199999997, ,0.0097958092977083, ,0.030752052029121856, ,0.0006935248274919221, ,2.0, ,0.8678620419132873, ,0.5142956266198649, ,0.06730474888267586
221, ,PASS, ,0.07136815, ,0.010309157603938648, ,0.030867989948735738, ,0.0007662037759732288, ,2.0, ,0.8702330829284439, ,0.5148466357829432, ,0.07026387216587417
222, ,PASS, ,0.054183132379999985, ,0.007533437326728776, ,0.03067078261423236, ,0.00042611939591228405, ,2.0, ,0.8622417855130674, ,0.5147445970490399, ,0.06308034529907552
223, ,PASS, ,0.06297541100000001, ,0.008974745525948315, ,0.030748563362359958, ,0.0005885924167492822, ,2.0, ,0.8675313302675924, ,0.5147241893022592, ,0.06891696087834942
224, ,PASS, ,0.061641662000000014, ,0.008647322713973322, ,0.030809075827860657, ,0.0005557932207987519, ,2.0, ,0.8663111767815186, ,0.5150711209975307, ,0.06659047774535214
225, ,PASS, ,0.05936961300000001, ,0.008375360777664041, ,0.030613469942939942, ,0.0005188470931230386, ,2.0, ,0.8618421024839852, ,0.5140915491520581, ,0.06628436154364196
226, ,PASS, ,0.05906688700000002, ,0.00809846137654599, ,0.030710074706332524, ,0.0004991491953964466, ,2.0, ,0.8569507949710429, ,0.5149078590232853, ,0.05534580926919859
227, ,PASS, ,0.06684491800000002, ,0.00919380493308621, ,0.030941819534968676, ,0.0006392395780513115, ,2.0, ,0.8672347599227324, ,0.5169690414481337, ,0.06438644109303891
228, ,PASS, ,0.14872991000000002, ,0.025015669074901808, ,0.030809457418624106, ,0.003833879638410448, ,1.8333333333333333, ,0.8826502402268073, ,0.5176220893451154, ,0.09822248525540295
229, ,PASS, ,0.13063071999999998, ,0.021310087413638577, ,0.030992052283422788, ,0.0028703702021464026, ,1.8333333333333333, ,0.8832814463644559, ,0.5178669823064835, ,0.09799800004081549
230, ,PASS, ,0.15128165999999998, ,0.02555103058293453, ,0.03055064976959654, ,0.003981838463394953, ,1.8333333333333333, ,0.8827346349541111, ,0.5178057590661415, ,0.10475296422521989
231, ,PASS, ,0.18957334000000006, ,0.03476492985132234, ,0.02834440493112386, ,0.006776512103217328, ,1.75, ,0.8788888073860369, ,0.5145813350747944, ,0.12048733699312258
232, ,PASS, ,0.075018333, ,0.01133979270769809, ,0.030825526665872946, ,0.000884814155259458, ,1.9166666666666667, ,0.8707082852956299, ,0.5134793167486378, ,0.07148833697271484
233, ,PASS, ,0.06787741799999998, ,0.0100461844370939, ,0.030846082341625683, ,0.0007098887725961275, ,1.9166666666666667, ,0.8714910974724152, ,0.51384665619069, ,0.0760596722515867
234, ,PASS, ,0.074523295, ,0.01102579937620051, ,0.030971932137940045, ,0.0008548254370898013, ,1.9166666666666667, ,0.8709539685229536, ,0.5143160343666455, ,0.07397808207995756
235, ,PASS, ,0.073719233, ,0.011654518238840679, ,0.030607044415595194, ,0.0008896028363059457, ,1.8333333333333333, ,0.8706712190056934, ,0.5116630272851574, ,0.08399828574927043
236, ,PASS, ,0.05261772830000001, ,0.008770988507502383, ,0.03011686484835003, ,0.00047557310112597003, ,1.8333333333333333, ,0.8623120413308345, ,0.5064182363625233, ,0.08532478929001448
237, ,PASS, ,0.061414388, ,0.008985705468058477, ,0.03060232644317463, ,0.0005743053675447144, ,2.0, ,0.8745414984885869, ,0.5151935674782148, ,0.07044754188690026
238, ,PASS, ,0.062613919, ,0.00889627815756584, ,0.030671467478194325, ,0.0005797372302376457, ,2.0, ,0.869981762407548, ,0.5160302850962225, ,0.06730474888267586
239, ,PASS, ,0.05151844243999997, ,0.007432946267454862, ,0.03039310268876145, ,0.00039928652531490155, ,2.0, ,0.868126929199065, ,0.5143160343666455, ,0.06512111997714333
240, ,PASS, ,0.057133487240000023, ,0.00853934543064565, ,0.03057168733927879, ,0.0005082638660741231, ,2.0, ,0.8742261349436401, ,0.5136425787228832, ,0.07336584967653721
241, ,PASS, ,0.06274495499999999, ,0.009015703461264414, ,0.030610199473847476, ,0.0005884329256124082, ,2.0, ,0.8711680123650354, ,0.5154792759331442, ,0.07256994755209077
242, ,PASS, ,0.05810914000000003, ,0.008206743310040102, ,0.030627809289381847, ,0.0004966465093453168, ,2.0, ,0.8671203683568275, ,0.5152751984653374, ,0.07222301585681924
243, ,PASS, ,0.04853267699999999, ,0.006797580953817339, ,0.030519252835044183, ,0.00034425570522240615, ,2.0, ,0.8617366237564641, ,0.5146425583151364, ,0.06538642068529214
244, ,PASS, ,0.07232786200000003, ,0.010643166176108818, ,0.030986470530097347, ,0.000799811525684762, ,1.9166666666666667, ,0.8741152255344989, ,0.515744576641293, ,0.07714128283096264
245, ,PASS, ,0.08537465000000002, ,0.01285890759765775, ,0.031082335736658438, ,0.0011394691521660742, ,1.9166666666666667, ,0.8655742413374604, ,0.5131527928001469, ,0.06761086508438603
246, ,PASS, ,0.063668046, ,0.009194742484307447, ,0.03076675005989674, ,0.0006090684059507711, ,2.0, ,0.8689505890883491, ,0.5151527519846534, ,0.07414134405420297
247, ,PASS, ,0.05630934724000002, ,0.008111266615856276, ,0.03063580781384053, ,0.00047576395566787354, ,2.0, ,0.8611051209714548, ,0.513907879431032, ,0.06179465725189282
248, ,PASS, ,0.062425075000000003, ,0.009228291924967805, ,0.030536613884288077, ,0.0005997324107077072, ,1.9166666666666667, ,0.8686886144962822, ,0.5135201322421992, ,0.07616171098549009
249, ,PASS, ,0.07126542900000002, ,0.010488253180501884, ,0.030938286398046976, ,0.0007766076723480616, ,1.9166666666666667, ,0.8671186328340782, ,0.5143364421134262, ,0.0722638313503806
250, ,PASS, ,0.06551862099999999, ,0.009457677464623799, ,0.030768525043080752, ,0.0006448676449736319, ,1.9166666666666667, ,0.8658069795452427, ,0.5143976653537683, ,0.07342707291687925
251, ,PASS, ,0.051502662499999984, ,0.007713318197673855, ,0.03051807039086957, ,0.0004142253275991085, ,2.0, ,0.8653035174415522, ,0.5124997449031652, ,0.0655088671659762
252, ,PASS, ,0.08080458, ,0.013111152229410469, ,0.03086829971361809, ,0.001097597776106232, ,1.8333333333333333, ,0.8864110058751926, ,0.5140099181649355, ,0.09593681761596702
253, ,PASS, ,0.1022206, ,0.015410454741226997, ,0.03137924921246506, ,0.0016249021854868844, ,1.9166666666666667, ,0.8760975569408642, ,0.5193159323279116, ,0.08699822452603008
254, ,PASS, ,0.10549621999999995, ,0.017190914845050927, ,0.030748865441725677, ,0.0018730062572126823, ,1.8333333333333333, ,0.8871415485040554, ,0.5164996632721781, ,0.10107956980469786
255, ,PASS, ,0.1533575600000001, ,0.02670161620553061, ,0.029766785273361768, ,0.004226882167387078, ,1.8333333333333333, ,0.8900755164694948, ,0.5178669823064835, ,0.1080794269504704
