Channel, ,Pass/Fail, ,Amplitude, ,Sorting Function Response, ,Mean, ,Variance, ,NPeaksRatio, ,PosIntegralRatio, ,ToT50, ,ToT99
0, ,PASS, ,0.016676390000000013, ,0.0012565964401240136, ,0.03631275212546683, ,2.1340004154149232e-05, ,1.4166666666666667, ,0.4899114114145302, ,0.5478663700740801, ,0.020224077059651843
1, ,PASS, ,0.028274080000000004, ,0.004745650842764712, ,0.036859171465684376, ,0.00013834583845883898, ,1.8333333333333333, ,0.8163872123369744, ,0.5510091630783045, ,0.08761045692945042
2, ,PASS, ,0.010028890000000023, ,0.0016108583119837892, ,0.03614845192934838, ,1.6706678612059943e-05, ,1.8333333333333333, ,0.7926713187911306, ,0.5485194179710619, ,0.035836003346870475
