Channel, ,Pass/Fail, ,Amplitude, ,Sorting Function Response, ,Mean, ,Variance, ,NPeaksRatio, ,PosIntegralRatio, ,ToT50, ,ToT99
0, ,PASS, ,0.09776931999999999, ,0.009436568101432513, ,0.027461361964592555, ,0.0009427193747294346, ,1.5833333333333333, ,0.5665095239629985, ,0.4610109997755148, ,0.039999183690128774
1, ,PASS, ,0.09631231999999999, ,0.00919810363562198, ,0.027487689596763332, ,0.0009046770858815702, ,1.5833333333333333, ,0.5605299256121459, ,0.46215383359523277, ,0.04018285341115487
2, ,PASS, ,0.09703999999999997, ,0.009241219497406505, ,0.02768507382633007, ,0.0009171065176984762, ,1.5833333333333333, ,0.5637226678743118, ,0.4573784208485541, ,0.0408971245484786
3, ,PASS, ,0.09725999999999999, ,0.00924254248574768, ,0.027827082387359443, ,0.0009189265037125137, ,1.5833333333333333, ,0.561087895258209, ,0.462582396277627, ,0.04146854145833759
4, ,PASS, ,0.09728609999999999, ,0.00935289828592643, ,0.02765746710820187, ,0.0009299209741578363, ,1.5833333333333333, ,0.564373297816009, ,0.46152119344503173, ,0.041999142874635215
5, ,PASS, ,0.09720850999999996, ,0.009395683433006162, ,0.027558966844370522, ,0.0009336402686405617, ,1.5833333333333333, ,0.5675371682323107, ,0.4618477173935226, ,0.04152976469867962
6, ,PASS, ,0.09765955000000001, ,0.009524091282629923, ,0.027745146402991774, ,0.000950042202319818, ,1.5833333333333333, ,0.5685371270890943, ,0.46078651456092734, ,0.0431215689475725
7, ,PASS, ,0.09779115, ,0.009460697177239588, ,0.027502746079977956, ,0.0009451430960389313, ,1.5833333333333333, ,0.5690698585313951, ,0.46207220260811005, ,0.041264463990530804
8, ,PASS, ,0.09739288999999998, ,0.009548066389985127, ,0.027615042774896428, ,0.0009495121141898725, ,1.5833333333333333, ,0.5738086364787183, ,0.460235505397849, ,0.04146854145833759
9, ,PASS, ,0.09747871999999999, ,0.009488867519197487, ,0.027520621493175648, ,0.0009451102568353653, ,1.5833333333333333, ,0.5701639969533568, ,0.4584192159343687, ,0.03985632946266403
10, ,PASS, ,0.09743008999999998, ,0.009484209812023489, ,0.027635298781739148, ,0.000945887179303463, ,1.5833333333333333, ,0.5703563528571168, ,0.4613375237240056, ,0.04050937735964572
11, ,PASS, ,0.09744338999999999, ,0.00947913447991456, ,0.027843839239182874, ,0.0009436031934161773, ,1.5833333333333333, ,0.5659796463743573, ,0.464419093487888, ,0.04130527948409216
12, ,PASS, ,0.09654215999999996, ,0.009477750880537768, ,0.02765085021198751, ,0.0009347581767247584, ,1.5833333333333333, ,0.5754462783374035, ,0.45990898144935816, ,0.044121548539825715
13, ,PASS, ,0.0967692, ,0.009472343693253265, ,0.027813073928117795, ,0.0009367018434053099, ,1.5833333333333333, ,0.572141696195376, ,0.46150078569825104, ,0.04024407665149691
14, ,PASS, ,0.09628988999999996, ,0.009385108906387957, ,0.027571265458072283, ,0.0009232222131421357, ,1.5833333333333333, ,0.5702898271608793, ,0.46158241668537375, ,0.04001959143690945
15, ,PASS, ,0.09640151999999994, ,0.00950624706737694, ,0.027747476567312093, ,0.0009347624525879776, ,1.5833333333333333, ,0.5738440432721208, ,0.46270484275831103, ,0.042876675986204364
16, ,PASS, ,0.09664564999999997, ,0.009455265188181204, ,0.02767895370767331, ,0.0009333793500461232, ,1.5833333333333333, ,0.5738417834909328, ,0.46125589273688294, ,0.0407134548274525
17, ,PASS, ,0.09669437999999995, ,0.0095114932732796, ,0.027547519962772184, ,0.0009394049741433035, ,1.5833333333333333, ,0.5765722576478124, ,0.46035795187853307, ,0.04308075345401114
18, ,PASS, ,0.09658721999999995, ,0.009533968950906007, ,0.02776071374232771, ,0.0009403433055569576, ,1.5833333333333333, ,0.5755400259518488, ,0.4619089406338646, ,0.04250933654415216
19, ,PASS, ,0.09656296999999994, ,0.009505378139645308, ,0.027562618715550703, ,0.0009374449380157318, ,1.5833333333333333, ,0.5735811976632406, ,0.4623170955694782, ,0.04140731821799555
20, ,PASS, ,0.09607465999999998, ,0.009440492823461412, ,0.02759420804528479, ,0.0009267233658312458, ,1.5833333333333333, ,0.575374821493105, ,0.46158241668537375, ,0.04091753229525928
21, ,PASS, ,0.09650967999999997, ,0.009501669363880695, ,0.027574796967592494, ,0.000936180158059751, ,1.5833333333333333, ,0.5732327505602169, ,0.46209261035489074, ,0.04099916328238199
22, ,PASS, ,0.09660349999999995, ,0.009531825631644038, ,0.02757416352993408, ,0.0009404277682166794, ,1.5833333333333333, ,0.5759913361016203, ,0.46160282443215445, ,0.04310116120079182
23, ,PASS, ,0.09640071999999997, ,0.009490097120220128, ,0.027599573101471396, ,0.0009342682521417678, ,1.5833333333333333, ,0.5742637652961995, ,0.4609905920287341, ,0.041264463990530804
24, ,PASS, ,0.09951419, ,0.009710090615877003, ,0.02740211440344034, ,0.0009868722204832861, ,1.5833333333333333, ,0.5705378950193716, ,0.4600518356768229, ,0.03773392379747352
25, ,PASS, ,0.17038187999999999, ,0.024175603817959225, ,0.024401275062957896, ,0.004165565763491338, ,1.9166666666666667, ,0.7237974211091992, ,0.46286810473255646, ,0.061325279075937225
26, ,PASS, ,0.10834439000000004, ,0.014993767421858107, ,0.02630474816311912, ,0.0016460971089748994, ,1.9166666666666667, ,0.7169117967102224, ,0.4615416011918124, ,0.05591722617905757
27, ,PASS, ,0.06695568400000003, ,0.005793971000154006, ,0.028299835408256976, ,0.0003978523486056153, ,1.5, ,0.5301540028072063, ,0.4616436399257158, ,0.03159119201648946
28, ,PASS, ,0.06524756530000003, ,0.005621175471779574, ,0.028356261642415462, ,0.0003765200200716176, ,1.5, ,0.5305797003390942, ,0.4596232729944287, ,0.03446868431256505
29, ,PASS, ,0.06522206930000002, ,0.005644367202097851, ,0.028260499885920696, ,0.0003776131768238527, ,1.5, ,0.5320102986369275, ,0.46076610681414665, ,0.034978877982082
30, ,PASS, ,0.06480887726000002, ,0.005646421782186363, ,0.028611337071896496, ,0.0003753006111814283, ,1.5, ,0.532314612192787, ,0.46413338503295853, ,0.03455031529968776
31, ,PASS, ,0.06493838230000001, ,0.005637254940098569, ,0.028242969936940063, ,0.00037594359630123376, ,1.5, ,0.5352761826255982, ,0.46160282443215445, ,0.03575437235974776
32, ,PASS, ,0.06440904010000002, ,0.005457226391353078, ,0.028384970069794496, ,0.00036114516457054155, ,1.5, ,0.5207604475903344, ,0.4630109589600212, ,0.03522377094345013
33, ,PASS, ,0.06408712070000001, ,0.005446530115047555, ,0.02830685270300606, ,0.0003581981262450275, ,1.5, ,0.5230977574516283, ,0.46115385400297954, ,0.033795228668802677
34, ,PASS, ,0.06393268466000002, ,0.005419078187700774, ,0.028366279013081364, ,0.00035539766577088544, ,1.4166666666666667, ,0.5230694745716233, ,0.4655211118140446, ,0.0351625477031081
35, ,PASS, ,0.06374759240000002, ,0.005377330293827191, ,0.028578719203281564, ,0.0003521267444174774, ,1.5, ,0.5242288943466819, ,0.46197016387420664, ,0.03604008081467725
36, ,PASS, ,0.06481676100000003, ,0.005629984501526216, ,0.028369897455562135, ,0.00037543557766426644, ,1.5, ,0.5347145057735714, ,0.46150078569825104, ,0.035897226587212505
37, ,PASS, ,0.06538386450000003, ,0.005752169563564158, ,0.028371673498377586, ,0.0003862708487400795, ,1.5, ,0.5368143148814217, ,0.4624803575437236, ,0.03599926532111589
38, ,PASS, ,0.06490226380000003, ,0.005784091317482752, ,0.02832807995244995, ,0.0003847018572567466, ,1.5833333333333333, ,0.545563269593084, ,0.46317422093426663, ,0.03522377094345013
39, ,PASS, ,0.06495478756000002, ,0.0057386550696812985, ,0.02833098056733536, ,0.00038210457405822037, ,1.5833333333333333, ,0.5411618161558276, ,0.4606232525866819, ,0.035815595600089796
40, ,PASS, ,0.06577030530000004, ,0.005797962458225734, ,0.028082636385379892, ,0.00039142274977928704, ,1.5, ,0.5364947852612796, ,0.4612967082304443, ,0.03308095753147895
41, ,PASS, ,0.06653504270000002, ,0.005903769714950372, ,0.027981134133180954, ,0.0004030273739032001, ,1.5833333333333333, ,0.5414698632232317, ,0.4622150568355748, ,0.03363196669455725
42, ,PASS, ,0.06671990640000003, ,0.006080544403704075, ,0.027926642480071838, ,0.00041549263839624656, ,1.5833333333333333, ,0.5485575901235452, ,0.4613987469643477, ,0.03648905124385217
43, ,PASS, ,0.06725131290000003, ,0.00611596799597586, ,0.027977026956225386, ,0.0004222026953633922, ,1.5833333333333333, ,0.5522393327664387, ,0.4615620089385931, ,0.03506050896920471
44, ,PASS, ,0.067291806, ,0.006174086198277203, ,0.027912327843533806, ,0.00042539704648484087, ,1.5833333333333333, ,0.5529298688789553, ,0.46250076529050427, ,0.03857064141548132
45, ,PASS, ,0.06733827520000003, ,0.006134937390596337, ,0.02789040766988429, ,0.00042418185953228376, ,1.5833333333333333, ,0.5537434283469985, ,0.4614803779514704, ,0.03524417869023081
46, ,PASS, ,0.06731759320000003, ,0.006188690125408142, ,0.028085317284157467, ,0.0004266570334969079, ,1.5833333333333333, ,0.5547499128963449, ,0.46125589273688294, ,0.03697883716658844
47, ,PASS, ,0.06739333390000003, ,0.006215557447131313, ,0.027917316812003837, ,0.0004283967077814404, ,1.5833333333333333, ,0.5544267837612399, ,0.4624803575437236, ,0.035897226587212505
48, ,PASS, ,0.06754099100000002, ,0.006182879257721641, ,0.027819591757719232, ,0.000427913657444748, ,1.5833333333333333, ,0.552890149034571, ,0.4621130181016714, ,0.035468663904818266
49, ,PASS, ,0.06756828700000003, ,0.006259834669561149, ,0.027710866135384992, ,0.0004337516584054011, ,1.5833333333333333, ,0.5577658530818937, ,0.46186812514030323, ,0.035040101222424035
50, ,PASS, ,0.05747409589999997, ,0.004138847418359021, ,0.028247885173159733, ,0.00024546539301409853, ,1.25, ,0.46885367850886484, ,0.4608885532948307, ,0.029019815922124038
