Channel, ,Pass/Fail, ,Amplitude, ,Sorting Function Response, ,Mean, ,Variance
0, ,PASS, ,0.04593963618197302, ,0.035444425116433205, ,0.002545412438133098, ,0.0003562825804335408
1, ,PASS, ,0.045333745889162995, ,0.034883215968619735, ,0.002434525121616806, ,0.00034634431189356973
2, ,PASS, ,0.045775519740071005, ,0.0351180835832853, ,0.0024617407415462853, ,0.0003521203752433139
3, ,PASS, ,0.04561249385071199, ,0.035044464255476034, ,0.0025012126164330674, ,0.00035020198515081587
4, ,PASS, ,0.045373816837856004, ,0.034849928958321515, ,0.002358994321178933, ,0.0003464700183592066
5, ,PASS, ,0.045658420867663, ,0.034982544914167774, ,0.002303027559489881, ,0.00034991891893379246
6, ,PASS, ,0.045714234847478996, ,0.035039152554425954, ,0.002361882108313965, ,0.00035094065383659587
7, ,PASS, ,0.045674159198715994, ,0.03505641590396322, ,0.00237845489073446, ,0.00035085586368480316
8, ,PASS, ,0.045651891638629, ,0.03495557632315927, ,0.0022739586276167454, ,0.0003497001216098149
9, ,PASS, ,0.04547725330105601, ,0.03486379014486688, ,0.002347026766553767, ,0.0003477620494833134
10, ,PASS, ,0.045565894851591, ,0.034812122784465445, ,0.0022628926497614337, ,0.000347715294692088
11, ,PASS, ,0.045619316378809005, ,0.034855707525550055, ,0.002281989464070076, ,0.00034869293355987155
12, ,PASS, ,0.04574262777778801, ,0.03502183893644321, ,0.0023249903273675834, ,0.00035127136215269727
13, ,PASS, ,0.046005836905745, ,0.035187963570899455, ,0.0022869758509672356, ,0.00035495442538482105
14, ,PASS, ,0.046273306330262005, ,0.03540382556202801, ,0.00243170281146084, ,0.00035917602256156596
15, ,PASS, ,0.047789811707402, ,0.036887993447568275, ,0.0026101800069838034, ,0.0003860524643822186
16, ,PASS, ,0.04644360456758399, ,0.0355888813379443, ,0.002339346376697963, ,0.00036246735629794395
17, ,PASS, ,0.046199643328996995, ,0.03534661269552672, ,0.0022862764640043955, ,0.0003582598589968283
18, ,PASS, ,0.04618654902991, ,0.035363319801141734, ,0.002320715931579236, ,0.0003584377986286707
19, ,PASS, ,0.04615618053796599, ,0.03525569398538957, ,0.0023561131701840344, ,0.0003571675435670897
20, ,PASS, ,0.04627935531986, ,0.03534298075072109, ,0.002285568323768534, ,0.00035899137106884397
21, ,PASS, ,0.04654805581352701, ,0.03556677840448024, ,0.0023657408180689336, ,0.00036339020576592725
22, ,PASS, ,0.046881017664361, ,0.035858316035716854, ,0.002322253914224115, ,0.00036890735116563013
23, ,PASS, ,0.04762150760207201, ,0.03660251430919445, ,0.0025084533842351015, ,0.0003823741670355835
24, ,PASS, ,0.047390697829539995, ,0.03639917468843007, ,0.002349121338604388, ,0.0003786108794743861
25, ,PASS, ,0.047617723158567, ,0.036454507152780355, ,0.002373682295326998, ,0.0003810682601368514
26, ,PASS, ,0.04772905905268401, ,0.03654815254702205, ,0.002344294736771816, ,0.00038294400551755194
27, ,PASS, ,0.047866657942603, ,0.036709690410553185, ,0.002431050884425823, ,0.0003857601426385368
28, ,PASS, ,0.04798008799674801, ,0.036804468321005396, ,0.002462788146717959, ,0.0003876885297260403
29, ,PASS, ,0.04822130478504599, ,0.03704135561056045, ,0.0024413730704413417, ,0.00039221319927796493
30, ,PASS, ,0.048243908248897, ,0.0371710481555797, ,0.002480893871211739, ,0.00039390092398799536
31, ,PASS, ,0.048431123120017, ,0.037248251797956794, ,0.002444284871152444, ,0.0003962044303405894
32, ,PASS, ,0.048967691037604004, ,0.0375813296105109, ,0.002491088113929824, ,0.0004040749796793012
33, ,PASS, ,0.049162848943591, ,0.03785278065374614, ,0.0025445576526034715, ,0.0004086106299434488
34, ,PASS, ,0.04932685323844901, ,0.037925709102594116, ,0.0025156706182259394, ,0.0004107912523144768
35, ,PASS, ,0.049296869387064, ,0.03798391028834038, ,0.0025005924437262457, ,0.0004113326111682336
36, ,PASS, ,0.048915221390935, ,0.03758543286406917, ,0.002448531366016974, ,0.0004041313423241893
37, ,PASS, ,0.048684707273526, ,0.03731056392136654, ,0.002365085680723685, ,0.00039949078140503525
38, ,PASS, ,0.048421516026421, ,0.036997696764044664, ,0.002328635246278298, ,0.00039429342267146
39, ,PASS, ,0.049017478231962, ,0.03743735000537535, ,0.0022930610397177125, ,0.00040398224170318757
40, ,PASS, ,0.071615014026801, ,0.05612966776477681, ,0.00396275326814864, ,0.0008824733964661042
41, ,PASS, ,0.047067372553181, ,0.0356198469871775, ,0.0020034102815788043, ,0.00037015343759651395
42, ,PASS, ,0.04550206179601499, ,0.034454813596621135, ,0.0018726611698566375, ,0.00034621264442650086
43, ,PASS, ,0.04537649514896999, ,0.03434162553075342, ,0.001955405448222869, ,0.0003441009337089514
44, ,PASS, ,0.045513820315709996, ,0.03458297209638203, ,0.002018318135503869, ,0.0003473933425095748
45, ,PASS, ,0.045760040086134005, ,0.03476378367709997, ,0.0020403473732968926, ,0.0003509506283706518
46, ,PASS, ,0.045833942423671004, ,0.03493126278975618, ,0.0020808827408016744, ,0.00035312058944970086
47, ,PASS, ,0.04588129370998001, ,0.034929029118716086, ,0.0020650272391740487, ,0.000353504979638203
48, ,PASS, ,0.045737887355613, ,0.03477109531734873, ,0.002042476203462058, ,0.00035086501589540723
49, ,PASS, ,0.045698065369159005, ,0.03477310589684285, ,0.002025837557909138, ,0.00035055097140161944
50, ,PASS, ,0.045649090442565, ,0.03473906906341472, ,0.0020843290771452292, ,0.0003497772653678658
51, ,PASS, ,0.045570691328368995, ,0.0345641924088989, ,0.001993955411082278, ,0.0003474918262413662
52, ,PASS, ,0.04555083477597, ,0.03471686329005435, ,0.0021085865218264076, ,0.0003487322546268839
53, ,PASS, ,0.045615986065841996, ,0.03477635389330559, ,0.0021513912168730043, ,0.000349774427029175
54, ,PASS, ,0.04566802578595899, ,0.03496688068563303, ,0.002125584869838974, ,0.0003519785227348981
55, ,PASS, ,0.045673212258338994, ,0.03498267587300311, ,0.002216729398292438, ,0.0003521536228274218
56, ,PASS, ,0.0454553851159, ,0.03465554951133656, ,0.0021373594789799812, ,0.0003473218547437935
57, ,PASS, ,0.045351695293754005, ,0.03457722837989049, ,0.002085415756326363, ,0.00034578600301265734
58, ,PASS, ,0.045377259157898, ,0.03458368819908135, ,0.002079779141255551, ,0.0003459282584990946
59, ,PASS, ,0.045410468089339004, ,0.034631421096266386, ,0.002133847381349498, ,0.00034659258925931084
60, ,PASS, ,0.045820496689696996, ,0.034870491967611765, ,0.0021345534337168914, ,0.0003521566893913195
61, ,PASS, ,0.045611163233489, ,0.034759398834573456, ,0.002099808874393666, ,0.0003495147369807261
62, ,PASS, ,0.045397112294883996, ,0.03454977306141953, ,0.0020810794797590493, ,0.00034576749703755144
63, ,PASS, ,0.045271474864692005, ,0.03452600274886819, ,0.002069776771832668, ,0.00034460218474520953
64, ,PASS, ,0.045500334060502995, ,0.03479687524224723, ,0.002216305657297836, ,0.000348917301490273
65, ,PASS, ,0.045519494775508, ,0.03476583112934501, ,0.00221865312844597, ,0.00034873791055815004
66, ,PASS, ,0.045310731129403, ,0.03467687494950574, ,0.0021526789967955696, ,0.0003463165811601169
67, ,PASS, ,0.045136359095296, ,0.034554511228826676, ,0.002132996532701911, ,0.00034375459937689815
68, ,PASS, ,0.044909088655046, ,0.03418928566166341, ,0.0020155352827522168, ,0.0003385680758502682
69, ,PASS, ,0.044913290130808005, ,0.03412210482507996, ,0.0020043534410465543, ,0.00033800254400032944
70, ,PASS, ,0.044657794288343, ,0.03390964143731394, ,0.0020192253552269598, ,0.0003340120499620644
71, ,PASS, ,0.04446636199697, ,0.03372029279601739, ,0.001981990573130415, ,0.00033081523714113245
72, ,PASS, ,0.044317089334444004, ,0.03359476108990795, ,0.0019921067542699035, ,0.00032845125281146794
73, ,PASS, ,0.04455360815051901, ,0.03393344695618836, ,0.0020060897060855836, ,0.0003335046021840608
74, ,PASS, ,0.044254700719009, ,0.03354696073668542, ,0.0020096874714741002, ,0.000327574254023159
75, ,PASS, ,0.043738891540637995, ,0.03302367546436844, ,0.0019449991495017838, ,0.000318879518661983
76, ,PASS, ,0.04360434022502801, ,0.032801586320923, ,0.0018767406989389044, ,0.0003159117474796331
77, ,PASS, ,0.043715170099197, ,0.03282645582987256, ,0.0018707864414593482, ,0.0003170261963741356
78, ,PASS, ,0.043678581231458, ,0.032869149604855714, ,0.0018879686154433665, ,0.0003171868596327791
79, ,PASS, ,0.043774869578856, ,0.03319343566886272, ,0.0019833621836721567, ,0.0003209111581311354
80, ,PASS, ,0.044537913843398, ,0.03395296468458265, ,0.00209358934909218, ,0.00033368690866608257
81, ,PASS, ,0.045036709514414006, ,0.03466460479553329, ,0.0022464705348524414, ,0.00034432321635888773
82, ,PASS, ,0.045094483702703, ,0.03470826448324474, ,0.0021830222763155748, ,0.0003450416260888625
83, ,PASS, ,0.044883736833399995, ,0.03441633385160229, ,0.0021008261195173002, ,0.0003405957605487857
84, ,PASS, ,0.044994676098583, ,0.034386581972059745, ,0.0020964179650308575, ,0.0003413127166293368
85, ,PASS, ,0.044977110880008, ,0.034319095077967515, ,0.002117074165566046, ,0.0003405918700780876
86, ,PASS, ,0.044707991110032, ,0.03420105850787878, ,0.002104286469967774, ,0.00033739216182246726
87, ,PASS, ,0.044544835296236, ,0.03402379118129016, ,0.002038009233525475, ,0.00033446228349338713
88, ,PASS, ,0.044519373121622, ,0.03406171384306089, ,0.002089860564486973, ,0.00033459554100421173
89, ,PASS, ,0.044286863736669, ,0.033775984201670856, ,0.002086042365663575, ,0.0003302523528657752
90, ,PASS, ,0.044087598033593, ,0.03363882849769152, ,0.0019925205383818745, ,0.0003275172948198995
91, ,PASS, ,0.043919130294087005, ,0.03348226621948061, ,0.0019856388054077085, ,0.00032479920976149617
92, ,PASS, ,0.044185938728419, ,0.03379075160796836, ,0.0020160531125321215, ,0.0003296949599407451
93, ,PASS, ,0.044291009188637, ,0.03387815866391773, ,0.0020582917074714775, ,0.00033140524764719756
94, ,PASS, ,0.04417982764739499, ,0.033873819272871926, ,0.0020413140383910315, ,0.0003304328587875737
95, ,PASS, ,0.044062237037122004, ,0.03374445976409238, ,0.0020958297559854045, ,0.0003284550468518946
96, ,PASS, ,0.044104811868606, ,0.03362674850535992, ,0.002045429988598363, ,0.0003276845500924327
97, ,PASS, ,0.04395351751738501, ,0.03360019662492405, ,0.002053990305503071, ,0.0003263941975825378
98, ,PASS, ,0.04391615149756001, ,0.03342604747345772, ,0.0020360501507515425, ,0.00032442848822352197
99, ,PASS, ,0.04386807614701099, ,0.03353376844125598, ,0.00204918019843017, ,0.0003251120140134122
100, ,PASS, ,0.044136348714113004, ,0.03386843827567996, ,0.0020222268479432076, ,0.0003303169392269726
101, ,PASS, ,0.044463685013392, ,0.03415772777222551, ,0.0020590005054591494, ,0.00033549709296661377
102, ,PASS, ,0.044606787492077006, ,0.034359113955776434, ,0.0021573643063490687, ,0.0003386299318253538
103, ,PASS, ,0.044685862569933, ,0.034303692196675534, ,0.002067067374988859, ,0.000338720917983496
104, ,PASS, ,0.04462863788120899, ,0.03430047448349853, ,0.002087019650375925, ,0.0003384765479821478
105, ,PASS, ,0.044763925750036, ,0.034237738765254315, ,0.002007782957645621, ,0.0003389433008264783
106, ,PASS, ,0.044795780530446, ,0.03430364659975035, ,0.002057599599428976, ,0.0003398952675737915
107, ,PASS, ,0.044784714488011995, ,0.03417963735442447, ,0.0020684863983799146, ,0.0003387208394101097
108, ,PASS, ,0.044744673648075994, ,0.034180392090127486, ,0.0019686625592617744, ,0.00033852437062050346
109, ,PASS, ,0.044729413967577, ,0.034121948201062374, ,0.0020030269279996096, ,0.00033797627897889676
110, ,PASS, ,0.044848721002699, ,0.0341808729638116, ,0.00194160206477039, ,0.0003394377590713461
111, ,PASS, ,0.04505324780621601, ,0.03436467785268826, ,0.001934317561221753, ,0.00034289772206666736
112, ,PASS, ,0.045020806303498, ,0.034205726521000214, ,0.0018701083432082013, ,0.0003411486069643365
113, ,PASS, ,0.045220730456346996, ,0.03426228817505375, ,0.0018752757814993748, ,0.000343432299695836
114, ,PASS, ,0.047080355864908996, ,0.03561485895857799, ,0.0019973177713665012, ,0.000371569230509995
115, ,PASS, ,0.096756617362988, ,0.07416510462558785, ,0.0065133580117769565, ,0.0015662948687396587
116, ,PASS, ,0.046694666263689004, ,0.03512703324686674, ,0.001827977805252131, ,0.0003640374386753335
117, ,PASS, ,0.044436278112983, ,0.03324738693501138, ,0.0016805137811027797, ,0.00032825170737633914
118, ,PASS, ,0.04423098467520301, ,0.03327998977898325, ,0.001774870648734628, ,0.0003269161961638573
119, ,PASS, ,0.044146539467263, ,0.033218846129501926, ,0.0016992031053279393, ,0.00032562690552043075
120, ,PASS, ,0.04415983140622501, ,0.033348600725330815, ,0.0017875662450126473, ,0.00032692254019976486
121, ,PASS, ,0.043852014950664, ,0.03318126370157465, ,0.001704218660533735, ,0.0003230239414694398
122, ,PASS, ,0.043832960983052005, ,0.0330056388183069, ,0.0017014578624627214, ,0.0003211183900470028
123, ,PASS, ,0.043694334442213004, ,0.03286251852785391, ,0.0017640353023111854, ,0.0003188167555155069
124, ,PASS, ,0.0432326580163, ,0.032786735363395846, ,0.0017183184774382998, ,0.00031452926552489376
125, ,PASS, ,0.043720108996538005, ,0.03316859740919972, ,0.0017909186089129015, ,0.00032169415713843104
126, ,PASS, ,0.044087741615956993, ,0.03344109426657903, ,0.0017571696916596107, ,0.0003270688318873982
127, ,PASS, ,0.04402323171801, ,0.033443095136231185, ,0.001832685866507059, ,0.00032647527443473867
128, ,PASS, ,0.04348782933883899, ,0.03283569681898934, ,0.0017960114351070048, ,0.00031686658521639494
129, ,PASS, ,0.043720342355324, ,0.032912058151267215, ,0.001781840286164272, ,0.000319462347102305
130, ,PASS, ,0.043918897224272994, ,0.0331321041112352, ,0.0016744240086467783, ,0.00032304842111071194
131, ,PASS, ,0.043968000091194004, ,0.03315799684550322, ,0.0016988837512854737, ,0.00032363134824311604
132, ,PASS, ,0.04427532712293301, ,0.03323379730746647, ,0.0017656797917345991, ,0.0003266673212835941
133, ,PASS, ,0.044239145258279, ,0.03328346390115729, ,0.0017574542254696027, ,0.0003269062601587774
134, ,PASS, ,0.04423189219458, ,0.03339818530795046, ,0.0017469225794003384, ,0.00032788183107281785
135, ,PASS, ,0.04418706805464599, ,0.03324790141324683, ,0.0017489353531126323, ,0.0003261329974271132
136, ,PASS, ,0.044203197992541, ,0.03337123163519125, ,0.0017885965385596168, ,0.00032736060679080506
137, ,PASS, ,0.044343504833412, ,0.03341771816647005, ,0.0017695245330943887, ,0.0003288813520205376
138, ,PASS, ,0.044404586801078005, ,0.03355960815851537, ,0.0017338458930659967, ,0.000330648256184513
139, ,PASS, ,0.04429403008889199, ,0.033550482501950814, ,0.001831598111316263, ,0.00032988206040275125
140, ,PASS, ,0.044130866273075, ,0.03319052355268901, ,0.0018767587073872233, ,0.0003252851959397337
141, ,PASS, ,0.044047030841394004, ,0.0330552167659814, ,0.0017796498148252087, ,0.0003233270013244394
142, ,PASS, ,0.043771774854008, ,0.03283782427879992, ,0.0016935554987091053, ,0.00031934183865408135
143, ,PASS, ,0.043723205741894006, ,0.03268567123847277, ,0.0016882677544322025, ,0.00031757664189786496
144, ,PASS, ,0.043582083769985, ,0.032429507934827906, ,0.0016323814507343821, ,0.00031412104050005404
145, ,PASS, ,0.04346957596293201, ,0.03238173441118016, ,0.0016214382643300806, ,0.00031293111849767106
146, ,PASS, ,0.043414709253036005, ,0.03222672001511089, ,0.0016169058710860122, ,0.00031105708565034733
147, ,PASS, ,0.043361264197237, ,0.032230878479142265, ,0.0016622460019466673, ,0.0003107421145036363
148, ,PASS, ,0.043983718062172, ,0.03325540913969655, ,0.0017960862899283187, ,0.0003248675530209878
149, ,PASS, ,0.043914810434697, ,0.03316803557697196, ,0.0017363436526162542, ,0.0003235026304031883
150, ,PASS, ,0.043789548520183005, ,0.032882213518571166, ,0.001752785621756641, ,0.0003198294751853198
151, ,PASS, ,0.04359532117341701, ,0.03266050822071449, ,0.001719945389050544, ,0.0003163715702545124
152, ,PASS, ,0.043466065903413, ,0.032477335262274816, ,0.0016677877163729165, ,0.0003138289259664015
153, ,PASS, ,0.043413701930683, ,0.03227384388106069, ,0.0016406715916186625, ,0.00031153719767566205
154, ,PASS, ,0.043156705695416006, ,0.03211081397913964, ,0.0016912147545730305, ,0.0003082174606457494
155, ,PASS, ,0.043022384931964, ,0.03201126105790738, ,0.0016975452561768778, ,0.0003063062399149392
156, ,PASS, ,0.043658760992195, ,0.032780840022163756, ,0.0017199703146961217, ,0.0003181542976461615
157, ,PASS, ,0.04373375419825001, ,0.03290671209000319, ,0.001735285062660422, ,0.00031987029913881597
158, ,PASS, ,0.04342699183696799, ,0.0325541433883661, ,0.0017086712353010644, ,0.0003142435318206324
159, ,PASS, ,0.043566747243514004, ,0.03274267509092833, ,0.0017965776788389485, ,0.00031707360182803073
160, ,PASS, ,0.043710367324586004, ,0.03307483572843891, ,0.0017440806800381858, ,0.0003210934794677627
161, ,PASS, ,0.043819195539597, ,0.03311549936236633, ,0.0017758177591894971, ,0.00032235531614503124
162, ,PASS, ,0.04374714029975701, ,0.03320139466788868, ,0.0017912867323572447, ,0.00032253575727533574
163, ,PASS, ,0.04371400683963201, ,0.03323560461036886, ,0.0018348895281702475, ,0.0003226907580322496
164, ,PASS, ,0.043799197646089, ,0.033180251105369866, ,0.0017853478999875364, ,0.000322731784062773
165, ,PASS, ,0.043953286313149, ,0.03338351489796624, ,0.0017892902302001318, ,0.00032583996863735714
166, ,PASS, ,0.04392312434543799, ,0.03332057681122084, ,0.0018456107839649983, ,0.0003249821471808312
167, ,PASS, ,0.04374847908269901, ,0.03322480563651469, ,0.0018371951995070123, ,0.00032275505837834495
168, ,PASS, ,0.043486493142009995, ,0.032905630454948716, ,0.0017677436047769223, ,0.00031795238719604924
169, ,PASS, ,0.04350720761051299, ,0.032921395117128244, ,0.0017638399168363175, ,0.00031819341460002275
170, ,PASS, ,0.04323012032533001, ,0.03262464342867852, ,0.0017269083837725186, ,0.00031347928651976296
171, ,PASS, ,0.04338898948764499, ,0.032798623538507383, ,0.001753617697333718, ,0.00031618954486130097
172, ,PASS, ,0.04313785061087799, ,0.03248975070683237, ,0.0017381654519796896, ,0.0003115447280041402
173, ,PASS, ,0.043055175457267, ,0.03232316712343573, ,0.0016731315414445095, ,0.00030946929404811267
174, ,PASS, ,0.042752250275649, ,0.032072489830528066, ,0.001713138940241519, ,0.00030496299377655425
175, ,PASS, ,0.042705762856401, ,0.03183273408777376, ,0.001620175309206935, ,0.00030243692008615207
176, ,PASS, ,0.042848318387348004, ,0.03174852353967815, ,0.001526541090570923, ,0.00030288660942466
177, ,PASS, ,0.042951897796895996, ,0.03175425525726965, ,0.0016309800866379765, ,0.00030378016037682095
178, ,PASS, ,0.04289160287514, ,0.03178232893142714, ,0.0015854694765418396, ,0.0003035330891213197
179, ,PASS, ,0.042912036723124006, ,0.03160424273215797, ,0.0017062192531135437, ,0.0003021831760292057
180, ,PASS, ,0.042871287940425995, ,0.03187001819916481, ,0.0015920923569276598, ,0.00030415665376426314
181, ,PASS, ,0.04283234309636, ,0.031830583789818775, ,0.0016248437123022863, ,0.00030353657810577856
182, ,PASS, ,0.042894580823608, ,0.03195394153757258, ,0.0016101201663311527, ,0.0003051268723305889
183, ,PASS, ,0.042872558220568, ,0.03194002663085057, ,0.0016363662097178214, ,0.0003048445840064596
184, ,PASS, ,0.043214132981698, ,0.03220181011033654, ,0.0016590194850412026, ,0.0003097931620401699
185, ,PASS, ,0.043291593665561, ,0.03239473728560061, ,0.0016542701929151116, ,0.00031214756261909354
186, ,PASS, ,0.043555498042954, ,0.03288635502245739, ,0.0017230933486297663, ,0.0003186288151652614
187, ,PASS, ,0.043976265520011014, ,0.03312276468292178, ,0.0017476246357446593, ,0.00032396244742685567
188, ,PASS, ,0.044438344413118, ,0.03368913354542597, ,0.0018250578135716406, ,0.00033282676435854373
189, ,PASS, ,0.049203893946587, ,0.037881770036418516, ,0.002226572063974221, ,0.00041320239963702794
190, ,PASS, ,0.09999999997600005, ,0.08320924788470489, ,0.0067869919264112255, ,0.001821543597420561
191, ,PASS, ,0.041455551409058, ,0.032024907791987585, ,0.0018151164370097494, ,0.00029499795466293136
192, ,PASS, ,0.039138737267605, ,0.030208235143515175, ,0.0016583660104319432, ,0.00026301319861335096
193, ,PASS, ,0.038831513266598006, ,0.030012116393203565, ,0.001683263859183803, ,0.00025926805089107824
194, ,PASS, ,0.038595466506668, ,0.02977046760968834, ,0.0017194732620849406, ,0.00025555173304010075
195, ,PASS, ,0.038997520565287006, ,0.030110561297937367, ,0.0017524946274411098, ,0.0002611374825083118
196, ,PASS, ,0.038803090647031, ,0.02984990318488696, ,0.0017170489650990247, ,0.0002576271741662642
197, ,PASS, ,0.038875976873313, ,0.02994582937868307, ,0.001718179319680909, ,0.00025890883406118304
198, ,PASS, ,0.03875575923967401, ,0.029842475513127315, ,0.0017240453589624659, ,0.0002571036795568515
199, ,PASS, ,0.03835928899551899, ,0.029597237257567237, ,0.001597046678478198, ,0.00025244384823780013
200, ,PASS, ,0.038387559311261, ,0.02944875486930554, ,0.0017398164032159074, ,0.0002513269711687599
201, ,PASS, ,0.038238949353003995, ,0.0292236604003067, ,0.0016411842716205823, ,0.0002485192809649696
202, ,PASS, ,0.038097121392401, ,0.029161115122544445, ,0.0016423938077197303, ,0.00024704291960938506
203, ,PASS, ,0.038164735169252006, ,0.029116333707468738, ,0.0016872650035401119, ,0.00024713732066992895
204, ,PASS, ,0.038229954543129996, ,0.02911569458921358, ,0.001639667640662266, ,0.00024747213419089965
205, ,PASS, ,0.038197197010143, ,0.029112769780393025, ,0.0016503077748675232, ,0.0002472566220330421
206, ,PASS, ,0.03800186316129, ,0.028917810402307738, ,0.0016179390725812198, ,0.00024437581197042033
207, ,PASS, ,0.03791403063464, ,0.028765729782199555, ,0.0015963663005668384, ,0.00024258284258908168
208, ,PASS, ,0.037920055971582003, ,0.028809694220555012, ,0.0016053635073031702, ,0.00024293591143406646
209, ,PASS, ,0.037887477435828, ,0.028747661827087573, ,0.0015645816474258777, ,0.00024212352816748044
210, ,PASS, ,0.037843449035436995, ,0.028776643962102107, ,0.0016069258426924214, ,0.0002420136308876364
211, ,PASS, ,0.038043412259514006, ,0.028885469218763886, ,0.0016016159918419471, ,0.00024412707105141558
212, ,PASS, ,0.038049365400656995, ,0.028846787709140953, ,0.0015337032803806989, ,0.0002438063987511957
213, ,PASS, ,0.038148788706065, ,0.029058020642423087, ,0.0016785585783615294, ,0.0002462522190279296
214, ,PASS, ,0.038041214856708, ,0.028971070713682, ,0.0016075568964411806, ,0.0002446667726232705
215, ,PASS, ,0.03822673142505599, ,0.029086360123344066, ,0.0016756642371921167, ,0.00024677159778258744
216, ,PASS, ,0.03869298485523501, ,0.029552295233440187, ,0.0016538145111893651, ,0.0002535770401636618
217, ,PASS, ,0.03911227883545, ,0.029971795306972086, ,0.0018016197358074802, ,0.0002598451727154068
218, ,PASS, ,0.039192087458473995, ,0.03005236004121267, ,0.0018240675121254481, ,0.00026097220167479486
219, ,PASS, ,0.038976824112887, ,0.029853233337676158, ,0.0017814440384854603, ,0.0002578316684210345
220, ,PASS, ,0.03885787252514801, ,0.02973943342423633, ,0.001774820519991696, ,0.0002560429439876067
221, ,PASS, ,0.038927654622778, ,0.02959546854164183, ,0.0017418119332851304, ,0.0002552958515149841
222, ,PASS, ,0.039044626732779, ,0.0298391364435835, ,0.0017642769601521674, ,0.00025803373312990966
223, ,PASS, ,0.039945803426558, ,0.030846225759485653, ,0.0019228076293050283, ,0.0002724358101981037
224, ,PASS, ,0.039383887506585, ,0.030245475336736636, ,0.00187554364574538, ,0.0002635741025196548
225, ,PASS, ,0.038955437538081, ,0.029706522216287886, ,0.001834881525854181, ,0.000256177253547476
226, ,PASS, ,0.03895384969940701, ,0.0297359405759848, ,0.001791047448113392, ,0.0002563123060014767
227, ,PASS, ,0.038980625953961005, ,0.029696707946898517, ,0.0019008607563875488, ,0.00025614399118323924
228, ,PASS, ,0.03894836912128399, ,0.029669003312550644, ,0.0018539992498823263, ,0.0002556912556509288
229, ,PASS, ,0.038962892823276994, ,0.02959981989120184, ,0.0018119321951045083, ,0.00025522734275453576
230, ,PASS, ,0.038974241748702995, ,0.029586868237378345, ,0.0018333578509759259, ,0.00025508393453544114
231, ,PASS, ,0.039488078641903, ,0.030121539482780846, ,0.0018682880519427369, ,0.0002627891593173207
232, ,PASS, ,0.039154455335338, ,0.029796516347087326, ,0.0018763989832250342, ,0.0002579136640262886
233, ,PASS, ,0.03896136436016599, ,0.029474502605365573, ,0.001778654120067487, ,0.0002538413699372295
234, ,PASS, ,0.038876008156674004, ,0.029370677607564913, ,0.0018366676077383771, ,0.0002524324658288967
235, ,PASS, ,0.03916380443523801, ,0.029520894358291895, ,0.0017900942369845699, ,0.0002554983789594954
236, ,PASS, ,0.039722144859816996, ,0.030019199670413693, ,0.0018918846705934353, ,0.0002633851432546958
237, ,PASS, ,0.040242564082026006, ,0.030525987066429065, ,0.001977807984110244, ,0.0002711853311128542
238, ,PASS, ,0.04025824453936899, ,0.030465599927865645, ,0.0019240925551986439, ,0.000270738238241964
239, ,PASS, ,0.040404363980059, ,0.030749111025243286, ,0.002038813117280929, ,0.00027409808071631614
240, ,PASS, ,0.04054471628164701, ,0.030630110301037728, ,0.0019383591846755428, ,0.00027410177808214625
241, ,PASS, ,0.040727340000793005, ,0.030897492416737435, ,0.002038771840795498, ,0.00027767322115868835
242, ,PASS, ,0.040806816017639996, ,0.030888088637480028, ,0.0019652983520703363, ,0.0002782224416906549
243, ,PASS, ,0.041174989665562, ,0.031143768297779793, ,0.0020056746084134284, ,0.0002828640979703689
244, ,PASS, ,0.041232882504022, ,0.03113029902911569, ,0.0019690462710150913, ,0.0002831808447328717
245, ,PASS, ,0.041438919627117994, ,0.03127785654375595, ,0.002014967021777819, ,0.0002859704845974458
246, ,PASS, ,0.041348465222091006, ,0.031078553922040234, ,0.001994611578107461, ,0.0002836930320446042
247, ,PASS, ,0.041574229238369, ,0.031227550673407115, ,0.0019720522011274647, ,0.0002864076057451979
248, ,PASS, ,0.04171421199578999, ,0.031144293249108106, ,0.0019193033366802566, ,0.0002867616978745077
249, ,PASS, ,0.04176009985368799, ,0.031163541118666673, ,0.001970343740184286, ,0.0002872171928758681
250, ,PASS, ,0.041464015871127, ,0.0308003242256231, ,0.0018774407593023582, ,0.0002821927161934504
251, ,PASS, ,0.041833988098477, ,0.031215524896349555, ,0.001967104705263379, ,0.00028832732866352153
252, ,PASS, ,0.04162192156210601, ,0.03111805442382147, ,0.001893912971675361, ,0.00028580583870528174
253, ,PASS, ,0.041973962965311, ,0.03129770015038779, ,0.0019403228871374355, ,0.0002900288046952456
254, ,PASS, ,0.04245363951740599, ,0.03144867952040488, ,0.0018973002144676973, ,0.00029489155875211335
255, ,PASS, ,0.042612663756877, ,0.03179098563970135, ,0.001947665283485491, ,0.0002989577057796514
