Channel, ,Pass/Fail, ,Amplitude, ,Sorting Function Response, ,Mean, ,Variance, ,NPeaksRatio, ,PosIntegralRatio, ,ToT50, ,ToT99
40, ,PASS, ,0.036979329999999984, ,0.005903576887294013, ,0.04244173780473868, ,0.00022493882631798, ,1.8333333333333333, ,0.8279126155636618, ,0.6387012509948776, ,0.14216036407420257
41, ,PASS, ,0.07307464599999998, ,0.010655194168328976, ,0.04815210226934144, ,0.0008031169276619967, ,1.8333333333333333, ,0.7788165813552052, ,0.6384971735270709, ,0.1998530642231791
42, ,PASS, ,0.052444720000000014, ,0.008029482260229589, ,0.044585661617722094, ,0.00043436180204067543, ,1.8333333333333333, ,0.8076271685407493, ,0.6345176629048387, ,0.18305748862268117
43, ,PASS, ,0.03653814999999999, ,0.005938726533284654, ,0.04289212493194016, ,0.0002239452621797916, ,1.8333333333333333, ,0.834519563917365, ,0.6384359502867288, ,0.16375176016815984
44, ,PASS, ,0.07634806431999996, ,0.010624933154948972, ,0.047621754562355866, ,0.0008368269645247734, ,1.9166666666666667, ,0.7634967581021075, ,0.6384563580335095, ,0.1403644823575029
45, ,PASS, ,0.053535040000000006, ,0.007914298029103017, ,0.04460468615375197, ,0.0004376833152238638, ,1.9166666666666667, ,0.791197158574466, ,0.6388032897287811, ,0.20497540866512928
46, ,PASS, ,0.03360815000000003, ,0.005449742612449829, ,0.04225110459725312, ,0.00018901093191034198, ,1.9166666666666667, ,0.8344794452361196, ,0.6387624742352197, ,0.15616007836574763
47, ,PASS, ,0.07516335656, ,0.010288388693591308, ,0.045959705411318136, ,0.0007977641896509195, ,1.6666666666666667, ,0.7333026710346038, ,0.6386400277545357, ,0.14885410501826493
48, ,PASS, ,0.05004292999999998, ,0.007590123090122028, ,0.044350692897287804, ,0.00039133440807030624, ,1.8333333333333333, ,0.8062988827201287, ,0.6383747270463868, ,0.20407746780677946
49, ,PASS, ,0.03365504000000004, ,0.005480077505866603, ,0.04219239368298606, ,0.0001902895357531226, ,1.8333333333333333, ,0.8384803604271169, ,0.6382114650721414, ,0.14354809085528866
50, ,PASS, ,0.07575073860999995, ,0.010471944604368016, ,0.046250765223158706, ,0.00081870505868445, ,1.6666666666666667, ,0.7413142651418406, ,0.6383543192996062, ,0.15799677557600866
51, ,PASS, ,0.050198549999999995, ,0.007619714711738505, ,0.044166853928491255, ,0.00039457297504242466, ,1.8333333333333333, ,0.8018457696971291, ,0.6382522805657027, ,0.22270974061753843
52, ,PASS, ,0.03732846, ,0.006100859053307967, ,0.042751702599334696, ,0.00023509126916041375, ,1.8333333333333333, ,0.8322672167482073, ,0.638742066488439, ,0.17075161731393237
53, ,PASS, ,0.08034855359999996, ,0.011070265901912865, ,0.04756258326177016, ,0.0009172440252912432, ,1.75, ,0.7638175096317258, ,0.6385583967674129, ,0.1198342890961409
54, ,PASS, ,0.054653064999999994, ,0.008063552063136269, ,0.04474471382808515, ,0.00045470365762311854, ,1.9166666666666667, ,0.7929169902721245, ,0.6404767249647967, ,0.17032305463153813
55, ,PASS, ,0.038150939999999994, ,0.006208900235443969, ,0.04267833466276198, ,0.000243319493658137, ,1.75, ,0.8301337756933905, ,0.6279871839350217, ,0.18795534785004386
56, ,PASS, ,0.08213750999999997, ,0.010953959091921603, ,0.0475712587581886, ,0.000926807561893039, ,1.75, ,0.7504287161032541, ,0.6385583967674129, ,0.09412052815248668
57, ,PASS, ,0.05431846800000001, ,0.008101187376336706, ,0.044027482989530825, ,0.00045339840200572763, ,1.8333333333333333, ,0.7871051554427062, ,0.6275994367461889, ,0.18677169853676456
58, ,PASS, ,0.03785437000000002, ,0.00615319506162374, ,0.042770963451562206, ,0.00024051922435466594, ,1.8333333333333333, ,0.834285088660915, ,0.6385379890206322, ,0.16797616375176017
59, ,PASS, ,0.08317834980000001, ,0.011145800672461187, ,0.047542144390930796, ,0.0009553704614022636, ,1.75, ,0.7476613187893649, ,0.6384971735270709, ,0.10063059937552295
60, ,PASS, ,0.05671101299999999, ,0.00875571410377464, ,0.04525090381665679, ,0.000510172281498691, ,1.8333333333333333, ,0.8192119453574924, ,0.6353339727760658, ,0.21038346156200893
61, ,PASS, ,0.03710077000000002, ,0.005801201564374239, ,0.04307043212546682, ,0.00022125684055805447, ,1.75, ,0.8266600647695835, ,0.6407216179261648, ,0.15654782555458052
62, ,PASS, ,0.08613205600000003, ,0.01140870741025617, ,0.04774036288769616, ,0.0010140025094836848, ,1.75, ,0.7412141398642063, ,0.638231872818922, ,0.08787575763759924
63, ,PASS, ,0.06299645000000001, ,0.009290975605173923, ,0.04570394487785964, ,0.0006042990682673378, ,1.9166666666666667, ,0.7912854431980942, ,0.638231872818922, ,0.18620028162690558
64, ,PASS, ,0.037046749999999996, ,0.0059390534945332465, ,0.04262130225362747, ,0.00022727082632179363, ,1.8333333333333333, ,0.826867167947391, ,0.6385175812738516, ,0.21093447072508725
65, ,PASS, ,0.08693110999999999, ,0.010889266300801722, ,0.04956738294953164, ,0.0009764928754495159, ,1.8333333333333333, ,0.7413985561195021, ,0.6594763372176078, ,0.07518213914001755
66, ,PASS, ,0.068741074, ,0.00970016195389609, ,0.04610989787045162, ,0.0006881687723048136, ,1.8333333333333333, ,0.7692984357086621, ,0.6385788045141936, ,0.15516009877349443
67, ,PASS, ,0.03658124999999999, ,0.00599819487125095, ,0.04261571091181812, ,0.00022625978794413274, ,1.9166666666666667, ,0.8389446004871544, ,0.6380686108446766, ,0.23166874145425603
68, ,PASS, ,0.08723540000000002, ,0.011352470582481018, ,0.04814847847901063, ,0.0010217463055748836, ,1.75, ,0.7374317739590717, ,0.6412114038489011, ,0.08563090549172465
69, ,PASS, ,0.069434781, ,0.009984797343322162, ,0.04616709477357605, ,0.0007150122530789709, ,1.8333333333333333, ,0.7793213936558346, ,0.6384563580335095, ,0.15899675516826187
70, ,PASS, ,0.03731061000000001, ,0.006092957889915062, ,0.042221197062304844, ,0.0002329917458037709, ,1.8333333333333333, ,0.8287669632230479, ,0.615232342197098, ,0.21658741658333502
71, ,PASS, ,0.088293535, ,0.01139398956650504, ,0.04834099785473765, ,0.0010374966802324684, ,1.8333333333333333, ,0.7348997581211381, ,0.6427828003510132, ,0.08048815330299382
72, ,PASS, ,0.06834132700000001, ,0.009651365039829891, ,0.046110734056855986, ,0.0006807183410162326, ,1.9166666666666667, ,0.7696094678889791, ,0.6385379890206322, ,0.15320095508254933
73, ,PASS, ,0.03716902000000001, ,0.0059550427871335205, ,0.0425615987890043, ,0.00022810326124806865, ,1.75, ,0.8205966041423828, ,0.639946123548499, ,0.22601579559600823
74, ,PASS, ,0.08571496100000002, ,0.011079056058563574, ,0.0473764895018469, ,0.0009777005549496294, ,1.75, ,0.7250827201703584, ,0.6385583967674129, ,0.08138609416134365
75, ,PASS, ,0.05824484000000003, ,0.008291802203622082, ,0.04503738644823576, ,0.0004982334203344665, ,1.8333333333333333, ,0.7734828340113188, ,0.6384767657802902, ,0.14922144446031713
76, ,PASS, ,0.03581874, ,0.005867860739651953, ,0.04256625974204608, ,0.00021690492111051655, ,1.9166666666666667, ,0.8399610233447584, ,0.6387012509948776, ,0.21150588763494624
77, ,PASS, ,0.08509316499999998, ,0.011087223456308692, ,0.047681065225403566, ,0.0009724566746906447, ,1.75, ,0.7390896869298376, ,0.6384563580335095, ,0.07795759270218976
78, ,PASS, ,0.059048409000000024, ,0.00781321090510104, ,0.04428394593396053, ,0.0004734850014593452, ,1.75, ,0.7402533247241255, ,0.6198036774759699, ,0.14779290218566968
79, ,PASS, ,0.03547096000000001, ,0.0058153212759548935, ,0.04216395698740842, ,0.00021216274918726185, ,1.8333333333333333, ,0.8303286717888887, ,0.6306401910165099, ,0.2371788330850391
80, ,PASS, ,0.08573359700000001, ,0.011035186011572246, ,0.04753233205914164, ,0.0009759779621476898, ,1.75, ,0.7294384713520525, ,0.6380073876043346, ,0.06914144609293688
81, ,PASS, ,0.06078905900000002, ,0.008846875239212244, ,0.045137177673108715, ,0.0005542086679877547, ,1.8333333333333333, ,0.7802564931856041, ,0.6383747270463868, ,0.1678537172710761
82, ,PASS, ,0.04498844000000002, ,0.00716458156593339, ,0.04351287226628029, ,0.000330606431656989, ,1.75, ,0.8178929580021248, ,0.6329054509091652, ,0.23070957735556416
83, ,PASS, ,0.10009815999999996, ,0.012295137459146026, ,0.04911878124201547, ,0.0012684628927332475, ,1.75, ,0.7141679177434858, ,0.6383951347931675, ,0.0582028938184935
84, ,PASS, ,0.087241336, ,0.010978346678403608, ,0.04846928563090549, ,0.0009891641202983202, ,1.8333333333333333, ,0.725706392067137, ,0.6491704250933654, ,0.07842697087814535
85, ,PASS, ,0.04118048999999998, ,0.0067826229697097945, ,0.041798086361094666, ,0.00028454589171235926, ,1.75, ,0.828781008406434, ,0.5895185812534438, ,0.1434256443746046
86, ,PASS, ,0.09674182700000002, ,0.012169154170171793, ,0.04867584534601335, ,0.001211978652532137, ,1.75, ,0.7166859772190626, ,0.6387012509948776, ,0.06857002918307789
87, ,PASS, ,0.083737994, ,0.011369700593668408, ,0.04734970673516867, ,0.00097967598883505, ,1.6666666666666667, ,0.7404894819665666, ,0.6384359502867288, ,0.11185486010489581
198, ,PASS, ,0.10571867000000001, ,0.01703715451726565, ,0.04074798625497438, ,0.0018622524489668763, ,1.9166666666666667, ,0.8809369598897708, ,0.5548662272198527, ,0.051121405685598253
199, ,PASS, ,0.05991042799999998, ,0.009907308898830321, ,0.03739614803718292, ,0.0006245431764430463, ,1.9166666666666667, ,0.8572251175835852, ,0.503520336319667, ,0.037897185771718946
200, ,PASS, ,0.060010077999999994, ,0.008048100483825404, ,0.04326734327244343, ,0.0005050476668528294, ,2.0, ,0.8410683791707011, ,0.618783290136936, ,0.024672965857839634
201, ,PASS, ,0.06167942299999998, ,0.00872564948605903, ,0.041674868139956335, ,0.0005692796269946038, ,1.9166666666666667, ,0.8356646878702323, ,0.5865186424766842, ,0.0254484602355054
202, ,PASS, ,0.05998048300000002, ,0.008208059438866292, ,0.04234557104573377, ,0.0004996647758171524, ,1.8333333333333333, ,0.8283399183542796, ,0.6065386420685293, ,0.0230403461153854
203, ,PASS, ,0.05726223199999999, ,0.007944723346495212, ,0.04174147726154569, ,0.00047225046041274717, ,1.9166666666666667, ,0.8330237880944439, ,0.5972735250301014, ,0.027081079977959634
204, ,PASS, ,0.06691406632000003, ,0.008582837795987888, ,0.043836557049068386, ,0.0006069266179253947, ,2.0, ,0.8308287433666417, ,0.6235382951368339, ,0.02444848064325218
205, ,PASS, ,0.06856877370000002, ,0.00904201605852398, ,0.04401323367940736, ,0.0006509192369177231, ,2.0, ,0.8426344120256782, ,0.6223138303299932, ,0.0315503765229281
206, ,PASS, ,0.06897014524000002, ,0.008748428179244223, ,0.043679775192998316, ,0.0006303329350785291, ,2.0, ,0.8353250134576, ,0.6221505683557479, ,0.02642803208097794
207, ,PASS, ,0.07189344560000001, ,0.00959469390803609, ,0.04399644154553335, ,0.0007079407871516042, ,1.9166666666666667, ,0.8422772534446396, ,0.6223342380767739, ,0.030162649741842004
208, ,PASS, ,0.05880687100000001, ,0.007748249955929067, ,0.04228619727223935, ,0.0004740004139181974, ,1.9166666666666667, ,0.8278484698867701, ,0.6010693659313076, ,0.02404032570763862
209, ,PASS, ,0.05532958399999999, ,0.007678661825545755, ,0.04248748204761127, ,0.0004343331558659362, ,2.0, ,0.835035932050401, ,0.6134364604803983, ,0.027856574355625396
210, ,PASS, ,0.05611531900000001, ,0.0073026363872512965, ,0.04276294750990796, ,0.0004289920689081826, ,2.0, ,0.8241584802403018, ,0.6201710169180221, ,0.025489275729066754
211, ,PASS, ,0.059353375, ,0.008138758667215818, ,0.04304275376939246, ,0.0004971093714157785, ,2.0, ,0.8349330407958692, ,0.6167016999653069, ,0.028223913797677597
212, ,PASS, ,0.06608210970000002, ,0.008642417608108207, ,0.04404358256176405, ,0.0006039337094458175, ,1.9166666666666667, ,0.8382914787079327, ,0.6260280402440767, ,0.028040244076651497
213, ,PASS, ,0.071909496, ,0.009454793378266239, ,0.04458853755231607, ,0.0007175244594714883, ,1.9166666666666667, ,0.8430296257207821, ,0.627272912797698, ,0.02867288422685251
214, ,PASS, ,0.07332514909999999, ,0.010024638861376892, ,0.04422847613018571, ,0.000750598274990191, ,1.9166666666666667, ,0.838207367245731, ,0.620048570437338, ,0.030509581437113527
215, ,PASS, ,0.08257697100000001, ,0.011661632782870138, ,0.04476226625635946, ,0.0009746476787046266, ,1.9166666666666667, ,0.846773676404285, ,0.6163139527764739, ,0.032570763861962
216, ,PASS, ,0.07157970124000002, ,0.009971546944996062, ,0.04441297788548886, ,0.0007361085969567304, ,1.9166666666666667, ,0.8437677086219539, ,0.6238444113385441, ,0.030346319462868105
217, ,PASS, ,0.074215222, ,0.010156072887370502, ,0.04458372468025428, ,0.0007857138155952767, ,2.0, ,0.8497913847372957, ,0.6234158486561499, ,0.03408093712373217
218, ,PASS, ,0.07875296100000001, ,0.010503430715166635, ,0.04522224985280342, ,0.0008697169962986005, ,1.9166666666666667, ,0.8454228036399037, ,0.627150466317014, ,0.03040754270321014
219, ,PASS, ,0.074029878, ,0.010072090469328958, ,0.04474435103849799, ,0.0007808247163228185, ,1.9166666666666667, ,0.8492531119753451, ,0.62492602191792, ,0.03195853145854166
220, ,PASS, ,0.051434282000000026, ,0.00683806123205525, ,0.0426866283972572, ,0.00037220755495383614, ,1.9166666666666667, ,0.8252446001092508, ,0.6233954409093692, ,0.026081100385706414
221, ,PASS, ,0.053824382, ,0.007595513981244752, ,0.04270133586006408, ,0.00041924782130361917, ,1.9166666666666667, ,0.8325634235768002, ,0.6158853900940797, ,0.02761168139425726
222, ,PASS, ,0.04670666000000002, ,0.006430223007385946, ,0.04207745962368115, ,0.00031094169757007616, ,2.0, ,0.8249028435779, ,0.6167425154588682, ,0.027672904634599295
223, ,PASS, ,0.06236420899999997, ,0.008863214892549615, ,0.04225304871665885, ,0.0005715581040137386, ,1.9166666666666667, ,0.8365155500610219, ,0.6000489785922736, ,0.029652456072325056
224, ,PASS, ,0.09329973999999998, ,0.012772242282620335, ,0.04672348829734086, ,0.0012364614453743827, ,1.9166666666666667, ,0.8594878243554676, ,0.632660557947797, ,0.03579518785330912
225, ,PASS, ,0.09039027999999993, ,0.012821869428854412, ,0.04522400362006898, ,0.0011738251947733041, ,1.9166666666666667, ,0.8645338878600789, ,0.6159466133344218, ,0.038325748454113184
226, ,PASS, ,0.13140305, ,0.018155014881221405, ,0.04758003826493337, ,0.002425910117416146, ,1.9166666666666667, ,0.8755993854234577, ,0.614599702046897, ,0.047325564784392156
