Channel, ,Pass/Fail, ,Amplitude, ,Sorting Function Response, ,Mean, ,Variance, ,NPeaksRatio, ,PosIntegralRatio, ,ToT50, ,ToT99
0, ,PASS, ,0.08839382700000001, ,0.014731775945841928, ,0.03211012285194466, ,0.0013145616692392436, ,1.8333333333333333, ,0.7486983951273878, ,0.41690985898246974, ,0.11491602212199752
1, ,PASS, ,0.08776072000000001, ,0.014683414156992187, ,0.03228717830071958, ,0.001300408468716379, ,1.9166666666666667, ,0.752459754459676, ,0.41827717801677516, ,0.11773229117773107
2, ,PASS, ,0.088071622, ,0.014804006540541207, ,0.03240875730187282, ,0.0013148839504880272, ,1.9166666666666667, ,0.7525437005962847, ,0.4201342829738169, ,0.11373237280871819
3, ,PASS, ,0.08774196299999999, ,0.014799659919807284, ,0.032463692971225484, ,0.0013093708462098507, ,1.8333333333333333, ,0.7552286183107569, ,0.4209097773514826, ,0.12409950817330259
4, ,PASS, ,0.08787940000000001, ,0.014764476605688111, ,0.03231023796363932, ,0.0013085615276903187, ,1.9166666666666667, ,0.7531511538203027, ,0.42060366114977243, ,0.11463031366706802
5, ,PASS, ,0.08763931400000001, ,0.01474886601170729, ,0.032462619361471, ,0.0013034757500430558, ,1.9166666666666667, ,0.7541700374447181, ,0.42060366114977243, ,0.11705883553396869
6, ,PASS, ,0.08755360600000003, ,0.014729113964548162, ,0.03222556242629008, ,0.0013006683731493452, ,1.9166666666666667, ,0.7536110661864251, ,0.4202771372012816, ,0.1124262770147548
7, ,PASS, ,0.08785172600000002, ,0.014765641416731756, ,0.03252968896756087, ,0.0013082473443976922, ,1.9166666666666667, ,0.752907067148468, ,0.4201342829738169, ,0.11069161853839718
8, ,PASS, ,0.08773325000000003, ,0.014744422876569418, ,0.032396600605408464, ,0.0013046924026581244, ,1.9166666666666667, ,0.7525837670758767, ,0.4200118364931328, ,0.11634456439664496
9, ,PASS, ,0.087925237, ,0.014787771997351354, ,0.032282578888802274, ,0.001311252418739289, ,1.9166666666666667, ,0.7534214727047758, ,0.42031795269484296, ,0.11387522703618294
10, ,PASS, ,0.08776288200000003, ,0.014751025157831792, ,0.032352007178582484, ,0.0013054676693653473, ,1.9166666666666667, ,0.7537872425356451, ,0.4205220301626497, ,0.11271198546968429
11, ,PASS, ,0.08767420000000004, ,0.014770892756360702, ,0.03237025589004205, ,0.0013059191957074223, ,1.8333333333333333, ,0.7542800998862409, ,0.4208281463643599, ,0.11512009958980429
12, ,PASS, ,0.08775745900000005, ,0.014760266593026516, ,0.03236054980485868, ,0.0013065230446590666, ,1.9166666666666667, ,0.7530945742737137, ,0.4201342829738169, ,0.11314054815207852
13, ,PASS, ,0.08787247100000004, ,0.014804113084242393, ,0.03241998229092754, ,0.0013117479707395097, ,1.9166666666666667, ,0.7538131057145714, ,0.420379175935185, ,0.11818126160690598
14, ,PASS, ,0.089243404, ,0.014928275887000911, ,0.032289995319758985, ,0.001343366249828723, ,1.9166666666666667, ,0.7503239874374493, ,0.4209914083386053, ,0.11254872349543887
15, ,PASS, ,0.08912405699999999, ,0.014838178705320944, ,0.031837248399766746, ,0.0013349720256681684, ,1.8333333333333333, ,0.7497225011942193, ,0.41707312095671517, ,0.11869145527642293
16, ,PASS, ,0.08776188400000003, ,0.014749338543646079, ,0.032112558708503304, ,0.001306516110894027, ,1.8333333333333333, ,0.7535299042111683, ,0.41827717801677516, ,0.11999755107038632
17, ,PASS, ,0.088225145, ,0.014772552939974272, ,0.0321267532925573, ,0.0013153798547123029, ,1.9166666666666667, ,0.752526349767461, ,0.4184608477378013, ,0.11448745943960327
18, ,PASS, ,0.08849291000000001, ,0.014844276042340152, ,0.03240435290342993, ,0.0013245735016342455, ,1.9166666666666667, ,0.7517894612634755, ,0.4204812146690884, ,0.10989571641395074
19, ,PASS, ,0.08841605599999999, ,0.014852582155077707, ,0.03228596430607192, ,0.0013241992302460725, ,1.8333333333333333, ,0.7526787771143613, ,0.420950592845044, ,0.11665068059835514
20, ,PASS, ,0.08857174200000004, ,0.014864214424328219, ,0.03208659385921716, ,0.0013277505833110131, ,1.9166666666666667, ,0.7523317665126783, ,0.42031795269484296, ,0.11350788759413073
21, ,PASS, ,0.08890770700000003, ,0.014891321321290627, ,0.032078248885074795, ,0.001335812999093125, ,1.9166666666666667, ,0.7517020986291668, ,0.42035876818840434, ,0.1148343911348748
22, ,PASS, ,0.089516755, ,0.014935270006595973, ,0.03200539065767515, ,0.0013490336530962996, ,1.9166666666666667, ,0.7500296616106547, ,0.41901185690087955, ,0.11489561437521684
23, ,PASS, ,0.09021320899999997, ,0.015044099674013671, ,0.03213637118643803, ,0.0013695174426038299, ,1.9166666666666667, ,0.7507209066145545, ,0.42072610763045654, ,0.12083426868839411
24, ,PASS, ,0.08860867099999999, ,0.014761784393697774, ,0.031802764194693786, ,0.0013207372612845584, ,1.8333333333333333, ,0.749816488950312, ,0.41609354911124263, ,0.11226301504050938
25, ,PASS, ,0.08841774800000002, ,0.014899514434906655, ,0.032246794313465034, ,0.001328519211051484, ,1.8333333333333333, ,0.7541509663551025, ,0.4205832534029918, ,0.10814065019081243
26, ,PASS, ,0.08826364800000003, ,0.01482392971484726, ,0.03201812814377809, ,0.0013219508104669493, ,1.8333333333333333, ,0.757764373763057, ,0.4147466378237179, ,0.11273239321646497
27, ,PASS, ,0.08833606100000004, ,0.014862214972437487, ,0.03215656294705619, ,0.0013239882908867274, ,1.8333333333333333, ,0.7541658838294774, ,0.4204608069223077, ,0.11024264810922225
28, ,PASS, ,0.08782777400000003, ,0.014797137988599744, ,0.03233466413819412, ,0.00131137435342679, ,1.9166666666666667, ,0.7553418840184045, ,0.42044039917552706, ,0.11524254607048835
29, ,PASS, ,0.08759113200000006, ,0.014703159450507076, ,0.03201355011087203, ,0.00129981803697502, ,1.9166666666666667, ,0.7554234908885277, ,0.41860370196526603, ,0.10789575722944429
30, ,PASS, ,0.08697912600000005, ,0.014737271661584558, ,0.03236111985145589, ,0.0012934096679027215, ,1.9166666666666667, ,0.7583757928925233, ,0.4212158935531928, ,0.11209975306626395
31, ,PASS, ,0.08694539400000005, ,0.014677176575882878, ,0.032139612798496364, ,0.001288273670885735, ,1.9166666666666667, ,0.7557518156310844, ,0.41709352870349586, ,0.10958960021224057
32, ,PASS, ,0.08743031400000004, ,0.01479885469551363, ,0.032295960176714766, ,0.0013049838512662194, ,1.8333333333333333, ,0.7574542122227859, ,0.42041999142874636, ,0.11173241362421175
33, ,PASS, ,0.08732998800000005, ,0.014734773521979567, ,0.03232680395919819, ,0.0012990255407873018, ,1.9166666666666667, ,0.7566648549510633, ,0.41831799351033655, ,0.11346707210056937
34, ,PASS, ,0.08752167799999999, ,0.01477801963469132, ,0.03215809741219588, ,0.0013055624773566522, ,1.9166666666666667, ,0.7569576170137718, ,0.41874655619273077, ,0.11332421787310464
35, ,PASS, ,0.08756306300000002, ,0.014839161172347013, ,0.032434340482099755, ,0.0013100569009249865, ,1.8333333333333333, ,0.7580350353277876, ,0.4213179322870962, ,0.1106712107916165
36, ,PASS, ,0.08812598800000003, ,0.014830829040915268, ,0.03197103969015449, ,0.0013196428977180954, ,1.9166666666666667, ,0.7554973341687348, ,0.4175016836391094, ,0.11093651149976531
37, ,PASS, ,0.089495988, ,0.015039497603726484, ,0.032068518645799064, ,0.001358168409311252, ,1.9166666666666667, ,0.754091279101069, ,0.41856288647170464, ,0.11018142486888023
38, ,PASS, ,0.09977582699999997, ,0.016419725242293876, ,0.031214950363747673, ,0.001653770027152559, ,1.8333333333333333, ,0.7441425986794695, ,0.4177057611069162, ,0.1204669292463419
39, ,PASS, ,0.19979999999999992, ,0.034086982588486525, ,0.008222184388073638, ,0.006865004660521021, ,1.8333333333333333, ,0.8067052232764601, ,0.4709291647109243, ,0.281667721066917
40, ,PASS, ,0.09737204299999999, ,0.01638337460784143, ,0.031072376015489473, ,0.0016102688170767027, ,1.9166666666666667, ,0.7550353256886344, ,0.4183384012571172, ,0.10467133323809719
41, ,PASS, ,0.09416632299999997, ,0.015924939009534334, ,0.03118091450521418, ,0.0015141014618822721, ,1.9166666666666667, ,0.7579029461105803, ,0.4172159751841799, ,0.10634476847411277
42, ,PASS, ,0.09325360100000003, ,0.015791038302294894, ,0.03120202451439767, ,0.0014864570253797563, ,1.9166666666666667, ,0.7597080766751677, ,0.4188281871798535, ,0.11073243403195854
43, ,PASS, ,0.093079064, ,0.015760752402538228, ,0.031287717371380176, ,0.00148140845141048, ,1.9166666666666667, ,0.759362361831382, ,0.41735882941164465, ,0.11095691924654599
44, ,PASS, ,0.092970435, ,0.015767418006870842, ,0.03155529424932144, ,0.0014798336144170264, ,1.9166666666666667, ,0.7593996153638962, ,0.41864451745882736, ,0.10777331074876023
45, ,PASS, ,0.09275253099999999, ,0.015726986146943712, ,0.031547029528274935, ,0.0014729224235428616, ,1.9166666666666667, ,0.7604617060979693, ,0.41827717801677516, ,0.1096508234525826
46, ,PASS, ,0.092541099, ,0.015692753495304194, ,0.03156091028544316, ,0.0014661145753581762, ,1.9166666666666667, ,0.7597121940066124, ,0.4183588090038979, ,0.10622232199342871
47, ,PASS, ,0.09235643099999999, ,0.015680785968740084, ,0.0316070097173323, ,0.0014623199051667134, ,1.9166666666666667, ,0.7614506513046859, ,0.41858329421848534, ,0.11254872349543887
48, ,PASS, ,0.09225887500000003, ,0.01575361617178751, ,0.031644302299075534, ,0.0014662606209357692, ,1.8333333333333333, ,0.7646445659816146, ,0.419175118875125, ,0.10822228117793514
49, ,PASS, ,0.092103057, ,0.015650671141076527, ,0.03139514743929716, ,0.0014548149389135697, ,1.9166666666666667, ,0.7612065059230192, ,0.41907308014122163, ,0.10944674598477581
50, ,PASS, ,0.09198891400000002, ,0.01560153402337141, ,0.03155867010069183, ,0.0014487702788344142, ,1.9166666666666667, ,0.7611197701954447, ,0.4180526928021877, ,0.10979367768004734
51, ,PASS, ,0.09199695500000002, ,0.01566113940794598, ,0.031739917251566295, ,0.0014537222579896541, ,1.8333333333333333, ,0.7616299130410089, ,0.4218689414501745, ,0.10932429950409175
52, ,PASS, ,0.09197550400000001, ,0.01565382922834515, ,0.031505676358115145, ,0.0014534835384044122, ,1.9166666666666667, ,0.7611941867090539, ,0.4188894104201955, ,0.10858962061998735
53, ,PASS, ,0.09207164300000001, ,0.01565733453120722, ,0.031633468337360464, ,0.0014551375161112638, ,1.9166666666666667, ,0.7607031951801277, ,0.41905267239444094, ,0.11005897838819616
54, ,PASS, ,0.09221083799999999, ,0.015654629698066566, ,0.031358855473194426, ,0.0014570907644105326, ,1.9166666666666667, ,0.7600294198919979, ,0.4193791963429318, ,0.10812024244403176
55, ,PASS, ,0.09200290700000002, ,0.01561196896954793, ,0.0314146729733883, ,0.0014504795087357779, ,1.9166666666666667, ,0.7601669278165682, ,0.4171343441970572, ,0.10534478888185955
56, ,PASS, ,0.09224608600000005, ,0.01564255930443684, ,0.031368695714087465, ,0.0014565054722288548, ,1.9166666666666667, ,0.7610664669903537, ,0.4189710414073182, ,0.11342625660700802
57, ,PASS, ,0.092291276, ,0.01567696528848233, ,0.031377681976408646, ,0.0014600498094193542, ,1.9166666666666667, ,0.7598518189332837, ,0.4189098181669762, ,0.1106712107916165
58, ,PASS, ,0.091945936, ,0.015616840205520921, ,0.03147622526783127, ,0.0014493257326313976, ,1.9166666666666667, ,0.7607276826185554, ,0.41793024632150366, ,0.11226301504050938
59, ,PASS, ,0.09169376300000001, ,0.015607560370914039, ,0.03161474939940002, ,0.0014445391310073303, ,1.9166666666666667, ,0.7626497472386256, ,0.4195424583171772, ,0.11065080304483582
60, ,PASS, ,0.09207272999999996, ,0.015635336043352103, ,0.03128882395328667, ,0.001453297818782842, ,1.9166666666666667, ,0.7605432906672955, ,0.4183996244974592, ,0.10891614456847819
61, ,PASS, ,0.09194990500000001, ,0.015620536866632118, ,0.03142204633813596, ,0.0014500126797010664, ,1.9166666666666667, ,0.7617418126789403, ,0.4183384012571172, ,0.11114058896757209
62, ,PASS, ,0.09172562000000001, ,0.01558808642783406, ,0.03169355618797576, ,0.0014437504522848057, ,1.9166666666666667, ,0.7617331219186296, ,0.4181343237893104, ,0.11069161853839718
63, ,PASS, ,0.091622132, ,0.015531269345049227, ,0.03135875830623865, ,0.0014372887269579614, ,1.9166666666666667, ,0.7609025638293704, ,0.41772616885369684, ,0.10748760229383074
64, ,PASS, ,0.091463872, ,0.015550770520287374, ,0.031345052132364645, ,0.0014360244926504193, ,1.9166666666666667, ,0.7612707466896429, ,0.41811391604252973, ,0.10834472765861922
65, ,PASS, ,0.09161733500000002, ,0.01552563300583779, ,0.03132581191512418, ,0.0014363780077865501, ,1.9166666666666667, ,0.760943068361049, ,0.4178690230811616, ,0.10867125160711005
66, ,PASS, ,0.09163789500000001, ,0.015527470430826891, ,0.03136005513105855, ,0.0014367326039929071, ,1.9166666666666667, ,0.7600130168542982, ,0.41774657660047754, ,0.10718148609212057
67, ,PASS, ,0.09175801200000001, ,0.015567463944396204, ,0.031480690486643134, ,0.0014419264048263999, ,1.9166666666666667, ,0.7609008890306157, ,0.4196444970510806, ,0.10901818330238158
68, ,PASS, ,0.09195520800000001, ,0.015631113250280427, ,0.03161881411830371, ,0.0014509250676641963, ,1.9166666666666667, ,0.7610845693330859, ,0.41997102099957145, ,0.10328360645701108
69, ,PASS, ,0.092174587, ,0.015614911767766327, ,0.03138137632346279, ,0.00145291833567113, ,1.9166666666666667, ,0.760472102547555, ,0.4188281871798535, ,0.10783453398910227
70, ,PASS, ,0.09453255499999999, ,0.015907075686149026, ,0.03130358398391869, ,0.0015178535624077866, ,1.9166666666666667, ,0.7573329212308084, ,0.41903226464766025, ,0.11083447276586192
71, ,PASS, ,0.09338796, ,0.015830564874361595, ,0.031286886581212627, ,0.0014920503515272001, ,1.9166666666666667, ,0.7587734921056978, ,0.41907308014122163, ,0.11340584886022734
72, ,PASS, ,0.092722125, ,0.015708554776174676, ,0.031297752486500276, ,0.0014704051890598831, ,1.9166666666666667, ,0.759874853286902, ,0.41868533295238874, ,0.11152833615640498
73, ,PASS, ,0.09260483300000003, ,0.015681669199640647, ,0.03146809672982184, ,0.0014655225417717916, ,1.9166666666666667, ,0.7601114747680882, ,0.4192771576090284, ,0.11497724536233954
74, ,PASS, ,0.09255313800000003, ,0.015707762176710625, ,0.031538044672986265, ,0.0014674789586315287, ,1.9166666666666667, ,0.7596918493133665, ,0.4189710414073182, ,0.1149364298687782
75, ,PASS, ,0.09268987800000002, ,0.015722566476617045, ,0.031406562615844576, ,0.0014706776127348723, ,1.9166666666666667, ,0.7590992940698943, ,0.4188894104201955, ,0.10875288259423277
76, ,PASS, ,0.092640989, ,0.015704007738607553, ,0.03169973006632518, ,0.0014685926782242189, ,1.9166666666666667, ,0.7590904003179353, ,0.41921593436868637, ,0.1077120875084182
77, ,PASS, ,0.09273194400000002, ,0.015709557682037332, ,0.0312567441246097, ,0.0014704976638999904, ,1.9166666666666667, ,0.7596428670640955, ,0.41921593436868637, ,0.11050794881737107
78, ,PASS, ,0.09384086799999995, ,0.015849825920012713, ,0.031342456467521075, ,0.0015018202746026527, ,1.9166666666666667, ,0.7575014138223571, ,0.41874655619273077, ,0.11526295381726903
79, ,PASS, ,0.09307176400000002, ,0.015797257037359312, ,0.03141033602038734, ,0.001483226236045653, ,1.8333333333333333, ,0.7588732120408095, ,0.41950164282361585, ,0.11189567559845717
80, ,PASS, ,0.092317386, ,0.0156904391093741, ,0.03136606918313912, ,0.0014622683564139, ,1.9166666666666667, ,0.761019525260048, ,0.4188281871798535, ,0.11246709250831616
81, ,PASS, ,0.09230610600000001, ,0.015707803466804483, ,0.03134631464576233, ,0.001463737076025165, ,1.9166666666666667, ,0.7628841029632702, ,0.4189710414073182, ,0.11681394257260055
82, ,PASS, ,0.092300767, ,0.015707960627038737, ,0.03154598607171282, ,0.0014637140042473144, ,1.9166666666666667, ,0.7617244182899346, ,0.41988939001244874, ,0.11495683761555886
83, ,PASS, ,0.09253512800000002, ,0.01568446145246699, ,0.03136708698861248, ,0.0014651870770307311, ,1.9166666666666667, ,0.7602758853262949, ,0.4183792167506786, ,0.11109977347401073
84, ,PASS, ,0.092625851, ,0.015721826956930498, ,0.03131843234015633, ,0.0014703056273186956, ,1.9166666666666667, ,0.7598053492360287, ,0.4188281871798535, ,0.11077324952551988
85, ,PASS, ,0.09267087700000001, ,0.01572989992855653, ,0.031051451682822803, ,0.001471348808034869, ,1.9166666666666667, ,0.7608518993703703, ,0.41819554702965245, ,0.1125283157486582
86, ,PASS, ,0.09243969500000003, ,0.01572138960913633, ,0.03142379820348565, ,0.00146687711734791, ,1.9166666666666667, ,0.7609819372201717, ,0.418542478724924, ,0.11130385094181751
87, ,PASS, ,0.09241556299999999, ,0.015708203686551733, ,0.03140780653909104, ,0.0014644151109471217, ,1.8333333333333333, ,0.7608805211193577, ,0.4194404195832738, ,0.10818146568437378
88, ,PASS, ,0.09246469200000001, ,0.015693216575587508, ,0.03150503179990204, ,0.0014643935026809913, ,1.9166666666666667, ,0.7614438596744705, ,0.4193179731025897, ,0.1122426072937287
89, ,PASS, ,0.092634364, ,0.015702907917408058, ,0.03168466862476276, ,0.0014685906903543584, ,1.9166666666666667, ,0.76015779018853, ,0.4191547111283443, ,0.10550805085610497
90, ,PASS, ,0.09244437000000001, ,0.015717991656322438, ,0.031687403422011796, ,0.0014668396540999274, ,1.9166666666666667, ,0.7613641927521315, ,0.41874655619273077, ,0.11265076222934226
91, ,PASS, ,0.09231670300000001, ,0.015707252115192638, ,0.031568398868982266, ,0.0014640387745918774, ,1.9166666666666667, ,0.7615795013274308, ,0.41735882941164465, ,0.11114058896757209
92, ,PASS, ,0.09311871099999999, ,0.015762360672404985, ,0.03167171828127997, ,0.0014817168896423094, ,1.9166666666666667, ,0.7592330037697642, ,0.4188281871798535, ,0.10961000795902125
93, ,PASS, ,0.09305161800000002, ,0.01578183883354382, ,0.03154831933313606, ,0.001482640892258903, ,1.9166666666666667, ,0.7594956248742102, ,0.4188281871798535, ,0.1059570212852799
94, ,PASS, ,0.09300313700000001, ,0.01577250236683763, ,0.03138699975073978, ,0.0014811566384285353, ,1.9166666666666667, ,0.7605460854871102, ,0.41874655619273077, ,0.11205893757270259
95, ,PASS, ,0.09297609100000001, ,0.015784758303307122, ,0.03132779384630926, ,0.0014810119268305233, ,1.8333333333333333, ,0.7602932969915308, ,0.4193587885961511, ,0.11024264810922225
96, ,PASS, ,0.09307799600000001, ,0.01574911093316524, ,0.03181489330811616, ,0.0014781939590069737, ,1.8333333333333333, ,0.7528165607355325, ,0.423481153445848, ,0.10552845860288565
97, ,PASS, ,0.09340363899999998, ,0.015902689233976423, ,0.03182251894491949, ,0.0014979089487901164, ,1.8333333333333333, ,0.7612105794380223, ,0.42125670904675416, ,0.10912022203628498
98, ,PASS, ,0.09306093300000003, ,0.015848362742376047, ,0.03155389116501704, ,0.0014873802611910197, ,1.8333333333333333, ,0.7612935796848087, ,0.42072610763045654, ,0.11305891716495582
99, ,PASS, ,0.09291834799999998, ,0.0157449553792639, ,0.03158398253474419, ,0.0014767032231635404, ,1.9166666666666667, ,0.7608141868199028, ,0.41876696393951146, ,0.1110385502336687
100, ,PASS, ,0.09261393100000002, ,0.015767163214213443, ,0.031409315477071896, ,0.0014732014845436322, ,1.8333333333333333, ,0.7606674891371933, ,0.41868533295238874, ,0.10926307626374972
101, ,PASS, ,0.09247784700000002, ,0.015729901117833678, ,0.031538368770086325, ,0.001468706193583993, ,1.9166666666666667, ,0.7616958177374128, ,0.4187873716862921, ,0.11265076222934226
102, ,PASS, ,0.09243798700000004, ,0.015719289543712083, ,0.03161957678194323, ,0.0014674112175563753, ,1.9166666666666667, ,0.7612382189639569, ,0.41856288647170464, ,0.10987530866717006
103, ,PASS, ,0.09213320900000001, ,0.015659015854739267, ,0.03139646938337993, ,0.0014571922581643857, ,1.9166666666666667, ,0.7605361028208913, ,0.41654251954041754, ,0.10673251566294566
104, ,PASS, ,0.092685956, ,0.015842825319864137, ,0.03172965195481725, ,0.0014806260199239905, ,1.8333333333333333, ,0.7629437452294635, ,0.4214811942613416, ,0.10936511499765311
105, ,PASS, ,0.09276924200000003, ,0.015801876767891094, ,0.03154012755521316, ,0.0014799781564689618, ,1.9166666666666667, ,0.7621322263040574, ,0.41868533295238874, ,0.1077120875084182
106, ,PASS, ,0.092990059, ,0.015758807805085404, ,0.03170955594693986, ,0.0014796478666143113, ,1.9166666666666667, ,0.7602116738122638, ,0.42060366114977243, ,0.10293667476173955
107, ,PASS, ,0.092938513, ,0.015815069838619175, ,0.03140356337676782, ,0.001483668175466465, ,1.8333333333333333, ,0.7620387295484508, ,0.4187873716862921, ,0.10852839737964531
108, ,PASS, ,0.09402053399999998, ,0.015984308697761854, ,0.03150854405642742, ,0.0015172013595782855, ,1.9166666666666667, ,0.7610441922548602, ,0.4176241301197935, ,0.10979367768004734
109, ,PASS, ,0.10298307999999996, ,0.017378586361877252, ,0.030690007689883874, ,0.0018049221941460057, ,1.8333333333333333, ,0.755392115350883, ,0.4192975653558091, ,0.11401808126364768
110, ,PASS, ,0.1985291799999998, ,0.03283460732619827, ,0.009772891395073513, ,0.006565279249434106, ,1.8333333333333333, ,0.8027282770928578, ,0.47076590273667884, ,0.2770555702944838
111, ,PASS, ,0.09808655999999999, ,0.016778736205505042, ,0.031274576810779366, ,0.0016609206495870811, ,1.8333333333333333, ,0.7652206044985278, ,0.41958327381073857, ,0.10938552274443379
112, ,PASS, ,0.09530516799999998, ,0.016353132696867376, ,0.0315544752468317, ,0.0015717965840623162, ,1.8333333333333333, ,0.7678727446738919, ,0.42119548580641214, ,0.10905899879594294
113, ,PASS, ,0.09417851499999998, ,0.016108822718082377, ,0.03094149969214914, ,0.001531950005745093, ,1.8333333333333333, ,0.7664528722441224, ,0.41776698434725823, ,0.10524275014795616
114, ,PASS, ,0.09438351899999999, ,0.01619101841363711, ,0.03158108995947022, ,0.0015417103007566908, ,1.8333333333333333, ,0.7670059505941674, ,0.4210322238321667, ,0.09881430991204261
115, ,PASS, ,0.09418328999999999, ,0.01614257685024341, ,0.03151523196849044, ,0.0015356045985429482, ,1.9166666666666667, ,0.7671005271168976, ,0.4184404399910206, ,0.10691618538397175
116, ,PASS, ,0.09437698399999998, ,0.016215083949689547, ,0.03134404411599763, ,0.0015447204448661605, ,1.8333333333333333, ,0.7677773102306812, ,0.4201342829738169, ,0.10926307626374972
117, ,PASS, ,0.09447381199999996, ,0.016179649469064434, ,0.031264355842084854, ,0.0015431083593307321, ,1.8333333333333333, ,0.7665602011409711, ,0.4189710414073182, ,0.10489581845268464
118, ,PASS, ,0.09441039399999998, ,0.016145346644392263, ,0.031206654838125753, ,0.0015392869355987419, ,1.9166666666666667, ,0.7660733953952653, ,0.4188485949266342, ,0.10709985510499785
119, ,PASS, ,0.094175161, ,0.01615269124844962, ,0.03139259699083692, ,0.0015356463443496869, ,1.8333333333333333, ,0.7672237157136728, ,0.4192771576090284, ,0.10828350441827718
120, ,PASS, ,0.09415141299999998, ,0.016130999168585743, ,0.031242193964245626, ,0.0015331490132110834, ,1.9166666666666667, ,0.7666617247117408, ,0.4187261484459501, ,0.10675292340972634
121, ,PASS, ,0.09377862899999999, ,0.016072638631010397, ,0.031222169113671153, ,0.0015225206875686674, ,1.9166666666666667, ,0.7670638274603738, ,0.4179506540682843, ,0.11295687843105243
122, ,PASS, ,0.09395749999999999, ,0.016046825519814973, ,0.031116713582886067, ,0.0015227788008931953, ,1.9166666666666667, ,0.7646386688807575, ,0.4172159751841799, ,0.10054896838840023
123, ,PASS, ,0.09423845399999997, ,0.016164508902066988, ,0.03160354882624845, ,0.0015363421726392714, ,1.8333333333333333, ,0.76626261560944, ,0.421011816085386, ,0.10442644027672905
124, ,PASS, ,0.093509848, ,0.01602637406679271, ,0.031430513789208386, ,0.0015123019481408744, ,1.8333333333333333, ,0.7662064990967893, ,0.4193791963429318, ,0.10912022203628498
125, ,PASS, ,0.09375831799999998, ,0.016034053804197243, ,0.031245021115997636, ,0.0015179803358214348, ,1.9166666666666667, ,0.7656047979493062, ,0.41772616885369684, ,0.10801820371012837
126, ,PASS, ,0.093889668, ,0.01607909756120502, ,0.03132333781859554, ,0.0015247413287896672, ,1.9166666666666667, ,0.7658452550518565, ,0.4175833146262321, ,0.10358972265872125
127, ,PASS, ,0.09390811299999997, ,0.016095121213833805, ,0.03147371832948307, ,0.0015260938222533566, ,1.9166666666666667, ,0.7666979261498296, ,0.4187057406991694, ,0.10746719454705006
128, ,PASS, ,0.09387353399999997, ,0.016089126986232497, ,0.03190936746858227, ,0.0015240888407909371, ,1.8333333333333333, ,0.7675213934243373, ,0.4210322238321667, ,0.10797738821656701
129, ,PASS, ,0.093870278, ,0.01610827889916938, ,0.03188510064376237, ,0.0015264055849877772, ,1.8333333333333333, ,0.7668125877750127, ,0.41864451745882736, ,0.10716107834533989
130, ,PASS, ,0.09439249799999995, ,0.016155421204923262, ,0.03178766814030326, ,0.0015404415887718258, ,1.9166666666666667, ,0.7671130046909976, ,0.4185220709781433, ,0.10977326993326667
131, ,PASS, ,0.09427640399999997, ,0.016120432113818712, ,0.031603817302381584, ,0.001534344394360247, ,1.9166666666666667, ,0.7661569845036207, ,0.41764453786657413, ,0.10797738821656701
132, ,PASS, ,0.09422768099999995, ,0.016117600091385294, ,0.03165136344337871, ,0.0015339156342798024, ,1.9166666666666667, ,0.7667355148879018, ,0.41793024632150366, ,0.10691618538397175
133, ,PASS, ,0.09415804699999995, ,0.01618382141144357, ,0.032052195006612105, ,0.0015377329276662622, ,1.8333333333333333, ,0.7674922164384093, ,0.42068529213689515, ,0.10481418746556193
134, ,PASS, ,0.09395970399999995, ,0.01608672827623798, ,0.03181605949384706, ,0.001526249546575583, ,1.9166666666666667, ,0.7663714144207676, ,0.4183384012571172, ,0.10283463602783617
135, ,PASS, ,0.09394550199999997, ,0.016075078709315006, ,0.03199872332848309, ,0.001524866374536591, ,1.9166666666666667, ,0.7667102417614021, ,0.41866492520560805, ,0.10361013040550193
136, ,PASS, ,0.09382783199999996, ,0.016070518358577434, ,0.03165969657809024, ,0.0015228407485161355, ,1.9166666666666667, ,0.7661713870858623, ,0.4177873920940389, ,0.10516111916083346
137, ,PASS, ,0.09383194699999997, ,0.016053684835200574, ,0.03189687267980245, ,0.0015207881436315994, ,1.9166666666666667, ,0.7663271090825576, ,0.41874655619273077, ,0.10536519662864023
138, ,PASS, ,0.09358110399999997, ,0.015999162520361283, ,0.03163692313918083, ,0.0015121505391741607, ,1.9166666666666667, ,0.7664181618270397, ,0.41746086814554806, ,0.1043856247831677
139, ,PASS, ,0.09375951299999997, ,0.01604468457533577, ,0.0315872718503704, ,0.0015194091323188972, ,1.9166666666666667, ,0.7676293158780423, ,0.41625681108548807, ,0.10712026285177853
140, ,PASS, ,0.09343925399999999, ,0.016059395825940768, ,0.032157986731066714, ,0.0015153053889561557, ,1.9166666666666667, ,0.7683310537632522, ,0.4188690026734148, ,0.10895696006203955
141, ,PASS, ,0.09559819499999996, ,0.016299235042388782, ,0.03192557912585457, ,0.0015731184693107858, ,1.9166666666666667, ,0.7654552881424078, ,0.4183996244974592, ,0.1089977755556009
142, ,PASS, ,0.09433213999999997, ,0.01614129970139163, ,0.03170675708338605, ,0.0015375229179199774, ,1.9166666666666667, ,0.7660927969686392, ,0.4184200322442399, ,0.10373257688618599
143, ,PASS, ,0.09374300799999997, ,0.01610664012695026, ,0.032089171931144266, ,0.001523728062839056, ,1.8333333333333333, ,0.7678035516377089, ,0.4206444766433338, ,0.10381420787330871
144, ,PASS, ,0.09375264699999998, ,0.016058041197730643, ,0.031901717650823454, ,0.0015197238214804535, ,1.9166666666666667, ,0.7644121857098091, ,0.41993020550601007, ,0.1048345952123426
145, ,PASS, ,0.09357830699999999, ,0.01602472355731219, ,0.03159510555849881, ,0.0015146595237954434, ,1.9166666666666667, ,0.765685708171713, ,0.4173180139180833, ,0.10261015081324872
146, ,PASS, ,0.09394135599999998, ,0.015985197375966227, ,0.03182231217089447, ,0.0015163075917919982, ,1.9166666666666667, ,0.7649078335853814, ,0.4176241301197935, ,0.10287545152139753
147, ,PASS, ,0.09361440199999997, ,0.01606874367738296, ,0.03189338843570539, ,0.0015185270247935253, ,1.8333333333333333, ,0.7669088501519713, ,0.41942001183649313, ,0.10420195506214158
148, ,PASS, ,0.09379842699999999, ,0.016044614245555068, ,0.03184023437154344, ,0.001520226944563846, ,1.9166666666666667, ,0.7665467976760701, ,0.4183588090038979, ,0.10803861145690904
149, ,PASS, ,0.09532464799999996, ,0.01628052927873498, ,0.03176941588320646, ,0.0015674141413190078, ,1.9166666666666667, ,0.7649275497516115, ,0.41829758576355586, ,0.1084467663925226
150, ,PASS, ,0.09487328999999997, ,0.016248124348150206, ,0.03179133203826452, ,0.001556660253353016, ,1.9166666666666667, ,0.7661023384035557, ,0.4171955674373992, ,0.1099365319075121
151, ,PASS, ,0.09436402799999997, ,0.01613998521953532, ,0.03174382017252709, ,0.0015383130187008383, ,1.9166666666666667, ,0.7656839876318815, ,0.4179506540682843, ,0.10614069100630599
152, ,PASS, ,0.09440856899999997, ,0.01618542615353737, ,0.031666284650966305, ,0.0015424597996957798, ,1.8333333333333333, ,0.7672811481610392, ,0.41868533295238874, ,0.10916103752984634
153, ,PASS, ,0.09452910199999998, ,0.016172303402925702, ,0.03185400458894716, ,0.001543944872728779, ,1.9166666666666667, ,0.7652895613946216, ,0.4172976061713026, ,0.10342646068447582
154, ,PASS, ,0.09453422899999996, ,0.01621856443128385, ,0.03176461986357421, ,0.0015479711840655475, ,1.9166666666666667, ,0.7668100994552435, ,0.4188485949266342, ,0.11091610375298463
155, ,PASS, ,0.094690129, ,0.016184484554613916, ,0.03202311050839778, ,0.0015474067513811724, ,1.9166666666666667, ,0.7653168299819738, ,0.41860370196526603, ,0.10434480928960634
156, ,PASS, ,0.09483289399999997, ,0.01622301073013764, ,0.03135691906030489, ,0.0015533421949806886, ,1.9166666666666667, ,0.7643260791036662, ,0.41735882941164465, ,0.10871206710067141
157, ,PASS, ,0.09394100499999997, ,0.01605298703509359, ,0.03154527154843778, ,0.0015228054737294904, ,1.9166666666666667, ,0.7642296002167932, ,0.4184812554845819, ,0.1042835860492643
158, ,PASS, ,0.09517658499999997, ,0.01619101798163529, ,0.03205137443435848, ,0.0015555052383371415, ,1.9166666666666667, ,0.7655272115041258, ,0.4198281667721067, ,0.11163037489030836
159, ,PASS, ,0.09468575199999998, ,0.01618812503154638, ,0.031683552853105035, ,0.001547676131545833, ,1.9166666666666667, ,0.7659564462567855, ,0.4187261484459501, ,0.10520193465439481
160, ,PASS, ,0.09488834899999996, ,0.016188618254298705, ,0.03190803752578518, ,0.0015510320304657544, ,1.8333333333333333, ,0.7660288231801108, ,0.4180731005489684, ,0.10971204669292463
161, ,PASS, ,0.09475811699999999, ,0.016244249252283863, ,0.031785579954980506, ,0.0015542359472180613, ,1.9166666666666667, ,0.7665817102301116, ,0.4192567498622477, ,0.10461010999775515
162, ,PASS, ,0.09466345599999995, ,0.016198625570535537, ,0.03189439582949327, ,0.0015481841968918693, ,1.8333333333333333, ,0.7661265409156095, ,0.419175118875125, ,0.09981428950429583
163, ,PASS, ,0.09432948199999996, ,0.016167477384295047, ,0.0318564006675578, ,0.0015398504879494523, ,1.8333333333333333, ,0.7667381934216904, ,0.4177873920940389, ,0.10863043611354871
164, ,PASS, ,0.09412239199999999, ,0.016131508475176602, ,0.03189197531599355, ,0.0015328736739811488, ,1.8333333333333333, ,0.7672802650567562, ,0.4175833146262321, ,0.10663047692904226
165, ,PASS, ,0.094104885, ,0.016124769186621635, ,0.03164286716873125, ,0.0015322177955888034, ,1.9166666666666667, ,0.7675840616389515, ,0.41856288647170464, ,0.10544682761576295
166, ,PASS, ,0.09425964899999999, ,0.01616972549926262, ,0.03223612781492214, ,0.0015379997602289423, ,1.8333333333333333, ,0.7685806278939831, ,0.4212771167935348, ,0.10450807126385175
167, ,PASS, ,0.09377317899999998, ,0.016071503923018517, ,0.0317588683680129, ,0.0015222425361537564, ,1.9166666666666667, ,0.7683225247855694, ,0.4172159751841799, ,0.10634476847411277
168, ,PASS, ,0.093843025, ,0.016122265829275707, ,0.031925408721005695, ,0.0015272879474362553, ,1.8333333333333333, ,0.7682941460579915, ,0.41864451745882736, ,0.10661006918226158
169, ,PASS, ,0.09375323299999996, ,0.016101195723578696, ,0.0318658013806657, ,0.0015242380829736438, ,1.8333333333333333, ,0.7674137030026714, ,0.41735882941164465, ,0.10299789800208159
170, ,PASS, ,0.09407925199999996, ,0.016139840105093624, ,0.03186051525777025, ,0.0015337785491367395, ,1.9166666666666667, ,0.7669122766431107, ,0.4175629068794514, ,0.10299789800208159
171, ,PASS, ,0.09411486199999995, ,0.016116668543424542, ,0.03181165964894594, ,0.0015317227592882713, ,1.9166666666666667, ,0.7665241657344228, ,0.4183384012571172, ,0.10083467684332972
172, ,PASS, ,0.09405613699999997, ,0.016168349297464853, ,0.03172151945886819, ,0.001535628691096804, ,1.8333333333333333, ,0.7688734436638633, ,0.41864451745882736, ,0.10097753107079448
173, ,PASS, ,0.09418212699999996, ,0.016166957144758395, ,0.03180838780753454, ,0.0015375331170592792, ,1.8333333333333333, ,0.7682487760974583, ,0.41746086814554806, ,0.10709985510499785
174, ,PASS, ,0.09433384399999999, ,0.016185179270626765, ,0.03196916565453766, ,0.0015415945359813406, ,1.8333333333333333, ,0.7676194684874583, ,0.4188894104201955, ,0.09895716413950735
175, ,PASS, ,0.09459066199999998, ,0.016231500954885535, ,0.03198841503150956, ,0.0015498438907222832, ,1.8333333333333333, ,0.769527790036242, ,0.420950592845044, ,0.109181445276627
176, ,PASS, ,0.09523785499999995, ,0.016287285382608565, ,0.03195403459264096, ,0.0015664742722707825, ,1.9166666666666667, ,0.7673470142682071, ,0.41790983857472297, ,0.10561008959000837
177, ,PASS, ,0.09520830399999997, ,0.016371838784366176, ,0.031902373112997685, ,0.0015735016190185295, ,1.8333333333333333, ,0.7681455839261292, ,0.4193179731025897, ,0.10781412624232159
178, ,PASS, ,0.09554400799999996, ,0.01633155092945292, ,0.03154090589985918, ,0.0015761244820331778, ,1.9166666666666667, ,0.7688057935425125, ,0.4172159751841799, ,0.11095691924654599
179, ,PASS, ,0.09612933399999994, ,0.016463537654658536, ,0.03153455675384175, ,0.0015985205771493678, ,1.9166666666666667, ,0.7671709976241928, ,0.41790983857472297, ,0.1053039733882982
180, ,PASS, ,0.11287291000000005, ,0.018898974712811167, ,0.03052677251219363, ,0.002152640244452765, ,1.9166666666666667, ,0.7512247194095096, ,0.4189914491540989, ,0.12379339197159242
181, ,PASS, ,0.19173889999999977, ,0.03157417755893406, ,0.012357307614946576, ,0.006101832831222785, ,1.8333333333333333, ,0.8002373381006713, ,0.4659700822432195, ,0.2706883532989123
182, ,PASS, ,0.10138113999999998, ,0.017529532341442115, ,0.03109900367163935, ,0.0017948665620537044, ,1.8333333333333333, ,0.7728374157205813, ,0.4179914695618457, ,0.10597742903206057
183, ,PASS, ,0.09861057100000001, ,0.017098168238235383, ,0.03134974280594273, ,0.0017030302980382101, ,1.8333333333333333, ,0.7755896462797391, ,0.41893022591375684, ,0.10412032407501888
184, ,PASS, ,0.098077315, ,0.017000073928431947, ,0.03158525792594028, ,0.0016843271537867826, ,1.8333333333333333, ,0.7752440643357864, ,0.417971061815065, ,0.10132446276606599
185, ,PASS, ,0.09793048899999998, ,0.016974844496366933, ,0.03157491937317605, ,0.0016790308950213407, ,1.8333333333333333, ,0.7782581132557069, ,0.41976694353176464, ,0.10893655231525887
186, ,PASS, ,0.09783956800000002, ,0.016971588643975032, ,0.031807881087426784, ,0.0016766071234565751, ,1.8333333333333333, ,0.7763054449745521, ,0.41905267239444094, ,0.10430399379604498
187, ,PASS, ,0.09784412899999999, ,0.016909022497112833, ,0.03144629568878186, ,0.0016711671652382555, ,1.8333333333333333, ,0.7747071247525184, ,0.4177873920940389, ,0.10099793881757516
188, ,PASS, ,0.09779933799999997, ,0.016987639037580524, ,0.03128699218175139, ,0.0016778751581276255, ,1.8333333333333333, ,0.7758353017915341, ,0.4178894308279423, ,0.10781412624232159
189, ,PASS, ,0.098403118, ,0.01699442185602628, ,0.03133040906101916, ,0.0016891704672603739, ,1.8333333333333333, ,0.7744668141962058, ,0.4175629068794514, ,0.10407950858145752
190, ,PASS, ,0.09849152199999996, ,0.01702864837915026, ,0.03140406531260586, ,0.0016939349970426067, ,1.8333333333333333, ,0.7735944981204267, ,0.41703230546315384, ,0.10036529866737413
191, ,PASS, ,0.09837694699999998, ,0.017007301216305795, ,0.031359716975204587, ,0.0016898889658373984, ,1.8333333333333333, ,0.7730900118904717, ,0.4172976061713026, ,0.10173261770167956
192, ,PASS, ,0.098431302, ,0.017015409351188705, ,0.03173124074965817, ,0.001691424472860937, ,1.8333333333333333, ,0.7752286993486469, ,0.4196853125446419, ,0.10558968184322769
193, ,PASS, ,0.09782785999999999, ,0.016933482008050574, ,0.031570357051754046, ,0.0016730073789959338, ,1.8333333333333333, ,0.775817921994447, ,0.41784861533438095, ,0.10718148609212057
194, ,PASS, ,0.09777800399999997, ,0.01691735826472906, ,0.03166825094645007, ,0.0016709984980065459, ,1.8333333333333333, ,0.7747333452630253, ,0.4172363829309606, ,0.10073263810942634
195, ,PASS, ,0.097775823, ,0.016946215892848164, ,0.031503970654639696, ,0.0016737705746296704, ,1.8333333333333333, ,0.7754951641806064, ,0.4185220709781433, ,0.10128364727250465
196, ,PASS, ,0.097895977, ,0.017023021533797235, ,0.03165372866537417, ,0.001681449761959226, ,1.8333333333333333, ,0.7765657599584731, ,0.42105263157894735, ,0.10579375931103446
197, ,PASS, ,0.09765264699999998, ,0.016913975819629598, ,0.03160839485296218, ,0.0016682402946732295, ,1.8333333333333333, ,0.7753041202444217, ,0.4188077794330728, ,0.10028366768025142
198, ,PASS, ,0.09790295099999997, ,0.016991083845703737, ,0.03190288845623558, ,0.0016787345566186187, ,1.8333333333333333, ,0.7764346315031326, ,0.42115467031285075, ,0.09952858104936634
199, ,PASS, ,0.09758273999999999, ,0.016908071528048466, ,0.03172112437323728, ,0.0016667883500909567, ,1.8333333333333333, ,0.7749056806337584, ,0.41905267239444094, ,0.10052856064161955
200, ,PASS, ,0.09783946099999999, ,0.016905069975605345, ,0.03173405837252301, ,0.0016703111680395214, ,1.8333333333333333, ,0.7752411387411033, ,0.41978735127854533, ,0.09685516622109752
201, ,PASS, ,0.097696657, ,0.0169355767039363, ,0.031467038562723204, ,0.001671414473038976, ,1.8333333333333333, ,0.7767544728470669, ,0.4177873920940389, ,0.10375298463296667
202, ,PASS, ,0.09805731699999999, ,0.01694651068800724, ,0.03157949786665578, ,0.0016785572234369695, ,1.8333333333333333, ,0.775419564945864, ,0.41907308014122163, ,0.09930409583477888
203, ,PASS, ,0.09793233799999998, ,0.01696452450282239, ,0.03168583953051978, ,0.0016781378153734288, ,1.8333333333333333, ,0.7755222579364262, ,0.4184404399910206, ,0.10065100712230363
204, ,PASS, ,0.09778941899999999, ,0.016910498356466533, ,0.03143994982633007, ,0.0016707850830382808, ,1.8333333333333333, ,0.7752554904013504, ,0.41790983857472297, ,0.09861023244423583
205, ,PASS, ,0.09792514499999999, ,0.01695261909743535, ,0.03150069578143303, ,0.001676356022021071, ,1.8333333333333333, ,0.7755187807425357, ,0.4183792167506786, ,0.10318156772310769
206, ,PASS, ,0.09768317499999998, ,0.01693389090201199, ,0.03143443507899838, ,0.0016703511280004822, ,1.8333333333333333, ,0.7762767929422022, ,0.4181343237893104, ,0.1058549825513765
207, ,PASS, ,0.09785118399999997, ,0.01691520034744658, ,0.03133256355198873, ,0.0016720680810467646, ,1.8333333333333333, ,0.774367106351207, ,0.41619558784514604, ,0.10140609375318871
208, ,PASS, ,0.09828481499999994, ,0.017038181773562557, ,0.03179502516948633, ,0.001689939563602487, ,1.8333333333333333, ,0.7750620285355658, ,0.42115467031285075, ,0.09720209791636905
209, ,PASS, ,0.09840995799999999, ,0.017013481884097053, ,0.031359483130874874, ,0.0016912530317543769, ,1.8333333333333333, ,0.7749106946823909, ,0.4175220913858901, ,0.10279382053427481
210, ,PASS, ,0.09849410799999997, ,0.017046323362877452, ,0.0316491015495398, ,0.0016959198417871222, ,1.8333333333333333, ,0.7744279229693003, ,0.418542478724924, ,0.09736535989061448
211, ,PASS, ,0.09860253599999998, ,0.017054859549508077, ,0.03157320197475561, ,0.0016983898733189987, ,1.8333333333333333, ,0.7745220144102262, ,0.41866492520560805, ,0.0999367359849799
212, ,PASS, ,0.10038893399999997, ,0.017348744252901997, ,0.03149497983359523, ,0.0017578248042712517, ,1.8333333333333333, ,0.7727933374337488, ,0.41958327381073857, ,0.1030795289892043
213, ,PASS, ,0.09894014199999995, ,0.0171297993907678, ,0.031390089037509436, ,0.0017121827978633759, ,1.8333333333333333, ,0.7747810308954076, ,0.41809350829574904, ,0.1074263790534887
214, ,PASS, ,0.09863936699999998, ,0.017073389436158968, ,0.03169612288081875, ,0.0017013709873998884, ,1.9166666666666667, ,0.774342227181499, ,0.41893022591375684, ,0.10383461562008939
215, ,PASS, ,0.09851954799999996, ,0.017065772860913295, ,0.03163787956831493, ,0.0016985757377254165, ,1.9166666666666667, ,0.7750357644428402, ,0.418542478724924, ,0.10285504377461685
216, ,PASS, ,0.09865161299999999, ,0.017131285361846636, ,0.031552429130303455, ,0.0017064846056692505, ,1.8333333333333333, ,0.7764348067796517, ,0.4201342829738169, ,0.11220179180016734
217, ,PASS, ,0.09849415999999998, ,0.017078098629978944, ,0.0313767183909512, ,0.0016992827562935583, ,1.8333333333333333, ,0.7751946718686965, ,0.4179914695618457, ,0.10156935572743414
218, ,PASS, ,0.09859919599999997, ,0.017031916590982174, ,0.03149824197026591, ,0.0016960956996229563, ,1.8333333333333333, ,0.7748121806985998, ,0.4184404399910206, ,0.10295708250852023
219, ,PASS, ,0.09816260199999997, ,0.01700305650873365, ,0.03150746919420011, ,0.0016855697720707919, ,1.8333333333333333, ,0.7751662698892461, ,0.41793024632150366, ,0.10226321911797719
220, ,PASS, ,0.09948124399999998, ,0.01717041897884017, ,0.03141304274118895, ,0.0017247460869525546, ,1.8333333333333333, ,0.7735220859629509, ,0.41874655619273077, ,0.097712291585886
221, ,PASS, ,0.09854528500000001, ,0.01703631696903397, ,0.03153713153580539, ,0.001695396685320714, ,1.8333333333333333, ,0.7749745181449523, ,0.4188485949266342, ,0.10116120079182057
222, ,PASS, ,0.09811062599999998, ,0.01693486730145474, ,0.03180039748839819, ,0.0016779410397929203, ,1.8333333333333333, ,0.7753605538446235, ,0.419807759025326, ,0.10175302544846024
223, ,PASS, ,0.09772311399999999, ,0.01692790336886338, ,0.03158056293638905, ,0.0016703350965178248, ,1.8333333333333333, ,0.7759376650606908, ,0.41921593436868637, ,0.10069182261586498
224, ,PASS, ,0.097757785, ,0.016956151617131304, ,0.031471172992122605, ,0.001673558812238, ,1.8333333333333333, ,0.7758540259199905, ,0.41905267239444094, ,0.1034468684312565
225, ,PASS, ,0.097930619, ,0.01694431684584031, ,0.03132558930103467, ,0.0016762258968355838, ,1.8333333333333333, ,0.7761594552029907, ,0.4183588090038979, ,0.10465092549131651
226, ,PASS, ,0.098069764, ,0.016929129248179704, ,0.03142819279863676, ,0.00167737043115558, ,1.9166666666666667, ,0.7753621168984126, ,0.4179914695618457, ,0.10375298463296667
227, ,PASS, ,0.097921441, ,0.01699726811772787, ,0.031476524532009546, ,0.0016809814216813342, ,1.8333333333333333, ,0.7759385693810699, ,0.41939960408971244, ,0.10279382053427481
228, ,PASS, ,0.09792297399999998, ,0.016985467773401076, ,0.0313374733161364, ,0.0016801110933786006, ,1.8333333333333333, ,0.7760468515263109, ,0.4175220913858901, ,0.10534478888185955
229, ,PASS, ,0.09833167399999995, ,0.016973688507905597, ,0.031409117149976525, ,0.0016862780081036088, ,1.9166666666666667, ,0.7745028970309815, ,0.41784861533438095, ,0.10285504377461685
230, ,PASS, ,0.09819280500000001, ,0.017005024536176448, ,0.03156024133887063, ,0.0016863607282017817, ,1.8333333333333333, ,0.7754397210098969, ,0.4188281871798535, ,0.10273259729393278
231, ,PASS, ,0.09829632399999996, ,0.017005150973752953, ,0.031369020631374867, ,0.001688525480774069, ,1.9166666666666667, ,0.7741770920234909, ,0.4185220709781433, ,0.10175302544846024
232, ,PASS, ,0.09826101, ,0.01703355399888212, ,0.03144608834864594, ,0.0016904609538861155, ,1.8333333333333333, ,0.7756962409945009, ,0.41811391604252973, ,0.1088141058345748
233, ,PASS, ,0.09849727199999996, ,0.01697947293578081, ,0.03119873914971123, ,0.001689394089196721, ,1.8333333333333333, ,0.7728203508559971, ,0.41617518009836535, ,0.09883471765882329
234, ,PASS, ,0.09857689899999998, ,0.017076350665596342, ,0.03173233829603477, ,0.00169982787019534, ,1.8333333333333333, ,0.7745438464911394, ,0.41921593436868637, ,0.10328360645701108
235, ,PASS, ,0.09844366599999994, ,0.016988523399472762, ,0.031244819984081955, ,0.0016896146623388752, ,1.8333333333333333, ,0.772694312007735, ,0.4159915103773392, ,0.09326340278769821
236, ,PASS, ,0.09866314600000001, ,0.01709799647386401, ,0.031275942084467656, ,0.0017035488913236126, ,1.8333333333333333, ,0.775131298123161, ,0.4179914695618457, ,0.1039162466072121
237, ,PASS, ,0.09882505100000001, ,0.01712311846488871, ,0.03126413288355339, ,0.0017089460161209453, ,1.8333333333333333, ,0.7747953586910689, ,0.4187057406991694, ,0.10424277055570294
238, ,PASS, ,0.098329956, ,0.016998018125376012, ,0.031468646005326416, ,0.0016884454473858317, ,1.8333333333333333, ,0.7751972803944668, ,0.41790983857472297, ,0.1017938409420216
239, ,PASS, ,0.09831404799999999, ,0.017014130324850704, ,0.031388047739637964, ,0.0016899124312990373, ,1.8333333333333333, ,0.7758219139792449, ,0.4180526928021877, ,0.1056713128303504
240, ,PASS, ,0.09828803599999998, ,0.017026306142980004, ,0.03159427065629272, ,0.0016902668564532934, ,1.8333333333333333, ,0.7759640942795094, ,0.41782820758760025, ,0.10448766351707107
241, ,PASS, ,0.09821095199999999, ,0.016976768120185483, ,0.031566989875778044, ,0.001683512555544751, ,1.8333333333333333, ,0.7742253206681718, ,0.41911389563478296, ,0.09587559437562498
242, ,PASS, ,0.09762939599999998, ,0.016862656354991578, ,0.03136897126505581, ,0.0016630633617393024, ,1.8333333333333333, ,0.7753559276062726, ,0.41697108222281176, ,0.09785514581335075
243, ,PASS, ,0.09767414899999999, ,0.016915816888722922, ,0.03151904581486092, ,0.0016691933710523438, ,1.8333333333333333, ,0.7769811697830165, ,0.417971061815065, ,0.10714067059855921
244, ,PASS, ,0.098008717, ,0.01694645435549884, ,0.031480408930123875, ,0.001677202561803488, ,1.8333333333333333, ,0.7753540696689271, ,0.4192567498622477, ,0.10040611416093549
245, ,PASS, ,0.09806578699999995, ,0.016940441101714054, ,0.03135130534060529, ,0.0016777312389201964, ,1.8333333333333333, ,0.7749766313120494, ,0.4179914695618457, ,0.0968755739678782
246, ,PASS, ,0.09782840199999997, ,0.016948165617548316, ,0.03144866354488683, ,0.0016752065644597813, ,1.8333333333333333, ,0.7761166411993207, ,0.4185220709781433, ,0.10081426909654904
247, ,PASS, ,0.09824658899999997, ,0.017015232312750872, ,0.031616247980510596, ,0.0016881281895608218, ,1.8333333333333333, ,0.7752246748281895, ,0.4196649047978613, ,0.0998346972510765
248, ,PASS, ,0.098638973, ,0.017045609793859037, ,0.031356239578743283, ,0.0016984993175151529, ,1.8333333333333333, ,0.774980988002558, ,0.4181547315360911, ,0.10016122119956736
249, ,PASS, ,0.09898425299999998, ,0.017101978334143023, ,0.0314872679839391, ,0.0017103161790848953, ,1.8333333333333333, ,0.7751232374053096, ,0.41874655619273077, ,0.10199791840982837
250, ,PASS, ,0.09965212999999998, ,0.017236874298695727, ,0.031345568808248805, ,0.0017344659561450869, ,1.8333333333333333, ,0.7747011211152419, ,0.419175118875125, ,0.10261015081324872
251, ,PASS, ,0.12603069, ,0.020660663191847145, ,0.029432181165486414, ,0.002627468942463739, ,1.8333333333333333, ,0.7408168376813263, ,0.41909348788800227, ,0.1239974694393992
252, ,PASS, ,0.19087022999999975, ,0.02937266240279473, ,0.01448816469418986, ,0.0056483439818997075, ,1.75, ,0.7757501271337749, ,0.4714393583804412, ,0.251566294565417
253, ,PASS, ,0.1481174899999998, ,0.018626217143622916, ,0.028829128126344344, ,0.002782132856890775, ,1.6666666666666667, ,0.6489084701259038, ,0.43233811554866225, ,0.09238586967612906
254, ,PASS, ,0.14642075999999982, ,0.018278908372962744, ,0.029116129121956682, ,0.002699524422546634, ,1.6666666666666667, ,0.6431309532234524, ,0.4284198281667721, ,0.08393706250892839
255, ,PASS, ,0.1470722299999998, ,0.018318883944976452, ,0.028813446971735254, ,0.0027165070086381743, ,1.6666666666666667, ,0.6420286229589961, ,0.428868798595947, ,0.08348809207975347
