Channel, ,Pass/Fail, ,Amplitude, ,Sorting Function Response, ,Mean, ,Variance, ,NPeaksRatio, ,PosIntegralRatio, ,ToT50, ,ToT99
71, ,PASS, ,0.04303427000000003, ,0.00565256798968608, ,0.04385638286341095, ,0.0002538608899168614, ,1.8333333333333333, ,0.7475971762747298, ,0.39913471153649926, ,0.018917981265688454
72, ,PASS, ,0.06499972000000002, ,0.0058342625460145875, ,0.04238447182077917, ,0.00039844294193831824, ,1.8333333333333333, ,0.6177772849458454, ,0.40452235668659825, ,0.01946899042876676
73, ,PASS, ,0.045112019999999975, ,0.004907073451984969, ,0.042810201491602216, ,0.00023208454784266232, ,1.9166666666666667, ,0.6841615146193883, ,0.40662435460500806, ,0.02136691087936981
74, ,PASS, ,0.04569677, ,0.002811257985058306, ,0.043221385144384804, ,0.0001319656359904764, ,1.4166666666666667, ,0.4835582499161461, ,0.4112773208710026, ,0.01946899042876676
75, ,PASS, ,0.06734376, ,0.0038208797019655604, ,0.04470690855145813, ,0.00026937655146820274, ,1.4166666666666667, ,0.4578008450156815, ,0.41331809554907045, ,0.01908124323993388
76, ,PASS, ,0.04510884, ,0.0027118236095902055, ,0.04437290362625252, ,0.00012767328401061241, ,1.5, ,0.47105956984657577, ,0.41817513928287176, ,0.020142446072529133
77, ,PASS, ,0.04443288999999999, ,0.0030933142466532163, ,0.04394581023795433, ,0.00014383901432302943, ,1.8333333333333333, ,0.5279104512584121, ,0.4056447827595355, ,0.020142446072529133
78, ,PASS, ,0.06612051000000001, ,0.004317350742967534, ,0.04251522083365645, ,0.0002994195437451713, ,1.6666666666666667, ,0.5079706536342603, ,0.40903246872512805, ,0.019142466480275913
79, ,PASS, ,0.04255131, ,0.0030824544783520902, ,0.0449262363490541, ,0.00013685991517032247, ,1.9166666666666667, ,0.5400369660568178, ,0.4154813167078223, ,0.02153017285361523
80, ,PASS, ,0.04490810000000002, ,0.002961489026114877, ,0.045609725537642094, ,0.0001385284502979858, ,1.75, ,0.5048583105013547, ,0.41317524132160566, ,0.019693475643354216
81, ,PASS, ,0.06542099, ,0.00434462411243665, ,0.045563280548764316, ,0.00029362124013278647, ,1.6666666666666667, ,0.5001005924471215, ,0.4275627028019836, ,0.019530213669108794
82, ,PASS, ,0.04222128000000001, ,0.0028417719370972304, ,0.04610606770147548, ,0.00012571683130944682, ,1.6666666666666667, ,0.5143973233791627, ,0.4098079631027938, ,0.020428154527458622
83, ,PASS, ,0.044096410000000016, ,0.002886787580884519, ,0.04461126509663069, ,0.00013377834501005436, ,1.6666666666666667, ,0.5112231008678755, ,0.4114201750984674, ,0.019836329870818962
84, ,PASS, ,0.06620948, ,0.004287528120810273, ,0.045757552606069264, ,0.00029743140651987345, ,1.6666666666666667, ,0.49841583878014645, ,0.4234607456990674, ,0.019897553111160995
85, ,PASS, ,0.042958510000000026, ,0.0028875044555495494, ,0.04623508081569764, ,0.0001293282175278895, ,1.75, ,0.5137879910133163, ,0.4151139772657701, ,0.02155058060039591
86, ,PASS, ,0.046058750000000065, ,0.0035902332479022248, ,0.046365222624640316, ,0.0001723563018246773, ,1.9166666666666667, ,0.5633858766965436, ,0.41646088855329483, ,0.020591416501704048
87, ,PASS, ,0.07064971800000003, ,0.005376559943695385, ,0.044105719406134565, ,0.00039636416423516417, ,1.8333333333333333, ,0.5521751994630694, ,0.40986918634313585, ,0.02006081508540642
88, ,PASS, ,0.045353740000000024, ,0.003800702519435671, ,0.04591807176588233, ,0.00017988497784821036, ,1.8333333333333333, ,0.5864632036135854, ,0.4084610518152691, ,0.02157098834717659
89, ,PASS, ,0.04614652000000008, ,0.003435253868493132, ,0.04638088148609213, ,0.00016466870005881176, ,1.8333333333333333, ,0.5442621195994427, ,0.4209914083386053, ,0.02175465806820269
90, ,PASS, ,0.071869157, ,0.005146782177735135, ,0.04477862018856758, ,0.0003858126950556065, ,1.6666666666666667, ,0.5327903626895241, ,0.40848145956204973, ,0.02067304748882676
91, ,PASS, ,0.04555103000000006, ,0.003491241894165807, ,0.04661804497173528, ,0.0001619043147739881, ,1.75, ,0.5485476860983769, ,0.4062366074161752, ,0.021591396093957268
92, ,PASS, ,0.04639763000000002, ,0.003818690476714893, ,0.04540246021856697, ,0.00018534352944118784, ,1.8333333333333333, ,0.5829612943030515, ,0.4090936919654701, ,0.020795493969510827
93, ,PASS, ,0.07094555999999999, ,0.005608269804736251, ,0.044603187558621256, ,0.0004138611315367892, ,1.8333333333333333, ,0.5676195875705109, ,0.4062161996693945, ,0.021509765106834555
94, ,PASS, ,0.04451838000000001, ,0.0037104771401756925, ,0.044931128187588015, ,0.00017285726858368774, ,1.8333333333333333, ,0.5903863659297083, ,0.4067059855921308, ,0.021999551029570824
95, ,PASS, ,0.046013930000000064, ,0.0035819615805342225, ,0.046093551807105976, ,0.00017185503027799702, ,1.8333333333333333, ,0.5595401795260476, ,0.41109365114997654, ,0.020019999591845063
96, ,PASS, ,0.07049989000000001, ,0.0053391505009920456, ,0.045396380775086224, ,0.00038984611585004983, ,1.6666666666666667, ,0.5372778459316566, ,0.42368523091365484, ,0.0200812228321871
97, ,PASS, ,0.04297669000000002, ,0.0033580742053420922, ,0.04575797320177139, ,0.0001498008495672463, ,1.8333333333333333, ,0.56018158566279, ,0.411950776514765, ,0.022877084141139977
98, ,PASS, ,0.04361747999999998, ,0.0034874673774520698, ,0.044756460679169816, ,0.00015847320753281346, ,1.8333333333333333, ,0.5696361053480316, ,0.407073325034183, ,0.019775106630476928
99, ,PASS, ,0.07125704, ,0.0054456262265223385, ,0.04520558378910634, ,0.0004042473467312934, ,1.75, ,0.5545607615366147, ,0.40821615885390095, ,0.02085671720985286
100, ,PASS, ,0.04081833000000001, ,0.003207468061285483, ,0.04527568155160099, ,0.0001365173033919681, ,1.8333333333333333, ,0.5657786724645022, ,0.41025693353196874, ,0.02216281300381625
101, ,PASS, ,0.04300426, ,0.0032689921127750476, ,0.045398612874022984, ,0.00014662914581091286, ,1.8333333333333333, ,0.5504265430057045, ,0.41031815677231076, ,0.021326095385808454
102, ,PASS, ,0.07280422100000004, ,0.00537405245262007, ,0.04357859097712291, ,0.00040747682860169294, ,1.6666666666666667, ,0.5401908063008243, ,0.408399828574927, ,0.019979184098283708
103, ,PASS, ,0.03994153, ,0.003136356137235732, ,0.04676476112242608, ,0.00012682182163642147, ,2.0, ,0.558218524290771, ,0.43505234587049246, ,0.023019938368604723
198, ,PASS, ,0.1998, ,0.043162904753783614, ,0.015008911837717673, ,0.009163435079868124, ,1.8333333333333333, ,0.9591737774642211, ,0.4110324279096345, ,0.37195159282463625
199, ,PASS, ,0.1998, ,0.04184097495152142, ,0.017716814879920873, ,0.008796202122275379, ,1.8333333333333333, ,0.9543399742757096, ,0.41364461949756126, ,0.37201281606497827
200, ,PASS, ,0.1998, ,0.045863425242810334, ,0.021828072538927854, ,0.009340790838089905, ,2.0, ,0.9580574210402784, ,0.4467459847758209, ,0.4001142833819718
201, ,PASS, ,0.1998, ,0.0432292524984587, ,0.01585668576231105, ,0.009317060770598585, ,1.8333333333333333, ,0.9706558210607755, ,0.4150119385318667, ,0.3872574029101447
202, ,PASS, ,0.1998, ,0.04305155579205321, ,0.015543935808220726, ,0.00927832020509393, ,1.8333333333333333, ,0.9648072882952791, ,0.4147058223301565, ,0.3839105324381135
203, ,PASS, ,0.1998, ,0.04329294637210591, ,0.01679600200819787, ,0.009376436992557273, ,1.8333333333333333, ,0.9735028434214202, ,0.4199914287463521, ,0.39356339666537415
204, ,PASS, ,0.1998, ,0.04378124979315103, ,0.014905754874961813, ,0.009304662731194586, ,1.9166666666666667, ,0.9729220014201196, ,0.4100732638109426, ,0.3837676782106488
205, ,PASS, ,0.1998, ,0.043709418235135356, ,0.015035239244013465, ,0.009316242221359794, ,1.9166666666666667, ,0.9729525114296488, ,0.41107324340319584, ,0.3846656190689986
206, ,PASS, ,0.1998, ,0.043418792468246974, ,0.015320144496167502, ,0.009301353753193447, ,1.8333333333333333, ,0.9708631041562995, ,0.4122568927164752, ,0.384767657802902
207, ,PASS, ,0.1998, ,0.04379765753370272, ,0.014645804628834184, ,0.009300143068237237, ,1.8333333333333333, ,0.9726365306455383, ,0.40913450745903146, ,0.38240035917634335
208, ,PASS, ,0.1998, ,0.04344906722947624, ,0.01518115300935703, ,0.00928582682651354, ,1.8333333333333333, ,0.9689956321727035, ,0.41188955327442295, ,0.38323707679435115
209, ,PASS, ,0.1998, ,0.0432236382408727, ,0.015268264638914793, ,0.00926893059641792, ,1.8333333333333333, ,0.96592305766772, ,0.4128691251198955, ,0.3821350584681945
210, ,PASS, ,0.1998, ,0.04311898292054358, ,0.01553734694671545, ,0.009259839865064899, ,1.8333333333333333, ,0.9630737957899654, ,0.4148078610640599, ,0.38199220424072977
211, ,PASS, ,0.1998, ,0.04376830175172841, ,0.01505740163646464, ,0.00929548283435326, ,1.9166666666666667, ,0.9720735047019978, ,0.41072631170792434, ,0.3830125915797637
212, ,PASS, ,0.1998, ,0.043449847288503464, ,0.01527761549007783, ,0.009277606246442235, ,1.8333333333333333, ,0.96817533290073, ,0.41235893145037855, ,0.3824615824166854
213, ,PASS, ,0.1998, ,0.04407826294860007, ,0.015042142516989527, ,0.009293357085161236, ,2.0, ,0.9713880633985446, ,0.4110324279096345, ,0.3821554662149752
214, ,PASS, ,0.1998, ,0.04340377215043809, ,0.015977079656938915, ,0.009209706736027034, ,1.9166666666666667, ,0.9644266651808893, ,0.41444052162200773, ,0.37815554784596234
215, ,PASS, ,0.1998, ,0.04362698424704176, ,0.014484239882186152, ,0.009077931456961145, ,2.0, ,0.9564966872492152, ,0.40735903348911245, ,0.3628905532540152
216, ,PASS, ,0.1998, ,0.0433541530902101, ,0.01552835779392265, ,0.009117772353413685, ,1.8333333333333333, ,0.953030002369741, ,0.4141752209138589, ,0.3650333666659864
