Channel, ,Pass/Fail, ,Amplitude, ,Sorting Function Response, ,Mean, ,Variance
0, ,PASS, ,0.049762182057456, ,0.03894408330920007, ,0.004686685045265251, ,0.0003947661818191776
1, ,PASS, ,0.049243926584129, ,0.038438256985312176, ,0.0047043709335133225, ,0.0003855480382020699
2, ,PASS, ,0.049399137001437, ,0.038610157142906755, ,0.004724736292286063, ,0.0003884479645626888
3, ,PASS, ,0.048920713713583, ,0.03819987931340457, ,0.004628907534433711, ,0.00038058884002600195
4, ,PASS, ,0.048586183621324, ,0.03795038024374235, ,0.004593259470828115, ,0.00037557156140224853
5, ,PASS, ,0.048288525093827, ,0.0376634332271348, ,0.00458189877811737, ,0.0003703774444765846
6, ,PASS, ,0.04810946029615501, ,0.03752808787929971, ,0.004516850579631288, ,0.00036774105140611004
7, ,PASS, ,0.048173810213992994, ,0.03760389740879291, ,0.004512879835594256, ,0.0003689230812126332
8, ,PASS, ,0.048980552827604, ,0.03776410145130166, ,0.0041255211453862925, ,0.00037698655353924124
9, ,PASS, ,0.067567291570239, ,0.05397110107639543, ,0.006149997792867956, ,0.0007434281584237542
10, ,PASS, ,0.035245039657639, ,0.025304338028610762, ,0.0027893088534391495, ,0.00018192378114578566
11, ,PASS, ,0.030834059915488002, ,0.021017887929778874, ,0.002396693748157568, ,0.0001322059620078272
12, ,PASS, ,0.029519314969301, ,0.020678680912709406, ,0.0020046780095078214, ,0.00012461999402858258
13, ,PASS, ,0.029336152756447, ,0.020551290293625932, ,0.002271981297532857, ,0.00012308638172153018
14, ,PASS, ,0.029728140847078, ,0.02087820694529664, ,0.0021884241491134764, ,0.0001266893032750248
15, ,PASS, ,0.029498738355781, ,0.02081652220054852, ,0.0021974793920549133, ,0.0001253268000657141
16, ,PASS, ,0.029185004102541996, ,0.020637947096419324, ,0.002145906764963522, ,0.0001229234484003361
17, ,PASS, ,0.029401121297401, ,0.02088896533828787, ,0.002183567787221017, ,0.00012532013987955819
18, ,PASS, ,0.029417277592132, ,0.02105761369682273, ,0.0022293517403195705, ,0.00012636747922542175
19, ,PASS, ,0.029361828397453, ,0.020997749078359617, ,0.002228900042762151, ,0.00012577391979566994
20, ,PASS, ,0.029468198941474004, ,0.02121952570982431, ,0.0023246115703794913, ,0.00012753856218240828
21, ,PASS, ,0.029442748596432994, ,0.021185445216271307, ,0.0022749000494341406, ,0.0001272434480946287
22, ,PASS, ,0.029388873200775, ,0.020995002527211173, ,0.0022133478967197393, ,0.00012584254519659488
23, ,PASS, ,0.029189897422786003, ,0.02075783591285489, ,0.0021893889583941566, ,0.00012358767355070125
24, ,PASS, ,0.029061679774598004, ,0.0207542854435, ,0.002221536593003774, ,0.00012301781294849517
25, ,PASS, ,0.02891957268314, ,0.020322861746852577, ,0.0020930361586726305, ,0.00011988395803194325
26, ,PASS, ,0.028564775734468, ,0.019945772380175805, ,0.0020531110927715355, ,0.00011622650735581351
27, ,PASS, ,0.028404817748312005, ,0.019833440702032832, ,0.002129944732389132, ,0.00011496611060167032
28, ,PASS, ,0.029117412120165997, ,0.019912259151520343, ,0.002359214480445857, ,0.00011845891114332413
29, ,PASS, ,0.028316947715473002, ,0.019499898113148523, ,0.002157550699478198, ,0.00011265843115773835
30, ,PASS, ,0.028310362713343, ,0.019655722899064372, ,0.0020527870495764718, ,0.00011350895702151298
31, ,PASS, ,0.028279777170171, ,0.01970993845140786, ,0.002029331014047254, ,0.00011368788880695532
32, ,PASS, ,0.028344458867807003, ,0.019903057783484463, ,0.0021171416272045282, ,0.00011505242041947085
33, ,PASS, ,0.026105338620525602, ,0.017500987103677024, ,0.006439022406157578, ,9.311544232235137e-05
34, ,PASS, ,0.028205217132928995, ,0.01769867902239682, ,0.0009353984506306158, ,0.00010197067759858865
35, ,PASS, ,0.028479122718594, ,0.020333366147817212, ,0.002127319030175353, ,0.00011806882814425788
36, ,PASS, ,0.028617639146597, ,0.020300820498788806, ,0.002077789846633389, ,0.00011845016671838925
37, ,PASS, ,0.028592387722941003, ,0.020284611815821987, ,0.0021647889632438293, ,0.00011824284611505855
38, ,PASS, ,0.028480463508984998, ,0.020181513184548805, ,0.0021142244249391564, ,0.00011718678420668505
39, ,PASS, ,0.028327457481563997, ,0.020028950373436778, ,0.00208177883528857, ,0.00011567301758613329
40, ,PASS, ,0.028332841531201997, ,0.019947340638435392, ,0.0021223671234785997, ,0.00011523178311507905
41, ,PASS, ,0.032169373274935006, ,0.019376227223261246, ,0.00277105712973696, ,0.0001271108456896312
42, ,PASS, ,0.028829687352926, ,0.02083204803710374, ,0.0021658819559835824, ,0.00012242208127337658
43, ,PASS, ,0.028581851076495, ,0.020551399020278485, ,0.0022479911721173798, ,0.00011978082247812096
44, ,PASS, ,0.028323053468763, ,0.02024285069484984, ,0.0021649264579658074, ,0.000116845604643362
45, ,PASS, ,0.028296798821708997, ,0.02006577080119097, ,0.002113341028612415, ,0.00011575118439496497
46, ,PASS, ,0.028135297734965002, ,0.019936450378863647, ,0.002082302236042114, ,0.00011434079078765985
47, ,PASS, ,0.028066918936168, ,0.01980807811919525, ,0.0020684919755093786, ,0.00011333957098691711
48, ,PASS, ,0.028374001501635993, ,0.021363633983639517, ,0.0022989851218817, ,0.00012349984632973845
49, ,PASS, ,0.028417621152307997, ,0.02135797866897063, ,0.0022966354937333905, ,0.00012366096307335608
50, ,PASS, ,0.028020079340551, ,0.020233588770729883, ,0.002253883576581345, ,0.00011555026685282875
51, ,PASS, ,0.027951683349885004, ,0.020091209429165632, ,0.0021178523148156878, ,0.00011445891539962972
52, ,PASS, ,0.027724013413468, ,0.019686708081862406, ,0.0020736211681306863, ,0.00011123139517262826
53, ,PASS, ,0.027632755633059003, ,0.019721635973568418, ,0.002091347100249799, ,0.00011105835640627084
54, ,PASS, ,0.02761087801315, ,0.01970325834183635, ,0.0020867737317890847, ,0.00011085914793932941
55, ,PASS, ,0.027737416615987, ,0.019804407096944282, ,0.0021059673141608135, ,0.00011192703200354142
56, ,PASS, ,0.027480135189831004, ,0.01949619492751992, ,0.002071823030716093, ,0.00010917857746858966
57, ,PASS, ,0.027325682872607, ,0.01939690199390116, ,0.0020568589917213426, ,0.00010800742469094987
58, ,PASS, ,0.027247708764055002, ,0.01930011542001895, ,0.0020041535316795774, ,0.00010715968551572336
59, ,PASS, ,0.027066961300041003, ,0.01912393260316722, ,0.001993287497083421, ,0.00010547626287795377
60, ,PASS, ,0.027218225188905, ,0.019028166350262332, ,0.0019805176342612605, ,0.00010554675286843453
61, ,PASS, ,0.027066217537739, ,0.018732939887636673, ,0.0019465577566978184, ,0.00010333213839813409
62, ,PASS, ,0.02686465433738, ,0.018659234601345907, ,0.001962075381871942, ,0.00010217437086986202
63, ,PASS, ,0.026842865304666, ,0.018677083254564457, ,0.001997228570148256, ,0.00010216773679994439
64, ,PASS, ,0.026852268951278, ,0.018860151491033223, ,0.001969646109649823, ,0.00010319612157740941
65, ,PASS, ,0.026826783710174003, ,0.018825357804472316, ,0.0019839516826435934, ,0.0001029099706626257
66, ,PASS, ,0.026783044184186, ,0.018958693822580846, ,0.0020303873598525907, ,0.00010346513013071614
67, ,PASS, ,0.027126824031131, ,0.019408900170920167, ,0.002180248475704754, ,0.00010726581724017024
68, ,PASS, ,0.027330399888682, ,0.019479078847112728, ,0.002094099432038618, ,0.00010845379929978169
69, ,PASS, ,0.027580736796548003, ,0.01983383468036714, ,0.0021312341341947942, ,0.00011142883557633128
70, ,PASS, ,0.027760702950271002, ,0.020032842204231734, ,0.0021131777489425897, ,0.00011327220868380527
71, ,PASS, ,0.027856884631505, ,0.020267410816080106, ,0.002199422376996609, ,0.00011501583694005076
72, ,PASS, ,0.027726703415843997, ,0.020229309362905522, ,0.002200124949247531, ,0.00011424057103994316
73, ,PASS, ,0.027672590937234003, ,0.020173857228350148, ,0.002156945341460897, ,0.00011370041643865739
74, ,PASS, ,0.027579270761117998, ,0.020081088512695956, ,0.0021362753759839826, ,0.00011279994694603534
75, ,PASS, ,0.027434761474125997, ,0.019953740807302774, ,0.0021359847464297874, ,0.00011150000177186149
76, ,PASS, ,0.027410004765953004, ,0.019689353078384198, ,0.002091420462269516, ,0.00010994283729149158
77, ,PASS, ,0.027258669648607, ,0.019502807049577502, ,0.002069116893482394, ,0.00010830731199732052
78, ,PASS, ,0.027050343912974, ,0.01919964108569548, ,0.0020413653087661874, ,0.00010580894148278538
79, ,PASS, ,0.027051154291362005, ,0.019211329009809056, ,0.0020428450293040086, ,0.00010588686243841602
80, ,PASS, ,0.027103537544843993, ,0.019391569913646635, ,0.002192916312075271, ,0.00010708112786400094
81, ,PASS, ,0.02712268005003, ,0.019384983271023552, ,0.0020187184519443574, ,0.00010713152609171693
82, ,PASS, ,0.027239196066459997, ,0.019393397466964005, ,0.002073442087202252, ,0.00010761767430384512
83, ,PASS, ,0.030579368038877, ,0.022797166627622715, ,0.0024524239202488394, ,0.0001419684402438956
84, ,PASS, ,0.06614078490321298, ,0.05316865439433055, ,0.00624942613007747, ,0.0007165065112406955
85, ,PASS, ,0.032412352129434996, ,0.023618630351412526, ,0.0025657608796868857, ,0.0001558164686032627
86, ,PASS, ,0.030755770873132998, ,0.022536440636093304, ,0.002363490443449653, ,0.00014109736071043767
87, ,PASS, ,0.030681695904962995, ,0.022435149848562715, ,0.002413258199151748, ,0.00014010272363023814
88, ,PASS, ,0.030605190925961, ,0.0227835009725471, ,0.002452255346835898, ,0.00014191118427410456
89, ,PASS, ,0.030661087298521003, ,0.022817076699500095, ,0.0024524340753324736, ,0.00014236665724087148
90, ,PASS, ,0.031052673820199, ,0.02291794296905125, ,0.002493054918069684, ,0.00014478035257219698
91, ,PASS, ,0.030787745064603998, ,0.022928704562128525, ,0.0025289830202755276, ,0.00014361505316308351
92, ,PASS, ,0.030879488344891, ,0.02297646976329889, ,0.0024925026584361396, ,0.0001443660586042415
93, ,PASS, ,0.03096636511248, ,0.02303114741681908, ,0.0024814961898121436, ,0.0001450906314329862
94, ,PASS, ,0.030994060249667003, ,0.023043289726295223, ,0.00249128724672328, ,0.00014528702796050798
95, ,PASS, ,0.030955308602721998, ,0.023041840809310966, ,0.002462082954956574, ,0.00014509387570156912
96, ,PASS, ,0.030876211728373, ,0.022869003354933214, ,0.002635359536694983, ,0.0001436243007116601
97, ,PASS, ,0.031187696505853003, ,0.023132272941901257, ,0.0024976420472408068, ,0.0001467532045864623
98, ,PASS, ,0.031519133473262004, ,0.02323907621967512, ,0.0026326891473381084, ,0.00014904413956671835
99, ,PASS, ,0.031628276423612996, ,0.02310804044283831, ,0.002543110954068554, ,0.0001486854737383232
100, ,PASS, ,0.031375915805054, ,0.02328905624580447, ,0.002516251372748151, ,0.00014865747771439442
101, ,PASS, ,0.03184347622207401, ,0.02341519628136324, ,0.002677538379893894, ,0.00015176376735183593
102, ,PASS, ,0.031773656889257, ,0.023574809029400706, ,0.002538148846903546, ,0.0001524038445130223
103, ,PASS, ,0.03178430192552299, ,0.023493089439131132, ,0.0025378006541017066, ,0.00015193217630015839
104, ,PASS, ,0.032010186832907996, ,0.023624132544910033, ,0.0027651523943980076, ,0.00015387558422081247
105, ,PASS, ,0.032793955348318006, ,0.023973478283183542, ,0.0026355329750996294, ,0.00015999391908940458
106, ,PASS, ,0.032738078812295, ,0.024072657724359552, ,0.0025863200819592953, ,0.00016040608195238727
107, ,PASS, ,0.032781131041325996, ,0.023712071321891084, ,0.0025804635878532768, ,0.00015824138458827436
108, ,PASS, ,0.027014486166909005, ,0.01619787377831141, ,0.0016251617526163446, ,8.940338500645271e-05
