Channel, ,Pass/Fail, ,Amplitude, ,Sorting Function Response, ,Mean, ,Variance, ,NPeaksRatio, ,PosIntegralRatio, ,ToT50, ,ToT99
92, ,PASS, ,0.063589684, ,0.008783268349727414, ,0.040320185953143815, ,0.0005649255463290058, ,1.6666666666666667, ,0.6965100839144406, ,0.5311524254607048, ,0.12969123079120834
93, ,PASS, ,0.063854906, ,0.0088743852419567, ,0.04034763807738618, ,0.0005731092806319071, ,1.6666666666666667, ,0.6995483538472403, ,0.5306218240444073, ,0.13069121038346157
94, ,PASS, ,0.05541931, ,0.007826761429445186, ,0.03993320619252668, ,0.00043890001011057393, ,1.75, ,0.7102543654008404, ,0.5230097344952144, ,0.13414011958939615
95, ,PASS, ,0.03941087000000002, ,0.004895583621192887, ,0.03937335249137773, ,0.00019540509631652288, ,1.75, ,0.6622183505898458, ,0.5197649027570866, ,0.07163119120017959
96, ,PASS, ,0.022390570000000012, ,0.0034840938638438816, ,0.038625354100732645, ,7.904405142581183e-05, ,2.0, ,0.7590994091901735, ,0.49511234464602766, ,0.0894879696332728
97, ,PASS, ,0.04514881999999999, ,0.0068203954348095095, ,0.03926700635966613, ,0.00031144476204102313, ,1.75, ,0.7388275473415925, ,0.5136629864696639, ,0.11040591008346769
98, ,PASS, ,0.056163990000000004, ,0.008284197529509593, ,0.03968172162241587, ,0.0004704991420741686, ,1.75, ,0.7257723551308821, ,0.5219077161690577, ,0.1100181628946348
99, ,PASS, ,0.056891558000000036, ,0.008372139616809375, ,0.03986381653149936, ,0.0004818338042172947, ,1.75, ,0.7239553928378942, ,0.5221730168772066, ,0.10652843819513888
100, ,PASS, ,0.04891103999999996, ,0.007388910109540717, ,0.03936181312973205, ,0.00036553974810983077, ,1.75, ,0.7388728976660872, ,0.5133160547743923, ,0.10393665435399277
101, ,PASS, ,0.028394899999999987, ,0.004448456867422806, ,0.03870733332891166, ,0.00012791834774203992, ,2.0, ,0.7591165288646082, ,0.4971735270708761, ,0.09450827534131956
102, ,PASS, ,0.02063206999999998, ,0.003245888376020351, ,0.03832807165302749, ,6.781202096703346e-05, ,1.9166666666666667, ,0.7629055703710552, ,0.4922960755902941, ,0.09895716413950735
103, ,PASS, ,0.039491160000000025, ,0.006092652442613015, ,0.03889096289157364, ,0.0002433449982108823, ,1.75, ,0.7494993786661238, ,0.5049896940878758, ,0.09987551274463786
104, ,PASS, ,0.049514439999999965, ,0.00752059477528412, ,0.03913532538886961, ,0.00037649898110479274, ,1.75, ,0.7407330691956494, ,0.5121119977143324, ,0.10044692965449685
105, ,PASS, ,0.05099041000000001, ,0.0077562249393630855, ,0.039344939243484825, ,0.00039986605822871923, ,1.75, ,0.7401907893498485, ,0.5117650660190608, ,0.09536540070610804
106, ,PASS, ,0.04511947999999999, ,0.0069371000848732454, ,0.039074207013938496, ,0.00031644279602835554, ,1.75, ,0.7471794328484157, ,0.508336564559907, ,0.09946735780902431
107, ,PASS, ,0.02738227000000001, ,0.00430733743357889, ,0.03861048744943981, ,0.00011937713513478553, ,2.0, ,0.7619769730376882, ,0.49747964327258626, ,0.11073243403195854
108, ,PASS, ,0.01363607, ,0.0021082504797349947, ,0.038106394778882065, ,2.9130894327782058e-05, ,1.75, ,0.7579344329604766, ,0.47786779861635476, ,0.0788351258137589
109, ,PASS, ,0.028782379999999993, ,0.004481196488770819, ,0.038248589945919474, ,0.00013049540960712066, ,1.8333333333333333, ,0.7587843114885784, ,0.48992877696373544, ,0.08687577804534602
110, ,PASS, ,0.03967645000000003, ,0.006045254259049214, ,0.03838888687190058, ,0.00024247580444503662, ,2.0, ,0.7445252199025065, ,0.49658170241423644, ,0.0744882757494745
111, ,PASS, ,0.04190285000000002, ,0.006364261387205634, ,0.03843055570906716, ,0.0002695230350499286, ,2.0, ,0.742392010576274, ,0.49788779820819984, ,0.07559029407563111
112, ,PASS, ,0.036913859999999986, ,0.005668541764244261, ,0.03852456230423869, ,0.00021163191045621356, ,2.0, ,0.7499052783645748, ,0.49496949041856286, ,0.0879982041182833
113, ,PASS, ,0.021663700000000008, ,0.003407474637285182, ,0.038481558735740086, ,7.467643022889618e-05, ,1.75, ,0.7626066853155463, ,0.4850513254831534, ,0.08567172098528601
114, ,PASS, ,0.012720009999999969, ,0.0019111996462000175, ,0.03806305532274852, ,2.4584181078989436e-05, ,1.75, ,0.7385488407257206, ,0.47911267116997613, ,0.06246811289565519
115, ,PASS, ,0.027760090000000008, ,0.004258503830879297, ,0.038269561937103326, ,0.00011955401816820364, ,2.0, ,0.7507823628535336, ,0.492806269259811, ,0.08324319911838533
116, ,PASS, ,0.037571919999999995, ,0.00568506354712646, ,0.03861369883451358, ,0.00021589085829100188, ,2.0, ,0.7390703915978497, ,0.4972143425644375, ,0.0768963898695945
117, ,PASS, ,0.03957295000000002, ,0.005976901270772351, ,0.038491525755392754, ,0.00023897394880247722, ,2.0, ,0.7404864642296317, ,0.4990102242811371, ,0.07961062019142466
118, ,PASS, ,0.03604587, ,0.005458815297346838, ,0.03838528549111242, ,0.00019897506458010415, ,2.0, ,0.7424686029842696, ,0.4958878390236934, ,0.07889634905410094
119, ,PASS, ,0.022568779999999993, ,0.0034938976389655933, ,0.03831640587273729, ,7.975680917915612e-05, ,1.8333333333333333, ,0.7510356495368972, ,0.48876553539723677, ,0.06657006999857146
