Channel, ,Pass/Fail, ,Amplitude, ,Sorting Function Response, ,Mean, ,Variance, ,NPeaksRatio, ,PosIntegralRatio, ,ToT50, ,ToT99
32, ,PASS, ,0.056332647999999985, ,0.005711461195429585, ,0.03450681463888492, ,0.0003280479577618103, ,1.6666666666666667, ,0.5317741804912702, ,0.40533866655782536, ,0.020877124956633537
33, ,PASS, ,0.09716305700000002, ,0.009032961613748747, ,0.03133963835572744, ,0.0008978295705396247, ,1.6666666666666667, ,0.5091626947442816, ,0.392685863553805, ,0.016530274892349137
34, ,PASS, ,0.10537177499999999, ,0.009889741013598378, ,0.03062738958255954, ,0.001065238609076788, ,1.6666666666666667, ,0.508972654402567, ,0.3962164037468623, ,0.01579559600824473
35, ,PASS, ,0.10676516999999999, ,0.010599119234287293, ,0.03084436500724475, ,0.0011536327033975142, ,1.6666666666666667, ,0.5218908780590201, ,0.4082569743474623, ,0.017305769270014898
36, ,PASS, ,0.068318972, ,0.008800247274801975, ,0.03442222883061571, ,0.0006079319452900502, ,1.75, ,0.6095373587315898, ,0.43948082692189955, ,0.03648905124385217
37, ,PASS, ,0.06278531100000001, ,0.006247751052368417, ,0.034069124928062695, ,0.00040012656613776373, ,1.6666666666666667, ,0.5247268855631874, ,0.40495091936899247, ,0.017754739699189812
38, ,PASS, ,0.09822868100000001, ,0.009109201830278729, ,0.03094039476741291, ,0.0009154577679979757, ,1.6666666666666667, ,0.507794080343324, ,0.39101242831778943, ,0.016428236158445745
39, ,PASS, ,0.10622249999999997, ,0.009936432615048797, ,0.030527986366788433, ,0.0010792017723841817, ,1.6666666666666667, ,0.5094399427202807, ,0.39599191853227483, ,0.01679557560049795
40, ,PASS, ,0.10806368000000001, ,0.010645585019348671, ,0.03032925653121161, ,0.0011733258844500488, ,1.6666666666666667, ,0.5205624218057071, ,0.40729781024877043, ,0.01718332278933083
41, ,PASS, ,0.07332867729999999, ,0.009054118329826262, ,0.03383029944646028, ,0.0006720999830498535, ,1.6666666666666667, ,0.5943654528096225, ,0.43735842125670904, ,0.028979000428562683
42, ,PASS, ,0.06883079500000001, ,0.0068473916601273525, ,0.03331873607273321, ,0.00048053135982217734, ,1.6666666666666667, ,0.5233563989829323, ,0.4068692475663762, ,0.01797922491377727
43, ,PASS, ,0.10403612999999999, ,0.009602035221513656, ,0.030232425444460316, ,0.0010220871807678303, ,1.6666666666666667, ,0.5062990445369001, ,0.3912369135323769, ,0.01659149813269117
44, ,PASS, ,0.11156311999999997, ,0.010396905229946364, ,0.029859722979204507, ,0.0011859873000908188, ,1.6666666666666667, ,0.5075690196027683, ,0.39544090936919657, ,0.01661190587947185
45, ,PASS, ,0.11426217000000002, ,0.011201884702515411, ,0.02999485495271035, ,0.001305448763645773, ,1.6666666666666667, ,0.5179166159098604, ,0.40695087855349893, ,0.01636701291810371
46, ,PASS, ,0.07680119083999996, ,0.010139718723517275, ,0.03388974867653721, ,0.0007869246594596059, ,1.75, ,0.6204314368069571, ,0.4431338135956409, ,0.044937858411052835
47, ,PASS, ,0.07083445000000001, ,0.006993807923619915, ,0.0331529173435236, ,0.0005052462555025096, ,1.6666666666666667, ,0.5227123963774514, ,0.40495091936899247, ,0.017713924205628458
48, ,PASS, ,0.10189833, ,0.009420793724344335, ,0.03045240832083019, ,0.000982484870483186, ,1.6666666666666667, ,0.5084604466005259, ,0.39025734168690435, ,0.016224158690638965
49, ,PASS, ,0.10918539999999996, ,0.010229636884590339, ,0.030011185781820778, ,0.0011420944939912454, ,1.6666666666666667, ,0.5097521643903742, ,0.3950123466868023, ,0.01657109038591049
50, ,PASS, ,0.11193170999999996, ,0.0110191066819616, ,0.030136120992302604, ,0.001258046208749266, ,1.6666666666666667, ,0.5202916158907378, ,0.40613456868227177, ,0.017489438991041
51, ,PASS, ,0.07530141805999997, ,0.009903210057585118, ,0.03377957409503888, ,0.0007537721459660752, ,1.75, ,0.6205970312171639, ,0.44321544458276363, ,0.04108079426950471
52, ,PASS, ,0.07587137312000002, ,0.007430383834405879, ,0.03273645633293198, ,0.0005751144354792838, ,1.6666666666666667, ,0.5190709495484339, ,0.40331829962653826, ,0.017305769270014898
53, ,PASS, ,0.10443935000000001, ,0.009660966832869997, ,0.030207450201934657, ,0.0010324182372935312, ,1.6666666666666667, ,0.5081029560263521, ,0.39107365155813145, ,0.016734352360155916
54, ,PASS, ,0.11169942999999996, ,0.01039848872537331, ,0.029757178793085853, ,0.001187712067274957, ,1.6666666666666667, ,0.5076100323942327, ,0.3961347727597396, ,0.01636701291810371
55, ,PASS, ,0.11455269, ,0.011233718283504722, ,0.02998805028493092, ,0.0013125879211092675, ,1.6666666666666667, ,0.518735518223484, ,0.40652231587110466, ,0.01716291504255015
56, ,PASS, ,0.08126626899999997, ,0.01042902243996065, ,0.03339606764902757, ,0.0008568576893626802, ,1.75, ,0.610770064917975, ,0.442684843166466, ,0.035121732209546744
57, ,PASS, ,0.07406718793999999, ,0.007274543955158076, ,0.03292771718924104, ,0.0005498224154610406, ,1.6666666666666667, ,0.5212382930577503, ,0.4021346503132589, ,0.016673129119813883
58, ,PASS, ,0.09906307300000002, ,0.009182804793727831, ,0.030569071319564906, ,0.0009307925005825737, ,1.6666666666666667, ,0.5086558278342914, ,0.39017571069978163, ,0.01618334319707761
59, ,PASS, ,0.10536373999999997, ,0.009854010284719298, ,0.030252808577886165, ,0.001061565212507191, ,1.6666666666666667, ,0.5083853049074165, ,0.3954205016224159, ,0.016305789677761678
60, ,PASS, ,0.10906287999999999, ,0.010675801219620926, ,0.030284971680745294, ,0.0011877286669435213, ,1.6666666666666667, ,0.5190004862346481, ,0.4054611130385094, ,0.01699965306830473
61, ,PASS, ,0.08011276261999999, ,0.010633745729864108, ,0.03347805080588152, ,0.0008607465009873997, ,1.75, ,0.6217057475071248, ,0.4431542213424216, ,0.04020326115793555
62, ,PASS, ,0.07680462653999998, ,0.007482350860910197, ,0.03271284651578539, ,0.0005864120830709404, ,1.6666666666666667, ,0.5181055745225883, ,0.40209383481969757, ,0.016673129119813883
63, ,PASS, ,0.09989229700000005, ,0.00928481495772795, ,0.030496526762637498, ,0.0009489139721517613, ,1.6666666666666667, ,0.508809663304022, ,0.3910532438113508, ,0.016550682639129812
64, ,PASS, ,0.10621233999999999, ,0.009955017055346082, ,0.03021460519293484, ,0.0010809218053797463, ,1.6666666666666667, ,0.5089988914911124, ,0.39578784106446807, ,0.01597926572927083
65, ,PASS, ,0.1100898, ,0.010798219399740008, ,0.030097476962898717, ,0.0012127634579088531, ,1.6666666666666667, ,0.5191801584597763, ,0.40560396726597414, ,0.01777514744597049
66, ,PASS, ,0.08624161800000003, ,0.011040930604523236, ,0.03299150011417318, ,0.0009629493807187653, ,1.75, ,0.6089515721607168, ,0.440276729046346, ,0.03761147731678945
67, ,PASS, ,0.08084535503999998, ,0.007867453718380345, ,0.032389815003775434, ,0.0006491026729063436, ,1.6666666666666667, ,0.5169633701709484, ,0.40331829962653826, ,0.017224138282892185
68, ,PASS, ,0.10348217999999997, ,0.009595400408499445, ,0.030382949857778414, ,0.0010157575823064066, ,1.6666666666666667, ,0.5074074468151468, ,0.39211444664394607, ,0.016285381930981
69, ,PASS, ,0.10979238999999998, ,0.01028636711947364, ,0.030042801709679396, ,0.001154236119374418, ,1.6666666666666667, ,0.5083588349962783, ,0.39737964531336095, ,0.01620375094385829
70, ,PASS, ,0.11364870000000002, ,0.011111146423166766, ,0.029970972357234747, ,0.0012881522826613384, ,1.6666666666666667, ,0.5172972073986256, ,0.4066855778453501, ,0.01677516785371727
71, ,PASS, ,0.09575692300000005, ,0.01192068891004756, ,0.032432602993915226, ,0.001155003575964687, ,1.6666666666666667, ,0.5974151919945182, ,0.4373176057631477, ,0.03314218077182098
72, ,PASS, ,0.07759979435999997, ,0.007606780940239267, ,0.03253693411542622, ,0.000602438731578662, ,1.6666666666666667, ,0.5201327441851639, ,0.40229791228750433, ,0.0176731087120671
73, ,PASS, ,0.10092594500000002, ,0.0094035882334191, ,0.030564330654802963, ,0.0009707545649602952, ,1.6666666666666667, ,0.5092049287426248, ,0.3917471072018938, ,0.01648945939878778
74, ,PASS, ,0.10764263, ,0.010130029486534974, ,0.03003891615585396, ,0.0011145822218202167, ,1.6666666666666667, ,0.5098994473748791, ,0.3963184424807657, ,0.016550682639129812
75, ,PASS, ,0.11124889999999994, ,0.01090819244246822, ,0.03008142103946858, ,0.0012380455009523346, ,1.6666666666666667, ,0.5187531826719768, ,0.4056651905063162, ,0.017020060815085405
76, ,PASS, ,0.09361172299999998, ,0.01131075562530791, ,0.03224389975806698, ,0.0010724962394203666, ,1.6666666666666667, ,0.5863898446574892, ,0.43288912471174057, ,0.026877002510152855
77, ,PASS, ,0.07726048985999998, ,0.007593319826548904, ,0.03264035459133487, ,0.0005987542802481939, ,1.6666666666666667, ,0.521090526129789, ,0.40235913552784636, ,0.017305769270014898
78, ,PASS, ,0.10142919000000002, ,0.009471108767267016, ,0.03052440618354727, ,0.0009827307300215302, ,1.6666666666666667, ,0.5097985412767749, ,0.3918695536825779, ,0.01697924532152405
79, ,PASS, ,0.10779471, ,0.010169045772034837, ,0.0301164292170772, ,0.001120359317902846, ,1.6666666666666667, ,0.5107529857967699, ,0.3967470051631599, ,0.01679557560049795
80, ,PASS, ,0.11121737999999995, ,0.010912162051310521, ,0.030041888611816087, ,0.0012381526654114679, ,1.6666666666666667, ,0.5193740504719756, ,0.4054611130385094, ,0.017713924205628458
81, ,PASS, ,0.09232835399999997, ,0.01106598690256114, ,0.032357907106175386, ,0.0010348832958896115, ,1.6666666666666667, ,0.5835205035200142, ,0.43239933878900433, ,0.027754535621722004
82, ,PASS, ,0.07948074947999996, ,0.007834336988706335, ,0.032640771391400175, ,0.0006351449935200194, ,1.6666666666666667, ,0.5202272665806065, ,0.4050937735964572, ,0.017632293218505745
83, ,PASS, ,0.10488042999999998, ,0.009776497426777294, ,0.030323141249484705, ,0.0010486780701734631, ,1.6666666666666667, ,0.5084403762268006, ,0.3942980755494786, ,0.016815983347278626
84, ,PASS, ,0.11129683999999997, ,0.010438302549103972, ,0.02990571219120018, ,0.0011872175548230932, ,1.6666666666666667, ,0.5077422628896197, ,0.3974204608069223, ,0.016285381930981
85, ,PASS, ,0.11462621999999999, ,0.011197043042671901, ,0.029909803738450643, ,0.0013093912243991894, ,1.6666666666666667, ,0.5177784383808204, ,0.40578763698700027, ,0.01728536152323422
86, ,PASS, ,0.09478848400000003, ,0.011382066572543979, ,0.03219183716349993, ,0.0010927346319048125, ,1.6666666666666667, ,0.5826896230048475, ,0.4331340176731087, ,0.026652517295565396
87, ,PASS, ,0.07655183194000001, ,0.00761113515299488, ,0.0327137157739638, ,0.0005942835814451233, ,1.6666666666666667, ,0.5242281047760408, ,0.4045427644333789, ,0.01797922491377727
88, ,PASS, ,0.10154372000000002, ,0.009510476954362301, ,0.03040774920252648, ,0.0009876437697189887, ,1.6666666666666667, ,0.5106363647869366, ,0.393257280463664, ,0.01716291504255015
89, ,PASS, ,0.10829130999999999, ,0.010206253550837735, ,0.03008114105699884, ,0.001129650932958292, ,1.6666666666666667, ,0.5106714269647442, ,0.39635925797432703, ,0.01677516785371727
90, ,PASS, ,0.11095940999999997, ,0.010874805413346915, ,0.03011585480885696, ,0.0012309578288238472, ,1.6666666666666667, ,0.5192499531256497, ,0.4058896757209037, ,0.017489438991041
91, ,PASS, ,0.08972642100000003, ,0.010933585736701848, ,0.032538068477054344, ,0.0009933043688023205, ,1.6666666666666667, ,0.5884529463280717, ,0.4334197261280382, ,0.030876920879165732
92, ,PASS, ,0.07761860995999999, ,0.007647223502481931, ,0.03250204675353564, ,0.0006057377651347465, ,1.6666666666666667, ,0.5213595089422335, ,0.40319585314585416, ,0.01787718617987388
93, ,PASS, ,0.10249555999999997, ,0.00963113683386942, ,0.03045027824944389, ,0.0010095862894089656, ,1.6666666666666667, ,0.5114934919083959, ,0.3930327952490765, ,0.016918022081182017
94, ,PASS, ,0.11031748999999999, ,0.01038275774443156, ,0.02985906562006898, ,0.0011708803225657324, ,1.6666666666666667, ,0.5101559696713052, ,0.3960327340258362, ,0.01659149813269117
95, ,PASS, ,0.11168081000000002, ,0.010935319069159469, ,0.02992864373050346, ,0.0012461447263158322, ,1.6666666666666667, ,0.5192115167871653, ,0.4051754045835799, ,0.017428215750698965
96, ,PASS, ,0.087873136, ,0.010539972360159217, ,0.0326429730126528, ,0.0009381892298012528, ,1.6666666666666667, ,0.5828147239366919, ,0.4320319993469521, ,0.02810146731699353
97, ,PASS, ,0.084313097, ,0.00838116188775963, ,0.03207061143292994, ,0.0007206680310409225, ,1.6666666666666667, ,0.5245915351912688, ,0.40613456868227177, ,0.018305748862268118
98, ,PASS, ,0.11099558999999998, ,0.010356378853971006, ,0.029725574824697457, ,0.0011754766727357338, ,1.6666666666666667, ,0.5089638283052416, ,0.3938695128670843, ,0.016530274892349137
99, ,PASS, ,0.005495730000000018, ,0.0004041724650473078, ,0.038655334907859024, ,2.3292681486741022e-06, ,1.6666666666666667, ,0.5890660772527453, ,0.5108263096671497, ,0.011632415664986429
100, ,PASS, ,0.12008702000000004, ,0.011662112019538835, ,0.02934858673778372, ,0.0014288438543745674, ,1.6666666666666667, ,0.5154290468471975, ,0.40495091936899247, ,0.01699965306830473
101, ,PASS, ,0.09330824399999998, ,0.010934936393051445, ,0.03232772861272994, ,0.0010341938537344873, ,1.6666666666666667, ,0.5743827975233411, ,0.43199118385339075, ,0.0256321299565315
198, ,PASS, ,0.07569015850000001, ,0.01234432066287036, ,0.040032289396134776, ,0.0009714060813492613, ,2.0, ,0.8929949495441585, ,0.5139691026713741, ,0.10334482969735312
199, ,PASS, ,0.050114700000000026, ,0.007979650515553074, ,0.039804763275443356, ,0.0004168419793291897, ,2.0, ,0.8834974218956391, ,0.5122548519417971, ,0.07628415746617416
200, ,PASS, ,0.045311329999999976, ,0.006988663481421836, ,0.03974417986102324, ,0.0003302427065687525, ,2.0, ,0.8751157361843412, ,0.5122548519417971, ,0.07456990673659722
201, ,PASS, ,0.04885397999999997, ,0.007569102295540607, ,0.03967973530050407, ,0.0003854271967007715, ,2.0, ,0.8743919300629492, ,0.5120507744739903, ,0.07918205750903043
202, ,PASS, ,0.055908778000000006, ,0.00794719505760541, ,0.040114575443970533, ,0.00046279872370175976, ,2.0, ,0.8659135476927036, ,0.5149690822636273, ,0.07067202710148772
203, ,PASS, ,0.05234112800000004, ,0.007458340543685231, ,0.03993071170853656, ,0.00040671622269880536, ,2.0, ,0.8644419489174704, ,0.5146017428215751, ,0.06824350523458705
204, ,PASS, ,0.066465976, ,0.010106935386164473, ,0.040094489024713784, ,0.0006992605860513646, ,1.9166666666666667, ,0.8656759891811231, ,0.5119487357400869, ,0.07422297504132569
205, ,PASS, ,0.058576473, ,0.008858242499538262, ,0.03999101621538336, ,0.0005400295627655151, ,1.9166666666666667, ,0.8754343901575402, ,0.513785432950348, ,0.0752229546335789
206, ,PASS, ,0.07014982410000001, ,0.010294381382617445, ,0.040135343857268226, ,0.000751389727275514, ,1.9166666666666667, ,0.8633449234070039, ,0.5133568702679537, ,0.0695904165221118
207, ,PASS, ,0.07224429195999998, ,0.010941756488698455, ,0.04027041918836351, ,0.0008204052493094607, ,1.9166666666666667, ,0.8737507429153285, ,0.5147445970490399, ,0.07801881594253178
208, ,PASS, ,0.05099840300000003, ,0.007602775301981626, ,0.03980258231750372, ,0.00040425123526109777, ,2.0, ,0.8665869320777227, ,0.5128670843452174, ,0.0653251974449501
209, ,PASS, ,0.05092114000000004, ,0.007697589457500147, ,0.03987684417562907, ,0.00040879166801836565, ,2.0, ,0.8705634848975385, ,0.5126221913838493, ,0.06610069182261587
210, ,PASS, ,0.05362040200000004, ,0.0076785028467546935, ,0.03995909844166446, ,0.0004294566287613942, ,2.0, ,0.8599864888217975, ,0.5137038019632253, ,0.06348850023468909
211, ,FAIL, ,0.08031154381999996, ,0.007918581008623459, ,0.04220833460970184, ,0.000654648436841043, ,1.6666666666666667, ,0.6539336297873896, ,0.5080916715985389, ,0.0568151670374074
212, ,PASS, ,0.057368089000000004, ,0.008582993322631186, ,0.04002920834921737, ,0.0005128818888884874, ,1.9166666666666667, ,0.8691371176157862, ,0.513091569559805, ,0.07389645109283484
213, ,PASS, ,0.06351429100000003, ,0.009959360905627428, ,0.039915290790392036, ,0.0006563165990886976, ,1.8333333333333333, ,0.86866116887485, ,0.5112956878431052, ,0.07438623701557111
214, ,PASS, ,0.06855371179999997, ,0.010040789837105565, ,0.040281136025591316, ,0.000716412506237386, ,1.9166666666666667, ,0.8673120224159372, ,0.514030325911716, ,0.07554947858206976
215, ,PASS, ,0.07479875500000004, ,0.011030925823028762, ,0.040326387770106734, ,0.0008557545603270612, ,2.0, ,0.8740355325613132, ,0.5167445562335462, ,0.07746780677945347
216, ,PASS, ,0.05912407300000002, ,0.008349694946661263, ,0.040051035367237406, ,0.0005140344574879238, ,2.0, ,0.8652662208814725, ,0.5155200914267056, ,0.06118242484847248
217, ,PASS, ,0.06658045100000001, ,0.0097684633702231, ,0.04016476932552398, ,0.0006769676945434217, ,1.9166666666666667, ,0.873706887553558, ,0.5149690822636273, ,0.07224342360359992
218, ,PASS, ,0.06951184908, ,0.009599946255071662, ,0.040332807981673845, ,0.0006944273629129866, ,2.0, ,0.8672830626351157, ,0.516887410461011, ,0.07083528907573315
219, ,PASS, ,0.06881746932, ,0.009642109195436541, ,0.040281850389379814, ,0.0006904673374963568, ,2.0, ,0.8679578132698063, ,0.5162343625640293, ,0.07091692006285585
220, ,PASS, ,0.042798950000000016, ,0.006108874053701526, ,0.03970939817064958, ,0.00027316073529584173, ,2.0, ,0.8613344628648918, ,0.5136833942164446, ,0.060549784698271464
221, ,PASS, ,0.04672195999999995, ,0.0065274103959214545, ,0.039803586707618216, ,0.00031837356043052474, ,2.0, ,0.8624822641141942, ,0.5144384808473297, ,0.060100814269096546
222, ,PASS, ,0.04345197000000001, ,0.005801140216189098, ,0.03985894507499847, ,0.0002634133106168882, ,2.0, ,0.8527911594076507, ,0.5149486745168466, ,0.05532540152241791
223, ,PASS, ,0.055215264000000014, ,0.00746423705853643, ,0.04012657429685109, ,0.0004299337472797439, ,2.0, ,0.8606886538127412, ,0.515683353400951, ,0.061264055835595195
224, ,PASS, ,0.07154901198000002, ,0.010049179614229737, ,0.040434214961327326, ,0.0007479989817732812, ,2.0, ,0.8706311934969748, ,0.5167445562335462, ,0.07252913205852941
225, ,PASS, ,0.06435270399999998, ,0.008985137104692542, ,0.04015349774596437, ,0.0006023532053967795, ,2.0, ,0.8678013417494412, ,0.5158262076284158, ,0.06573335238056366
226, ,PASS, ,0.06432792799999996, ,0.008616282003795326, ,0.04039894179506541, ,0.0005772584662106096, ,2.0, ,0.8624676619307627, ,0.5170914879288178, ,0.06650884675822942
227, ,PASS, ,0.08461935699999998, ,0.011718425261674091, ,0.04077782655360095, ,0.0010300971269230524, ,2.0, ,0.8733319011137971, ,0.5185812534438072, ,0.07661068141466501
228, ,PASS, ,0.06382233799999998, ,0.008785223799583502, ,0.04035746166874146, ,0.0005837523948594472, ,2.0, ,0.869329961353157, ,0.5169894491949144, ,0.06614150731617723
229, ,PASS, ,0.06333668299999999, ,0.008799374756756441, ,0.04013220920613866, ,0.0005804897298063532, ,2.0, ,0.8694855936347617, ,0.5161731393236872, ,0.06971286300279586
230, ,PASS, ,0.054429058999999995, ,0.007520212022053952, ,0.039949268802473424, ,0.0004272315487451867, ,2.0, ,0.8624333583963931, ,0.5150098977571886, ,0.06148854105018265
231, ,PASS, ,0.08984124299999996, ,0.01270528648899294, ,0.04076008143635844, ,0.0011875990485829128, ,2.0, ,0.8667914797200719, ,0.5160506928430032, ,0.06830472847492908
232, ,PASS, ,0.06463051400000001, ,0.009192122269821367, ,0.04014655254198894, ,0.0006194514873000364, ,2.0, ,0.8663318275975701, ,0.5147854125426011, ,0.0638354319299606
233, ,PASS, ,0.061890347000000005, ,0.008896030831829055, ,0.04017598559641641, ,0.000574335943730961, ,2.0, ,0.8683462454481793, ,0.5143772576069876, ,0.06710067141486908
234, ,PASS, ,0.06605572500000002, ,0.010054016195119503, ,0.03998370065406829, ,0.0006890924996316441, ,1.8333333333333333, ,0.8578209906129962, ,0.510867125160711, ,0.0748556151915267
235, ,PASS, ,0.07042512676, ,0.00988415548485863, ,0.04035266448072489, ,0.0007262346842875455, ,2.0, ,0.8634861610786654, ,0.5148058202893818, ,0.06473337278831044
236, ,PASS, ,0.05277144800000004, ,0.007243231692769237, ,0.04002488616762923, ,0.00039941327915744964, ,2.0, ,0.8627925297489907, ,0.5150303055039693, ,0.055978449419399605
237, ,PASS, ,0.07116810352000003, ,0.009918743843309024, ,0.04036038380604478, ,0.0007361057286825873, ,2.0, ,0.8664618093848441, ,0.5155404991734862, ,0.06642721577110672
238, ,PASS, ,0.060534678999999994, ,0.008139895872953483, ,0.04011767571988327, ,0.0005140762802611506, ,2.0, ,0.8634868630964553, ,0.516315993551152, ,0.059162057917185366
239, ,PASS, ,0.06762411014000001, ,0.008970344493008531, ,0.040309474605620295, ,0.0006323830607290555, ,2.0, ,0.8626076958516363, ,0.516887410461011, ,0.05769270014897655
240, ,PASS, ,0.05255378900000003, ,0.00706275716463651, ,0.039966709997346986, ,0.0003879124023388443, ,2.0, ,0.8601689540820108, ,0.5152751984653374, ,0.05793759311034469
241, ,PASS, ,0.078597463, ,0.01099904781218538, ,0.040360373304932556, ,0.000902060286977335, ,2.0, ,0.8612654282925063, ,0.514479296340891, ,0.06024366849656129
242, ,PASS, ,0.06237337000000003, ,0.008272496304009112, ,0.0402600425903553, ,0.0005386249674816367, ,2.0, ,0.8598778169022983, ,0.5160915083365646, ,0.060447745964368076
243, ,PASS, ,0.07671744000000003, ,0.010050998427256657, ,0.04053131584988062, ,0.0008026635389521643, ,2.0, ,0.8662530334179538, ,0.518724107671272, ,0.060957939633885024
244, ,PASS, ,0.058600037000000015, ,0.007832711253728454, ,0.04010656010305912, ,0.0004787107277902959, ,2.0, ,0.8644584849628127, ,0.5165404787657395, ,0.05873349523479113
245, ,PASS, ,0.05685279700000001, ,0.007694676627813682, ,0.04007155955939675, ,0.0004564724868205574, ,2.0, ,0.8654777851684535, ,0.5159894696026611, ,0.06295789881839146
246, ,PASS, ,0.05613708400000003, ,0.00721524715340286, ,0.04009367794820514, ,0.0004229780428842418, ,2.0, ,0.8592134238246415, ,0.516948633701353, ,0.05728454521336299
247, ,PASS, ,0.1998000000000001, ,0.043925591653378566, ,0.028121878387379874, ,0.009044468207445592, ,2.0, ,0.9378828892084053, ,0.5082345258260036, ,0.43325646415379276
248, ,PASS, ,0.057254947000000014, ,0.007634258098852198, ,0.040160256417624135, ,0.00045708441511003854, ,2.0, ,0.859699307387834, ,0.5156017224138283, ,0.05242750147956164
249, ,PASS, ,0.1998000000000001, ,0.04329961358749096, ,0.029607654894798094, ,0.008975604200054815, ,1.9166666666666667, ,0.9370188159916136, ,0.5142956266198649, ,0.4384196240893043
250, ,PASS, ,0.05934488600000003, ,0.008015237017703097, ,0.04009813964021143, ,0.0004967285063763667, ,2.0, ,0.8679522213826824, ,0.5160098773494418, ,0.062223219934287054
251, ,PASS, ,0.11424127999999995, ,0.007831601505340489, ,0.04477000075263769, ,0.0009358466701067821, ,1.3333333333333333, ,0.5197968045987932, ,0.5184383992163425, ,0.03818289422664844
252, ,PASS, ,0.040359170000000014, ,0.005478075785291357, ,0.03959686816105794, ,0.00023239973487359185, ,2.0, ,0.852722748773367, ,0.5136629864696639, ,0.03906042733821759
253, ,PASS, ,0.04098946000000001, ,0.005625386469958491, ,0.03962311649456134, ,0.00024216799099935888, ,2.0, ,0.8618170468003656, ,0.5138874716842513, ,0.05054998877573927
254, ,PASS, ,0.04793927999999998, ,0.006913320113525737, ,0.039712910717536375, ,0.000347468013260838, ,2.0, ,0.8790802616723414, ,0.51384665619069, ,0.061264055835595195
