Channel, ,Pass/Fail, ,Amplitude, ,Sorting Function Response, ,Mean, ,Variance, ,NPeaksRatio, ,PosIntegralRatio, ,ToT50, ,ToT99
0, ,PASS, ,0.07972579500000002, ,0.011402285074324585, ,0.028439022286769658, ,0.0009177466614756972, ,1.75, ,0.7122448890212264, ,0.4885818656762107, ,0.08018203710128365
1, ,PASS, ,0.07876051000000003, ,0.011290991488575909, ,0.02855638265455807, ,0.0008975070393719654, ,1.75, ,0.7132297055778222, ,0.4873369931225893, ,0.08393706250892839
2, ,PASS, ,0.07903607500000003, ,0.011321142294894414, ,0.02881789085236628, ,0.0009029990933310838, ,1.75, ,0.7125256536631215, ,0.4878267790453256, ,0.07952898920430196
3, ,PASS, ,0.078704508, ,0.011316219457243997, ,0.028577646500881616, ,0.0008988398968404043, ,1.75, ,0.714999442992494, ,0.4878063712985449, ,0.08656966184363585
4, ,PASS, ,0.07928324799999999, ,0.011352052498099481, ,0.02865857488739822, ,0.0009086366329703147, ,1.75, ,0.7132452499054596, ,0.4886430889165527, ,0.08116160894675618
5, ,PASS, ,0.07800819800000003, ,0.011186196210769165, ,0.02860904079614498, ,0.0008803739575159525, ,1.75, ,0.7128535978489338, ,0.4867451684659497, ,0.08091671598538805
6, ,PASS, ,0.07759977000000005, ,0.011126460750640773, ,0.02858555732638314, ,0.0008714221721953597, ,1.75, ,0.7137338499192074, ,0.4884594191955266, ,0.08248811248750025
7, ,PASS, ,0.07724060000000003, ,0.011082704780716733, ,0.028852659167021084, ,0.000863769715858053, ,1.75, ,0.7136374711092937, ,0.4875614783371768, ,0.08018203710128365
8, ,PASS, ,0.07726959700000005, ,0.011083400294114943, ,0.028674438047604334, ,0.0008644271619003389, ,1.75, ,0.7143266478160789, ,0.48831656496806186, ,0.08254933572784229
9, ,PASS, ,0.07686064100000005, ,0.011023925629105048, ,0.028737337024031757, ,0.0008551416506054172, ,1.75, ,0.7142474126969034, ,0.48786759453888695, ,0.08220240403257076
10, ,PASS, ,0.07670649900000005, ,0.011000639870723375, ,0.028699665270032045, ,0.0008515638641292881, ,1.75, ,0.7134521640971655, ,0.4870104691740985, ,0.08073304626436195
11, ,PASS, ,0.07670533000000006, ,0.010992079647729391, ,0.028629006401379564, ,0.0008508131549816729, ,1.75, ,0.7137859741931076, ,0.48784718679210626, ,0.08138609416134365
12, ,PASS, ,0.07782346000000004, ,0.011174123573664149, ,0.02877502312463297, ,0.0008776981431495584, ,1.75, ,0.7145939365272951, ,0.4892145058264117, ,0.07787596171506704
13, ,PASS, ,0.07589216200000003, ,0.010901817340924243, ,0.028545398075041323, ,0.000834861257221699, ,1.75, ,0.7144935135166206, ,0.48815330299381643, ,0.08120242444031754
14, ,PASS, ,0.07588537900000004, ,0.010887992991645517, ,0.028757633013874004, ,0.0008342171501060321, ,1.75, ,0.7146493759957485, ,0.4889083896247015, ,0.08361053856043754
15, ,PASS, ,0.07554048400000003, ,0.010830794834333163, ,0.028748956288698186, ,0.0008257300496675024, ,1.75, ,0.7138868295247761, ,0.4881941184873778, ,0.08071263851758127
16, ,PASS, ,0.07540569400000002, ,0.01077081329202447, ,0.02878130068223587, ,0.0008198007903208705, ,1.75, ,0.7136972075249437, ,0.48878594314401747, ,0.0804065223158711
17, ,PASS, ,0.07503969900000002, ,0.010773043045723348, ,0.02888411913490378, ,0.0008157263889331102, ,1.75, ,0.7139670956779262, ,0.48786759453888695, ,0.08203914205832534
18, ,PASS, ,0.07488137200000002, ,0.01073656993584247, ,0.028724809197316382, ,0.0008112801560765428, ,1.75, ,0.7131124799824172, ,0.4865410909981429, ,0.0813452786677823
19, ,PASS, ,0.07436091200000002, ,0.01068369362467137, ,0.028659539802370154, ,0.0008015986578393801, ,1.75, ,0.7145791224847378, ,0.4880308565131324, ,0.07793718495540908
20, ,PASS, ,0.07422313900000001, ,0.010671565972330127, ,0.028844844264787246, ,0.0007992490119896521, ,1.75, ,0.7152380748703792, ,0.4878267790453256, ,0.07818207791677721
21, ,PASS, ,0.074207365, ,0.0106316136767312, ,0.028730260197731065, ,0.0007960676004903008, ,1.75, ,0.7133753445893453, ,0.48739821636293135, ,0.07587600253056061
22, ,PASS, ,0.07433164800000003, ,0.010625915446821507, ,0.02875774199344707, ,0.0007972300351436929, ,1.75, ,0.7108761026499076, ,0.4867451684659497, ,0.07501887716577213
23, ,PASS, ,0.07405075099999998, ,0.010622298952868939, ,0.028532620642427294, ,0.000793740924048506, ,1.75, ,0.7147676566134079, ,0.4880308565131324, ,0.07916164976224975
24, ,PASS, ,0.07409396700000002, ,0.01063186334917447, ,0.02885545680991367, ,0.0007951487225445771, ,1.75, ,0.7142789508114216, ,0.48741862410971204, ,0.07940654272361788
25, ,PASS, ,0.07400518, ,0.010606683657427219, ,0.028835796498518803, ,0.0007919591543789713, ,1.75, ,0.7130537531226344, ,0.486785983959511, ,0.08214118079222874
26, ,PASS, ,0.073779375, ,0.010584465671811519, ,0.028559919902752594, ,0.0007881481476989897, ,1.75, ,0.7144225076173765, ,0.4890308361053856, ,0.08120242444031754
27, ,PASS, ,0.0735968, ,0.010567584091042134, ,0.028710208927535764, ,0.0007847378953177245, ,1.75, ,0.7147122293820644, ,0.4882145262341585, ,0.08210036529866738
28, ,PASS, ,0.07337193399999997, ,0.010526131258443483, ,0.028514640407123117, ,0.0007791465125416818, ,1.75, ,0.7149808853122076, ,0.4884594191955266, ,0.07759025326013755
29, ,PASS, ,0.073571676, ,0.010533427208861681, ,0.028964874231523028, ,0.0007821730812136234, ,1.75, ,0.7138887321669325, ,0.48723495438868597, ,0.07661068141466501
30, ,PASS, ,0.07350829399999996, ,0.010545035308805446, ,0.028807760053233603, ,0.0007823835835664301, ,1.75, ,0.7149050127433729, ,0.48856145792943, ,0.08083508499826535
31, ,PASS, ,0.07344321599999998, ,0.010505828883038741, ,0.028712215645313767, ,0.0007788446231540932, ,1.75, ,0.7134861319527565, ,0.4881328952470358, ,0.07654945817432297
32, ,PASS, ,0.07304763799999998, ,0.010397582669046715, ,0.029274370289057362, ,0.0007697951659284061, ,1.8333333333333333, ,0.7134112193350326, ,0.4980714679292259, ,0.07912083426868839
33, ,PASS, ,0.07272577199999997, ,0.010424386305806499, ,0.028802233990359784, ,0.0007660553514218486, ,1.75, ,0.7140602481302352, ,0.48915328258606966, ,0.07905961102834635
34, ,PASS, ,0.07267794799999998, ,0.01040136239214168, ,0.028937032757030672, ,0.0007648943695058174, ,1.8333333333333333, ,0.7156437850786449, ,0.4931532009550825, ,0.085039080835085
35, ,PASS, ,0.07282937199999999, ,0.010387399755834725, ,0.02908946147950817, ,0.0007659542654604068, ,1.9166666666666667, ,0.7143460676996717, ,0.49509193689924696, ,0.07887594130732026
36, ,PASS, ,0.07280799599999997, ,0.010402177453651518, ,0.02908752326421746, ,0.0007661563715035136, ,1.9166666666666667, ,0.714584730404734, ,0.495153160139589, ,0.07675353564212975
37, ,PASS, ,0.07322883399999998, ,0.010431286068885038, ,0.029370225548096974, ,0.0007740336191087749, ,1.8333333333333333, ,0.7155123388146183, ,0.49868370033264625, ,0.08044733780943246
38, ,PASS, ,0.07406891099999999, ,0.010575580446145557, ,0.02910923415495316, ,0.000792957436181919, ,1.9166666666666667, ,0.715509125127175, ,0.4961327319850615, ,0.08042693006265178
39, ,PASS, ,0.11400337, ,0.01642799726011657, ,0.02923686281439154, ,0.0018974487469427825, ,1.9166666666666667, ,0.7216637071398976, ,0.49572457704944795, ,0.07646782718720026
40, ,PASS, ,0.06848643299999997, ,0.009958837721007554, ,0.028443259280317545, ,0.0006910078048743581, ,1.8333333333333333, ,0.7206684606994302, ,0.48907165159894694, ,0.08965123160751821
41, ,PASS, ,0.06664897900000001, ,0.009717189634467976, ,0.028432008491644664, ,0.0006559463647550524, ,1.8333333333333333, ,0.7208996542104862, ,0.48786759453888695, ,0.09210016122119957
42, ,PASS, ,0.06654283700000001, ,0.00970773044868241, ,0.028212415630701825, ,0.0006538318311272549, ,1.75, ,0.7219212012366275, ,0.48723495438868597, ,0.08979408583498295
43, ,PASS, ,0.06624394, ,0.009739927336660268, ,0.028217383201468136, ,0.0006520166366519837, ,1.75, ,0.7249654083504941, ,0.48454113181363645, ,0.0954062161996694
44, ,PASS, ,0.06600587300000002, ,0.009677161028844897, ,0.02850022166033918, ,0.0006459918111630618, ,1.75, ,0.7235579316492354, ,0.486092120568968, ,0.09538580845288872
45, ,PASS, ,0.06626034800000001, ,0.009711872537490474, ,0.028292202538019635, ,0.0006509033654015774, ,1.75, ,0.7226359549699669, ,0.4868472071998531, ,0.09122262810963042
46, ,PASS, ,0.06617855000000002, ,0.009692980313314213, ,0.028387804147116592, ,0.0006490060222759929, ,1.75, ,0.72340947224731, ,0.48694924593375644, ,0.09254913165037448
47, ,PASS, ,0.06639536900000002, ,0.009702998333216707, ,0.02829950526601049, ,0.0006514489952431727, ,1.75, ,0.7232603363488219, ,0.48370441419562865, ,0.0933654415216016
48, ,PASS, ,0.06604442100000002, ,0.009699789512958811, ,0.028446750184779494, ,0.0006477399053568276, ,1.75, ,0.7240355379265728, ,0.48492887900246934, ,0.09642660353870329
49, ,PASS, ,0.06662707700000002, ,0.00975401281494896, ,0.02850894041520704, ,0.0006574833181783164, ,1.75, ,0.7234113999023511, ,0.48731658537580863, ,0.09152874431134059
50, ,PASS, ,0.067038386, ,0.009819617154852663, ,0.0283846037779878, ,0.0006658787631840105, ,1.75, ,0.7255771182907748, ,0.48860227342299134, ,0.09518173098508194
