Channel, ,Pass/Fail, ,Amplitude, ,Sorting Function Response, ,Mean, ,Variance, ,NPeaksRatio, ,PosIntegralRatio, ,ToT50, ,ToT99
0, ,PASS, ,0.054484493999999994, ,0.04532202135396875, ,0.03161768408475337, ,0.0005154679891149216, ,0.9166666666666666, ,0.7896140631510463, ,0.45368461868125143, ,0.07473316871084264
1, ,PASS, ,0.05356857600000002, ,0.043742951886191414, ,0.03162210800512235, ,0.000489246122407942, ,0.9166666666666666, ,0.7822674706773272, ,0.4534193179731026, ,0.07299851023448502
2, ,PASS, ,0.05406998600000001, ,0.045606609798688094, ,0.031510782859860004, ,0.0005147797198145398, ,0.9166666666666666, ,0.7959149069131839, ,0.453460133466664, ,0.08530438154323382
3, ,PASS, ,0.05408764399999999, ,0.045735905806337095, ,0.03154431087616579, ,0.0005164889959403538, ,0.9166666666666666, ,0.7960370160413406, ,0.4539091038958389, ,0.08671251607110059
4, ,PASS, ,0.053365114000000005, ,0.0437081832578352, ,0.03161115180312647, ,0.0004870089857627611, ,0.9166666666666666, ,0.7816804851901422, ,0.4531336095181731, ,0.07597804126446399
5, ,PASS, ,0.053603785, ,0.04386547154598912, ,0.03164797253717271, ,0.0004908636291285149, ,0.9166666666666666, ,0.781398158890806, ,0.4531540172649538, ,0.07195771514867043
6, ,PASS, ,0.05379056, ,0.0439154975884391, ,0.03172466576963735, ,0.0004937638061227486, ,0.9166666666666666, ,0.7871034966981204, ,0.4546845982735046, ,0.07471276096406196
7, ,PASS, ,0.05387535100000001, ,0.04402707298022302, ,0.031711924935776827, ,0.0004953269961082732, ,0.9166666666666666, ,0.7811529251489372, ,0.45374584192159345, ,0.06757004959082467
8, ,PASS, ,0.053739065, ,0.04420426532599147, ,0.03162438842978715, ,0.0004960665752009508, ,0.9166666666666666, ,0.7843609486216336, ,0.45370502642803207, ,0.07777392298116365
9, ,PASS, ,0.053691719000000006, ,0.044010163293276804, ,0.03181662282526887, ,0.0004935025602236315, ,0.9166666666666666, ,0.783389606426755, ,0.45403155037652293, ,0.07301891798126568
10, ,PASS, ,0.05343362800000001, ,0.04317012775314785, ,0.03174164189775719, ,0.000481728299803786, ,0.9166666666666666, ,0.7797290883826232, ,0.4542764433378911, ,0.07416175180098365
11, ,PASS, ,0.052958116000000006, ,0.04266934010846436, ,0.0316832160411012, ,0.0004719997591987742, ,0.9166666666666666, ,0.7761825773858858, ,0.4540519581233036, ,0.06983530948347993
12, ,PASS, ,0.052715857000000005, ,0.042185778614871786, ,0.03183850364274199, ,0.0004645625436835479, ,0.9166666666666666, ,0.7753405947336216, ,0.45421522009754906, ,0.07144752147915348
13, ,PASS, ,0.05618203399999999, ,0.045571538029426525, ,0.031589517868982266, ,0.0005350618649882906, ,0.9166666666666666, ,0.777856746067559, ,0.4538070651619355, ,0.063937470663864
14, ,PASS, ,0.08283369999999998, ,0.07101683673106345, ,0.030435507295606214, ,0.0012296195094040681, ,0.9166666666666666, ,0.8042317836245136, ,0.45403155037652293, ,0.08759004918266974
15, ,PASS, ,0.056230203, ,0.04455221318030424, ,0.031730524293667475, ,0.0005235059020704863, ,0.9166666666666666, ,0.7695474557450215, ,0.4538682884022775, ,0.06697822493418501
16, ,PASS, ,0.054641389, ,0.043445518835611006, ,0.03174945957782495, ,0.0004959440147089883, ,0.9166666666666666, ,0.7702709915581237, ,0.4534397257198833, ,0.06871288341054264
17, ,PASS, ,0.05457989999999999, ,0.04310445586777869, ,0.031538519870839374, ,0.0004915540423992139, ,0.9166666666666666, ,0.7692669287453633, ,0.45403155037652293, ,0.06540682843207281
18, ,PASS, ,0.054278028, ,0.04292594795697662, ,0.03159506683186058, ,0.0004870633457149753, ,0.9166666666666666, ,0.7693646736911983, ,0.45446011305891715, ,0.0715291524662762
19, ,PASS, ,0.054312361, ,0.042707094823308464, ,0.03166896131817718, ,0.00048486406050092664, ,0.9166666666666666, ,0.768421303726823, ,0.45421522009754906, ,0.07128425950490806
20, ,PASS, ,0.053948244000000006, ,0.04281858841588418, ,0.03167578090502235, ,0.0004826401347955081, ,0.9166666666666666, ,0.7718911025143343, ,0.4539907348829616, ,0.07214138486969654
21, ,PASS, ,0.054090410000000005, ,0.042963659676497075, ,0.03176014990300198, ,0.0004857064547248789, ,0.9166666666666666, ,0.7719159340208819, ,0.4542968510846717, ,0.07399848982673823
22, ,PASS, ,0.054553936000000004, ,0.043385609909251936, ,0.03177233454053999, ,0.0004947452971699234, ,0.9166666666666666, ,0.7724688668827454, ,0.45494989898165344, ,0.07214138486969654
23, ,PASS, ,0.054724991, ,0.043126325220757634, ,0.03184812456192731, ,0.0004930677885295775, ,0.9166666666666666, ,0.7712838142895285, ,0.454725413767066, ,0.07191689965510908
24, ,PASS, ,0.054378328000000004, ,0.04307288747816271, ,0.03164506360051836, ,0.0004894486458411181, ,0.9166666666666666, ,0.7696528721352154, ,0.45368461868125143, ,0.06599865308871247
25, ,PASS, ,0.05463795400000001, ,0.043234711986233326, ,0.03172984659041652, ,0.0004937363982600641, ,0.9166666666666666, ,0.7687296586842826, ,0.4537866574151548, ,0.06389665517030264
26, ,PASS, ,0.054542459, ,0.04321755228404505, ,0.0316920037468215, ,0.000492763634659128, ,0.9166666666666666, ,0.7699624710268087, ,0.45466419052672397, ,0.07136589049203078
27, ,PASS, ,0.05460328799999999, ,0.04301631026649314, ,0.03178326164623171, ,0.0004909946564765735, ,0.9166666666666666, ,0.767942407592404, ,0.4537866574151548, ,0.06571294463378298
28, ,PASS, ,0.05444663400000001, ,0.042960990179935515, ,0.031617117469296546, ,0.0004888734538963948, ,0.9166666666666666, ,0.7701364168413446, ,0.45411318136364565, ,0.07269239403277485
29, ,PASS, ,0.054523761000000004, ,0.04310459943629358, ,0.03183280422548519, ,0.0004912994698729129, ,0.9166666666666666, ,0.7697968790695502, ,0.45492949123487275, ,0.06783535029897349
30, ,PASS, ,0.05466507799999999, ,0.04314071406205967, ,0.03192042343874615, ,0.0004928187244695514, ,0.9166666666666666, ,0.7704292141504282, ,0.45490908348809206, ,0.0682026897410257
31, ,PASS, ,0.054554948, ,0.04299770046896265, ,0.031822325254770314, ,0.0004903390466338288, ,0.9166666666666666, ,0.7705409865749235, ,0.4544397053121365, ,0.07146792922593416
32, ,PASS, ,0.054483492000000015, ,0.043231544018400826, ,0.03175891347796984, ,0.0004925005547020341, ,0.9166666666666666, ,0.7727269691129803, ,0.45535805391726697, ,0.07659027366788433
33, ,PASS, ,0.05458732599999999, ,0.04294693405146595, ,0.0317659338169221, ,0.0004900681727371993, ,0.9166666666666666, ,0.7690747764261598, ,0.454786637007408, ,0.06814146650068366
34, ,PASS, ,0.054401013, ,0.04311730244827264, ,0.03167787419479195, ,0.0004902183210757116, ,0.9166666666666666, ,0.771228980398421, ,0.4552356074365829, ,0.06632517703720332
35, ,PASS, ,0.05463637400000001, ,0.04330206055060149, ,0.031715257170486316, ,0.0004944054098111222, ,0.9166666666666666, ,0.7709072365696955, ,0.45497030672843414, ,0.06803942776678026
36, ,PASS, ,0.054549446, ,0.04319750406201386, ,0.031915782584620724, ,0.0004928758042930401, ,0.9166666666666666, ,0.7711439837988016, ,0.455929470827126, ,0.06975367849635722
37, ,PASS, ,0.05464477499999999, ,0.04325806624928216, ,0.031777116931225896, ,0.0004945641560103727, ,0.9166666666666666, ,0.771605094070262, ,0.4555417236382931, ,0.07389645109283484
38, ,PASS, ,0.05462435800000001, ,0.043235004947687575, ,0.031715342957837594, ,0.0004938426848540736, ,0.9166666666666666, ,0.7708103449012578, ,0.45537846166404766, ,0.07248831656496806
39, ,PASS, ,0.054284223000000006, ,0.04307946122382234, ,0.031706646218240445, ,0.0004892300499768342, ,0.9166666666666666, ,0.7736426898918287, ,0.45535805391726697, ,0.07410052856064162
40, ,PASS, ,0.054854720000000017, ,0.043534340186355575, ,0.031646426673169935, ,0.0004991822955497187, ,0.9166666666666666, ,0.7706517515770612, ,0.4546845982735046, ,0.06779453480541213
41, ,PASS, ,0.05534425399999999, ,0.04484771603197469, ,0.031524707406440686, ,0.0005188894209968042, ,0.9166666666666666, ,0.7794841469573105, ,0.4551131609558989, ,0.07350870390400197
42, ,PASS, ,0.05495818300000001, ,0.043453717363734046, ,0.03158948482651375, ,0.0004993391038240122, ,0.9166666666666666, ,0.7714718576323987, ,0.4555621313850738, ,0.06536601293851146
43, ,PASS, ,0.054810568000000004, ,0.04355319516787474, ,0.03159294516099671, ,0.000499044628306977, ,0.9166666666666666, ,0.7719164988861794, ,0.45503152996877616, ,0.07216179261647722
44, ,PASS, ,0.05473764100000001, ,0.04384259316543407, ,0.03149908012046693, ,0.0005019083521125584, ,0.9166666666666666, ,0.7751766007490525, ,0.45492949123487275, ,0.07146792922593416
45, ,PASS, ,0.054931933, ,0.04408969520358607, ,0.03146888605842738, ,0.0005064968775675878, ,0.9166666666666666, ,0.7762359550232589, ,0.4556233546254158, ,0.07505969265933349
46, ,PASS, ,0.05477696, ,0.043954185750278145, ,0.0314914736393543, ,0.0005032843767560985, ,0.9166666666666666, ,0.7764019102077219, ,0.4550927532091182, ,0.07389645109283484
47, ,PASS, ,0.054558646, ,0.04393520961433043, ,0.03144598552794841, ,0.0005010291770204736, ,0.9166666666666666, ,0.7755657212805951, ,0.4543580743250138, ,0.06957000877533112
48, ,PASS, ,0.054745447000000017, ,0.04350004023304806, ,0.0317082195442542, ,0.000497790477506137, ,0.9166666666666666, ,0.7734714126033334, ,0.4555825391318544, ,0.06987612497704128
49, ,PASS, ,0.055184183000000005, ,0.04523014485764775, ,0.031409204769453684, ,0.0005214705529343257, ,0.9166666666666666, ,0.7839643599720082, ,0.4542356278443297, ,0.07563110956919246
50, ,PASS, ,0.05445807400000001, ,0.04371349192842037, ,0.0315510049628375, ,0.000497594800033513, ,0.9166666666666666, ,0.7764490960686612, ,0.45484786024775004, ,0.07012101793840941
51, ,PASS, ,0.05413594100000001, ,0.04335535622063502, ,0.03147349016718026, ,0.0004906869303548455, ,0.9166666666666666, ,0.7742544706704527, ,0.45494989898165344, ,0.0697740862431379
52, ,PASS, ,0.05436879100000001, ,0.04366788235751178, ,0.03146866844454195, ,0.0004964084536760653, ,0.9166666666666666, ,0.7788712537081964, ,0.45521519968980223, ,0.07524336238035959
53, ,PASS, ,0.05412999000000002, ,0.04358604466716447, ,0.03159860164155834, ,0.0004935368861354482, ,0.9166666666666666, ,0.7777078931327429, ,0.45535805391726697, ,0.07434542152200975
54, ,PASS, ,0.054108524, ,0.0436228387940581, ,0.03161418416744556, ,0.0004935090243816502, ,0.9166666666666666, ,0.7780039817509208, ,0.4550519377155568, ,0.07436582926879043
55, ,PASS, ,0.054136319000000016, ,0.043814175639379886, ,0.031557127167343525, ,0.0004958082036168784, ,0.9166666666666666, ,0.7810581812270919, ,0.4549907144752148, ,0.07795759270218976
56, ,PASS, ,0.05407536400000001, ,0.0437049754724626, ,0.031573542694945, ,0.0004941678299987346, ,0.9166666666666666, ,0.7799457987100586, ,0.4551131609558989, ,0.07359033489112467
57, ,PASS, ,0.054384954000000006, ,0.043479136033472525, ,0.0318381183121773, ,0.0004949961616731368, ,0.9166666666666666, ,0.7768654194152294, ,0.4563988490030816, ,0.07381482010571212
58, ,PASS, ,0.053999399000000003, ,0.04329541696006737, ,0.03170333488975735, ,0.0004890238295031902, ,0.9166666666666666, ,0.7765550565952649, ,0.45584783984000327, ,0.06889655313156874
59, ,PASS, ,0.05405650800000002, ,0.04308970933268013, ,0.03188267933460542, ,0.0004877703713033368, ,0.8333333333333334, ,0.774901563034722, ,0.45746005183567684, ,0.07020264892553213
60, ,PASS, ,0.054486070000000004, ,0.043388433061579745, ,0.03174932991951185, ,0.0004950584327899815, ,0.8333333333333334, ,0.7738134923997458, ,0.45750086732923817, ,0.07361074263790535
61, ,PASS, ,0.054564287, ,0.043225243048448055, ,0.03184492607303933, ,0.0004936722376262521, ,0.8333333333333334, ,0.771034402200591, ,0.456562110977327, ,0.06554968265953756
62, ,PASS, ,0.05418077000000002, ,0.04317312728728103, ,0.031598534244995, ,0.0004894838459826919, ,0.9166666666666666, ,0.7724862938467897, ,0.45623558702883615, ,0.06795779677965756
63, ,PASS, ,0.054248722000000006, ,0.04323623824809526, ,0.03172412772182201, ,0.0004910566838518352, ,0.9166666666666666, ,0.7743293699502486, ,0.45652129548376563, ,0.0696720475092345
64, ,PASS, ,0.054253208000000004, ,0.04368242753264995, ,0.03165476507436583, ,0.000496089828995501, ,0.9166666666666666, ,0.776061277801849, ,0.4564192567498622, ,0.06814146650068366
65, ,PASS, ,0.05457391100000002, ,0.04359464965142803, ,0.03159348011414053, ,0.00049788661383767, ,0.9166666666666666, ,0.7753167809218396, ,0.4554396849043897, ,0.0727332095263362
66, ,PASS, ,0.054480211000000014, ,0.04372104282472492, ,0.03154212080500398, ,0.0004984860300750422, ,0.9166666666666666, ,0.7765404351276352, ,0.455929470827126, ,0.06732515662945654
67, ,PASS, ,0.054733126, ,0.04375987599950592, ,0.03162420295544989, ,0.00050130312003809, ,0.9166666666666666, ,0.7748365098831821, ,0.4563580335095202, ,0.06840676720883247
68, ,PASS, ,0.054623817, ,0.04363376116891239, ,0.0316000111425073, ,0.0004988539746495371, ,0.9166666666666666, ,0.7751107716274908, ,0.45568457786575783, ,0.06665170098569417
69, ,PASS, ,0.054901989, ,0.043765024457173854, ,0.03157382455439685, ,0.000502528338863339, ,0.9166666666666666, ,0.773786574205337, ,0.454725413767066, ,0.06777412705863145
70, ,PASS, ,0.054670909, ,0.04384495699789537, ,0.031586644648456154, ,0.0005011729772380851, ,0.9166666666666666, ,0.7769868974365806, ,0.45454174404603986, ,0.07385563559927348
71, ,PASS, ,0.054599012999999995, ,0.04362906436722366, ,0.03159997554615212, ,0.0004983297561595309, ,0.9166666666666666, ,0.7740566889632062, ,0.45466419052672397, ,0.06814146650068366
72, ,PASS, ,0.054847637000000005, ,0.04409227507487594, ,0.03159510726338238, ,0.0005055890043152605, ,0.9166666666666666, ,0.7774261379406523, ,0.45458255953960125, ,0.07552907083528908
73, ,PASS, ,0.054813669999999995, ,0.04405304428831029, ,0.031652088146323545, ,0.0005048752712185564, ,0.9166666666666666, ,0.7776211740341283, ,0.45446011305891715, ,0.07432501377522907
74, ,PASS, ,0.05493631, ,0.044126383455340146, ,0.03154924383010551, ,0.000506876086597169, ,0.9166666666666666, ,0.777335952467246, ,0.45497030672843414, ,0.07056998836758434
75, ,PASS, ,0.05541122700000001, ,0.04467625118123295, ,0.0314528318988388, ,0.0005175404074817319, ,0.9166666666666666, ,0.7788070481827293, ,0.45419481235076836, ,0.07065161935470704
76, ,PASS, ,0.07875970699999998, ,0.06781669884362816, ,0.030473898779257567, ,0.0011151403038889085, ,0.9166666666666666, ,0.8040554970285998, ,0.4534397257198833, ,0.08565131323850533
77, ,PASS, ,0.06925452964, ,0.05695560957055407, ,0.031052747815607844, ,0.0008250315445733057, ,0.9166666666666666, ,0.7878610419384551, ,0.4543172588314524, ,0.07965143568498602
78, ,PASS, ,0.05858922299999997, ,0.04613490542609429, ,0.03154138387608416, ,0.0005654177531559121, ,0.9166666666666666, ,0.7702430635595129, ,0.45490908348809206, ,0.06487622701577518
79, ,PASS, ,0.05793958, ,0.04580719767955614, ,0.03145549838111467, ,0.0005550872002800247, ,0.9166666666666666, ,0.7701838066237071, ,0.4543376665782331, ,0.06716189465521112
80, ,PASS, ,0.05826333799999996, ,0.04625224949536297, ,0.031221648603416256, ,0.000563523165208436, ,0.9166666666666666, ,0.7734464211276315, ,0.4543988898185751, ,0.06118242484847248
81, ,PASS, ,0.05830688899999997, ,0.046231733620213794, ,0.03138427282128936, ,0.0005640120681910738, ,0.9166666666666666, ,0.7718768470078683, ,0.454725413767066, ,0.07024346441909349
82, ,PASS, ,0.05818266999999997, ,0.046053258548905664, ,0.031169855523724005, ,0.0005606761794322715, ,0.9166666666666666, ,0.7718985465468459, ,0.45484786024775004, ,0.0682843207281484
83, ,PASS, ,0.058010000000000006, ,0.04601755199407441, ,0.03126914737966572, ,0.0005586046990005563, ,0.9166666666666666, ,0.7733160774950439, ,0.4551743841962409, ,0.07130466725168874
84, ,PASS, ,0.05822549099999998, ,0.04567628668870038, ,0.031468299390216524, ,0.0005565571559729007, ,0.9166666666666666, ,0.7700127005382724, ,0.45533764617048633, ,0.06657006999857146
85, ,PASS, ,0.05788097499999998, ,0.04561444799136962, ,0.031423090480602434, ,0.0005525948002044616, ,0.9166666666666666, ,0.7703596027392802, ,0.45503152996877616, ,0.06814146650068366
86, ,PASS, ,0.05786826199999999, ,0.04568080446320037, ,0.031197234063182384, ,0.0005531137072025908, ,0.9166666666666666, ,0.769351169387497, ,0.454725413767066, ,0.06867206791698129
87, ,PASS, ,0.057827163999999986, ,0.04546108651756357, ,0.031292174417930245, ,0.0005503074263018664, ,0.9166666666666666, ,0.76878229922957, ,0.4555213158915124, ,0.06854962143629721
88, ,PASS, ,0.05818071399999998, ,0.04548281215468983, ,0.03150236067114957, ,0.0005542634821245725, ,0.9166666666666666, ,0.7659357790768455, ,0.45566417011897714, ,0.06934552356074365
89, ,PASS, ,0.05805345499999998, ,0.04547983418503483, ,0.03161022763188506, ,0.000552699918136347, ,0.9166666666666666, ,0.7678721565044804, ,0.4557049856125385, ,0.06661088549213282
90, ,PASS, ,0.057935128999999995, ,0.04546530710921068, ,0.03145176134113589, ,0.0005516042436235494, ,0.9166666666666666, ,0.7671799158993943, ,0.4558886553335646, ,0.06177424950511214
91, ,PASS, ,0.05763631499999999, ,0.045586131487236045, ,0.03149868863480337, ,0.0005496932161478593, ,0.9166666666666666, ,0.7720264788794975, ,0.4551947919430216, ,0.06979449398991858
92, ,PASS, ,0.05794281299999998, ,0.045962314855070824, ,0.03139141117058835, ,0.0005572257798679296, ,0.9166666666666666, ,0.7727703893042268, ,0.45490908348809206, ,0.07263117079243281
93, ,PASS, ,0.05804693199999997, ,0.04567745784270642, ,0.031505868813514006, ,0.0005553124710746418, ,0.9166666666666666, ,0.7712337249801283, ,0.4559702863206873, ,0.06640680802432604
94, ,PASS, ,0.05753941799999998, ,0.04570278028261281, ,0.0314605149004306, ,0.0005510087598489129, ,0.8333333333333334, ,0.7729898195934074, ,0.457194751127528, ,0.06899859186547214
95, ,PASS, ,0.05750616099999999, ,0.045550897534586736, ,0.03148095346962307, ,0.0005485471230222482, ,0.9166666666666666, ,0.7712958705862943, ,0.45619477153527477, ,0.06473337278831044
96, ,PASS, ,0.05763930099999999, ,0.04514525386762964, ,0.03152156452876472, ,0.0005448946537079453, ,0.9166666666666666, ,0.771934470581006, ,0.45707230464684395, ,0.0665292545050101
97, ,PASS, ,0.05746185399999999, ,0.04521561428070775, ,0.0317212849283484, ,0.0005442354272285067, ,0.9166666666666666, ,0.7699549310802738, ,0.45631721801595887, ,0.07110058978388197
98, ,PASS, ,0.05749168799999999, ,0.04503344583174378, ,0.0314257719567968, ,0.0005422206089884928, ,0.9166666666666666, ,0.7692508421165605, ,0.45633762576273956, ,0.066345584783984
99, ,PASS, ,0.057296491999999984, ,0.045238336330301394, ,0.03144995876294361, ,0.0005427149694797465, ,0.9166666666666666, ,0.7731448974845263, ,0.4567661884451338, ,0.07083528907573315
100, ,PASS, ,0.057141761999999985, ,0.04532812716825079, ,0.03149319376737209, ,0.0005424549671747066, ,0.9166666666666666, ,0.7729666191104587, ,0.4564804799902043, ,0.07118222077100467
101, ,PASS, ,0.05759840599999997, ,0.045440856833619245, ,0.031608557521826085, ,0.0005482870961675998, ,0.9166666666666666, ,0.7737040732443619, ,0.45746005183567684, ,0.06946797004142773
102, ,PASS, ,0.057403261999999976, ,0.045683801925271106, ,0.031675946493989915, ,0.0005493259700658751, ,0.9166666666666666, ,0.7744407350803496, ,0.45703148915328257, ,0.07044754188690026
103, ,PASS, ,0.057549134, ,0.04601312128766295, ,0.03153365949892859, ,0.0005546921522752994, ,0.9166666666666666, ,0.7760413104638963, ,0.45705189690006326, ,0.07277402501989755
104, ,PASS, ,0.057923461999999995, ,0.046174503626395344, ,0.0316489398126977, ,0.0005602726670074286, ,0.9166666666666666, ,0.775838405636166, ,0.45668455745801106, ,0.07020264892553213
105, ,PASS, ,0.05757361599999999, ,0.045357254134071844, ,0.03157438303497888, ,0.0005473446549113743, ,0.8333333333333334, ,0.7694100236022607, ,0.45750086732923817, ,0.06765168057794739
106, ,PASS, ,0.05749251099999999, ,0.0454138847502515, ,0.031650582736719654, ,0.000547015966156701, ,0.9166666666666666, ,0.7730876478908822, ,0.4568478194322565, ,0.0753249933674823
107, ,PASS, ,0.057374054999999986, ,0.045545327078240015, ,0.03166820137584947, ,0.0005472483949308638, ,0.9166666666666666, ,0.7756651968332885, ,0.4562968102691782, ,0.07295769474092366
108, ,FAIL, ,0.008145329999999996, ,0.0056262662265672515, ,0.03356448409399808, ,9.951890426789212e-06, ,0.0, ,0.7866020254839042, ,0.45615395604171344, ,0.012183424828064733
109, ,PASS, ,0.05739117899999998, ,0.04573454720550982, ,0.03133238098667374, ,0.0005491914820726111, ,0.9166666666666666, ,0.7729876332787982, ,0.4548886757413114, ,0.0649578580028979
110, ,PASS, ,0.05754564899999999, ,0.045795602029560054, ,0.03155941973063815, ,0.0005520313692838519, ,0.9166666666666666, ,0.7751317321634721, ,0.45652129548376563, ,0.07114140527744332
111, ,PASS, ,0.05846116999999998, ,0.04683892039639163, ,0.031446601367441485, ,0.0005731636368046783, ,0.9166666666666666, ,0.7775119183460228, ,0.4554396849043897, ,0.06854962143629721
112, ,PASS, ,0.058356053, ,0.047216986367823885, ,0.031374187871023036, ,0.0005768790932197164, ,0.9166666666666666, ,0.7810741595245535, ,0.45580702434644194, ,0.07518213914001755
113, ,PASS, ,0.05808161899999997, ,0.04612520474117679, ,0.031216880724352563, ,0.0005606981743218674, ,0.9166666666666666, ,0.7735478688913686, ,0.45490908348809206, ,0.06752923409726332
114, ,PASS, ,0.058144328999999995, ,0.046242514396124444, ,0.03161184144562356, ,0.0005631158741060014, ,0.9166666666666666, ,0.7737535400246541, ,0.45621517928205546, ,0.06891696087834942
115, ,PASS, ,0.05809311499999996, ,0.046125743668870046, ,0.031346205538397176, ,0.000561357513993326, ,0.9166666666666666, ,0.7719945479371829, ,0.45666414971123037, ,0.06538642068529214
116, ,PASS, ,0.05824752799999998, ,0.04609928808064891, ,0.03157618025140303, ,0.0005624199879121529, ,0.9166666666666666, ,0.7733623506301488, ,0.4567253729515724, ,0.07285565600702026
117, ,PASS, ,0.057853219, ,0.04547596275837715, ,0.03149457103914206, ,0.000551545895789589, ,0.8333333333333334, ,0.7702237921942069, ,0.4574804595824575, ,0.0667129242260362
118, ,PASS, ,0.057980142, ,0.045475371521572515, ,0.03156627839925716, ,0.0005526907436075636, ,0.8333333333333334, ,0.7705449118942064, ,0.4573988285953348, ,0.0645905185608457
119, ,PASS, ,0.05754606799999998, ,0.04545007751047216, ,0.03161874435356422, ,0.0005477285644924336, ,0.9166666666666666, ,0.7730873828902713, ,0.4564192567498622, ,0.07024346441909349
120, ,PASS, ,0.05787690899999998, ,0.045624375672770376, ,0.031492335985510496, ,0.0005534879339921824, ,0.8333333333333334, ,0.7721903492128782, ,0.4577253525438256, ,0.06916185383971755
121, ,PASS, ,0.057937452999999965, ,0.04540465927603715, ,0.031623033300381624, ,0.00055144019552012, ,0.8333333333333334, ,0.7719640885203233, ,0.4575824983163609, ,0.06746801085692129
122, ,PASS, ,0.05790773199999999, ,0.04547743346354516, ,0.031597157262974226, ,0.0005520006373156026, ,0.8333333333333334, ,0.7717862724672294, ,0.4580518764923165, ,0.0729168792473623
123, ,PASS, ,0.057828000999999976, ,0.04556396981619781, ,0.031655551535682946, ,0.000552286026200085, ,0.8333333333333334, ,0.7722022672783123, ,0.45705189690006326, ,0.06775371931185079
124, ,PASS, ,0.057488058999999994, ,0.04520957790116965, ,0.03160280635784984, ,0.0005448517833967752, ,0.8333333333333334, ,0.7730662276652116, ,0.45825595396012325, ,0.06567212914022162
125, ,PASS, ,0.057675333999999995, ,0.045565521289073985, ,0.031492550707414135, ,0.0005513095961743936, ,0.8333333333333334, ,0.7733723899849866, ,0.458398808187588, ,0.07085569682251383
126, ,PASS, ,0.058095076999999995, ,0.045946515072329275, ,0.031624350575518864, ,0.0005598435238758919, ,0.8333333333333334, ,0.7750261945076867, ,0.45866410889573683, ,0.07465153772371992
127, ,PASS, ,0.05808538699999998, ,0.04574201232709799, ,0.03167769683620742, ,0.0005574101436735043, ,0.8333333333333334, ,0.7710177893853936, ,0.45837840044080735, ,0.06352931572825045
128, ,PASS, ,0.057483674999999984, ,0.044930122141738, ,0.03182143645194996, ,0.0005420873507742744, ,0.8333333333333334, ,0.7689085857767329, ,0.45870492438929816, ,0.06322319952654028
129, ,PASS, ,0.05788591799999999, ,0.04504012799971595, ,0.031761833279116754, ,0.0005474854829269465, ,0.8333333333333334, ,0.7676777556309529, ,0.4589498173506663, ,0.06867206791698129
130, ,PASS, ,0.05827066199999999, ,0.04530334848168261, ,0.031885777222505664, ,0.0005540892089131724, ,0.8333333333333334, ,0.7682695213613191, ,0.45862329340217545, ,0.07048835738046162
131, ,PASS, ,0.05852462699999996, ,0.04554746668978995, ,0.03205350565057856, ,0.0005593647715660402, ,0.8333333333333334, ,0.7672101383884651, ,0.45854166241505273, ,0.06503948899002061
132, ,PASS, ,0.05929558299999997, ,0.04628355936407182, ,0.03177045542641987, ,0.0005758014148036058, ,0.8333333333333334, ,0.7694015136447367, ,0.45874573988285955, ,0.06734556437623722
133, ,PASS, ,0.05908552699999997, ,0.04625291787627857, ,0.03186155988365543, ,0.0005734522578125457, ,0.8333333333333334, ,0.7697814936565407, ,0.4584804391747107, ,0.06712107916164976
134, ,PASS, ,0.059072623999999976, ,0.04674879090837633, ,0.03190756368561866, ,0.0005795479471860865, ,0.8333333333333334, ,0.7743958359167696, ,0.4585824779086141, ,0.07210056937613518
135, ,PASS, ,0.059233166000000004, ,0.046909502013896535, ,0.0318860832033632, ,0.0005831269554661014, ,0.8333333333333334, ,0.7736516403530036, ,0.4581130997326585, ,0.0689373686251301
136, ,PASS, ,0.05988897699999999, ,0.047627958044741805, ,0.03194830647615354, ,0.0005984138079749848, ,0.8333333333333334, ,0.7777784325398192, ,0.4587661476296402, ,0.07356992714434399
137, ,PASS, ,0.06064650799999999, ,0.048314615467805494, ,0.03180464365935389, ,0.0006143691138138465, ,0.8333333333333334, ,0.776911413671652, ,0.45825595396012325, ,0.07101895879675925
138, ,PASS, ,0.0720167445, ,0.06098903183820112, ,0.03132405993863228, ,0.000920028363459181, ,0.9166666666666666, ,0.7991493128710246, ,0.4585008469214914, ,0.0831003448909206
139, ,PASS, ,0.14889943, ,0.12751180941919477, ,0.028549556837615557, ,0.003959902426864705, ,0.9166666666666666, ,0.794202033300163, ,0.45827636170690395, ,0.11754862145670497
140, ,PASS, ,0.06654439132000002, ,0.053076082829253676, ,0.03156350490388604, ,0.0007404735439932658, ,0.9166666666666666, ,0.7761475224238675, ,0.45917430256525377, ,0.07512091589967551
141, ,PASS, ,0.06482914688000001, ,0.05150212626809174, ,0.031638848634095225, ,0.0007000846832028865, ,0.8333333333333334, ,0.7747430681772299, ,0.4591538948184731, ,0.06767208832472807
142, ,PASS, ,0.06468242723999999, ,0.051264775179344364, ,0.03161435028485949, ,0.0006950890291410911, ,0.9166666666666666, ,0.7744336369407703, ,0.4581539152262199, ,0.0682843207281484
143, ,PASS, ,0.06446727458000003, ,0.05093434592847669, ,0.031610759934489904, ,0.0006887458249352055, ,0.8333333333333334, ,0.7737351474461216, ,0.4593171567927185, ,0.06779453480541213
144, ,PASS, ,0.06394574082000003, ,0.050681572102068494, ,0.03176959777518132, ,0.000679716533346583, ,0.8333333333333334, ,0.7727370844742385, ,0.4598069427154548, ,0.0691210383461562
145, ,PASS, ,0.06412958726, ,0.05092684447340651, ,0.03170737627206914, ,0.0006849065267867633, ,0.8333333333333334, ,0.7739887109099882, ,0.4593987877798412, ,0.07256994755209077
146, ,PASS, ,0.06392791995999998, ,0.050231310558773654, ,0.03164688345431848, ,0.0006733456610258975, ,0.8333333333333334, ,0.7691321969282529, ,0.4593375645394992, ,0.06522315871104671
147, ,PASS, ,0.06368016894, ,0.04996904888161763, ,0.03175301765162752, ,0.0006675114987725978, ,0.8333333333333334, ,0.7688783165147856, ,0.4594191955266219, ,0.06763127283116671
148, ,PASS, ,0.06332182726, ,0.04975222013509359, ,0.03178336460484194, ,0.0006605208944618954, ,0.8333333333333334, ,0.7703396180965771, ,0.4588681863635436, ,0.0722638313503806
149, ,PASS, ,0.06296665570000001, ,0.04918605338039818, ,0.031825306646007225, ,0.0006494757757741289, ,0.8333333333333334, ,0.76753854670351, ,0.4593171567927185, ,0.06824350523458705
150, ,PASS, ,0.06257614389999999, ,0.04894594071675227, ,0.03166117158633293, ,0.0006424109951035944, ,0.8333333333333334, ,0.7680097950920884, ,0.45952123426052527, ,0.06938633905430501
151, ,PASS, ,0.06244032029999999, ,0.04859971713985975, ,0.03183330291847105, ,0.000636516278730498, ,0.8333333333333334, ,0.764969142019738, ,0.45952123426052527, ,0.06681496295993959
152, ,PASS, ,0.06242843899999998, ,0.048119967551342825, ,0.03163603908191873, ,0.0006297577564260228, ,0.8333333333333334, ,0.7641905990908364, ,0.4594191955266219, ,0.06340686924756637
153, ,PASS, ,0.062276142299999976, ,0.048158415406074864, ,0.03168271133836044, ,0.000628788898565572, ,0.8333333333333334, ,0.761394341388469, ,0.45866410889573683, ,0.06414154813167078
154, ,PASS, ,0.06237179190000001, ,0.04797936956826151, ,0.03185957187649232, ,0.0006277514073377159, ,0.8333333333333334, ,0.7625772772123767, ,0.45899063284422764, ,0.06940674680108569
155, ,PASS, ,0.061869135299999975, ,0.04814394280784594, ,0.03199302501079569, ,0.0006246469087571169, ,0.8333333333333334, ,0.765521772018274, ,0.45937838003306053, ,0.06826391298136773
156, ,PASS, ,0.062149720000000006, ,0.04815425071849478, ,0.03199162788371666, ,0.0006274344015014363, ,0.8333333333333334, ,0.7646168935406008, ,0.458970225097447, ,0.06783535029897349
157, ,PASS, ,0.0621016903, ,0.047982503193937286, ,0.03162463387842697, ,0.0006248552416788909, ,0.8333333333333334, ,0.7617432705459855, ,0.4588477786167629, ,0.060468153711148755
158, ,PASS, ,0.06231803959999999, ,0.04837961836307164, ,0.031769029509946735, ,0.0006322743876855141, ,0.8333333333333334, ,0.7657487150239998, ,0.45909267157813105, ,0.06844758270239383
159, ,PASS, ,0.06233723960000002, ,0.04884836628208813, ,0.03171320138261668, ,0.0006383812667526265, ,0.8333333333333334, ,0.7680592412257498, ,0.45835799269402666, ,0.06787616579253485
160, ,PASS, ,0.06273247559999999, ,0.04930437738756321, ,0.03173649737853309, ,0.0006483977188711459, ,0.8333333333333334, ,0.7698657089780306, ,0.4593579722862799, ,0.06952919328176976
161, ,PASS, ,0.06313946250000002, ,0.04996730673659357, ,0.03175274681370788, ,0.0006612976359850216, ,0.9166666666666666, ,0.7728782883384872, ,0.45874573988285955, ,0.06732515662945654
162, ,PASS, ,0.06293454379999998, ,0.04987595263189507, ,0.03172549806096202, ,0.000658330982418565, ,0.9166666666666666, ,0.7732114745708332, ,0.45946001102018325, ,0.07012101793840941
163, ,PASS, ,0.0627821929, ,0.050333827721683586, ,0.03169253344720312, ,0.0006620699259653202, ,0.9166666666666666, ,0.776766596544052, ,0.45788861451807106, ,0.07105977429032061
164, ,PASS, ,0.0631011829, ,0.05026282195895712, ,0.03162325442017918, ,0.0006638946474309902, ,0.9166666666666666, ,0.7730261780314369, ,0.4563988490030816, ,0.06997816371094467
165, ,PASS, ,0.06330104087999999, ,0.05046643233963922, ,0.031792452918826146, ,0.0006690633344152274, ,0.9166666666666666, ,0.7771773948531059, ,0.4575824983163609, ,0.07505969265933349
166, ,PASS, ,0.06377683844, ,0.05140989565929653, ,0.03168506857519969, ,0.0006872658199472313, ,0.9166666666666666, ,0.7807723950114086, ,0.4590518560845697, ,0.07081488132895247
167, ,PASS, ,0.06318208378000001, ,0.05004844826788519, ,0.03167242294287055, ,0.0006631372966516807, ,0.8333333333333334, ,0.7742668309794728, ,0.45946001102018325, ,0.0697740862431379
168, ,PASS, ,0.0629440827, ,0.05232695872695438, ,0.0315677111359911, ,0.0006902939020467983, ,0.9166666666666666, ,0.7932712334613858, ,0.45899063284422764, ,0.08067182302401991
169, ,PASS, ,0.06285208688, ,0.0522797594100979, ,0.031539965727723926, ,0.0006884767972838284, ,0.9166666666666666, ,0.7931478601718759, ,0.4589498173506663, ,0.07748821452623415
170, ,PASS, ,0.06266905918, ,0.04974755721713156, ,0.031663596118487375, ,0.0006533928816842529, ,0.8333333333333334, ,0.774224895184405, ,0.459031448337789, ,0.0694883777882084
171, ,PASS, ,0.06262649769999999, ,0.0497146403143973, ,0.031633808463929304, ,0.0006529367977091908, ,0.8333333333333334, ,0.7748639593728749, ,0.4596844962347707, ,0.07265157853921349
172, ,PASS, ,0.06293790258000001, ,0.050143526481737685, ,0.03179421589913267, ,0.0006614123613142271, ,0.9166666666666666, ,0.7769876140045311, ,0.4594191955266219, ,0.072365870084284
173, ,PASS, ,0.0627966732, ,0.05045775095653525, ,0.03157254786986388, ,0.0006638923275335606, ,0.9166666666666666, ,0.7777154416507381, ,0.45780698353094834, ,0.07516173139323687
174, ,PASS, ,0.06349506273999998, ,0.05157367218982908, ,0.031472282303691354, ,0.0006865504782516828, ,0.9166666666666666, ,0.7831776889324537, ,0.45909267157813105, ,0.0721822003632579
175, ,PASS, ,0.06277520989999996, ,0.050047615359161926, ,0.03168874829949593, ,0.00065840273251016, ,0.9166666666666666, ,0.7766302336405386, ,0.45911307932491174, ,0.07367196587824738
176, ,PASS, ,0.06266202779999998, ,0.049303411634084665, ,0.03165829834307871, ,0.0006478667265416163, ,0.8333333333333334, ,0.769168649376484, ,0.45948041876696394, ,0.065141527723924
177, ,PASS, ,0.06255466559999999, ,0.04920929481171406, ,0.03170423252877696, ,0.0006449891463849883, ,0.9166666666666666, ,0.7697844153688386, ,0.45788861451807106, ,0.06193751147935756
178, ,PASS, ,0.06252504299999997, ,0.04907564043117745, ,0.03168097813298504, ,0.0006432927726419512, ,0.8333333333333334, ,0.7679720703886542, ,0.4584804391747107, ,0.06669251647925553
179, ,PASS, ,0.0625387272, ,0.04877313750501738, ,0.031643458228968795, ,0.0006398076225620465, ,0.8333333333333334, ,0.7673959560852693, ,0.45917430256525377, ,0.06587620660802841
180, ,PASS, ,0.062367464199999986, ,0.04896109298820227, ,0.0317193158250852, ,0.0006403170863654494, ,0.8333333333333334, ,0.7691910876112888, ,0.45917430256525377, ,0.06961082426889247
181, ,PASS, ,0.06227641859999999, ,0.04871643253910168, ,0.031764838497704125, ,0.0006362977077902525, ,0.8333333333333334, ,0.7691991446586713, ,0.4591538948184731, ,0.07173322993408297
182, ,PASS, ,0.06214884100000001, ,0.04859252634671957, ,0.03174199585086222, ,0.000633175528901488, ,0.8333333333333334, ,0.7664388838009143, ,0.4586028856553948, ,0.0629170833248301
183, ,PASS, ,0.062138706999999994, ,0.04800669963543156, ,0.03165514735921512, ,0.0006256299434838601, ,0.8333333333333334, ,0.7637057136480865, ,0.45901104059100833, ,0.06795779677965756
184, ,PASS, ,0.06170999199999998, ,0.04808768877121503, ,0.031531601253321356, ,0.0006214056702444547, ,0.9166666666666666, ,0.7661182644100735, ,0.45631721801595887, ,0.06871288341054264
185, ,PASS, ,0.06163151629999998, ,0.04810811352065374, ,0.03128936092546886, ,0.0006199323610719983, ,0.9166666666666666, ,0.7646129592469111, ,0.4542968510846717, ,0.06354972347503113
186, ,PASS, ,0.061873290299999995, ,0.04820942652373188, ,0.031587653240103264, ,0.0006250504008603831, ,0.8333333333333334, ,0.765892349355234, ,0.45754168282279956, ,0.06661088549213282
187, ,PASS, ,0.06197666839999995, ,0.04846836202101008, ,0.03162347788712475, ,0.0006297124932043438, ,0.8333333333333334, ,0.7668921176801632, ,0.4589498173506663, ,0.06740678761657926
188, ,PASS, ,0.062238861199999995, ,0.04901427473599869, ,0.031558289111512004, ,0.0006394097910119376, ,0.8333333333333334, ,0.7714338021946132, ,0.4584396236811494, ,0.0713454827452501
189, ,PASS, ,0.06251827469999999, ,0.0491296802396528, ,0.03165251983108508, ,0.0006439665579650167, ,0.8333333333333334, ,0.7711533487700674, ,0.4585212546682721, ,0.0739372665863962
190, ,PASS, ,0.0626923445, ,0.04931075024297613, ,0.031822335256562105, ,0.0006479647802661793, ,0.8333333333333334, ,0.7722506808368431, ,0.45907226383135036, ,0.07101895879675925
191, ,PASS, ,0.06272569378000001, ,0.04931971270949315, ,0.031725077351728734, ,0.0006485745952189722, ,0.8333333333333334, ,0.7703037357650917, ,0.45874573988285955, ,0.06922307708005959
192, ,PASS, ,0.06278810069999999, ,0.0495108419761193, ,0.03179426318487378, ,0.0006519982506424185, ,0.8333333333333334, ,0.7725868813140037, ,0.45882737086998227, ,0.07014142568519009
193, ,PASS, ,0.06288385460000002, ,0.04995608161078329, ,0.031649478716454765, ,0.0006583781812218146, ,0.9166666666666666, ,0.7744709328233139, ,0.45819473071978123, ,0.07297810248770434
194, ,PASS, ,0.06290558517999999, ,0.04998136270326678, ,0.03171112585115406, ,0.0006592189613942181, ,0.9166666666666666, ,0.7759828051019882, ,0.45874573988285955, ,0.07244750107140671
195, ,PASS, ,0.06297558398, ,0.05023778670155346, ,0.03150114223380135, ,0.0006627608789038204, ,0.9166666666666666, ,0.7761049347941873, ,0.4569090426725985, ,0.06879451439766536
196, ,PASS, ,0.06305819330000002, ,0.05041559935078076, ,0.031238781570984264, ,0.0006653501777343162, ,0.9166666666666666, ,0.7756750120222327, ,0.4555213158915124, ,0.06793738903287688
197, ,PASS, ,0.06301762479999998, ,0.05040921555173316, ,0.03136700096919654, ,0.0006645688446742525, ,0.9166666666666666, ,0.7757869870777312, ,0.4546029672863819, ,0.0732025877022918
198, ,PASS, ,0.06306457538000002, ,0.05052501732020278, ,0.03126662275809514, ,0.0006656114364690624, ,0.9166666666666666, ,0.7767729249603125, ,0.4537662496683741, ,0.07214138486969654
199, ,PASS, ,0.06337480037999998, ,0.050199157220115524, ,0.03124451367702006, ,0.0006655181545241473, ,0.9166666666666666, ,0.7738967920661538, ,0.4556029468786351, ,0.06938633905430501
200, ,PASS, ,0.06481169210000001, ,0.05211505511767984, ,0.031432478392405455, ,0.0007055135359446425, ,0.9166666666666666, ,0.7770285158326672, ,0.45335809473276056, ,0.07083528907573315
201, ,PASS, ,0.12005919000000002, ,0.10348500952111643, ,0.029045692497500046, ,0.002587600446487415, ,0.75, ,0.798142658483649, ,0.45323564825207646, ,0.11334462561988531
202, ,PASS, ,0.08282701899999999, ,0.07081826407388439, ,0.03035572629878982, ,0.0012229353091971664, ,1.0, ,0.7975566565883345, ,0.4551131609558989, ,0.09412052815248668
203, ,PASS, ,0.07019241442000003, ,0.05841574009909519, ,0.030837455455648248, ,0.0008549440732175259, ,0.9166666666666666, ,0.7861068971881087, ,0.4539499193894002, ,0.0800391828738189
204, ,PASS, ,0.06966623620000001, ,0.057573647513195214, ,0.031115131397128633, ,0.0008371107344459121, ,0.9166666666666666, ,0.784656701663498, ,0.45633762576273956, ,0.0810595702128528
205, ,PASS, ,0.06932322502, ,0.05782058011533713, ,0.03107591168349258, ,0.0008352989463791407, ,0.9166666666666666, ,0.7912939203957088, ,0.4543172588314524, ,0.0954062161996694
206, ,PASS, ,0.06944036336000001, ,0.05740836748525834, ,0.0311502890033383, ,0.0008318919356274735, ,0.9166666666666666, ,0.7841344510092896, ,0.4556437623721965, ,0.07916164976224975
207, ,PASS, ,0.06932890502000001, ,0.05736956506292561, ,0.031080126578620436, ,0.0008297627731387053, ,0.9166666666666666, ,0.7835826776533528, ,0.4551947919430216, ,0.07671272014856839
208, ,PASS, ,0.06943171164000002, ,0.057372404910766436, ,0.03119813241199404, ,0.0008310236145369792, ,0.9166666666666666, ,0.785845934150355, ,0.45613354829493274, ,0.0831003448909206
209, ,PASS, ,0.06950157100000001, ,0.05760848558627841, ,0.03095760051085243, ,0.00083543786858253, ,0.9166666666666666, ,0.7831614420064729, ,0.4552560151833636, ,0.07108018203710129
210, ,PASS, ,0.06944364787999999, ,0.05782910262795311, ,0.031210985951105077, ,0.0008385216570639069, ,0.9166666666666666, ,0.787329347252893, ,0.4578477990245097, ,0.08083508499826535
211, ,PASS, ,0.06952642634000002, ,0.05770009687615361, ,0.031245416467231283, ,0.0008371014359793419, ,0.9166666666666666, ,0.785811307674083, ,0.45660292647088835, ,0.08136568641456297
212, ,PASS, ,0.06967163140000002, ,0.05785691791198047, ,0.031174456704017063, ,0.0008415460033841182, ,0.9166666666666666, ,0.786459841053896, ,0.45701108140650193, ,0.0796718434317667
213, ,PASS, ,0.06960377136000002, ,0.05784195872063981, ,0.03128932849795515, ,0.0008405098522245021, ,0.9166666666666666, ,0.7865930068847818, ,0.4573784208485541, ,0.07879431032019754
214, ,PASS, ,0.0691989254, ,0.057916167153240806, ,0.03121774728012857, ,0.0008361612803831202, ,0.9166666666666666, ,0.7890685282471179, ,0.4560111018142487, ,0.08205954980510602
215, ,PASS, ,0.06978312024000002, ,0.05820933906459618, ,0.03132376827590335, ,0.0008477982164320681, ,0.9166666666666666, ,0.7877288688845844, ,0.4575620905695802, ,0.08397787800248975
216, ,PASS, ,0.07014951592, ,0.05855145012692261, ,0.030941809497925347, ,0.0008566656606566628, ,0.9166666666666666, ,0.7873858363925733, ,0.45503152996877616, ,0.08195751107120262
217, ,PASS, ,0.07041977262, ,0.05880259461022998, ,0.03130510012866676, ,0.0008634856657479344, ,0.9166666666666666, ,0.7864585643535177, ,0.45486826799453073, ,0.0794881737107406
218, ,PASS, ,0.07048006704000001, ,0.0586793055826453, ,0.031175466198138813, ,0.0008629685216277635, ,0.9166666666666666, ,0.7871712716068636, ,0.45705189690006326, ,0.08026366808840636
219, ,PASS, ,0.07068156672000002, ,0.05887030637972536, ,0.031096385459978778, ,0.000868186323453939, ,0.9166666666666666, ,0.7873501278313205, ,0.45613354829493274, ,0.08340646109263077
220, ,PASS, ,0.07045220838000003, ,0.05880196508819218, ,0.031060170650581826, ,0.0008645320382038913, ,0.9166666666666666, ,0.7875105065881736, ,0.4564192567498622, ,0.07912083426868839
221, ,PASS, ,0.07075769512, ,0.058907402884683636, ,0.03128327395935593, ,0.000869741719593394, ,0.9166666666666666, ,0.7880748212894741, ,0.4567661884451338, ,0.08075345401114263
222, ,PASS, ,0.07063167026, ,0.05914083503440726, ,0.03131172892367054, ,0.0008723356746085609, ,0.9166666666666666, ,0.7902423169360138, ,0.4581539152262199, ,0.0846717413930328
223, ,FAIL, ,0.007282149999999998, ,0.0009624598630919195, ,0.03404830034346237, ,1.6865880143441944e-06, ,0.0, ,0.28176996467352916, ,0.350482643211363, ,0.010591620579171854
224, ,PASS, ,0.07062655116000001, ,0.05866910056204323, ,0.03137133919117324, ,0.0008656536928632472, ,0.9166666666666666, ,0.785769125914516, ,0.4588477786167629, ,0.08054937654333585
225, ,PASS, ,0.0704086039, ,0.058478936303437694, ,0.031279708452331585, ,0.0008599155297549222, ,0.9166666666666666, ,0.7872182095414156, ,0.458398808187588, ,0.08667170057753923
226, ,PASS, ,0.07041752174000003, ,0.0585290405254468, ,0.03147610302719618, ,0.0008607841994899198, ,0.9166666666666666, ,0.7850817338978714, ,0.4584396236811494, ,0.07856982510561009
227, ,PASS, ,0.07045081994000002, ,0.05847461968420686, ,0.0314503134079178, ,0.0008603015238346333, ,0.9166666666666666, ,0.7873668974990452, ,0.45880696312320157, ,0.08332483010550805
228, ,PASS, ,0.07129310093999999, ,0.059398111715782374, ,0.03137804377723067, ,0.0008845134719161037, ,0.9166666666666666, ,0.7888907729594337, ,0.4585008469214914, ,0.08379420828146364
229, ,PASS, ,0.07073317176, ,0.05910539472502246, ,0.03124342652975409, ,0.0008730463956114573, ,0.9166666666666666, ,0.7896511819853952, ,0.4580314687455358, ,0.08177384135017653
230, ,FAIL, ,0.00920942999999998, ,0.0011782709497995252, ,0.03413916305157037, ,2.6869896666167576e-06, ,0.0, ,0.22127033661156337, ,0.5191730781004469, ,0.011591600171425073
231, ,PASS, ,0.07098381984000002, ,0.059156618857718085, ,0.031351956336417214, ,0.0008767880137595641, ,0.9166666666666666, ,0.7883199580396425, ,0.45827636170690395, ,0.08575335197240873
232, ,PASS, ,0.07035142054000001, ,0.05851495439869074, ,0.031268308660533865, ,0.0008594964331086452, ,0.9166666666666666, ,0.7877198490017537, ,0.4578477990245097, ,0.08548805126425991
233, ,PASS, ,0.07111342020000001, ,0.05889889569870723, ,0.03137319832030244, ,0.0008748442691720252, ,0.9166666666666666, ,0.7864684835507154, ,0.45872533213607886, ,0.08399828574927043
234, ,PASS, ,0.07110006188, ,0.05890893881140688, ,0.03131566376510398, ,0.0008746296315873407, ,0.9166666666666666, ,0.7864553270413588, ,0.4585620701618334, ,0.07969225117854738
235, ,PASS, ,0.07092807532, ,0.05880722210311208, ,0.031244208759953877, ,0.0008710987313689785, ,0.9166666666666666, ,0.7867295160674235, ,0.4583171772004653, ,0.08361053856043754
236, ,PASS, ,0.0723011654, ,0.060379772748221504, ,0.031080230875389483, ,0.0009114266147874165, ,0.9166666666666666, ,0.7886754207712235, ,0.4580926919858778, ,0.08007999836738025
237, ,PASS, ,0.07272985659999999, ,0.060673433878175254, ,0.03107215123825881, ,0.0009219270359620303, ,0.9166666666666666, ,0.7909093502408778, ,0.4584804391747107, ,0.08444725617844534
238, ,PASS, ,0.07166680650000001, ,0.05891112891101617, ,0.031293737943446864, ,0.0008820688178019693, ,0.9166666666666666, ,0.7848364678358888, ,0.45846003142793, ,0.07867186383951348
239, ,PASS, ,0.07147532206000004, ,0.05948746542717926, ,0.031063204080711004, ,0.0008879188254696775, ,0.9166666666666666, ,0.7876794927830288, ,0.45837840044080735, ,0.08261055896818432
240, ,PASS, ,0.07196858426000001, ,0.059575417620017786, ,0.03118671837022346, ,0.0008952947603456997, ,0.9166666666666666, ,0.7852000841470037, ,0.4576029060631416, ,0.07867186383951348
241, ,PASS, ,0.07200874636, ,0.05990980748876655, ,0.031143078724250525, ,0.0009008698221578445, ,0.9166666666666666, ,0.7885340918638287, ,0.45817432297300054, ,0.08630436113548703
242, ,PASS, ,0.07176112317999998, ,0.05963996877146978, ,0.031302607119674294, ,0.000893533631918297, ,0.9166666666666666, ,0.7870831050893365, ,0.4580926919858778, ,0.08742678720842431
243, ,PASS, ,0.0721798678, ,0.05957082760483361, ,0.031391980924004, ,0.0008984494145622642, ,0.9166666666666666, ,0.7863843695208326, ,0.45917430256525377, ,0.08295749066345585
244, ,PASS, ,0.07262515, ,0.059921635947284946, ,0.03131136773143854, ,0.0009088354015963021, ,0.9166666666666666, ,0.7875726030978992, ,0.4593987877798412, ,0.07940654272361788
245, ,PASS, ,0.07230616979999997, ,0.06030347586360886, ,0.03122831932885737, ,0.000910615267023591, ,0.9166666666666666, ,0.7882903292910248, ,0.4585008469214914, ,0.08536560478357584
246, ,PASS, ,0.0722288088, ,0.059782857609709354, ,0.031135380033802985, ,0.0009020322432698555, ,0.9166666666666666, ,0.7855893157025505, ,0.45854166241505273, ,0.0869778167792494
247, ,PASS, ,0.07237641270000003, ,0.06021305186485845, ,0.031219049681869757, ,0.0009100964278142312, ,0.9166666666666666, ,0.7854296270366891, ,0.4580518764923165, ,0.07559029407563111
248, ,PASS, ,0.07276307339999999, ,0.06038237598402478, ,0.03122410227335483, ,0.0009171623358804731, ,0.9166666666666666, ,0.7859631743768665, ,0.4579498377584131, ,0.07685557437603315
249, ,PASS, ,0.07274827028000003, ,0.060613405934139525, ,0.031089125764026858, ,0.0009200197844038715, ,0.9166666666666666, ,0.7888659029196466, ,0.45725597436787, ,0.0870798555131528
250, ,PASS, ,0.0724256614, ,0.060008075331306934, ,0.031332071444363174, ,0.0009075599685876864, ,0.9166666666666666, ,0.7846440359620519, ,0.4577253525438256, ,0.07963102793820534
251, ,PASS, ,0.0726223744, ,0.06016201656652045, ,0.03124470286843738, ,0.0009124425250441704, ,0.9166666666666666, ,0.7860256216322217, ,0.45823554621334256, ,0.0820799575518867
252, ,PASS, ,0.07213239450000002, ,0.0601704904983422, ,0.031097743186768435, ,0.0009058773759801359, ,0.9166666666666666, ,0.7894214432750313, ,0.45778657578416765, ,0.08154935613558907
253, ,PASS, ,0.0725588232, ,0.0601627507608271, ,0.03108480312838187, ,0.0009108493175847833, ,0.9166666666666666, ,0.7854193365881122, ,0.4562764025223975, ,0.08254933572784229
254, ,PASS, ,0.0727051669, ,0.060716973075034035, ,0.030836868950884267, ,0.0009206266747886258, ,0.9166666666666666, ,0.7862193961506234, ,0.4546029672863819, ,0.08081467725148467
255, ,PASS, ,0.0728647858, ,0.06092416640881466, ,0.03093616979863758, ,0.0009256773690967582, ,0.9166666666666666, ,0.7880448655832003, ,0.4549907144752148, ,0.08677373931144262
