Channel, ,Pass/Fail, ,Amplitude, ,Sorting Function Response, ,Mean, ,Variance
0, ,PASS, ,0.03490800013407501, ,0.020971301651602492, ,0.0028691169108831668, ,0.00015076453021533446
1, ,PASS, ,0.037589238507666003, ,0.028509054271620315, ,0.003692452913296814, ,0.00021993948157948695
2, ,PASS, ,0.037755810673154006, ,0.02826772841374256, ,0.0036896106190848726, ,0.00021900433250833358
3, ,PASS, ,0.03750668375906101, ,0.02797455684541669, ,0.0036070538843780853, ,0.00021522046319428083
4, ,PASS, ,0.037158629082768, ,0.02782827574608053, ,0.0036718298579950714, ,0.0002119853524767798
5, ,PASS, ,0.037336145462379, ,0.027692837700278947, ,0.0036090446137404825, ,0.0002118627488647953
6, ,PASS, ,0.037293277101634006, ,0.027735480396673336, ,0.0036326187099808413, ,0.00021184836756133537
7, ,PASS, ,0.037316789930051, ,0.027741648848401048, ,0.003609145941377514, ,0.00021206063953982442
8, ,PASS, ,0.037445407100629005, ,0.02802677462925925, ,0.003671550141906867, ,0.00021500972485378838
9, ,PASS, ,0.03754658439530201, ,0.027987519702339616, ,0.0036758475119615733, ,0.0002151736996630169
10, ,PASS, ,0.037531063321791, ,0.028109184791514665, ,0.0036814330351546513, ,0.0002161062134666195
11, ,PASS, ,0.03762057949936501, ,0.02841213677303886, ,0.0037454003164271964, ,0.0002189045179985846
12, ,PASS, ,0.03767983058675001, ,0.02849549441412102, ,0.003676395159256979, ,0.0002199441017217214
13, ,PASS, ,0.037679535704846, ,0.028468206262942747, ,0.0037385029168163493, ,0.00021977292377988163
14, ,PASS, ,0.037682862713144, ,0.028660929328972018, ,0.0037202584562473547, ,0.00022135499929933514
15, ,PASS, ,0.037733287604431995, ,0.02868323051068155, ,0.0037657427111528075, ,0.00022180997407144783
16, ,PASS, ,0.037784927414452996, ,0.02872900839151852, ,0.0037115762331454767, ,0.00022238738130988975
17, ,PASS, ,0.037840735652531994, ,0.028753229964748463, ,0.0038180257521762493, ,0.00022278914390923794
18, ,PASS, ,0.037777895960741, ,0.02882005571352405, ,0.003784189589516141, ,0.00022283229960023702
19, ,PASS, ,0.03768325781487499, ,0.028832944547432692, ,0.0037220191559162084, ,0.00022229483405974442
20, ,PASS, ,0.037818626057611, ,0.028729571327543064, ,0.0037408002256482777, ,0.0002222675343811775
21, ,PASS, ,0.037854870697445, ,0.028736131096126005, ,0.003759204976341799, ,0.00022252395871938404
22, ,PASS, ,0.03807000740467, ,0.02900410979402421, ,0.003792337354699242, ,0.00022586796974157086
23, ,PASS, ,0.03803960326333001, ,0.0288099466144161, ,0.003740483252582235, ,0.00022412627059996068
24, ,PASS, ,0.038109661689913005, ,0.028835547321141863, ,0.003802444035502988, ,0.0002247409292081059
25, ,PASS, ,0.03833624041758701, ,0.028872476916366, ,0.003781385831051325, ,0.00022641200068264957
26, ,PASS, ,0.038223933227417003, ,0.028815051436630913, ,0.0037795916864283323, ,0.0002253242214773692
27, ,PASS, ,0.038319726554063, ,0.028928631418111604, ,0.0038360840404136967, ,0.00022679525058326715
28, ,PASS, ,0.038420354535103, ,0.028522644107681523, ,0.003764941314838215, ,0.00022427896973728137
29, ,PASS, ,0.038543682999945, ,0.0288126080632261, ,0.0037879450713449725, ,0.00022732856052661775
30, ,PASS, ,0.039331223437000996, ,0.03198625033505349, ,0.0041232314855883445, ,0.0002576797329742525
31, ,PASS, ,0.039345987983950004, ,0.03196876682835529, ,0.004127026937676347, ,0.0002575927740006988
32, ,PASS, ,0.03859460036414, ,0.02916848146814, ,0.0038462223514368807, ,0.00023029215116210133
33, ,PASS, ,0.038649442790325006, ,0.029132420720062446, ,0.003803857049735631, ,0.00023034061578182334
34, ,PASS, ,0.038685127429953, ,0.029046364765489812, ,0.003787079259918984, ,0.00022982050334341354
35, ,PASS, ,0.03864277873612601, ,0.02905132443295706, ,0.00379280499585415, ,0.00022958902395188771
36, ,PASS, ,0.038692837466069996, ,0.028937755577348928, ,0.003828741572715408, ,0.00022892303944570854
37, ,PASS, ,0.039047571809412, ,0.02915679484834482, ,0.0038441883682652565, ,0.00023280584492935355
38, ,PASS, ,0.03950215416052401, ,0.030287934077734176, ,0.003929196179222085, ,0.0002445650941420192
39, ,PASS, ,0.039379957013202, ,0.03025076756571075, ,0.003972647389789679, ,0.0002434977896393514
40, ,PASS, ,0.039275515079119, ,0.02918760531760255, ,0.003823519151225324, ,0.000234299901529508
41, ,PASS, ,0.039423315141714, ,0.029174254853468355, ,0.0037759676649761526, ,0.00023510382277747098
42, ,PASS, ,0.039301674233458, ,0.029213325790560313, ,0.0038525367717887893, ,0.00023468408908777205
43, ,PASS, ,0.039345852338894, ,0.029015064256154497, ,0.003815820193520808, ,0.0002333373028153224
44, ,PASS, ,0.039322163466022006, ,0.029239811623305925, ,0.0038531797567770056, ,0.000235061358431707
45, ,PASS, ,0.03948907872671901, ,0.029373965747236646, ,0.0038458986105265563, ,0.00023721657093545159
46, ,PASS, ,0.039400342627798006, ,0.029245476999114856, ,0.003834052461106357, ,0.00023565425306513421
47, ,PASS, ,0.039250592245342004, ,0.029141281418196135, ,0.003863509645258922, ,0.00023381510128032325
48, ,PASS, ,0.039315756062829985, ,0.028766775376670998, ,0.003711018084011164, ,0.00023122780236643637
49, ,PASS, ,0.039308292176419, ,0.028967234342993108, ,0.0037638667450327714, ,0.0002327379436017371
50, ,PASS, ,0.039281699171927004, ,0.028809936535570804, ,0.0037330879017181727, ,0.00023140851728406324
51, ,PASS, ,0.039165032683351995, ,0.028577810934167936, ,0.0036874354503549237, ,0.00022890805671446664
52, ,PASS, ,0.039313924370165, ,0.028939850891251912, ,0.0037120307901318977, ,0.00023277897531247667
53, ,PASS, ,0.039344967876737996, ,0.02896319788194222, ,0.0037567132783111997, ,0.00023318046216968903
54, ,PASS, ,0.039180069372493, ,0.02898828190063406, ,0.0037583553842198848, ,0.0002323504942271721
55, ,PASS, ,0.03936567515568601, ,0.02914269116425159, ,0.0037900978110348696, ,0.0002346374384996953
56, ,PASS, ,0.03926082402700799, ,0.028822507459317855, ,0.003755987419463859, ,0.00023161833052948606
57, ,PASS, ,0.039412496466743996, ,0.028788776672162716, ,0.0037500583829130755, ,0.00023235416734465437
58, ,PASS, ,0.039444685573597996, ,0.028739025686534272, ,0.0037327679436321985, ,0.00023213543112753844
59, ,PASS, ,0.039385723425636, ,0.028639118511561992, ,0.0037709831722641247, ,0.0002309727619720185
60, ,PASS, ,0.039888718863112, ,0.028788940163098114, ,0.003750820403153055, ,0.00023505286595182972
61, ,PASS, ,0.03990065519685601, ,0.028843556706189072, ,0.003710868279820368, ,0.00023554598734895935
62, ,PASS, ,0.03978835037686, ,0.028759383625639096, ,0.003720450788299492, ,0.0002341543152342831
63, ,PASS, ,0.039824897103825, ,0.028871314950969736, ,0.0037393178923318636, ,0.00023514087816285317
64, ,PASS, ,0.040476160215075004, ,0.02949552667021136, ,0.0038018801534931215, ,0.00024407148459233913
65, ,PASS, ,0.040318830323680006, ,0.029469495120005493, ,0.003876445524012203, ,0.0002428044608391334
66, ,PASS, ,0.040301970278889, ,0.029396088740540335, ,0.0038292207514631087, ,0.0002421583145661496
67, ,PASS, ,0.040500144577561, ,0.029578083689826548, ,0.0038637737507104296, ,0.0002448821939624153
68, ,PASS, ,0.040996987296776005, ,0.02952825168737592, ,0.0038679433465496006, ,0.00024751217927107143
69, ,PASS, ,0.043500141258955, ,0.031007356681685232, ,0.003970850845812231, ,0.000275716295649372
70, ,PASS, ,0.11275662773228101, ,0.09858336800973055, ,0.01184518751388626, ,0.002275304078442992
71, ,PASS, ,0.040747549845402006, ,0.02869113633171024, ,0.003841139930896375, ,0.0002392182141195794
72, ,PASS, ,0.036657643996235, ,0.025327938330700763, ,0.003381154337921832, ,0.0001901661218458359
73, ,PASS, ,0.036547932391696, ,0.025226623797055623, ,0.0033085148127030986, ,0.0001888072663425397
74, ,PASS, ,0.036604929059692, ,0.02530236170645229, ,0.0033883876110307625, ,0.00018956890786203548
75, ,PASS, ,0.036487403026222, ,0.025144759867670608, ,0.003360335552431052, ,0.00018774582367890933
76, ,PASS, ,0.03643539843966899, ,0.024734078314500526, ,0.003254026131537531, ,0.00018452008314100615
77, ,PASS, ,0.036506616801109004, ,0.024749969786453555, ,0.0033332113470029585, ,0.0001849941011646652
78, ,PASS, ,0.036452055462591004, ,0.02471293562443057, ,0.003311763402935262, ,0.00018442189063312233
79, ,PASS, ,0.036264796261830004, ,0.024733334596790266, ,0.003251554849212969, ,0.00018367949085861023
80, ,PASS, ,0.036729823189612, ,0.025237117226581528, ,0.003376995264861853, ,0.00018973300264031484
81, ,PASS, ,0.036856058744295, ,0.02538749311505144, ,0.0033373253795378217, ,0.00019143739383560763
82, ,PASS, ,0.03668873515069, ,0.02527565277225106, ,0.0033725761458461858, ,0.0001896468960211504
83, ,PASS, ,0.03672375886184001, ,0.02528070416132941, ,0.0033659238937145458, ,0.00018985342101503013
84, ,PASS, ,0.03683068357667499, ,0.02498053697248559, ,0.0033238655466006238, ,0.00018817643409734842
85, ,PASS, ,0.03689255715472399, ,0.024921377512732663, ,0.003339761411393659, ,0.0001880359574397746
86, ,PASS, ,0.036951696416607005, ,0.0250496029663991, ,0.0032990015946163112, ,0.00018936463677920974
87, ,PASS, ,0.036882542182978005, ,0.02496035115371811, ,0.003356807920307287, ,0.00018828401620937766
88, ,PASS, ,0.03696974110175401, ,0.025171889723279876, ,0.0033685384092494637, ,0.00019027849484821226
89, ,PASS, ,0.03710054682278101, ,0.025202397852272802, ,0.003363448792207558, ,0.00019119030422139915
90, ,PASS, ,0.03712169831599001, ,0.02525291021304874, ,0.003316772881234758, ,0.00019164598527510459
91, ,PASS, ,0.037066819720489, ,0.025267371382660213, ,0.0033681616038652466, ,0.00019150714415017912
92, ,PASS, ,0.037380502152176004, ,0.025587864551790143, ,0.0034064947122111706, ,0.0001956140121836536
93, ,PASS, ,0.037459453488513, ,0.02560646439561088, ,0.003463935644757027, ,0.0001961745841532014
94, ,PASS, ,0.037518056460609, ,0.025734017955162666, ,0.0033953841479070408, ,0.00019743565552735482
95, ,PASS, ,0.037463269796310004, ,0.025688193763692812, ,0.0033824758571798057, ,0.0001968077608587166
96, ,PASS, ,0.037523911702786995, ,0.025421964877874615, ,0.003317499054755611, ,0.0001950766835799099
97, ,PASS, ,0.037768052706707, ,0.025954458923297577, ,0.003421116291521858, ,0.00020042035660292553
98, ,PASS, ,0.037769700165416004, ,0.026483626895582427, ,0.003535639664385145, ,0.0002045469855631089
99, ,PASS, ,0.037377375525236, ,0.025399811236214338, ,0.0033863151626588503, ,0.00019410677524153594
100, ,PASS, ,0.03727296948152, ,0.02551046206860199, ,0.003423454784541472, ,0.00019438372562325195
101, ,PASS, ,0.037377570241366995, ,0.025454062384489377, ,0.0033727234685861944, ,0.0001944791658302378
102, ,PASS, ,0.03735187646177, ,0.025659225805347997, ,0.0033632774346518627, ,0.000195912124517115
103, ,PASS, ,0.03686730256898099, ,0.0257253504111536, ,0.0034034497657477267, ,0.0001939407083137667
104, ,PASS, ,0.037047422184014994, ,0.025935271716035397, ,0.0033576576320721507, ,0.000196470041404364
105, ,PASS, ,0.038107114810597, ,0.026191920434384047, ,0.0034708692040487745, ,0.00020403206894263344
106, ,PASS, ,0.03855515049535299, ,0.027536700082197677, ,0.003544251650355392, ,0.00021707246699421333
107, ,PASS, ,0.037832604179213004, ,0.025556247579694737, ,0.003318969847892139, ,0.0001976631476883551
108, ,PASS, ,0.037861402772744, ,0.025750529239568064, ,0.0033679394455089382, ,0.00019926559047071368
109, ,PASS, ,0.03776837319505601, ,0.025665456778020453, ,0.0034661284452332255, ,0.00019810345521258904
110, ,PASS, ,0.037697687437308995, ,0.025674328516655107, ,0.0033806785779869146, ,0.00019776852121237566
111, ,PASS, ,0.03759039559102599, ,0.025426196813455353, ,0.003300389948460249, ,0.00019534431431411572
112, ,PASS, ,0.037438280530396, ,0.025201130282162663, ,0.00333461910938386, ,0.0001928164091004222
113, ,PASS, ,0.037264181970333, ,0.02516240945947245, ,0.0033484833508666927, ,0.0001915937752752721
114, ,PASS, ,0.037123855154459, ,0.02503464148514156, ,0.003348083263259302, ,0.00018987663199946135
115, ,PASS, ,0.036897366753358, ,0.02496855367325905, ,0.0033279039574740385, ,0.00018822824815547035
116, ,PASS, ,0.03680334531463501, ,0.024953444469775, ,0.0032604523278205668, ,0.0001876109654056333
117, ,PASS, ,0.036749848554741005, ,0.024732285695176298, ,0.0032249077561433766, ,0.00018567381720948522
118, ,PASS, ,0.03651843822603901, ,0.024760164335058368, ,0.003304504964247494, ,0.00018469056707680733
119, ,PASS, ,0.036494286027836, ,0.02468549560549592, ,0.0032462852232866845, ,0.0001840255593792177
120, ,PASS, ,0.036477137358901006, ,0.024909822674252492, ,0.0032909757189380404, ,0.00018557378030780746
121, ,PASS, ,0.036286965663852006, ,0.024851331784283434, ,0.0032744141162508295, ,0.00018420472209959397
122, ,PASS, ,0.03633336572094199, ,0.024739600531775176, ,0.003276984910257291, ,0.00018359595065837826
123, ,PASS, ,0.036278442702969, ,0.024688271259916232, ,0.0032821114700473286, ,0.00018292824798230795
124, ,PASS, ,0.035572968546038, ,0.024522260891983422, ,0.0032335467337051217, ,0.00017815642559231343
125, ,PASS, ,0.03611652741692, ,0.024661751263211355, ,0.0032885157630582742, ,0.00018190711329530847
126, ,PASS, ,0.036459414515684, ,0.024771617750377364, ,0.003294847706506123, ,0.0001844318114850087
127, ,PASS, ,0.03638418607903299, ,0.02477759417576908, ,0.003316799165804668, ,0.0001841000532074959
128, ,PASS, ,0.036014831488664, ,0.024321320859333563, ,0.0031606418957167036, ,0.00017898907678124461
129, ,PASS, ,0.036438366015395, ,0.02455809208390488, ,0.0032838422813334573, ,0.00018284919806365674
130, ,PASS, ,0.036818407588861, ,0.02473412300896721, ,0.00328093686504236, ,0.00018606887221113994
131, ,PASS, ,0.036979885746847005, ,0.02483918112529929, ,0.003264581170841022, ,0.0001877484894770074
132, ,PASS, ,0.03814508705844599, ,0.02540340958437251, ,0.003316600845058604, ,0.0001980319679024068
133, ,PASS, ,0.060586580139422, ,0.05338848776604465, ,0.006578353992309206, ,0.0006617954315348034
134, ,PASS, ,0.063032603503627, ,0.05568148589962007, ,0.006870315374487853, ,0.0007182931003070942
135, ,PASS, ,0.034850241567444984, ,0.022634185969613065, ,0.0029813039113325444, ,0.00016124532367957134
136, ,PASS, ,0.03330441082143601, ,0.021601359640555227, ,0.0028835767665109703, ,0.0001470973197512453
137, ,PASS, ,0.033419393996387, ,0.021517242343191856, ,0.0028520581783338583, ,0.00014702642617442444
138, ,PASS, ,0.033356583182821004, ,0.021563879900679667, ,0.002882363783037723, ,0.00014707476997425877
139, ,PASS, ,0.033455420572923, ,0.021762940493550115, ,0.002861494832904067, ,0.00014880697476410412
140, ,PASS, ,0.033233651428311, ,0.021639032514537745, ,0.0028675464711514424, ,0.0001469926185188278
141, ,PASS, ,0.033362674343329, ,0.021739789600633698, ,0.0029376154820434696, ,0.0001481842153847922
142, ,PASS, ,0.033289259453456, ,0.021795640035505496, ,0.002923993695502551, ,0.00014821475105783442
143, ,PASS, ,0.033270474032780994, ,0.021810493286982844, ,0.002962556072407879, ,0.0001482264953573775
144, ,PASS, ,0.03328072336934101, ,0.02174346753935278, ,0.0028378965781568075, ,0.0001477582288926762
145, ,PASS, ,0.033352202231889, ,0.02179973520099258, ,0.0028993427951789505, ,0.00014843121934055267
146, ,PASS, ,0.033213455454438004, ,0.021824830717643087, ,0.0029560345315795453, ,0.00014796039026799456
147, ,PASS, ,0.033265062071832, ,0.021869223486376793, ,0.003003684262548995, ,0.00014847080874758476
148, ,PASS, ,0.033208831609095, ,0.021886952047126505, ,0.003001195161470219, ,0.00014834539657445007
149, ,PASS, ,0.033336215398005, ,0.021936005583382573, ,0.0029740452777731775, ,0.00014926415894373233
150, ,PASS, ,0.033271917733275994, ,0.021912365035049054, ,0.003029624339093547, ,0.0001487911583488069
151, ,PASS, ,0.033190383913751995, ,0.021904500418789996, ,0.002979010265314697, ,0.00014837575719667067
152, ,PASS, ,0.03319611257421601, ,0.021836149240013016, ,0.002991337582138753, ,0.00014795394576548268
153, ,PASS, ,0.033373071117355005, ,0.021753645783855, ,0.003009130060553304, ,0.00014817595293197848
154, ,PASS, ,0.03332989409550001, ,0.021742138013419388, ,0.002992881118647296, ,0.0001479106219449625
155, ,PASS, ,0.033219416706355004, ,0.021846695130317745, ,0.002987663128710692, ,0.00014812664446955435
156, ,PASS, ,0.03348604407023201, ,0.021688537115663372, ,0.002965882933257447, ,0.00014825296116747824
157, ,PASS, ,0.033468668935706006, ,0.0216331680406744, ,0.002965338658860357, ,0.00014779170838984478
158, ,PASS, ,0.033458910444338005, ,0.021699764029187916, ,0.0029579290510573595, ,0.00014820283000290682
159, ,PASS, ,0.033443221881057, ,0.021679313471690817, ,0.002930383198784703, ,0.00014800145512100204
160, ,PASS, ,0.033493517797208994, ,0.02172835415720436, ,0.0029507776881421534, ,0.00014853093051355807
161, ,PASS, ,0.03391845488624, ,0.022929521140236157, ,0.003035638462596957, ,0.00015875896230777128
162, ,PASS, ,0.03360052670184199, ,0.022076433406867182, ,0.002966603358107986, ,0.00015140113105916846
163, ,PASS, ,0.033481088935835, ,0.021708428894914134, ,0.0029463477910208016, ,0.000148383896314661
164, ,PASS, ,0.03348865167925001, ,0.021599341414218792, ,0.0029159549436759795, ,0.00014765964261418457
165, ,PASS, ,0.033423048287406, ,0.02156635799840438, ,0.0030058766022053123, ,0.0001471240900692989
166, ,PASS, ,0.033316731245075996, ,0.021554345764558756, ,0.0029482524881168574, ,0.00014656826522778344
167, ,PASS, ,0.033191556519704, ,0.021582088214682948, ,0.0029059386234337606, ,0.00014620238314797963
168, ,PASS, ,0.032896460726802, ,0.022012411883327098, ,0.0030126453214036706, ,0.00014777979357536935
169, ,PASS, ,0.032845139789568004, ,0.02147812443805741, ,0.002862713834960271, ,0.00014398641553835728
170, ,PASS, ,0.032278525664674, ,0.021176222303671357, ,0.0028521064407413432, ,0.0001394867020412037
171, ,PASS, ,0.032592668523328, ,0.021495138267060145, ,0.002975770282259383, ,0.00014297851824523163
172, ,PASS, ,0.032237723904292, ,0.021181931258194772, ,0.0028460636151392375, ,0.00013934101204902098
173, ,PASS, ,0.031992962100360005, ,0.021066546571251166, ,0.002852906281181801, ,0.00013753308592870836
174, ,PASS, ,0.031749340209032, ,0.020893094829373036, ,0.002787432938286961, ,0.00013536194640849974
175, ,PASS, ,0.03156734161527701, ,0.020714825156406647, ,0.0028673788501885674, ,0.00013345676562964267
176, ,PASS, ,0.031656021190160005, ,0.020464736820056294, ,0.0029027261863899243, ,0.000132257217336839
177, ,PASS, ,0.031545964130259, ,0.02038033442345447, ,0.002784371276323147, ,0.00013125578188256565
178, ,PASS, ,0.03144611731773201, ,0.02035706451069451, ,0.0028144224147023276, ,0.00013068249635458557
179, ,PASS, ,0.031135149442959004, ,0.020277999917866663, ,0.0027560957995772144, ,0.00012888746800950902
180, ,PASS, ,0.031179042913672003, ,0.02032524187790936, ,0.002800808892822151, ,0.00012941061091606155
181, ,PASS, ,0.031085636208353, ,0.02034476299748599, ,0.002783083001772327, ,0.00012911882911649842
182, ,PASS, ,0.030895178501484, ,0.020286923177236398, ,0.002802659092073636, ,0.00012791368445981967
183, ,PASS, ,0.030883704348715006, ,0.020289048334071615, ,0.0028279696808444586, ,0.00012789181621949354
184, ,PASS, ,0.030851047025087, ,0.020142726094298517, ,0.0028224052339525744, ,0.0001268285785983184
185, ,PASS, ,0.030689489545745997, ,0.019903776300255846, ,0.002771278021588439, ,0.00012471277346892286
186, ,PASS, ,0.030502248904183002, ,0.01999530370321168, ,0.002800185704478603, ,0.00012449622713157205
187, ,PASS, ,0.030407133828432, ,0.019901660621941073, ,0.002776004783830834, ,0.0001235337397150502
188, ,PASS, ,0.030352299164467, ,0.019969583477092153, ,0.002774470354424288, ,0.00012373708507853947
189, ,PASS, ,0.030282789192075003, ,0.01998683769210075, ,0.002814398959138246, ,0.0001235661808283475
190, ,PASS, ,0.03017384433848, ,0.019903456687771617, ,0.0027066925065276034, ,0.00012259692672325067
191, ,PASS, ,0.030050689831475, ,0.0198113416516075, ,0.0027570053438361183, ,0.00012152819170179267
192, ,PASS, ,0.030041946289686, ,0.019644451466533666, ,0.002798653574857384, ,0.00012047873303523202
193, ,PASS, ,0.030015178340612, ,0.019811274859322898, ,0.0027375084201927834, ,0.00012140539773866005
194, ,PASS, ,0.029880315236146995, ,0.019632266798805587, ,0.0027240883514420113, ,0.00011976039033299145
195, ,PASS, ,0.030186833802046, ,0.019731648203233032, ,0.0026862262650337895, ,0.00012160093278710452
196, ,PASS, ,0.033900998138885, ,0.022800647647573745, ,0.0030921027004291927, ,0.00015770848553455028
197, ,PASS, ,0.08505041464935201, ,0.07405273694535487, ,0.00908215738630851, ,0.0012883593586149847
198, ,PASS, ,0.030508056210187998, ,0.0206351535592969, ,0.002829143198461682, ,0.00012840889761955645
199, ,PASS, ,0.027959066102604, ,0.019280010205027575, ,0.002536985316732184, ,0.00011002616298909193
200, ,PASS, ,0.027450477219763, ,0.019186200993939397, ,0.0026919639833199974, ,0.00010750540983832983
201, ,PASS, ,0.027604613981670002, ,0.019095248577290152, ,0.0026418933288520144, ,0.00010757605790062731
202, ,PASS, ,0.027558563111994, ,0.019068037708428864, ,0.002629938536936019, ,0.00010722832557647615
203, ,PASS, ,0.027748719912381002, ,0.01913489386370064, ,0.0026271193892171522, ,0.0001083286919230303
204, ,PASS, ,0.027669213688106, ,0.019027001732448437, ,0.002632443020214539, ,0.00010742232689194742
205, ,PASS, ,0.027827367189146, ,0.019180967196801804, ,0.002613055234545241, ,0.00010889480962019266
206, ,PASS, ,0.027929994929462004, ,0.019331355537368977, ,0.0026515162063490074, ,0.00011016101617283833
207, ,PASS, ,0.027917347980008, ,0.01950212515890725, ,0.0026781714037989895, ,0.00011107339023089827
208, ,PASS, ,0.028066314436826, ,0.019711634481110817, ,0.0028580216335598045, ,0.00011283976597514352
209, ,PASS, ,0.028199347789311997, ,0.019735362636597448, ,0.0027415348608029015, ,0.00011351686526971975
210, ,PASS, ,0.028113749385925004, ,0.019774060234889618, ,0.0026551056583835626, ,0.00011339890240490132
211, ,PASS, ,0.028162122058136004, ,0.0198063282531283, ,0.0027202111794367326, ,0.00011377150192264984
212, ,PASS, ,0.028353997953675998, ,0.019694964202392248, ,0.002593995467783619, ,0.00011391060824560762
213, ,PASS, ,0.02836723055663, ,0.019781443033616584, ,0.002652031633754211, ,0.00011445635720661858
214, ,PASS, ,0.028405497418213, ,0.019794918798587587, ,0.0026665595846112468, ,0.00011467679225017772
215, ,PASS, ,0.028475472583153, ,0.01992772636140183, ,0.002723333639960343, ,0.00011573349092340373
216, ,PASS, ,0.028890405112277997, ,0.020155735689275457, ,0.002758176427197278, ,0.00011875431555337611
217, ,PASS, ,0.029105035782407005, ,0.02019124843163891, ,0.0027748323451330776, ,0.00011986645406048743
218, ,PASS, ,0.029027382567377004, ,0.020257560506130763, ,0.002785267269762474, ,0.00011992219641447603
219, ,PASS, ,0.029184158592066998, ,0.020310098979342932, ,0.002810370684053927, ,0.00012089002138424153
220, ,PASS, ,0.029452406003371002, ,0.02046401631326799, ,0.00280097637110753, ,0.00012293115185634914
221, ,PASS, ,0.029487770967502998, ,0.020427441517788303, ,0.0027895755672359716, ,0.0001228603772500245
222, ,PASS, ,0.029616961712459998, ,0.020380069355897205, ,0.0028306184791316645, ,0.0001231104574445263
223, ,PASS, ,0.029699854864328995, ,0.020658602185391867, ,0.002850485070947399, ,0.0001251334048511356
224, ,PASS, ,0.030143161566342003, ,0.021290558479464927, ,0.0028694294478489547, ,0.00013089101439688248
225, ,PASS, ,0.030364545393517, ,0.02171554657407076, ,0.00297002280240076, ,0.00013448358401867928
226, ,PASS, ,0.02996764545446, ,0.02077134734949375, ,0.00284157120159011, ,0.00012694688577424224
227, ,PASS, ,0.029905827878471, ,0.020651530291172945, ,0.002804014531941879, ,0.00012594439182279663
228, ,PASS, ,0.029872102419805, ,0.020698497489216868, ,0.0028703656065473164, ,0.00012609691357780712
229, ,PASS, ,0.029876880772708, ,0.020675579596578123, ,0.002819827948617056, ,0.0001259699592182723
230, ,PASS, ,0.029795024013415, ,0.020757867630111226, ,0.0028365978534406317, ,0.00012614249146799056
231, ,PASS, ,0.02983376723819, ,0.020825748421710946, ,0.0028564297230891916, ,0.00012670047332944664
232, ,PASS, ,0.029897780235119, ,0.020831813478649187, ,0.0028566191107613588, ,0.0001270079234501215
233, ,PASS, ,0.030298975073908, ,0.021408059669519322, ,0.002910609202807843, ,0.0001322761729838014
234, ,PASS, ,0.030052459188449003, ,0.020888675495736052, ,0.0029293237727822984, ,0.00012799146570684425
235, ,PASS, ,0.030223573830688, ,0.020947043537641884, ,0.0029030018798776413, ,0.00012908489593806577
236, ,PASS, ,0.030539725371372003, ,0.021124150286005824, ,0.0029001057452215234, ,0.00013155250373739243
237, ,PASS, ,0.030710680262897992, ,0.021337601330732016, ,0.0029254440421822604, ,0.00013359826319806636
238, ,PASS, ,0.030424732460368, ,0.020923914842292297, ,0.0029843232707826173, ,0.0001297862472754742
239, ,PASS, ,0.030721259945127, ,0.021229598368941505, ,0.0028790338816001185, ,0.00013297608670734457
240, ,PASS, ,0.030921649234053, ,0.02112625473336664, ,0.0028909940529710477, ,0.00013318775747882502
241, ,PASS, ,0.031001062874538996, ,0.021256798449656323, ,0.0029512506433233073, ,0.00013435606663459625
242, ,PASS, ,0.030721355221993006, ,0.020814360168184224, ,0.0029362729948468544, ,0.0001303608128755577
243, ,PASS, ,0.030909206579823996, ,0.021085992912643976, ,0.0029007320931214295, ,0.00013286559110497798
244, ,PASS, ,0.031048004980358, ,0.02105346463012916, ,0.002980771139267171, ,0.00013324780415660236
245, ,PASS, ,0.031067793703954003, ,0.021230459874087847, ,0.003039183139738565, ,0.00013444932414695952
246, ,PASS, ,0.031147670370432, ,0.02093626929429161, ,0.0029027239264951253, ,0.0001329266755454915
247, ,PASS, ,0.031129713852950998, ,0.021177309140441213, ,0.0029817949149718664, ,0.00013437666926064537
248, ,PASS, ,0.031607672520784, ,0.02115217043196794, ,0.002909694800110391, ,0.00013630853454609995
249, ,PASS, ,0.031635039777551006, ,0.021457216135522175, ,0.0029806506980782285, ,0.00013837512722194033
250, ,PASS, ,0.031427877318774, ,0.021025732490231493, ,0.0030328232459735155, ,0.0001347113488891042
251, ,PASS, ,0.031829542237471004, ,0.02152168638689712, ,0.0029459978319973557, ,0.00013964101198528576
252, ,PASS, ,0.031376835055081, ,0.021329086837685616, ,0.0029184035435233387, ,0.00013642936861600076
253, ,PASS, ,0.03172878935986101, ,0.021555867802660805, ,0.003013823505102439, ,0.00013940782885164878
254, ,PASS, ,0.032031316997386004, ,0.02161385687572212, ,0.003011051750688404, ,0.00014113805593285325
255, ,PASS, ,0.032423072912890996, ,0.021850542427524954, ,0.003049055870382453, ,0.00014446036451882266
