Channel, ,Pass/Fail, ,Amplitude, ,Sorting Function Response, ,Mean, ,Variance, ,NPeaksRatio, ,PosIntegralRatio, ,ToT50, ,ToT99
49, ,PASS, ,0.05864429300000004, ,0.008949432521746972, ,0.0416199607120263, ,0.0005283506426065725, ,1.75, ,0.7645501601441665, ,0.5193975633150344, ,0.15607844737862492
50, ,PASS, ,0.061132304000000026, ,0.009685422439544334, ,0.04118758543235853, ,0.0005980128573621036, ,1.8333333333333333, ,0.7814865927386738, ,0.5104997857186588, ,0.19022060774269914
51, ,PASS, ,0.06698790799999998, ,0.009399710563602644, ,0.04186742565578254, ,0.0006353740433796356, ,1.75, ,0.7350365016029856, ,0.5223566865982326, ,0.0893859308993694
52, ,PASS, ,0.070099623, ,0.01001868018516148, ,0.04154287118540438, ,0.0007085470533548336, ,1.75, ,0.7398610224684371, ,0.514540519581233, ,0.063937470663864
53, ,PASS, ,0.066266994, ,0.00932730586337926, ,0.041856644104283594, ,0.0006238849722544479, ,1.75, ,0.7341542760723436, ,0.5182751372420971, ,0.08805942735862533
54, ,PASS, ,0.06953824000000002, ,0.009995197815260986, ,0.04204859012322198, ,0.0007012883529470788, ,1.75, ,0.7454530231767968, ,0.5197853105038672, ,0.08038611456909042
55, ,PASS, ,0.06648012099999999, ,0.009303609504020673, ,0.04223005155741719, ,0.0006240999051044946, ,1.75, ,0.7352896032086854, ,0.5250505091732822, ,0.07940654272361788
56, ,PASS, ,0.069388156, ,0.009850652727015826, ,0.04248680912207914, ,0.0006885901796016405, ,1.75, ,0.7427335712832301, ,0.5275402542805249, ,0.08399828574927043
57, ,PASS, ,0.06471783199999999, ,0.00928092286702207, ,0.04221586708610029, ,0.0006055503406190657, ,1.75, ,0.7459711355717228, ,0.5257239648170445, ,0.10275300504071345
58, ,PASS, ,0.06802484099999997, ,0.00988321769617545, ,0.04181359601489766, ,0.0006785708909877752, ,1.75, ,0.7505875514724192, ,0.5203975429072876, ,0.0788351258137589
59, ,PASS, ,0.06214699100000001, ,0.009013612986641998, ,0.04183103984881942, ,0.0005647487610090655, ,1.75, ,0.7458714254310987, ,0.5225811718128202, ,0.09097773514826228
60, ,PASS, ,0.06550380899999998, ,0.009748676655444176, ,0.04181341370821004, ,0.000643652127189288, ,1.75, ,0.7584557325287928, ,0.5221526091304259, ,0.11222219954694802
61, ,PASS, ,0.06194587400000001, ,0.008959498195776449, ,0.04179531610424278, ,0.0005596393377462814, ,1.75, ,0.7464748256472118, ,0.5227240260402849, ,0.12148731658537582
62, ,PASS, ,0.065684555, ,0.009746333575036079, ,0.04194165924426032, ,0.0006451961357830472, ,1.75, ,0.7580178522169062, ,0.5227036182935042, ,0.10854880512642599
63, ,PASS, ,0.06062744400000003, ,0.009124187484451667, ,0.041375809849043904, ,0.0005577615419249906, ,1.75, ,0.7593595786737356, ,0.5145201118344523, ,0.14611946694965408
64, ,PASS, ,0.06774343299999999, ,0.010228204891103267, ,0.0417306876259056, ,0.000698486196708845, ,1.75, ,0.7642292729967456, ,0.5189077773922981, ,0.1239974694393992
65, ,PASS, ,0.05811038100000004, ,0.00898498956062927, ,0.041712997775147455, ,0.0005252413470042073, ,1.75, ,0.7723293398056046, ,0.5240505295810289, ,0.200240811412012
66, ,PASS, ,0.06541202, ,0.010169516875148254, ,0.04192644862821167, ,0.0006694913530349074, ,1.75, ,0.774881842536537, ,0.5232138119630212, ,0.16118038407379442
67, ,PASS, ,0.05771393900000004, ,0.008898800831708515, ,0.041578670079998374, ,0.0005172999261465623, ,1.75, ,0.7707517668799445, ,0.5207444746025591, ,0.19181241199159202
68, ,PASS, ,0.06548436299999998, ,0.0101715413177861, ,0.04152256701761189, ,0.0006713451583753291, ,1.75, ,0.7741085261892254, ,0.5174792351176507, ,0.18066978224934185
69, ,PASS, ,0.055370771000000034, ,0.00874934484640731, ,0.04133420938021673, ,0.0004884240547600552, ,1.75, ,0.7812087002944708, ,0.5169690414481337, ,0.21995469480214688
70, ,PASS, ,0.064243607, ,0.01022007077166192, ,0.041404141448562276, ,0.0006620934768351933, ,1.8333333333333333, ,0.7837414754800623, ,0.5154384604395829, ,0.20687332911573234
71, ,PASS, ,0.053041853999999965, ,0.008386908692938793, ,0.04132420873757678, ,0.00044819387314310783, ,1.75, ,0.7805045683626086, ,0.5211730372849533, ,0.20609783473806656
72, ,PASS, ,0.06189462700000002, ,0.00990748475765874, ,0.04129766099226547, ,0.0006174742488032407, ,1.75, ,0.7858641219471056, ,0.518030244280729, ,0.21768943490949164
73, ,PASS, ,0.05242922999999998, ,0.008285254993108171, ,0.041197232826677, ,0.00043806962569483126, ,1.8333333333333333, ,0.7786816131171846, ,0.5162343625640293, ,0.2035876818840432
74, ,PASS, ,0.061355764000000035, ,0.009729269724291176, ,0.0413574550518765, ,0.0006012653737234703, ,1.75, ,0.7811648622106931, ,0.5170710801820371, ,0.19807759025326013
75, ,PASS, ,0.04978844999999998, ,0.007931567013322512, ,0.04119295210240607, ,0.0003976701230560285, ,1.75, ,0.7853204300451097, ,0.5207648823493398, ,0.22538315544580723
76, ,PASS, ,0.059215525000000026, ,0.009587634663595291, ,0.04114266818052694, ,0.0005721577826158442, ,1.8333333333333333, ,0.7864407419549141, ,0.5098875533152385, ,0.21573029121854656
77, ,PASS, ,0.04857775999999997, ,0.007639289255781028, ,0.0408173806330483, ,0.00037408147433095425, ,1.75, ,0.7776952509411234, ,0.5120507744739903, ,0.19658782473827066
78, ,PASS, ,0.05700709700000004, ,0.009045116982732995, ,0.04127345655272342, ,0.0005196550450202147, ,1.75, ,0.7810108638312308, ,0.5166629252464235, ,0.20342441990979776
198, ,PASS, ,0.23613537, ,0.03728779209208829, ,0.0296448522570968, ,0.009151418455652755, ,2.0, ,0.8829862280242968, ,0.48919409807963105, ,0.05799881635068672
199, ,PASS, ,0.07971050999999998, ,0.012019976566939271, ,0.037293277086712526, ,0.0010416784960459507, ,1.9166666666666667, ,0.8668268319988702, ,0.4848676557621273, ,0.031815677231076915
200, ,PASS, ,0.08061581099999998, ,0.010817443175129475, ,0.03749314103714211, ,0.0009480106889312276, ,1.9166666666666667, ,0.8430003672962627, ,0.48962266076202526, ,0.024162772188322686
201, ,PASS, ,0.0720659441, ,0.010050851647349512, ,0.03766583383441154, ,0.0007882666426472219, ,1.9166666666666667, ,0.8428946315067912, ,0.48754107059039614, ,0.02891777718822065
202, ,PASS, ,0.07207261990000001, ,0.009435160288413688, ,0.03751860425256627, ,0.0007421470585373492, ,1.9166666666666667, ,0.8260244913310097, ,0.48796963327279036, ,0.02134650313258913
203, ,PASS, ,0.06952175530000004, ,0.009266315046337533, ,0.0375857496277627, ,0.0007034785094063772, ,2.0, ,0.8299964466237207, ,0.4864798677578009, ,0.022632191179771843
204, ,PASS, ,0.07447644119999998, ,0.010151458298773208, ,0.037311695143772576, ,0.000820228494052909, ,2.0, ,0.8333487334098442, ,0.48743903185649273, ,0.025550498969408787
205, ,PASS, ,0.07882418900000002, ,0.011159344999485291, ,0.03705177047505154, ,0.000948226791832672, ,2.0, ,0.8423011459739884, ,0.4880104487663517, ,0.03040754270321014
206, ,PASS, ,0.083398744, ,0.011517751318644496, ,0.036624700002755056, ,0.0010359900282149617, ,1.9166666666666667, ,0.8333691605600617, ,0.48466357829432055, ,0.029958572274035224
207, ,PASS, ,0.09200033500000003, ,0.013425075255636456, ,0.03665481364517051, ,0.0013241354797819353, ,2.0, ,0.8397253283200747, ,0.4892145058264117, ,0.028142282810554888
208, ,PASS, ,0.06740948640000004, ,0.009509593878076561, ,0.037673761485888045, ,0.0006894374176913167, ,1.9166666666666667, ,0.8312867512921318, ,0.48943899104099914, ,0.025938246158241668
209, ,PASS, ,0.06708390830000002, ,0.009683879525307491, ,0.037450383552784634, ,0.0007044962098832682, ,2.0, ,0.8341515194072833, ,0.4829289198179629, ,0.02622395461317116
210, ,PASS, ,0.06455425260000001, ,0.009043106000969891, ,0.037573752159751846, ,0.0006347376170720748, ,2.0, ,0.8302471414204026, ,0.4838880839166548, ,0.028040244076651497
211, ,PASS, ,0.0700663897, ,0.010210881150679616, ,0.037550859084079916, ,0.0007703832843826389, ,2.0, ,0.8331401905378212, ,0.48870431215689475, ,0.02912185465602743
212, ,PASS, ,0.0741337948, ,0.010620949821892704, ,0.037383453571029165, ,0.0008472550742640626, ,1.9166666666666667, ,0.834017810439105, ,0.48835738046162325, ,0.0270198567376176
213, ,PASS, ,0.089430422, ,0.013512967392715845, ,0.03693101723350544, ,0.0012892306918682256, ,1.9166666666666667, ,0.8453271348505497, ,0.4902144854186649, ,0.0319177159649803
214, ,PASS, ,0.08266008000000001, ,0.012000664796989394, ,0.03705954017671069, ,0.0010586861671380377, ,2.0, ,0.8382879603862138, ,0.4912552805044795, ,0.03116262933409522
215, ,PASS, ,0.10004455000000001, ,0.015235601775161445, ,0.03589378282733618, ,0.00162024511637117, ,1.8333333333333333, ,0.849446912118051, ,0.4864390522642395, ,0.03595844982755454
216, ,PASS, ,0.08611507499999999, ,0.013068389362422404, ,0.036943192772841374, ,0.0011986136727896379, ,1.9166666666666667, ,0.8469708192887017, ,0.49074508683496254, ,0.03579518785330912
217, ,PASS, ,0.09232232800000004, ,0.014322483508158686, ,0.036977844577329035, ,0.0013924921068018995, ,1.8333333333333333, ,0.8476747532415762, ,0.49341850166323137, ,0.033509520213873184
218, ,PASS, ,0.08919482900000002, ,0.01325276663538588, ,0.036997002724781125, ,0.0012499342552367843, ,2.0, ,0.8429625924279559, ,0.4960715087447195, ,0.030162649741842004
219, ,PASS, ,0.09244961400000001, ,0.014515787011297349, ,0.0366712170061509, ,0.0014177850543765846, ,1.8333333333333333, ,0.8518836580092806, ,0.4884798269423073, ,0.0401624456643742
220, ,PASS, ,0.05724861699999998, ,0.008262919933640506, ,0.038020354378073926, ,0.0005119574172598131, ,1.9166666666666667, ,0.8250278019843709, ,0.48696965368053713, ,0.026183139119609802
221, ,PASS, ,0.061337635000000015, ,0.009144857976844679, ,0.03779285302157099, ,0.0006035642954807881, ,2.0, ,0.8371449002494484, ,0.48741862410971204, ,0.030244280728964713
222, ,PASS, ,0.055957409999999985, ,0.008035351890869142, ,0.03796749068182282, ,0.0004880928016035298, ,2.0, ,0.8221650074631247, ,0.48499010224281136, ,0.024877043325646414
223, ,PASS, ,0.07467554730000002, ,0.011106769464640263, ,0.037129016372298526, ,0.0008949075274866622, ,2.0, ,0.8380828419285478, ,0.48278606559049814, ,0.032244239913471154
224, ,PASS, ,0.11136570999999999, ,0.017444241786694945, ,0.03584957923189323, ,0.002057440967062613, ,2.0, ,0.8508247651366526, ,0.49029611640578763, ,0.03571355686618641
225, ,PASS, ,0.10739060000000003, ,0.016717281105498045, ,0.036550217593747075, ,0.0018774501142711137, ,1.8333333333333333, ,0.8598577236676248, ,0.49996938837982896, ,0.03977469847554132
226, ,PASS, ,0.13670054, ,0.02179661339521959, ,0.03518655751392829, ,0.0031086392663807615, ,1.9166666666666667, ,0.8673668051836081, ,0.5008061059978368, ,0.045754168282279954
