Channel, ,Pass/Fail, ,Amplitude, ,Sorting Function Response, ,Mean, ,Variance, ,NPeaksRatio, ,PosIntegralRatio, ,ToT50, ,ToT99
29, ,PASS, ,0.0620119354, ,0.01036415572146243, ,0.03383984703638702, ,0.0006540268867165396, ,1.8333333333333333, ,0.8113363324227937, ,0.5961715067039448, ,0.18148609212056896
30, ,PASS, ,0.10533638999999996, ,0.012894946809485207, ,0.035194726437215565, ,0.0013808286473568413, ,1.6666666666666667, ,0.6554699205838352, ,0.5984775820901614, ,0.03687679843268505
31, ,PASS, ,0.11053952999999998, ,0.012428149270467606, ,0.0346340093298096, ,0.0013957930120379776, ,1.75, ,0.6069503032441954, ,0.5974367870043469, ,0.02673414828268811
32, ,PASS, ,0.10319548999999997, ,0.011815669155729338, ,0.03435590753454011, ,0.001238224139009515, ,1.75, ,0.6121692220664698, ,0.5976000489785923, ,0.031774861737515564
33, ,PASS, ,0.06599079600000002, ,0.009303870004029404, ,0.033218950547539844, ,0.0006239206070201963, ,1.75, ,0.7123058350190415, ,0.5972327095365401, ,0.10226321911797719
34, ,PASS, ,0.071580159, ,0.011083759234412568, ,0.034445671095487844, ,0.0008075287688134784, ,1.8333333333333333, ,0.7689988383743988, ,0.5971918940429787, ,0.13095651109161038
35, ,PASS, ,0.1161326, ,0.013252310581643601, ,0.035367447780861615, ,0.0015642298194786144, ,1.75, ,0.6224020742706192, ,0.5982735046223546, ,0.026101508132487093
36, ,PASS, ,0.12088242000000005, ,0.012821508528214953, ,0.03496354300687741, ,0.0015745234485266967, ,1.6666666666666667, ,0.5835260813126002, ,0.5987224750515295, ,0.023611763025244384
37, ,PASS, ,0.11401223000000002, ,0.012215170183085954, ,0.03441184254035631, ,0.0014141849011815905, ,1.6666666666666667, ,0.5863653960209796, ,0.5951103038713496, ,0.025101528540233873
38, ,PASS, ,0.07501267199999997, ,0.009863281005475179, ,0.03386055070223057, ,0.0007517599735837877, ,1.75, ,0.6801322731918982, ,0.6033346258239628, ,0.0728148405134589
39, ,PASS, ,0.077070793, ,0.01166852771878099, ,0.03488060378012693, ,0.0009152088731658581, ,1.75, ,0.7594052122797745, ,0.6001918328197384, ,0.1110385502336687
40, ,PASS, ,0.11539901000000001, ,0.01310023742784156, ,0.03496649750515295, ,0.0015366275508209954, ,1.75, ,0.6175404694558441, ,0.5989265525193364, ,0.026938225750494888
41, ,PASS, ,0.11961184, ,0.012595481072079293, ,0.034365703894410314, ,0.0015304526585659646, ,1.6666666666666667, ,0.5818602418670755, ,0.593375645394992, ,0.023815840493051164
42, ,PASS, ,0.11138817000000001, ,0.012042664101821686, ,0.03404241639558376, ,0.001362042321005555, ,1.6666666666666667, ,0.589276470509818, ,0.5956000897940859, ,0.02722393420542438
43, ,PASS, ,0.066884429, ,0.009195922422791828, ,0.033209929834901335, ,0.000625403323198603, ,1.6666666666666667, ,0.7015470463315795, ,0.6007428419828167, ,0.09454909083488092
44, ,PASS, ,0.07580421, ,0.012177866533533598, ,0.03466385589334911, ,0.0009398568125076284, ,1.8333333333333333, ,0.785801742432309, ,0.5972735250301014, ,0.1691394053182588
45, ,PASS, ,0.11548061000000004, ,0.013267750935750215, ,0.03493841406257015, ,0.0015577886821615055, ,1.75, ,0.6222628830993516, ,0.5974571947511276, ,0.02810146731699353
46, ,PASS, ,0.11972018000000002, ,0.012649900760357326, ,0.03450624977531071, ,0.0015386210372460415, ,1.6666666666666667, ,0.5822332113049138, ,0.5936613538499215, ,0.02375461725270913
47, ,PASS, ,0.11119848, ,0.012087607100487167, ,0.034233506958429416, ,0.0013647518963141605, ,1.6666666666666667, ,0.5926253292242465, ,0.5947429644292974, ,0.027448419420011836
48, ,PASS, ,0.06206040069999999, ,0.009200777306485644, ,0.033147064535825804, ,0.0005807454202468549, ,1.75, ,0.7389541409151129, ,0.5974367870043469, ,0.12591579763678293
49, ,PASS, ,0.08766561000000002, ,0.012499544403766862, ,0.034842326707210054, ,0.0011155267756017546, ,1.75, ,0.7290694180604467, ,0.5966612926266811, ,0.0653251974449501
50, ,PASS, ,0.12219805000000003, ,0.013431193862932067, ,0.03512190219322055, ,0.0016683893636093314, ,1.75, ,0.6047546888789395, ,0.596987816575172, ,0.023489316544560317
51, ,PASS, ,0.12505724000000001, ,0.012921459495239705, ,0.03437005978306565, ,0.0016417020592368178, ,1.6666666666666667, ,0.5736105843336662, ,0.5907430460602845, ,0.020101630578967775
52, ,PASS, ,0.11790466, ,0.012262586086996331, ,0.034085935533764614, ,0.0014681105606230251, ,1.6666666666666667, ,0.57518075129917, ,0.5932940144078692, ,0.02365257851880574
53, ,PASS, ,0.08295881999999999, ,0.009957295020163584, ,0.03320124240382849, ,0.0008390990401946801, ,1.75, ,0.6373534136925326, ,0.5976000489785923, ,0.040448154119303685
54, ,PASS, ,0.08360406, ,0.012282104779201657, ,0.03467601501275484, ,0.001044946152857743, ,1.75, ,0.7436020062825456, ,0.5955388665537438, ,0.07759025326013755
55, ,PASS, ,0.11983274000000001, ,0.013157290955237808, ,0.03510182704761127, ,0.0016022632992740847, ,1.75, ,0.6041042767829843, ,0.5977837186996183, ,0.025570906716189466
56, ,PASS, ,0.12245811000000006, ,0.01267246930564445, ,0.034492810676720886, ,0.0015760493210414809, ,1.6666666666666667, ,0.5757417461485621, ,0.5932940144078692, ,0.02353013203812167
57, ,PASS, ,0.11600807999999997, ,0.011833052153055176, ,0.03436338923552581, ,0.0013934568567496811, ,1.5833333333333333, ,0.5715277624910235, ,0.5951919348584723, ,0.02312197710250811
58, ,PASS, ,0.08494964999999999, ,0.009966132388122646, ,0.03312993614334401, ,0.000860138599674968, ,1.75, ,0.6244780227295815, ,0.5957633517683313, ,0.036774759698781655
59, ,PASS, ,0.08013581800000001, ,0.012495266938734118, ,0.03498096454786637, ,0.0010188587102611642, ,1.8333333333333333, ,0.7754125060242034, ,0.5991510377339238, ,0.10950796922511785
60, ,PASS, ,0.12039908000000005, ,0.013333055709110897, ,0.03532246888308402, ,0.0016308626531871455, ,1.6666666666666667, ,0.6098631489984895, ,0.5986000285708455, ,0.02383624823983184
61, ,PASS, ,0.12286862000000004, ,0.012689667543388879, ,0.03445221981694251, ,0.0015831811612562045, ,1.6666666666666667, ,0.5752839690086748, ,0.5954572355666211, ,0.023264831329972858
62, ,PASS, ,0.11573144, ,0.012042030510382424, ,0.03422359876492316, ,0.0014139700809765096, ,1.6666666666666667, ,0.5754884345804532, ,0.5932940144078692, ,0.024305626415787433
63, ,PASS, ,0.08116130699999999, ,0.009981616767387604, ,0.03348937493398094, ,0.0008231441013943673, ,1.6666666666666667, ,0.6480371112781329, ,0.5954164200730597, ,0.04401950980592233
64, ,PASS, ,0.10266959, ,0.013340230743714704, ,0.035650985316218034, ,0.0013934137417744876, ,1.75, ,0.6899499094566691, ,0.5982939123691353, ,0.038774718883288095
65, ,PASS, ,0.13047166, ,0.0138706280437868, ,0.03556724003448909, ,0.0018392021964762396, ,1.75, ,0.591843055282601, ,0.5983347278626967, ,0.0204485622742393
66, ,PASS, ,0.13209927999999999, ,0.01344155059275541, ,0.03498851178077998, ,0.0018028132599021897, ,1.6666666666666667, ,0.5711921900746068, ,0.5926817820044489, ,0.02155058060039591
67, ,PASS, ,0.12448427000000001, ,0.012643866797233649, ,0.034709796666190486, ,0.0015972305003447017, ,1.5833333333333333, ,0.5673625016856749, ,0.5974163792575662, ,0.021489357360053876
68, ,PASS, ,0.08800994000000001, ,0.010702368339838191, ,0.03400197601048958, ,0.0009571465773077917, ,1.6666666666666667, ,0.6468219181614187, ,0.5992734842146079, ,0.03689720617946572
69, ,PASS, ,0.10134985, ,0.013164316166724904, ,0.03571274545927634, ,0.0013572354943558094, ,1.75, ,0.690620049314207, ,0.5990489990000204, ,0.04140731821799555
70, ,PASS, ,0.12785932000000003, ,0.013625855491801975, ,0.035275502673822984, ,0.0017700779080169714, ,1.75, ,0.5929104651421878, ,0.5987428827983102, ,0.022836268647578623
71, ,PASS, ,0.12927031999999997, ,0.013176808719663799, ,0.034419585714169094, ,0.0017291319223759192, ,1.6666666666666667, ,0.5695123016526256, ,0.5880900389787963, ,0.02157098834717659
72, ,PASS, ,0.12174428000000002, ,0.012344612467999574, ,0.03427978873696455, ,0.0015249201427278657, ,1.6666666666666667, ,0.5678768354661139, ,0.5907430460602845, ,0.022305667231280996
73, ,PASS, ,0.08912249, ,0.01091923721417132, ,0.0340916433013612, ,0.0009885691072987928, ,1.6666666666666667, ,0.6511070755917677, ,0.5986000285708455, ,0.038795126630068774
74, ,PASS, ,0.09621803, ,0.013084997920970653, ,0.03539613858145752, ,0.0012811934976296627, ,1.8333333333333333, ,0.7158677998109924, ,0.5965184383992164, ,0.0433052386685986
75, ,PASS, ,0.12727926, ,0.01353422643467632, ,0.03537493937919634, ,0.0017502688328724753, ,1.75, ,0.5921718441767482, ,0.5986612518111876, ,0.01985673761759964
76, ,PASS, ,0.12870753000000001, ,0.013042163954745715, ,0.0348306092555254, ,0.0017042791118228706, ,1.6666666666666667, ,0.5679567156207218, ,0.5929470827125977, ,0.01944858268198608
77, ,PASS, ,0.12087933000000003, ,0.012371322052309987, ,0.034550653528295346, ,0.001517428689179771, ,1.6666666666666667, ,0.5713271720565685, ,0.5936613538499215, ,0.02363217077202506
78, ,PASS, ,0.08796006000000002, ,0.010938424293673846, ,0.03418483186343136, ,0.0009775177751587274, ,1.6666666666666667, ,0.6584791619110452, ,0.5997428623905634, ,0.045815391522621984
79, ,PASS, ,0.10760760999999998, ,0.014162310349160144, ,0.03603519088039019, ,0.001550286993210426, ,1.8333333333333333, ,0.7013697753234359, ,0.5996204159098794, ,0.04222362808922267
80, ,PASS, ,0.13355830999999999, ,0.014104692198015011, ,0.036005158378196365, ,0.0019139758815567612, ,1.6666666666666667, ,0.5940537682646322, ,0.5991714454807044, ,0.022081182016693537
81, ,PASS, ,0.13393845999999998, ,0.013443696310174329, ,0.035041282703414216, ,0.0018275513046434458, ,1.6666666666666667, ,0.5655953373320363, ,0.5924572967898615, ,0.0204485622742393
82, ,PASS, ,0.12847661, ,0.013005938488469872, ,0.034454037772086284, ,0.0016966898453237241, ,1.6666666666666667, ,0.5671309999610991, ,0.5885390094079712, ,0.022019958776351503
83, ,PASS, ,0.09446173000000001, ,0.012116344193297806, ,0.034666228638191056, ,0.0011632330957420036, ,1.75, ,0.6766990089202372, ,0.5989673680128977, ,0.05138670639374707
84, ,PASS, ,0.10550788, ,0.013915995440659787, ,0.03617618935858452, ,0.0014934478902251897, ,1.8333333333333333, ,0.7007645821588255, ,0.5995591926695374, ,0.04055019285320708
85, ,PASS, ,0.13050154999999997, ,0.013730402060409557, ,0.03534203870512847, ,0.0018208104845927533, ,1.75, ,0.5881661491005962, ,0.5982735046223546, ,0.02197914328279015
86, ,PASS, ,0.13064461999999996, ,0.013161997656158607, ,0.03432479536029877, ,0.0017464131228057981, ,1.6666666666666667, ,0.5639853659162474, ,0.5894981735066631, ,0.021305687639027775
87, ,PASS, ,0.12418391000000001, ,0.012682488728229361, ,0.03448688136956389, ,0.0015982428939328522, ,1.6666666666666667, ,0.5699240835228323, ,0.5922736270688354, ,0.023305646823534212
88, ,PASS, ,0.08218637999999996, ,0.01106508300382487, ,0.03427950378482072, ,0.0009246799104029136, ,1.75, ,0.7005408567980675, ,0.598824513785433, ,0.04946837819636334
89, ,PASS, ,0.09869048999999999, ,0.013216476001652332, ,0.03564769989694088, ,0.0013270224719849836, ,1.8333333333333333, ,0.7120159233226115, ,0.5994775616824146, ,0.04387665557845758
90, ,PASS, ,0.12878722, ,0.013642634494969032, ,0.03547947224913777, ,0.0017852529820019658, ,1.6666666666666667, ,0.594659686920238, ,0.5992122609742658, ,0.022183220750596925
91, ,PASS, ,0.12946082, ,0.012974253202779328, ,0.03469973740923654, ,0.0017048857945852131, ,1.6666666666666667, ,0.565082857201884, ,0.5926001510173262, ,0.02134650313258913
92, ,PASS, ,0.12244038000000002, ,0.01249244470115239, ,0.03442466535478868, ,0.0015522071615696603, ,1.6666666666666667, ,0.5707863999801559, ,0.5943552172404645, ,0.02232607497806167
93, ,PASS, ,0.06744372399999998, ,0.009495995458271848, ,0.03361280823697475, ,0.0006513195389287651, ,1.8333333333333333, ,0.7251133499337327, ,0.5992122609742658, ,0.06159057978408604
94, ,PASS, ,0.08118589999999999, ,0.013275218253132014, ,0.035438329220832225, ,0.001096707603961102, ,1.9166666666666667, ,0.8071055923659785, ,0.598885737025775, ,0.09667149650007142
95, ,PASS, ,0.12709739000000003, ,0.014540108264795374, ,0.0362093843972572, ,0.0018790030841896075, ,1.6666666666666667, ,0.6290187846744391, ,0.5992938919613885, ,0.02642803208097794
96, ,PASS, ,0.13028629999999997, ,0.013504230291231772, ,0.03507949732454439, ,0.0017867537942779213, ,1.6666666666666667, ,0.5767678911411911, ,0.5967633313605845, ,0.022775045407236585
97, ,PASS, ,0.12059218000000002, ,0.01295923122967266, ,0.03508874455745801, ,0.0015859420909259156, ,1.75, ,0.5896473255671864, ,0.6008244729699393, ,0.025774984183996246
98, ,PASS, ,0.05918463954, ,0.009458794749297698, ,0.03329585881186098, ,0.0005699182942679618, ,1.8333333333333333, ,0.789560557311652, ,0.5969674088283913, ,0.11322217913920124
99, ,PASS, ,0.06907205399999998, ,0.012715464383765425, ,0.03534434279096344, ,0.0008927307459547208, ,2.0, ,0.8725838672268199, ,0.6036611497724537, ,0.21677108630436115
100, ,PASS, ,0.11784236000000001, ,0.014440808252477367, ,0.035925172592396075, ,0.0017302983756330985, ,1.6666666666666667, ,0.6573509332072648, ,0.5974163792575662, ,0.03157078426970878
101, ,PASS, ,0.12060545000000002, ,0.013146228423439016, ,0.034857043936246196, ,0.001610180712395493, ,1.75, ,0.5972439964595528, ,0.5984367665966001, ,0.024958674312769127
102, ,PASS, ,0.11053098000000003, ,0.012496603405193665, ,0.034557257315564985, ,0.0014024900533412315, ,1.75, ,0.6077442353834137, ,0.5984979898369421, ,0.02928511663027285
103, ,PASS, ,0.04473806000000001, ,0.00788547656151338, ,0.032676083858084536, ,0.0003590590933931969, ,1.9166666666666667, ,0.8474324570905813, ,0.6001306095793963, ,0.2294851125487235
198, ,PASS, ,0.1953731, ,0.03390112499766416, ,0.05571529555396828, ,0.006874354196148557, ,2.0, ,0.8910445546896629, ,0.6083549315320096, ,0.04418277178016775
199, ,PASS, ,0.13028272999999999, ,0.015133165083635373, ,0.037582587835146224, ,0.0020664708100379247, ,2.0, ,0.8929712717344666, ,0.6113344625619885, ,0.036774759698781655
200, ,PASS, ,0.14838004, ,0.015056300281102419, ,0.03867435829187159, ,0.002361219904165943, ,2.0, ,0.8720861669794977, ,0.6166812922185262, ,0.029734087059447765
201, ,PASS, ,0.14866004, ,0.015562267931458457, ,0.03843630598028611, ,0.002419014550976499, ,2.0, ,0.8699943052604284, ,0.6143548090855289, ,0.03336666598640844
202, ,PASS, ,0.12448131999999998, ,0.012945226743035295, ,0.036691732349747964, ,0.0016868972379280363, ,2.0, ,0.8523341570325496, ,0.6103140752229547, ,0.026366808840635907
203, ,PASS, ,0.10397087999999999, ,0.011090071517132283, ,0.035481606647823516, ,0.0012137175570744695, ,2.0, ,0.8541183483979861, ,0.6099671435276831, ,0.02959123283198302
204, ,PASS, ,0.08618082000000003, ,0.010241802499573854, ,0.03486382519744495, ,0.0009269898779463128, ,2.0, ,0.8542094058713897, ,0.6095385808452889, ,0.03212179343278709
205, ,PASS, ,0.08257532000000002, ,0.010044438337097759, ,0.03452676622252607, ,0.0008620901024945355, ,2.0, ,0.8473283901548554, ,0.6070692434848268, ,0.033734005428460646
206, ,PASS, ,0.07509100000000002, ,0.009063858518301859, ,0.033963884570518965, ,0.0007159252965396591, ,2.0, ,0.8512992303306379, ,0.6077018836350279, ,0.03324421950572437
207, ,PASS, ,0.07445113000000002, ,0.009005856874248893, ,0.03396655704924389, ,0.0006980118640646496, ,2.0, ,0.8456458573606773, ,0.605599885716618, ,0.029958572274035224
208, ,PASS, ,0.065644291, ,0.007929883830238816, ,0.03332503382155467, ,0.0005480695962629138, ,2.0, ,0.8320845692893447, ,0.6069672047509235, ,0.029387155364176243
209, ,PASS, ,0.06604244499999999, ,0.008515172361986208, ,0.03347091647823514, ,0.0005893347021136974, ,2.0, ,0.8403795230662041, ,0.6028856553947879, ,0.03146874553580539
210, ,PASS, ,0.068979988, ,0.00827378106367429, ,0.033610518267586376, ,0.0006012073064216513, ,2.0, ,0.8372613881958697, ,0.6072325054590723, ,0.028836146201097937
211, ,PASS, ,0.07613844, ,0.01007408191818866, ,0.0348209075645395, ,0.0008075829393047326, ,2.0, ,0.8648500108066285, ,0.6117630252443828, ,0.041264463990530804
212, ,PASS, ,0.11253465000000001, ,0.015158633485718229, ,0.037067577560049796, ,0.00176507140490477, ,2.0, ,0.8752925442524445, ,0.6107018224117875, ,0.04187669639395114
213, ,PASS, ,0.08946507000000001, ,0.011435004261658943, ,0.03519217748821453, ,0.0010656154449308322, ,2.0, ,0.8569078630507585, ,0.6090283871757719, ,0.03387685965592539
214, ,PASS, ,0.08367654, ,0.010154537313933362, ,0.034840618937164544, ,0.000886946968182368, ,2.0, ,0.8518834245050372, ,0.6126813738495133, ,0.033489112467092505
215, ,PASS, ,0.10251939999999998, ,0.013064825515351593, ,0.03604173768412889, ,0.001384166171998624, ,2.0, ,0.864274857666481, ,0.6107018224117875, ,0.04103997877594335
216, ,PASS, ,0.10198378000000002, ,0.012734085371094748, ,0.03563175779331034, ,0.0013392519309617244, ,2.0, ,0.8624643995563068, ,0.6067223117895553, ,0.03612171180179996
217, ,PASS, ,0.09117342000000002, ,0.011718672557961626, ,0.03532061797371482, ,0.00110084043307171, ,2.0, ,0.8633930149927705, ,0.6097426583130956, ,0.03318299626538234
218, ,PASS, ,0.10954976999999999, ,0.01383919473213347, ,0.036484339097569436, ,0.0015681189015792085, ,2.0, ,0.8638799672034989, ,0.6113140548152078, ,0.039203281565682334
219, ,PASS, ,0.10328392, ,0.013618442948739054, ,0.03621109717924124, ,0.0014473272126957547, ,1.9166666666666667, ,0.8654023319258947, ,0.6099467357809024, ,0.041631803432583006
220, ,PASS, ,0.09357968, ,0.011875349569981961, ,0.03535585817636375, ,0.0011505276176332253, ,2.0, ,0.8617880833289361, ,0.6104773371972001, ,0.03626456602926471
221, ,PASS, ,0.10279118000000001, ,0.013637056183810546, ,0.03618765132364646, ,0.0014422144820647228, ,1.9166666666666667, ,0.8719688090663869, ,0.6119466949654089, ,0.03893798085753352
222, ,PASS, ,0.07536183000000002, ,0.009653909140404815, ,0.03424332819064917, ,0.0007579392484340569, ,2.0, ,0.8527361960573263, ,0.6077835146221505, ,0.03563192587906369
223, ,PASS, ,0.09504942, ,0.012830497420608744, ,0.03587641027407604, ,0.0012481120148600865, ,1.9166666666666667, ,0.8683649839786267, ,0.6096202118324116, ,0.04181547315360911
224, ,PASS, ,0.09221992000000002, ,0.012213623762066955, ,0.03532308374073999, ,0.0011590089451014324, ,2.0, ,0.8579739415111197, ,0.6041101202016286, ,0.036713536458439625
225, ,PASS, ,0.08012831999999998, ,0.0108187297236205, ,0.03475535620946511, ,0.0008964031135628242, ,2.0, ,0.8670792990019679, ,0.6087222709740617, ,0.04712148731658537
226, ,PASS, ,0.07826093, ,0.009975321477539847, ,0.03441092705659068, ,0.000813403995714383, ,2.0, ,0.8579029645376465, ,0.6092528723903594, ,0.036611497724536236
227, ,PASS, ,0.11206424000000001, ,0.015159907315491647, ,0.036907987646986794, ,0.0017475569266113722, ,1.9166666666666667, ,0.878794898171659, ,0.613334421746495, ,0.05136629864696639
228, ,PASS, ,0.19979999999999976, ,0.04260598261163648, ,0.05847694246443938, ,0.008647056125607119, ,1.9166666666666667, ,0.9556592227935783, ,0.6105793759311035, ,0.4587661476296402
229, ,PASS, ,0.19979999999999976, ,0.04106184663084042, ,0.05673708055753958, ,0.00833025705440521, ,1.9166666666666667, ,0.9269709956601228, ,0.6083549315320096, ,0.2512397706169262
230, ,PASS, ,0.19979999999999976, ,0.04090280761350503, ,0.05685844874553575, ,0.008299176981401543, ,1.9166666666666667, ,0.9262538371911636, ,0.6093140956307014, ,0.24211750780596314
231, ,PASS, ,0.19979999999999976, ,0.04292176125391742, ,0.05919278403216243, ,0.008734112597587015, ,2.0, ,0.9629090233371621, ,0.6128650435705394, ,0.5608252892798106
232, ,PASS, ,0.12491587999999998, ,0.01764190496886136, ,0.0381273813232383, ,0.002249251286377708, ,1.9166666666666667, ,0.8771176763475951, ,0.6125793351156099, ,0.04442766474153589
233, ,PASS, ,0.10557348999999999, ,0.015441789337506064, ,0.036966735458255955, ,0.001658705365171499, ,1.9166666666666667, ,0.8786309777859548, ,0.6096202118324116, ,0.04834595212342605
234, ,PASS, ,0.11734352999999999, ,0.016443096241887105, ,0.037754148618599624, ,0.0019803208611358005, ,1.9166666666666667, ,0.8764533302100208, ,0.6136201302014245, ,0.046631701393849104
235, ,PASS, ,0.13167799999999996, ,0.019079578019492942, ,0.038719976545580695, ,0.0025764259109872507, ,1.9166666666666667, ,0.8851154166857296, ,0.6161098753086671, ,0.05473357686577825
236, ,PASS, ,0.07777645999999998, ,0.010532416795824767, ,0.03458365327728005, ,0.0008475358417627288, ,2.0, ,0.8688149962570859, ,0.6097018428195343, ,0.044529703475439275
237, ,PASS, ,0.10670721999999999, ,0.014909085724336734, ,0.036641280942429744, ,0.0016433000426954098, ,2.0, ,0.8816780382898418, ,0.6126201506091712, ,0.053998897981673843
238, ,PASS, ,0.10543672000000001, ,0.014611880957395523, ,0.03650171190914471, ,0.0015704567625952023, ,1.9166666666666667, ,0.8791818212975097, ,0.6130487132915655, ,0.04895818452684639
239, ,PASS, ,0.08378842, ,0.01141403951280884, ,0.03484051924083182, ,0.0009823552226863915, ,2.0, ,0.8706648298306469, ,0.6077835146221505, ,0.04383584008489623
240, ,PASS, ,0.09972128000000001, ,0.013340301584234566, ,0.035950324920307745, ,0.0013661599404622157, ,1.9166666666666667, ,0.8715586816285164, ,0.6115589477765759, ,0.03938695128670843
241, ,PASS, ,0.13055433, ,0.01769653350756212, ,0.038254822481582004, ,0.002359768669327016, ,1.9166666666666667, ,0.8811082212504526, ,0.6160282443215445, ,0.05193771555682537
242, ,PASS, ,0.11828642000000002, ,0.015164964639527741, ,0.037008788909614086, ,0.001844372743843473, ,1.9166666666666667, ,0.8748965941799834, ,0.6145792943001164, ,0.04865206832513622
243, ,PASS, ,0.11141133000000002, ,0.013577004615052813, ,0.036521760413665026, ,0.0015504281447494014, ,1.9166666666666667, ,0.873112446809571, ,0.6152731576906594, ,0.04499908165139487
244, ,PASS, ,0.18689860000000003, ,0.03245416341345691, ,0.05085794602967286, ,0.006164727441714422, ,1.9166666666666667, ,0.8776072976915008, ,0.6136201302014245, ,0.05010101834656436
245, ,PASS, ,0.19710280000000002, ,0.03706679372096994, ,0.05450933986612517, ,0.007410250141899041, ,1.9166666666666667, ,0.8860036637474846, ,0.6108650843860329, ,0.05044795004183588
246, ,PASS, ,0.18390650000000003, ,0.032424126919340525, ,0.049412251353237686, ,0.006060828913491404, ,1.9166666666666667, ,0.890676387994421, ,0.6119671027121896, ,0.054753984612558926
