Channel, ,Pass/Fail, ,Amplitude, ,Sorting Function Response, ,Mean, ,Variance, ,NPeaksRatio, ,PosIntegralRatio, ,ToT50, ,ToT99
0, ,PASS, ,0.04011085999999999, ,0.005610881169292509, ,0.03169112296177629, ,0.0002295551134536364, ,1.75, ,0.6645524574785291, ,0.3937878818799616, ,0.08738597171486297
1, ,PASS, ,0.03824322999999999, ,0.005455078541813602, ,0.03168062861717109, ,0.0002127659381422946, ,1.75, ,0.6769384014672571, ,0.39107365155813145, ,0.07536580886104365
2, ,PASS, ,0.03789876999999999, ,0.005472804658617144, ,0.032020871033448306, ,0.00021129005572296435, ,1.75, ,0.6823583188045892, ,0.3925838248199016, ,0.08028407583518704
3, ,PASS, ,0.03726797000000001, ,0.005381302810745254, ,0.031790975934980925, ,0.00020470083993971125, ,1.6666666666666667, ,0.6842511289027927, ,0.39284912552805046, ,0.08254933572784229
4, ,PASS, ,0.03675031000000002, ,0.005304030753158213, ,0.0319628251182629, ,0.00019858052477716588, ,1.75, ,0.6830278131546031, ,0.39397155160098773, ,0.07322299544907247
5, ,PASS, ,0.036460310000000024, ,0.0052659028409498395, ,0.03192822078610641, ,0.0001959215834619991, ,1.75, ,0.6868480321124575, ,0.39356339666537415, ,0.07491683843186873
6, ,PASS, ,0.03622226000000002, ,0.005229005533797758, ,0.032013853049733684, ,0.00019309396305004775, ,1.8333333333333333, ,0.6856225938062426, ,0.3905226423950532, ,0.07014142568519009
7, ,PASS, ,0.03585479000000001, ,0.005217256354297798, ,0.03194547075141324, ,0.00019056300217637858, ,1.75, ,0.6898578412721564, ,0.3929715720087345, ,0.08659006959041653
8, ,PASS, ,0.035860270000000014, ,0.005213304535437549, ,0.032012901101814255, ,0.00019091952831407118, ,1.75, ,0.687755066020301, ,0.3937470663864003, ,0.0756923328095345
9, ,PASS, ,0.035605899999999996, ,0.005220162121290795, ,0.03209667228056571, ,0.00018969557605258102, ,1.75, ,0.6933667136507329, ,0.39274708679414705, ,0.08063100753045856
10, ,PASS, ,0.03547281000000002, ,0.005185143295474859, ,0.03201958568641457, ,0.00018753789644210768, ,1.6666666666666667, ,0.6919723547221928, ,0.39074712760964064, ,0.07814126242321585
11, ,PASS, ,0.03563980000000001, ,0.005197896533307535, ,0.0321247336282933, ,0.00018899414840876154, ,1.75, ,0.6884959813986579, ,0.3921552621375074, ,0.07573314830309585
12, ,PASS, ,0.03558599000000001, ,0.005171826547655912, ,0.032077057118834316, ,0.0001875729799033341, ,1.8333333333333333, ,0.6880977637199188, ,0.39415522132201386, ,0.0727332095263362
13, ,PASS, ,0.035654540000000026, ,0.005171811057398884, ,0.03221562296667415, ,0.000188042559304419, ,1.8333333333333333, ,0.6885531353529473, ,0.3934205424379094, ,0.07434542152200975
14, ,PASS, ,0.035567280000000014, ,0.005175820430395105, ,0.03209614384992143, ,0.00018749874566171673, ,1.75, ,0.6869408854386421, ,0.39362461990571623, ,0.07805963143609314
15, ,PASS, ,0.03599824000000002, ,0.0052716561346579874, ,0.03241636644619498, ,0.00019279488160905484, ,1.75, ,0.687071618697013, ,0.40146119466949653, ,0.08548805126425991
16, ,PASS, ,0.05640849000000002, ,0.007031878194698143, ,0.030426919652660152, ,0.0004034805709669202, ,1.75, ,0.613924645665212, ,0.39195118466970064, ,0.06405991714454808
17, ,PASS, ,0.11739299999999997, ,0.013209609271056426, ,0.025660786417828207, ,0.0015707071847426677, ,1.6666666666666667, ,0.5714546238602696, ,0.39574702557090674, ,0.03952980551417318
18, ,PASS, ,0.03954128, ,0.005661947284589753, ,0.031629379030836104, ,0.00022828528398589085, ,1.75, ,0.6776900569260773, ,0.3935429889185935, ,0.07238627783106467
19, ,PASS, ,0.037921680000000006, ,0.005460593175960372, ,0.03197698094345014, ,0.00021094181846918555, ,1.75, ,0.6807946619439157, ,0.39278790228770843, ,0.07367196587824738
20, ,PASS, ,0.03740467000000001, ,0.005408406997968131, ,0.03179351955960083, ,0.00020622677715428613, ,1.75, ,0.6846082141270902, ,0.39460419175118877, ,0.08426358645741924
21, ,PASS, ,0.03770213, ,0.005414997164789724, ,0.03203617255137651, ,0.0002084209686503933, ,1.6666666666666667, ,0.6817581849543961, ,0.39111446705169284, ,0.06999857145772535
22, ,PASS, ,0.03789983000000001, ,0.005449667188023003, ,0.03174599190404278, ,0.00021048180750611885, ,1.75, ,0.6825440206359529, ,0.393889920613865, ,0.08338605334585009
23, ,PASS, ,0.037723039999999985, ,0.005419296175106314, ,0.03190319882859534, ,0.00020854545111683733, ,1.75, ,0.6827399672817677, ,0.3935225811718128, ,0.07677394338891043
24, ,PASS, ,0.03773445, ,0.005438742245925145, ,0.03177364723352585, ,0.0002093094127341541, ,1.75, ,0.6819344815551126, ,0.3929103487683925, ,0.07095773555641721
25, ,PASS, ,0.03773451, ,0.005457028182553486, ,0.03182440628191262, ,0.00021013526018464997, ,1.8333333333333333, ,0.6832056875627431, ,0.39350217342503213, ,0.08273300544886839
26, ,PASS, ,0.03782039000000001, ,0.005452745343405281, ,0.031760205122140374, ,0.00021042747726636828, ,1.75, ,0.6830746045944249, ,0.3930327952490765, ,0.07695761310993653
27, ,PASS, ,0.037910059999999995, ,0.005450575236864408, ,0.03177707325197446, ,0.0002107919744227405, ,1.75, ,0.6829440168668285, ,0.3913185445194996, ,0.07597804126446399
28, ,PASS, ,0.03785218999999999, ,0.005422945387427466, ,0.031968055651721394, ,0.00020947817249244934, ,1.6666666666666667, ,0.6811883009989755, ,0.39035938042080776, ,0.07552907083528908
29, ,PASS, ,0.03785596000000001, ,0.005480443545160932, ,0.032012316800677544, ,0.00021078679350423636, ,1.75, ,0.6834711530286913, ,0.40115507846778636, ,0.082630966714965
30, ,PASS, ,0.03776467000000001, ,0.005523728770656506, ,0.0323491261525275, ,0.0002117038672728926, ,1.6666666666666667, ,0.6824259268749066, ,0.4017877186179874, ,0.08242688924715823
31, ,PASS, ,0.03772080000000001, ,0.00545124349727246, ,0.031991239504908064, ,0.0002098591250878192, ,1.75, ,0.6832264333932462, ,0.39274708679414705, ,0.08344727658619212
32, ,PASS, ,0.03789497000000001, ,0.005435307028528252, ,0.03183837319442461, ,0.00021013331466684343, ,1.75, ,0.6793131943306078, ,0.3920940388971654, ,0.07616171098549009
33, ,PASS, ,0.03786051000000001, ,0.005471523097552649, ,0.03201137137711476, ,0.00021086261504238486, ,1.75, ,0.6811324046809001, ,0.3965021122017918, ,0.07332503418297585
34, ,PASS, ,0.03790327, ,0.005438484701048133, ,0.03196227221056714, ,0.00021022853380378128, ,1.75, ,0.6828704045111313, ,0.39368584314605826, ,0.07932491173649517
35, ,PASS, ,0.03776937000000001, ,0.005466190632268779, ,0.03190042502479542, ,0.0002107362185728039, ,1.75, ,0.6844506318031188, ,0.39276749454092774, ,0.08122283218709822
36, ,PASS, ,0.03777641, ,0.005423506773428283, ,0.03179460986653334, ,0.0002089572835919228, ,1.8333333333333333, ,0.6852064774211337, ,0.3951960164078284, ,0.08146772514846636
37, ,PASS, ,0.03773341999999999, ,0.005463492005805419, ,0.03187495242423624, ,0.00021019867576124756, ,1.75, ,0.6836920645808351, ,0.39311442623619924, ,0.08232485051325483
38, ,PASS, ,0.037719810000000006, ,0.005427458851699346, ,0.031927581293238916, ,0.00020874715911627786, ,1.75, ,0.6822410049016494, ,0.3924205628456562, ,0.07010061019162875
39, ,PASS, ,0.03766668999999999, ,0.0054307091996493775, ,0.032089924380114696, ,0.0002085324835334447, ,1.75, ,0.6842024399540269, ,0.3928899410216118, ,0.08507989632864635
40, ,PASS, ,0.037815660000000015, ,0.005484222534212548, ,0.03158079493867473, ,0.00021149391895963215, ,1.75, ,0.6859989538813209, ,0.393828697373523, ,0.08269218995530704
41, ,PASS, ,0.038184760000000005, ,0.005496850991553615, ,0.03182445404746843, ,0.00021426220050920768, ,1.75, ,0.6826705583409606, ,0.3917879226954552, ,0.07042713414011958
42, ,PASS, ,0.03799641000000001, ,0.005477213293542108, ,0.03167264743046061, ,0.0002125413267884344, ,1.75, ,0.685038617027298, ,0.3914001755066223, ,0.08167180261627313
43, ,PASS, ,0.037892449999999994, ,0.005477789760123472, ,0.03160273982898309, ,0.00021162591820777184, ,1.8333333333333333, ,0.6826578769253167, ,0.39356339666537415, ,0.07348829615722129
44, ,PASS, ,0.037958370000000005, ,0.00547947147692546, ,0.031296883126670894, ,0.00021234012267858064, ,1.75, ,0.6846956911874869, ,0.39282871778126977, ,0.08018203710128365
45, ,PASS, ,0.0381495, ,0.005477183788798448, ,0.03173948981755475, ,0.00021287009543637708, ,1.75, ,0.6797390272646969, ,0.39560417134344195, ,0.046203138711454865
46, ,PASS, ,0.03797153999999999, ,0.005490925922794259, ,0.03168193683741149, ,0.00021272377873704737, ,1.75, ,0.6844922345628407, ,0.3924205628456562, ,0.07981469765923145
47, ,PASS, ,0.038269190000000015, ,0.005494962440586854, ,0.03147963853125447, ,0.000214677896219675, ,1.75, ,0.6838245296891822, ,0.39364502765249687, ,0.07734536029876941
48, ,PASS, ,0.03800266999999999, ,0.005540203048842439, ,0.031918138134731946, ,0.00021401543799061255, ,1.75, ,0.6832766179921411, ,0.40029795310299787, ,0.07824330115711925
49, ,PASS, ,0.038163340000000004, ,0.005498424177646794, ,0.03161937444643988, ,0.00021416062566803355, ,1.6666666666666667, ,0.6856313555603368, ,0.392563417073121, ,0.07769229199404094
50, ,PASS, ,0.039451869999999986, ,0.0056318138044551495, ,0.03155073959347769, ,0.00022664035834115442, ,1.75, ,0.6753160548470277, ,0.39282871778126977, ,0.07650864268076162
51, ,PASS, ,0.038684389999999985, ,0.005550491477369489, ,0.03182737122691374, ,0.00021911451740984253, ,1.6666666666666667, ,0.6827085298313255, ,0.3918491459357972, ,0.0718964919083284
52, ,PASS, ,0.03829796000000001, ,0.005506108861716664, ,0.03163721113201772, ,0.00021518609338228416, ,1.75, ,0.6860555567661992, ,0.39276749454092774, ,0.08018203710128365
53, ,PASS, ,0.03828163000000001, ,0.005516071011244683, ,0.031814446891696095, ,0.00021539860456029075, ,1.8333333333333333, ,0.6863679122721481, ,0.3946450072447501, ,0.07318217995551111
54, ,PASS, ,0.038211179999999983, ,0.005514260605528714, ,0.03140965400910186, ,0.00021514001815608184, ,1.75, ,0.683917525542211, ,0.3917062917083325, ,0.07085569682251383
55, ,PASS, ,0.03827151000000001, ,0.005523258011006821, ,0.03149838242484848, ,0.0002157639792748882, ,1.75, ,0.6865430711092518, ,0.3942368523091365, ,0.08046774555621314
56, ,PASS, ,0.038113400000000006, ,0.005548264883484111, ,0.03153740838186977, ,0.00021553906148749437, ,1.75, ,0.6869197281382792, ,0.3924205628456562, ,0.08099834697251077
57, ,PASS, ,0.03828349, ,0.005545724622753045, ,0.031550604485010514, ,0.00021684617658368792, ,1.6666666666666667, ,0.687386187153992, ,0.390787943103202, ,0.08083508499826535
58, ,PASS, ,0.03904648999999999, ,0.005625553105967847, ,0.03158999974347463, ,0.0002239918426170932, ,1.75, ,0.6823877226789876, ,0.3945837840044081, ,0.08385543152180568
59, ,PASS, ,0.038510920000000004, ,0.005576142107326917, ,0.031324001077529036, ,0.00021900869397335703, ,1.75, ,0.68614672114751, ,0.39240015509887555, ,0.08465133364625212
60, ,PASS, ,0.038605920000000016, ,0.005585035468045312, ,0.03139166236505378, ,0.00022007427908395056, ,1.8333333333333333, ,0.6870429298758255, ,0.39240015509887555, ,0.08169221036305381
61, ,PASS, ,0.03871563, ,0.005614836729625605, ,0.0314021034154405, ,0.00022164959185954906, ,1.75, ,0.6857652348893656, ,0.39119609803881555, ,0.07899838778800433
62, ,PASS, ,0.038639009999999994, ,0.0055975477205033606, ,0.03158096811554866, ,0.00022083786445691448, ,1.75, ,0.6870207616073962, ,0.3937266586396196, ,0.07987592089957347
63, ,PASS, ,0.03853651000000001, ,0.005584542408667403, ,0.031510217845554175, ,0.00021950719400361032, ,1.75, ,0.687053914029356, ,0.3934001346911288, ,0.07585559478377993
64, ,PASS, ,0.038595210000000005, ,0.005583318981405503, ,0.031552963656456, ,0.00021998937868497007, ,1.75, ,0.6860767813156269, ,0.3925430093263403, ,0.07399848982673823
65, ,PASS, ,0.03853662000000002, ,0.005593002216973057, ,0.031551266865982336, ,0.00022000581270775177, ,1.75, ,0.6882247098366779, ,0.39535927838207385, ,0.08016162935450297
66, ,PASS, ,0.038513000000000006, ,0.005578844116483681, ,0.03157186958286566, ,0.0002192454744985981, ,1.75, ,0.6894801140736828, ,0.3949307156996796, ,0.08030448358196772
67, ,PASS, ,0.03869383, ,0.005593531072159168, ,0.031571667717393524, ,0.0002210635198981687, ,1.75, ,0.6871237968810586, ,0.3929919797555152, ,0.0769780208567172
68, ,PASS, ,0.038790080000000005, ,0.005681450914679355, ,0.031809731480990186, ,0.0002233540192692063, ,1.8333333333333333, ,0.6856533214995731, ,0.3981551396910267, ,0.06873329115732332
69, ,PASS, ,0.03843004000000001, ,0.005609095542836546, ,0.03174372946960267, ,0.00021998172061143978, ,1.75, ,0.6903165907012923, ,0.393767474133181, ,0.08342686883941144
70, ,PASS, ,0.03871497, ,0.005601599773307649, ,0.03148776448929614, ,0.00022126100322147245, ,1.75, ,0.6888496457144205, ,0.39248178608599826, ,0.07303932572804636
71, ,PASS, ,0.03879130999999998, ,0.005610434373882815, ,0.031705222376686194, ,0.00022244126368730773, ,1.75, ,0.6890368002835146, ,0.39399195934776843, ,0.07428419828166773
72, ,PASS, ,0.03874129, ,0.005615068915547824, ,0.031653851096712315, ,0.0002218368213255503, ,1.8333333333333333, ,0.6857673218588053, ,0.39413481357523317, ,0.0756107018224118
73, ,PASS, ,0.03880845000000001, ,0.00561509282224072, ,0.03152956280545295, ,0.0002223385012718077, ,1.75, ,0.6876544382611454, ,0.3937878818799616, ,0.06654966225179078
74, ,PASS, ,0.038700530000000004, ,0.005638952389860194, ,0.03133238652374441, ,0.0002227212642713623, ,1.8333333333333333, ,0.6892833626801215, ,0.39360421215893554, ,0.07871267933307484
75, ,PASS, ,0.03859063, ,0.005636529290942406, ,0.03147702119120019, ,0.00022183068107080442, ,1.8333333333333333, ,0.689723775868143, ,0.39448174527050467, ,0.08159017162915043
76, ,PASS, ,0.03870450000000001, ,0.0056021217847992645, ,0.031593705560906925, ,0.0002214204386142081, ,1.75, ,0.6886048780493115, ,0.3940939980816718, ,0.07405971306708026
77, ,PASS, ,0.03882001999999999, ,0.00565607583345527, ,0.03171180276831086, ,0.00022430998097785533, ,1.75, ,0.6902261284140968, ,0.39266545580702433, ,0.08526356604967246
78, ,PASS, ,0.03873975, ,0.005618584475162254, ,0.03152728885328871, ,0.0002221610645480205, ,1.75, ,0.6887043130839213, ,0.3929103487683925, ,0.07861064059917144
79, ,PASS, ,0.038600590000000004, ,0.005613841799765891, ,0.03156667969306749, ,0.00022122028234197171, ,1.75, ,0.6901268200372228, ,0.39399195934776843, ,0.08169221036305381
80, ,PASS, ,0.038890539999999994, ,0.005660376502339893, ,0.03153294666353748, ,0.00022502626471304957, ,1.75, ,0.6914256260355444, ,0.39311442623619924, ,0.07787596171506704
81, ,PASS, ,0.038899409999999995, ,0.005684945974297962, ,0.03139065578886146, ,0.00022567292905027736, ,1.75, ,0.6907197273676108, ,0.3923389318585335, ,0.07838615538458399
82, ,PASS, ,0.03898915, ,0.005661440705972832, ,0.031576373463602786, ,0.0002256489853013765, ,1.75, ,0.6908690742969121, ,0.3918083304422359, ,0.07740658353911145
83, ,PASS, ,0.03897685000000001, ,0.005673833215844893, ,0.031325777681679975, ,0.00022573123736498426, ,1.75, ,0.6880409031994147, ,0.3920736311503847, ,0.0744882757494745
84, ,PASS, ,0.039317850000000015, ,0.005715921022448277, ,0.031413768621048554, ,0.0002295894598991614, ,1.75, ,0.6911371820026783, ,0.3946245994979694, ,0.0810595702128528
85, ,PASS, ,0.039104749999999994, ,0.005652865332410709, ,0.03152013881839146, ,0.00022572818181840199, ,1.75, ,0.687703955702146, ,0.3888287994122569, ,0.0779984081957511
86, ,PASS, ,0.03920894999999999, ,0.005713205046981628, ,0.031548242280157554, ,0.0002287447255338172, ,1.75, ,0.6909309693502205, ,0.39201240791004266, ,0.08565131323850533
87, ,PASS, ,0.03935653999999999, ,0.0056995203474278075, ,0.03151441986837004, ,0.00022931429847057364, ,1.75, ,0.6868747945951222, ,0.39203281565682335, ,0.06918226158649823
88, ,PASS, ,0.03938581999999999, ,0.005710700801244797, ,0.0315604009918165, ,0.00022963718122200958, ,1.75, ,0.6872620450139811, ,0.3922573008714108, ,0.07612089549192874
89, ,PASS, ,0.03925646000000001, ,0.005738945408887109, ,0.03156321220117957, ,0.00022995891388266, ,1.75, ,0.6928295179661532, ,0.3951347931674864, ,0.08589620619987347
90, ,PASS, ,0.03988603, ,0.005770479186170348, ,0.0313239903197894, ,0.00023513939588290506, ,1.75, ,0.6877617625219725, ,0.3939307361074264, ,0.08295749066345585
91, ,PASS, ,0.061220966000000036, ,0.007579248786478875, ,0.02962372076855575, ,0.000472714213093018, ,1.75, ,0.6094593316795218, ,0.3916654762147711, ,0.057162098732678926
92, ,PASS, ,0.11909098999999998, ,0.01331437201159316, ,0.02519419356298851, ,0.0016074570965940297, ,1.6666666666666667, ,0.5702759525484445, ,0.392685863553805, ,0.042141997102099954
93, ,PASS, ,0.04767874699999999, ,0.006812487452806581, ,0.03052148074855615, ,0.0003310624334779826, ,1.75, ,0.6773083214784958, ,0.3959306952919328, ,0.08044733780943246
94, ,PASS, ,0.0454206, ,0.006529791639573862, ,0.03063350585314585, ,0.0003026634923568052, ,1.6666666666666667, ,0.6834450519185367, ,0.3908695740903247, ,0.08336564559906941
95, ,PASS, ,0.04542688000000002, ,0.006496918738903995, ,0.0308840364586437, ,0.00030124602997769163, ,1.75, ,0.6823174974798792, ,0.3919715924164813, ,0.07699842860349788
96, ,PASS, ,0.04501838, ,0.006558575762644764, ,0.03127413349870411, ,0.00029795658797513694, ,1.75, ,0.6799993222512482, ,0.39952245872533215, ,0.075406624354605
97, ,PASS, ,0.04499898999999999, ,0.006490648030458267, ,0.030928107765555806, ,0.00029768628789811374, ,1.75, ,0.682146213310945, ,0.3937266586396196, ,0.07910042652190771
98, ,PASS, ,0.045012949999999996, ,0.006474688594046899, ,0.030896147062100775, ,0.0002970524808528113, ,1.75, ,0.6806279088129362, ,0.39356339666537415, ,0.07356992714434399
99, ,PASS, ,0.045144569999999995, ,0.0064602269784306875, ,0.030848967183935018, ,0.0002973931516717362, ,1.75, ,0.681326324528958, ,0.39280831003448907, ,0.06940674680108569
100, ,PASS, ,0.04471550999999997, ,0.006416166816220263, ,0.030801135093161364, ,0.00029277665271062905, ,1.75, ,0.6802202049414027, ,0.3930123875022959, ,0.07438623701557111
101, ,PASS, ,0.044676649999999984, ,0.006401618805789829, ,0.031023053183200342, ,0.00029155278766243483, ,1.8333333333333333, ,0.68295255767715, ,0.39499193894002166, ,0.08093712373216873
102, ,PASS, ,0.044741329999999996, ,0.006412995143125776, ,0.030999159896736798, ,0.00029265128007111495, ,1.8333333333333333, ,0.6820185611599974, ,0.39478786147221484, ,0.07969225117854738
103, ,PASS, ,0.04455542999999999, ,0.006422084650940075, ,0.031018885455398867, ,0.00029159031132271684, ,1.75, ,0.6812640180567151, ,0.3930123875022959, ,0.08079426950470399
104, ,PASS, ,0.044819359999999996, ,0.006450972892949689, ,0.031041520771412826, ,0.0002945655438694084, ,1.75, ,0.6816664389771152, ,0.3926042325666823, ,0.07812085467643518
105, ,PASS, ,0.04481952999999998, ,0.006432888334782073, ,0.03064666082590151, ,0.00029366737381894336, ,1.75, ,0.6827250230888523, ,0.38701250994877656, ,0.08573294422562805
106, ,PASS, ,0.04488922999999998, ,0.00644501414178433, ,0.030686864287055367, ,0.0002953102200756168, ,1.75, ,0.6837307325923532, ,0.39517560866104773, ,0.08083508499826535
107, ,PASS, ,0.04496939, ,0.0064201946795306745, ,0.030963558391869553, ,0.0002945441623562043, ,1.75, ,0.6826498083538673, ,0.3954000938756352, ,0.08056978429011653
108, ,PASS, ,0.04480810999999999, ,0.0064581564809322355, ,0.030819718830227952, ,0.0002951708907613557, ,1.75, ,0.6819975214194229, ,0.3929307565151732, ,0.07801881594253178
109, ,PASS, ,0.04476974999999999, ,0.006457063000864681, ,0.030925628106161097, ,0.00029449296994745947, ,1.75, ,0.6815185939502119, ,0.3938695128670843, ,0.08287585967633314
110, ,PASS, ,0.04493965999999999, ,0.006427825574100312, ,0.03090042469929185, ,0.00029456366625735383, ,1.75, ,0.6788037098540602, ,0.3911348747984735, ,0.06765168057794739
111, ,PASS, ,0.04497114000000001, ,0.006436915254683838, ,0.030884664360727333, ,0.00029509753160624, ,1.75, ,0.6786733223021493, ,0.392053223403604, ,0.07510050815289483
112, ,PASS, ,0.044923580000000005, ,0.0064494515300132955, ,0.03098366143344013, ,0.00029567649795140497, ,1.6666666666666667, ,0.6831618139805605, ,0.39074712760964064, ,0.07824330115711925
113, ,PASS, ,0.04499172, ,0.006457459944902232, ,0.030993598298606147, ,0.00029592379846210516, ,1.75, ,0.6779676006258717, ,0.3965021122017918, ,0.06983530948347993
114, ,PASS, ,0.04492758999999998, ,0.006426666773315705, ,0.030853666475990284, ,0.0002943564426208018, ,1.75, ,0.6797021474279521, ,0.39366543539927756, ,0.07822289341033857
115, ,PASS, ,0.04477940999999999, ,0.006444617302692124, ,0.030774764206240687, ,0.0002939771436318742, ,1.75, ,0.6802209719616349, ,0.39362461990571623, ,0.07830452439746127
116, ,PASS, ,0.044850849999999984, ,0.006463368651553772, ,0.030853487832289132, ,0.0002950345192895241, ,1.75, ,0.6799329584875146, ,0.3954613171159772, ,0.07748821452623415
117, ,PASS, ,0.045125860000000004, ,0.006445829162362732, ,0.031067777198016365, ,0.00029682688660565395, ,1.8333333333333333, ,0.6774298400250066, ,0.39331850370400606, ,0.07230464684394196
118, ,PASS, ,0.04515426, ,0.006408557693905432, ,0.030932466344768473, ,0.0002951076255870153, ,1.75, ,0.6758403197963263, ,0.3929511642619538, ,0.07416175180098365
119, ,PASS, ,0.04462302, ,0.006417056947932417, ,0.03100565421868941, ,0.00029208600766723815, ,1.6666666666666667, ,0.6809504268227087, ,0.390787943103202, ,0.07501887716577213
120, ,PASS, ,0.04501115, ,0.006428144819066211, ,0.030952340084896224, ,0.00029490447343577173, ,1.75, ,0.6792546689632811, ,0.3929919797555152, ,0.07922287300259179
121, ,PASS, ,0.0448532, ,0.006442880791494494, ,0.031145218177996363, ,0.00029457953056927525, ,1.75, ,0.6791996006039814, ,0.3933593191975674, ,0.07491683843186873
122, ,PASS, ,0.04503026999999998, ,0.006439875864305377, ,0.030997705619681227, ,0.00029553760252697077, ,1.75, ,0.6780474036057683, ,0.39311442623619924, ,0.07595763351768331
123, ,PASS, ,0.04508269, ,0.00643646408505451, ,0.030921316997408216, ,0.00029565263298528906, ,1.75, ,0.6762585683867285, ,0.3933797269443481, ,0.07144752147915348
124, ,PASS, ,0.04457815, ,0.006344215753226349, ,0.03072611430195302, ,0.0002882322729002291, ,1.75, ,0.6761591894080526, ,0.39313483398297994, ,0.07512091589967551
125, ,PASS, ,0.04615097, ,0.006505590280793669, ,0.030845280127344343, ,0.00030610987773853116, ,1.75, ,0.6714428249273688, ,0.3929919797555152, ,0.07873308707985552
126, ,PASS, ,0.045235529999999996, ,0.006461009772588323, ,0.03070012292402196, ,0.00029767608880045877, ,1.75, ,0.6766048335936637, ,0.3934001346911288, ,0.07610048774514806
127, ,PASS, ,0.044849700000000006, ,0.0064098487234085615, ,0.03088160686230893, ,0.0002929760152215594, ,1.75, ,0.6774505936595635, ,0.3941960368155752, ,0.07354951939756331
128, ,PASS, ,0.04447413, ,0.006317540660365645, ,0.031157652673618908, ,0.00028656824153485387, ,1.75, ,0.6756179099483658, ,0.39448174527050467, ,0.08056978429011653
129, ,PASS, ,0.044884539999999994, ,0.006406338179734581, ,0.031090175276627007, ,0.0002934958284234958, ,1.75, ,0.6781823242363529, ,0.39278790228770843, ,0.06989653272382196
130, ,PASS, ,0.04510482999999999, ,0.006448178874030667, ,0.03110446150262239, ,0.00029657066183324534, ,1.75, ,0.6790421459772576, ,0.393767474133181, ,0.07373318911858942
131, ,PASS, ,0.04479939999999999, ,0.006425077568810764, ,0.031168952987081895, ,0.00029348140533875096, ,1.75, ,0.6783797450893417, ,0.3934409501846901, ,0.07597804126446399
132, ,PASS, ,0.04489424, ,0.006471430086452233, ,0.031283080906920266, ,0.00029640221404280423, ,1.75, ,0.6825092469228916, ,0.393257280463664, ,0.08061059978367788
133, ,PASS, ,0.04582767999999999, ,0.006524296065095941, ,0.031077096169874086, ,0.0003050130397468043, ,1.75, ,0.6756663693094134, ,0.393889920613865, ,0.07373318911858942
134, ,PASS, ,0.04540001, ,0.006479096613438021, ,0.03124444622824024, ,0.0002999379588940088, ,1.75, ,0.6774469978211123, ,0.3935225811718128, ,0.08061059978367788
135, ,PASS, ,0.044920959999999996, ,0.0064410310824388394, ,0.03121846867839432, ,0.00029543605288704164, ,1.6666666666666667, ,0.6832358652147013, ,0.39182873818901653, ,0.0827125977020877
136, ,PASS, ,0.044939900000000005, ,0.006461036394910346, ,0.03125725937286994, ,0.00029592828710237073, ,1.75, ,0.6785838426212646, ,0.3938695128670843, ,0.06920266933327891
137, ,PASS, ,0.04485501999999999, ,0.006466316370248439, ,0.031289103573804614, ,0.00029444372063365504, ,1.75, ,0.6782547841239839, ,0.399277565763964, ,0.07738617579233077
138, ,PASS, ,0.04484841999999999, ,0.006424048980835905, ,0.03110770125813759, ,0.0002938431699157036, ,1.75, ,0.679921103906018, ,0.3917471072018938, ,0.07510050815289483
139, ,PASS, ,0.044980969999999995, ,0.006462045441324782, ,0.03125212566641497, ,0.0002965353999430473, ,1.75, ,0.6798096210698448, ,0.39227770861819145, ,0.07636578845329688
140, ,PASS, ,0.04502379, ,0.006445745754445506, ,0.031206149814493583, ,0.0002959073294094356, ,1.8333333333333333, ,0.6795368836662088, ,0.39450215301728536, ,0.0779984081957511
141, ,PASS, ,0.04474412, ,0.006460945896369258, ,0.031197740237342092, ,0.00029455576305965805, ,1.75, ,0.6838726346446712, ,0.39452256076406605, ,0.08295749066345585
142, ,PASS, ,0.0448433, ,0.006463537768925539, ,0.030907142896267423, ,0.0002957593635304282, ,1.6666666666666667, ,0.6824209380787816, ,0.390849166343544, ,0.07591681802412195
143, ,PASS, ,0.045024840000000003, ,0.006455488340334999, ,0.030999462842799124, ,0.00029682757612392086, ,1.75, ,0.6820980530449479, ,0.3912165057855962, ,0.06854962143629721
144, ,PASS, ,0.04515914000000001, ,0.006472137394258129, ,0.031084450205710087, ,0.0002980787527642781, ,1.75, ,0.6800002682986097, ,0.39235933960531416, ,0.07559029407563111
145, ,PASS, ,0.04517028, ,0.006469928367293551, ,0.030982740407338623, ,0.0002983489627435258, ,1.6666666666666667, ,0.6823244953460358, ,0.390849166343544, ,0.08338605334585009
146, ,PASS, ,0.04528745, ,0.00649058814246065, ,0.0312575417226179, ,0.00029984057730711726, ,1.75, ,0.6789575038535686, ,0.3929919797555152, ,0.07020264892553213
147, ,PASS, ,0.045168539999999986, ,0.0064867192975831735, ,0.031068389400420397, ,0.00029884075845131746, ,1.75, ,0.6813175339944355, ,0.39360421215893554, ,0.08475337238015551
148, ,PASS, ,0.04510244, ,0.006489707945287976, ,0.031150164587049244, ,0.00029868005822985725, ,1.75, ,0.6806335219117443, ,0.3929103487683925, ,0.07920246525581111
149, ,PASS, ,0.04532817000000001, ,0.0064610002361481286, ,0.030931818279831023, ,0.00029898285286461546, ,1.75, ,0.677920433371002, ,0.3927062713005857, ,0.07046794963368094
150, ,PASS, ,0.04522996000000001, ,0.006533378757582848, ,0.031120294015224176, ,0.00029854961279148656, ,1.75, ,0.6782981139599418, ,0.3924205628456562, ,0.06940674680108569
151, ,PASS, ,0.04495801000000001, ,0.006481525208913838, ,0.031114866535784984, ,0.000296870382821124, ,1.75, ,0.6811974388756582, ,0.39450215301728536, ,0.07779433072794432
152, ,PASS, ,0.04499864000000002, ,0.006498591110611927, ,0.03133760140160405, ,0.0002978060000045005, ,1.8333333333333333, ,0.6807327335323794, ,0.39635925797432703, ,0.07452909124303586
153, ,PASS, ,0.045005439999999994, ,0.006482619748648065, ,0.031152108558396768, ,0.0002975279743402488, ,1.75, ,0.6822628594860705, ,0.39323687271688335, ,0.07403930532029959
154, ,PASS, ,0.044895210000000005, ,0.006476443306319651, ,0.031250731132834025, ,0.0002967318785491976, ,1.8333333333333333, ,0.6837608917098799, ,0.39362461990571623, ,0.08020244484806432
155, ,PASS, ,0.04465587, ,0.006493194242577027, ,0.031169004986224772, ,0.0002954987610124034, ,1.75, ,0.6891473549134581, ,0.3920736311503847, ,0.08122283218709822
156, ,PASS, ,0.0450608, ,0.006492781909577856, ,0.03124853410542642, ,0.0002985363156281946, ,1.8333333333333333, ,0.6846184165689033, ,0.3959715107854942, ,0.07979428991245077
157, ,PASS, ,0.04491695, ,0.006504632080356358, ,0.031166443197485766, ,0.00029797791454603867, ,1.75, ,0.6838475256499886, ,0.3933797269443481, ,0.07836574763780331
158, ,PASS, ,0.04525257000000001, ,0.006488308665565533, ,0.031197129633272792, ,0.0002995920376703517, ,1.75, ,0.6807718598570237, ,0.3929715720087345, ,0.07026387216587417
159, ,PASS, ,0.04494727999999999, ,0.00649108827194308, ,0.03113277953164221, ,0.0002980397346304297, ,1.6666666666666667, ,0.684747783282444, ,0.39029815718046573, ,0.07891675680088162
160, ,PASS, ,0.04490870000000001, ,0.0064932150414649245, ,0.031114908373094427, ,0.0002977427910023083, ,1.75, ,0.6832640692303877, ,0.3919715924164813, ,0.07734536029876941
161, ,PASS, ,0.045165979999999994, ,0.006612943409213206, ,0.03128676841839963, ,0.00030214966326705536, ,1.8333333333333333, ,0.6928177224182792, ,0.39574702557090674, ,0.07963102793820534
162, ,PASS, ,0.045351859999999994, ,0.006524433461479009, ,0.031008809844901123, ,0.0003018997933587362, ,1.8333333333333333, ,0.6823093205575729, ,0.39364502765249687, ,0.07818207791677721
163, ,PASS, ,0.045186859999999995, ,0.006500753271782512, ,0.03106415318911859, ,0.00030012068511085907, ,1.75, ,0.6834182712820068, ,0.39331850370400606, ,0.07603926450480603
164, ,PASS, ,0.04553979000000001, ,0.006581889182185004, ,0.030933106411501807, ,0.00030596049012318003, ,1.75, ,0.6829227764938607, ,0.3933389114507867, ,0.07438623701557111
165, ,PASS, ,0.04598238000000002, ,0.006607827582047922, ,0.03098997848084733, ,0.0003104597493326225, ,1.75, ,0.6825824480114718, ,0.3909716128242281, ,0.077182098324524
166, ,PASS, ,0.06937622466, ,0.008627796751343744, ,0.029169459287769636, ,0.0006086380005307444, ,1.75, ,0.608225644003789, ,0.39480826921899553, ,0.060468153711148755
167, ,PASS, ,0.1367234, ,0.015384754930748727, ,0.023533254886022738, ,0.0021345350452400902, ,1.6666666666666667, ,0.5704870431773776, ,0.39266545580702433, ,0.04320319993469521
168, ,PASS, ,0.048861507999999984, ,0.006946727688489143, ,0.030768781403440748, ,0.0003463509771282138, ,1.75, ,0.6748167687915517, ,0.39235933960531416, ,0.07752903001979551
169, ,PASS, ,0.050722273999999984, ,0.0071566811039113385, ,0.030607520791616497, ,0.0003700601073091839, ,1.75, ,0.6694127433787425, ,0.39321646497010265, ,0.07601885675802535
170, ,PASS, ,0.04884198399999998, ,0.006925701842368307, ,0.030750544327666784, ,0.00034456056086170977, ,1.75, ,0.6714575404061084, ,0.3930327952490765, ,0.08205954980510602
171, ,PASS, ,0.048812071999999984, ,0.006918697490339137, ,0.030839262751168342, ,0.00034468408564116814, ,1.75, ,0.6724815644222603, ,0.3937878818799616, ,0.074773984204404
172, ,PASS, ,0.048725365999999985, ,0.006900521238235829, ,0.030757952715862943, ,0.0003427569813789981, ,1.75, ,0.6732414670560171, ,0.392685863553805, ,0.07444746025591314
173, ,PASS, ,0.04856275999999998, ,0.006882470286209035, ,0.030711849729393278, ,0.0003411544711604464, ,1.75, ,0.6727329441520566, ,0.3904614191547111, ,0.07232505459072264
174, ,PASS, ,0.04840646899999999, ,0.006862185355454622, ,0.03080257940837942, ,0.0003390386338179152, ,1.75, ,0.6730716874551835, ,0.3929715720087345, ,0.0743046060284484
175, ,PASS, ,0.04852943099999999, ,0.006874164484802239, ,0.030906264232158528, ,0.00034039284354097884, ,1.75, ,0.6728264683641019, ,0.392563417073121, ,0.0756923328095345
176, ,PASS, ,0.048718992999999995, ,0.0069029502474097434, ,0.030774149707352913, ,0.0003430100662498092, ,1.75, ,0.6720164866040975, ,0.3930532029958572, ,0.0720801616293545
177, ,PASS, ,0.04871361699999998, ,0.0069133535398585464, ,0.03077569149996939, ,0.0003431446494253063, ,1.75, ,0.6728345196639349, ,0.39193077692291994, ,0.08016162935450297
178, ,PASS, ,0.048689800999999984, ,0.006893914172132703, ,0.03097323309503888, ,0.0003421820855259591, ,1.75, ,0.6716032725889711, ,0.393257280463664, ,0.07710046733740128
179, ,PASS, ,0.04853961999999998, ,0.006902876414275817, ,0.030688567765759886, ,0.00034121438717268313, ,1.75, ,0.6720027755455941, ,0.39399195934776843, ,0.07965143568498602
180, ,PASS, ,0.04855099299999999, ,0.006857399321437559, ,0.03058212360992633, ,0.0003391405121296126, ,1.75, ,0.6716141509587072, ,0.3930327952490765, ,0.07646782718720026
181, ,PASS, ,0.048473585999999985, ,0.0068654481200453085, ,0.030641900419583274, ,0.00033943661415572295, ,1.75, ,0.6720139032708595, ,0.39237974735209485, ,0.07848819411848738
182, ,PASS, ,0.048447118999999976, ,0.006839026995762526, ,0.030805632911573236, ,0.000337754290865001, ,1.75, ,0.6719579220098383, ,0.3926450480602437, ,0.07805963143609314
183, ,PASS, ,0.048296681, ,0.006837835907781109, ,0.03074099151160181, ,0.00033685808222851983, ,1.75, ,0.6742635654828397, ,0.39144099100018365, ,0.07395767433317688
184, ,PASS, ,0.04813825999999999, ,0.0068448850530088545, ,0.030894795393359323, ,0.00033573534106208204, ,1.75, ,0.6731446573724081, ,0.3937878818799616, ,0.07542703210138568
185, ,PASS, ,0.04813541299999999, ,0.0068338449194733815, ,0.03087188544846024, ,0.0003353768685453115, ,1.75, ,0.6730646611717099, ,0.3948286769657762, ,0.07738617579233077
186, ,PASS, ,0.048060919999999986, ,0.006820037843538625, ,0.030866814203587684, ,0.0003337291098012476, ,1.75, ,0.6711672780079988, ,0.3927062713005857, ,0.0729168792473623
187, ,PASS, ,0.048126410999999994, ,0.006821104239040676, ,0.030865922851982613, ,0.0003349075509659372, ,1.75, ,0.6722415003182584, ,0.39360421215893554, ,0.07559029407563111
188, ,PASS, ,0.04825071, ,0.006807194428208244, ,0.030953063554621338, ,0.0003349639772611347, ,1.75, ,0.670128400813325, ,0.39248178608599826, ,0.0737535968653701
189, ,PASS, ,0.04811340999999998, ,0.006815296671206933, ,0.030943898982673825, ,0.0003341316345037396, ,1.75, ,0.6699718096814185, ,0.392563417073121, ,0.07640660394685823
190, ,PASS, ,0.048111860999999985, ,0.0067895507332334, ,0.03071464212138528, ,0.00033281739063123337, ,1.75, ,0.6705989848098022, ,0.3930940184894186, ,0.07520254688679823
191, ,PASS, ,0.048184899999999996, ,0.006767701436897887, ,0.030793704210118164, ,0.0003324204892783145, ,1.75, ,0.670013396483978, ,0.3912573212791576, ,0.07087610456929451
192, ,PASS, ,0.04796492, ,0.0068083811997845314, ,0.030762858942062408, ,0.00033260887983715037, ,1.75, ,0.6714215554598253, ,0.393828697373523, ,0.07848819411848738
193, ,PASS, ,0.04812954899999998, ,0.006799582199497647, ,0.031021101132834024, ,0.000333544305339671, ,1.75, ,0.6706833128637634, ,0.39319605722332196, ,0.07618211873227076
194, ,PASS, ,0.04815777999999998, ,0.006770009652852701, ,0.03072955891716496, ,0.00033229498990603276, ,1.75, ,0.6705827587821799, ,0.39323687271688335, ,0.07432501377522907
195, ,PASS, ,0.04800167100000001, ,0.006773088677774079, ,0.030693965744576644, ,0.00033127881381713186, ,1.75, ,0.6694456024348947, ,0.39397155160098773, ,0.07334544192975653
196, ,PASS, ,0.04808875999999998, ,0.0067996471173047395, ,0.030814470909777354, ,0.00033320289289645415, ,1.75, ,0.6712146763159939, ,0.3941144058284525, ,0.07361074263790535
197, ,PASS, ,0.04819128999999999, ,0.006811079789873031, ,0.03099202035815596, ,0.0003345492397214086, ,1.75, ,0.6691849203618782, ,0.39448174527050467, ,0.07297810248770434
198, ,PASS, ,0.048035871, ,0.006790537396134953, ,0.030698307341278753, ,0.0003324586794663865, ,1.75, ,0.6716904215639169, ,0.39248178608599826, ,0.07422297504132569
199, ,PASS, ,0.048054631, ,0.006764117576149815, ,0.030707186243341972, ,0.0003315364687161703, ,1.75, ,0.6711002090110635, ,0.39017571069978163, ,0.07505969265933349
200, ,PASS, ,0.04923063199999998, ,0.006877041208425385, ,0.03075051494826636, ,0.0003451404823300495, ,1.75, ,0.6645873346526595, ,0.3937878818799616, ,0.07879431032019754
201, ,PASS, ,0.04835961099999999, ,0.00680492750865016, ,0.030931448041060388, ,0.0003355218942773638, ,1.75, ,0.6701620491132274, ,0.39272667904736636, ,0.07814126242321585
202, ,PASS, ,0.04803530999999997, ,0.006788033819321289, ,0.03102412791432828, ,0.0003321969065061443, ,1.75, ,0.6706183451094628, ,0.39364502765249687, ,0.08187588008407992
203, ,PASS, ,0.04786946, ,0.006769296354555068, ,0.030788872651578543, ,0.0003301676844622814, ,1.75, ,0.6710286826102306, ,0.39313483398297994, ,0.07238627783106467
204, ,PASS, ,0.04785872999999998, ,0.006779681671980215, ,0.031054694094814393, ,0.00033076886388797976, ,1.75, ,0.6723261310306623, ,0.3929511642619538, ,0.08071263851758127
205, ,PASS, ,0.04816049999999998, ,0.006802459334773362, ,0.031034125711107936, ,0.00033362516589894887, ,1.75, ,0.6703078354080115, ,0.39433889104303993, ,0.07856982510561009
206, ,PASS, ,0.04801723999999999, ,0.006753680591066221, ,0.030891764988265548, ,0.0003303241211933561, ,1.75, ,0.6690149088758367, ,0.39574702557090674, ,0.07848819411848738
207, ,PASS, ,0.04786637199999999, ,0.006777456598466727, ,0.030790312749331646, ,0.00033038724065630475, ,1.75, ,0.6715135605679906, ,0.3920736311503847, ,0.06748841860370197
208, ,PASS, ,0.04904366299999999, ,0.006859218867083239, ,0.031049158179220833, ,0.000343090720522415, ,1.75, ,0.6662544375454534, ,0.3929919797555152, ,0.0794881737107406
209, ,PASS, ,0.04833315099999999, ,0.0068197916131243225, ,0.030801560678761657, ,0.00033554597259134283, ,1.75, ,0.6691276827166477, ,0.3935225811718128, ,0.07834533989102263
210, ,PASS, ,0.04800631999999999, ,0.0067735839011110995, ,0.030922855773351566, ,0.0003311747066773457, ,1.75, ,0.6704595896058029, ,0.3934409501846901, ,0.07877390257341686
211, ,PASS, ,0.048150299999999986, ,0.006885934412358546, ,0.03134336627558621, ,0.00033623839830218815, ,1.6666666666666667, ,0.6711604626431125, ,0.40272647496989855, ,0.08363094630721822
212, ,PASS, ,0.047973249999999995, ,0.006777324471974863, ,0.030894769943674624, ,0.00033117268160954807, ,1.75, ,0.670576758340481, ,0.39219607763106873, ,0.0782841166506806
213, ,PASS, ,0.048097, ,0.006789973094647667, ,0.030930643362992595, ,0.00033244817139171294, ,1.75, ,0.6696588431055012, ,0.39397155160098773, ,0.07446786800269382
214, ,PASS, ,0.04784107999999998, ,0.006898642406420375, ,0.03129545170078162, ,0.00033401251812682385, ,1.6666666666666667, ,0.6725411136861621, ,0.4087059447766372, ,0.07728413705842738
215, ,PASS, ,0.04803214099999999, ,0.0067882180606071265, ,0.030877206809656946, ,0.0003321489222033294, ,1.75, ,0.6703966980399461, ,0.393828697373523, ,0.07895757229444297
216, ,PASS, ,0.04841410899999999, ,0.006825937851763456, ,0.030827063706046817, ,0.0003371741094161016, ,1.75, ,0.6701769020532767, ,0.3912165057855962, ,0.0810595702128528
217, ,PASS, ,0.048396009999999975, ,0.006829671838473015, ,0.03074585315442542, ,0.00033676228374294374, ,1.75, ,0.6695110480089584, ,0.39278790228770843, ,0.0779984081957511
218, ,PASS, ,0.04835923999999998, ,0.0068356439230522524, ,0.030871014161547725, ,0.0003372711637407638, ,1.75, ,0.6701389212442413, ,0.393257280463664, ,0.07863104834595212
219, ,PASS, ,0.048158969999999975, ,0.006731739480626667, ,0.03056424517907798, ,0.00032903298996394837, ,1.9166666666666667, ,0.6685728184692857, ,0.38017591477724944, ,0.07581477929021857
220, ,PASS, ,0.04822203999999997, ,0.006799914879465807, ,0.031023917860655906, ,0.0003339441719590851, ,1.75, ,0.6695750798655065, ,0.39368584314605826, ,0.07822289341033857
221, ,PASS, ,0.04818417, ,0.006814365619475975, ,0.030713906552723415, ,0.00033488235853438685, ,1.75, ,0.6726367403222093, ,0.3916042529744291, ,0.07871267933307484
222, ,PASS, ,0.04800183999999997, ,0.006791674416125104, ,0.031166625666619048, ,0.00033205229222962423, ,1.75, ,0.6709132136721124, ,0.39331850370400606, ,0.07650864268076162
223, ,PASS, ,0.047889739999999986, ,0.006817352794327089, ,0.03120794839452256, ,0.0003309437974837957, ,1.75, ,0.6688321639876242, ,0.399277565763964, ,0.07710046733740128
224, ,PASS, ,0.04799373, ,0.0068015345914125514, ,0.030907382773208713, ,0.00033233535945187165, ,1.75, ,0.6696264825604145, ,0.39266545580702433, ,0.07132507499846942
225, ,PASS, ,0.04794857999999999, ,0.006808553335844009, ,0.030848842008326365, ,0.0003326554490766777, ,1.75, ,0.672559280172724, ,0.3926450480602437, ,0.08246770474071957
226, ,PASS, ,0.047829760000000006, ,0.006764350174057164, ,0.030826888485541114, ,0.0003297746295272409, ,1.75, ,0.6725489955338886, ,0.39235933960531416, ,0.07740658353911145
227, ,PASS, ,0.04800446, ,0.006772577241731792, ,0.03090932587314545, ,0.0003313100113364686, ,1.75, ,0.6713294372171502, ,0.3941756290687945, ,0.07714128283096264
228, ,PASS, ,0.04773308999999999, ,0.00675294675071906, ,0.030862265238464522, ,0.0003284658337692993, ,1.75, ,0.6717257007781978, ,0.39227770861819145, ,0.07673312789534907
229, ,PASS, ,0.04801354999999999, ,0.006747406687689756, ,0.030881557646170486, ,0.0003303079328126395, ,1.75, ,0.6678950416895312, ,0.3929103487683925, ,0.0686516601702006
230, ,PASS, ,0.047612829999999995, ,0.0067675975259831435, ,0.03091867849798984, ,0.0003287722618037404, ,1.75, ,0.6722657446848574, ,0.39272667904736636, ,0.07622293422583212
231, ,PASS, ,0.04751844000000001, ,0.006749816137261795, ,0.030815806675373977, ,0.0003268382351701219, ,1.75, ,0.6743662960228084, ,0.39448174527050467, ,0.08473296463337483
232, ,PASS, ,0.04760226000000001, ,0.0067398142875014265, ,0.030758413965633356, ,0.0003267878019884596, ,1.75, ,0.672567869533244, ,0.3942776678026979, ,0.08095753147894941
233, ,PASS, ,0.04766925000000001, ,0.006725188812761368, ,0.030784864995408258, ,0.0003268747040695926, ,1.75, ,0.6702412942736492, ,0.39488990020611825, ,0.07420256729454501
234, ,PASS, ,0.04761183, ,0.006734215274364306, ,0.030888775680904475, ,0.00032703049391111553, ,1.75, ,0.6720961301739969, ,0.3929103487683925, ,0.07654945817432297
235, ,PASS, ,0.04773715999999999, ,0.006743284355186421, ,0.030987474765412953, ,0.00032818645383249687, ,1.75, ,0.6701769890743815, ,0.39331850370400606, ,0.07089651231607519
236, ,PASS, ,0.04781103999999999, ,0.0067753674621979345, ,0.030835508387788004, ,0.0003304943895024451, ,1.75, ,0.6718840058629629, ,0.39368584314605826, ,0.0786514560927328
237, ,PASS, ,0.048059289999999984, ,0.006801070768804824, ,0.030960663119528175, ,0.0003318780344660552, ,1.75, ,0.6694507432650096, ,0.3933797269443481, ,0.07789636946184772
238, ,PASS, ,0.04795972999999998, ,0.006781988395511886, ,0.030876595127242303, ,0.00033166598022503144, ,1.75, ,0.6733726853474827, ,0.39229811636497214, ,0.0786514560927328
239, ,PASS, ,0.04815647999999998, ,0.0067744405844666344, ,0.030948458163915022, ,0.0003325189168074034, ,1.75, ,0.6679578932548941, ,0.39478786147221484, ,0.0755086630885084
240, ,PASS, ,0.048873241999999976, ,0.006870592361626845, ,0.030908393883798287, ,0.0003420585975639238, ,1.75, ,0.6675294051738648, ,0.3935225811718128, ,0.077814738474725
241, ,PASS, ,0.07026465654, ,0.008688896341496714, ,0.02896614369359809, ,0.0006209855384703403, ,1.6666666666666667, ,0.6091785643465667, ,0.39235933960531416, ,0.06540682843207281
242, ,PASS, ,0.15740917000000001, ,0.017671303137931627, ,0.023556243915430295, ,0.0027959078281636794, ,1.6666666666666667, ,0.5760199843459397, ,0.3995632742188935, ,0.035407440664476236
243, ,PASS, ,0.07014777141999996, ,0.0077873861157037785, ,0.02927173921736291, ,0.0005545491988520251, ,1.6666666666666667, ,0.5650498667466199, ,0.39191036917613925, ,0.04048896961286504
244, ,PASS, ,0.06790107790000001, ,0.007499155750907192, ,0.029692557660864066, ,0.0005169962426852848, ,1.6666666666666667, ,0.5652692538501712, ,0.39127772902593827, ,0.04189710414073182
245, ,PASS, ,0.0677056606, ,0.007475725451491217, ,0.02970615282239138, ,0.0005133193742384609, ,1.6666666666666667, ,0.5642358542540085, ,0.39144099100018365, ,0.04024407665149691
246, ,PASS, ,0.0678747961, ,0.007502662541213126, ,0.02989093156282525, ,0.0005168407850358648, ,1.6666666666666667, ,0.5657045250156543, ,0.3916042529744291, ,0.041264463990530804
247, ,PASS, ,0.06763534099999999, ,0.007445631775029532, ,0.029881681231199365, ,0.0005113279622549028, ,1.6666666666666667, ,0.5623938402095039, ,0.39127772902593827, ,0.03855023366870064
248, ,PASS, ,0.06772269117999999, ,0.0074665567919791785, ,0.02966116271769964, ,0.0005129808002272917, ,1.6666666666666667, ,0.5626949475751569, ,0.3942980755494786, ,0.04148894920511826
249, ,PASS, ,0.06800812109999999, ,0.00762858424442246, ,0.03013673456786596, ,0.0005265619514859638, ,1.6666666666666667, ,0.5757450191481792, ,0.3973388298197996, ,0.04346850064284402
250, ,PASS, ,0.06773867530000001, ,0.007464240949178807, ,0.02978654826493337, ,0.0005131538921921447, ,1.6666666666666667, ,0.5626282580943985, ,0.39319605722332196, ,0.038366563947674535
251, ,PASS, ,0.06767450240000002, ,0.007652511072804778, ,0.030405432032815656, ,0.0005208418914367666, ,1.6666666666666667, ,0.5764398856449686, ,0.3992367502704026, ,0.03695842941980776
252, ,PASS, ,0.06709288799999998, ,0.007464633577952746, ,0.029865648047794943, ,0.000507112192517154, ,1.6666666666666667, ,0.5669089563531906, ,0.39321646497010265, ,0.040876716801697924
253, ,PASS, ,0.06736281479999996, ,0.007473227980873682, ,0.02982513147201078, ,0.0005102552135086166, ,1.6666666666666667, ,0.5653690968704321, ,0.39280831003448907, ,0.039488990020611826
254, ,PASS, ,0.06756287799999999, ,0.0074957316611759415, ,0.029831940511418138, ,0.0005135930437366635, ,1.6666666666666667, ,0.5654645587493875, ,0.39331850370400606, ,0.04099916328238199
255, ,PASS, ,0.0678423911, ,0.007531626402317933, ,0.029821105949062263, ,0.0005173607968082168, ,1.6666666666666667, ,0.5670980342845023, ,0.3928899410216118, ,0.03936654353992776
