Channel, ,Pass/Fail, ,Amplitude, ,Sorting Function Response, ,Mean, ,Variance, ,NPeaksRatio, ,PosIntegralRatio, ,ToT50, ,ToT99
24, ,FAIL, ,0.002733119999999995, ,9.546412729217232e-05, ,0.028805678495336825, ,2.81845459234299e-07, ,0.6666666666666666, ,0.30268541021244394, ,0.7247811269157772, ,0.00914267055774372
25, ,PASS, ,0.028535929999999998, ,0.0043345300898418055, ,0.02831547641537928, ,0.00012500463070905804, ,1.9166666666666667, ,0.7380826141391122, ,0.46199057162098733, ,0.06105997836778841
26, ,PASS, ,0.03374672999999999, ,0.005156338099916012, ,0.027970143789310425, ,0.00017564123642963965, ,1.9166666666666667, ,0.7369561079979657, ,0.4658884512560968, ,0.06416195587845146
27, ,PASS, ,0.03417232, ,0.005193116374971639, ,0.02820437445684782, ,0.00017923029179210166, ,1.8333333333333333, ,0.7356625331358022, ,0.4658884512560968, ,0.06842717495561315
28, ,FAIL, ,0.00295581000000001, ,9.208857755158298e-05, ,0.028575432597089855, ,3.064120843671885e-07, ,0.75, ,0.27930210681089235, ,0.28707577396379663, ,0.004795820493459317
29, ,PASS, ,0.012094069999999995, ,0.0017887018146993127, ,0.02844371959286545, ,2.1924654396699673e-05, ,1.9166666666666667, ,0.7289705496875686, ,0.45448052080569784, ,0.062039550213260956
30, ,PASS, ,0.013968479999999988, ,0.0022576211589810046, ,0.02844251173547479, ,3.191707423906636e-05, ,1.9166666666666667, ,0.773270043135892, ,0.457133527887186, ,0.06750882635048264
31, ,PASS, ,0.027929190000000003, ,0.004368136779571685, ,0.028096029570825087, ,0.000123321548423782, ,1.9166666666666667, ,0.7539499453858393, ,0.463153813187486, ,0.062447705148874516
32, ,PASS, ,0.003971789999999992, ,0.00013129962285022263, ,0.028731028898593906, ,5.607317042023216e-07, ,0.75, ,0.24197543926383497, ,0.42570559784494194, ,0.007510050815289484
33, ,PASS, ,0.03428724000000001, ,0.005291564559711785, ,0.027895566199465316, ,0.00018321493481168627, ,1.9166666666666667, ,0.7421447076852768, ,0.4647864329299402, ,0.06330483051366298
34, ,PASS, ,0.026745070000000006, ,0.004156825676498046, ,0.02827347165282341, ,0.00011244918444132152, ,1.9166666666666667, ,0.7506014079355198, ,0.4623783188098202, ,0.06571294463378298
35, ,PASS, ,0.013184619999999998, ,0.001991163848497005, ,0.02835424814983368, ,2.658804009702036e-05, ,1.9166666666666667, ,0.7401887797326999, ,0.4550519377155568, ,0.05497846982714639
36, ,PASS, ,0.004673980000000012, ,0.0001459813089066926, ,0.02871703896287831, ,7.475553819849642e-07, ,0.6666666666666666, ,0.31048470635997355, ,0.2576886185996204, ,0.008612069141446093
37, ,PASS, ,0.030475160000000008, ,0.004947626147379245, ,0.028546260587539035, ,0.00015227832495098297, ,1.8333333333333333, ,0.7735680488014347, ,0.46707210056937615, ,0.08656966184363585
38, ,PASS, ,0.03688057800000001, ,0.0059476957815016674, ,0.0283186095244995, ,0.00022133345446729365, ,1.75, ,0.7671762143722896, ,0.4709291647109243, ,0.0860594681741189
39, ,PASS, ,0.036924765, ,0.005915893006023474, ,0.028284792090365506, ,0.0002204117240357153, ,1.75, ,0.7614541336016772, ,0.47111283443195034, ,0.0798555131527928
40, ,PASS, ,0.0032136200000000004, ,0.00010682181211653187, ,0.02845138454786637, ,3.792877017116325e-07, ,0.8333333333333334, ,0.31257056033593106, ,0.1987714536438032, ,0.004346850064284403
41, ,PASS, ,0.013816059999999998, ,0.002282958485734904, ,0.028366609789187976, ,3.187412175382079e-05, ,1.9166666666666667, ,0.785633511119188, ,0.4630517744535826, ,0.08465133364625212
42, ,PASS, ,0.02042559999999999, ,0.0032956315843294874, ,0.028496059232260562, ,6.799869992095702e-05, ,1.8333333333333333, ,0.7725227542957174, ,0.4647864329299402, ,0.0942021591396094
43, ,PASS, ,0.03585121299999999, ,0.005643971128977108, ,0.028119233558090654, ,0.00020404177486059089, ,1.75, ,0.7572110120859941, ,0.4718883288096161, ,0.07746780677945347
44, ,PASS, ,0.041600780999999976, ,0.006539743038132588, ,0.028457507799044917, ,0.0002741508698187701, ,1.75, ,0.7543085348211959, ,0.4767249647966368, ,0.08234525826003551
45, ,PASS, ,0.04042147199999999, ,0.006351373029607928, ,0.02823995032795249, ,0.0002587631646018673, ,1.75, ,0.755372726909325, ,0.476398440848146, ,0.08589620619987347
46, ,PASS, ,0.03206118000000001, ,0.0050984569436373015, ,0.02825560595538867, ,0.00016489473805993265, ,1.75, ,0.7620789831857918, ,0.4721128140242036, ,0.08626354564192568
47, ,PASS, ,0.014750539999999996, ,0.002348012780607407, ,0.028371269025326013, ,3.501209914326338e-05, ,1.9166666666666667, ,0.766053512502412, ,0.45909267157813105, ,0.08561049774494398
48, ,PASS, ,0.020338389999999987, ,0.0033125107751236405, ,0.028329815428052487, ,6.807985615289083e-05, ,1.9166666666666667, ,0.7785776343279885, ,0.4634395216424155, ,0.09175322952592804
49, ,PASS, ,0.03684995700000001, ,0.005823446443182045, ,0.028205262379951433, ,0.00021648338706592581, ,1.75, ,0.759279542176195, ,0.4734597253117283, ,0.07932491173649517
50, ,PASS, ,0.043039858999999965, ,0.006752188821569015, ,0.028185742369278177, ,0.00029283621140534114, ,1.75, ,0.7535713894984972, ,0.4793167486377829, ,0.09240627742290973
51, ,PASS, ,0.041435417999999974, ,0.006500789048492766, ,0.02819018782581988, ,0.0002714490202659245, ,1.75, ,0.7528452681255289, ,0.47786779861635476, ,0.08275341319564906
52, ,PASS, ,0.0312939, ,0.00500730739932339, ,0.028119406621293443, ,0.0001580461177695504, ,1.75, ,0.7666978000258503, ,0.471010795698047, ,0.09046754147874533
53, ,PASS, ,0.012964629999999987, ,0.0020735590773982068, ,0.02836593071080182, ,2.7183036097923472e-05, ,1.9166666666666667, ,0.7682643943187665, ,0.4577253525438256, ,0.06867206791698129
54, ,PASS, ,0.02388959, ,0.0021738331703151704, ,0.02951605579845309, ,5.231005245773003e-05, ,1.5833333333333333, ,0.5458554944481497, ,0.5327034142160364, ,0.029019815922124038
55, ,PASS, ,0.023443660000000012, ,0.002602846811604981, ,0.02913886321748536, ,6.144989854046735e-05, ,1.6666666666666667, ,0.6229608721024612, ,0.5044386849247975, ,0.043754209097773514
56, ,PASS, ,0.024471269999999996, ,0.0028434709104284374, ,0.029231472707495768, ,7.004803152230556e-05, ,1.6666666666666667, ,0.6378173697907417, ,0.5050101018346564, ,0.05014183384012571
57, ,PASS, ,0.023505340000000013, ,0.0027186042551279373, ,0.0292873881659558, ,6.437413138887591e-05, ,1.6666666666666667, ,0.6373931728862685, ,0.505540703250954, ,0.057672292402195874
58, ,PASS, ,0.023319900000000005, ,0.00236162234931292, ,0.029398572653823393, ,5.54360294444248e-05, ,1.5833333333333333, ,0.5873737218015139, ,0.5110916103752985, ,0.03891757311075284
59, ,PASS, ,0.016949330000000006, ,0.0015924252445908315, ,0.029385785890900185, ,2.7162880639599375e-05, ,1.5833333333333333, ,0.5525523529450572, ,0.5309687557396788, ,0.026060692638925735
