Channel, ,Pass/Fail, ,Amplitude, ,Sorting Function Response, ,Mean, ,Variance, ,NPeaksRatio, ,PosIntegralRatio, ,ToT50, ,ToT99
0, ,PASS, ,0.03734831999999998, ,0.004802896139399491, ,0.03178864720577131, ,0.00018307159050030112, ,1.75, ,0.6549927728055158, ,0.40491010387543114, ,0.04195832738107386
1, ,PASS, ,0.03706269999999999, ,0.00477801130586294, ,0.031899656994347055, ,0.00018074076860018012, ,1.75, ,0.6539944352830687, ,0.40407338625742334, ,0.04279504499908165
2, ,PASS, ,0.037406329999999974, ,0.004810642803764915, ,0.032029603810126324, ,0.00018364438180929198, ,1.75, ,0.6531568186481013, ,0.40415501724454606, ,0.042468521050590805
3, ,PASS, ,0.03727443, ,0.0047804053198285505, ,0.031982408059835515, ,0.0001818258043260708, ,1.75, ,0.652301706165705, ,0.40478765739474704, ,0.039488990020611826
4, ,PASS, ,0.0369967, ,0.004793926282720857, ,0.03193944871533234, ,0.00018094892558536768, ,1.75, ,0.6583185573605631, ,0.4064815003775433, ,0.047835758453909104
5, ,PASS, ,0.036987199999999984, ,0.004768716244314268, ,0.031710120808350846, ,0.00017989797493275328, ,1.8333333333333333, ,0.655605450427242, ,0.405930491214465, ,0.041162425256627416
6, ,PASS, ,0.037338919999999984, ,0.004732771513506673, ,0.031472975479684084, ,0.00018039126026705255, ,1.8333333333333333, ,0.6539068768114632, ,0.3961347727597396, ,0.03783596253137691
7, ,PASS, ,0.03710312999999997, ,0.004766667940068115, ,0.0318979055466215, ,0.00018044999557745257, ,1.75, ,0.6562580199882996, ,0.4063590538968592, ,0.04479500418358809
8, ,PASS, ,0.03760750999999998, ,0.004781206079257781, ,0.03153767488194118, ,0.00018373440484821776, ,1.75, ,0.654206071924475, ,0.39497153119324097, ,0.0407134548274525
9, ,PASS, ,0.038066639999999985, ,0.004860136880889368, ,0.03172045361951797, ,0.00018891483026188126, ,1.75, ,0.6529084166250662, ,0.4048284728883084, ,0.04355013162996674
10, ,PASS, ,0.03745876999999999, ,0.004793314387143793, ,0.03184343809003898, ,0.00018340072555577061, ,1.75, ,0.6531831862179137, ,0.40407338625742334, ,0.04130527948409216
11, ,PASS, ,0.037195039999999985, ,0.00477730947971665, ,0.03179235540376727, ,0.0001813634936221731, ,1.75, ,0.6567883123281849, ,0.4043386869655721, ,0.044468480235097245
12, ,PASS, ,0.03785591999999999, ,0.004882711157779795, ,0.03180499678333095, ,0.00018870972402232347, ,1.75, ,0.6528692277735323, ,0.40488969612865044, ,0.041672618926144364
13, ,PASS, ,0.04234391, ,0.005415954034072182, ,0.031134998572069958, ,0.0002344560220379038, ,1.8333333333333333, ,0.653638007056247, ,0.39748168404726436, ,0.03852982592191996
14, ,PASS, ,0.12368474000000002, ,0.01630414963641296, ,0.02457885414828269, ,0.00205612310462418, ,1.8333333333333333, ,0.6658447025957711, ,0.4075631109569193, ,0.04193791963429318
15, ,PASS, ,0.12378437, ,0.016303618482370354, ,0.024436725324299503, ,0.0020580772909713015, ,1.75, ,0.667469533745429, ,0.4037468623089325, ,0.042550152037713514
