Channel, ,Pass/Fail, ,Amplitude, ,Sorting Function Response, ,Mean, ,Variance, ,NPeaksRatio, ,PosIntegralRatio, ,ToT50, ,ToT99
24, ,PASS, ,0.010286630000000019, ,0.0015558484703158471, ,0.03863805779228996, ,1.6109041364442404e-05, ,1.8333333333333333, ,0.734580061664914, ,0.4958878390236934, ,0.042488928797371484
25, ,PASS, ,0.0381239, ,0.005984968502038455, ,0.03907333029142262, ,0.0002287672099819157, ,1.8333333333333333, ,0.7547350738918719, ,0.5091528744311341, ,0.05414175220913859
26, ,PASS, ,0.059058106000000006, ,0.009286560199263891, ,0.039235463341850164, ,0.0005489316746572457, ,1.8333333333333333, ,0.7574066490915399, ,0.5108263096671497, ,0.06385583967674129
27, ,PASS, ,0.062297065, ,0.00974105023196185, ,0.03936532890659374, ,0.0006080159796759971, ,1.8333333333333333, ,0.7519919647026254, ,0.5082549335727843, ,0.05334585008469215
28, ,PASS, ,0.05402432999999998, ,0.008499530080670543, ,0.03912058332564641, ,0.00046031805675011354, ,1.8333333333333333, ,0.7572961124423161, ,0.5072345462337503, ,0.05575396420481215
29, ,PASS, ,0.022592070000000023, ,0.0036661931037259825, ,0.03888685161527316, ,8.342809497715513e-05, ,1.9166666666666667, ,0.7737677962318773, ,0.4998673496459256, ,0.05777433113609926
30, ,PASS, ,0.014207149999999995, ,0.002308455198220378, ,0.038801866186608434, ,3.2946148984112725e-05, ,1.9166666666666667, ,0.7701182302880077, ,0.4992143017489439, ,0.039570621007734536
31, ,PASS, ,0.04358136000000001, ,0.007066023728067539, ,0.039456136512316074, ,0.00030898878203260697, ,1.8333333333333333, ,0.7758463499055273, ,0.5114793575641313, ,0.05936613538499214
32, ,PASS, ,0.06462797, ,0.010427590494935099, ,0.04005055747837799, ,0.0006752585327145846, ,1.8333333333333333, ,0.7740441349665494, ,0.5151935674782148, ,0.0720801616293545
33, ,PASS, ,0.06777170600000001, ,0.011003371206404412, ,0.039975024483622786, ,0.0007477362191986785, ,1.8333333333333333, ,0.7763701288429448, ,0.5129078998387788, ,0.06836595171527111
34, ,PASS, ,0.057660141, ,0.009527705572067714, ,0.03982066136623742, ,0.0005509870414611021, ,1.8333333333333333, ,0.7846979324967439, ,0.5121732209546744, ,0.06697822493418501
35, ,PASS, ,0.025118040000000015, ,0.004208476033983453, ,0.039117347608824314, ,0.00010640434183699054, ,1.9166666666666667, ,0.7950999622653883, ,0.5047039856329463, ,0.06487622701577518
36, ,PASS, ,0.015757089999999998, ,0.002536763051685405, ,0.03880039282198323, ,4.0212094948394816e-05, ,1.9166666666666667, ,0.7777262288380332, ,0.5027244341952205, ,0.06432521785269689
37, ,PASS, ,0.012943899999999994, ,0.002011595846773489, ,0.03861198629150426, ,2.6341872019293387e-05, ,1.9166666666666667, ,0.7625074640225498, ,0.49509193689924696, ,0.06395787841064468
38, ,PASS, ,0.06466928600000002, ,0.010480165191107893, ,0.039852993518826145, ,0.0006792304815839758, ,1.8333333333333333, ,0.775966314998305, ,0.5136833942164446, ,0.07308014122160772
39, ,PASS, ,0.06790807100000001, ,0.011033586725778538, ,0.03963433674886227, ,0.0007520059219362614, ,1.8333333333333333, ,0.7755371199484674, ,0.5097651068345544, ,0.06546805167241485
40, ,PASS, ,0.05846535199999999, ,0.009645314981212037, ,0.03911765903765229, ,0.0005666048421144054, ,1.8333333333333333, ,0.7832319805176802, ,0.5075610701822412, ,0.05824370931205486
41, ,PASS, ,0.027400519999999998, ,0.004564384155377741, ,0.038650646332727905, ,0.00012603141507175187, ,1.9166666666666667, ,0.7923635204125841, ,0.5029897349033693, ,0.07275361727311687
42, ,PASS, ,0.01842802, ,0.002997285913438644, ,0.03861638122895451, ,5.557471418308535e-05, ,1.9166666666666667, ,0.779970534021733, ,0.5058060039591029, ,0.037386992102202
43, ,PASS, ,0.04805123999999996, ,0.007938451820396661, ,0.039482600299585724, ,0.00038241187647551877, ,1.8333333333333333, ,0.7883023589816937, ,0.512009958980429, ,0.08754923368910839
44, ,PASS, ,0.06660342999999999, ,0.010836595253954362, ,0.03962211791857309, ,0.0007234036073931735, ,1.8333333333333333, ,0.7802437870959542, ,0.5146833738086978, ,0.07675353564212975
45, ,PASS, ,0.06971032399999999, ,0.011442594835029561, ,0.0397878869813065, ,0.0007995116946348651, ,1.8333333333333333, ,0.783606606006324, ,0.5144997040876716, ,0.07432501377522907
46, ,PASS, ,0.06037583500000002, ,0.010092557254422114, ,0.03945997286351299, ,0.000611322305315931, ,1.8333333333333333, ,0.7941617743642743, ,0.5135813554825411, ,0.0786514560927328
47, ,PASS, ,0.03042182999999999, ,0.005209632579553259, ,0.03875161627089243, ,0.0001594765601559396, ,1.8333333333333333, ,0.8048179098202805, ,0.5067243525642334, ,0.07471276096406196
48, ,PASS, ,0.014287559999999984, ,0.002227132314256816, ,0.0382964417905757, ,3.206299291267346e-05, ,1.9166666666666667, ,0.7459185382389706, ,0.4949490826717822, ,0.05610089590008367
49, ,PASS, ,0.04278608, ,0.00683585305427084, ,0.03848049986837003, ,0.0002935029100081215, ,1.9166666666666667, ,0.7603610631068477, ,0.5035611518132282, ,0.06114160935491112
50, ,PASS, ,0.06348642699999997, ,0.010009268791417137, ,0.038703123921695476, ,0.0006364021942954336, ,1.8333333333333333, ,0.7565744948016597, ,0.5090100202036694, ,0.056753943797065366
51, ,PASS, ,0.06735121900000002, ,0.01055605431659252, ,0.038912859367972084, ,0.0007127338411623555, ,1.8333333333333333, ,0.7554062111178621, ,0.508397787800249, ,0.0540397134752352
52, ,PASS, ,0.05679552499999999, ,0.009034458655451764, ,0.03868524573957675, ,0.0005149653102231631, ,1.9166666666666667, ,0.7595008454313902, ,0.50541825677027, ,0.052305054998877575
53, ,PASS, ,0.02534602000000002, ,0.004108484800640381, ,0.0382651257431481, ,0.00010484142614247212, ,1.9166666666666667, ,0.7685495607443973, ,0.49909185526825983, ,0.0561621191404257
54, ,PASS, ,0.015471859999999987, ,0.0023950123335557904, ,0.03835583851758128, ,3.734524305270693e-05, ,1.9166666666666667, ,0.7419033782639248, ,0.49547968408807985, ,0.04232566682312606
55, ,PASS, ,0.044232220000000017, ,0.007054919634628218, ,0.03836096150221424, ,0.00031330845409657283, ,1.9166666666666667, ,0.7598811783612942, ,0.5026428032080978, ,0.05591722617905757
56, ,PASS, ,0.06357390700000001, ,0.00997028060929519, ,0.03884364959982449, ,0.0006354836824708873, ,1.8333333333333333, ,0.7519377489232514, ,0.5077243321564866, ,0.052223424011754865
57, ,PASS, ,0.06704385000000004, ,0.010530025432158538, ,0.03868621552058121, ,0.0007079420669707653, ,1.8333333333333333, ,0.7541335114591194, ,0.506561090589988, ,0.05044795004183588
58, ,PASS, ,0.057479472999999996, ,0.009119353418317397, ,0.038639969801983635, ,0.0005257469223295537, ,1.8333333333333333, ,0.7595633937161317, ,0.5069488377788208, ,0.04971327115773148
59, ,PASS, ,0.02723523999999999, ,0.0044446155836442534, ,0.038166799973878084, ,0.0001220915807103203, ,1.9166666666666667, ,0.7755115383842345, ,0.49592865451725476, ,0.05791718536356401
60, ,PASS, ,0.014954789999999992, ,0.002422075976515517, ,0.038369744914185426, ,3.649017338916609e-05, ,1.9166666666666667, ,0.7810239918185895, ,0.4994183792167507, ,0.061345686822717904
61, ,PASS, ,0.04305002000000001, ,0.006917262235074135, ,0.03833031926674966, ,0.00029956574255959005, ,1.9166666666666667, ,0.7642497092944736, ,0.4997653109120222, ,0.056284565621109776
62, ,PASS, ,0.06268667, ,0.009807703562903813, ,0.03851074720334279, ,0.0006165008656756792, ,1.8333333333333333, ,0.7490466580399093, ,0.5062549743882778, ,0.056386604355013165
63, ,PASS, ,0.06580655000000002, ,0.010252160693508101, ,0.03792704929050428, ,0.0006793814236863913, ,1.8333333333333333, ,0.7475256760201908, ,0.4973571967919022, ,0.05379482051386707
64, ,PASS, ,0.05539711099999998, ,0.008713242545410187, ,0.038214127186975776, ,0.0004854369726657893, ,1.9166666666666667, ,0.7523880465968295, ,0.5017244546029673, ,0.05457031489153283
65, ,PASS, ,0.026057269999999993, ,0.004294209611877094, ,0.038302408355747844, ,0.00011315190199082693, ,1.9166666666666667, ,0.7808102620749136, ,0.4946837819636334, ,0.05585600293871554
66, ,PASS, ,0.01470632999999999, ,0.0021558975907424852, ,0.03815272589436951, ,3.2064371912585096e-05, ,1.8333333333333333, ,0.7104589266491637, ,0.4893573600538765, ,0.052203016264974186
67, ,PASS, ,0.04224337000000002, ,0.006438707974718593, ,0.03798284253668292, ,0.0002733480220766625, ,1.8333333333333333, ,0.731203145028806, ,0.49760208975327036, ,0.05563151772412808
68, ,PASS, ,0.06098745799999998, ,0.009156816914940852, ,0.0380291180279178, ,0.0005599983006617938, ,1.9166666666666667, ,0.7238163329890696, ,0.5026223954613172, ,0.053529519805718254
69, ,PASS, ,0.06390824399999998, ,0.009536362691246338, ,0.03770577391736903, ,0.0006119262935930687, ,1.9166666666666667, ,0.7211348583923856, ,0.5009693679720822, ,0.04934593171567927
70, ,PASS, ,0.053788455, ,0.008074853572295738, ,0.037872920645088876, ,0.00043632185943242723, ,1.9166666666666667, ,0.7237909230796306, ,0.5008469214913981, ,0.051060182445256216
71, ,PASS, ,0.025450320000000016, ,0.003837443657864444, ,0.038026765170506724, ,9.86701307299332e-05, ,1.8333333333333333, ,0.7299544460567102, ,0.4977245362339544, ,0.05338666557825351
72, ,PASS, ,0.015748670000000003, ,0.0024911714327518447, ,0.038176491858941654, ,3.960418956521451e-05, ,1.9166666666666667, ,0.7645769643829644, ,0.4951939756331503, ,0.054753984612558926
73, ,PASS, ,0.04196831000000003, ,0.006520810742544089, ,0.03800355893451154, ,0.0002753020888588201, ,1.9166666666666667, ,0.7417958066524832, ,0.4989898165343564, ,0.05512132405461113
74, ,PASS, ,0.059235809000000014, ,0.00898659359692762, ,0.03820599362180364, ,0.0005344132754223003, ,1.9166666666666667, ,0.7305007276049448, ,0.5029081039162466, ,0.05136629864696639
75, ,PASS, ,0.061810205000000014, ,0.009373961031890362, ,0.038157422279586135, ,0.0005812153653335576, ,1.9166666666666667, ,0.7312452632204333, ,0.5046631701393849, ,0.05299891838942063
76, ,PASS, ,0.05301165000000001, ,0.00804658289687442, ,0.038073193567070056, ,0.0004290143362929331, ,1.9166666666666667, ,0.7281586496547209, ,0.49972449541846087, ,0.048223505642741984
77, ,PASS, ,0.026554369999999994, ,0.004232068794183764, ,0.03808330210914063, ,0.00011318840331025248, ,1.9166666666666667, ,0.7671493866684065, ,0.49880614681333035, ,0.05171323034223791
78, ,PASS, ,0.013765119999999992, ,0.0018652744780036279, ,0.0379677175808657, ,2.5952051919355183e-05, ,1.8333333333333333, ,0.6610431879762906, ,0.48917369033285035, ,0.03446868431256505
79, ,PASS, ,0.03702032999999997, ,0.00530804537121309, ,0.03758808429725924, ,0.00019781382459313693, ,1.9166666666666667, ,0.6935932043539652, ,0.49578580028979, ,0.05016224158690639
80, ,PASS, ,0.053788048000000005, ,0.007657860995781474, ,0.03743199145711312, ,0.00041394607808225144, ,1.8333333333333333, ,0.6913278597833293, ,0.49860206934552354, ,0.046141915471112835
81, ,PASS, ,0.056284439, ,0.00800302633803932, ,0.03753817566237424, ,0.000452792606415394, ,1.8333333333333333, ,0.6899467080211223, ,0.49952041795065405, ,0.046162323217893514
82, ,PASS, ,0.04858525999999998, ,0.006908815571713574, ,0.037380594790718556, ,0.00033781156305628485, ,1.9166666666666667, ,0.6904829907087254, ,0.49660211016101713, ,0.047815350707128425
83, ,PASS, ,0.02364477000000002, ,0.00340340650036611, ,0.03775803159506949, ,8.16340482220126e-05, ,1.8333333333333333, ,0.7021376600479754, ,0.4919899593885839, ,0.053182588110446724
84, ,PASS, ,0.015160579999999979, ,0.0020487334144667327, ,0.03802001425970899, ,3.143139208457107e-05, ,1.8333333333333333, ,0.6582270447585711, ,0.4906226403542785, ,0.020693455235607436
85, ,PASS, ,0.038833030000000004, ,0.005568766553180067, ,0.037502382506275384, ,0.00021785817125244227, ,1.9166666666666667, ,0.6930769593984468, ,0.4935001326503541, ,0.047427603518295544
86, ,PASS, ,0.053800572000000005, ,0.007650556382887035, ,0.037721145340299175, ,0.00041284887016006065, ,1.9166666666666667, ,0.6907774832323772, ,0.5014795616415991, ,0.046999040835901305
87, ,PASS, ,0.055999327999999994, ,0.007899565497205684, ,0.03745935793951144, ,0.00044452300230605075, ,1.9166666666666667, ,0.6866816469083099, ,0.49784698271463845, ,0.05052958102895859
88, ,PASS, ,0.04890470999999998, ,0.006899124315254144, ,0.03730654715944572, ,0.00033956918088810936, ,2.0, ,0.6831764755962361, ,0.4919083284014612, ,0.04459092671578131
89, ,PASS, ,0.025673420000000006, ,0.003766381507661792, ,0.03785549535560499, ,9.774774717060746e-05, ,1.8333333333333333, ,0.7131819594038832, ,0.4947041897104141, ,0.0446929654496847
90, ,PASS, ,0.013175019999999996, ,0.0015620840545700423, ,0.039008687250668354, ,2.0772147800811083e-05, ,1.75, ,0.6764610178374052, ,0.537295157241689, ,0.016101712209954898
91, ,PASS, ,0.016700360000000008, ,0.0022630685966508897, ,0.03896175610599784, ,3.8181949372556825e-05, ,1.75, ,0.7318516706512108, ,0.5225607640660395, ,0.026468847574539295
92, ,PASS, ,0.01788080000000001, ,0.002749701849260571, ,0.038785053302177505, ,4.9577144948275804e-05, ,1.8333333333333333, ,0.7800833456720483, ,0.5171323034223791, ,0.04785616620068978
93, ,PASS, ,0.01793523, ,0.0029761718914004466, ,0.03887534418215955, ,5.39243585517925e-05, ,1.8333333333333333, ,0.8017732157433348, ,0.5121528132078937, ,0.05871308748801045
94, ,PASS, ,0.017740140000000012, ,0.002743335535393622, ,0.03896093507050877, ,4.909281256502879e-05, ,1.8333333333333333, ,0.7783481091410749, ,0.5150711209975307, ,0.04230525907634538
95, ,PASS, ,0.017080030000000003, ,0.002001935788162624, ,0.038934699197567396, ,3.456310496942582e-05, ,1.6666666666666667, ,0.6798031054879967, ,0.5287034958470235, ,0.025264790514479295
198, ,FAIL, ,0.02960981999999998, ,0.004061030324125136, ,0.03804421808697782, ,0.00012218034200300182, ,1.8333333333333333, ,0.6791177436653969, ,0.4942144037876778, ,0.03675435195200098
199, ,FAIL, ,0.024753130000000026, ,0.0028156700937066394, ,0.038041603797065365, ,7.743480676902202e-05, ,1.9166666666666667, ,0.7478067644071167, ,0.4815207852900961, ,0.0009183486051305076
200, ,PASS, ,0.02199634999999999, ,0.003051801014110453, ,0.03812895737331891, ,7.390771538920085e-05, ,1.9166666666666667, ,0.7889085160395495, ,0.4826432113630334, ,0.002204036652313218
201, ,PASS, ,0.03815566999999999, ,0.005749506198361132, ,0.037519813202791776, ,0.00023730081543610148, ,1.9166666666666667, ,0.819383556511086, ,0.48539825717842494, ,0.03077488214526234
202, ,PASS, ,0.03425858999999999, ,0.005230316988613204, ,0.03768989882022816, ,0.0001934081338149778, ,1.9166666666666667, ,0.8204389464014705, ,0.4873778086161507, ,0.023081161608946757
203, ,PASS, ,0.04863157000000003, ,0.007522930081244673, ,0.037105802421379154, ,0.0003905424858966688, ,1.8333333333333333, ,0.8338192136475033, ,0.48874512765045613, ,0.034978877982082
204, ,PASS, ,0.07858001399999998, ,0.013704223546134398, ,0.03702001682524846, ,0.001122199482939732, ,1.8333333333333333, ,0.8721579887339606, ,0.5003979510622232, ,0.048121466908838596
205, ,PASS, ,0.10602392, ,0.016589978391886532, ,0.03525790738246158, ,0.0018235879472429618, ,1.8333333333333333, ,0.8576534614166215, ,0.5037448215342544, ,0.049835717638415544
206, ,PASS, ,0.087761827, ,0.01352692362872643, ,0.03606268494571539, ,0.0012401397566736757, ,1.8333333333333333, ,0.8524929380030098, ,0.49972449541846087, ,0.03734617660864064
207, ,PASS, ,0.12082928999999999, ,0.018149644084378302, ,0.03462687454672353, ,0.0022652179781589583, ,1.8333333333333333, ,0.848802629955794, ,0.5071120997530663, ,0.0415501724454603
208, ,PASS, ,0.080014761, ,0.013902225603488028, ,0.03661266594436644, ,0.0011618535111380466, ,1.8333333333333333, ,0.8708506238461514, ,0.49582661578335135, ,0.04991734862553825
209, ,PASS, ,0.08874661000000003, ,0.013293367631811789, ,0.03599955037365768, ,0.0012356432642296195, ,1.8333333333333333, ,0.8480089574853215, ,0.502316279259607, ,0.04230525907634538
210, ,PASS, ,0.06983372176, ,0.010206143746766285, ,0.0363207877697598, ,0.0007647703290429975, ,1.9166666666666667, ,0.8382671438842163, ,0.4897451072427093, ,0.029060631415685396
211, ,PASS, ,0.09159113000000002, ,0.012379167857630522, ,0.035340607518662887, ,0.0011984199488862866, ,1.8333333333333333, ,0.8337055359634703, ,0.4989081855472337, ,0.03499928572886268
212, ,PASS, ,0.09130801499999998, ,0.015890074409915512, ,0.0362383889494296, ,0.0015220880005687475, ,1.8333333333333333, ,0.8742311934325739, ,0.4961327319850615, ,0.053162180363666045
213, ,PASS, ,0.12234752, ,0.01782692416387694, ,0.034205967186404354, ,0.002261663410210049, ,1.8333333333333333, ,0.8507568746182945, ,0.5075610701822412, ,0.04269300626517826
214, ,PASS, ,0.09564006999999998, ,0.013831963383668216, ,0.03559503751497725, ,0.0013897796216528696, ,1.8333333333333333, ,0.8477550405818242, ,0.4992959327360666, ,0.03306054978469827
215, ,PASS, ,0.15641433999999996, ,0.0230268703186387, ,0.03270355879675925, ,0.0037168336421669495, ,1.75, ,0.8472158694076771, ,0.5137650252035673, ,0.04361135487030877
216, ,PASS, ,0.10123172999999999, ,0.0164647242223392, ,0.035696335221505684, ,0.0017394984047748759, ,1.8333333333333333, ,0.8666269401918877, ,0.49952041795065405, ,0.043182792187914536
217, ,PASS, ,0.14564861999999998, ,0.02196610099493119, ,0.0334388615732332, ,0.0033132487305863995, ,1.8333333333333333, ,0.8553858134812403, ,0.5077243321564866, ,0.043733801350992835
218, ,PASS, ,0.11216573000000002, ,0.017736975283083628, ,0.035118723553090744, ,0.0020752021241744237, ,1.8333333333333333, ,0.8633081136270135, ,0.5006836595171527, ,0.04150935695189894
219, ,PASS, ,0.13658407, ,0.019620324742560803, ,0.03336440312154854, ,0.0027923410813592655, ,1.8333333333333333, ,0.8496651417436613, ,0.505928450439787, ,0.04075427032101386
220, ,PASS, ,0.060930447, ,0.00978996341604747, ,0.036859253985837025, ,0.0006379895208459175, ,1.8333333333333333, ,0.8602916811848406, ,0.4897451072427093, ,0.03781555478459623
221, ,PASS, ,0.09407956999999999, ,0.01621051607295323, ,0.03583547182712597, ,0.0016018943072784314, ,1.8333333333333333, ,0.8787825141302412, ,0.49503071365890494, ,0.06581498336768637
222, ,PASS, ,0.058627930999999994, ,0.009028265377498308, ,0.0369901409710006, ,0.0005680585657081954, ,1.9166666666666667, ,0.8485498645942111, ,0.4897246994959287, ,0.028632068733291157
223, ,PASS, ,0.09187409, ,0.014948516803942713, ,0.03573489008227628, ,0.0014465425610775005, ,1.8333333333333333, ,0.8675082964444008, ,0.4952551988734924, ,0.04857043733801351
224, ,PASS, ,0.060365932000000004, ,0.009383129448203098, ,0.03688231074733169, ,0.000605722370039455, ,1.8333333333333333, ,0.8470134044493066, ,0.48996959245729677, ,0.028774922960755903
225, ,PASS, ,0.04814342000000001, ,0.007860253630234668, ,0.037217306768841454, ,0.0004026443632880772, ,1.8333333333333333, ,0.8471094474983, ,0.48956143752168324, ,0.04134609497765352
226, ,PASS, ,0.04202202999999999, ,0.006015430420030743, ,0.037340157197404134, ,0.00027755920494040387, ,1.9166666666666667, ,0.8212482241191361, ,0.48415338462480356, ,0.019428174935205406
227, ,PASS, ,0.040213050000000014, ,0.007632525227039812, ,0.03774032699189812, ,0.0003267049838364788, ,1.8333333333333333, ,0.8917468359451587, ,0.48799004101957105, ,0.09538580845288872
228, ,FAIL, ,0.029324014000000002, ,0.0024286334306251093, ,0.03791006700006122, ,8.129843613859604e-05, ,1.9166666666666667, ,0.7188158021883434, ,0.4819289402257097, ,0.000755086630885084
229, ,PASS, ,0.07329712420000001, ,0.012117918517065765, ,0.037560472151037735, ,0.0008995928033111661, ,1.9166666666666667, ,0.7753549692760684, ,0.49407154956021304, ,0.0642231791187935
