Channel, ,Pass/Fail, ,Amplitude, ,Sorting Function Response, ,Mean, ,Variance, ,NPeaksRatio, ,PosIntegralRatio, ,ToT50, ,ToT99
49, ,PASS, ,0.011577200000000003, ,0.0013090658920579734, ,0.02656974862880349, ,1.5111564160655227e-05, ,1.6666666666666667, ,0.6197371217690341, ,0.5898655129487154, ,0.01928532070774066
50, ,PASS, ,0.014197669999999996, ,0.002048227618121865, ,0.026723031959755915, ,2.9141647406579654e-05, ,1.75, ,0.742066604091122, ,0.5937429848370441, ,0.026795371523030142
51, ,PASS, ,0.01504152, ,0.0022510508114677945, ,0.026908203019530206, ,3.393040134295862e-05, ,1.75, ,0.7456465240014181, ,0.5866614967041489, ,0.03240750188771658
52, ,PASS, ,0.014742910000000008, ,0.0022339746457569216, ,0.026822009914287452, ,3.3041540910579495e-05, ,1.75, ,0.7610204033280815, ,0.5916001714250729, ,0.07905961102834635
53, ,PASS, ,0.013157439999999996, ,0.0018361250376962722, ,0.02653616846309258, ,2.422330361080328e-05, ,1.75, ,0.7197652816356536, ,0.5892124650517336, ,0.01957102916267015
54, ,PASS, ,0.010120600000000004, ,0.0012729267979763232, ,0.02642197000102038, ,1.2889905665149104e-05, ,1.75, ,0.6576868655026779, ,0.5911103855023366, ,0.015652741780779984
55, ,PASS, ,0.04133611399999999, ,0.007177708462467152, ,0.029746757245770496, ,0.00029904731967309115, ,1.75, ,0.8219116971292695, ,0.6003959102875451, ,0.21752617293524623
56, ,PASS, ,0.07607556500000003, ,0.012584577242476101, ,0.03229512542301178, ,0.000963690575376712, ,1.75, ,0.7980237513232193, ,0.5912736474765821, ,0.19538376767821064
57, ,PASS, ,0.08559353000000003, ,0.013929538092947056, ,0.03270761954623375, ,0.001197943543998854, ,1.75, ,0.7885470039694747, ,0.587477806575376, ,0.2077304544805208
58, ,PASS, ,0.081341441, ,0.01311058791842759, ,0.032381404701740786, ,0.0010722374457607419, ,1.75, ,0.7837008532046611, ,0.5868043509316136, ,0.1570376114773168
59, ,PASS, ,0.06204827549999999, ,0.009980838774623848, ,0.03114358850741209, ,0.0006246846011881723, ,1.75, ,0.7887977298669073, ,0.5917022101589764, ,0.1023448501050999
60, ,PASS, ,0.02770156799999999, ,0.004273930240472779, ,0.028814840832738112, ,0.00011987150143180373, ,1.8333333333333333, ,0.7859827054951586, ,0.6033550335707435, ,0.05540703250954062
61, ,PASS, ,0.03815907100000002, ,0.006384670428238647, ,0.0295243064712761, ,0.00024644293379245805, ,1.8333333333333333, ,0.8169746507306244, ,0.6063957878410645, ,0.07822289341033857
62, ,PASS, ,0.07303523700000004, ,0.012090863222262745, ,0.03231609859853881, ,0.0008892235465198211, ,1.75, ,0.7990969528891528, ,0.5911716087426787, ,0.17262913001775473
63, ,PASS, ,0.08343425100000001, ,0.013585405296316593, ,0.032388446594232775, ,0.001139482948015625, ,1.75, ,0.787027576206652, ,0.5850288769616947, ,0.18307789636946184
64, ,PASS, ,0.07867534200000002, ,0.012563362138498346, ,0.03221254157051897, ,0.0009947950028779582, ,1.75, ,0.7822922719430238, ,0.5901716291504255, ,0.15187445154180526
65, ,PASS, ,0.058084321, ,0.009114466371663894, ,0.031026268165257855, ,0.0005344973285314641, ,1.75, ,0.7854034631212715, ,0.5962531376910676, ,0.07318217995551111
66, ,PASS, ,0.024488590000000005, ,0.003690832696881585, ,0.028384776355176427, ,9.181090822237813e-05, ,1.8333333333333333, ,0.7881626364439422, ,0.60686516601702, ,0.0829166751698945
67, ,PASS, ,0.0397792598, ,0.006811474371253014, ,0.029713411603885638, ,0.0002737124891845143, ,1.75, ,0.8241261944991267, ,0.6041305279484093, ,0.13285443154221344
68, ,PASS, ,0.07513253300000002, ,0.012456611111681375, ,0.03223095103193813, ,0.0009406034595550979, ,1.75, ,0.7953268242541541, ,0.5888247178629008, ,0.20438358400848963
69, ,PASS, ,0.08542859000000001, ,0.01387869753348802, ,0.032230194421950575, ,0.0011898949966901394, ,1.75, ,0.7807334640996009, ,0.583865635395196, ,0.2069141446092937
70, ,PASS, ,0.08136294699999999, ,0.013110989366071898, ,0.03205042293261362, ,0.0010707623137672004, ,1.75, ,0.7752164339674196, ,0.5855390706312116, ,0.2006081508540642
71, ,PASS, ,0.06052544469999999, ,0.00979190645113877, ,0.030782375890902228, ,0.0005969062513683614, ,1.75, ,0.7859991399513758, ,0.589314503785637, ,0.10052856064161955
72, ,PASS, ,0.02588165, ,0.004002830755902576, ,0.028393710316932313, ,0.00010493675041018328, ,1.75, ,0.7794902703816168, ,0.6048652068325137, ,0.05691720577131079
73, ,PASS, ,0.03861737600000001, ,0.006699371802050769, ,0.02959591553719312, ,0.00026102965330336765, ,1.75, ,0.8270085778667117, ,0.6027428011673232, ,0.1982000367339442
74, ,PASS, ,0.07523878800000004, ,0.012386714335072855, ,0.031821328692149146, ,0.0009354960598030716, ,1.75, ,0.7876321593639146, ,0.5862329340217547, ,0.20677129038182895
75, ,PASS, ,0.08583576000000004, ,0.01373672053365542, ,0.03180803610109998, ,0.0011818452710716505, ,1.9166666666666667, ,0.7684175882104944, ,0.5793351156098855, ,0.1879349401032632
76, ,PASS, ,0.08175662700000001, ,0.013097036071702425, ,0.03160635674280117, ,0.001073957712312521, ,1.8333333333333333, ,0.7710209278798671, ,0.5786208444725618, ,0.1610987530866717
77, ,PASS, ,0.0603459831, ,0.00976852144938399, ,0.030828986472041388, ,0.0005933041856271293, ,1.75, ,0.7868050951457601, ,0.5920083263606866, ,0.14677251484663578
78, ,PASS, ,0.02454614600000001, ,0.003781545484472077, ,0.028044026724556644, ,9.389382743829574e-05, ,1.75, ,0.7880707042530265, ,0.6035795187853309, ,0.05299891838942063
79, ,PASS, ,0.039435537799999996, ,0.006810434190219015, ,0.029602102730842232, ,0.00027133441665827106, ,1.8333333333333333, ,0.827484435043976, ,0.6054978469827147, ,0.1636905369278178
80, ,PASS, ,0.07706581800000002, ,0.01274171397588896, ,0.03175430478531051, ,0.0009860805295433834, ,1.75, ,0.7887861059367783, ,0.583232995244995, ,0.20889369604701946
81, ,PASS, ,0.08836662, ,0.014013079173244134, ,0.03152088029815719, ,0.001240752446123715, ,1.9166666666666667, ,0.764134479993743, ,0.578926960674272, ,0.171914858880431
82, ,PASS, ,0.08484564000000001, ,0.013538477871383594, ,0.0316619809654905, ,0.001151825209043697, ,1.8333333333333333, ,0.767638146393615, ,0.5801106099875513, ,0.20215913960939572
83, ,PASS, ,0.061995713799999984, ,0.010131124807051793, ,0.030892494574302563, ,0.000631695213450198, ,1.75, ,0.7892074404362381, ,0.5899675516826187, ,0.16113956858023307
84, ,PASS, ,0.023668359999999996, ,0.0037050937121418776, ,0.028241759314299713, ,8.878993122436718e-05, ,1.8333333333333333, ,0.7923658965486684, ,0.6050080610599784, ,0.09340625701516296
85, ,PASS, ,0.039020425, ,0.006611711840973318, ,0.02928776708085549, ,0.00025960884711497933, ,1.75, ,0.8053426854986705, ,0.5983551356094774, ,0.23019938368604723
86, ,PASS, ,0.07793212600000002, ,0.012108028192039119, ,0.03134562216062938, ,0.0009456572923700206, ,1.8333333333333333, ,0.75441376911327, ,0.58278402481582, ,0.13230342237913512
87, ,PASS, ,0.09035238999999999, ,0.013491001824917526, ,0.031695684184608476, ,0.0012191701156942481, ,1.8333333333333333, ,0.7341298630400989, ,0.5753964204812146, ,0.09310014081345279
88, ,PASS, ,0.08536491000000002, ,0.012934897733711419, ,0.031132357106385587, ,0.0011043906636838588, ,1.8333333333333333, ,0.7389940116586631, ,0.5746005183567682, ,0.11934450317340463
89, ,PASS, ,0.0609691549, ,0.009861971531195366, ,0.030630835868874103, ,0.0006031819923683018, ,1.75, ,0.7736644987012368, ,0.5829472867900655, ,0.16115997632701373
90, ,PASS, ,0.023844987000000012, ,0.003776840969152057, ,0.027986384754596846, ,9.085025238919087e-05, ,1.75, ,0.7837177258530587, ,0.5950694883777882, ,0.07505969265933349
91, ,PASS, ,0.03641971300000001, ,0.006222808585296261, ,0.029193050637007414, ,0.00022835855828121966, ,1.75, ,0.8144233418387501, ,0.6000489785922736, ,0.24248484724801533
92, ,PASS, ,0.07818403400000001, ,0.01222476001022647, ,0.0316952992644844, ,0.0009575642133627253, ,1.75, ,0.7579298696608943, ,0.5820085304381544, ,0.1374869900614273
93, ,PASS, ,0.09136556999999998, ,0.01362326912169381, ,0.03139778373808698, ,0.0012444830061871782, ,1.8333333333333333, ,0.7316578218130009, ,0.5755800902022408, ,0.0995693965429277
94, ,PASS, ,0.08609959000000002, ,0.013029473786194613, ,0.031040469153486665, ,0.0011222604964948304, ,1.75, ,0.738225157083539, ,0.5726209669190425, ,0.121222015877227
95, ,PASS, ,0.0600698462, ,0.009730149485640502, ,0.030181935870855697, ,0.000586606376314778, ,1.75, ,0.7777340869716758, ,0.5846411297728618, ,0.18777167812901777
96, ,PASS, ,0.021236290000000015, ,0.003405102150443879, ,0.02802392594620518, ,7.304711464836838e-05, ,1.75, ,0.7968015295050683, ,0.5997224546437828, ,0.09050835697230669
97, ,PASS, ,0.037512634999999996, ,0.006099640003402023, ,0.02894841056002939, ,0.00022972127046350454, ,1.75, ,0.7841748252917731, ,0.5949470418971041, ,0.16530274892349137
98, ,PASS, ,0.080879527, ,0.011921068903932302, ,0.031110016676190285, ,0.0009646735702182492, ,1.8333333333333333, ,0.7316532622089507, ,0.5789677761678333, ,0.06593742984837044
99, ,PASS, ,0.09291047999999998, ,0.013045679281294936, ,0.03126602210648762, ,0.0012101827998423306, ,1.75, ,0.7061860910460679, ,0.5736821697516378, ,0.05373359727352503
100, ,PASS, ,0.08937980000000001, ,0.012681740432825911, ,0.031121009963470135, ,0.0011318114467960517, ,1.75, ,0.7115396506703217, ,0.5726209669190425, ,0.06159057978408604
101, ,PASS, ,0.06405392199999999, ,0.009800106552874662, ,0.03039404377638823, ,0.0006280833949605383, ,1.8333333333333333, ,0.7480385148565536, ,0.5794983775841309, ,0.14469092467500663
102, ,PASS, ,0.022640567, ,0.00363197620647585, ,0.027846796528846352, ,8.26994217938511e-05, ,1.75, ,0.7804336137940941, ,0.594069508785535, ,0.08046774555621314
103, ,PASS, ,0.03467948800000001, ,0.005449027334488897, ,0.028795659356502933, ,0.0001894434738794136, ,1.75, ,0.7668639684633553, ,0.5942531785065611, ,0.12730352441786902
104, ,PASS, ,0.079473317, ,0.011344116623329806, ,0.03083552458333504, ,0.0009012593543350717, ,1.8333333333333333, ,0.7165446604600056, ,0.5770494479704495, ,0.057631476908634516
105, ,PASS, ,0.09288913999999997, ,0.012544872282265708, ,0.031046427236995165, ,0.0011630001039001894, ,1.6666666666666667, ,0.6874660365660208, ,0.5724168894512357, ,0.03952980551417318
106, ,PASS, ,0.08852909, ,0.012168180841780795, ,0.03096952680598355, ,0.001074745206482898, ,1.6666666666666667, ,0.695406353552974, ,0.5683761555886615, ,0.04555009081447317
107, ,PASS, ,0.0618667731, ,0.009240650225349742, ,0.029915375321777106, ,0.0005719790507032392, ,1.8333333333333333, ,0.7345641987288841, ,0.5744168486357422, ,0.10654884594191956
108, ,PASS, ,0.02249342700000001, ,0.0035257096816886245, ,0.02805751301891798, ,7.963959227448068e-05, ,1.75, ,0.7606343531608161, ,0.5873553600946919, ,0.02363217077202506
109, ,PASS, ,0.03209151700000001, ,0.0051888004825467555, ,0.02871040942166487, ,0.00016708889150018517, ,1.75, ,0.7774440141679381, ,0.592865451725475, ,0.06416195587845146
110, ,PASS, ,0.07615376500000003, ,0.011015384808625137, ,0.030618911987285977, ,0.0008383748410324595, ,1.8333333333333333, ,0.7218694442436002, ,0.5771718944511337, ,0.06608028407583519
111, ,PASS, ,0.08980859, ,0.012321973380911719, ,0.03103511402093835, ,0.0011041298894177202, ,1.6666666666666667, ,0.6939949564461686, ,0.5708046774555622, ,0.04383584008489623
112, ,PASS, ,0.08555749, ,0.011816827783734251, ,0.030358755542131795, ,0.0010084366133353494, ,1.6666666666666667, ,0.6964804661222402, ,0.5673557682496275, ,0.05432542193016469
113, ,PASS, ,0.05818843729999999, ,0.0087992408745171, ,0.029843237549405117, ,0.0005121517524209931, ,1.8333333333333333, ,0.7392961382370018, ,0.5750698965327238, ,0.12832391175690291
114, ,PASS, ,0.018983190000000025, ,0.00300253444574634, ,0.02756579632497295, ,5.7219308414940676e-05, ,1.75, ,0.7700102018040983, ,0.5922532193220547, ,0.12295667435358462
199, ,FAIL, ,0.024916173, ,0.002286097626700793, ,0.028280244264606836, ,5.7599895023067076e-05, ,1.8333333333333333, ,0.7181575130684101, ,0.6389869594498071, ,0.0012040570600599988
200, ,PASS, ,0.024349692000000006, ,0.003093365833710919, ,0.02869526100977531, ,7.628173319400224e-05, ,1.9166666666666667, ,0.7727251731905047, ,0.6344768474112773, ,0.008530438154323382
201, ,PASS, ,0.038996056000000015, ,0.005754924316325144, ,0.03058962822685252, ,0.00022888554820253736, ,1.9166666666666667, ,0.8538703225246969, ,0.6319871023040347, ,0.04136650272443419
202, ,PASS, ,0.03683310500000001, ,0.004958836461619784, ,0.030189043228913703, ,0.0001863746010102173, ,1.9166666666666667, ,0.8324285343292556, ,0.6332319748576559, ,0.03426460684475827
203, ,PASS, ,0.0460001791, ,0.006481215736746763, ,0.031178747060264078, ,0.0003056783542723905, ,1.9166666666666667, ,0.8537101460959581, ,0.6352727495357238, ,0.04359094712352809
204, ,PASS, ,0.07429992099999998, ,0.009710259356324488, ,0.03372415846130487, ,0.0007373075204993737, ,1.8333333333333333, ,0.8639740148812596, ,0.6368033305442746, ,0.05863145650088774
205, ,PASS, ,0.0739961, ,0.009481737928034058, ,0.03379303320882839, ,0.0007208950596437438, ,1.8333333333333333, ,0.8668126419778992, ,0.6398032693210343, ,0.0538560437542091
206, ,PASS, ,0.073115262, ,0.0091028128416764, ,0.033454914354258077, ,0.000683955543465381, ,1.9166666666666667, ,0.8621834457538092, ,0.6405379482051387, ,0.05832534029917757
207, ,PASS, ,0.07078844100000001, ,0.00898820196394921, ,0.03328085541803228, ,0.0006537143994306648, ,1.9166666666666667, ,0.8607656449145321, ,0.6388236974755617, ,0.04555009081447317
208, ,PASS, ,0.06529520000000001, ,0.008181939737160845, ,0.03256964755443766, ,0.0005447483764872944, ,1.9166666666666667, ,0.8611186083435027, ,0.6382522805657027, ,0.053590743046060284
209, ,PASS, ,0.06424988100000001, ,0.008057916542926606, ,0.03255044172465868, ,0.0005310543878007339, ,1.9166666666666667, ,0.8528450410872533, ,0.6390889981837106, ,0.04828472888308402
210, ,PASS, ,0.06613167900000001, ,0.00803795275188471, ,0.03270889362776269, ,0.000545702609980782, ,1.9166666666666667, ,0.8565122037496311, ,0.6404359094712353, ,0.04271341401195894
211, ,PASS, ,0.07471704, ,0.009287875844343495, ,0.033610228125854576, ,0.0007122366001409973, ,1.9166666666666667, ,0.8578790830617905, ,0.6391706291708332, ,0.04912144650109181
212, ,PASS, ,0.11707355999999995, ,0.014521650193084837, ,0.037736101237335964, ,0.001743852592396145, ,1.8333333333333333, ,0.8789548206495553, ,0.642925654578478, ,0.07456990673659722
213, ,PASS, ,0.08641984000000003, ,0.010316202863464363, ,0.03476986238815534, ,0.000917983212453862, ,1.9166666666666667, ,0.8655541580492396, ,0.64298687781882, ,0.060835493153200956
214, ,PASS, ,0.08869939000000002, ,0.010644610774951031, ,0.03508499053245036, ,0.0009737463115283297, ,1.9166666666666667, ,0.8643489142659689, ,0.6427215771106712, ,0.05497846982714639
215, ,PASS, ,0.10887549, ,0.01320399858433055, ,0.03719146979194303, ,0.0014771736500331545, ,1.8333333333333333, ,0.8735403584967403, ,0.6441705271320993, ,0.06771290381828943
216, ,PASS, ,0.10209689999999999, ,0.012097283947043064, ,0.035997377140580815, ,0.0012639563659268876, ,1.9166666666666667, ,0.8717453209796902, ,0.6432317707801881, ,0.06077426991285892
217, ,PASS, ,0.08968440000000003, ,0.010765041323345692, ,0.03516984894811535, ,0.0009953356020020588, ,1.9166666666666667, ,0.8701828530451335, ,0.6432521785269688, ,0.060447745964368076
218, ,PASS, ,0.10601576000000003, ,0.013044871159153395, ,0.0368192438002898, ,0.0014225525714195507, ,1.8333333333333333, ,0.8772579547158338, ,0.6445174588273709, ,0.06434562559947757
219, ,PASS, ,0.10220800000000001, ,0.01254492307810341, ,0.03629680946582316, ,0.001315066757053251, ,1.8333333333333333, ,0.8768407716558975, ,0.6414767045570499, ,0.06738637986979858
220, ,FAIL, ,0.0003462799999999905, ,6.191575179052172e-06, ,0.02626570639150222, ,4.238869287837878e-09, ,0.4166666666666667, ,0.32022177229376037, ,0.4873369931225893, ,0.0001836697210261015
221, ,PASS, ,0.0988919, ,0.012772198852731441, ,0.0362213299765413, ,0.0012988624133208108, ,1.8333333333333333, ,0.8785675611628594, ,0.6415787432909532, ,0.05869267974122977
222, ,PASS, ,0.06899070900000001, ,0.009131089623635933, ,0.033195817447562295, ,0.0006453413685860739, ,1.9166666666666667, ,0.8655526647775359, ,0.6368645537846166, ,0.055549886737005366
223, ,PASS, ,0.08027013000000002, ,0.01072899061789357, ,0.03447016963466868, ,0.0008834660224896067, ,1.9166666666666667, ,0.8762863555708491, ,0.6388849207159037, ,0.0625497438827779
224, ,PASS, ,0.046759152000000005, ,0.006548413154369403, ,0.030967403671496505, ,0.0003118694329087578, ,1.9166666666666667, ,0.8481273538082289, ,0.6329666741495071, ,0.03726454562151793
225, ,PASS, ,0.035161321000000016, ,0.004600038237941765, ,0.030022321949960212, ,0.00016670220013613153, ,1.9166666666666667, ,0.8293791797319725, ,0.6382522805657027, ,0.03852982592191996
226, ,PASS, ,0.03433620600000002, ,0.004534332720571418, ,0.029944468689618583, ,0.00015926443307804646, ,1.9166666666666667, ,0.8255597399425649, ,0.6336605375400503, ,0.03401971388339013
227, ,FAIL, ,0.0006610099999999966, ,1.864344893308384e-05, ,0.026365750042856274, ,1.515279545543776e-08, ,0.9166666666666666, ,0.26341246118315986, ,0.4973776045386829, ,0.0006734556437623722
228, ,PASS, ,0.0452570885, ,0.005665782059410353, ,0.03086379464715007, ,0.0002573251303708076, ,1.9166666666666667, ,0.8235939413942197, ,0.6352319340421624, ,0.0022652598926552517
