Channel, ,Pass/Fail, ,Amplitude, ,Sorting Function Response, ,Mean, ,Variance, ,NPeaksRatio, ,PosIntegralRatio, ,ToT50, ,ToT99
0, ,PASS, ,0.067016777, ,0.010386542604382041, ,0.02486163241248138, ,0.0007041713844759472, ,1.9166666666666667, ,0.7658081302521633, ,0.4375012754841738, ,0.07001897920450603
1, ,PASS, ,0.066351338, ,0.010230726981210442, ,0.025046525684492154, ,0.0006868237487871824, ,1.9166666666666667, ,0.7648709636080482, ,0.43778698393910326, ,0.0696720475092345
2, ,PASS, ,0.066878473, ,0.010294805287083335, ,0.02520370208814106, ,0.0006966603007311588, ,2.0, ,0.7616235068421245, ,0.4402563212995653, ,0.0662435460500806
3, ,PASS, ,0.06652230399999999, ,0.010361745232341188, ,0.024948809838146162, ,0.000697280004286707, ,1.9166666666666667, ,0.767398663982973, ,0.4373992367502704, ,0.07408012081386094
4, ,PASS, ,0.066850123, ,0.010470332506594014, ,0.024734252472867903, ,0.0007078066206742563, ,2.0, ,0.7686747836440792, ,0.43772576069876123, ,0.07008020244484807
5, ,PASS, ,0.06593522099999999, ,0.010189847389684356, ,0.024958978656013143, ,0.0006796648788855023, ,1.9166666666666667, ,0.766608676739926, ,0.4379706536601294, ,0.07181486092120569
6, ,PASS, ,0.06564438499999999, ,0.01016818063302102, ,0.025031510433309524, ,0.0006751646887493651, ,1.9166666666666667, ,0.7666373800804992, ,0.43778698393910326, ,0.07177404542764433
7, ,PASS, ,0.06557337199999999, ,0.010150453697182272, ,0.02499150624877452, ,0.0006732203594411503, ,1.9166666666666667, ,0.7659193154055086, ,0.43790943041978736, ,0.07220260811003858
8, ,PASS, ,0.065458921, ,0.010186623876250476, ,0.025085084628721863, ,0.0006744773981202278, ,2.0, ,0.765701243835694, ,0.44039917552703006, ,0.06873329115732332
9, ,PASS, ,0.06548507499999999, ,0.010168261748035035, ,0.025106286018348606, ,0.0006734096945169227, ,1.9166666666666667, ,0.7671870475647569, ,0.437868614926226, ,0.07295769474092366
10, ,PASS, ,0.065016548, ,0.010186081583158858, ,0.02493473283983796, ,0.0006698384496766628, ,2.0, ,0.7694989888998887, ,0.43754209097773517, ,0.07459031448337788
11, ,PASS, ,0.0653179, ,0.010184922257928148, ,0.02521270597679027, ,0.0006729803189763776, ,2.0, ,0.7689450707242116, ,0.44078692271586295, ,0.074773984204404
12, ,PASS, ,0.065984065, ,0.010459666031186662, ,0.02490431193696047, ,0.000697740336297718, ,2.0, ,0.7727979294477587, ,0.43746045999061245, ,0.07469235321728128
13, ,PASS, ,0.06497229900000001, ,0.010181102538530176, ,0.02505954880154895, ,0.0006688249701692368, ,2.0, ,0.7715481479957126, ,0.43772576069876123, ,0.07571274055631518
14, ,PASS, ,0.064778181, ,0.01012518263121896, ,0.025245231728297384, ,0.0006634478016646118, ,2.0, ,0.7684810483153814, ,0.44041958327381076, ,0.06954960102855044
15, ,PASS, ,0.064591154, ,0.010083057193488728, ,0.024969834828166775, ,0.000658602987636314, ,1.9166666666666667, ,0.7694169144848644, ,0.43746045999061245, ,0.07083528907573315
16, ,PASS, ,0.063748878, ,0.009991451736596917, ,0.02513839258226567, ,0.0006439902715285609, ,2.0, ,0.7695935780280247, ,0.43827676986183955, ,0.0689373686251301
17, ,PASS, ,0.063460621, ,0.009904343835520744, ,0.024950190698070657, ,0.0006357261699554991, ,2.0, ,0.7672106400710532, ,0.43754209097773517, ,0.06683537070672027
18, ,PASS, ,0.062430346000000025, ,0.009919088034084407, ,0.02496916378149344, ,0.0006262981438674424, ,2.0, ,0.7768325199065758, ,0.4373992367502704, ,0.07838615538458399
19, ,PASS, ,0.06194972170000001, ,0.009920343041139779, ,0.025357959003322383, ,0.0006211283173287176, ,2.0, ,0.773606149657137, ,0.43733801350992835, ,0.07575355604987653
20, ,PASS, ,0.06292505400000001, ,0.009852095983836169, ,0.02535800214070407, ,0.000627364422995093, ,2.0, ,0.7710769073887151, ,0.4381135078875941, ,0.07442705250913247
21, ,PASS, ,0.06288030000000001, ,0.009713205310548935, ,0.025151368885191323, ,0.0006179309078192013, ,2.0, ,0.7692546826854412, ,0.4384196240893043, ,0.07197812289545111
22, ,PASS, ,0.06249602600000001, ,0.009875747843590363, ,0.025409630006785987, ,0.0006238695174170241, ,2.0, ,0.772507756346454, ,0.4383379931021816, ,0.0720801616293545
23, ,PASS, ,0.062774576, ,0.009755404080373705, ,0.025257018546117022, ,0.000619451574164971, ,2.0, ,0.7652490568573866, ,0.43788902267300667, ,0.06648843901144874
24, ,PASS, ,0.06261102600000001, ,0.009739685953599732, ,0.02546977832312402, ,0.0006169593384087878, ,2.0, ,0.7670911341551759, ,0.4404808065141528, ,0.06922307708005959
25, ,PASS, ,0.06273410800000001, ,0.009729887898687667, ,0.02500374237218996, ,0.0006174007773918248, ,2.0, ,0.7666593911192294, ,0.4381339156343748, ,0.06716189465521112
26, ,PASS, ,0.06226021600000002, ,0.009653953866381822, ,0.025376330652466278, ,0.0006082407188641056, ,2.0, ,0.7661064543910279, ,0.4404603987673721, ,0.07085569682251383
27, ,PASS, ,0.06185283400000001, ,0.009567950995347572, ,0.025444588081711805, ,0.0005988588657696646, ,2.0, ,0.7650595516030539, ,0.4402563212995653, ,0.06852921368951655
28, ,PASS, ,0.06164634300000003, ,0.009517792285382918, ,0.025225114170628764, ,0.0005937843362303835, ,2.0, ,0.7655365043792189, ,0.44035836003346873, ,0.06957000877533112
29, ,PASS, ,0.06167012500000001, ,0.009519219223175666, ,0.02516306807844126, ,0.0005938826140951228, ,1.9166666666666667, ,0.7656789861750009, ,0.437868614926226, ,0.0682843207281484
30, ,PASS, ,0.06142484500000002, ,0.009465555678046108, ,0.025271057538842474, ,0.0005883633498475334, ,2.0, ,0.7644678090603504, ,0.4404808065141528, ,0.06916185383971755
31, ,PASS, ,0.061264599000000024, ,0.009454936253122215, ,0.025479487245412547, ,0.0005861231320406333, ,2.0, ,0.7642847148846894, ,0.44039917552703006, ,0.06932511581396299
32, ,PASS, ,0.06114843370000003, ,0.009363744224931489, ,0.025231929137495973, ,0.0005793057588457197, ,1.9166666666666667, ,0.7638424919026926, ,0.43778698393910326, ,0.06861084467663925
33, ,PASS, ,0.06127511000000002, ,0.009376341520904923, ,0.025427965495898045, ,0.0005814098508741326, ,1.9166666666666667, ,0.7654479565668074, ,0.43790943041978736, ,0.07177404542764433
34, ,PASS, ,0.06122713270000003, ,0.009382564770305222, ,0.02520186870643865, ,0.0005811649076974051, ,1.9166666666666667, ,0.76246251487757, ,0.43784820717944534, ,0.06816187424746434
35, ,PASS, ,0.06118526710000002, ,0.009429735055606214, ,0.025341152650278975, ,0.0005838717891046415, ,2.0, ,0.7648468031378868, ,0.44021550580600394, ,0.0737535968653701
36, ,PASS, ,0.06199179370000002, ,0.009627722856050626, ,0.02549284131888207, ,0.0006038776087126844, ,2.0, ,0.7664709522128057, ,0.44003183608497787, ,0.06873329115732332
37, ,PASS, ,0.06234191200000001, ,0.00977754045389715, ,0.025262402421018754, ,0.0006166408524974961, ,2.0, ,0.7683264205176302, ,0.43995020509785515, ,0.06752923409726332
38, ,PASS, ,0.06701189499999999, ,0.010554219830694022, ,0.02514519529446338, ,0.0007151225145788627, ,2.0, ,0.7701533050726759, ,0.4402563212995653, ,0.06914144609293688
39, ,PASS, ,0.18775807000000017, ,0.03329133486655075, ,0.01705533158568194, ,0.006300511208249938, ,1.8333333333333333, ,0.8061963629551804, ,0.44217464949694907, ,0.1538948184730924
40, ,PASS, ,0.074853218, ,0.011816920325161438, ,0.02450664626184159, ,0.0008946165998777823, ,2.0, ,0.7717395953662952, ,0.44037876778024937, ,0.07132507499846942
41, ,PASS, ,0.06647879000000001, ,0.010045697056867014, ,0.025252186491820983, ,0.0006762579135535572, ,1.9166666666666667, ,0.7582286893773322, ,0.44023591355278463, ,0.06636599253076468
42, ,PASS, ,0.066135997, ,0.010044306119768394, ,0.024821897990696107, ,0.0006724692328836784, ,1.9166666666666667, ,0.7607610709064603, ,0.4373992367502704, ,0.06661088549213282
43, ,PASS, ,0.06659807499999999, ,0.010069395620142408, ,0.02513312999430012, ,0.0006790623213055612, ,2.0, ,0.7602285962117595, ,0.44039917552703006, ,0.06689659394706231
44, ,PASS, ,0.06635838299999999, ,0.010064622553993723, ,0.02507785131580172, ,0.0006762344030701581, ,2.0, ,0.7612978995615105, ,0.4401950980592233, ,0.06822309748780638
45, ,PASS, ,0.06622607999999999, ,0.00999327745630665, ,0.02490810164622967, ,0.0006701726978265817, ,1.9166666666666667, ,0.7611136379126855, ,0.44021550580600394, ,0.06716189465521112
46, ,PASS, ,0.06584290599999999, ,0.009961501578369879, ,0.024728713525128062, ,0.0006640527118631584, ,1.9166666666666667, ,0.7610176622520264, ,0.4377461684455419, ,0.06789657353931552
47, ,PASS, ,0.06604226599999999, ,0.009983083031307799, ,0.025154638877913107, ,0.000667601604005872, ,2.0, ,0.7594380419747866, ,0.4405624375012755, ,0.06985571723026061
48, ,PASS, ,0.065209979, ,0.00984674143553853, ,0.02538553134912675, ,0.000650308408978718, ,1.9166666666666667, ,0.7594305978826477, ,0.44023591355278463, ,0.06687618620028163
49, ,PASS, ,0.06570823099999999, ,0.009939912437891817, ,0.02511220709076264, ,0.0006615008958896497, ,2.0, ,0.7608063724335481, ,0.4405828452480562, ,0.06742719536335993
50, ,PASS, ,0.05613750539999997, ,0.005998042392761736, ,0.026470381472418928, ,0.00034365102716084865, ,1.75, ,0.6337796437426344, ,0.4400930593253199, ,0.0438562478316769
