Channel, ,Pass/Fail, ,Amplitude, ,Sorting Function Response, ,Mean, ,Variance, ,NPeaksRatio, ,PosIntegralRatio, ,ToT50, ,ToT99
40, ,PASS, ,0.012117759000000006, ,0.0010327524683376881, ,0.027917277075488252, ,1.2916825553515566e-05, ,1.5833333333333333, ,0.5783392603672106, ,0.4151547927593314, ,0.031754453990734885
41, ,PASS, ,0.014114207000000007, ,0.0015608714016972604, ,0.027909832172465867, ,2.255419263321965e-05, ,1.8333333333333333, ,0.6453858335431074, ,0.4142160364074203, ,0.03212179343278709
42, ,PASS, ,0.013998190999999993, ,0.001532308014977549, ,0.027933439219015938, ,2.192923872253177e-05, ,1.8333333333333333, ,0.6441634361469646, ,0.4151956082528928, ,0.042060366114977245
43, ,PASS, ,0.01354283400000001, ,0.0014317033898704162, ,0.027877729500724473, ,1.9860466019352552e-05, ,1.8333333333333333, ,0.6293109760296676, ,0.41531805473357686, ,0.03228505540703251
44, ,PASS, ,0.01356649700000001, ,0.001416110481166538, ,0.027986040917920042, ,1.967101616256935e-05, ,1.8333333333333333, ,0.6252385101586593, ,0.4142364441542009, ,0.048243913389522664
45, ,PASS, ,0.01333712200000002, ,0.0014660539451028358, ,0.028103118463133406, ,2.000050843177186e-05, ,1.8333333333333333, ,0.6489710216330915, ,0.41366502724434195, ,0.044141956286606394
46, ,PASS, ,0.013274429000000004, ,0.0014280883908857486, ,0.027891890557662086, ,1.9415169347925114e-05, ,1.8333333333333333, ,0.6542725488338723, ,0.4154813167078223, ,0.04420317952694843
47, ,PASS, ,0.013346734999999998, ,0.001497446242169339, ,0.028066795687026795, ,2.0404383471303326e-05, ,1.8333333333333333, ,0.6512743822105088, ,0.41560376318850634, ,0.035897226587212505
48, ,PASS, ,0.013289098000000006, ,0.0014728679310337094, ,0.02798853491606294, ,2.0001104109513976e-05, ,1.8333333333333333, ,0.6477115742248071, ,0.4157466174159711, ,0.035591110385502334
49, ,PASS, ,0.01332138799999999, ,0.0014612675961370861, ,0.02789625141552213, ,1.9899853519135337e-05, ,1.8333333333333333, ,0.6581375866478003, ,0.41576702516275177, ,0.04569294504193792
50, ,PASS, ,0.013415353000000005, ,0.0014951959193796572, ,0.028129441751066304, ,2.049479958462619e-05, ,1.8333333333333333, ,0.6503610383041164, ,0.4142364441542009, ,0.041264463990530804
51, ,PASS, ,0.013187401000000001, ,0.0014287354438970205, ,0.027812646703699925, ,1.9285018931522202e-05, ,1.8333333333333333, ,0.6475279204912631, ,0.4150935695189894, ,0.03557070263872166
52, ,PASS, ,0.013214589000000006, ,0.0014582295877114855, ,0.027868390085018672, ,1.9694869070957524e-05, ,1.8333333333333333, ,0.6534824140232579, ,0.41588947164343587, ,0.03889716536397216
53, ,PASS, ,0.013336956000000021, ,0.0014785180680530184, ,0.02807458854060121, ,2.0159496624480927e-05, ,1.8333333333333333, ,0.6538691004130717, ,0.4150527540254281, ,0.03865227240260403
54, ,PASS, ,0.013340626000000015, ,0.0014533562142522768, ,0.027953955841309358, ,1.9835919395327525e-05, ,1.8333333333333333, ,0.6512888920031267, ,0.41450174486234975, ,0.0384890104283586
55, ,PASS, ,0.013360157000000004, ,0.001496176728632953, ,0.028087035532927896, ,2.045130615160581e-05, ,1.8333333333333333, ,0.6597480105050301, ,0.4160323258709006, ,0.0455296830676925
56, ,PASS, ,0.013402356000000018, ,0.0014929222852291114, ,0.028090282777861676, ,2.0445672079164255e-05, ,1.8333333333333333, ,0.6551244402473038, ,0.415501724454603, ,0.03528499418379217
57, ,PASS, ,0.013351093000000008, ,0.0015313636888721824, ,0.027898990532866676, ,2.088491782078703e-05, ,1.8333333333333333, ,0.6650023373639885, ,0.4151956082528928, ,0.039550213260953856
58, ,PASS, ,0.013535055000000011, ,0.0015428662954494363, ,0.027906482442031796, ,2.1337019627450858e-05, ,1.9166666666666667, ,0.6658180626547643, ,0.4155425399481643, ,0.034203383604416236
59, ,PASS, ,0.013276338999999998, ,0.001510101865616173, ,0.02786299368498602, ,2.0500199449675353e-05, ,1.8333333333333333, ,0.6665916268614346, ,0.4163384420726108, ,0.04055019285320708
60, ,PASS, ,0.013458042000000024, ,0.001532539084307546, ,0.02806798748872472, ,2.107661891479792e-05, ,1.9166666666666667, ,0.6548039700860796, ,0.4116854758066162, ,0.037958409012060976
61, ,PASS, ,0.013291110999999998, ,0.0015434954932264805, ,0.028050067197506176, ,2.0984586518334376e-05, ,1.8333333333333333, ,0.6638205345130882, ,0.41490989979796333, ,0.04022366890471623
62, ,PASS, ,0.01356931800000001, ,0.0015519643105026304, ,0.02788668003106059, ,2.1518740063504324e-05, ,1.8333333333333333, ,0.6632554242292296, ,0.4151343850125508, ,0.03938695128670843
63, ,PASS, ,0.01330282700000001, ,0.0015391242032511826, ,0.02794874746454154, ,2.0910515160990843e-05, ,1.9166666666666667, ,0.6755832671038975, ,0.4146854145833758, ,0.0557947796983735
64, ,PASS, ,0.01337096799999999, ,0.0015587419716580908, ,0.027651912250607133, ,2.1278496755507282e-05, ,1.9166666666666667, ,0.6732855990901161, ,0.41529764698679617, ,0.03481561600783657
65, ,PASS, ,0.013131333000000005, ,0.001536377365731024, ,0.02791336625732128, ,2.060322079441976e-05, ,1.9166666666666667, ,0.6778333251702708, ,0.414358890634885, ,0.031060590600191833
66, ,PASS, ,0.013878990000000004, ,0.0016061130644078657, ,0.02774075469839391, ,2.276643669826003e-05, ,1.8333333333333333, ,0.6673182855321851, ,0.41448133711556906, ,0.037958409012060976
67, ,PASS, ,0.013598765000000016, ,0.0015609709658405348, ,0.02796308498040856, ,2.1699017488570942e-05, ,1.8333333333333333, ,0.6744133329937642, ,0.4158282484030938, ,0.04803983592171588
68, ,PASS, ,0.013433616000000023, ,0.0016128548757411334, ,0.027945879969796538, ,2.2143271201285595e-05, ,1.9166666666666667, ,0.6838877629994288, ,0.41615477235158466, ,0.04601946899042877
69, ,PASS, ,0.013661351000000013, ,0.0016275806714283957, ,0.027928097287443113, ,2.2716524051439458e-05, ,1.9166666666666667, ,0.6797906567686092, ,0.4147466378237179, ,0.048243913389522664
70, ,PASS, ,0.013619777000000013, ,0.0016210790134426431, ,0.02790496603481562, ,2.2551030955595795e-05, ,1.9166666666666667, ,0.6753904403478507, ,0.41460378359625316, ,0.046162323217893514
71, ,PASS, ,0.013147326000000008, ,0.0015466188511912306, ,0.02798798554288688, ,2.0766836316712274e-05, ,1.9166666666666667, ,0.6716963611291668, ,0.4146445990898145, ,0.04193791963429318
72, ,PASS, ,0.013217574999999999, ,0.0015497662227673598, ,0.027791145167017, ,2.0923039843095643e-05, ,1.9166666666666667, ,0.6771842142301281, ,0.4145425603559111, ,0.03269321034264607
73, ,PASS, ,0.013087084000000002, ,0.0015238751806750884, ,0.02774384703024428, ,2.0395019628514858e-05, ,1.9166666666666667, ,0.6793309251739509, ,0.41521601599967345, ,0.03993796044978674
74, ,PASS, ,0.013149878, ,0.0015326968759099484, ,0.027936011695006223, ,2.0567537409260256e-05, ,1.9166666666666667, ,0.6683338525857321, ,0.4147058223301565, ,0.03842778718801657
75, ,PASS, ,0.012997826999999993, ,0.001537076420960584, ,0.02784656108203914, ,2.0428762667456202e-05, ,1.9166666666666667, ,0.6835907485860243, ,0.4153996857206996, ,0.04169302667292504
76, ,PASS, ,0.013281670000000006, ,0.001568833256087456, ,0.028037984594416438, ,2.1258102993292682e-05, ,1.9166666666666667, ,0.6746561108386323, ,0.41535887022713824, ,0.03893798085753352
77, ,PASS, ,0.013146349000000026, ,0.0015666878648282112, ,0.028034554420828146, ,2.1015877984303347e-05, ,1.9166666666666667, ,0.6752343422211043, ,0.4148282688108406, ,0.0389583886043142
78, ,PASS, ,0.013245663000000026, ,0.001590082651930721, ,0.02780389919464909, ,2.1500544712990172e-05, ,1.9166666666666667, ,0.6769188633874185, ,0.4148078610640599, ,0.04748882675863758
79, ,PASS, ,0.01354108100000001, ,0.0016905040549506547, ,0.027871335636456402, ,2.3361704145850283e-05, ,1.9166666666666667, ,0.6962310819733005, ,0.41560376318850634, ,0.04520315911920165
112, ,PASS, ,0.013183827999999988, ,0.0015846293432883788, ,0.02779425522097508, ,2.135921448997956e-05, ,1.9166666666666667, ,0.6953195171882877, ,0.41452215260913045, ,0.04771331197322504
113, ,PASS, ,0.013467901000000011, ,0.0016567352185101344, ,0.028105253589947143, ,2.277000058902791e-05, ,1.9166666666666667, ,0.6905974412472904, ,0.4151547927593314, ,0.04269300626517826
114, ,PASS, ,0.013384982000000014, ,0.0016242642701725816, ,0.027737907283851348, ,2.219089629457012e-05, ,1.9166666666666667, ,0.6878995695139724, ,0.4150935695189894, ,0.04146854145833759
115, ,PASS, ,0.013647313000000015, ,0.0016252197563930062, ,0.027842418408338603, ,2.2666349479826097e-05, ,1.9166666666666667, ,0.6856301816848297, ,0.41576702516275177, ,0.04240729781024877
116, ,PASS, ,0.013335584000000004, ,0.0016608818731179641, ,0.02787819855039693, ,2.260174194695754e-05, ,1.9166666666666667, ,0.6903216146297088, ,0.41493030754474397, ,0.03808085549274504
117, ,PASS, ,0.013441302000000002, ,0.0016384063540010496, ,0.027694103439725722, ,2.2489274591167764e-05, ,1.9166666666666667, ,0.6964602186302495, ,0.4163588498193914, ,0.039550213260953856
118, ,PASS, ,0.013332374000000001, ,0.001636762760972282, ,0.027859493034162568, ,2.2248211323908863e-05, ,1.9166666666666667, ,0.6910446222561357, ,0.41568539417562905, ,0.04503989714495622
119, ,PASS, ,0.013353269000000001, ,0.0016791559089546582, ,0.028003846686639047, ,2.2901279028866134e-05, ,1.9166666666666667, ,0.6989977727851092, ,0.4143384828881043, ,0.04769290422644436
120, ,PASS, ,0.013234428, ,0.0016484256316616126, ,0.027934384058855944, ,2.225357382504154e-05, ,1.9166666666666667, ,0.6853937496486945, ,0.4141956286606396, ,0.04499908165139487
121, ,PASS, ,0.013275749, ,0.001616908816515478, ,0.027786946207526378, ,2.1944557890548488e-05, ,1.9166666666666667, ,0.6930685787330346, ,0.4159711026305586, ,0.047835758453909104
122, ,PASS, ,0.013338714000000008, ,0.0015907422611261448, ,0.02795794294532765, ,2.167877324360746e-05, ,1.9166666666666667, ,0.6777455258540379, ,0.4148282688108406, ,0.04610109997755148
123, ,PASS, ,0.013292197000000013, ,0.0015801651933068032, ,0.027814643123670945, ,2.1449019860828193e-05, ,1.9166666666666667, ,0.6827166589663687, ,0.4155221322013836, ,0.046141915471112835
124, ,PASS, ,0.013033391999999994, ,0.0015879938525699747, ,0.027713471639660415, ,2.115586885190789e-05, ,1.9166666666666667, ,0.685373032191818, ,0.415562947694945, ,0.049896940878757574
125, ,PASS, ,0.013390895, ,0.001608428816434892, ,0.027810636258974303, ,2.2025755241027937e-05, ,1.9166666666666667, ,0.6927137010139435, ,0.41613436460480396, ,0.04583579926940266
126, ,PASS, ,0.013368036999999992, ,0.0016501437993893078, ,0.02774036769676129, ,2.2508808395876575e-05, ,1.9166666666666667, ,0.6881429810448082, ,0.41446092936878837, ,0.040774678067794536
127, ,PASS, ,0.013378792999999996, ,0.001603645051006478, ,0.027824028318911856, ,2.1899830723113744e-05, ,1.9166666666666667, ,0.6860033642697526, ,0.41497112303830536, ,0.04426440276729046
128, ,PASS, ,0.013117331000000013, ,0.0016190590774923972, ,0.028120384832983, ,2.1705781184817937e-05, ,1.9166666666666667, ,0.6912770683809386, ,0.41619558784514604, ,0.039652251994857245
129, ,PASS, ,0.013355242999999992, ,0.0016085877005287234, ,0.027994787557621272, ,2.1948833182979868e-05, ,1.9166666666666667, ,0.695473975758196, ,0.41521601599967345, ,0.040407338625742334
130, ,PASS, ,0.013356044000000015, ,0.0016471583511999384, ,0.02797176578831044, ,2.2469257803303924e-05, ,1.9166666666666667, ,0.689808915752789, ,0.4143792983816657, ,0.04232566682312606
131, ,PASS, ,0.013441368000000006, ,0.0016238626304646646, ,0.028099539628109634, ,2.2308163931637796e-05, ,1.9166666666666667, ,0.6808083236147293, ,0.4143792983816657, ,0.017264953776453543
132, ,PASS, ,0.013510041000000014, ,0.0016597750822207923, ,0.028055423108752885, ,2.292300028701309e-05, ,1.9166666666666667, ,0.6964883439042786, ,0.41476704557049854, ,0.0556111099773474
133, ,PASS, ,0.013612528000000006, ,0.001655576264794958, ,0.028093880051774454, ,2.3008781846060605e-05, ,1.9166666666666667, ,0.6846940341031723, ,0.4143792983816657, ,0.04265219077161691
134, ,PASS, ,0.013957354000000019, ,0.0016851754971095201, ,0.028073190060060003, ,2.3999371427307644e-05, ,1.9166666666666667, ,0.6918298328237961, ,0.41374665823146467, ,0.051407114140527746
135, ,PASS, ,0.013736916999999994, ,0.001654056318026438, ,0.028242974751678536, ,2.3194955747882046e-05, ,1.9166666666666667, ,0.6819440949286718, ,0.4143384828881043, ,0.03452990755290709
136, ,PASS, ,0.013790395000000025, ,0.001671527296350672, ,0.02800537076678027, ,2.354963148353803e-05, ,1.9166666666666667, ,0.6879249873258668, ,0.4159098793902165, ,0.0421011816085386
137, ,PASS, ,0.013358621000000008, ,0.0016378020234484741, ,0.028084666514683377, ,2.2329526829185666e-05, ,1.9166666666666667, ,0.6920459410218845, ,0.4141752209138589, ,0.043182792187914536
138, ,PASS, ,0.013529706000000002, ,0.0016566634546026895, ,0.028020925298014327, ,2.2876391206660456e-05, ,1.9166666666666667, ,0.684792385068119, ,0.41442011387522704, ,0.03648905124385217
139, ,PASS, ,0.013571273000000012, ,0.001674191139874393, ,0.028041975781147328, ,2.3193696747718975e-05, ,1.9166666666666667, ,0.6901632172532801, ,0.4151752005061121, ,0.04434603375441318
140, ,PASS, ,0.013392422000000022, ,0.0016838007266585784, ,0.028073543938348197, ,2.300849758252621e-05, ,1.9166666666666667, ,0.6949098568450319, ,0.4146445990898145, ,0.04301953021366911
141, ,PASS, ,0.013679261000000026, ,0.0017074541310468125, ,0.027930949640925695, ,2.3820121972766582e-05, ,1.9166666666666667, ,0.6913960749743021, ,0.4152772392400155, ,0.03975429072876064
142, ,PASS, ,0.013534608000000014, ,0.0017011572610110476, ,0.028082075439991024, ,2.3502019986988684e-05, ,1.9166666666666667, ,0.6996293390934337, ,0.4146241913430338, ,0.049039815513969104
143, ,PASS, ,0.013618138000000009, ,0.0016536080735187174, ,0.02821334138219628, ,2.297948592229202e-05, ,1.9166666666666667, ,0.6867978606886314, ,0.41484867655762125, ,0.03769310830391216
176, ,PASS, ,0.014040991000000006, ,0.001718608683219652, ,0.028216548575253568, ,2.4635933755638356e-05, ,1.9166666666666667, ,0.6872734123583859, ,0.4151343850125508, ,0.03855023366870064
177, ,PASS, ,0.013845795000000011, ,0.001733091488812792, ,0.028075685706781497, ,2.4526850295399254e-05, ,1.9166666666666667, ,0.6943590013280624, ,0.41409358992673617, ,0.03889716536397216
178, ,PASS, ,0.013967056000000012, ,0.0016964571431318037, ,0.028133064272892392, ,2.420332532891481e-05, ,1.9166666666666667, ,0.6872673211678508, ,0.41542009346748027, ,0.04073386257423318
179, ,PASS, ,0.01389723900000001, ,0.001675106728288374, ,0.028183130003306057, ,2.3791877764796936e-05, ,1.9166666666666667, ,0.698779294674268, ,0.4162159955919267, ,0.05003979510622232
180, ,PASS, ,0.014078448000000021, ,0.001722564955746985, ,0.028065886388543092, ,2.4775877935513136e-05, ,1.9166666666666667, ,0.6969450211078556, ,0.41529764698679617, ,0.04057060059998775
181, ,PASS, ,0.013849618000000022, ,0.001723594013399348, ,0.027903582569825107, ,2.4364252853268735e-05, ,1.9166666666666667, ,0.6972581707014994, ,0.415562947694945, ,0.045713352788718596
182, ,PASS, ,0.014002178000000014, ,0.0017320793588943562, ,0.02786343098153099, ,2.4792219518579705e-05, ,1.9166666666666667, ,0.7002835831270718, ,0.4150323462786474, ,0.03942776678026979
183, ,PASS, ,0.014008909000000007, ,0.001740171250286226, ,0.028015654059774294, ,2.4891191406166103e-05, ,1.9166666666666667, ,0.6888785084532515, ,0.41442011387522704, ,0.05052958102895859
184, ,PASS, ,0.01410669300000002, ,0.0017442804803175682, ,0.02787873774839289, ,2.5117077386641444e-05, ,1.9166666666666667, ,0.6975218948509164, ,0.4117875145405196, ,0.03412175261729353
185, ,PASS, ,0.013984084000000004, ,0.001754087984899302, ,0.02800557067502704, ,2.5024973660553526e-05, ,1.9166666666666667, ,0.6963656805056014, ,0.41625681108548807, ,0.047835758453909104
186, ,PASS, ,0.014283610999999998, ,0.0018044662983396139, ,0.028100517443154224, ,2.6302569824281235e-05, ,1.9166666666666667, ,0.6995702980484294, ,0.4147466378237179, ,0.057223321973020956
187, ,PASS, ,0.014153400000000017, ,0.001731063512086013, ,0.027864919526907617, ,2.5005024728756805e-05, ,1.9166666666666667, ,0.6851986824045732, ,0.41533846248035755, ,0.03604008081467725
188, ,PASS, ,0.014645422000000002, ,0.0018638230299721276, ,0.027965063566498645, ,2.7836006643714207e-05, ,1.9166666666666667, ,0.7028705764088887, ,0.4150119385318667, ,0.04755004999897961
189, ,PASS, ,0.014597289999999995, ,0.001864584679105012, ,0.027925615279422868, ,2.775565593573929e-05, ,1.9166666666666667, ,0.7087605265339613, ,0.41476704557049854, ,0.0544070529172874
190, ,PASS, ,0.024580090999999995, ,0.004414646096224328, ,0.026750763750066325, ,0.00010990851429967024, ,1.8333333333333333, ,0.8018290449455475, ,0.4141752209138589, ,0.1099365319075121
191, ,PASS, ,0.04995159999999998, ,0.01013938817444512, ,0.02422880945694985, ,0.000513767750056731, ,1.9166666666666667, ,0.8696008021034105, ,0.4162364033387074, ,0.2954633578906553
192, ,PASS, ,0.018054286000000003, ,0.002257855730979151, ,0.027695084200730597, ,4.163140062317678e-05, ,1.9166666666666667, ,0.7020733279813274, ,0.4152772392400155, ,0.04306034570723046
193, ,PASS, ,0.017656522000000015, ,0.0022625937795287625, ,0.028016780364257875, ,4.077891886034615e-05, ,1.9166666666666667, ,0.7070954145765282, ,0.41495071529152466, ,0.044488887981877924
194, ,PASS, ,0.017411922999999985, ,0.0022173420448638975, ,0.027748638728781045, ,3.943071783489984e-05, ,1.9166666666666667, ,0.7105967330642923, ,0.4155221322013836, ,0.05373359727352503
195, ,PASS, ,0.01740685600000001, ,0.0022460550031772157, ,0.02788331139272668, ,3.9870152695978043e-05, ,1.9166666666666667, ,0.7090813327099058, ,0.4150731617722087, ,0.049509193689924694
196, ,PASS, ,0.017144476999999995, ,0.0022052989334344084, ,0.027749631498949, ,3.8576683461890115e-05, ,1.9166666666666667, ,0.7069851312969966, ,0.41452215260913045, ,0.04659088590028775
197, ,PASS, ,0.017628518, ,0.0021975970798139895, ,0.027837796344666436, ,3.955348256913111e-05, ,1.9166666666666667, ,0.6989852805210867, ,0.4156445786820677, ,0.04001959143690945
198, ,PASS, ,0.017318570999999987, ,0.002172723203001178, ,0.02772017424119916, ,3.8444396269869525e-05, ,1.9166666666666667, ,0.6948347283035655, ,0.41497112303830536, ,0.049101038754311134
199, ,PASS, ,0.017113707, ,0.0020778694135227993, ,0.027696740158568194, ,3.634825883926933e-05, ,1.9166666666666667, ,0.6867889350283743, ,0.414991530785086, ,0.03771351605069284
200, ,PASS, ,0.017304889999999986, ,0.002152773255487315, ,0.027777744762882393, ,3.806703360291758e-05, ,1.9166666666666667, ,0.699523674422533, ,0.41521601599967345, ,0.04097875553560131
201, ,PASS, ,0.017047891, ,0.0021677711670984984, ,0.027753723279912657, ,3.773282858594941e-05, ,1.9166666666666667, ,0.7062287892279395, ,0.4147466378237179, ,0.04895818452684639
202, ,PASS, ,0.017045810999999998, ,0.0021624767766553073, ,0.02774461291126712, ,3.764797054247623e-05, ,1.9166666666666667, ,0.7018801492637917, ,0.4138486969653681, ,0.04785616620068978
203, ,PASS, ,0.01699024899999999, ,0.0021191399167813977, ,0.027623665151303035, ,3.6789743269713595e-05, ,1.9166666666666667, ,0.70316359750388, ,0.41486908430440195, ,0.051509152874431134
204, ,PASS, ,0.01697464699999999, ,0.0021425393053396045, ,0.02774970619752658, ,3.716424887116633e-05, ,1.9166666666666667, ,0.7012688516765417, ,0.41497112303830536, ,0.04599906124364809
205, ,PASS, ,0.017070726999999997, ,0.002074594881704785, ,0.027777198539866533, ,3.621458700187128e-05, ,1.9166666666666667, ,0.6980106888092376, ,0.41529764698679617, ,0.051876492316483336
206, ,PASS, ,0.016841377000000005, ,0.002138027208980112, ,0.02781627315189486, ,3.674333953056088e-05, ,1.9166666666666667, ,0.7090745024876933, ,0.415562947694945, ,0.048203097895961305
207, ,PASS, ,0.016728217999999993, ,0.002135835616449525, ,0.027935233803493806, ,3.648103910859739e-05, ,1.9166666666666667, ,0.706324234751312, ,0.41531805473357686, ,0.050998959204914186
208, ,PASS, ,0.017065842999999983, ,0.002192550116870663, ,0.02771984393614416, ,3.818921183972729e-05, ,1.9166666666666667, ,0.7039653466219536, ,0.4150935695189894, ,0.04706026407624334
209, ,PASS, ,0.01705094900000002, ,0.002215177488585094, ,0.02788244592836881, ,3.853464305199721e-05, ,1.9166666666666667, ,0.7086252533803766, ,0.415501724454603, ,0.046141915471112835
210, ,PASS, ,0.017008966999999996, ,0.002170115592435256, ,0.027709662054202975, ,3.765991037104869e-05, ,1.9166666666666667, ,0.7004567836409933, ,0.41544050121426096, ,0.038305340707332505
211, ,PASS, ,0.017079982, ,0.002233376876147759, ,0.027888143585947225, ,3.893725632501935e-05, ,1.9166666666666667, ,0.7090403710611326, ,0.4143180751413236, ,0.038366563947674535
212, ,PASS, ,0.017221666999999986, ,0.0022360448099759036, ,0.02770016185137038, ,3.9326225450005354e-05, ,1.9166666666666667, ,0.7144847644281564, ,0.4151956082528928, ,0.048162282402399954
213, ,PASS, ,0.01711147200000001, ,0.0022296577229670525, ,0.02793201650133671, ,3.894996799734546e-05, ,1.9166666666666667, ,0.7130174236295328, ,0.41484867655762125, ,0.04430521826085182
214, ,PASS, ,0.016872230999999998, ,0.00218881080058926, ,0.027781792075039287, ,3.7691422498923355e-05, ,1.9166666666666667, ,0.7132939954653694, ,0.4146650068365952, ,0.0450603048917369
215, ,PASS, ,0.01697716100000001, ,0.0021680910127004497, ,0.02785009320642436, ,3.755923657693928e-05, ,1.9166666666666667, ,0.7017426008010889, ,0.4147262300769372, ,0.03928491255280504
216, ,PASS, ,0.016930648000000003, ,0.002184102367206048, ,0.027950523066896597, ,3.774605392967166e-05, ,1.9166666666666667, ,0.7112389913741116, ,0.41531805473357686, ,0.05497846982714639
217, ,PASS, ,0.017085497, ,0.002159481452701046, ,0.027861396063815026, ,3.7658393873632966e-05, ,1.9166666666666667, ,0.6987297858481645, ,0.4153792779739189, ,0.044917450664272156
218, ,PASS, ,0.01685121999999999, ,0.0021596569664163808, ,0.02762410604555009, ,3.7143607256828325e-05, ,1.9166666666666667, ,0.7029692402667694, ,0.4148078610640599, ,0.042039958368196566
219, ,PASS, ,0.016904623000000004, ,0.002247627337528575, ,0.027707744196628643, ,3.876264796803564e-05, ,1.9166666666666667, ,0.7222022243588216, ,0.4153996857206996, ,0.05816207832493214
220, ,PASS, ,0.016724050000000015, ,0.0021236775471838083, ,0.027794034499010224, ,3.6275037098455066e-05, ,1.9166666666666667, ,0.7054766941911504, ,0.41701189771637315, ,0.03699924491336912
221, ,PASS, ,0.016777762000000005, ,0.002142609169357702, ,0.027789092266912924, ,3.6697350359978345e-05, ,1.9166666666666667, ,0.7084101427284776, ,0.415501724454603, ,0.042529744290932835
222, ,PASS, ,0.017123384000000002, ,0.002203484724373111, ,0.027872901664578276, ,3.8530283588751425e-05, ,1.9166666666666667, ,0.719755268152783, ,0.41646088855329483, ,0.05463153813187486
223, ,PASS, ,0.016941851000000008, ,0.002149005902420255, ,0.027820586789228795, ,3.71511338852803e-05, ,1.9166666666666667, ,0.7073292692428645, ,0.4158486561498745, ,0.05657027407603926
224, ,PASS, ,0.01703389399999999, ,0.002172291402543223, ,0.02786919960500806, ,3.779832271460059e-05, ,1.9166666666666667, ,0.7092124759943087, ,0.4152772392400155, ,0.050264280320809776
225, ,PASS, ,0.017027585, ,0.002159718970478607, ,0.027794768773718906, ,3.752926429552519e-05, ,1.9166666666666667, ,0.6963990551346163, ,0.41523642374645414, ,0.04240729781024877
226, ,PASS, ,0.016913859999999985, ,0.002109918112834864, ,0.027741994875043367, ,3.6470765533004184e-05, ,1.9166666666666667, ,0.7042148011765429, ,0.4158282484030938, ,0.04479500418358809
227, ,PASS, ,0.016898128000000005, ,0.0021585808094832172, ,0.027951829892696067, ,3.7263043603346186e-05, ,1.9166666666666667, ,0.7032901810348912, ,0.41450174486234975, ,0.053162180363666045
228, ,PASS, ,0.016844162000000003, ,0.0021099183811049732, ,0.02782648856000898, ,3.6302093613316445e-05, ,1.9166666666666667, ,0.6983855673974877, ,0.41701189771637315, ,0.051468337380869776
229, ,PASS, ,0.016724452000000008, ,0.002090626901842759, ,0.02805583022099549, ,3.570670735385437e-05, ,1.9166666666666667, ,0.6945361342614345, ,0.41544050121426096, ,0.047652088732883
230, ,PASS, ,0.01680703699999999, ,0.0020149038732486407, ,0.027736965195057247, ,3.462523648981473e-05, ,1.9166666666666667, ,0.685865794617099, ,0.4152772392400155, ,0.045754168282279954
231, ,PASS, ,0.016564406999999982, ,0.002044089882353852, ,0.0277012405661109, ,3.459111999175592e-05, ,1.9166666666666667, ,0.6933732935102057, ,0.4151343850125508, ,0.04579498377584131
232, ,PASS, ,0.016967582000000005, ,0.0021111062085382953, ,0.027879584829330017, ,3.6547132634314225e-05, ,1.9166666666666667, ,0.6921840712326794, ,0.4159506948837779, ,0.048141874655619275
233, ,PASS, ,0.016749219999999992, ,0.0020714738264892073, ,0.027752263581008553, ,3.547018132020131e-05, ,1.9166666666666667, ,0.6968956275776284, ,0.4156445786820677, ,0.048550029591232835
234, ,PASS, ,0.016534401000000015, ,0.002099322387777253, ,0.027953183293667475, ,3.5439126580490024e-05, ,1.9166666666666667, ,0.7081219740456208, ,0.41568539417562905, ,0.05620293463398706
235, ,PASS, ,0.016548591000000005, ,0.002058263074481531, ,0.0279134422276076, ,3.478916943400417e-05, ,1.9166666666666667, ,0.7015317136494366, ,0.4151343850125508, ,0.04585620701618334
236, ,PASS, ,0.01670039900000002, ,0.002102891203697202, ,0.02797412862913002, ,3.5874566235034964e-05, ,1.9166666666666667, ,0.6956826154577235, ,0.4150119385318667, ,0.04259096753127487
237, ,PASS, ,0.016852044999999993, ,0.002034132012484729, ,0.027834199622436277, ,3.504837750009644e-05, ,1.9166666666666667, ,0.6920269921635026, ,0.41578743290953246, ,0.044917450664272156
238, ,PASS, ,0.016621705, ,0.001983394114558666, ,0.027769802845717437, ,3.3719399852083125e-05, ,1.9166666666666667, ,0.686560826288406, ,0.41568539417562905, ,0.035468663904818266
239, ,PASS, ,0.016688199000000008, ,0.0020646618328458892, ,0.027864615740637946, ,3.522962507217057e-05, ,1.9166666666666667, ,0.6964735488991354, ,0.4151752005061121, ,0.04434603375441318
240, ,PASS, ,0.01638558500000001, ,0.002057530174741083, ,0.02779773528548397, ,3.4447750644089344e-05, ,1.9166666666666667, ,0.696342246903877, ,0.41605273361768125, ,0.048529621844452156
241, ,PASS, ,0.016432535000000005, ,0.0020867212457419924, ,0.027975101711883433, ,3.500230745027847e-05, ,1.9166666666666667, ,0.7042878664640407, ,0.4147466378237179, ,0.05252954021346503
242, ,PASS, ,0.016556791999999997, ,0.0020027039744382052, ,0.027754680138691045, ,3.386899023462974e-05, ,1.9166666666666667, ,0.689525922746156, ,0.41458337584947247, ,0.03971347523519928
243, ,PASS, ,0.01682722499999999, ,0.0020945751375684904, ,0.027870363137384953, ,3.600343714138842e-05, ,1.9166666666666667, ,0.70119502980368, ,0.41578743290953246, ,0.04785616620068978
244, ,PASS, ,0.016721755999999997, ,0.0021302702811383614, ,0.027789980687292097, ,3.63785189133613e-05, ,1.9166666666666667, ,0.7040465457223192, ,0.41497112303830536, ,0.05124385216628232
245, ,PASS, ,0.016806131000000005, ,0.0021288709145370326, ,0.027858169624089307, ,3.6521244991105194e-05, ,1.9166666666666667, ,0.7051436326987677, ,0.41562417093528703, ,0.050998959204914186
246, ,PASS, ,0.016633374000000006, ,0.0021513273309158435, ,0.027724889704312156, ,3.6567225913553636e-05, ,1.8333333333333333, ,0.713453310567413, ,0.41282830962633416, ,0.05587641068549622
247, ,PASS, ,0.01651034900000002, ,0.002208764403000814, ,0.027833558304646847, ,3.717419406907945e-05, ,1.9166666666666667, ,0.7145626676905522, ,0.41535887022713824, ,0.036223750535703356
248, ,PASS, ,0.016745408, ,0.002112249719728343, ,0.02788781145158262, ,3.612967522552306e-05, ,1.9166666666666667, ,0.7056239442752655, ,0.41525683149323483, ,0.05093773596457215
249, ,PASS, ,0.016770547000000004, ,0.0020979894837611056, ,0.02771506312689537, ,3.592780850355871e-05, ,1.9166666666666667, ,0.6953374560689504, ,0.4153792779739189, ,0.04336646190894063
250, ,PASS, ,0.016803654, ,0.002187465243168368, ,0.027913566516438438, ,3.749157218897069e-05, ,1.9166666666666667, ,0.710633684782306, ,0.4151343850125508, ,0.04559090630803453
251, ,PASS, ,0.01733510399999999, ,0.002245288134097669, ,0.02795009054639701, ,3.973465251339716e-05, ,1.8333333333333333, ,0.7140649990921616, ,0.41329768780228976, ,0.05601926491296096
252, ,PASS, ,0.016397482000000015, ,0.002059092945575235, ,0.027584402328095347, ,3.449013217381619e-05, ,1.9166666666666667, ,0.7080562717552195, ,0.41229770821003653, ,0.04640721617926165
253, ,PASS, ,0.016939128999999983, ,0.0021964597674925504, ,0.027801900292891982, ,3.7974516736860935e-05, ,1.9166666666666667, ,0.7113836520258725, ,0.4151752005061121, ,0.04997857186588029
254, ,PASS, ,0.023268737000000005, ,0.0036846507171264097, ,0.026983062226158653, ,8.713928130613054e-05, ,1.8333333333333333, ,0.7825666864803126, ,0.415501724454603, ,0.07269239403277485
255, ,PASS, ,0.04995159999999998, ,0.010918077909234655, ,0.024279564723168903, ,0.000554423651193122, ,1.9166666666666667, ,0.9261609489677841, ,0.41744046039876737, ,0.34652354033591154
