Channel, ,Pass/Fail, ,Amplitude, ,Sorting Function Response, ,Mean, ,Variance, ,NPeaksRatio, ,PosIntegralRatio, ,ToT50, ,ToT99
0, ,PASS, ,0.08216529000000003, ,0.013096719217531454, ,0.02471331588887982, ,0.0010890789495766294, ,1.8333333333333333, ,0.7587388466397588, ,0.4400930593253199, ,0.08934511540580804
1, ,PASS, ,0.08220899000000001, ,0.013106153583373763, ,0.02553997015477235, ,0.0010912226734850934, ,1.8333333333333333, ,0.7609144640843438, ,0.4476847411277321, ,0.09720209791636905
2, ,PASS, ,0.0825032, ,0.012968877284023926, ,0.02388974120340401, ,0.0010859009280842955, ,1.9166666666666667, ,0.7533028362791101, ,0.4301544866431297, ,0.08499826534152365
3, ,PASS, ,0.08265544000000001, ,0.01318070050912482, ,0.023618737882481988, ,0.0011019271314093456, ,1.8333333333333333, ,0.751948263214323, ,0.4302769331238138, ,0.08191669557764127
4, ,PASS, ,0.08307419, ,0.013291792300257387, ,0.023387129079174097, ,0.001116485479961046, ,1.8333333333333333, ,0.7515500875426143, ,0.4283586049264301, ,0.08230444276647415
5, ,PASS, ,0.08338273, ,0.013198343455211037, ,0.02453125935468664, ,0.0011139093682352484, ,1.8333333333333333, ,0.7547885374728013, ,0.43954205016224157, ,0.08593702169343483
6, ,PASS, ,0.08939984000000001, ,0.014022298747450965, ,0.02439626424017877, ,0.001270420517257462, ,1.8333333333333333, ,0.7540547337202674, ,0.4396849043897063, ,0.10393665435399277
7, ,PASS, ,0.19980000000000037, ,0.02945346434436873, ,0.022115506336340077, ,0.0059824989837348585, ,1.8333333333333333, ,0.7124503232207191, ,0.4142160364074203, ,0.13771147527601477
8, ,PASS, ,0.08350056000000002, ,0.013312410589909295, ,0.023360251963939916, ,0.0011247193794919669, ,1.75, ,0.7485552362657346, ,0.4288279831023857, ,0.08334523785228873
9, ,PASS, ,0.08177380000000001, ,0.012739027860606243, ,0.023942560454460114, ,0.001057827231610785, ,1.9166666666666667, ,0.7518018759022961, ,0.4267872084243179, ,0.08714107875349483
10, ,PASS, ,0.08118547, ,0.01314148858680951, ,0.023219279347401072, ,0.001077936834779951, ,1.8333333333333333, ,0.7496616422536164, ,0.42654231546294974, ,0.08161057937593111
11, ,PASS, ,0.08113033999999998, ,0.012558694704323352, ,0.024161972740801205, ,0.0010349493875386224, ,1.8333333333333333, ,0.7506947101126897, ,0.4287055366217016, ,0.08779412665047652
12, ,PASS, ,0.08107387999999999, ,0.012572387984469817, ,0.023920817153670334, ,0.0010347838400918388, ,1.9166666666666667, ,0.7493443985676245, ,0.4292361380379992, ,0.08369216954756026
13, ,PASS, ,0.08093279, ,0.012723239840255997, ,0.023923781745699067, ,0.0010436695664608083, ,1.8333333333333333, ,0.7508046580007316, ,0.43035856411093654, ,0.08573294422562805
14, ,PASS, ,0.08103407, ,0.012606484090711209, ,0.02401513814175221, ,0.0010362967292307428, ,1.8333333333333333, ,0.7484635722900898, ,0.431787106385584, ,0.08018203710128365
15, ,PASS, ,0.08096118999999999, ,0.01260258813066759, ,0.024216811860778346, ,0.0010354188378567091, ,1.9166666666666667, ,0.7491402667428461, ,0.4309912042611375, ,0.08601865268055754
16, ,PASS, ,0.08080025999999997, ,0.012621514415730646, ,0.024613113038489006, ,0.001032804055061136, ,1.8333333333333333, ,0.7450013485410798, ,0.44088896144976636, ,0.08748801044876635
17, ,PASS, ,0.08141508, ,0.012644858974362141, ,0.024346319068141466, ,0.0010443937738356581, ,1.8333333333333333, ,0.7490919958565996, ,0.4308279422868921, ,0.0851207118222077
18, ,PASS, ,0.08138849999999999, ,0.012652280891966747, ,0.023924753702863205, ,0.0010455951618071953, ,1.8333333333333333, ,0.7521055669646487, ,0.4269300626517826, ,0.08701863227281076
19, ,PASS, ,0.08131799000000002, ,0.012666689077043632, ,0.023798518530376928, ,0.001044756248812952, ,1.9166666666666667, ,0.7471912187947585, ,0.4289708373298504, ,0.08367176180077958
20, ,PASS, ,0.08127399999999999, ,0.01260454942938645, ,0.023757458678761657, ,0.001038652196213886, ,1.8333333333333333, ,0.7478358004828287, ,0.428868798595947, ,0.08316156813126263
21, ,PASS, ,0.08122017000000001, ,0.01256856000890958, ,0.024284051307218217, ,0.001036496701032276, ,1.8333333333333333, ,0.7519895614174327, ,0.43160343666455786, ,0.09591640986918634
22, ,PASS, ,0.08137562999999998, ,0.012702155260276087, ,0.023965206290647127, ,0.001047798101239025, ,1.8333333333333333, ,0.7513514765978069, ,0.43205240709373277, ,0.095304177465766
23, ,PASS, ,0.08163456999999998, ,0.012629989397905132, ,0.023765726394889896, ,0.0010460430628537467, ,1.8333333333333333, ,0.7471410785793283, ,0.42909328381053446, ,0.0846717413930328
24, ,PASS, ,0.08132611000000001, ,0.013337986028271926, ,0.022635721054386646, ,0.0010952303848540605, ,1.8333333333333333, ,0.7613112115150064, ,0.4184812554845819, ,0.08285545192955246
25, ,PASS, ,0.08135346, ,0.012588260298324449, ,0.024064786869329197, ,0.0010391644247400042, ,1.8333333333333333, ,0.7471787774446655, ,0.4285218669006755, ,0.07946776596395992
26, ,PASS, ,0.08143419, ,0.012432237980381606, ,0.025503366897006184, ,0.0010234047020447057, ,1.8333333333333333, ,0.7076359843671695, ,0.4643986857411073, ,0.08318197587804331
27, ,PASS, ,0.08125587000000002, ,0.01297223828360185, ,0.023392596405072547, ,0.0010655728414361969, ,1.8333333333333333, ,0.74774657740979, ,0.4285014591538948, ,0.08338605334585009
28, ,PASS, ,0.08115637, ,0.012799393096492723, ,0.023806229883461563, ,0.0010518636667654515, ,1.8333333333333333, ,0.7443800521206094, ,0.43029734087059446, ,0.07356992714434399
29, ,PASS, ,0.08103966000000001, ,0.012534882786352269, ,0.02440571652903002, ,0.0010312496298548607, ,1.9166666666666667, ,0.7495676889143987, ,0.4301544866431297, ,0.08736556396808229
30, ,PASS, ,0.08140898, ,0.012523509983860393, ,0.024169656818187384, ,0.0010348944147650578, ,1.9166666666666667, ,0.7476814514192983, ,0.43080753454011145, ,0.0860594681741189
31, ,PASS, ,0.08093679999999998, ,0.012517567426782568, ,0.023892176917634334, ,0.001027264283577964, ,1.8333333333333333, ,0.7465271867125957, ,0.428868798595947, ,0.08316156813126263
32, ,PASS, ,0.08067374999999999, ,0.012343968629134564, ,0.02414501455843758, ,0.0010082401098061408, ,1.8333333333333333, ,0.7480758443873078, ,0.42937899226546394, ,0.08238607375359687
33, ,PASS, ,0.08048666999999997, ,0.012588797284791627, ,0.023971592960245706, ,0.001026470606066755, ,1.8333333333333333, ,0.7475367430951636, ,0.43029734087059446, ,0.08469214913981347
34, ,PASS, ,0.08046096999999999, ,0.01251691876475587, ,0.02377191251178547, ,0.0010206027445690095, ,1.8333333333333333, ,0.7487432070509201, ,0.4292769535315606, ,0.08981449358176363
35, ,PASS, ,0.08073396000000001, ,0.012388649263166067, ,0.025566483546172525, ,0.0010125534765839225, ,1.8333333333333333, ,0.7342115429822674, ,0.4547050060202853, ,0.07826370890389991
36, ,PASS, ,0.08077261, ,0.012431149987127046, ,0.024120284287300255, ,0.0010190849031623307, ,1.9166666666666667, ,0.7460982853380363, ,0.42958306973327076, ,0.08454929491234872
37, ,PASS, ,0.08101617, ,0.012581571253400764, ,0.024147187839921636, ,0.0010321803019852254, ,1.8333333333333333, ,0.7468947257323011, ,0.430644272565866, ,0.08573294422562805
38, ,PASS, ,0.08244079000000003, ,0.01276169148970906, ,0.02359492251025489, ,0.0010676317685248838, ,1.9166666666666667, ,0.7578408656784774, ,0.4163588498193914, ,0.07663108916144569
39, ,PASS, ,0.08146013000000002, ,0.012814119760814126, ,0.025093331783820737, ,0.0010564460224477493, ,1.8333333333333333, ,0.752258585277618, ,0.4447256178445338, ,0.08487581886083957
40, ,PASS, ,0.08079076999999996, ,0.012691342688693957, ,0.02343135655292749, ,0.0010373227837085987, ,1.8333333333333333, ,0.7477197875615954, ,0.42909328381053446, ,0.08869206750882636
41, ,PASS, ,0.08089128999999996, ,0.012652340841509091, ,0.021455401633978896, ,0.00103518583835877, ,1.9166666666666667, ,0.7342441099884385, ,0.40627742290973656, ,0.08077386175792331
42, ,PASS, ,0.08088749999999999, ,0.012519336189067216, ,0.023646675325728044, ,0.0010270765786112607, ,1.8333333333333333, ,0.746672577234084, ,0.42868512887492094, ,0.08524315830289178
43, ,PASS, ,0.08098982999999998, ,0.012585432292296162, ,0.0236849912679129, ,0.0010331377996976646, ,1.8333333333333333, ,0.7501879226293746, ,0.42488928797371484, ,0.08238607375359687
44, ,PASS, ,0.08059697999999996, ,0.01276034470859335, ,0.02330677793246362, ,0.0010395952856824464, ,1.8333333333333333, ,0.7451079861806645, ,0.4305626415787433, ,0.07585559478377993
45, ,PASS, ,0.08079979999999998, ,0.012424234530431729, ,0.024014697416644554, ,0.001018987317169843, ,1.9166666666666667, ,0.7462062754100433, ,0.42958306973327076, ,0.08348809207975347
46, ,PASS, ,0.08127758000000002, ,0.012445954401974962, ,0.024114411137242095, ,0.0010262764787750916, ,1.8333333333333333, ,0.7439030879818707, ,0.43005244790922637, ,0.08091671598538805
47, ,PASS, ,0.08088064000000002, ,0.01259840864114556, ,0.023921144946470477, ,0.0010312054804004717, ,1.8333333333333333, ,0.7455741228303708, ,0.4306646803126467, ,0.08581457521275077
48, ,PASS, ,0.08006696999999999, ,0.012634103496564986, ,0.023697298495192955, ,0.0010215084299212362, ,1.75, ,0.7461229253189536, ,0.4289504295830697, ,0.08085549274504603
49, ,PASS, ,0.08017456999999999, ,0.012284456161248276, ,0.024207196675353558, ,0.0009967738097206654, ,1.8333333333333333, ,0.7341698139440633, ,0.438501255076427, ,0.0861410991612416
50, ,PASS, ,0.08028181999999998, ,0.012425541242153124, ,0.023711043195730693, ,0.0010102631300384017, ,1.8333333333333333, ,0.7429954291060279, ,0.4301544866431297, ,0.07418215954776433
51, ,PASS, ,0.07999253999999999, ,0.01215916577720858, ,0.023173843054080528, ,0.0009876693389948093, ,1.9166666666666667, ,0.7397615896971259, ,0.4189710414073182, ,0.08687577804534602
52, ,PASS, ,0.07978553999999999, ,0.012469653849942182, ,0.022849374423338297, ,0.001008440790066099, ,1.8333333333333333, ,0.7582461791965047, ,0.413787473725026, ,0.08436562519132262
53, ,PASS, ,0.07998755, ,0.012476650433176056, ,0.022585426405014996, ,0.0010102620700092723, ,1.8333333333333333, ,0.7385284155595685, ,0.41825677026999447, ,0.08132487092100162
54, ,PASS, ,0.08012730999999998, ,0.012237987835078755, ,0.023921757735617638, ,0.0009958331509864343, ,1.8333333333333333, ,0.7447456688726564, ,0.4292565457847799, ,0.08042693006265178
55, ,PASS, ,0.08014597999999998, ,0.012281213906537745, ,0.023988876381686085, ,0.0009993136454603422, ,1.8333333333333333, ,0.7439913738070881, ,0.42939940001224464, ,0.08052896879655518
56, ,PASS, ,0.08039917999999999, ,0.012274113831221178, ,0.023292681640109385, ,0.0010012265306744417, ,1.8333333333333333, ,0.7400846932311398, ,0.42282810554886635, ,0.08454929491234872
57, ,PASS, ,0.08074793000000001, ,0.012455108893093208, ,0.023961060324299503, ,0.001019007601597762, ,1.8333333333333333, ,0.7443941294151439, ,0.431215689475725, ,0.08510030407542703
58, ,PASS, ,0.08054914999999997, ,0.012253942480130446, ,0.02409629796842921, ,0.0010025733308854372, ,1.8333333333333333, ,0.746018576552927, ,0.42960347748005145, ,0.08487581886083957
59, ,PASS, ,0.08069384, ,0.01246501059736642, ,0.023648967684843165, ,0.0010198382166864766, ,1.9166666666666667, ,0.7446314514232376, ,0.4295422542397094, ,0.0888349217362911
60, ,PASS, ,0.08076135999999998, ,0.012368769935812181, ,0.02386597231936083, ,0.0010141295518406805, ,1.8333333333333333, ,0.7444936997879132, ,0.4302565253770331, ,0.08459011040591008
61, ,PASS, ,0.08102807999999999, ,0.01258112063068767, ,0.02156982680577947, ,0.001035616451865719, ,1.75, ,0.7605487851421162, ,0.3929715720087345, ,0.08177384135017653
62, ,PASS, ,0.08079087, ,0.01272883903398632, ,0.022671847539091034, ,0.0010507049533519126, ,1.75, ,0.7678172954674378, ,0.41327728005550907, ,0.07995755188669619
63, ,PASS, ,0.08096424, ,0.012421706121605302, ,0.02371179697869431, ,0.001018667739132693, ,1.8333333333333333, ,0.7405778281501892, ,0.42539948164323177, ,0.07922287300259179
64, ,PASS, ,0.08053475999999998, ,0.012458808550929807, ,0.023866116553029525, ,0.001016701670520759, ,1.8333333333333333, ,0.7441851821712026, ,0.4305218260851819, ,0.07822289341033857
65, ,PASS, ,0.08057189999999996, ,0.01227715839291484, ,0.023731826952858102, ,0.0010044857857610069, ,1.8333333333333333, ,0.7445398150061354, ,0.42901165282341175, ,0.08405950898961245
66, ,PASS, ,0.08055243999999999, ,0.013042653683257788, ,0.023040468547641885, ,0.0010595162007341976, ,1.8333333333333333, ,0.7451243053832725, ,0.42990959368176157, ,0.08459011040591008
67, ,PASS, ,0.08027604999999996, ,0.012318698145848845, ,0.024156206271974037, ,0.0010037149472614268, ,1.9166666666666667, ,0.7434663545085785, ,0.4291545070508765, ,0.07991673639313483
68, ,PASS, ,0.08052191999999997, ,0.01263509996551285, ,0.025464343336135994, ,0.0010300682081509143, ,1.8333333333333333, ,0.7536521441111521, ,0.45115405808044734, ,0.08340646109263077
69, ,PASS, ,0.08085813, ,0.012351614897971458, ,0.023940560904961123, ,0.0010136733890054414, ,1.9166666666666667, ,0.7425745697477517, ,0.4303789718577172, ,0.08048815330299382
70, ,PASS, ,0.08044370999999996, ,0.012402459906134462, ,0.0238633303374625, ,0.0010115624209996957, ,1.8333333333333333, ,0.7442683247946135, ,0.430644272565866, ,0.08148813289524703
71, ,PASS, ,0.08047220000000001, ,0.012315670104351488, ,0.024307727400583658, ,0.0010061056389364473, ,1.9166666666666667, ,0.7447184056282427, ,0.4300320401624457, ,0.08412073222995449
72, ,PASS, ,0.08049917999999995, ,0.012505816043834456, ,0.02352604979308585, ,0.0010199511816069771, ,1.9166666666666667, ,0.7446077725792668, ,0.42956266198649007, ,0.08138609416134365
73, ,PASS, ,0.08059330999999999, ,0.012343614087330488, ,0.023840629778759614, ,0.0010097062960664578, ,1.8333333333333333, ,0.7434818550633548, ,0.42988918593498093, ,0.0828146364359911
74, ,PASS, ,0.08027345999999998, ,0.012304728123242447, ,0.02396679705206016, ,0.001001986783657507, ,1.8333333333333333, ,0.7447700825884424, ,0.42997081692210365, ,0.0840186934960511
75, ,PASS, ,0.08038277999999999, ,0.012519575275522415, ,0.023873436457847796, ,0.0010183604702544658, ,1.8333333333333333, ,0.7442184376449424, ,0.42941980775902533, ,0.08205954980510602
76, ,PASS, ,0.08063915999999997, ,0.012943531543651599, ,0.023161315689813267, ,0.0010538204500635635, ,1.8333333333333333, ,0.7449117840115406, ,0.42960347748005145, ,0.08287585967633314
77, ,PASS, ,0.09670200000000001, ,0.014108049168656999, ,0.02372719845990898, ,0.0013850305024156386, ,1.75, ,0.7260992292467523, ,0.43144017469031243, ,0.07479439195118467
78, ,PASS, ,0.18367638000000006, ,0.023399955723978932, ,0.022180205174384193, ,0.004371831000658229, ,1.75, ,0.6782927901785178, ,0.43541968531254466, ,0.09138589008387583
79, ,PASS, ,0.07964914999999999, ,0.012086979953218243, ,0.023923609730576924, ,0.0009748792220536707, ,1.8333333333333333, ,0.7359700560375282, ,0.42941980775902533, ,0.08307993714413991
80, ,PASS, ,0.07822154999999995, ,0.011576313059719985, ,0.02448814877784127, ,0.0009184644730945053, ,1.75, ,0.7254899910133815, ,0.438501255076427, ,0.07714128283096264
81, ,PASS, ,0.07816775499999998, ,0.011653460980579101, ,0.024491096316462926, ,0.0009243812689173203, ,1.75, ,0.7362681304318347, ,0.4354400930593253, ,0.07246790881818739
82, ,PASS, ,0.07785665799999994, ,0.011596752039768732, ,0.02336275540737944, ,0.0009166190140285373, ,1.8333333333333333, ,0.7312430881308983, ,0.4197261280382033, ,0.07034550315299688
83, ,PASS, ,0.07752335799999997, ,0.01152446049703759, ,0.0241769407326177, ,0.0009075474741763418, ,1.8333333333333333, ,0.7352215675840138, ,0.4281545274586233, ,0.0721822003632579
84, ,PASS, ,0.077291904, ,0.011708571193750088, ,0.023657350037999222, ,0.0009163293796500738, ,1.8333333333333333, ,0.7341559473188094, ,0.427032101385686, ,0.07563110956919246
85, ,PASS, ,0.07710452399999995, ,0.011912736090864441, ,0.0233206454486439, ,0.0009337568520278879, ,1.8333333333333333, ,0.7416840411135595, ,0.4260321217934328, ,0.0798555131527928
86, ,PASS, ,0.07673286099999999, ,0.01158397376261898, ,0.024048655915654783, ,0.0009016145585318666, ,1.9166666666666667, ,0.7376541448384428, ,0.4313585437031897, ,0.07910042652190771
87, ,PASS, ,0.07677423299999998, ,0.011542402090335325, ,0.024169052379094304, ,0.000898886927016726, ,1.8333333333333333, ,0.7359637851023578, ,0.4297463317075162, ,0.07903920328156568
88, ,PASS, ,0.07612743499999998, ,0.011510554951027803, ,0.024247877853003, ,0.0008900271585394632, ,1.8333333333333333, ,0.7402424472612917, ,0.42688924715822124, ,0.07587600253056061
89, ,PASS, ,0.076200399, ,0.011413448601924225, ,0.024380993549335726, ,0.0008832897842519233, ,1.75, ,0.7373847429240925, ,0.4295422542397094, ,0.0817942490969572
90, ,PASS, ,0.076108414, ,0.01151025738521748, ,0.024283384291443035, ,0.0008875902175078913, ,1.8333333333333333, ,0.7375987434178662, ,0.4313177282096284, ,0.08140650190812432
91, ,PASS, ,0.07620585599999999, ,0.011401226207810594, ,0.024179455024877044, ,0.0008820402260367097, ,1.8333333333333333, ,0.7327614431726927, ,0.4283994204199914, ,0.061406910063059934
92, ,PASS, ,0.07749683299999995, ,0.01150012139926908, ,0.024355246131629964, ,0.0009048007521367294, ,1.75, ,0.7310143951317115, ,0.43144017469031243, ,0.07185567641476705
93, ,PASS, ,0.07671389899999996, ,0.012308383994662948, ,0.02322954023293402, ,0.0009520407863332733, ,1.8333333333333333, ,0.7362013527981733, ,0.43125650496928636, ,0.07977388216567009
94, ,PASS, ,0.07732802799999997, ,0.011590154906064036, ,0.024316307159364094, ,0.0009095718083941837, ,1.8333333333333333, ,0.7356808264558968, ,0.430011632415665, ,0.08583498295953144
95, ,PASS, ,0.07774933499999996, ,0.01137357936286983, ,0.020689803643252177, ,0.0008971715844345638, ,1.75, ,0.7092763763912259, ,0.390216526193343, ,0.06105997836778841
96, ,PASS, ,0.07736885299999995, ,0.011626861706550414, ,0.025350613868798597, ,0.0009112835779842003, ,1.75, ,0.7339033650028214, ,0.4485214587457399, ,0.07734536029876941
