Channel, ,Pass/Fail, ,Amplitude, ,Sorting Function Response, ,Mean, ,Variance, ,NPeaksRatio, ,PosIntegralRatio, ,ToT50, ,ToT99
0, ,PASS, ,0.08291410900000001, ,0.010862831754652436, ,0.03412778318462889, ,0.0009116276962306989, ,1.75, ,0.6585704911951603, ,0.48133711556907, ,0.05075406624354605
1, ,PASS, ,0.08233214100000001, ,0.010816223924589388, ,0.03432504472806677, ,0.0009018481002115411, ,1.75, ,0.6595270186968396, ,0.48239831840166525, ,0.04761127323932165
2, ,PASS, ,0.08259064099999996, ,0.010919428201505576, ,0.03442380735862534, ,0.0009129179548580726, ,1.75, ,0.6619894637748772, ,0.4848472480153466, ,0.05379482051386707
3, ,PASS, ,0.08232710499999998, ,0.010838846900438443, ,0.03440256633415645, ,0.0009037052639343168, ,1.75, ,0.6603688316269614, ,0.48294932756474357, ,0.04828472888308402
4, ,PASS, ,0.08207469400000002, ,0.01082214818721251, ,0.03451734757760046, ,0.000899444966002956, ,1.75, ,0.660164047397868, ,0.4848472480153466, ,0.045305197853105036
5, ,PASS, ,0.08170614700000002, ,0.010794573256883183, ,0.03438312906899859, ,0.0008930456698062462, ,1.75, ,0.6619454564560242, ,0.48374522968919004, ,0.04975408665129283
6, ,PASS, ,0.081370785, ,0.010769519522607369, ,0.03434583388441052, ,0.0008872914720383055, ,1.75, ,0.6616722024398456, ,0.4832962592600151, ,0.05183567682292198
7, ,PASS, ,0.08149356800000002, ,0.01078397197196308, ,0.03448048796187833, ,0.0008899019398906937, ,1.75, ,0.6619814402260082, ,0.48370441419562865, ,0.051407114140527746
8, ,PASS, ,0.08128780400000003, ,0.010710530870104155, ,0.034561353936654354, ,0.0008817188290258419, ,1.75, ,0.6615895670549896, ,0.4838472684230934, ,0.04850921409767148
9, ,PASS, ,0.08133602599999996, ,0.010799030905589698, ,0.03443585881512622, ,0.0008890506079569767, ,1.75, ,0.6621700278761781, ,0.48335748250035715, ,0.05054998877573927
10, ,PASS, ,0.08099937599999998, ,0.010720886106114968, ,0.034358024216240485, ,0.0008795541051682827, ,1.75, ,0.662387824097853, ,0.4832962592600151, ,0.050060202853003
11, ,PASS, ,0.08128173100000001, ,0.010778119115467038, ,0.0343726627515765, ,0.0008871675269441834, ,1.75, ,0.6634877033410468, ,0.4843574620926104, ,0.0486724760719169
12, ,PASS, ,0.08097832900000004, ,0.010695250268867881, ,0.034399377451276504, ,0.0008771030621113066, ,1.75, ,0.6635161035664944, ,0.4835207444746026, ,0.05179486132936063
13, ,PASS, ,0.08121007800000002, ,0.010768859396091873, ,0.03450354468276158, ,0.0008854177773062467, ,1.75, ,0.6638560453648775, ,0.4834799289810412, ,0.05281524866839452
14, ,PASS, ,0.08201571900000001, ,0.010783226760080976, ,0.03437541813534418, ,0.0008955063610595744, ,1.75, ,0.6603699256372279, ,0.4833778902471378, ,0.050264280320809776
15, ,PASS, ,0.082401885, ,0.010842904834991502, ,0.0342747440829779, ,0.0009048568159107203, ,1.75, ,0.6605048647484142, ,0.48288810432440155, ,0.05054998877573927
16, ,PASS, ,0.08122543000000002, ,0.010772228961681646, ,0.03428850524519908, ,0.000885836881042505, ,1.75, ,0.6613206083003783, ,0.48323503601967305, ,0.04920307748821453
17, ,PASS, ,0.08160094000000001, ,0.010786828705441492, ,0.03433604597559233, ,0.0008912270361906501, ,1.75, ,0.6631359507165042, ,0.4832146282728924, ,0.051407114140527746
18, ,PASS, ,0.08154222500000002, ,0.010756774012810713, ,0.03411938798595947, ,0.0008883612976639113, ,1.75, ,0.6623345688395805, ,0.48333707475357646, ,0.051427521887308425
19, ,PASS, ,0.08167198300000005, ,0.010769203570838626, ,0.03444496656455991, ,0.0008907118264248263, ,1.75, ,0.6616988664298206, ,0.4839084916634354, ,0.04879492255260097
20, ,PASS, ,0.08157117100000001, ,0.010774924013072389, ,0.034349996460072245, ,0.0008898384652562957, ,1.75, ,0.6618679382665323, ,0.4835411522213832, ,0.05206016203750944
21, ,PASS, ,0.08167602099999999, ,0.010798569379530665, ,0.03425174002163221, ,0.0008932166037505399, ,1.75, ,0.6624486978322172, ,0.4839084916634354, ,0.05414175220913859
22, ,PASS, ,0.08243681200000001, ,0.010871666717572094, ,0.034647160208567174, ,0.0009074149333018837, ,1.75, ,0.6608511168946718, ,0.4850717332299341, ,0.049815309891634865
23, ,PASS, ,0.08293445400000003, ,0.010899030881148674, ,0.03426614574457664, ,0.0009150630910852497, ,1.75, ,0.659422194246352, ,0.48280647333727883, ,0.04961123242382808
24, ,PASS, ,0.081653168, ,0.010817236048959709, ,0.03434973683353401, ,0.0008939672249513422, ,1.75, ,0.6610946196804804, ,0.48247994938878797, ,0.04750923450541826
25, ,PASS, ,0.08159952400000002, ,0.010838149269987421, ,0.03450713254382564, ,0.0008954165153112217, ,1.75, ,0.6640631203595349, ,0.48378604518275137, ,0.05463153813187486
26, ,PASS, ,0.08126127300000001, ,0.010829400556315628, ,0.03424993034713577, ,0.0008906963856191849, ,1.75, ,0.6638419798241586, ,0.48325544376645374, ,0.05338666557825351
27, ,PASS, ,0.080979555, ,0.010849512951944766, ,0.034600657047203116, ,0.0008895249926829803, ,1.75, ,0.666585002832812, ,0.48529621844452153, ,0.053162180363666045
28, ,PASS, ,0.08072521700000002, ,0.010769578281522179, ,0.0344675806095794, ,0.0008804738407873632, ,1.75, ,0.6660731723488406, ,0.48382686067631275, ,0.053590743046060284
29, ,PASS, ,0.080462435, ,0.010799243157131379, ,0.034349542481377934, ,0.0008797841738661522, ,1.75, ,0.6676896733275876, ,0.48466357829432055, ,0.05661108956960062
30, ,PASS, ,0.08035116100000002, ,0.010744492916820864, ,0.03465543225770903, ,0.000874575890337022, ,1.75, ,0.6683497215111996, ,0.4874594396032734, ,0.053896859247770455
31, ,PASS, ,0.08001247900000001, ,0.01076331919848323, ,0.034421616280484076, ,0.0008721682079258843, ,1.75, ,0.6693914447705196, ,0.4847248015346626, ,0.05850901002020367
32, ,PASS, ,0.080529086, ,0.010792473207942037, ,0.03472040859860003, ,0.0008802379117797804, ,1.75, ,0.6675983047453196, ,0.48627579028999407, ,0.05381522826064774
33, ,PASS, ,0.08021599599999997, ,0.010776228915163241, ,0.0346723177357605, ,0.0008755442690589012, ,1.75, ,0.6665198477828872, ,0.48458194730719784, ,0.05050917328217792
34, ,PASS, ,0.080064024, ,0.010734492234322488, ,0.034421569203689724, ,0.0008704300748447894, ,1.75, ,0.6670876027801173, ,0.4844799085732944, ,0.05632538111467113
35, ,PASS, ,0.08051690000000002, ,0.01080501511331211, ,0.03469623310463052, ,0.0008811082781631866, ,1.75, ,0.6677373088810682, ,0.4864186445174588, ,0.0556111099773474
36, ,PASS, ,0.08067794899999998, ,0.01079901037252413, ,0.03438046343727679, ,0.0008823058945006099, ,1.75, ,0.6672682729611202, ,0.4850717332299341, ,0.05744780718760842
37, ,PASS, ,0.08206158300000002, ,0.010998705378719062, ,0.034428304124201545, ,0.000913609348921751, ,1.75, ,0.6674036261347194, ,0.48529621844452153, ,0.05534580926919859
38, ,PASS, ,0.08903905500000005, ,0.01160124611641412, ,0.0341995298179629, ,0.0010458396781242879, ,1.75, ,0.6555691117806142, ,0.4827248423501561, ,0.04442766474153589
39, ,PASS, ,0.14586000000000016, ,0.025345055980931935, ,0.02574812508423911, ,0.003777562380007708, ,1.9166666666666667, ,0.8046322033750265, ,0.49464296647007205, ,0.2858104936633946
40, ,PASS, ,0.08887547000000007, ,0.011869316593960332, ,0.03403078951552009, ,0.0010676960942666344, ,1.75, ,0.6655099713796477, ,0.48343911348747987, ,0.05569274096447011
41, ,PASS, ,0.084591128, ,0.011443149275221397, ,0.03415801699271444, ,0.0009802569196872345, ,1.75, ,0.6715970205862255, ,0.484888063508908, ,0.06316197628619824
42, ,PASS, ,0.08358253400000003, ,0.011337284859540707, ,0.03422390733331973, ,0.0009596510583304706, ,1.75, ,0.6720493912236298, ,0.4848676557621273, ,0.06152935654374401
43, ,PASS, ,0.08353755500000001, ,0.01135710345876155, ,0.03412668144690925, ,0.0009603461369028453, ,1.75, ,0.6723569111116071, ,0.48499010224281136, ,0.06059060019183282
44, ,PASS, ,0.083384321, ,0.011276396122680846, ,0.034160247104140735, ,0.0009521962162739063, ,1.75, ,0.6708628299501871, ,0.4843574620926104, ,0.060141629762657904
45, ,PASS, ,0.08312745799999999, ,0.011309539448195122, ,0.03449200365053774, ,0.0009527361120713211, ,1.75, ,0.6762320363057591, ,0.48913287483928897, ,0.06693740944062367
46, ,PASS, ,0.082778538, ,0.011290233429804846, ,0.03443020120017959, ,0.0009465590735472711, ,1.75, ,0.673653664579385, ,0.4867451684659497, ,0.06359053896859247
47, ,PASS, ,0.08282841800000001, ,0.01132964757113652, ,0.034527379602048935, ,0.0009501448210454689, ,1.75, ,0.6757240823935706, ,0.4865206832513622, ,0.06330483051366298
48, ,PASS, ,0.08275598099999999, ,0.011217098199563232, ,0.03433306104303994, ,0.0009407200079066866, ,1.75, ,0.6733907527266987, ,0.4866227219852656, ,0.06071304667251689
49, ,PASS, ,0.08281595800000002, ,0.011251318786487666, ,0.034427832645660295, ,0.0009441216808243158, ,1.75, ,0.672573852294841, ,0.48664312973204626, ,0.0556111099773474
50, ,PASS, ,0.082456835, ,0.011245839347137503, ,0.03418730037182915, ,0.0009390599499685291, ,1.75, ,0.6741767952041527, ,0.4847452092814432, ,0.06303952980551418
51, ,PASS, ,0.08262835100000002, ,0.011234680951294066, ,0.034054551494663375, ,0.0009402499974386018, ,1.75, ,0.6748688525437204, ,0.48539825717842494, ,0.06450888757372299
52, ,PASS, ,0.08249117500000001, ,0.011237033255399903, ,0.034147786647211284, ,0.000938763594221285, ,1.75, ,0.6730758576857212, ,0.4847452092814432, ,0.06308034529907552
53, ,PASS, ,0.08288750900000003, ,0.011233365121397, ,0.03422391683332993, ,0.0009429480816731364, ,1.75, ,0.6727045247775522, ,0.4851941797106181, ,0.060855900899981635
54, ,PASS, ,0.08276651700000004, ,0.011241295689557217, ,0.0344263183081978, ,0.0009421512204301086, ,1.75, ,0.6734387050134604, ,0.4853166261913022, ,0.0625497438827779
55, ,PASS, ,0.08279136299999999, ,0.011227969026776512, ,0.03429688880512643, ,0.0009419380313172241, ,1.75, ,0.6741529432775601, ,0.4852554029509602, ,0.06287626783126875
56, ,PASS, ,0.082988445, ,0.01122399985385804, ,0.03434984176853534, ,0.0009435028943022168, ,1.75, ,0.6710898455664818, ,0.48466357829432055, ,0.05889675720903655
57, ,PASS, ,0.08325637200000002, ,0.011284923880222399, ,0.034156597458623296, ,0.0009511788136241208, ,1.75, ,0.6712190905194625, ,0.48374522968919004, ,0.05957021285279892
58, ,PASS, ,0.08312616099999999, ,0.011223685377523789, ,0.03449603657068223, ,0.0009456052579780469, ,1.75, ,0.6736657878134731, ,0.48833697271484255, ,0.060937531887104344
59, ,PASS, ,0.08294173400000002, ,0.011237183136527676, ,0.034173516610069184, ,0.0009438552229736289, ,1.75, ,0.67292420969269, ,0.4848064325217853, ,0.06224362768106773
60, ,PASS, ,0.08322168199999999, ,0.011301069072312642, ,0.034207469398787785, ,0.0009523285291017812, ,1.75, ,0.6724659839888802, ,0.48503091773637275, ,0.06150894879696333
61, ,PASS, ,0.08336620100000003, ,0.01127230117062833, ,0.03422339439317565, ,0.0009515755576654087, ,1.75, ,0.6714563372029938, ,0.48415338462480356, ,0.06075386216607824
62, ,PASS, ,0.082859779, ,0.011284833027125137, ,0.03421142352482602, ,0.000946747442384153, ,1.75, ,0.6731542591745011, ,0.4847452092814432, ,0.06067223117895553
63, ,PASS, ,0.08328828100000002, ,0.011269937896936762, ,0.03422802070753658, ,0.0009507017243696441, ,1.75, ,0.6715252043765121, ,0.4848064325217853, ,0.05946817411889553
64, ,PASS, ,0.08285927899999998, ,0.01120680424074605, ,0.03429836823268913, ,0.0009406683417498012, ,1.75, ,0.6721169969280179, ,0.48452072406685576, ,0.05983551356094773
65, ,PASS, ,0.082971785, ,0.0112866263895762, ,0.03408836151956083, ,0.0009481606544621407, ,1.75, ,0.6725985874598962, ,0.48452072406685576, ,0.0606110079386135
66, ,PASS, ,0.08298524, ,0.011292940808388302, ,0.03424323776004572, ,0.0009492382207755127, ,1.75, ,0.6755023810927984, ,0.48482684026856593, ,0.06334564600722434
67, ,PASS, ,0.08298730900000001, ,0.011289085879209137, ,0.03395469691781801, ,0.0009483657520139126, ,1.75, ,0.6723124086035791, ,0.48419420011836495, ,0.062202812187506375
68, ,PASS, ,0.08314460200000003, ,0.011258370561893757, ,0.034232978389828785, ,0.0009481005741463915, ,1.75, ,0.6717669089169112, ,0.4848064325217853, ,0.05908042693006265
69, ,PASS, ,0.08335065900000001, ,0.01127924512917901, ,0.03428908917634334, ,0.000952018024345327, ,1.75, ,0.6715985520185751, ,0.4847043937878819, ,0.059651843839921635
70, ,PASS, ,0.08495679699999997, ,0.01133524636813861, ,0.034094833236872714, ,0.0009753255932161336, ,1.75, ,0.6673426414453786, ,0.48407175363768085, ,0.05457031489153283
71, ,PASS, ,0.08425868700000001, ,0.01129724754229383, ,0.0342046586351299, ,0.0009640581313475309, ,1.75, ,0.6687400717919397, ,0.48411256913124223, ,0.058529417766984344
72, ,PASS, ,0.083532875, ,0.011263823733060153, ,0.0340924171053652, ,0.0009529558249985935, ,1.75, ,0.6706126327330848, ,0.48445950082651373, ,0.06067223117895553
73, ,PASS, ,0.08357892300000001, ,0.011289618985251174, ,0.034131478720638354, ,0.000955583253618052, ,1.75, ,0.6708281821539227, ,0.4843574620926104, ,0.061406910063059934
74, ,PASS, ,0.08352494299999999, ,0.011254167790854107, ,0.034299000810595705, ,0.0009522544266101827, ,1.75, ,0.6712355541915792, ,0.48623497479643274, ,0.05981510581416706
75, ,PASS, ,0.083296093, ,0.011286537085016212, ,0.034128333810126324, ,0.0009519963358047687, ,1.75, ,0.6715191311988602, ,0.48492887900246934, ,0.06263137486990061
76, ,PASS, ,0.083319116, ,0.011247401773735868, ,0.03431562861227322, ,0.0009491715368324328, ,1.75, ,0.6693007675031716, ,0.48411256913124223, ,0.05612130364686435
77, ,PASS, ,0.08342459599999999, ,0.011293202418364708, ,0.03412048968633293, ,0.0009538103521210248, ,1.75, ,0.6695727490119592, ,0.4860717128221873, ,0.06059060019183282
78, ,PASS, ,0.08420838699999997, ,0.011382061150421853, ,0.03451559689230832, ,0.0009702962202070834, ,1.75, ,0.6692466111920551, ,0.4853166261913022, ,0.05881512622191384
79, ,PASS, ,0.08395225799999999, ,0.011357237002173871, ,0.03420850240280811, ,0.0009655735117451877, ,1.75, ,0.6713152984357391, ,0.48627579028999407, ,0.060957939633885024
80, ,PASS, ,0.08326367600000001, ,0.011300498673757852, ,0.03404459545560295, ,0.0009527633007257975, ,1.75, ,0.67281955047009, ,0.48462276280075917, ,0.060059998775535195
81, ,PASS, ,0.08344534299999999, ,0.011312581155668288, ,0.034264119648170444, ,0.0009563261894760727, ,1.75, ,0.6726134959535579, ,0.4867451684659497, ,0.06416195587845146
82, ,PASS, ,0.08331795500000001, ,0.01133287169375629, ,0.03420197820207751, ,0.0009562995183916192, ,1.75, ,0.6719339668341864, ,0.4864798677578009, ,0.06114160935491112
83, ,PASS, ,0.08347582899999999, ,0.011301981916887659, ,0.03419854867839432, ,0.0009553853411151919, ,1.75, ,0.6712388525359755, ,0.48466357829432055, ,0.05999877553519316
84, ,PASS, ,0.08349576100000002, ,0.011267679367612965, ,0.034136717206383546, ,0.0009531088097093449, ,1.75, ,0.6706184965062696, ,0.4847248015346626, ,0.05779473888287994
85, ,PASS, ,0.08402411100000001, ,0.011312299807159884, ,0.034464625687026795, ,0.0009634118486212201, ,1.75, ,0.6713032701564817, ,0.4890308361053856, ,0.05840697128630028
86, ,PASS, ,0.08362149600000002, ,0.011311245917691162, ,0.03422212694985817, ,0.0009581076707427769, ,1.75, ,0.6722421327275251, ,0.48703087692087915, ,0.05991714454807045
87, ,PASS, ,0.083546029, ,0.011373795500071499, ,0.03410510531070794, ,0.0009618374105394986, ,1.75, ,0.6727027456223043, ,0.4851533642170568, ,0.059631436093140956
88, ,PASS, ,0.08327821499999999, ,0.011325700533841411, ,0.034123512465255815, ,0.0009552555918714301, ,1.75, ,0.6729571517124826, ,0.48496969449603067, ,0.06297830656517214
89, ,PASS, ,0.08364490200000001, ,0.011402780529841738, ,0.03434221213975225, ,0.0009655589081671048, ,1.75, ,0.6735519773019782, ,0.48658190649170424, ,0.061406910063059934
90, ,PASS, ,0.08373984799999999, ,0.011410876601562021, ,0.03430461613742577, ,0.0009675399115709878, ,1.75, ,0.6729242332110796, ,0.486724760719169, ,0.06118242484847248
91, ,PASS, ,0.08354667900000003, ,0.011352229688720262, ,0.033893679954898885, ,0.000960688972219177, ,1.75, ,0.673268130691377, ,0.4852349952041795, ,0.06538642068529214
92, ,PASS, ,0.08383724900000002, ,0.011422447715683673, ,0.03423866993469521, ,0.0009694526392844986, ,1.75, ,0.6729994039247494, ,0.4866227219852656, ,0.06283545233770739
93, ,PASS, ,0.083978116, ,0.011434592642863667, ,0.03426023957449848, ,0.000972293677759926, ,1.75, ,0.6730910901243089, ,0.48660231423848493, ,0.06030489173690333
94, ,PASS, ,0.08389147500000002, ,0.011431708014357432, ,0.03403591083590131, ,0.0009708142657304789, ,1.75, ,0.6727485902117825, ,0.484888063508908, ,0.06465174180118773
95, ,PASS, ,0.08386269, ,0.011377645454150436, ,0.03416801418848595, ,0.0009662787253286629, ,1.75, ,0.6725848441065371, ,0.48511254872349546, ,0.06363135446215383
96, ,PASS, ,0.08384175600000005, ,0.01139058326654198, ,0.03415446257811065, ,0.00096714909824035, ,1.75, ,0.673193696645826, ,0.4851737719638375, ,0.06379461643639926
97, ,PASS, ,0.08403678200000003, ,0.011411985229444468, ,0.03422575933491154, ,0.0009715373555782892, ,1.75, ,0.6725993973471971, ,0.48743903185649273, ,0.06059060019183282
98, ,PASS, ,0.08393471000000001, ,0.011413682460498065, ,0.03411029207077407, ,0.0009698037775511967, ,1.75, ,0.671141476825456, ,0.4851329564702761, ,0.060141629762657904
99, ,PASS, ,0.08379758600000001, ,0.011392138684033408, ,0.03417153812677292, ,0.0009665898421824598, ,1.75, ,0.6725625522290565, ,0.4859084508479419, ,0.05942735862533418
100, ,PASS, ,0.08356037900000002, ,0.011380449798749498, ,0.034133367057406994, ,0.0009624573976395235, ,1.75, ,0.6714058494539149, ,0.48370441419562865, ,0.06067223117895553
101, ,PASS, ,0.08356198999999997, ,0.011368447232969555, ,0.03415301213342585, ,0.0009621138461650594, ,1.75, ,0.6729996937301836, ,0.48545948041876696, ,0.06250892838921655
102, ,PASS, ,0.08362353399999999, ,0.011425186854217883, ,0.03441073682557499, ,0.0009674350190434981, ,1.75, ,0.6738903302139865, ,0.48739821636293135, ,0.06226403542784841
103, ,PASS, ,0.08335568799999998, ,0.011366617094504646, ,0.03417614039529805, ,0.0009594892143076062, ,1.75, ,0.6746081051156232, ,0.4859696740882839, ,0.0659782453419318
104, ,PASS, ,0.083918754, ,0.011519264474382567, ,0.03415687663945634, ,0.0009785654517185365, ,1.75, ,0.6746955617923918, ,0.487296177629028, ,0.062141588947164345
105, ,PASS, ,0.08372157600000002, ,0.011428386566410619, ,0.03425358475949471, ,0.0009688691969786999, ,1.75, ,0.6752205569670119, ,0.486092120568968, ,0.06452929532050367
106, ,PASS, ,0.08381679100000002, ,0.01149329068432201, ,0.03428552622273015, ,0.0009753476296913148, ,1.75, ,0.6736231989129757, ,0.48796963327279036, ,0.06167221077120875
107, ,PASS, ,0.084020799, ,0.011478967785742632, ,0.03442371250219384, ,0.0009769198987751334, ,1.75, ,0.6749884466517706, ,0.48735740086937, ,0.061733434011550785
108, ,PASS, ,0.08524698899999995, ,0.011600643906032153, ,0.034315237462296685, ,0.0010012876943871398, ,1.75, ,0.6718767786866682, ,0.48547988816554766, ,0.06022326074978061
109, ,PASS, ,0.10024371000000001, ,0.012914707122702748, ,0.03391109155751923, ,0.001310277749583431, ,1.75, ,0.6524299233493901, ,0.48370441419562865, ,0.044509295728658596
110, ,PASS, ,0.14586000000000016, ,0.024153036275915488, ,0.026651523352703016, ,0.0035930493916667946, ,1.8333333333333333, ,0.7860262770170081, ,0.4985204383584009, ,0.26756596804146854
111, ,PASS, ,0.09203644700000004, ,0.012430292881917594, ,0.03406121801514255, ,0.0011587636527820434, ,1.75, ,0.671329353427493, ,0.4851533642170568, ,0.061304871329156546
112, ,PASS, ,0.08943891500000005, ,0.0121184034710832, ,0.034100328005346826, ,0.0010977638472976776, ,1.75, ,0.6723278075759378, ,0.48527581069774084, ,0.05822330156527418
113, ,PASS, ,0.08876225600000005, ,0.012053279654606692, ,0.03403942445399073, ,0.0010838845195353176, ,1.75, ,0.6738924499095146, ,0.4847860247750046, ,0.060937531887104344
114, ,PASS, ,0.08859233500000002, ,0.012156039799759663, ,0.03426371598375543, ,0.001090398154997721, ,1.75, ,0.6758312951564164, ,0.48696965368053713, ,0.06593742984837044
115, ,PASS, ,0.08844567299999999, ,0.012059258151936718, ,0.03403041625926002, ,0.001080165063708566, ,1.75, ,0.674410244642292, ,0.4848064325217853, ,0.06224362768106773
116, ,PASS, ,0.08870624600000004, ,0.01207497636430363, ,0.03411651223281158, ,0.0010847328364336705, ,1.75, ,0.6738955416112304, ,0.48535744168486356, ,0.06405991714454808
117, ,PASS, ,0.08870191700000003, ,0.01209474762821834, ,0.03403202797779637, ,0.0010863713619966289, ,1.75, ,0.6744594648083849, ,0.4851941797106181, ,0.06471296504152976
118, ,PASS, ,0.08863416400000002, ,0.012022265021245206, ,0.034085709363686455, ,0.0010796850401667852, ,1.75, ,0.6722341531127122, ,0.48443909307973304, ,0.05575396420481215
119, ,PASS, ,0.08837678100000002, ,0.012115478362281194, ,0.034250121194261345, ,0.0010843804937474644, ,1.75, ,0.676164047136052, ,0.4868472071998531, ,0.06548845941919552
120, ,PASS, ,0.08815685000000002, ,0.011996702183922858, ,0.034327107174955615, ,0.0010713029213160873, ,1.75, ,0.6748589048670479, ,0.4851941797106181, ,0.06275382135058469
121, ,PASS, ,0.08832302800000005, ,0.012098277759606873, ,0.03427092536764556, ,0.001081702422910225, ,1.75, ,0.6738106100144705, ,0.4851533642170568, ,0.061651803024428076
122, ,PASS, ,0.08829831500000002, ,0.012046626026048066, ,0.03440213131160589, ,0.001077648332703942, ,1.75, ,0.6743292623111706, ,0.48639823677067817, ,0.06157017203730536
123, ,PASS, ,0.08859095500000003, ,0.012088644473761024, ,0.03406592260096732, ,0.0010842430113944357, ,1.75, ,0.6726752752961078, ,0.48466357829432055, ,0.06024366849656129
124, ,PASS, ,0.08773794399999998, ,0.011921731313080127, ,0.034135735989265524, ,0.0010598957726240409, ,1.75, ,0.6732275278391989, ,0.48627579028999407, ,0.05528458602885655
125, ,PASS, ,0.087975609, ,0.011977466182877846, ,0.034064621748943896, ,0.0010674130405125565, ,1.75, ,0.6740467250983493, ,0.48501050998959205, ,0.062161996693945024
126, ,PASS, ,0.08829683900000002, ,0.012008698155870598, ,0.03408879143037897, ,0.0010738454935729416, ,1.75, ,0.67291042452004, ,0.48494928674925003, ,0.05901920368972062
127, ,PASS, ,0.08822278800000001, ,0.012100268622769734, ,0.0343361431383033, ,0.001081171093799907, ,1.75, ,0.6753194158228908, ,0.4868472071998531, ,0.06252933613599722
128, ,PASS, ,0.08822212600000005, ,0.011972218989204244, ,0.03464323125813759, ,0.0010696244210284696, ,1.75, ,0.6740133740242142, ,0.48705128466765985, ,0.060508969204710106
129, ,PASS, ,0.08834933400000003, ,0.012047057691234906, ,0.03439873740801208, ,0.0010777795986139755, ,1.75, ,0.6746424542584986, ,0.48537784943164425, ,0.06401910165098672
130, ,PASS, ,0.08859457100000007, ,0.01211525264073252, ,0.03474143230791209, ,0.0010875395135016865, ,1.75, ,0.6757734949081263, ,0.48870431215689475, ,0.06259055937633926
131, ,PASS, ,0.08872883000000006, ,0.012102877837421819, ,0.03451846587151283, ,0.0010878261263294374, ,1.75, ,0.6750658869863713, ,0.48670435297238834, ,0.063937470663864
132, ,PASS, ,0.08889236900000005, ,0.012116772515180334, ,0.034496685412338524, ,0.0010910263929486137, ,1.75, ,0.6736783001083356, ,0.4869900614273178, ,0.05944776637211485
133, ,PASS, ,0.08865475500000006, ,0.012166025291095206, ,0.0343948615750699, ,0.001091825362212557, ,1.75, ,0.6761331894803682, ,0.4864186445174588, ,0.06454970306728434
134, ,PASS, ,0.08855501600000004, ,0.01210893553517909, ,0.0342566177900451, ,0.0010856670710667966, ,1.75, ,0.674633719728123, ,0.48452072406685576, ,0.06303952980551418
135, ,PASS, ,0.08848349700000004, ,0.012145231583681759, ,0.034310040961613025, ,0.0010876366549518132, ,1.75, ,0.674737243125073, ,0.4853166261913022, ,0.06224362768106773
136, ,PASS, ,0.08840688600000005, ,0.012065117486030634, ,0.034287916107834535, ,0.0010801564701457557, ,1.75, ,0.6740980291847342, ,0.4848064325217853, ,0.061304871329156546
137, ,PASS, ,0.08848110600000006, ,0.012083918000500618, ,0.03420926756882513, ,0.0010829564970393753, ,1.75, ,0.675513710669663, ,0.484888063508908, ,0.06540682843207281
138, ,PASS, ,0.08871321900000005, ,0.012071672329478903, ,0.034250584970714884, ,0.0010840335210013793, ,1.75, ,0.6725877352304201, ,0.4846839860411012, ,0.058468194526642314
139, ,PASS, ,0.08840244600000007, ,0.012075144554803022, ,0.03436221008448807, ,0.001080941016548447, ,1.75, ,0.67487698162903, ,0.48501050998959205, ,0.0640395093977674
140, ,PASS, ,0.08840108200000002, ,0.01215152234090328, ,0.034330834001959146, ,0.0010871819622308328, ,1.75, ,0.6759548466255734, ,0.4856227423930124, ,0.06508030448358197
141, ,PASS, ,0.08996151700000006, ,0.012223906070358058, ,0.034330262245056226, ,0.0011135456724588805, ,1.75, ,0.6723494049406504, ,0.4847043937878819, ,0.06022326074978061
142, ,PASS, ,0.08916606300000006, ,0.01218256858299048, ,0.034414251952000985, ,0.0011001099707993946, ,1.75, ,0.6750064334706121, ,0.4864798677578009, ,0.06224362768106773
143, ,PASS, ,0.08860016600000004, ,0.012126102845749777, ,0.03443538469582254, ,0.0010881058660452366, ,1.75, ,0.6758309066876428, ,0.4868472071998531, ,0.06330483051366298
144, ,PASS, ,0.08857108900000003, ,0.012141949102902456, ,0.03427710159037571, ,0.0010886907344730364, ,1.75, ,0.6752253805674514, ,0.48499010224281136, ,0.06493745025611722
145, ,PASS, ,0.08863467400000002, ,0.012140080484458256, ,0.03439265281075897, ,0.0010896799137847478, ,1.75, ,0.6739358325797967, ,0.48621456704965205, ,0.06067223117895553
146, ,PASS, ,0.08842539200000005, ,0.012073801770525024, ,0.03425215045060305, ,0.0010812396431358095, ,1.75, ,0.6749301907608992, ,0.4852349952041795, ,0.06420277137201282
147, ,PASS, ,0.08870670300000005, ,0.012122839804519538, ,0.03420043541764454, ,0.0010887358775560397, ,1.75, ,0.6741253049045093, ,0.4851737719638375, ,0.06438644109303891
148, ,PASS, ,0.08869363500000003, ,0.012086929950346579, ,0.03453853898593906, ,0.0010860359050265424, ,1.75, ,0.6746333604454934, ,0.4869288381869758, ,0.06340686924756637
149, ,PASS, ,0.08993272000000005, ,0.012254933363278599, ,0.034235434279708585, ,0.0011158272495222425, ,1.75, ,0.672115037343827, ,0.48613293606252933, ,0.06157017203730536
150, ,PASS, ,0.08957935800000008, ,0.012185487638543973, ,0.034165744965000716, ,0.0011050101889055431, ,1.75, ,0.6724843787710085, ,0.48425542335870697, ,0.06371298544927655
151, ,PASS, ,0.08887897000000008, ,0.012120987909535098, ,0.03433145689414502, ,0.0010911160107678383, ,1.75, ,0.6734365166806365, ,0.484888063508908, ,0.06369257770249587
152, ,PASS, ,0.08901451000000005, ,0.012193425487194681, ,0.03428670292626681, ,0.0010990949204258177, ,1.75, ,0.6760172573066102, ,0.486724760719169, ,0.06716189465521112
153, ,PASS, ,0.08927071800000007, ,0.012183028715707261, ,0.034428074570314895, ,0.0011016362593899522, ,1.75, ,0.6746281621330954, ,0.48658190649170424, ,0.06430481010591621
154, ,PASS, ,0.08919042100000008, ,0.012209063531078606, ,0.034228217259035534, ,0.001102542767486974, ,1.75, ,0.6750496837825897, ,0.48615334380931, ,0.06414154813167078
155, ,PASS, ,0.08904939200000006, ,0.01214144129675239, ,0.034384569032876885, ,0.0010949427144794877, ,1.75, ,0.6726314084570308, ,0.48582681986081916, ,0.05993755229485113
156, ,PASS, ,0.08932969600000008, ,0.012134606155484855, ,0.03433364886981899, ,0.0010976937634652772, ,1.75, ,0.6730742300244703, ,0.48490847125568864, ,0.06326401502010164
157, ,PASS, ,0.08918441700000007, ,0.012156184815400841, ,0.034262175917838415, ,0.0010974093358799217, ,1.75, ,0.6733987894350549, ,0.48466357829432055, ,0.06350890798146977
158, ,PASS, ,0.08923850000000007, ,0.012223672134653935, ,0.034454889853064226, ,0.0011044736428436031, ,1.75, ,0.6739864094450451, ,0.48668394522560765, ,0.06379461643639926
159, ,PASS, ,0.08923243900000008, ,0.012161827894854933, ,0.03434677536682925, ,0.001099228085549933, ,1.75, ,0.6730876986847336, ,0.48576559662047714, ,0.06038652272402604
160, ,PASS, ,0.08945502400000005, ,0.012119755048686658, ,0.03437438895920492, ,0.0010980575625546061, ,1.75, ,0.6716947925380052, ,0.4842146078651456, ,0.059223281157527397
161, ,PASS, ,0.08935844300000007, ,0.012168527227927026, ,0.03438484580845289, ,0.0011011802967294687, ,1.75, ,0.6746894894835698, ,0.48545948041876696, ,0.06438644109303891
162, ,PASS, ,0.08924312200000006, ,0.012126747849361045, ,0.03443816383890125, ,0.0010961820818169601, ,1.75, ,0.673449941864214, ,0.4853370339380829, ,0.06201914246648028
163, ,PASS, ,0.08889680600000006, ,0.012129690399542722, ,0.03444039880635089, ,0.0010921757970790108, ,1.75, ,0.6746279331790818, ,0.48511254872349546, ,0.06440684883981959
164, ,PASS, ,0.08872523100000006, ,0.012103950293852138, ,0.03436172097426583, ,0.0010874975184129469, ,1.75, ,0.6740144999475247, ,0.4856431501397931, ,0.06036611497724536
165, ,PASS, ,0.08906212900000007, ,0.012188462669756466, ,0.034356547102099955, ,0.001099083893425331, ,1.75, ,0.675093837351638, ,0.4853370339380829, ,0.06246811289565519
166, ,PASS, ,0.08883968100000005, ,0.012191666949019339, ,0.034250184019101654, ,0.0010961991695612279, ,1.75, ,0.6740439281729534, ,0.4833982979939185, ,0.06071304667251689
167, ,PASS, ,0.08851592000000005, ,0.012181494239966667, ,0.034407893408705946, ,0.0010922583879066268, ,1.75, ,0.6777461356594211, ,0.4869084304401951, ,0.068753698904104
168, ,PASS, ,0.08894721100000005, ,0.012222348396028301, ,0.03451053652986674, ,0.0011009472203739152, ,1.75, ,0.6770451027617085, ,0.4875614783371768, ,0.06646803126466806
169, ,PASS, ,0.08878007600000004, ,0.012135800105931975, ,0.03428548390257342, ,0.0010914347283122903, ,1.75, ,0.6751197856521942, ,0.48527581069774084, ,0.0656109058998796
170, ,PASS, ,0.08890936800000004, ,0.012202591106754607, ,0.03432973554437665, ,0.001098520660586733, ,1.75, ,0.6757310367370638, ,0.48541866492520563, ,0.06493745025611722
171, ,PASS, ,0.08879803400000003, ,0.012279020857213913, ,0.034380613224424, ,0.0011041950042002906, ,1.75, ,0.6777845889030331, ,0.4878063712985449, ,0.0694883777882084
172, ,PASS, ,0.08879808100000004, ,0.012236991553564721, ,0.03418948653517275, ,0.001100228857888591, ,1.75, ,0.6775348505717741, ,0.48584722760759985, ,0.0697740862431379
173, ,PASS, ,0.08894822500000006, ,0.012222813509216378, ,0.03446869447725557, ,0.0011012385261201737, ,1.75, ,0.6776372991522062, ,0.48592885859472257, ,0.06824350523458705
174, ,PASS, ,0.08925477700000006, ,0.01218802513060005, ,0.034456932290157345, ,0.001101792034657884, ,1.75, ,0.6741348159745599, ,0.48547988816554766, ,0.06399869390420604
175, ,PASS, ,0.08939744900000005, ,0.01221018956602813, ,0.03426274133527887, ,0.001105888590038663, ,1.75, ,0.6753395658034593, ,0.4857043733801351, ,0.06516193547070467
176, ,PASS, ,0.09008024400000005, ,0.01233022950832821, ,0.03436906888206363, ,0.0011244977535568815, ,1.75, ,0.6737422927971626, ,0.4864594600110202, ,0.06142731780984061
177, ,PASS, ,0.09003674500000007, ,0.012380265470480352, ,0.03439632888818596, ,0.0011284964313222456, ,1.75, ,0.6760865029372631, ,0.4859900818350646, ,0.06646803126466806
178, ,PASS, ,0.09034428200000008, ,0.012354598844235993, ,0.03424238431011613, ,0.001130086356077724, ,1.75, ,0.675048664313015, ,0.4856227423930124, ,0.06554968265953756
179, ,PASS, ,0.09074354600000004, ,0.01236969733348058, ,0.03427905294851126, ,0.0011369706834800522, ,1.75, ,0.6744382740638822, ,0.48574518887369644, ,0.06546805167241485
180, ,PASS, ,0.10656639999999998, ,0.013902635713888367, ,0.03383811895367442, ,0.0014996519507158499, ,1.75, ,0.6565096882555628, ,0.48382686067631275, ,0.04799902042815453
181, ,PASS, ,0.14586000000000016, ,0.024865992271942482, ,0.026705152152108745, ,0.003699366083165565, ,1.8333333333333333, ,0.797746400990615, ,0.5010714067059856, ,0.28056570274076037
182, ,PASS, ,0.09093587400000006, ,0.013047590920088671, ,0.03461813394351136, ,0.0012020406960391685, ,1.8333333333333333, ,0.6945642954681994, ,0.49039815513969104, ,0.08305952939735924
183, ,PASS, ,0.087736009, ,0.012780896335890237, ,0.03473385688983898, ,0.0011357751906527196, ,1.8333333333333333, ,0.6997975789134175, ,0.491030795289892, ,0.08875329074916838
184, ,PASS, ,0.08730500499999999, ,0.012763199725344662, ,0.03483102040791004, ,0.001128636617765789, ,1.75, ,0.7005446288025107, ,0.4926634150323463, ,0.0875288259423277
185, ,PASS, ,0.08743252, ,0.012729138197265448, ,0.03462009066753739, ,0.001127178009400605, ,1.75, ,0.6992996789157899, ,0.4906430481010592, ,0.08471255688659415
186, ,PASS, ,0.086840643, ,0.012729283524544794, ,0.0345521900727128, ,0.0011195159875784272, ,1.75, ,0.7016413397645694, ,0.49082671782208526, ,0.08818187383930941
187, ,PASS, ,0.08723102699999997, ,0.012690947152615567, ,0.034616700147445965, ,0.0011218102103631058, ,1.75, ,0.7002334055066053, ,0.4911532417705761, ,0.08897777596375585
188, ,PASS, ,0.08734843199999998, ,0.012682968326581143, ,0.03453810715187445, ,0.0011224223372684177, ,1.8333333333333333, ,0.6989806583964465, ,0.4905001938735944, ,0.08803901961184465
189, ,PASS, ,0.08785361800000002, ,0.012745059966380513, ,0.034699709036182934, ,0.0011349969523395756, ,1.8333333333333333, ,0.7006310154093144, ,0.4918266974143385, ,0.08916144568478195
190, ,PASS, ,0.08774801500000001, ,0.012720559205445557, ,0.03450882889485929, ,0.0011307965308164638, ,1.8333333333333333, ,0.6985120219762663, ,0.4907859023285239, ,0.08434521744454195
191, ,PASS, ,0.08782107300000001, ,0.012784098626320588, ,0.03462571715585396, ,0.0011372026937567115, ,1.8333333333333333, ,0.6985369227747177, ,0.49194914389502253, ,0.08287585967633314
192, ,PASS, ,0.08729159599999999, ,0.012725942207436267, ,0.034520391090100196, ,0.0011252465412801107, ,1.8333333333333333, ,0.7004017492124539, ,0.4909899797963307, ,0.08691659353890736
193, ,PASS, ,0.08716113699999997, ,0.012712611069789747, ,0.0344945155537438, ,0.0011222794082463787, ,1.8333333333333333, ,0.7002547294518509, ,0.4902553009122263, ,0.086243137895145
194, ,PASS, ,0.08700401899999997, ,0.012667079572276764, ,0.03457374829256545, ,0.0011168706670134448, ,1.8333333333333333, ,0.7008087006449798, ,0.4906430481010592, ,0.08889614497663313
195, ,PASS, ,0.08706160099999999, ,0.012657721248444349, ,0.03463525699985714, ,0.0011168261808320134, ,1.8333333333333333, ,0.7003610359140148, ,0.49084712556886595, ,0.08744719495520499
196, ,PASS, ,0.08721562199999998, ,0.012706771005609895, ,0.034772644959980406, ,0.0011233930794952156, ,1.8333333333333333, ,0.7016946607921434, ,0.49258178404522357, ,0.08820228158609009
197, ,PASS, ,0.08707386599999997, ,0.012769728631732062, ,0.034577602393808284, ,0.001126257207343028, ,1.8333333333333333, ,0.7022557615598939, ,0.49207159037570664, ,0.08977367808820229
198, ,PASS, ,0.08675457299999997, ,0.01265157692672446, ,0.03472398032791167, ,0.0011124030767910508, ,1.8333333333333333, ,0.7023406668434033, ,0.4910103875431114, ,0.09034509499806126
199, ,PASS, ,0.08677101499999995, ,0.012737730997910743, ,0.034683787462031386, ,0.0011196266832814957, ,1.8333333333333333, ,0.7024675483980666, ,0.49201036713536456, ,0.08926348441868533
200, ,PASS, ,0.08669118899999997, ,0.01269393029976801, ,0.03464954859160017, ,0.0011146510292159347, ,1.8333333333333333, ,0.7025321399827132, ,0.4920919981224873, ,0.09110018162894634
201, ,PASS, ,0.08704893399999998, ,0.012747927859309066, ,0.03473541521007734, ,0.0011244204257425346, ,1.8333333333333333, ,0.7028259772626344, ,0.4925613762984429, ,0.09038591049162262
202, ,PASS, ,0.08702494499999996, ,0.012697845730142902, ,0.034786123886614555, ,0.0011201568044467767, ,1.8333333333333333, ,0.7017434906783514, ,0.49217362910961, ,0.09018183302381584
203, ,PASS, ,0.08724988199999996, ,0.012731042440996907, ,0.03458560742331789, ,0.0011253870268799087, ,1.8333333333333333, ,0.7020507434630718, ,0.4926634150323463, ,0.0879165731311606
204, ,PASS, ,0.08719740299999998, ,0.012726799492291161, ,0.034604306763127285, ,0.0011243351977187808, ,1.8333333333333333, ,0.700272319567387, ,0.4902348931654456, ,0.08775331115691516
205, ,PASS, ,0.08724560999999995, ,0.012732319557255964, ,0.034446047106365174, ,0.0011249920679383995, ,1.8333333333333333, ,0.7004506278216278, ,0.4905818248607171, ,0.08789616538437992
206, ,PASS, ,0.08721247399999994, ,0.01268415326200912, ,0.034377630859084504, ,0.0011207516346069951, ,1.8333333333333333, ,0.6992840321275491, ,0.49009203893798087, ,0.08591661394665415
207, ,PASS, ,0.087515841, ,0.012752003812899251, ,0.03471940344776637, ,0.0011301270863400472, ,1.8333333333333333, ,0.6995028228885202, ,0.4922756678435134, ,0.08267178220852636
208, ,PASS, ,0.08738559699999998, ,0.012707437058234369, ,0.0346000478938389, ,0.0011251387174273494, ,1.8333333333333333, ,0.6992041060930879, ,0.49029611640578763, ,0.08352890757331483
209, ,PASS, ,0.08749473999999999, ,0.01276026101291633, ,0.03474320370292443, ,0.0011314001832018572, ,1.8333333333333333, ,0.7011735434633963, ,0.49217362910961, ,0.09010020203669312
210, ,PASS, ,0.087622057, ,0.012729374868278485, ,0.03454306253447889, ,0.0011300903249070078, ,1.8333333333333333, ,0.6991725214873326, ,0.4902348931654456, ,0.08844717454745822
211, ,PASS, ,0.087608723, ,0.012703570539957739, ,0.03457695367608824, ,0.0011276882676268141, ,1.8333333333333333, ,0.6993683174975736, ,0.4905001938735944, ,0.08499826534152365
212, ,PASS, ,0.08918325400000007, ,0.012853971175888735, ,0.034395397633558505, ,0.0011610788818156676, ,1.8333333333333333, ,0.6945292478993336, ,0.4890308361053856, ,0.0811412011999755
213, ,PASS, ,0.08826453100000003, ,0.01273700703255135, ,0.03454521716293545, ,0.0011389552473962535, ,1.8333333333333333, ,0.6966906580962976, ,0.4890512438521663, ,0.08201873431154466
214, ,PASS, ,0.08784683300000003, ,0.012739312247140698, ,0.03482884654139712, ,0.0011337736617868148, ,1.8333333333333333, ,0.6978494207886068, ,0.4913369114916022, ,0.08428399420419991
215, ,PASS, ,0.08784618799999998, ,0.012679016113540198, ,0.03447507325234179, ,0.0011292960655753337, ,1.8333333333333333, ,0.6980490459548719, ,0.49127568825126017, ,0.08228403501969347
216, ,PASS, ,0.08785050600000001, ,0.012781020749103832, ,0.034574740551764245, ,0.0011370086480941447, ,1.8333333333333333, ,0.6988824900459173, ,0.49001040795085815, ,0.08536560478357584
217, ,PASS, ,0.08788948, ,0.012743449369651355, ,0.034570335797840857, ,0.0011346210470103669, ,1.8333333333333333, ,0.6979598750736432, ,0.48825534172771984, ,0.07916164976224975
218, ,PASS, ,0.087569978, ,0.01275291636414331, ,0.03463193637125773, ,0.001131468662063539, ,1.8333333333333333, ,0.7013198926756765, ,0.4898675537233934, ,0.0917940450194894
219, ,PASS, ,0.08730371399999995, ,0.012687778187428927, ,0.03437098945939879, ,0.0011224006201155858, ,1.8333333333333333, ,0.698885516168211, ,0.48996959245729677, ,0.0854064202771372
220, ,PASS, ,0.08845956200000005, ,0.012761733493735692, ,0.03454812936005388, ,0.0011440557559779295, ,1.8333333333333333, ,0.6973465560204852, ,0.4897246994959287, ,0.08587579845309279
221, ,PASS, ,0.08747387999999998, ,0.012714227053177637, ,0.03449047262423215, ,0.0011270820419679707, ,1.8333333333333333, ,0.7002012256298751, ,0.49037774739291035, ,0.08603906042733822
222, ,PASS, ,0.08677071399999998, ,0.012725826134101868, ,0.03473522328774922, ,0.0011187716314932314, ,1.8333333333333333, ,0.7026424332969685, ,0.49201036713536456, ,0.09201853023407686
223, ,PASS, ,0.08659570099999996, ,0.012683890942799212, ,0.034624507646517415, ,0.0011127793066010442, ,1.8333333333333333, ,0.70210531993654, ,0.49072467908818185, ,0.09061039570621007
224, ,PASS, ,0.08687566599999998, ,0.012624665306252296, ,0.03461551245439889, ,0.0011116980525871698, ,1.8333333333333333, ,0.7004365010266065, ,0.49035733964612965, ,0.08622273014836432
225, ,PASS, ,0.08700589899999998, ,0.012675989459002897, ,0.03473204767765964, ,0.0011172728753674694, ,1.8333333333333333, ,0.7016505580433304, ,0.4922960755902941, ,0.08946756188649212
226, ,PASS, ,0.08687710599999998, ,0.012658798449480228, ,0.0345638609694496, ,0.001114109477816716, ,1.8333333333333333, ,0.6997656677998799, ,0.4900716311912002, ,0.08924307667190466
227, ,PASS, ,0.08716850199999997, ,0.012661472590128993, ,0.03468288809942654, ,0.0011180896814240626, ,1.8333333333333333, ,0.6983420821079784, ,0.4918266974143385, ,0.08138609416134365
228, ,PASS, ,0.08715522299999999, ,0.012695327663659332, ,0.03466662030836105, ,0.0011208970286427065, ,1.8333333333333333, ,0.7002545104537956, ,0.49170425093365444, ,0.08389624701536703
229, ,PASS, ,0.087362695, ,0.012733710968509858, ,0.03471433880212648, ,0.0011266760623348832, ,1.8333333333333333, ,0.7004686428288651, ,0.49205118262892594, ,0.08834513581355483
230, ,PASS, ,0.087215778, ,0.012626449464169036, ,0.03470175548601049, ,0.0011163561761230786, ,1.8333333333333333, ,0.6999406998900485, ,0.49176547417399646, ,0.08583498295953144
231, ,PASS, ,0.08706516, ,0.012614953790470689, ,0.034814642317646576, ,0.0011129501481515174, ,1.8333333333333333, ,0.6986773163453922, ,0.4905410093671558, ,0.08630436113548703
232, ,PASS, ,0.08717090800000003, ,0.012695752024956947, ,0.034736892711658945, ,0.0011212765042945998, ,1.8333333333333333, ,0.6991813078918494, ,0.4918266974143385, ,0.08665129283075855
233, ,PASS, ,0.087294158, ,0.012694621276192098, ,0.03469241817142507, ,0.0011227695907563798, ,1.8333333333333333, ,0.698976029807539, ,0.4918266974143385, ,0.08581457521275077
234, ,PASS, ,0.08717978799999995, ,0.012642118734964116, ,0.03440648029497357, ,0.0011167582325956125, ,1.8333333333333333, ,0.6997803367355809, ,0.4908879410624273, ,0.09150833656455991
235, ,PASS, ,0.08720417199999998, ,0.01265832071242525, ,0.034598718814085425, ,0.0011182221751751377, ,1.8333333333333333, ,0.69861019832048, ,0.48960225301524457, ,0.08646762310973245
236, ,PASS, ,0.08745819800000001, ,0.012679121913999945, ,0.034844897576600475, ,0.0011238658974698486, ,1.8333333333333333, ,0.6988080628634803, ,0.49029611640578763, ,0.0883655435603355
237, ,PASS, ,0.08757822399999997, ,0.012712424102530626, ,0.03464841687655354, ,0.0011281203469544051, ,1.8333333333333333, ,0.6997979220410059, ,0.4921940368563907, ,0.08754923368910839
238, ,PASS, ,0.087354828, ,0.012719860142101263, ,0.0347933745408257, ,0.0011258145141067508, ,1.8333333333333333, ,0.7003040314286189, ,0.49211240586926797, ,0.08932470765902736
239, ,PASS, ,0.08727957699999998, ,0.01273343666709213, ,0.034719455135303355, ,0.001125733481427936, ,1.8333333333333333, ,0.6998527501791771, ,0.49194914389502253, ,0.08834513581355483
240, ,PASS, ,0.08732357099999997, ,0.012677810927520631, ,0.03446701213762984, ,0.0011221336665497878, ,1.8333333333333333, ,0.7001849942144126, ,0.4905206016203751, ,0.08812065059896737
241, ,PASS, ,0.08711939599999996, ,0.012675515997310876, ,0.03434791789918573, ,0.0011186841350848704, ,1.8333333333333333, ,0.7004873000990199, ,0.48907165159894694, ,0.09032468725128058
242, ,PASS, ,0.08682840299999997, ,0.012652822332278614, ,0.03456290283743189, ,0.0011135252782289646, ,1.8333333333333333, ,0.7003927076690297, ,0.491540988959409, ,0.08469214913981347
243, ,PASS, ,0.08706913599999998, ,0.012692037136116571, ,0.034560801458847774, ,0.0011193769335566897, ,1.75, ,0.7004702530003258, ,0.49056141711393647, ,0.08722270974061754
244, ,PASS, ,0.087356611, ,0.012698161083288348, ,0.0347333277766168, ,0.0011244215220019957, ,1.8333333333333333, ,0.699459551041781, ,0.4918879206546805, ,0.08256974347462297
245, ,PASS, ,0.08696090099999995, ,0.012746623401846744, ,0.03465589399491847, ,0.0011225944282356435, ,1.75, ,0.702095069078464, ,0.49170425093365444, ,0.09326340278769821
246, ,PASS, ,0.08677429699999997, ,0.012669739995156715, ,0.03459130857888614, ,0.0011140727897992859, ,1.75, ,0.7020987582021729, ,0.49129609599804086, ,0.09183486051305076
247, ,PASS, ,0.08716919399999998, ,0.012692264904568878, ,0.03459066434609497, ,0.0011213703210740636, ,1.75, ,0.7006357034356611, ,0.4906430481010592, ,0.08838595130711618
248, ,PASS, ,0.08755887299999998, ,0.012757645792041425, ,0.03459091057186588, ,0.0011314588457645373, ,1.75, ,0.6993485921791964, ,0.49045937838003306, ,0.08675333156466195
249, ,PASS, ,0.08795099800000004, ,0.012814852001680777, ,0.0349106237974123, ,0.0011416213787103647, ,1.8333333333333333, ,0.6998641567540337, ,0.4919083284014612, ,0.08910022244443991
250, ,PASS, ,0.08864481200000002, ,0.012792203451850675, ,0.03452684401940777, ,0.0011491533712838565, ,1.75, ,0.6974096573943717, ,0.49039815513969104, ,0.08487581886083957
251, ,PASS, ,0.11181702, ,0.01464173858531643, ,0.03395077697040877, ,0.0016575945569251343, ,1.75, ,0.6580866368179866, ,0.4856635578865737, ,0.04467255770290402
252, ,PASS, ,0.14586000000000016, ,0.022966581988346172, ,0.027158219191812428, ,0.0034150200785195914, ,1.8333333333333333, ,0.7683249787686667, ,0.4982755453970327, ,0.24785208465133365
253, ,PASS, ,0.11683122999999988, ,0.012024145349602545, ,0.03259684589538989, ,0.0014180779585460262, ,1.75, ,0.5721885696210409, ,0.4600722434236036, ,0.01577518826146405
254, ,PASS, ,0.1149861, ,0.011734457837438013, ,0.03281004573518908, ,0.0013621976192897066, ,1.75, ,0.5694115534077342, ,0.4597661272218934, ,0.0148976551498949
255, ,PASS, ,0.11421466000000008, ,0.01167684854972354, ,0.03242788180710598, ,0.0013455752307655914, ,1.5833333333333333, ,0.5712908167621837, ,0.45864370114895614, ,0.01828534111548744
