Channel, ,Pass/Fail, ,Amplitude, ,Sorting Function Response, ,Mean, ,Variance, ,NPeaksRatio, ,PosIntegralRatio, ,ToT50, ,ToT99
6, ,PASS, ,0.016894600000000023, ,0.002361916842551541, ,0.03824494408154936, ,4.143027613873054e-05, ,1.8333333333333333, ,0.764947752703044, ,0.40570600599987755, ,0.028958592681782004
7, ,PASS, ,0.03095884000000002, ,0.0044676116235137205, ,0.037191241730168766, ,0.00014300360618772984, ,1.8333333333333333, ,0.7846085126364812, ,0.4042774637252301, ,0.05081528948388808
8, ,PASS, ,0.015945280000000006, ,0.0011232576806924374, ,0.03908562165445603, ,1.8519155436744212e-05, ,1.5, ,0.497168303936773, ,0.41952205057039654, ,0.02542805248872472
9, ,PASS, ,0.011439060000000029, ,0.0005249967150257516, ,0.03927462518030244, ,6.2834254112898765e-06, ,0.8333333333333334, ,0.3371568381993645, ,0.446358237586988, ,0.019020019999591846
10, ,PASS, ,0.011282840000000037, ,0.0005124077034785719, ,0.03905840687251281, ,6.078805251682366e-06, ,0.8333333333333334, ,0.3184758271802559, ,0.4706842717495561, ,0.015571110793657273
11, ,PASS, ,0.010769060000000032, ,0.0004755794249271746, ,0.03930881441746087, ,5.247650029604477e-06, ,0.8333333333333334, ,0.2955499015960673, ,0.5048876553539724, ,0.019326136201302014
12, ,PASS, ,0.011241310000000032, ,0.0005116946620930966, ,0.0394124109365115, ,5.980935757299615e-06, ,0.8333333333333334, ,0.32982864608822315, ,0.4382359543682782, ,0.017020060815085405
13, ,PASS, ,0.011260490000000033, ,0.00048121882463756125, ,0.039362861763025246, ,5.693327287427636e-06, ,0.8333333333333334, ,0.3481272160581477, ,0.38144119507765145, ,0.016244566437419644
14, ,PASS, ,0.010536260000000013, ,0.0005004035417450518, ,0.03928891363502786, ,5.44300809208687e-06, ,0.9166666666666666, ,0.3603238796808256, ,0.44705210097753106, ,0.01757106997816371
15, ,PASS, ,0.01062906000000001, ,0.0004868512143750864, ,0.03923637279259607, ,5.411742083122878e-06, ,0.8333333333333334, ,0.3514962744095197, ,0.41780779984081956, ,0.01967306789657354
16, ,PASS, ,0.011197880000000042, ,0.0004920873570810858, ,0.03921633861615069, ,5.795805674681977e-06, ,0.8333333333333334, ,0.33484334160139145, ,0.436093140956307, ,0.018754719291443032
17, ,PASS, ,0.010393869999999986, ,0.0004564887839645903, ,0.039318842895655196, ,5.023583335711178e-06, ,0.8333333333333334, ,0.3787883545415109, ,0.37860451827513725, ,0.015428256566192526
18, ,PASS, ,0.010615250000000014, ,0.00046903384644794206, ,0.03912383187771678, ,5.227875395959814e-06, ,0.9166666666666666, ,0.298675662764133, ,0.5367033325850493, ,0.01846901083651354
19, ,PASS, ,0.010763990000000043, ,0.00047958996744783386, ,0.03903874060039591, ,5.3910328770470445e-06, ,0.8333333333333334, ,0.319984958521405, ,0.45105201934654393, ,0.018775127038223708
20, ,PASS, ,0.01096206000000001, ,0.0005357058393588752, ,0.03937286467133324, ,6.14835561862157e-06, ,0.9166666666666666, ,0.40454038257415403, ,0.41119568988387994, ,0.018387379849390827
21, ,PASS, ,0.011099710000000033, ,0.0005199306967353512, ,0.03899832725719883, ,6.0271773485879654e-06, ,0.8333333333333334, ,0.3115181217518808, ,0.4938470643456256, ,0.01648945939878778
22, ,PASS, ,0.01060366, ,0.00047146636006502925, ,0.039220917026999445, ,5.238848462826139e-06, ,0.8333333333333334, ,0.3758589627005734, ,0.3827064753780535, ,0.01636701291810371
23, ,PASS, ,0.010925180000000034, ,0.0005140711674080868, ,0.03932209138589008, ,5.708025552206404e-06, ,0.75, ,0.2938981753202838, ,0.531336095181731, ,0.003040754270321014
24, ,PASS, ,0.010543790000000018, ,0.000504625051155402, ,0.03932264341829759, ,5.524832329119042e-06, ,0.8333333333333334, ,0.34907738099746394, ,0.4231546294973572, ,0.018611865063978286
25, ,PASS, ,0.010418770000000008, ,0.00047393856087169975, ,0.039351303157894736, ,5.085933414850052e-06, ,0.8333333333333334, ,0.39822394888436624, ,0.37103324421950573, ,0.015897634742148118
26, ,PASS, ,0.01070989000000002, ,0.0004820982202130906, ,0.03923353936593131, ,5.37335323371743e-06, ,0.8333333333333334, ,0.30822411792984905, ,0.47743923593396054, ,0.019020019999591846
27, ,PASS, ,0.010798340000000003, ,0.000490817256443474, ,0.03927390263770127, ,5.5212595153020305e-06, ,0.75, ,0.3581975202670072, ,0.4081549356135589, ,0.018611865063978286
28, ,PASS, ,0.010226570000000011, ,0.0004293194150799164, ,0.03930785568845534, ,4.632565407241172e-06, ,0.8333333333333334, ,0.3485444656067997, ,0.3783392175669884, ,0.015571110793657273
29, ,PASS, ,0.010233150000000003, ,0.0004396285856227695, ,0.03924611734821738, ,4.728565739167892e-06, ,0.8333333333333334, ,0.29863858962279904, ,0.49047978612681375, ,0.01965266014979286
30, ,PASS, ,0.010314520000000015, ,0.00046759522466841236, ,0.039084023874206654, ,4.998888544547957e-06, ,0.8333333333333334, ,0.31188670999765417, ,0.49203077488214525, ,0.019938368604722354
31, ,PASS, ,0.010868770000000007, ,0.0004891179450639103, ,0.03923516979694292, ,5.524614826150014e-06, ,0.8333333333333334, ,0.29803983286810853, ,0.5182139140017551, ,0.018632272810758965
32, ,PASS, ,0.009873260000000016, ,0.0004444532577425475, ,0.03916664313789514, ,4.4889090898773505e-06, ,0.75, ,0.32470218300024384, ,0.46678639211444667, ,0.018366972102610152
33, ,PASS, ,0.010415800000000024, ,0.00046973204170256387, ,0.039230291393236874, ,5.069332007805677e-06, ,0.8333333333333334, ,0.3002365596683042, ,0.5154792759331442, ,0.01787718617987388
34, ,PASS, ,0.01050781000000002, ,0.0004564272932617588, ,0.039128714419705724, ,5.027660778179887e-06, ,0.8333333333333334, ,0.33755098987389465, ,0.42495051121405686, ,0.016305789677761678
35, ,PASS, ,0.010528090000000004, ,0.0005329901528051663, ,0.03939326422868921, ,5.862351954651283e-06, ,1.0, ,0.3870082808423345, ,0.4133793187894125, ,0.016713944613375237
36, ,PASS, ,0.010435210000000021, ,0.0004703709470044742, ,0.039212415745188876, ,5.095849211849357e-06, ,0.8333333333333334, ,0.3599484368955351, ,0.39654292769535315, ,0.018509826330074898
37, ,PASS, ,0.010847160000000008, ,0.0004978350884519478, ,0.03911585082304443, ,5.641009600482546e-06, ,0.8333333333333334, ,0.37930558212776, ,0.3818085345197037, ,0.016509867145568458
38, ,PASS, ,0.010701100000000012, ,0.00045450911966160356, ,0.03936440093120549, ,5.182136538956508e-06, ,0.8333333333333334, ,0.29604272855007574, ,0.4893573600538765, ,0.02024448480643252
39, ,PASS, ,0.010541450000000015, ,0.0004801067101665336, ,0.03934644609763066, ,5.252442061350633e-06, ,0.8333333333333334, ,0.3176004731874764, ,0.46713332380971817, ,0.016530274892349137
40, ,PASS, ,0.010247740000000019, ,0.00046901176863695565, ,0.03910402441113447, ,5.033490262883895e-06, ,0.9166666666666666, ,0.38702308240044037, ,0.38099222464847654, ,0.018958796759249812
41, ,PASS, ,0.010095439999999976, ,0.0004630666212474416, ,0.038959484150119385, ,4.84780242385637e-06, ,0.9166666666666666, ,0.3797042527763567, ,0.4085222750556111, ,0.017611885471725066
42, ,PASS, ,0.010472219999999997, ,0.0004730189439305103, ,0.03891664146486806, ,5.2110070599562045e-06, ,0.9166666666666666, ,0.3588644243676883, ,0.38695128670843454, ,0.01620375094385829
43, ,PASS, ,0.010240550000000001, ,0.0004896509356864372, ,0.038690824042366484, ,5.216402119035423e-06, ,0.8333333333333334, ,0.38995069341472394, ,0.4171955674373992, ,0.01910165098671456
44, ,PASS, ,0.010566400000000031, ,0.00047032033893826475, ,0.038806052557294746, ,5.207802318191252e-06, ,0.9166666666666666, ,0.2913098342336003, ,0.5158874308687578, ,0.01687720658762066
45, ,PASS, ,0.010075410000000035, ,0.0004830486484856096, ,0.03866585375196425, ,5.0978221351435976e-06, ,0.9166666666666666, ,0.36782213244694845, ,0.4176037223730128, ,0.016448643905226424
46, ,PASS, ,0.010614220000000028, ,0.00048236439610941186, ,0.038886416261504866, ,5.329542665199274e-06, ,0.8333333333333334, ,0.3202207082186141, ,0.43735842125670904, ,0.018591457317197607
47, ,PASS, ,0.010213500000000021, ,0.00046693978520727787, ,0.038950197435970696, ,5.00441013348652e-06, ,0.9166666666666666, ,0.35743734969513136, ,0.42441990979775923, ,0.015611926287218629
48, ,PASS, ,0.009846820000000013, ,0.00044376560596098174, ,0.03891571855411114, ,4.488297603013941e-06, ,0.75, ,0.3172246536602442, ,0.4663374216852717, ,0.01599967347605151
49, ,PASS, ,0.010017160000000004, ,0.00043234427555431855, ,0.03870574270076121, ,4.526393377982625e-06, ,0.8333333333333334, ,0.31857995041130444, ,0.431276912716067, ,0.016713944613375237
50, ,PASS, ,0.010596940000000013, ,0.0004930428027574666, ,0.038756540351013245, ,5.363680995589393e-06, ,0.8333333333333334, ,0.3301309742608536, ,0.44243995020509785, ,0.018713903797881674
51, ,PASS, ,0.010840760000000012, ,0.0004912771876136535, ,0.03889195802861166, ,5.49177020773841e-06, ,0.8333333333333334, ,0.3281667293849102, ,0.4242770555702945, ,0.013081365686414563
52, ,PASS, ,0.010401390000000031, ,0.00046698902814235554, ,0.03892989940144079, ,5.047991608249793e-06, ,0.8333333333333334, ,0.3790742831324768, ,0.3726454562151793, ,0.01004061141609355
53, ,PASS, ,0.01050145000000003, ,0.00047078593335892567, ,0.0388328749407155, ,5.212286290857185e-06, ,0.8333333333333334, ,0.3438441469517943, ,0.4088283912573213, ,0.01661190587947185
54, ,PASS, ,0.010375650000000028, ,0.0004618036497549002, ,0.03895587830513663, ,5.019446088371519e-06, ,0.8333333333333334, ,0.3401721473674545, ,0.4321136303340748, ,0.015571110793657273
55, ,PASS, ,0.009911410000000002, ,0.00045231940627210023, ,0.038778793181771805, ,4.600776281049575e-06, ,0.8333333333333334, ,0.3279062769962673, ,0.45825595396012325, ,0.016305789677761678
56, ,PASS, ,0.009920840000000028, ,0.0004428542308060239, ,0.038859182788106364, ,4.600197617379101e-06, ,0.8333333333333334, ,0.32282391351811096, ,0.462010979367768, ,0.01928532070774066
57, ,PASS, ,0.01009716, ,0.0004792606117381355, ,0.039151298873696457, ,4.872678530924619e-06, ,0.8333333333333334, ,0.347298900210522, ,0.4049305116222118, ,0.006591702210158977
58, ,PASS, ,0.010125090000000017, ,0.0004543832435374877, ,0.03876201166629253, ,4.81273452455562e-06, ,0.8333333333333334, ,0.31926860296126225, ,0.4672353625436216, ,0.020428154527458622
59, ,PASS, ,0.010316870000000006, ,0.0004757286267677264, ,0.038975764016244564, ,5.144478886047072e-06, ,0.9166666666666666, ,0.3844789382097205, ,0.40907328421868944, ,0.014142568519009815
60, ,PASS, ,0.010316910000000012, ,0.0004724326832246181, ,0.03897655138282892, ,5.09655264446419e-06, ,0.8333333333333334, ,0.3787378733287588, ,0.3828085141119569, ,0.018428195342952185
61, ,PASS, ,0.010409140000000032, ,0.0004560600607398759, ,0.038875705891512416, ,4.960027100644848e-06, ,0.8333333333333334, ,0.3380453529550349, ,0.4501948939817555, ,0.014326238240035918
62, ,PASS, ,0.010052680000000001, ,0.000467441305544692, ,0.03893786687639028, ,4.913695050333035e-06, ,0.9166666666666666, ,0.4339754338020688, ,0.3287688006367217, ,0.015877226995367442
63, ,PASS, ,0.010136580000000013, ,0.0004346951364830551, ,0.03877657186812514, ,4.5720382742962686e-06, ,0.75, ,0.302694216251861, ,0.45948041876696394, ,0.01757106997816371
64, ,PASS, ,0.010400110000000011, ,0.00045533073197285905, ,0.038985463491561394, ,4.9449183635309055e-06, ,0.8333333333333334, ,0.3063981219217088, ,0.4723577069855717, ,0.01616293545029693
65, ,PASS, ,0.010093510000000007, ,0.00043589454130802616, ,0.03872053324932145, ,4.611352987758409e-06, ,0.8333333333333334, ,0.30373997114568685, ,0.4707046794963368, ,0.015713965021122017
66, ,PASS, ,0.01016808000000001, ,0.00042662046452288024, ,0.038807414709291645, ,4.553598795071735e-06, ,0.75, ,0.3292518629013294, ,0.42699128589212465, ,0.019632252403012182
67, ,PASS, ,0.009857220000000007, ,0.00045693254719298646, ,0.039035255117242505, ,4.627721624010058e-06, ,0.9166666666666666, ,0.35481056782903087, ,0.41239974694393994, ,0.01548947980653456
68, ,PASS, ,0.010186900000000026, ,0.0004545784300623564, ,0.03891216675537234, ,4.8255353045028885e-06, ,0.8333333333333334, ,0.35265796997765164, ,0.4099916328238199, ,0.01579559600824473
69, ,PASS, ,0.010740090000000015, ,0.0004909813741270669, ,0.03874024998530642, ,5.468930079104751e-06, ,0.8333333333333334, ,0.31040144537735964, ,0.470439378788188, ,0.017040468561866084
70, ,PASS, ,0.011916620000000024, ,0.0005628639780625788, ,0.039077948864308897, ,7.00188588344108e-06, ,0.9166666666666666, ,0.37851043675539564, ,0.4196649047978613, ,0.016509867145568458
71, ,PASS, ,0.02728059999999998, ,0.003266948171833134, ,0.03739169542050162, ,9.231913422428344e-05, ,1.8333333333333333, ,0.704254098684768, ,0.40515499683679923, ,0.03724413787473725
72, ,PASS, ,0.008489449999999996, ,0.00036261573995947536, ,0.038851407240056327, ,3.187476862519206e-06, ,0.8333333333333334, ,0.313984399602204, ,0.4940307340666517, ,0.01499969388379829
73, ,PASS, ,0.008459870000000001, ,0.00033518200322971793, ,0.0388634956109059, ,2.9676563326602033e-06, ,0.6666666666666666, ,0.23994055338875384, ,0.5623966857819228, ,0.01844860308973286
74, ,PASS, ,0.008509399999999986, ,0.00034340721217360117, ,0.038867597210465094, ,3.067014642608627e-06, ,0.75, ,0.26894618088919064, ,0.48656149874492355, ,0.01310177343319524
75, ,PASS, ,0.008178660000000011, ,0.0002928780626572565, ,0.038720412399338794, ,2.5827476226226184e-06, ,0.6666666666666666, ,0.3502949974476668, ,0.3346054162159956, ,0.012734433991143037
76, ,PASS, ,0.008219339999999985, ,0.0003425115934692407, ,0.03903339175588253, ,2.922195715183147e-06, ,0.6666666666666666, ,0.3166820717351855, ,0.39023693394012365, ,0.015224179098385747
77, ,PASS, ,0.008248239999999983, ,0.00035909228544475955, ,0.03904962521826085, ,3.020031510856206e-06, ,0.8333333333333334, ,0.2899563661242942, ,0.49286749250015305, ,0.01420379175935185
78, ,PASS, ,0.008038589999999998, ,0.00032346398860019136, ,0.038795562019142464, ,2.677394990783539e-06, ,0.75, ,0.2434890520786172, ,0.6587212505867227, ,0.016224158690638965
79, ,PASS, ,0.007947750000000017, ,0.0003552057509064234, ,0.03901359179894288, ,2.9037763695355584e-06, ,0.8333333333333334, ,0.4608661111417348, ,0.28970837329850413, ,0.01499969388379829
112, ,PASS, ,0.007714599999999988, ,0.00030239359521642517, ,0.03894037246790882, ,2.436688481327867e-06, ,0.75, ,0.2700487315437935, ,0.5172343421562825, ,0.016285381930981
113, ,PASS, ,0.008193059999999981, ,0.0003053865915774665, ,0.038983869303075444, ,2.58345834225093e-06, ,0.75, ,0.2984049418658167, ,0.4713373196465378, ,0.01232627905552948
114, ,PASS, ,0.00802557999999999, ,0.0003107800152719192, ,0.03877030121344462, ,2.627074448825709e-06, ,0.6666666666666666, ,0.26608956536735034, ,0.45907226383135036, ,0.01757106997816371
115, ,PASS, ,0.008619399999999992, ,0.00035912880547832733, ,0.038951519927552504, ,3.2706364436519615e-06, ,0.8333333333333334, ,0.28937723414935984, ,0.5082345258260036, ,0.014060937531887105
116, ,PASS, ,0.007554909999999977, ,0.00029031959855797357, ,0.03875573585845187, ,2.2872630281029635e-06, ,0.75, ,0.24497092711052518, ,0.6210689577763719, ,0.014550723454623375
117, ,PASS, ,0.007789859999999996, ,0.00030220699865902707, ,0.03880003109038591, ,2.4600762493760785e-06, ,0.6666666666666666, ,0.2986162045915366, ,0.42152200975490295, ,0.01904042774637252
118, ,PASS, ,0.007585469999999983, ,0.0002855502635875306, ,0.03890605749168385, ,2.2929233447140997e-06, ,0.6666666666666666, ,0.27942803605026023, ,0.45374584192159345, ,0.014040529785106426
119, ,PASS, ,0.007868840000000002, ,0.00031240725894640783, ,0.038964454286647215, ,2.5908450218686445e-06, ,0.75, ,0.3561705553379517, ,0.3530336115589478, ,0.011550784677863716
120, ,PASS, ,0.007314730000000005, ,0.00027041289037555186, ,0.03867357434113589, ,2.0918880074009893e-06, ,0.6666666666666666, ,0.25232459512270183, ,0.5397644946021509, ,0.017122099548988797
121, ,PASS, ,0.00817277999999999, ,0.0003236673429873738, ,0.03875516101957103, ,2.7496438530451147e-06, ,0.75, ,0.24106723159086094, ,0.59964082365666, ,0.014550723454623375
122, ,PASS, ,0.007452939999999998, ,0.0002975895832660469, ,0.0390518156933532, ,2.3406537325935954e-06, ,0.75, ,0.37120777195800225, ,0.3530132038121671, ,0.017815962939531846
123, ,PASS, ,0.007849020000000005, ,0.00031911140777663626, ,0.03896306591600172, ,2.63212206098364e-06, ,0.75, ,0.4355127424157197, ,0.2787698210240607, ,0.015877226995367442
124, ,PASS, ,0.007602539999999998, ,0.0002892609659080034, ,0.03882668038978797, ,2.3146400095005275e-06, ,0.75, ,0.2952966930226947, ,0.4689087977796372, ,0.007101895879675925
125, ,PASS, ,0.00747206999999999, ,0.0002795638471428531, ,0.038832826307014144, ,2.19431772058237e-06, ,0.6666666666666666, ,0.2601783978450062, ,0.47503112181384055, ,0.015346625579069816
126, ,PASS, ,0.007653689999999984, ,0.0002932696510053952, ,0.038971893746046, ,2.3590938649970304e-06, ,0.6666666666666666, ,0.30817618957592474, ,0.39023693394012365, ,0.017428215750698965
127, ,PASS, ,0.00798253999999999, ,0.00030710293912768, ,0.03891622478296362, ,2.562392687446142e-06, ,0.75, ,0.3034052129217591, ,0.41907308014122163, ,0.013979306544764392
128, ,PASS, ,0.007556489999999978, ,0.00029883550436277144, ,0.03917521303626457, ,2.3619924846415257e-06, ,0.6666666666666666, ,0.28007836959275384, ,0.44825615803759106, ,0.013448705128466767
129, ,PASS, ,0.00749662999999999, ,0.0002719569827692141, ,0.039211672588518605, ,2.1393312124093885e-06, ,0.6666666666666666, ,0.28256896463061476, ,0.4228893287892084, ,0.012265055815187446
130, ,PASS, ,0.0075872599999999915, ,0.0002973079737221102, ,0.0391191987165568, ,2.3495236737569856e-06, ,0.6666666666666666, ,0.298522181867072, ,0.43995020509785515, ,0.017918001673435238
131, ,PASS, ,0.0073585499999999915, ,0.0002958202957548305, ,0.039208896314973166, ,2.2495194734324485e-06, ,0.75, ,0.3299981407108835, ,0.4059713067080264, ,0.014101753025448461
132, ,PASS, ,0.007537849999999999, ,0.00029249594794199783, ,0.03924392160486521, ,2.318347383077487e-06, ,0.75, ,0.300149728465893, ,0.45337850247954126, ,0.01289769596538846
133, ,PASS, ,0.007978309999999995, ,0.00030815849142123823, ,0.03916542918899615, ,2.562948066234326e-06, ,0.6666666666666666, ,0.34537589549182324, ,0.3484622762800759, ,0.012856880471827106
134, ,PASS, ,0.007388809999999975, ,0.0002792690231203198, ,0.039023569921226096, ,2.1662716882382383e-06, ,0.6666666666666666, ,0.26099386493379506, ,0.539315524172976, ,0.014673169935307442
135, ,PASS, ,0.007855579999999987, ,0.0003220151392479905, ,0.039246729965306835, ,2.6292713702152934e-06, ,0.8333333333333334, ,0.3278554245619309, ,0.4042162404848881, ,0.014836431909552866
136, ,PASS, ,0.006983929999999985, ,0.0002673944555044651, ,0.03913101283463603, ,1.9149953175755963e-06, ,0.75, ,0.37620824520496843, ,0.31060590600191834, ,0.014020122038325748
137, ,PASS, ,0.007098729999999991, ,0.00026718789269795663, ,0.03923446611456909, ,2.0255807477432116e-06, ,0.75, ,0.39689522186197934, ,0.31021815881308545, ,0.014020122038325748
138, ,PASS, ,0.007657749999999991, ,0.00030606416741469874, ,0.03904860515887431, ,2.471194555804766e-06, ,0.8333333333333334, ,0.2676468808385226, ,0.5321115895593967, ,0.012652803004020326
139, ,PASS, ,0.007485219999999994, ,0.00031911274773384276, ,0.03921474317422094, ,2.51331927608242e-06, ,0.8333333333333334, ,0.3360027563457136, ,0.4116650680598355, ,0.01569355727434134
140, ,PASS, ,0.007285150000000004, ,0.0002728660856070637, ,0.039158390365094595, ,2.082223136683957e-06, ,0.6666666666666666, ,0.26903504480586266, ,0.5469684292157303, ,0.014060937531887105
141, ,PASS, ,0.0072316400000000045, ,0.00030212098550387535, ,0.03923729607273321, ,2.2825013172657407e-06, ,0.75, ,0.2956116469799821, ,0.45113365033366665, ,0.013856860064080325
142, ,PASS, ,0.007305429999999995, ,0.00029662932236080805, ,0.03898524142058325, ,2.1987742512072384e-06, ,0.75, ,0.27296785391734274, ,0.5055815187445154, ,0.015611926287218629
143, ,PASS, ,0.007522589999999996, ,0.0003015637649318569, ,0.039157136777412706, ,2.387800535222171e-06, ,0.75, ,0.2920830487788782, ,0.475888247178629, ,0.019713883390134895
176, ,PASS, ,0.007070579999999993, ,0.0002725638175278271, ,0.03908111513009938, ,2.0288267363193276e-06, ,0.75, ,0.31036185363275726, ,0.370380196322524, ,0.015162955858043713
177, ,PASS, ,0.007015670000000002, ,0.00024921478519079063, ,0.0392173229354503, ,1.8553862722172426e-06, ,0.6666666666666666, ,0.2801177740953562, ,0.4291545070508765, ,0.01330585090100202
178, ,PASS, ,0.007152769999999989, ,0.0002905338737115936, ,0.03925508363706864, ,2.185096269929071e-06, ,0.6666666666666666, ,0.26179235532632855, ,0.5774167874125018, ,0.015918042488928797
179, ,PASS, ,0.006820389999999989, ,0.0002747999392847328, ,0.03909747773576049, ,1.9942714751006077e-06, ,0.75, ,0.3355175444310395, ,0.4155425399481643, ,0.01597926572927083
180, ,PASS, ,0.007567139999999993, ,0.0003052364166594064, ,0.03930181030713659, ,2.4079709390510433e-06, ,0.6666666666666666, ,0.2584035962988474, ,0.5237035978857575, ,0.017713924205628458
181, ,PASS, ,0.006526990000000003, ,0.00022983448386886085, ,0.03903095643497071, ,1.6231336713218044e-06, ,0.6666666666666666, ,0.31580454814116077, ,0.35325809677353526, ,0.014958878390236933
182, ,PASS, ,0.00772585999999998, ,0.00032407406651306517, ,0.039149402661578334, ,2.630526270219462e-06, ,0.9166666666666666, ,0.3519480479035696, ,0.38862472194445014, ,0.01320381216709863
183, ,PASS, ,0.006909429999999987, ,0.00026306891250160947, ,0.03925590749515316, ,1.928673144252527e-06, ,0.6666666666666666, ,0.3338469205229124, ,0.37109446745984775, ,0.014979286137017612
184, ,PASS, ,0.007122569999999988, ,0.0002649548266636943, ,0.03929234862410971, ,2.0191607741178586e-06, ,0.6666666666666666, ,0.371685529201323, ,0.33944205220301626, ,0.014142568519009815
185, ,PASS, ,0.006886090000000004, ,0.0002535395357283663, ,0.03936761048060244, ,1.8487677471584561e-06, ,0.6666666666666666, ,0.38545869477462696, ,0.2883410542641987, ,0.014448684720719985
186, ,PASS, ,0.006790109999999974, ,0.00023007850361969775, ,0.039118030683455436, ,1.638430517311961e-06, ,0.6666666666666666, ,0.29204914929217524, ,0.35270708761045694, ,0.010856921287320668
187, ,PASS, ,0.007111969999999981, ,0.00025857224453154783, ,0.03930893199546948, ,1.922410356999608e-06, ,0.6666666666666666, ,0.2412216731851535, ,0.5030509581437114, ,0.013081365686414563
188, ,PASS, ,0.006442790000000004, ,0.00023297464823318764, ,0.038892453297483726, ,1.6011051906260213e-06, ,0.6666666666666666, ,0.29844547389107695, ,0.41146099059202873, ,0.01679557560049795
189, ,PASS, ,0.006791079999999963, ,0.00023395717705331675, ,0.03921941394298076, ,1.6748103010408001e-06, ,0.6666666666666666, ,0.23620904794058167, ,0.48092896063345647, ,0.01271402624436236
190, ,PASS, ,0.007214869999999977, ,0.00028522815527470694, ,0.03914138398644926, ,2.150494579178789e-06, ,0.75, ,0.22855012641986933, ,0.5872737291075693, ,0.016224158690638965
191, ,PASS, ,0.006689999999999974, ,0.00024340834397945177, ,0.039122752306075384, ,1.7189345651715634e-06, ,0.6666666666666666, ,0.22066264243085118, ,0.5682333013611968, ,0.012469133282994224
192, ,PASS, ,0.006636640000000006, ,0.00024350695133477948, ,0.03914201440113467, ,1.6930411418415317e-06, ,0.6666666666666666, ,0.35525448145987715, ,0.3190343054223383, ,0.012060978347380666
193, ,PASS, ,0.007664459999999991, ,0.0003223139763091876, ,0.03897743814003796, ,2.6255569298576736e-06, ,0.9166666666666666, ,0.3945692369549726, ,0.3536662517091488, ,0.01687720658762066
194, ,PASS, ,0.0070987999999999815, ,0.00026804594337938076, ,0.03911253869410829, ,1.9999290622712664e-06, ,0.75, ,0.2878406801090372, ,0.4955204995816412, ,0.013346666394563377
195, ,PASS, ,0.00695643999999998, ,0.0002582963868807595, ,0.03921960051590784, ,1.9117406541921407e-06, ,0.75, ,0.4032608817542509, ,0.2800146935776821, ,0.01299973469929185
196, ,PASS, ,0.007075349999999994, ,0.0002492048280976147, ,0.039036238215954776, ,1.8517238146175717e-06, ,0.6666666666666666, ,0.2830843915607131, ,0.42986877818820024, ,0.014591538948184732
197, ,PASS, ,0.007063449999999992, ,0.00028449501416913175, ,0.03907873806391706, ,2.0227629737786534e-06, ,0.75, ,0.2858305890750449, ,0.46080692230770803, ,0.015918042488928797
198, ,PASS, ,0.006940739999999987, ,0.00024263159446372712, ,0.039197780507336584, ,1.8113359689565964e-06, ,0.6666666666666666, ,0.1988493245301539, ,0.632599334707455, ,0.011122221995469481
199, ,PASS, ,0.006876229999999983, ,0.00026763084798947674, ,0.03914424615313973, ,1.926720138042252e-06, ,0.75, ,0.34911427651071386, ,0.34470725087243115, ,0.016754760106936592
200, ,PASS, ,0.00673298999999998, ,0.00024290850171824216, ,0.03904742158996755, ,1.7152942935708139e-06, ,0.6666666666666666, ,0.35423823210891486, ,0.3269321034264607, ,0.013693598089834901
201, ,PASS, ,0.006879950000000003, ,0.00026016362260994043, ,0.0390942128366768, ,1.862716941165595e-06, ,0.6666666666666666, ,0.23807934707347994, ,0.5444582763617068, ,0.00616313952776474
202, ,PASS, ,0.007077549999999988, ,0.00024174731353995865, ,0.03923850777147405, ,1.7985823103709602e-06, ,0.6666666666666666, ,0.23643589381604874, ,0.5319483275851513, ,0.01479561641599151
203, ,PASS, ,0.007007699999999971, ,0.00030608678653784284, ,0.03930139893573601, ,2.150950659267482e-06, ,0.75, ,0.28767321500460963, ,0.5562335462541581, ,0.022632191179771843
204, ,PASS, ,0.0068055199999999885, ,0.0002551793008606601, ,0.039022231280177955, ,1.8433854787609035e-06, ,0.75, ,0.25203873954091516, ,0.5017040468561866, ,0.015367033325850493
205, ,PASS, ,0.0069024800000000025, ,0.0002790949067438209, ,0.03923637589375727, ,1.949453042975948e-06, ,0.6666666666666666, ,0.3198893209728947, ,0.4492561376298443, ,0.015673149527560663
206, ,PASS, ,0.006966619999999986, ,0.00025435096885374596, ,0.03926217189302259, ,1.8570234734944266e-06, ,0.75, ,0.39643548859460875, ,0.29178996347013325, ,0.008101875471929145
207, ,PASS, ,0.0067282399999999895, ,0.00027044100850224834, ,0.03926369018469011, ,1.8238229367368964e-06, ,0.75, ,0.26499065211801276, ,0.5683557478418808, ,0.0017142507295769473
208, ,PASS, ,0.006851029999999973, ,0.0002646066014297033, ,0.039085600877941266, ,1.8710592430263508e-06, ,0.75, ,0.2869355485056917, ,0.46207220260811005, ,0.012734433991143037
209, ,PASS, ,0.00633943, ,0.00023694144872175648, ,0.03882634139793066, ,1.5615819550013905e-06, ,0.8333333333333334, ,0.2622116790278626, ,0.5006428440235914, ,0.013734413583396258
210, ,PASS, ,0.006777059999999981, ,0.00026428198275218573, ,0.039324180712026285, ,1.8471813417815681e-06, ,0.75, ,0.25572642181332383, ,0.5046019468990429, ,0.011081406501908125
211, ,PASS, ,0.007021849999999996, ,0.00026832512545687517, ,0.039103963503806044, ,1.9700050490813065e-06, ,0.75, ,0.3378949919758256, ,0.3501153037693108, ,0.014611946694965409
212, ,PASS, ,0.007092400000000006, ,0.00025156367400651385, ,0.03897387878329014, ,1.882952529765354e-06, ,0.6666666666666666, ,0.20926027535450484, ,0.6572723005652946, ,0.014836431909552866
213, ,PASS, ,0.007614399999999993, ,0.0003192946739208743, ,0.03896531006897818, ,2.5087761104371943e-06, ,0.9166666666666666, ,0.2658335214270908, ,0.5602334646231709, ,0.015081324870921002
