Channel, ,Pass/Fail, ,Amplitude, ,Sorting Function Response, ,Mean, ,Variance, ,NPeaksRatio, ,PosIntegralRatio, ,ToT50, ,ToT99
15, ,PASS, ,0.03467079000000001, ,0.005547762994986191, ,0.045827428419011856, ,0.00019392776710475763, ,1.75, ,0.7506438051376422, ,0.5124997449031652, ,0.0609783473806657
16, ,PASS, ,0.17145547999999994, ,0.026791280308339372, ,0.04243598904124406, ,0.004651126761234781, ,1.75, ,0.7205707148076625, ,0.4906226403542785, ,0.1276912716067019
17, ,PASS, ,0.10130888899999996, ,0.016196753192476224, ,0.0446201541859962, ,0.0016554385916736406, ,1.8333333333333333, ,0.7341535150830178, ,0.5080100406114161, ,0.11791596089875717
18, ,PASS, ,0.022074989999999996, ,0.003297888413907983, ,0.044280852757290656, ,7.36600508845069e-05, ,1.8333333333333333, ,0.7452199586300811, ,0.527030060611008, ,0.07030468765943552
19, ,PASS, ,0.02010689000000003, ,0.003002710172167127, ,0.046184425773147485, ,6.088045807254739e-05, ,1.9166666666666667, ,0.7546210269731142, ,0.538050243872574, ,0.06740678761657926
20, ,PASS, ,0.018871550000000015, ,0.0027910587197009767, ,0.04640249559743678, ,5.3519183601056817e-05, ,1.8333333333333333, ,0.7512357329096321, ,0.5295402134650313, ,0.05254994796024571
21, ,PASS, ,0.018872950000000027, ,0.0028189202096131727, ,0.046326447347196986, ,5.37248465150685e-05, ,1.9166666666666667, ,0.7522826054995231, ,0.5313565029285117, ,0.05248872471990368
22, ,PASS, ,0.020268000000000043, ,0.0028639790541566093, ,0.04706153484235015, ,5.84721525343924e-05, ,1.9166666666666667, ,0.7218931397121928, ,0.5321932205465194, ,0.006326401502010163
23, ,PASS, ,0.01939853000000001, ,0.002884615064424724, ,0.045541563954205014, ,5.6662376030525024e-05, ,1.8333333333333333, ,0.7457128332677345, ,0.5276831085079896, ,0.058447786779861635
24, ,PASS, ,0.018894010000000024, ,0.002857213954862702, ,0.04637737196587824, ,5.450026409990544e-05, ,1.9166666666666667, ,0.7592892879184876, ,0.5417848615334381, ,0.07224342360359992
25, ,PASS, ,0.01934513000000003, ,0.0029031732704455876, ,0.04629983103650945, ,5.6840990121826844e-05, ,1.9166666666666667, ,0.7541201015619987, ,0.5316422113834411, ,0.06354972347503113
26, ,PASS, ,0.01904370000000001, ,0.002903014712992311, ,0.045776151229362655, ,5.5817946240565975e-05, ,1.9166666666666667, ,0.7475432628057308, ,0.5317850656109059, ,0.0611620171016918
27, ,PASS, ,0.018727479999999998, ,0.0027784413768453652, ,0.04726961105895798, ,5.2529700367641653e-05, ,2.0, ,0.7450821239641618, ,0.5363768086365585, ,0.016305789677761678
28, ,PASS, ,0.018859910000000014, ,0.002818720815125171, ,0.04587751045243974, ,5.386321515638307e-05, ,1.8333333333333333, ,0.7540033717367975, ,0.5379482051386706, ,0.061815064998673494
29, ,PASS, ,0.018879049999999988, ,0.0028787504888813905, ,0.045832485404583574, ,5.4839652804656714e-05, ,1.9166666666666667, ,0.7597191307535093, ,0.532091181812616, ,0.06826391298136773
30, ,PASS, ,0.01892726999999997, ,0.002876882660664998, ,0.04532021370114894, ,5.5005933702763055e-05, ,1.9166666666666667, ,0.755917130986503, ,0.5398461255892737, ,0.060835493153200956
31, ,PASS, ,0.018824040000000014, ,0.0027808577917498383, ,0.04647222835187037, ,5.315786799932663e-05, ,1.9166666666666667, ,0.74757235144034, ,0.5330707536580886, ,0.04559090630803453
32, ,PASS, ,0.018749160000000008, ,0.0027902874561875446, ,0.04691637859308993, ,5.291268335460917e-05, ,1.9166666666666667, ,0.7540139821556144, ,0.5315401726495378, ,0.06385583967674129
33, ,PASS, ,0.01900729000000003, ,0.002816662871421084, ,0.046640977526785164, ,5.412822467808968e-05, ,1.9166666666666667, ,0.7433639704581411, ,0.5321524050529581, ,0.043325646415379275
34, ,PASS, ,0.019042300000000012, ,0.0028508294935745684, ,0.04599703528030039, ,5.477056502694553e-05, ,1.9166666666666667, ,0.7436765790665169, ,0.5301116303748903, ,0.05371318952674435
35, ,PASS, ,0.018739940000000004, ,0.002818318995284664, ,0.04712666977184139, ,5.324569774461222e-05, ,1.9166666666666667, ,0.7511575729814022, ,0.5356625374992348, ,0.0630191220587335
36, ,PASS, ,0.018691870000000013, ,0.0027669872093898677, ,0.04650352864635415, ,5.2227162317130514e-05, ,1.9166666666666667, ,0.7503630622403769, ,0.5339891022632192, ,0.06567212914022162
37, ,PASS, ,0.01867603000000003, ,0.002799265008109958, ,0.04631946445276627, ,5.28082930245513e-05, ,1.9166666666666667, ,0.7480842457513432, ,0.5300095916409869, ,0.04963164017060876
38, ,PASS, ,0.01884173999999999, ,0.002818393829352822, ,0.04594154712536478, ,5.366359520315225e-05, ,1.9166666666666667, ,0.7455839057033257, ,0.5310912022203629, ,0.05093773596457215
39, ,PASS, ,0.018661590000000026, ,0.002778714569290712, ,0.04685492809371237, ,5.2317879047684904e-05, ,1.9166666666666667, ,0.7541889011947435, ,0.5360706924348483, ,0.065141527723924
40, ,PASS, ,0.018955330000000034, ,0.002793786449222345, ,0.04656251696434766, ,5.3491628914580285e-05, ,1.9166666666666667, ,0.7396831480175313, ,0.5327034142160364, ,0.05575396420481215
41, ,PASS, ,0.018580680000000023, ,0.002797826198291414, ,0.04693767737148221, ,5.2507686488787e-05, ,1.9166666666666667, ,0.7447426627892656, ,0.5315197649027571, ,0.06342727699434705
42, ,PASS, ,0.018956050000000002, ,0.0027526827457564785, ,0.047378052332809534, ,5.2825718963669344e-05, ,1.8333333333333333, ,0.7371301163832121, ,0.530642231791188, ,0.040835901308136566
43, ,PASS, ,0.01868995000000001, ,0.0028123694220518994, ,0.04635864621742413, ,5.3072283709486876e-05, ,1.9166666666666667, ,0.7575132377225099, ,0.5417032305463154, ,0.07256994755209077
44, ,PASS, ,0.018700190000000033, ,0.0027185280268930447, ,0.04635501630823861, ,5.126119085435162e-05, ,1.9166666666666667, ,0.7346225116881295, ,0.5336625783147283, ,0.025693353196873533
45, ,PASS, ,0.019003960000000028, ,0.00288277700774965, ,0.04628893044590927, ,5.526536371841531e-05, ,1.9166666666666667, ,0.7555043030877974, ,0.5341115487439032, ,0.07969225117854738
46, ,PASS, ,0.018864049999999986, ,0.002856507868062667, ,0.045843579870818954, ,5.436598085552195e-05, ,1.9166666666666667, ,0.7581599438363793, ,0.5419685312544642, ,0.06918226158649823
47, ,PASS, ,0.01936948000000001, ,0.0028552978503725867, ,0.046844494254198885, ,5.5960327027629667e-05, ,1.9166666666666667, ,0.7468248385317092, ,0.5299279606538642, ,0.06161098753086672
48, ,PASS, ,0.01916558000000003, ,0.0027845160261908415, ,0.04669053035325809, ,5.41729359325779e-05, ,1.8333333333333333, ,0.7417946398184503, ,0.5363972163833391, ,0.06283545233770739
49, ,PASS, ,0.018504110000000032, ,0.0028079556584901955, ,0.04655464032611579, ,5.2431590979054146e-05, ,1.9166666666666667, ,0.7480604571473882, ,0.5310912022203629, ,0.043672578110650805
50, ,PASS, ,0.018896519999999986, ,0.0027710185912040016, ,0.04593410980755494, ,5.289569638902264e-05, ,1.9166666666666667, ,0.7524301067811758, ,0.5321932205465194, ,0.07048835738046162
51, ,PASS, ,0.01849734, ,0.002732244308883411, ,0.047484674250729574, ,5.096924244940679e-05, ,1.9166666666666667, ,0.7483924774059052, ,0.5346625579069815, ,0.011285483969714905
52, ,PASS, ,0.018757170000000017, ,0.002776687289144954, ,0.04681424991775678, ,5.2596564464260295e-05, ,1.9166666666666667, ,0.7414500315401887, ,0.5366421093447072, ,0.05297851064263995
53, ,PASS, ,0.01881740000000002, ,0.002848252881395067, ,0.04684071732760555, ,5.4022488771386997e-05, ,1.9166666666666667, ,0.7497352051637597, ,0.5369890410399788, ,0.04748882675863758
54, ,PASS, ,0.018363389999999993, ,0.002765625163991263, ,0.046028932367502697, ,5.125667156603709e-05, ,1.9166666666666667, ,0.7552921334451147, ,0.5345197036795167, ,0.06016203750943858
55, ,PASS, ,0.01837324, ,0.0027351262820509256, ,0.04709659088243097, ,5.07235380516402e-05, ,1.9166666666666667, ,0.7431197632988545, ,0.5281933021775066, ,0.04585620701618334
56, ,PASS, ,0.01844769999999999, ,0.0027549029209000386, ,0.04718568681945266, ,5.130321415878216e-05, ,1.9166666666666667, ,0.753092347618677, ,0.5323972980143262, ,0.06026407624334197
57, ,PASS, ,0.018640950000000017, ,0.002804468214011211, ,0.04695498809636538, ,5.277287768545962e-05, ,1.9166666666666667, ,0.7383034794156837, ,0.5332748311258954, ,0.05752943817473113
58, ,PASS, ,0.018839760000000046, ,0.002800607630891356, ,0.0466198424562764, ,5.330422561887678e-05, ,1.9166666666666667, ,0.7431333599138406, ,0.536907410052856, ,0.0427542295055203
59, ,PASS, ,0.018730359999999988, ,0.0027761342777686045, ,0.047310933862778314, ,5.269228501152648e-05, ,1.8333333333333333, ,0.7465348729605862, ,0.536907410052856, ,0.04889696128650436
60, ,PASS, ,0.018743759999999984, ,0.0028324732730128795, ,0.04592879549274504, ,5.3544222327907625e-05, ,1.9166666666666667, ,0.7512158629452543, ,0.5363564008897778, ,0.05369278177996367
61, ,PASS, ,0.01872472999999998, ,0.0027858803687882618, ,0.04568800678149425, ,5.2649887772418537e-05, ,1.9166666666666667, ,0.7547858927450088, ,0.539703271361809, ,0.07059039611436502
62, ,PASS, ,0.019067900000000026, ,0.0028118432889130238, ,0.046311398913899716, ,5.4141374827122894e-05, ,1.9166666666666667, ,0.7445569678355066, ,0.532478929001449, ,0.04840717536376809
63, ,PASS, ,0.018773809999999995, ,0.002803468952659632, ,0.045252900945490906, ,5.311826183632661e-05, ,1.9166666666666667, ,0.7442698415442176, ,0.5443154221342421, ,0.010652843819513888
64, ,PASS, ,0.018803059999999983, ,0.002819936342492715, ,0.04548146431725883, ,5.340965600173421e-05, ,1.9166666666666667, ,0.7580503456752717, ,0.5343564417052713, ,0.03761147731678945
65, ,PASS, ,0.018799209999999983, ,0.0028554160187649136, ,0.045369086712924216, ,5.414797956909735e-05, ,1.9166666666666667, ,0.7577313100953006, ,0.5366421093447072, ,0.05279484092161384
66, ,PASS, ,0.018702329999999996, ,0.0028598159434914962, ,0.044321870272851574, ,5.389731722316351e-05, ,1.9166666666666667, ,0.7525906051180845, ,0.5365604783575846, ,0.05822330156527418
67, ,PASS, ,0.018706140000000003, ,0.0028015375685091215, ,0.045918030478357574, ,5.292611381302107e-05, ,1.9166666666666667, ,0.7457854729990856, ,0.530642231791188, ,0.05740699169404706
68, ,PASS, ,0.018121069999999996, ,0.0027007784726132845, ,0.0455470077465766, ,4.9358593767136435e-05, ,1.9166666666666667, ,0.7497918517416613, ,0.535070712842595, ,0.04603987673720945
69, ,PASS, ,0.01860448999999998, ,0.002806017379633909, ,0.04517451676455582, ,5.279112890265002e-05, ,2.0, ,0.7547988853887257, ,0.5334585008469215, ,0.07212097712291586
70, ,PASS, ,0.018480079999999996, ,0.0027756212124384724, ,0.04441282011938531, ,5.1769438823428955e-05, ,1.9166666666666667, ,0.750021675024753, ,0.5349686741086916, ,0.04834595212342605
71, ,PASS, ,0.018881749999999996, ,0.0027861010325064476, ,0.04594502803269321, ,5.3178418801991274e-05, ,1.8333333333333333, ,0.7484585009106449, ,0.5310912022203629, ,0.06638640027754536
72, ,PASS, ,0.01858129999999998, ,0.002789038914814633, ,0.04478993258770229, ,5.2231325637713716e-05, ,1.9166666666666667, ,0.7507320350772421, ,0.5341115487439032, ,0.05169282259545724
73, ,PASS, ,0.018734219999999996, ,0.0028436789701923493, ,0.044793694346441905, ,5.376294564270862e-05, ,1.9166666666666667, ,0.7534774469350994, ,0.5342748107181486, ,0.06185588049223485
74, ,PASS, ,0.018988229999999988, ,0.002917365658890636, ,0.04353363973898492, ,5.600177965558319e-05, ,1.8333333333333333, ,0.7576183709758781, ,0.5255198873492378, ,0.06328442276688231
75, ,PASS, ,0.01879163999999999, ,0.0028442723163690288, ,0.04551292207424338, ,5.3913067787889814e-05, ,1.9166666666666667, ,0.7553193588776381, ,0.5346421501602008, ,0.06242729740209384
76, ,PASS, ,0.018839469999999976, ,0.0028302594874361794, ,0.04466383991592007, ,5.3719971225024434e-05, ,1.9166666666666667, ,0.7503781328016698, ,0.5292749127568825, ,0.06689659394706231
77, ,PASS, ,0.018775670000000008, ,0.002852265519970342, ,0.04467067368910839, ,5.4111954426227474e-05, ,1.9166666666666667, ,0.7569160487753496, ,0.5432338115548663, ,0.0640395093977674
78, ,PASS, ,0.018999249999999968, ,0.0028666873150426557, ,0.043875370611416095, ,5.492348174069959e-05, ,1.9166666666666667, ,0.7514147970703118, ,0.535703352992796, ,0.05095814371135283
79, ,PASS, ,0.018904269999999987, ,0.002819529472434769, ,0.04541660681598334, ,5.3797862361996645e-05, ,1.9166666666666667, ,0.7505511781006033, ,0.5322340360400808, ,0.061406910063059934
112, ,PASS, ,0.02099440000000003, ,0.003117450859849216, ,0.046739565699883676, ,6.607532854628033e-05, ,1.8333333333333333, ,0.7444645525033445, ,0.5310095712332401, ,0.05034591130793249
113, ,PASS, ,0.08796279190000003, ,0.013932253367542993, ,0.04602778836895167, ,0.0012366445859999238, ,1.8333333333333333, ,0.726148496465048, ,0.5019081243239933, ,0.12358931450378564
114, ,PASS, ,0.01952070000000003, ,0.0029024507523586285, ,0.0468051515216016, ,5.722850459042238e-05, ,1.8333333333333333, ,0.7524313266273585, ,0.5169690414481337, ,0.05540703250954062
115, ,PASS, ,0.01586646999999998, ,0.0022633724815396346, ,0.04723378562274239, ,3.634326661528319e-05, ,1.9166666666666667, ,0.731102817395183, ,0.5366625170914879, ,0.04679496336809453
116, ,PASS, ,0.01531780999999998, ,0.002240225818640878, ,0.04657163828350441, ,3.462075554132934e-05, ,1.9166666666666667, ,0.7391478781127997, ,0.5254994796024571, ,0.06975367849635722
117, ,PASS, ,0.015579259999999977, ,0.002243074768359093, ,0.04709012871492418, ,3.5226314654241686e-05, ,1.9166666666666667, ,0.7399828065875113, ,0.538499214301749, ,0.05206016203750944
118, ,PASS, ,0.015095539999999984, ,0.0021585005487900805, ,0.04703591875492336, ,3.2896893488849224e-05, ,1.9166666666666667, ,0.7361123876734776, ,0.5309687557396788, ,0.043672578110650805
119, ,PASS, ,0.015209539999999987, ,0.002184336829282993, ,0.04759579556702924, ,3.355075093271856e-05, ,1.9166666666666667, ,0.7286488963403346, ,0.5385400297953103, ,0.05081528948388808
120, ,PASS, ,0.015260599999999985, ,0.0022076400319798926, ,0.04681265813677271, ,3.3999443480907085e-05, ,1.9166666666666667, ,0.7382488566916575, ,0.5377849431644253, ,0.049835717638415544
121, ,PASS, ,0.015143080000000003, ,0.0022038506208745664, ,0.0475455005171323, ,3.369976261819008e-05, ,1.9166666666666667, ,0.7412518957862333, ,0.5404787657394747, ,0.05975388257382502
122, ,PASS, ,0.01513448999999998, ,0.0021742293362845243, ,0.04761690576722923, ,3.322667843796339e-05, ,1.9166666666666667, ,0.7324730105754292, ,0.5398461255892737, ,0.04985612538519622
123, ,PASS, ,0.015340609999999998, ,0.002233111808159004, ,0.047751224757045775, ,3.4556116188760415e-05, ,1.9166666666666667, ,0.7274954256921722, ,0.5330911614048693, ,0.0474684190118569
124, ,PASS, ,0.01476307999999997, ,0.0021480876677065805, ,0.04728677703475439, ,3.201366882832961e-05, ,1.9166666666666667, ,0.7492814549735267, ,0.5418869002673414, ,0.0540397134752352
125, ,PASS, ,0.015143490000000003, ,0.002130493076992321, ,0.04662349016795576, ,3.252507121676907e-05, ,1.9166666666666667, ,0.7335820065177199, ,0.5347645966408848, ,0.016509867145568458
126, ,PASS, ,0.015164809999999994, ,0.002214991941842284, ,0.04694463935613559, ,3.389886831898291e-05, ,1.9166666666666667, ,0.7509880328331654, ,0.5408052896879656, ,0.06269259811024265
127, ,PASS, ,0.015041000000000013, ,0.002232056426968018, ,0.046283286812309955, ,3.3836012973979644e-05, ,1.9166666666666667, ,0.7502804832040101, ,0.539315524172976, ,0.059733474827044344
128, ,PASS, ,0.015325029999999996, ,0.002187096912681468, ,0.046650452577090266, ,3.3876899795446836e-05, ,1.9166666666666667, ,0.7311897236302419, ,0.539825717842493, ,0.03059121242423624
129, ,PASS, ,0.014781729999999979, ,0.002149647115600173, ,0.04611511210179384, ,3.2153287200858936e-05, ,1.9166666666666667, ,0.7461900306064714, ,0.5366012938511459, ,0.04991734862553825
130, ,PASS, ,0.015334189999999977, ,0.002200438650032911, ,0.04622002058978388, ,3.403476094516971e-05, ,1.9166666666666667, ,0.7230401287830321, ,0.5318054733576866, ,0.026346401093855228
131, ,PASS, ,0.015034089999999972, ,0.0021748015852740914, ,0.045537852612803825, ,3.29880540237655e-05, ,1.9166666666666667, ,0.7360116144498932, ,0.5388869614905818, ,0.023366870063876246
132, ,PASS, ,0.015077989999999972, ,0.002200849318593077, ,0.04615242531683027, ,3.354174293973852e-05, ,1.9166666666666667, ,0.7423347422332294, ,0.533682986061509, ,0.0545907226383135
133, ,PASS, ,0.015306749999999994, ,0.002185933996118183, ,0.04691960213138507, ,3.3828457556197624e-05, ,1.9166666666666667, ,0.7453937925236712, ,0.5501520377135161, ,0.06457011081406502
134, ,PASS, ,0.014991529999999982, ,0.0021363039630548078, ,0.046891235010714065, ,3.234551248462161e-05, ,1.9166666666666667, ,0.7371427302875571, ,0.5323768902675455, ,0.05324381135078876
135, ,PASS, ,0.01498535999999999, ,0.0021568227697365723, ,0.04724400116630273, ,3.262344436240128e-05, ,1.9166666666666667, ,0.7368120896567226, ,0.5322544437868615, ,0.05610089590008367
136, ,PASS, ,0.015174739999999978, ,0.0021379602196766375, ,0.047166912356890675, ,3.2774481483783414e-05, ,1.9166666666666667, ,0.7264430874349281, ,0.5368665945592948, ,0.04346850064284402
137, ,PASS, ,0.01517762999999999, ,0.002187564683738166, ,0.047020558513091566, ,3.3542529029840956e-05, ,1.9166666666666667, ,0.730151572676, ,0.531397318422073, ,0.06161098753086672
138, ,PASS, ,0.015039029999999995, ,0.0021677976877240808, ,0.046745251792616474, ,3.29119797644685e-05, ,1.9166666666666667, ,0.7272880442297159, ,0.5329074916838432, ,0.04795820493459317
139, ,PASS, ,0.01520514999999998, ,0.0021761781878882405, ,0.046259785761311, ,3.343489936783548e-05, ,1.9166666666666667, ,0.7375745668260701, ,0.5360706924348483, ,0.05648864308891655
140, ,PASS, ,0.014596359999999989, ,0.002084963392943725, ,0.04662321996530683, ,3.089083951771141e-05, ,1.8333333333333333, ,0.7242375683311469, ,0.52588722679129, ,0.03518295544988878
141, ,PASS, ,0.015081019999999987, ,0.00217053995083782, ,0.04619509752188731, ,3.310590944346448e-05, ,1.9166666666666667, ,0.7356410292653593, ,0.5323768902675455, ,0.05889675720903655
142, ,PASS, ,0.015084899999999984, ,0.002150202020199385, ,0.04625154459460011, ,3.281102843353557e-05, ,1.9166666666666667, ,0.7301240637405993, ,0.5327238219628171, ,0.045652129548376566
143, ,PASS, ,0.014925329999999987, ,0.0021556409450434982, ,0.04586620052835656, ,3.250169774914941e-05, ,1.9166666666666667, ,0.7340032156293598, ,0.5332136078855534, ,0.048162282402399954
176, ,PASS, ,0.015154889999999976, ,0.0021795878762892124, ,0.045368234704597867, ,3.3370090503841306e-05, ,1.9166666666666667, ,0.7258034456907536, ,0.5296014367053734, ,0.052774433174833164
177, ,PASS, ,0.01496189999999998, ,0.0022184757387634863, ,0.04562679402665252, ,3.349907563063668e-05, ,1.9166666666666667, ,0.737722129538466, ,0.5338870635293157, ,0.04991734862553825
178, ,PASS, ,0.014963250000000004, ,0.002178193555922621, ,0.044801714735821715, ,3.2949705199219474e-05, ,1.9166666666666667, ,0.7381631934581899, ,0.5317442501173445, ,0.052774433174833164
179, ,PASS, ,0.014658900000000016, ,0.002145207815878171, ,0.04635780216505785, ,3.180254284380519e-05, ,1.9166666666666667, ,0.7489554029507867, ,0.533682986061509, ,0.05952939735923757
180, ,PASS, ,0.014861449999999991, ,0.0021410753600944995, ,0.04504283078998388, ,3.21777209483673e-05, ,1.8333333333333333, ,0.7362927422188884, ,0.5309687557396788, ,0.053570335299279605
181, ,PASS, ,0.014938460000000008, ,0.0021297729330587165, ,0.045181985511928334, ,3.205664333481992e-05, ,1.9166666666666667, ,0.737706126279875, ,0.5340299177567804, ,0.053896859247770455
182, ,PASS, ,0.014775429999999985, ,0.0021462850414349062, ,0.04594322014571131, ,3.1990996229247565e-05, ,1.9166666666666667, ,0.7330023975024241, ,0.5326830064692557, ,0.05461113038509418
183, ,PASS, ,0.014720620000000025, ,0.0021528330822697403, ,0.04430240491745067, ,3.20057931426112e-05, ,1.9166666666666667, ,0.742529137477879, ,0.5371931185077855, ,0.0407134548274525
184, ,PASS, ,0.014927339999999976, ,0.0021339780222525075, ,0.04556596151935675, ,3.2161732980234945e-05, ,1.9166666666666667, ,0.7304403590590488, ,0.5365808861043652, ,0.04920307748821453
185, ,PASS, ,0.015308879999999983, ,0.0021946059344186467, ,0.04566602403910125, ,3.392856083915726e-05, ,1.9166666666666667, ,0.7261451944080054, ,0.5356421297524541, ,0.055651925470908754
186, ,PASS, ,0.01478542, ,0.00209453783297769, ,0.046366247591069575, ,3.128046340413483e-05, ,1.9166666666666667, ,0.7306321355700778, ,0.5314381339156343, ,0.038754311136507416
187, ,PASS, ,0.015028669999999987, ,0.0021213251940386743, ,0.04501171147527602, ,3.221353362592651e-05, ,1.9166666666666667, ,0.7237644493852698, ,0.5341931797310259, ,0.0585702332605457
188, ,PASS, ,0.01472860999999999, ,0.0021183702739236555, ,0.04533599167731271, ,3.1511916782116826e-05, ,1.9166666666666667, ,0.7438742232871689, ,0.5379686128854513, ,0.039897144956225386
189, ,PASS, ,0.015044329999999995, ,0.0021311297819686793, ,0.04521167782657497, ,3.244631420555597e-05, ,1.9166666666666667, ,0.7134562012340055, ,0.5279280014693578, ,0.05338666557825351
190, ,PASS, ,0.014808320000000007, ,0.002131641825057627, ,0.04598931259076345, ,3.191011137589836e-05, ,1.9166666666666667, ,0.722417871644311, ,0.5273361768127182, ,0.04279504499908165
191, ,PASS, ,0.015005500000000005, ,0.00218436924444486, ,0.044274495748658195, ,3.309424508833774e-05, ,1.9166666666666667, ,0.7410629182311252, ,0.5299279606538642, ,0.05912124242362401
192, ,PASS, ,0.014847439999999983, ,0.002116335743146491, ,0.04529335991877717, ,3.176148829915915e-05, ,1.9166666666666667, ,0.7279175727438224, ,0.5346829656537622, ,0.055549886737005366
193, ,PASS, ,0.015119969999999996, ,0.0020655053254252493, ,0.04517272616150691, ,3.1527429159606654e-05, ,1.9166666666666667, ,0.7143320927152381, ,0.5261729352462194, ,0.012550764270116936
194, ,PASS, ,0.014674879999999994, ,0.002082001458516021, ,0.04585848071345483, ,3.087744366300947e-05, ,1.9166666666666667, ,0.7338779323015985, ,0.5392134854390727, ,0.04797861268137385
195, ,PASS, ,0.014818760000000028, ,0.0021204817037117248, ,0.04424859229954491, ,3.172643579759274e-05, ,1.9166666666666667, ,0.7288487375422106, ,0.5340503255035611, ,0.055264178282075874
196, ,PASS, ,0.014939649999999971, ,0.0021319130835624786, ,0.04606890980224893, ,3.223802615846991e-05, ,1.9166666666666667, ,0.7343070983030514, ,0.531968735331932, ,0.05812126283137079
197, ,PASS, ,0.014604869999999985, ,0.00211236235150434, ,0.04636248663721148, ,3.119406222489475e-05, ,1.8333333333333333, ,0.7441668742815568, ,0.5369890410399788, ,0.05769270014897655
198, ,PASS, ,0.014818419999999971, ,0.0020991618954918413, ,0.04562388096569458, ,3.140464726376273e-05, ,1.9166666666666667, ,0.7257876955810829, ,0.534376849452052, ,0.04648884716638436
199, ,PASS, ,0.014774549999999984, ,0.002082042550814759, ,0.04685549637211485, ,3.110298486785214e-05, ,1.9166666666666667, ,0.7241031824193042, ,0.533050345911308, ,0.049101038754311134
200, ,PASS, ,0.014731839999999989, ,0.002115335703278424, ,0.04638102799677558, ,3.1432894819588414e-05, ,1.9166666666666667, ,0.7342163054384618, ,0.5377645354176446, ,0.0629170833248301
201, ,PASS, ,0.014721419999999985, ,0.0021262917165173374, ,0.04642703300238771, ,3.160540014791661e-05, ,1.9166666666666667, ,0.7368893069829813, ,0.5369686332931981, ,0.054794800106120284
202, ,PASS, ,0.01485273999999999, ,0.0021107547704808795, ,0.04676519852533621, ,3.167641781360323e-05, ,1.9166666666666667, ,0.7249701368972958, ,0.5371114875206628, ,0.0433052386685986
203, ,PASS, ,0.014783149999999988, ,0.002103286084201968, ,0.04553166271606702, ,3.1384531353134055e-05, ,1.9166666666666667, ,0.7348115933931341, ,0.5347237811473236, ,0.043244015428256566
204, ,PASS, ,0.014991859999999961, ,0.0020976947033893184, ,0.04574043086753332, ,3.172772894922559e-05, ,1.9166666666666667, ,0.7174282260322213, ,0.5274586232934022, ,0.011571192424644395
205, ,PASS, ,0.014800129999999967, ,0.002092381007424287, ,0.04567792407338626, ,3.124486934052932e-05, ,1.9166666666666667, ,0.7263839948356955, ,0.5351115283361564, ,0.033897267402706065
206, ,PASS, ,0.014840319999999983, ,0.0020718086443693943, ,0.04632698034407461, ,3.102982273249679e-05, ,1.9166666666666667, ,0.7275688615304942, ,0.5362747699026551, ,0.03506050896920471
207, ,PASS, ,0.014781090000000004, ,0.002085143869195074, ,0.045054572465459894, ,3.109657305973485e-05, ,1.9166666666666667, ,0.7231196752842455, ,0.5336625783147283, ,0.03612171180179996
208, ,PASS, ,0.014734549999999999, ,0.002059751402564709, ,0.046604944154813165, ,3.064743649908655e-05, ,1.9166666666666667, ,0.7228258786424109, ,0.5355196832717699, ,0.03742780759576335
209, ,PASS, ,0.01492429999999998, ,0.0020817527025156096, ,0.04666508653027489, ,3.1364469784377686e-05, ,1.9166666666666667, ,0.7263918663466965, ,0.5362339544090937, ,0.03724413787473725
210, ,PASS, ,0.015171309999999986, ,0.0021120360531420032, ,0.047211278164119096, ,3.240305789170023e-05, ,1.9166666666666667, ,0.7167879896123814, ,0.5330707536580886, ,0.05563151772412808
211, ,PASS, ,0.014758349999999996, ,0.002047051188542823, ,0.04610330915267035, ,3.0436603365041338e-05, ,1.9166666666666667, ,0.7193634282899237, ,0.5363155853962164, ,0.017101691802208118
212, ,PASS, ,0.015225949999999988, ,0.0021162595578770164, ,0.0462642540558356, ,3.255669105391116e-05, ,1.9166666666666667, ,0.7221995273836974, ,0.5335197240872636, ,0.043754209097773514
213, ,PASS, ,0.015502119999999966, ,0.002179782817682565, ,0.046480414648884714, ,3.4162535553746914e-05, ,1.9166666666666667, ,0.7238762489957776, ,0.5360706924348483, ,0.051468337380869776
214, ,PASS, ,0.015623019999999953, ,0.0022382471653418995, ,0.046895548137997185, ,3.530027146666402e-05, ,1.9166666666666667, ,0.7313049620656255, ,0.5340911409971225, ,0.04140731821799555
215, ,PASS, ,0.013753389999999997, ,0.0016711895118948373, ,0.045683919416338446, ,2.3263384899973904e-05, ,1.8333333333333333, ,0.6747642998805448, ,0.5378257586579865, ,0.034285014591538945
