Channel, ,Pass/Fail, ,Amplitude, ,Sorting Function Response, ,Mean, ,Variance, ,NPeaksRatio, ,PosIntegralRatio, ,ToT50, ,ToT99
40, ,PASS, ,0.05577362000000005, ,0.04592194316379079, ,0.04152575601620375, ,0.0005333993600407167, ,0.9166666666666666, ,0.7750642848451426, ,0.45652129548376563, ,0.16307830452439745
41, ,PASS, ,0.08748571173000005, ,0.06312101115877708, ,0.0406232804299096, ,0.0011446990776063457, ,0.9166666666666666, ,0.7184198087102677, ,0.45650088773698494, ,0.0945694985816616
42, ,PASS, ,0.04752116000000002, ,0.04339490235799508, ,0.04154789365482337, ,0.0004331164806768403, ,0.9166666666666666, ,0.8376061272305574, ,0.45625599477561685, ,0.1343441970572029
43, ,PASS, ,0.05675667000000003, ,0.045087547174554876, ,0.04144411053692782, ,0.0005325975671463609, ,0.9166666666666666, ,0.7595809095196374, ,0.45621517928205546, ,0.14003795840901206
44, ,PASS, ,0.08937846293000001, ,0.061801340267573106, ,0.040766211017754746, ,0.0011445088226919098, ,0.8333333333333334, ,0.7022754624065218, ,0.4562764025223975, ,0.06850880594273587
45, ,PASS, ,0.05127965999999998, ,0.04574478657560395, ,0.04160711667659844, ,0.0004917233937087739, ,0.9166666666666666, ,0.8232019310171488, ,0.4564600722434236, ,0.1488949205118263
46, ,PASS, ,0.058306920000000005, ,0.04604279428118328, ,0.041458220421828125, ,0.0005588441222891519, ,0.9166666666666666, ,0.7570553476564804, ,0.4563784412563009, ,0.13279320830187138
47, ,PASS, ,0.09240852310000003, ,0.06478438912051487, ,0.04067930135978858, ,0.0012407463430246786, ,0.9166666666666666, ,0.7068490581955253, ,0.45619477153527477, ,0.07801881594253178
48, ,PASS, ,0.05312196000000001, ,0.04820645638024553, ,0.041497811870165914, ,0.000537097953974314, ,0.9166666666666666, ,0.8303829221252401, ,0.45617436378849413, ,0.14636435991102223
49, ,PASS, ,0.05441293999999997, ,0.04470805700346406, ,0.04150571163261974, ,0.0005064751338264244, ,0.9166666666666666, ,0.7747563136897294, ,0.4560315095610294, ,0.16760882430970797
50, ,PASS, ,0.08733003602000003, ,0.065106046010426, ,0.04065819122826066, ,0.0011790423752512773, ,0.9166666666666666, ,0.7310062058744448, ,0.4560111018142487, ,0.11595681720781209
51, ,PASS, ,0.04839722999999998, ,0.04351619207318264, ,0.04146468957572294, ,0.0004416544930702696, ,0.9166666666666666, ,0.8272949435333324, ,0.4564396644966429, ,0.11181404461133446
52, ,PASS, ,0.05541669000000003, ,0.04506590178882402, ,0.041471977980857534, ,0.0005198371070205808, ,0.9166666666666666, ,0.7700789628169151, ,0.4559702863206873, ,0.1537723719924083
53, ,PASS, ,0.08666013941000009, ,0.06462765651266872, ,0.040578796340217556, ,0.0011613172725733812, ,0.9166666666666666, ,0.7310539876243166, ,0.45652129548376563, ,0.11803840737944124
54, ,PASS, ,0.04761111000000002, ,0.0422221465228936, ,0.04156809762821167, ,0.0004211254832960237, ,0.9166666666666666, ,0.8206525285506874, ,0.4567865961919145, ,0.11752821370992429
55, ,PASS, ,0.059362979999999975, ,0.04754302883234394, ,0.041463846511907924, ,0.0005875210511459801, ,0.9166666666666666, ,0.7655478043271915, ,0.4567253729515724, ,0.15244586845166425
56, ,PASS, ,0.08978725279, ,0.06574608221123142, ,0.04045016223591356, ,0.001223912630480018, ,0.9166666666666666, ,0.7247092212121292, ,0.45605191730781003, ,0.10561008959000837
57, ,PASS, ,0.05007640999999999, ,0.04432500521414099, ,0.04142954408971245, ,0.0004647619562368082, ,0.9166666666666666, ,0.8153727261526368, ,0.45584783984000327, ,0.11583437072712802
58, ,PASS, ,0.05506846000000003, ,0.045929815952955484, ,0.04130798429889186, ,0.0005267749738927489, ,0.9166666666666666, ,0.7828294599233152, ,0.45586824758678396, ,0.12830350401012225
59, ,PASS, ,0.08509797871000005, ,0.06533693087222046, ,0.04060382929564703, ,0.001153397262687142, ,0.9166666666666666, ,0.7429948148431684, ,0.45625599477561685, ,0.13693598089834902
60, ,PASS, ,0.04929138999999999, ,0.04315363038931942, ,0.041468561847105165, ,0.00044541024398699877, ,0.9166666666666666, ,0.8145273392504446, ,0.4563580335095202, ,0.10028366768025142
61, ,PASS, ,0.055512800000000015, ,0.046089707245310696, ,0.04133413949205118, ,0.0005327223314417862, ,0.9166666666666666, ,0.7792444176137133, ,0.45617436378849413, ,0.13985428868798597
62, ,PASS, ,0.08508655455000004, ,0.06556682410353715, ,0.040487639358400856, ,0.0011573235232982025, ,0.9166666666666666, ,0.7439974323402296, ,0.4562968102691782, ,0.13928287177812698
63, ,PASS, ,0.05239599999999997, ,0.045875581520437275, ,0.04133094938715536, ,0.0005026231287892797, ,0.9166666666666666, ,0.8104335027257898, ,0.45580702434644194, ,0.10052856064161955
64, ,PASS, ,0.05834600000000001, ,0.04762217915272205, ,0.041090946554560116, ,0.0005783677027349428, ,0.9166666666666666, ,0.7726914256726446, ,0.4564600722434236, ,0.16848635742127713
65, ,PASS, ,0.08845385978000006, ,0.0669998860888589, ,0.040424720145568464, ,0.0012293110517157787, ,0.9166666666666666, ,0.7362964723540634, ,0.455929470827126, ,0.12181384053386665
66, ,PASS, ,0.057158049000000044, ,0.05026162474999881, ,0.040999680942021596, ,0.0006003334296024952, ,0.9166666666666666, ,0.811756580464055, ,0.45611314054815205, ,0.11677312707903921
67, ,PASS, ,0.05291599000000002, ,0.04439838903786382, ,0.04141556206363135, ,0.0004891456341264051, ,0.9166666666666666, ,0.785324845232052, ,0.4562968102691782, ,0.12799738780841208
68, ,PASS, ,0.08392723637000002, ,0.06531769944014686, ,0.04037023311456909, ,0.0011375333870075619, ,0.9166666666666666, ,0.7471448181790499, ,0.455990694067468, ,0.13858900838758392
69, ,PASS, ,0.058439450000000004, ,0.05074554970262831, ,0.04118543590110406, ,0.000619039418052926, ,0.9166666666666666, ,0.807157628243879, ,0.4569090426725985, ,0.10301830574886227
70, ,PASS, ,0.05542837, ,0.04667803424376203, ,0.041262567739025736, ,0.0005386566821010901, ,0.9166666666666666, ,0.7866722109585036, ,0.4566437419644497, ,0.13585437031897307
71, ,PASS, ,0.08404367055000003, ,0.06541191627001133, ,0.04055924298253097, ,0.0011403913040551757, ,0.9166666666666666, ,0.7484311322051038, ,0.45613354829493274, ,0.14573171976082122
72, ,PASS, ,0.058780847999999976, ,0.05052263885499613, ,0.04102369346564356, ,0.0006193947618882867, ,0.9166666666666666, ,0.798457999095126, ,0.45611314054815205, ,0.09563070141425685
73, ,PASS, ,0.060403899999999996, ,0.05092104077071113, ,0.04098393961000796, ,0.0006406597009895127, ,1.0, ,0.7860077957923708, ,0.456562110977327, ,0.1428746352115263
74, ,PASS, ,0.08540637556000005, ,0.066156192975451, ,0.040410973285177856, ,0.001172132671328934, ,0.9166666666666666, ,0.7457091778988743, ,0.4563784412563009, ,0.14058896757209036
75, ,PASS, ,0.05968263500000002, ,0.05132884588452134, ,0.04112397742433828, ,0.000639363399929766, ,0.9166666666666666, ,0.8001547449158682, ,0.4563988490030816, ,0.10040611416093549
76, ,PASS, ,0.05322088, ,0.04530420627900075, ,0.04136454971510785, ,0.0005024238973142842, ,0.9166666666666666, ,0.7935542667341783, ,0.4559702863206873, ,0.10403869308789616
77, ,PASS, ,0.07750137899999997, ,0.06289701755151264, ,0.04052812490320606, ,0.0010121175276025394, ,0.9166666666666666, ,0.7655525924191945, ,0.4560927328013714, ,0.1315891512418114
78, ,PASS, ,0.05321123999999998, ,0.045452000674188045, ,0.04119092995775596, ,0.0005050346087968693, ,0.9166666666666666, ,0.7980945172023657, ,0.45611314054815205, ,0.08710026325993347
79, ,PASS, ,0.05203743000000003, ,0.0442304977394427, ,0.04132954343952164, ,0.00047949460516063635, ,0.9166666666666666, ,0.790682077357859, ,0.455929470827126, ,0.11105895798044937
80, ,PASS, ,0.07661555700000001, ,0.0621323773210432, ,0.040444472938389014, ,0.0009883245850470694, ,0.9166666666666666, ,0.7659695257665112, ,0.4564600722434236, ,0.14883369727148427
81, ,PASS, ,0.050983589999999995, ,0.04305931762292769, ,0.04145401426215792, ,0.0004583369233700314, ,0.9166666666666666, ,0.7938980908401795, ,0.457133527887186, ,0.08359013081365686
82, ,PASS, ,0.05162022999999999, ,0.04348665957314335, ,0.04134448219730209, ,0.0004672877690286497, ,0.9166666666666666, ,0.7875295303381773, ,0.4568070039386951, ,0.14720107752903003
83, ,PASS, ,0.077083944, ,0.062170360881486, ,0.04048596341952205, ,0.0009950653993731793, ,0.9166666666666666, ,0.7630156511397883, ,0.456562110977327, ,0.14040529785106426
84, ,PASS, ,0.05034706999999998, ,0.04273602389802379, ,0.04141225306912104, ,0.00044918892598075724, ,0.9166666666666666, ,0.7946881626083208, ,0.45666414971123037, ,0.09212056896798025
85, ,PASS, ,0.04848988, ,0.04139072991548089, ,0.04143348261402829, ,0.0004184069631790523, ,0.9166666666666666, ,0.793848209319401, ,0.4568478194322565, ,0.10026325993347074
86, ,PASS, ,0.07162173799999998, ,0.05983938292631618, ,0.04057251576827003, ,0.0008911482517357971, ,1.0, ,0.779934196735613, ,0.45658251872410766, ,0.11058957980449378
87, ,PASS, ,0.04447149999999998, ,0.036311700646221814, ,0.041593619344707254, ,0.00033764594798965175, ,0.8333333333333334, ,0.7827822703359563, ,0.4567865961919145, ,0.07777392298116365
198, ,PASS, ,0.09563985200000003, ,0.06778176929310925, ,0.04044513468813187, ,0.001430408791614321, ,0.9166666666666666, ,0.8778863420593971, ,0.4658068202689741, ,0.05091732821779148
199, ,PASS, ,0.05437750999999996, ,0.039304736568839815, ,0.042030946913940534, ,0.0004744215059988442, ,0.9166666666666666, ,0.8641559004306301, ,0.46168445541927716, ,0.04061141609354911
200, ,PASS, ,0.059779632999999985, ,0.03934436579934006, ,0.04191866549029612, ,0.0005238055690041816, ,0.9166666666666666, ,0.8413620510659839, ,0.46168445541927716, ,0.03020346523540336
201, ,PASS, ,0.05589781, ,0.035590368824568515, ,0.04204473747719434, ,0.00044375143457467566, ,0.9166666666666666, ,0.8339028841844055, ,0.46233750331625884, ,0.03069325115813963
202, ,PASS, ,0.05402123999999997, ,0.034223149381139614, ,0.04215905787514541, ,0.0004126277412923501, ,0.9166666666666666, ,0.8321668719334573, ,0.46186812514030323, ,0.03146874553580539
203, ,PASS, ,0.05506187, ,0.03438144089484857, ,0.04225391031978939, ,0.00042288104632121575, ,0.9166666666666666, ,0.8265777208346562, ,0.4621334258484521, ,0.0254484602355054
204, ,PASS, ,0.05673451999999999, ,0.035122146993212276, ,0.04209439450807126, ,0.00044539259025991524, ,0.9166666666666666, ,0.8296834246176229, ,0.46250076529050427, ,0.027570865900695903
205, ,PASS, ,0.06327120200000001, ,0.039434994822238424, ,0.04192278961449766, ,0.000556885454708407, ,0.9166666666666666, ,0.833892755377105, ,0.46317422093426663, ,0.03048917369033285
206, ,PASS, ,0.065490931, ,0.04042357511494144, ,0.04186102300259178, ,0.0005913102201852971, ,0.9166666666666666, ,0.8303574260959654, ,0.463215036427828, ,0.03089732862594641
207, ,PASS, ,0.06775819099999998, ,0.04220652491785316, ,0.04178174458725332, ,0.0006380477334114724, ,0.9166666666666666, ,0.8379011864102025, ,0.4638884920715904, ,0.0351625477031081
208, ,PASS, ,0.056749879999999975, ,0.03555776393963981, ,0.042118025059080424, ,0.00045013298819793034, ,0.9166666666666666, ,0.8292919974442986, ,0.46239872655660086, ,0.03283606457011081
209, ,PASS, ,0.0521502, ,0.031568788447007085, ,0.042327509707965144, ,0.0003678215252192172, ,0.9166666666666666, ,0.8225628741515133, ,0.4621130181016714, ,0.026366808840635907
210, ,PASS, ,0.051365040000000015, ,0.030584529488722808, ,0.042458435917838405, ,0.0003508738954904597, ,0.9166666666666666, ,0.8184325565716777, ,0.4622966878226975, ,0.024775004591743026
211, ,PASS, ,0.05274341999999995, ,0.03181086645788691, ,0.04228526855696822, ,0.0003748660051944707, ,0.9166666666666666, ,0.8250371132995848, ,0.46243954205016224, ,0.024877043325646414
212, ,PASS, ,0.05875345499999998, ,0.03471834181983554, ,0.042139178191465475, ,0.0004562664639165401, ,0.9166666666666666, ,0.8235902451273612, ,0.46282728923899513, ,0.028060651823432176
213, ,PASS, ,0.06664978999999999, ,0.03963558113041507, ,0.04192426579641231, ,0.0005909538023070667, ,0.9166666666666666, ,0.8319411410537386, ,0.4635211526295382, ,0.02987694128691251
214, ,PASS, ,0.06880791199999998, ,0.0414104996894098, ,0.04180424364890513, ,0.0006370641735806233, ,0.9166666666666666, ,0.8309000990358689, ,0.46329666741495074, ,0.03116262933409522
215, ,PASS, ,0.07496844606000001, ,0.04446456166563705, ,0.04161465590416522, ,0.0007455028517549848, ,0.9166666666666666, ,0.8377090743476235, ,0.46464357870247547, ,0.02987694128691251
216, ,PASS, ,0.065471768, ,0.03953214439083669, ,0.04182745051652007, ,0.0005786397712659459, ,0.9166666666666666, ,0.830414683819141, ,0.4622966878226975, ,0.030509581437113527
217, ,PASS, ,0.072110352, ,0.04294217671856527, ,0.041690519740821615, ,0.000693376327861571, ,0.9166666666666666, ,0.833416637367447, ,0.4634599293891961, ,0.02812187506377421
218, ,PASS, ,0.07119313400000005, ,0.04102629838249462, ,0.04174209763310953, ,0.0006546030038733437, ,0.9166666666666666, ,0.8308948838153406, ,0.46374563784412565, ,0.029632048325544377
219, ,PASS, ,0.06808005399999996, ,0.03955546908416206, ,0.04188955874022979, ,0.0006034406958117343, ,0.9166666666666666, ,0.8326582480792293, ,0.4635007448827575, ,0.027448419420011836
220, ,PASS, ,0.04778091999999999, ,0.027321912353589568, ,0.04250993009101855, ,0.00029248508948007124, ,0.9166666666666666, ,0.8104533415764884, ,0.46123548499010225, ,0.023203608089630824
221, ,PASS, ,0.05385897, ,0.03195447918898609, ,0.04229690446807208, ,0.0003851309144070368, ,0.9166666666666666, ,0.821479973091531, ,0.46119466949654087, ,0.025366829248382686
222, ,PASS, ,0.043667440000000016, ,0.025692397093914323, ,0.04275364904042775, ,0.0002511055864736555, ,0.9166666666666666, ,0.8142084494534496, ,0.46086814554805006, ,0.021815881308544723
223, ,PASS, ,0.055203479999999985, ,0.031036822496814366, ,0.04234849183057489, ,0.0003839997696046467, ,0.9166666666666666, ,0.8239568516302725, ,0.4622966878226975, ,0.02193832778922879
224, ,PASS, ,0.0796626897, ,0.04439293977071547, ,0.04158625286320687, ,0.0007937951314900026, ,0.9166666666666666, ,0.8446118323565424, ,0.4643170547539846, ,0.025183159527356586
225, ,PASS, ,0.07817065600000002, ,0.042302112132613034, ,0.04171494188261464, ,0.0007421775490440877, ,0.9166666666666666, ,0.850611908323366, ,0.46499051039774697, ,0.026979041244056243
226, ,PASS, ,0.09987338999999996, ,0.05270928446069861, ,0.04126635258388604, ,0.0011757052852712085, ,0.9166666666666666, ,0.8655666972886982, ,0.46703128507581476, ,0.033489112467092505
