Channel, ,Pass/Fail, ,Amplitude, ,Sorting Function Response, ,Mean, ,Variance
41, ,PASS, ,0.040558487644980004, ,0.035038684505080714, ,0.0014129203790061318, ,0.00029416385105301724
42, ,PASS, ,0.065735233455962, ,0.05460764173788442, ,0.003461735499559403, ,0.0007422077647926287
43, ,PASS, ,0.032650456153076005, ,0.02779333881937295, ,0.0017134318116702602, ,0.0001878585584274084
44, ,PASS, ,0.06071351034832401, ,0.051522391412122844, ,0.003216806244468991, ,0.0006491552675039593
45, ,PASS, ,0.078699815397756, ,0.061287081853771325, ,0.0040403999640575665, ,0.001000865710822491
46, ,PASS, ,0.041587264465211, ,0.035211396763987976, ,0.002289140448992223, ,0.00030397918956972327
47, ,PASS, ,0.063318959272967, ,0.05421809183857604, ,0.0033605039997388624, ,0.0007121180694388391
48, ,PASS, ,0.07941270260354302, ,0.06186610807228395, ,0.004239955593298862, ,0.0010192822977828583
49, ,PASS, ,0.04081918142539301, ,0.03493115129978127, ,0.0022307727484080437, ,0.0002958085901513144
50, ,PASS, ,0.06347785618533601, ,0.05522715973315381, ,0.003338976318722527, ,0.0007271300671787567
51, ,PASS, ,0.08029251780295402, ,0.06316066733275677, ,0.004223402001780722, ,0.0010521328471658972
52, ,PASS, ,0.041249000207379996, ,0.03567993150949511, ,0.002267892202682836, ,0.00030535590084876705
53, ,PASS, ,0.066579136836252, ,0.05748957534963782, ,0.0035684394176119473, ,0.0007945498465332768
54, ,PASS, ,0.08796482995044098, ,0.06577425997129585, ,0.004509896851875555, ,0.0012016463990733662
55, ,PASS, ,0.046243018539769996, ,0.039064406077245886, ,0.0025144223071007915, ,0.00037527804032376515
56, ,PASS, ,0.06572309577069599, ,0.05717975952442687, ,0.0034465725020214073, ,0.0007796496138850943
57, ,PASS, ,0.086489814964438, ,0.06549954173735367, ,0.004424945023350082, ,0.0011762325067331345
58, ,PASS, ,0.04375760107166801, ,0.037189357690057975, ,0.002370459330290246, ,0.0003377645161810812
59, ,PASS, ,0.06780249198017899, ,0.05950444783705666, ,0.003536526282223079, ,0.0008369584819977101
60, ,PASS, ,0.086900880805383, ,0.06603110449389364, ,0.004510744177698616, ,0.001191345771923558
61, ,PASS, ,0.042775772007180995, ,0.036747619047252995, ,0.002325294189045225, ,0.00032627506719254813
62, ,PASS, ,0.070355132887567, ,0.06142086251725338, ,0.003736258878853951, ,0.0008974834573827296
63, ,PASS, ,0.093867567661975, ,0.06794568989823488, ,0.004785790538416117, ,0.0013254551831469409
64, ,PASS, ,0.051162504537988, ,0.0426082193192506, ,0.0027845832665491055, ,0.00045287691465622734
65, ,PASS, ,0.06517671704542399, ,0.05726945842478266, ,0.003430476276457223, ,0.0007753884235568964
66, ,PASS, ,0.092115395738552, ,0.06714976468221932, ,0.00468475347789072, ,0.0012852045231843273
67, ,PASS, ,0.050462541414795004, ,0.04290192801926407, ,0.0027157002661443203, ,0.00044949212316964865
68, ,PASS, ,0.059488006036643996, ,0.05194342926879275, ,0.003167393076458176, ,0.0006424026807534522
69, ,PASS, ,0.091763537798042, ,0.06689928832711013, ,0.0047557071368858166, ,0.0012754927634470229
70, ,PASS, ,0.05033185529272299, ,0.04303099687853369, ,0.0027023015818464858, ,0.00044960768287391413
71, ,PASS, ,0.05883286248885, ,0.050557610833708244, ,0.00321412150375497, ,0.0006196060232031357
72, ,PASS, ,0.094475087800706, ,0.06603684562963341, ,0.004826931239313682, ,0.0012975705732726128
73, ,PASS, ,0.052746561125789, ,0.04409535573293461, ,0.0029084942559954195, ,0.00048358209050430097
74, ,PASS, ,0.05359201297921, ,0.046746823608094804, ,0.0028588818409891787, ,0.0005218121186037651
75, ,PASS, ,0.091468239834344, ,0.06455185784647476, ,0.004690401500076764, ,0.00122767345665737
76, ,PASS, ,0.04995655085733901, ,0.04214817707505784, ,0.0027600311162618834, ,0.00043750607357413934
77, ,PASS, ,0.051312312149356, ,0.044877549082003615, ,0.0028041060527170046, ,0.00047976926244947465
78, ,PASS, ,0.09125041222892201, ,0.06412668977642437, ,0.004751098191956278, ,0.0012166777340490223
79, ,PASS, ,0.049218926011059, ,0.04177250213865962, ,0.002686778139044755, ,0.0004273007042494728
80, ,PASS, ,0.05232309821174701, ,0.04324394275657293, ,0.002818794468800182, ,0.00047227508568857367
81, ,PASS, ,0.09135646842704802, ,0.06251739104905746, ,0.004653831724350812, ,0.0011883248161783876
82, ,PASS, ,0.04993694567559401, ,0.04163184826816855, ,0.0027620343924537744, ,0.00043243514935582193
83, ,PASS, ,0.046921440702403, ,0.04066730566311785, ,0.0026289186167692564, ,0.0003978812758240471
84, ,PASS, ,0.086191300963084, ,0.06073139372907173, ,0.004452245104829651, ,0.0010882916596702604
85, ,PASS, ,0.045886334599684005, ,0.03963887306388848, ,0.002499150242865212, ,0.0003779329238478661
198, ,PASS, ,0.092475610348071, ,0.06220244418352692, ,0.003444319978007233, ,0.0012522945912452315
199, ,PASS, ,0.06010645726020601, ,0.040605259726646345, ,0.0023511073895106007, ,0.000539007436796729
200, ,PASS, ,0.056612698662007, ,0.03366341166075638, ,0.002070185133176207, ,0.00042375951210614553
201, ,PASS, ,0.053967648202750004, ,0.03168863873846515, ,0.002012234588531165, ,0.0003799477324072915
202, ,PASS, ,0.05540127663432, ,0.03133787560112916, ,0.0020324982704283314, ,0.0003857012114399059
203, ,PASS, ,0.057675122220584005, ,0.034429475625296996, ,0.0021281007783433095, ,0.00044054621458328337
204, ,PASS, ,0.053735277283349994, ,0.03161208097752819, ,0.001967886886264681, ,0.00037555647577806856
205, ,PASS, ,0.062948778446379, ,0.03846775580870916, ,0.0023377040412255663, ,0.0005321188429788712
206, ,PASS, ,0.06297318313746399, ,0.03713802870622094, ,0.0022710689851767217, ,0.00051462484619113
207, ,PASS, ,0.06334572184043899, ,0.03783158836242451, ,0.0023043543969723597, ,0.0005251545144091123
208, ,PASS, ,0.054992825476446995, ,0.03301548300780488, ,0.0020388375008851714, ,0.0004005099025892166
209, ,PASS, ,0.051875337816539996, ,0.031869937800093236, ,0.001974043717100676, ,0.0003644865697864399
210, ,PASS, ,0.050403085459335, ,0.030003744168371465, ,0.001892183969289476, ,0.0003341970969425314
211, ,PASS, ,0.052828786086742005, ,0.03238553939083768, ,0.0020429656294358007, ,0.0003766885209962366
212, ,PASS, ,0.054820278467963994, ,0.033756877720841856, ,0.0020199462764831635, ,0.0004058426217505416
213, ,PASS, ,0.061124290116408006, ,0.03787089922110564, ,0.002300749714248561, ,0.0005048726217244098
214, ,PASS, ,0.06386576156941601, ,0.03914138526922214, ,0.002344334976472139, ,0.0005457436387482388
215, ,PASS, ,0.070942705872057, ,0.04459968696502232, ,0.002649245795885889, ,0.000685446557055596
216, ,PASS, ,0.059887893073048995, ,0.03750016217657563, ,0.00221190321847668, ,0.0004893926027725691
217, ,PASS, ,0.066910141981297, ,0.04353066004150664, ,0.0025135949946354787, ,0.000631791326755345
218, ,PASS, ,0.06760710165008801, ,0.04311829088413327, ,0.002482815460404318, ,0.0006335857755293487
219, ,PASS, ,0.06736238225619201, ,0.043860627688829576, ,0.0024889381984955334, ,0.0006410047325734053
220, ,PASS, ,0.042253161204503994, ,0.026943722814295114, ,0.0016301251491661723, ,0.0002506436594959051
221, ,PASS, ,0.048348967874508, ,0.03174831455926786, ,0.001905824311091501, ,0.00033635651676319826
222, ,PASS, ,0.042203231597967, ,0.026343532481539037, ,0.0016481875589629993, ,0.00024502238646014114
223, ,PASS, ,0.16931268234323302, ,0.11797301648776798, ,0.006013417413292074, ,0.004318979117833954
224, ,PASS, ,0.08177779243011801, ,0.053043481978939155, ,0.0030846911724494185, ,0.0009368779364013326
225, ,PASS, ,0.078789633082061, ,0.052305954961447146, ,0.0029676176049285925, ,0.0008879996955411841
226, ,PASS, ,0.10589362385734702, ,0.06927277906751192, ,0.0038799455733621343, ,0.0015694601633262793
