Channel, ,Pass/Fail, ,Amplitude, ,Sorting Function Response, ,Mean, ,Variance, ,NPeaksRatio, ,PosIntegralRatio, ,ToT50, ,ToT99
0, ,PASS, ,0.11809512, ,0.015525658791963503, ,0.04552210079377649, ,0.0018458948373741167, ,1.75, ,0.705490208940478, ,0.5411114058896758, ,0.12116079263688496
1, ,PASS, ,0.11648107999999999, ,0.01546777974596983, ,0.04518624447379929, ,0.0018134285144163636, ,1.75, ,0.7085847002061776, ,0.5401930572845453, ,0.1295483765637436
2, ,PASS, ,0.11730639000000001, ,0.015601233784500495, ,0.04552779751560106, ,0.0018419395426762092, ,1.75, ,0.7097416586581585, ,0.5401318340442032, ,0.13071161813024224
3, ,PASS, ,0.11780618000000001, ,0.015483401274580103, ,0.04495444566159196, ,0.001836019508240724, ,1.75, ,0.7048223302466979, ,0.5406624354605009, ,0.11620171016918023
4, ,PASS, ,0.11767362, ,0.015512231540057377, ,0.04534347950309663, ,0.0018374911794461538, ,1.75, ,0.7062951903168753, ,0.5407032509540621, ,0.12348727576988225
5, ,PASS, ,0.11918167000000003, ,0.01575006202256543, ,0.04521167651730104, ,0.0018896079328149151, ,1.75, ,0.7072323539720796, ,0.5406216199669395, ,0.12711985469684292
6, ,PASS, ,0.18201634000000003, ,0.023848601790620684, ,0.04847406615277239, ,0.004370899025289745, ,1.75, ,0.7049864400902084, ,0.5397236791085896, ,0.11112018122079141
7, ,PASS, ,0.10667602999999998, ,0.016041483863693858, ,0.04319777931780983, ,0.0017206890283852241, ,1.75, ,0.7565308142773138, ,0.5214383379931021, ,0.19028183098304116
8, ,PASS, ,0.06740909299999998, ,0.011102475594294302, ,0.04001620546511296, ,0.0007520119167607579, ,1.8333333333333333, ,0.7823475055658359, ,0.5015816003755026, ,0.07924328074937247
9, ,PASS, ,0.06615190099999999, ,0.010959983621677005, ,0.03996787677637192, ,0.0007281764229645493, ,1.8333333333333333, ,0.7844084701715897, ,0.5014183384012572, ,0.075406624354605
10, ,PASS, ,0.06626524600000003, ,0.010962166077152615, ,0.03985423647429645, ,0.0007295845556171954, ,1.8333333333333333, ,0.7844382744635493, ,0.5019489398175547, ,0.07463112997693924
11, ,PASS, ,0.065459358, ,0.010850453751428858, ,0.04000595316879248, ,0.0007134743857290803, ,1.8333333333333333, ,0.7835906519935879, ,0.5008673292381788, ,0.07177404542764433
12, ,PASS, ,0.065020647, ,0.010777917981676642, ,0.03987735662339544, ,0.0007038276012255085, ,1.8333333333333333, ,0.7836004632758415, ,0.5009897757188628, ,0.07618211873227076
13, ,PASS, ,0.06499606100000002, ,0.010714606715884025, ,0.040062763758637585, ,0.0006996938669981921, ,1.8333333333333333, ,0.7808001456684966, ,0.5007040672639334, ,0.07499846941899145
14, ,PASS, ,0.06443776400000002, ,0.010613392524750583, ,0.040067775670659785, ,0.0006867845728433553, ,1.8333333333333333, ,0.7795239571274014, ,0.5001938735944165, ,0.06932511581396299
15, ,PASS, ,0.063811947, ,0.01054144461864421, ,0.03966178104381544, ,0.0006755622757229028, ,1.8333333333333333, ,0.7815744019776, ,0.5003775433154426, ,0.07536580886104365
16, ,PASS, ,0.06367588900000001, ,0.010478246204636266, ,0.03984209226660681, ,0.0006701201147112909, ,1.8333333333333333, ,0.7780314030138687, ,0.499336748229628, ,0.07026387216587417
17, ,PASS, ,0.06323035300000002, ,0.010469347330538495, ,0.039771898374869906, ,0.0006647945416841161, ,1.8333333333333333, ,0.7822756953083532, ,0.4998265341523642, ,0.07699842860349788
18, ,PASS, ,0.06311521000000002, ,0.010457027955765882, ,0.03968814170649579, ,0.0006627346344987566, ,1.8333333333333333, ,0.7823239395944669, ,0.500030611620171, ,0.08201873431154466
19, ,PASS, ,0.06360015900000002, ,0.010446266918673416, ,0.03978452143548091, ,0.0006672963062987334, ,1.8333333333333333, ,0.7783070483845326, ,0.5000714271137324, ,0.06918226158649823
20, ,PASS, ,0.06390689700000002, ,0.010502300712112608, ,0.0398817450542642, ,0.0006742618447966521, ,1.8333333333333333, ,0.7790034554440013, ,0.5002755045815391, ,0.07287606375380094
21, ,PASS, ,0.06421924200000004, ,0.01061995312116058, ,0.039673554771494465, ,0.0006848228454355581, ,1.8333333333333333, ,0.7831657485575271, ,0.5006632517703721, ,0.07618211873227076
22, ,PASS, ,0.06433360000000003, ,0.010612403918119899, ,0.04007107165184384, ,0.0006856689089737875, ,1.8333333333333333, ,0.7816042478091227, ,0.5011530376931083, ,0.07556988632885044
23, ,PASS, ,0.06452385500000002, ,0.010634477945751434, ,0.03994577153307076, ,0.0006893495181005304, ,1.8333333333333333, ,0.782235539934904, ,0.5017244546029673, ,0.0752229546335789
24, ,PASS, ,0.064637519, ,0.010663927894125904, ,0.03984486113956858, ,0.0006921643916181693, ,1.8333333333333333, ,0.7820319603913184, ,0.5016020081222832, ,0.07295769474092366
25, ,PASS, ,0.06452744800000002, ,0.010689686040780431, ,0.039885234643293, ,0.0006926064717842412, ,1.8333333333333333, ,0.7834284218822533, ,0.5016428236158446, ,0.07416175180098365
26, ,PASS, ,0.06452171, ,0.010654292704881309, ,0.040074212664415014, ,0.0006905446340557919, ,1.8333333333333333, ,0.7819380019102723, ,0.5017040468561866, ,0.08034529907552906
27, ,PASS, ,0.06487797499999999, ,0.010641641905613812, ,0.04011839756592723, ,0.0006934210803939284, ,1.8333333333333333, ,0.779161625426637, ,0.5016020081222832, ,0.06752923409726332
28, ,PASS, ,0.06453468200000005, ,0.010680708350111274, ,0.03994172421324055, ,0.0006918743631549544, ,1.8333333333333333, ,0.7824454851490845, ,0.50180608559009, ,0.07405971306708026
29, ,PASS, ,0.06439058300000002, ,0.010680044540936228, ,0.03971567556892717, ,0.000690703359437054, ,1.8333333333333333, ,0.7857619091318702, ,0.5023366870063877, ,0.08252892798106161
30, ,PASS, ,0.064664016, ,0.010627633215838869, ,0.039919856555131535, ,0.0006904876942289298, ,1.8333333333333333, ,0.7810093595999603, ,0.5019489398175547, ,0.07593722577090263
31, ,PASS, ,0.06419050400000002, ,0.010629177488606357, ,0.03990694725334177, ,0.0006851250866394682, ,1.8333333333333333, ,0.7837359018458283, ,0.5017856778433093, ,0.07616171098549009
32, ,PASS, ,0.064346736, ,0.010622925819650197, ,0.04001355149937757, ,0.0006864934221244368, ,1.8333333333333333, ,0.7818742011630119, ,0.5020509785514581, ,0.07269239403277485
33, ,PASS, ,0.063895927, ,0.010643017867911216, ,0.04004239961398747, ,0.0006827200345168547, ,1.8333333333333333, ,0.7869648040933979, ,0.5026223954613172, ,0.07793718495540908
34, ,PASS, ,0.064213372, ,0.010570474272533183, ,0.04000348388014531, ,0.0006815759431348383, ,1.8333333333333333, ,0.7820440641133377, ,0.5019897553111161, ,0.07075365808861044
35, ,PASS, ,0.064064002, ,0.010542973812482774, ,0.04002024235662538, ,0.0006784459116567463, ,1.8333333333333333, ,0.7814012374362679, ,0.50180608559009, ,0.07589641027734127
36, ,PASS, ,0.06365289500000001, ,0.010572078029423664, ,0.0399728895624171, ,0.0006755917687695798, ,1.8333333333333333, ,0.7844807096050826, ,0.502438725740291, ,0.07312095671516908
37, ,PASS, ,0.06388408200000004, ,0.010562127615668881, ,0.040002741473867884, ,0.0006776279864117674, ,1.8333333333333333, ,0.7823188902149347, ,0.5021938327789229, ,0.07191689965510908
38, ,PASS, ,0.06379892500000003, ,0.010525990998829731, ,0.039860523512785455, ,0.0006743323779796092, ,1.8333333333333333, ,0.7813533069501855, ,0.5020509785514581, ,0.06867206791698129
39, ,PASS, ,0.063947758, ,0.010538160980984132, ,0.04006308562349748, ,0.0006769088078677145, ,1.8333333333333333, ,0.7821682196146292, ,0.50301014265015, ,0.07565151731597314
40, ,PASS, ,0.06463915000000002, ,0.010729210608678584, ,0.03977583058247791, ,0.0006964065049439224, ,1.75, ,0.7857559434347156, ,0.503132589130834, ,0.07673312789534907
41, ,PASS, ,0.063562903, ,0.010532242296782747, ,0.03968610888000245, ,0.0006720873074876377, ,1.8333333333333333, ,0.7809882950521124, ,0.5014999693883798, ,0.06975367849635722
42, ,PASS, ,0.06325477000000002, ,0.010481758980502624, ,0.03956083469641437, ,0.0006656622280131445, ,1.8333333333333333, ,0.7835504863225837, ,0.5019081243239933, ,0.07936572723005653
43, ,PASS, ,0.063529445, ,0.010427400752230385, ,0.039727655566233346, ,0.0006655498761490759, ,1.8333333333333333, ,0.7785590529651311, ,0.5016428236158446, ,0.0718964919083284
44, ,PASS, ,0.06348144200000003, ,0.010433973975221406, ,0.03967544412307913, ,0.0006651975468817411, ,1.8333333333333333, ,0.7808268696872517, ,0.502499948980633, ,0.07475357645762332
45, ,PASS, ,0.063368478, ,0.010484078421658527, ,0.03939577002430563, ,0.0006671411207814837, ,1.8333333333333333, ,0.7832438049738217, ,0.5024183179935103, ,0.07397808207995756
46, ,PASS, ,0.06320395500000003, ,0.010434975634875162, ,0.03961609016005796, ,0.0006623155041134216, ,1.8333333333333333, ,0.7816910154205876, ,0.5021734250321422, ,0.07297810248770434
47, ,PASS, ,0.06325181800000002, ,0.01037832950441089, ,0.0396280009167364, ,0.0006593986063877874, ,1.8333333333333333, ,0.7770640378690848, ,0.5016224158690639, ,0.067549641844044
48, ,PASS, ,0.06399502500000001, ,0.010584944426770347, ,0.03975860018593498, ,0.0006802174738377819, ,1.75, ,0.7857809428498286, ,0.5034999285728863, ,0.07773310748760229
49, ,PASS, ,0.06241619300000001, ,0.01025936307660379, ,0.0394869310292239, ,0.0006431274722385009, ,1.8333333333333333, ,0.7782567040151873, ,0.5009693679720822, ,0.07120262851778535
50, ,PASS, ,0.06201641500000004, ,0.0101847275838481, ,0.03938960542393013, ,0.0006344071721169814, ,1.8333333333333333, ,0.7802583128219142, ,0.5017244546029673, ,0.07385563559927348
51, ,PASS, ,0.06213023500000002, ,0.010208577304076427, ,0.039215462059223286, ,0.0006367874394611551, ,1.8333333333333333, ,0.779920432920622, ,0.501112222199547, ,0.07256994755209077
52, ,PASS, ,0.06209802200000002, ,0.010212578675843943, ,0.03925961946886799, ,0.0006367056077392666, ,1.8333333333333333, ,0.7804967993691992, ,0.5017040468561866, ,0.07305973347482704
53, ,PASS, ,0.061941966000000015, ,0.010185495971579774, ,0.03924884017326177, ,0.0006335602590670864, ,1.8333333333333333, ,0.7804443841641406, ,0.5017040468561866, ,0.07665149690822637
54, ,PASS, ,0.062118362999999996, ,0.010221695150177583, ,0.03946980269049612, ,0.0006376016866456931, ,1.8333333333333333, ,0.7809956645049574, ,0.5023570947531683, ,0.07526377012714026
55, ,PASS, ,0.06211752200000002, ,0.010251881987334637, ,0.03951445435121733, ,0.0006392587587671244, ,1.8333333333333333, ,0.780580769889497, ,0.5020101630578968, ,0.07346788841044061
56, ,PASS, ,0.06259046000000001, ,0.01029125621453713, ,0.039627816446705176, ,0.0006470032397663645, ,1.8333333333333333, ,0.7809219142774665, ,0.5025611722209751, ,0.0813452786677823
57, ,PASS, ,0.06319844400000002, ,0.010403512964576365, ,0.039656145984306446, ,0.0006602570967693353, ,1.8333333333333333, ,0.7818732331207578, ,0.5031734046243954, ,0.07436582926879043
58, ,PASS, ,0.06339046900000003, ,0.010429262832297942, ,0.04005723578569826, ,0.0006639496497518126, ,1.75, ,0.7825119605026754, ,0.5039488990020612, ,0.07471276096406196
59, ,PASS, ,0.06334997900000001, ,0.010455058643692255, ,0.0398043123638089, ,0.0006652024995047225, ,1.75, ,0.7831414809399817, ,0.5037448215342544, ,0.07785555396828636
60, ,PASS, ,0.06380940600000001, ,0.010533399916415258, ,0.03957367798622478, ,0.0006748403367244915, ,1.75, ,0.7837517508282364, ,0.5039284912552805, ,0.07952898920430196
61, ,PASS, ,0.06384408000000003, ,0.010553916356642861, ,0.039683766228832074, ,0.0006765844119395122, ,1.75, ,0.7840913162140193, ,0.5038468602681578, ,0.07881471806697822
62, ,PASS, ,0.06302021900000002, ,0.010480399601970877, ,0.03981115438082897, ,0.0006628393023538828, ,1.75, ,0.7858054047708147, ,0.5034591130793249, ,0.07999836738025755
63, ,PASS, ,0.06333700400000004, ,0.010472677572230584, ,0.039843796037611484, ,0.0006659358939228078, ,1.75, ,0.7842203180957774, ,0.5035611518132282, ,0.08063100753045856
64, ,PASS, ,0.06325541800000002, ,0.010432130353277199, ,0.039997518961408955, ,0.0006626559768955401, ,1.75, ,0.7818345730576566, ,0.5031529968776147, ,0.07567192506275382
65, ,PASS, ,0.063447276, ,0.01042838048119025, ,0.03993017362961981, ,0.0006644343952216806, ,1.75, ,0.7809844288003895, ,0.5038264525213771, ,0.07389645109283484
66, ,PASS, ,0.06340380600000002, ,0.01039073714766857, ,0.039876815591804254, ,0.0006617128768905155, ,1.75, ,0.780306699718956, ,0.5041325687230873, ,0.07377400461215078
67, ,PASS, ,0.06275958700000002, ,0.010356887843593454, ,0.03999813844337871, ,0.0006526326815235526, ,1.75, ,0.7823215827312036, ,0.5032754433582988, ,0.07589641027734127
68, ,PASS, ,0.06252182499999999, ,0.010312678308296016, ,0.039640720776535174, ,0.0006473543007438098, ,1.8333333333333333, ,0.782310108060846, ,0.5032754433582988, ,0.07714128283096264
69, ,PASS, ,0.06260348200000003, ,0.010274300305625811, ,0.03956803988553295, ,0.0006460783693522215, ,1.8333333333333333, ,0.7819342494161826, ,0.5026836187016591, ,0.07754943776657619
70, ,PASS, ,0.06229414900000002, ,0.010227534363674158, ,0.04003765109432461, ,0.0006397706524923811, ,1.8333333333333333, ,0.7781286630219828, ,0.5024183179935103, ,0.07054958062080366
71, ,PASS, ,0.062190574000000005, ,0.010227945460115805, ,0.03972398269431236, ,0.0006387494014423412, ,1.8333333333333333, ,0.7790628327280122, ,0.5024183179935103, ,0.06879451439766536
72, ,PASS, ,0.061707358000000025, ,0.010227570609376815, ,0.039502015537825765, ,0.0006333792592240246, ,1.8333333333333333, ,0.783120059839511, ,0.5023366870063877, ,0.07526377012714026
73, ,PASS, ,0.061996346000000015, ,0.010148295849651164, ,0.03979374933444216, ,0.000631953781748239, ,1.8333333333333333, ,0.778797753974608, ,0.5030305503969307, ,0.07756984551335687
74, ,PASS, ,0.06171992599999999, ,0.01015476256246418, ,0.039684648134017675, ,0.0006293381669158932, ,1.8333333333333333, ,0.7821091693486051, ,0.5025815799677558, ,0.08012081386094161
75, ,PASS, ,0.06169316900000002, ,0.01015489607285063, ,0.03970003000732639, ,0.0006290375191289159, ,1.8333333333333333, ,0.7812009585836766, ,0.5024795412338524, ,0.0741209363074223
76, ,PASS, ,0.06200847299999999, ,0.010180271022112681, ,0.03968496834470725, ,0.0006340179467411969, ,1.8333333333333333, ,0.7806387726913917, ,0.503132589130834, ,0.07193730740188976
77, ,PASS, ,0.062108650000000015, ,0.010233313046107565, ,0.03966441283808494, ,0.0006382045044192989, ,1.8333333333333333, ,0.7811545629308408, ,0.5025407644741944, ,0.07303932572804636
78, ,PASS, ,0.06203687300000002, ,0.0102207325191848, ,0.039646366613273205, ,0.0006367278480285124, ,1.8333333333333333, ,0.7814980703055954, ,0.5026223954613172, ,0.07665149690822637
79, ,PASS, ,0.061808969, ,0.010180649934526989, ,0.039849215843227696, ,0.0006317406077030108, ,1.8333333333333333, ,0.7806582613896896, ,0.502499948980633, ,0.07646782718720026
80, ,PASS, ,0.06403789500000001, ,0.010552676378907994, ,0.039908272565457856, ,0.000678665537940976, ,1.8333333333333333, ,0.781307392912426, ,0.5033162588518602, ,0.07897798004122365
81, ,PASS, ,0.13377905, ,0.01895122810494996, ,0.044570978527703524, ,0.0025510465135259682, ,1.6666666666666667, ,0.7348705978239504, ,0.5280912634436032, ,0.14705822330156526
82, ,PASS, ,0.092220437, ,0.013638846776533185, ,0.042566549927855725, ,0.00126499608685812, ,1.75, ,0.7518968383535631, ,0.5220709781433032, ,0.17675149486745168
83, ,PASS, ,0.053837730000000056, ,0.00892946180076711, ,0.03968746206444766, ,0.0004830817833573455, ,1.8333333333333333, ,0.7831873652404779, ,0.4991122630150405, ,0.0720801616293545
84, ,PASS, ,0.05261897000000003, ,0.008795512793169626, ,0.03929806479235117, ,0.00046496045610857164, ,1.8333333333333333, ,0.7888865292381204, ,0.49876533131976897, ,0.0795698046978633
85, ,PASS, ,0.05258417000000002, ,0.008818868195041532, ,0.039266568130446315, ,0.0004659445137835442, ,1.8333333333333333, ,0.7899866093601258, ,0.49927552498928596, ,0.07712087508418196
86, ,PASS, ,0.052635930000000025, ,0.008804863878207106, ,0.03939038198751046, ,0.0004656505444035822, ,1.8333333333333333, ,0.7874340821500206, ,0.4992959327360666, ,0.07754943776657619
87, ,PASS, ,0.052873570000000036, ,0.008792295509022868, ,0.03956014948286769, ,0.0004670920208785785, ,1.8333333333333333, ,0.7849075125877074, ,0.49952041795065405, ,0.07730454480520806
88, ,PASS, ,0.05244316999999998, ,0.008777696158298102, ,0.0393530696675578, ,0.00046241362808846655, ,1.8333333333333333, ,0.7890489629375208, ,0.49907144752147914, ,0.07475357645762332
89, ,PASS, ,0.052681660000000005, ,0.008726776484282092, ,0.03944505829534091, ,0.0004621392942679893, ,1.8333333333333333, ,0.782306180966974, ,0.49870410807942694, ,0.07261076304565213
90, ,PASS, ,0.05240526000000003, ,0.008763240795444258, ,0.03955357749760209, ,0.00046125739312695034, ,1.8333333333333333, ,0.7886331900458081, ,0.49960204893777677, ,0.07232505459072264
91, ,PASS, ,0.052770350000000035, ,0.00885658595221289, ,0.039315413129527965, ,0.00046936288134553163, ,1.8333333333333333, ,0.7892198617254169, ,0.49962245668455746, ,0.06889655313156874
92, ,PASS, ,0.05332859000000004, ,0.00893481003526961, ,0.03944958425828044, ,0.0004787548743967763, ,1.8333333333333333, ,0.7917322785912508, ,0.5011938531866696, ,0.08148813289524703
93, ,PASS, ,0.05275566000000002, ,0.008789632950271624, ,0.03938955173486255, ,0.0004658712704862633, ,1.8333333333333333, ,0.7860440568324413, ,0.499459194710312, ,0.0738352278524928
94, ,PASS, ,0.05252681999999999, ,0.008763059989591078, ,0.039522597073937266, ,0.0004624648951505141, ,1.8333333333333333, ,0.7866449112372496, ,0.49925511724250526, ,0.07118222077100467
95, ,PASS, ,0.05257169000000003, ,0.008780528034245966, ,0.03943377406073345, ,0.000463694540255819, ,1.8333333333333333, ,0.7885748709342636, ,0.5000714271137324, ,0.07834533989102263
96, ,PASS, ,0.052588310000000006, ,0.00874730144183159, ,0.039537760001428536, ,0.0004622689116227656, ,1.8333333333333333, ,0.7851681774440453, ,0.4996632721781188, ,0.07830452439746127
97, ,PASS, ,0.05263913000000001, ,0.008756536765126761, ,0.03941309364502765, ,0.0004631962939543109, ,1.8333333333333333, ,0.7874063860308835, ,0.500479582049346, ,0.07369237362502806
98, ,PASS, ,0.05245294000000002, ,0.008769718471981679, ,0.03944470017428216, ,0.00046210306745849837, ,1.8333333333333333, ,0.7872972025851547, ,0.5001326503540744, ,0.07805963143609314
99, ,PASS, ,0.0525033, ,0.00881172472334688, ,0.03946811841003245, ,0.00046467315995091723, ,1.8333333333333333, ,0.7907274424890558, ,0.500724475010714, ,0.08997775555600906
100, ,PASS, ,0.053253100000000025, ,0.008944635009376067, ,0.03977704973980123, ,0.0004785666102199844, ,1.8333333333333333, ,0.7904261418642418, ,0.501234668680231, ,0.08038611456909042
101, ,PASS, ,0.05212857000000002, ,0.008721682757462016, ,0.039465012996265376, ,0.0004566891727858224, ,1.8333333333333333, ,0.7887224148936601, ,0.4997857186588029, ,0.07769229199404094
102, ,PASS, ,0.05173260000000002, ,0.008708898590724155, ,0.039192877781473845, ,0.00045238365246702013, ,1.8333333333333333, ,0.7917110428470103, ,0.49992857288626763, ,0.08285545192955246
103, ,PASS, ,0.05171090000000003, ,0.008653726221322499, ,0.03929408000183669, ,0.00044953216188036853, ,1.8333333333333333, ,0.7883675195519704, ,0.49913267076182116, ,0.07926368849615315
104, ,PASS, ,0.05168401000000002, ,0.008618360265932436, ,0.03925529636823738, ,0.0004474272530568805, ,1.8333333333333333, ,0.7872198667889745, ,0.49958164119099613, ,0.07465153772371992
105, ,PASS, ,0.05177559000000002, ,0.008596567170342814, ,0.03928311883451358, ,0.00044734613629356405, ,1.8333333333333333, ,0.7840180672770068, ,0.4989285932940144, ,0.07508010040611417
106, ,PASS, ,0.051063740000000024, ,0.008541538931523708, ,0.03908112276320891, ,0.00043793154166265393, ,1.8333333333333333, ,0.7886723380296552, ,0.49872451582620764, ,0.0741209363074223
107, ,PASS, ,0.05108790000000002, ,0.008448196993150385, ,0.039393182902389745, ,0.00043368995241857485, ,1.8333333333333333, ,0.7818946737210413, ,0.49833676863737475, ,0.07536580886104365
108, ,PASS, ,0.05046428999999998, ,0.008340555815545833, ,0.03912315834370727, ,0.00042301573610963007, ,1.8333333333333333, ,0.7802711791042773, ,0.4978061672210771, ,0.07244750107140671
109, ,PASS, ,0.04446887999999999, ,0.0067401540451668875, ,0.03811866298177588, ,0.00030193948343661483, ,1.8333333333333333, ,0.7262662794806494, ,0.4880920797534744, ,0.05299891838942063
