Channel, ,Pass/Fail, ,Amplitude, ,Sorting Function Response, ,Mean, ,Variance
88, ,PASS, ,0.04751821000000002, ,0.04114760053269051, ,0.0029065462937082906, ,0.0003993144545727133
89, ,PASS, ,0.08643857000000002, ,0.0654193592363505, ,0.0055048125274994395, ,0.0011570250257320637
90, ,PASS, ,0.05791542, ,0.04784454796705597, ,0.003790434688149224, ,0.0005661145932077761
91, ,PASS, ,0.05258334000000001, ,0.04560816655029912, ,0.003124220938572682, ,0.0004895851428041346
92, ,PASS, ,0.08792847000000004, ,0.06544510949240452, ,0.005766113489112467, ,0.0011777862422925806
93, ,PASS, ,0.05604397000000001, ,0.04569546283753599, ,0.003666191684230933, ,0.0005233061315428487
94, ,PASS, ,0.05538029, ,0.04788432630098222, ,0.003555917993163406, ,0.0005413074579827644
95, ,PASS, ,0.08849164000000001, ,0.06633048618083198, ,0.005757016500683659, ,0.0012013539793169798
96, ,PASS, ,0.05469768999999999, ,0.04439035853958694, ,0.00355138381814657, ,0.0004961144860129584
97, ,PASS, ,0.055515520000000006, ,0.04867101561702848, ,0.003345636541172631, ,0.0005517275508045614
98, ,PASS, ,0.09207929000000001, ,0.06752938704571651, ,0.005946458056162123, ,0.0012729269540242172
99, ,PASS, ,0.05594145, ,0.04489345843848541, ,0.0035074195629885094, ,0.0005131871435096666
100, ,PASS, ,0.04779939000000001, ,0.041906281520538234, ,0.0028120354856227417, ,0.0004090707043406047
101, ,PASS, ,0.0881055, ,0.06409578187493348, ,0.005565531991183852, ,0.0011564988503733617
102, ,PASS, ,0.05657684000000002, ,0.04426814653790692, ,0.003709276969551641, ,0.0005118918855287488
103, ,PASS, ,0.045912030000000006, ,0.040320082732769026, ,0.0026554693120895475, ,0.00037824310702960415
104, ,PASS, ,0.08853549000000002, ,0.06443901831751615, ,0.005734972098120446, ,0.0011682802696898436
105, ,PASS, ,0.05645511, ,0.04456740747327318, ,0.0036031952886675773, ,0.0005144310475748116
106, ,PASS, ,0.04668988000000002, ,0.041308820841685856, ,0.002876767254607047, ,0.00039421668746643954
107, ,PASS, ,0.09036826, ,0.0655361492606198, ,0.005932300609783475, ,0.0012127736630400102
108, ,PASS, ,0.059499860000000016, ,0.04669068335203732, ,0.003782062479602458, ,0.0005680069368888249
109, ,PASS, ,0.044739039999999994, ,0.03921589133507281, ,0.002773977818569009, ,0.0003585035876990477
110, ,PASS, ,0.08993073000000004, ,0.06543204997895942, ,0.00577106025550499, ,0.0012050872868896
111, ,PASS, ,0.05976275, ,0.04705226134776574, ,0.003862738869002674, ,0.0005750661956997295
112, ,PASS, ,0.04517069, ,0.040160830529921386, ,0.002680799973609926, ,0.0003709656855696066
113, ,PASS, ,0.0886102, ,0.064772353990468, ,0.0056780032903410126, ,0.0011752197606575362
114, ,PASS, ,0.05890688, ,0.047071852648042596, ,0.0037907553338911476, ,0.0005667219812777292
115, ,PASS, ,0.05429359, ,0.04819061872888219, ,0.0034133132160772254, ,0.0005348087878422193
116, ,PASS, ,0.09439925999999996, ,0.0673810248318526, ,0.006119135863145651, ,0.0013029990484043823
117, ,PASS, ,0.06366764000000003, ,0.05051736330522387, ,0.004224889759596744, ,0.000657480518506793
118, ,PASS, ,0.05048983999999999, ,0.044629284635342326, ,0.0031044289675720912, ,0.00046054578616283213
119, ,PASS, ,0.09391596999999995, ,0.06699523056738177, ,0.006072951584049307, ,0.0012890916380259678
120, ,PASS, ,0.06291492000000001, ,0.05023602301184894, ,0.00428144147976572, ,0.0006460584857481192
121, ,PASS, ,0.05033756999999999, ,0.04440317611607473, ,0.0030848548492479755, ,0.00045710904805691145
122, ,PASS, ,0.09391014, ,0.06641194889704487, ,0.006052863646252118, ,0.001278027876657251
123, ,PASS, ,0.0687865, ,0.05311716738517855, ,0.004413174097059246, ,0.000747142865137542
124, ,PASS, ,0.05452664, ,0.04796604382886059, ,0.0035857594357053962, ,0.0005348161911581592
125, ,PASS, ,0.09922968000000003, ,0.06843635010348142, ,0.006393626445990897, ,0.001392530174665022
126, ,PASS, ,0.08287153, ,0.0600460509253792, ,0.005438533178710637, ,0.0010189585993313672
198, ,PASS, ,0.12624626, ,0.07257169387960791, ,0.004149970668761862, ,0.0020721581815342305
199, ,PASS, ,0.057907619999999986, ,0.03259372589855179, ,0.0017595748080651405, ,0.00044786229380959426
200, ,PASS, ,0.052412710000000015, ,0.026486529705091195, ,0.0014666329654496847, ,0.0003325448877124494
201, ,PASS, ,0.050316440000000004, ,0.025063203743873382, ,0.0014440532483010553, ,0.00030207883816330217
202, ,PASS, ,0.052367520000000015, ,0.025299490076651356, ,0.0013217570406726393, ,0.0003175149435001027
203, ,PASS, ,0.0511867, ,0.025448261898896377, ,0.0013601966649660214, ,0.00031147021238201155
204, ,PASS, ,0.055093189999999986, ,0.02797214337304756, ,0.0015323202714230314, ,0.0003655521365256112
205, ,PASS, ,0.05972664999999999, ,0.03061240850624673, ,0.001796985488051263, ,0.0004302927014582102
206, ,PASS, ,0.06232992, ,0.03049993617752353, ,0.0018920428676965767, ,0.0004492132081593874
207, ,PASS, ,0.06683026, ,0.03338612254599908, ,0.0018220763137486995, ,0.0005209110474669932
208, ,PASS, ,0.0539525, ,0.027465889977475514, ,0.0014424510234485007, ,0.0003505624966012198
209, ,PASS, ,0.04980149000000001, ,0.024721263023397753, ,0.001505668454725414, ,0.0002922916226354632
210, ,PASS, ,0.05063447, ,0.025205543764195402, ,0.0013801854337666581, ,0.00030353678591140033
211, ,PASS, ,0.05219966, ,0.02691996742549344, ,0.001620268197383727, ,0.0003314858185248965
212, ,PASS, ,0.06412646, ,0.03433508939262819, ,0.001961700914879288, ,0.0005134844151540426
213, ,PASS, ,0.061327080000000006, ,0.03231242457753518, ,0.0019416946425583142, ,0.0004590012639840373
214, ,PASS, ,0.06397374, ,0.033488365089122035, ,0.0017946493616456806, ,0.0004971314946644284
215, ,PASS, ,0.08092323999999998, ,0.04447757733663391, ,0.002476951312830351, ,0.0008151231309980994
216, ,PASS, ,0.062279870000000015, ,0.03389759879271728, ,0.0018450386708434511, ,0.00048681907762165513
217, ,PASS, ,0.06783132, ,0.03644299489393667, ,0.002134727267606784, ,0.0005652848301104428
218, ,PASS, ,0.06948207000000002, ,0.03831777686801291, ,0.002100461187322708, ,0.0006063318092729237
219, ,PASS, ,0.06937922000000002, ,0.03755682499322243, ,0.0021822823407685564, ,0.0005960813597671486
220, ,PASS, ,0.041962379999999994, ,0.022675325154035683, ,0.00118390929225934, ,0.0002242089176380678
221, ,PASS, ,0.045970440000000015, ,0.024675070244640756, ,0.00130209746372523, ,0.00026558044258367193
222, ,PASS, ,0.04461151999999999, ,0.02436716918195285, ,0.0012898011848737777, ,0.0002553639531363186
223, ,PASS, ,0.052285100000000015, ,0.028618018048235376, ,0.0015003411954858062, ,0.00034664298414573196
224, ,PASS, ,0.07125130000000002, ,0.0404141403341774, ,0.002279664519907757, ,0.0006481064490409332
225, ,PASS, ,0.06581095999999999, ,0.03672714861684813, ,0.002234882675047448, ,0.0005484508671231474
226, ,PASS, ,0.06366774000000001, ,0.03459193389220007, ,0.00189659675129079, ,0.0005017635195751649
227, ,PASS, ,0.08646860000000003, ,0.05042591969703641, ,0.003069919946531705, ,0.0009609433821882663
228, ,PASS, ,0.06681938, ,0.03724698055638974, ,0.0020711191065488467, ,0.0005639204912711084
229, ,PASS, ,0.06715246000000002, ,0.03712701167263502, ,0.0020950264682353427, ,0.000565869193094072
230, ,PASS, ,0.051875519999999994, ,0.028254152099214683, ,0.0014653554943776662, ,0.00033903183456497377
231, ,PASS, ,0.08773725000000002, ,0.051691222036174156, ,0.0029371340264484403, ,0.0009986664083200328
232, ,PASS, ,0.06196557000000002, ,0.03505870769584993, ,0.0019527295720495495, ,0.000492775080142169
233, ,PASS, ,0.07539274000000001, ,0.04123093511530889, ,0.0024436017746576606, ,0.0007033538529918827
234, ,PASS, ,0.07432709000000001, ,0.04560712571672436, ,0.0024523936044162364, ,0.0007615925519505872
235, ,PASS, ,0.11049822000000001, ,0.06915188491706604, ,0.0038382205612130385, ,0.0016615334690028107
