Channel, ,Pass/Fail, ,Amplitude, ,Sorting Function Response, ,Mean, ,Variance, ,NPeaksRatio, ,PosIntegralRatio, ,ToT50, ,ToT99
7, ,PASS, ,0.02208489, ,0.003595319754016399, ,0.02699476082753413, ,8.053272334812144e-05, ,1.8333333333333333, ,0.7693608340770526, ,0.4476235178873901, ,0.0526519866941491
8, ,PASS, ,0.07544856199999997, ,0.013262956162956491, ,0.024346793432766675, ,0.0010144956215950743, ,1.9166666666666667, ,0.8069577879026384, ,0.4454602967286382, ,0.07648823493398094
9, ,PASS, ,0.06190242500000001, ,0.010597746527561552, ,0.02415791784424971, ,0.0006660397613492561, ,1.8333333333333333, ,0.7941591865572205, ,0.4365625191322626, ,0.06987612497704128
10, ,PASS, ,0.016550129999999996, ,0.0023901498746421055, ,0.02715263439440011, ,4.047712062506736e-05, ,1.75, ,0.7048985103365473, ,0.4338074733168711, ,0.038284932960551826
11, ,PASS, ,0.015816220000000006, ,0.0022870610633122495, ,0.02695666967592498, ,3.698242944393807e-05, ,1.8333333333333333, ,0.7146473491323336, ,0.43005244790922637, ,0.05210097753107079
12, ,PASS, ,0.01504859, ,0.0021693572733176435, ,0.026855130841615473, ,3.336006201384946e-05, ,1.8333333333333333, ,0.7106388181261424, ,0.42862390563457886, ,0.04397869431236097
13, ,PASS, ,0.014777760000000011, ,0.0021733159305608223, ,0.027013028323299524, ,3.284610291407052e-05, ,1.8333333333333333, ,0.7255944776640099, ,0.4259708985530907, ,0.03810126323952572
14, ,PASS, ,0.015643380000000005, ,0.0022689706269687264, ,0.026826651444256243, ,3.628053651331415e-05, ,1.8333333333333333, ,0.7193541528206847, ,0.42744025632129956, ,0.0421011816085386
15, ,PASS, ,0.015240019999999996, ,0.0022016863937017604, ,0.02690862085181935, ,3.431102155866348e-05, ,1.8333333333333333, ,0.7095654341851724, ,0.43125650496928636, ,0.049325523968898596
16, ,PASS, ,0.014683990000000004, ,0.002107012765938438, ,0.02687489408032489, ,3.166596536858235e-05, ,1.8333333333333333, ,0.7177710185931171, ,0.4313381359564091, ,0.04665210914062978
17, ,PASS, ,0.014840100000000002, ,0.0021005106131072255, ,0.02693559744637864, ,3.183850946056268e-05, ,1.8333333333333333, ,0.7076549356177411, ,0.4259708985530907, ,0.047427603518295544
18, ,PASS, ,0.014819930000000009, ,0.0021271398135425, ,0.027033424645823555, ,3.225285666164693e-05, ,1.8333333333333333, ,0.7082036277184006, ,0.4310320197546989, ,0.04791738944103181
19, ,PASS, ,0.014677220000000005, ,0.002077783466172894, ,0.026911493710944673, ,3.1239876564299766e-05, ,1.75, ,0.7149362255305806, ,0.43452174445419484, ,0.04669292463419114
20, ,PASS, ,0.014877860000000014, ,0.0021076998943887586, ,0.026968610646517416, ,3.2117288972787286e-05, ,1.75, ,0.698822579189905, ,0.42911369155731516, ,0.03289728781045285
21, ,PASS, ,0.015117300000000018, ,0.002087623743176457, ,0.026988660129793268, ,3.225568498063394e-05, ,1.8333333333333333, ,0.703756940445483, ,0.4272361788534928, ,0.049509193689924694
22, ,PASS, ,0.01473422000000002, ,0.0021383601945802536, ,0.027042471163241568, ,3.221591203692453e-05, ,1.8333333333333333, ,0.7104942244838618, ,0.431276912716067, ,0.047427603518295544
23, ,PASS, ,0.014585649999999992, ,0.0021057373155972036, ,0.02712118876675986, ,3.141977340529204e-05, ,1.8333333333333333, ,0.7079491956449289, ,0.4316850676516806, ,0.04930511622211792
24, ,PASS, ,0.014577940000000001, ,0.002081742687779757, ,0.027229620122038323, ,3.1059890267500265e-05, ,1.8333333333333333, ,0.7033024239983354, ,0.4309503887675762, ,0.044856227423930126
25, ,PASS, ,0.01457780000000002, ,0.002094915327565177, ,0.02702889364747658, ,3.131483025808544e-05, ,1.8333333333333333, ,0.7210263502966451, ,0.4356237627803514, ,0.06232525866819044
26, ,PASS, ,0.014482920000000017, ,0.0020926117856721466, ,0.027051691857104952, ,3.10317492915069e-05, ,1.8333333333333333, ,0.7089319739040926, ,0.43068508805942735, ,0.04146854145833759
27, ,PASS, ,0.014512230000000008, ,0.002080619304551306, ,0.02713212024019918, ,3.087986946969182e-05, ,1.8333333333333333, ,0.700136189265782, ,0.4283177894328687, ,0.03906042733821759
28, ,PASS, ,0.01462326000000002, ,0.0020628274351212426, ,0.027153121744658275, ,3.087345525991214e-05, ,1.75, ,0.6959531929186042, ,0.4301748943899104, ,0.044039917552703006
29, ,PASS, ,0.014292220000000008, ,0.002025728639474112, ,0.027012670339176748, ,2.959378904208481e-05, ,1.75, ,0.7075209217921069, ,0.4350931613640538, ,0.037489030836105386
30, ,PASS, ,0.01440277000000001, ,0.0020660830791332644, ,0.02713210758045754, ,3.0443022850426283e-05, ,1.8333333333333333, ,0.7074920658215155, ,0.4310932429950409, ,0.04218281259566131
31, ,PASS, ,0.014257290000000006, ,0.002086899883849917, ,0.027213312994020532, ,3.0446237345205802e-05, ,1.8333333333333333, ,0.7220488816786247, ,0.4342972592396074, ,0.05534580926919859
32, ,PASS, ,0.014354879999999997, ,0.002012311532539637, ,0.026857468611048756, ,2.9571099064389682e-05, ,1.8333333333333333, ,0.6976312548518588, ,0.43035856411093654, ,0.031754453990734885
33, ,PASS, ,0.014511240000000005, ,0.001998807768460991, ,0.026893190451827514, ,2.9691030083230497e-05, ,1.8333333333333333, ,0.6906712548776841, ,0.430644272565866, ,0.034652354033591154
34, ,PASS, ,0.014409560000000009, ,0.0020456888232222065, ,0.026998978879818777, ,3.016115101705729e-05, ,1.8333333333333333, ,0.7014996328072711, ,0.4276443337891063, ,0.04887655353972368
35, ,PASS, ,0.014274490000000004, ,0.002011280610550095, ,0.026953338486153344, ,2.9415234589704564e-05, ,1.75, ,0.6967902048741295, ,0.43376665782330975, ,0.041590987939021655
36, ,PASS, ,0.01430509000000001, ,0.0020477329158119354, ,0.027014256631497313, ,2.997122797191647e-05, ,1.8333333333333333, ,0.7053766319649133, ,0.43123609722250567, ,0.04138691047121487
37, ,PASS, ,0.014423670000000013, ,0.002132347702926911, ,0.02712960341135895, ,3.143221760230099e-05, ,1.75, ,0.7223753901036776, ,0.43658292687904326, ,0.04603987673720945
38, ,PASS, ,0.01417523, ,0.0020853351857934546, ,0.02700345927348421, ,3.020116899097336e-05, ,1.8333333333333333, ,0.7254648105721572, ,0.42699128589212465, ,0.05938654313177282
39, ,PASS, ,0.014207980000000002, ,0.0020635740520282553, ,0.027149239024917855, ,3.0015145959733117e-05, ,1.75, ,0.7131077906891036, ,0.4350931613640538, ,0.02869329197363319
40, ,PASS, ,0.014337989999999984, ,0.0020344605665312265, ,0.026804555913552783, ,2.9804292973433072e-05, ,1.8333333333333333, ,0.7082228370141201, ,0.4296851084671741, ,0.032999326544356236
41, ,PASS, ,0.014339520000000012, ,0.0020497415765320646, ,0.02683483963470133, ,3.0020691961823165e-05, ,1.8333333333333333, ,0.7109367928223977, ,0.4322156690679782, ,0.037509438582886065
42, ,PASS, ,0.014266260000000006, ,0.002049397319883293, ,0.02693467414175221, ,2.986507463213834e-05, ,1.8333333333333333, ,0.7076086682090893, ,0.43117487398216364, ,0.03740739984898268
43, ,PASS, ,0.014497320000000015, ,0.002070670072460672, ,0.02691947741699149, ,3.0731449207305394e-05, ,1.75, ,0.7039674050104818, ,0.43241974653578497, ,0.040835901308136566
44, ,PASS, ,0.014226409999999998, ,0.002032637912926462, ,0.026747370969980203, ,2.9580813275706695e-05, ,1.75, ,0.7086110170149252, ,0.42452194853166264, ,0.046917409848778596
45, ,PASS, ,0.01449955000000001, ,0.002227404976738973, ,0.026949171472827084, ,3.2926261663205666e-05, ,1.75, ,0.740391691471981, ,0.43254219301646907, ,0.05124385216628232
46, ,PASS, ,0.014252980000000005, ,0.0020873549673977375, ,0.026914964839901225, ,3.038098470003771e-05, ,1.8333333333333333, ,0.722821841166848, ,0.42856268239423684, ,0.04291749147976572
47, ,PASS, ,0.014223680000000002, ,0.002036291143822735, ,0.026881046335789065, ,2.9621863642858787e-05, ,1.8333333333333333, ,0.7048386121126485, ,0.4313993591967511, ,0.041978735127854536
48, ,PASS, ,0.013960180000000016, ,0.00200326491360373, ,0.02682186002959123, ,2.861651485280636e-05, ,1.8333333333333333, ,0.7135216710970289, ,0.4251545886818636, ,0.04712148731658537
49, ,PASS, ,0.014059599999999988, ,0.0020292051852717967, ,0.02701860932552397, ,2.9179405754046566e-05, ,1.8333333333333333, ,0.7070335646663749, ,0.43156262117099653, ,0.03952980551417318
50, ,PASS, ,0.014226160000000005, ,0.002022674057216822, ,0.026753501971592413, ,2.9410307131277145e-05, ,1.8333333333333333, ,0.7049413984012831, ,0.4325217852696884, ,0.04295830697332707
51, ,PASS, ,0.01396596000000001, ,0.002032193907189012, ,0.026843997303728495, ,2.9053290427164266e-05, ,1.8333333333333333, ,0.7166194847440656, ,0.4329503479520826, ,0.04114201750984674
52, ,PASS, ,0.014186870000000004, ,0.0020419973371097007, ,0.026819221802208117, ,2.9629272026838853e-05, ,1.75, ,0.7121546158077098, ,0.4292973612783413, ,0.03991755270300606
53, ,PASS, ,0.01396325000000002, ,0.002012193929608189, ,0.026615969527968818, ,2.8738515032251278e-05, ,1.8333333333333333, ,0.7082681226423683, ,0.4320319993469521, ,0.049835717638415544
54, ,PASS, ,0.014027730000000009, ,0.002046954466442028, ,0.026726291714454807, ,2.9346925161029386e-05, ,1.8333333333333333, ,0.7152922215838932, ,0.4326238240035918, ,0.04106038652272403
55, ,PASS, ,0.013911420000000011, ,0.0020204015364883926, ,0.026718204526642312, ,2.8738139545182076e-05, ,1.75, ,0.7140537439837991, ,0.43364421134262565, ,0.04097875553560131
56, ,PASS, ,0.014149709999999996, ,0.002025486468706571, ,0.026721395575396416, ,2.930285277631103e-05, ,1.8333333333333333, ,0.7092479856583469, ,0.4264810922226077, ,0.048305136629864694
57, ,PASS, ,0.014139680000000002, ,0.002021021409695628, ,0.026932160849370418, ,2.918894224789443e-05, ,1.75, ,0.7040703614897234, ,0.43419522050570397, ,0.04028489214505827
58, ,PASS, ,0.01403629, ,0.002012009099006909, ,0.026805264872757698, ,2.8851870325610424e-05, ,1.8333333333333333, ,0.7074286155532911, ,0.4295422542397094, ,0.03865227240260403
59, ,PASS, ,0.013911050000000008, ,0.0019894393158998522, ,0.02685755211954858, ,2.828207683959901e-05, ,1.8333333333333333, ,0.7112329395678281, ,0.42662394645007246, ,0.05295810289585927
60, ,PASS, ,0.013942670000000018, ,0.002013954325554382, ,0.026827907040060404, ,2.873585715975804e-05, ,1.8333333333333333, ,0.717739685911075, ,0.43615436419664905, ,0.044529703475439275
61, ,PASS, ,0.014313230000000007, ,0.0020028960641633293, ,0.02681527159751842, ,2.933839503367063e-05, ,1.8333333333333333, ,0.6932078680336038, ,0.4277667802697904, ,0.04428481051407114
62, ,PASS, ,0.014153610000000011, ,0.002018908659787149, ,0.026946269315320095, ,2.920004222743243e-05, ,1.8333333333333333, ,0.7006492548661025, ,0.4317258831452419, ,0.03987673720944471
63, ,PASS, ,0.014088320000000012, ,0.00200229716217788, ,0.026804580077345357, ,2.881721762997363e-05, ,1.75, ,0.705956327630625, ,0.4310320197546989, ,0.05048876553539724
64, ,PASS, ,0.014028320000000007, ,0.002037953146275122, ,0.026851193397073526, ,2.9143496334016433e-05, ,1.9166666666666667, ,0.7057253275306155, ,0.43078712679333075, ,0.05046835778861656
65, ,PASS, ,0.014219499999999996, ,0.001998014397586227, ,0.027032241892818516, ,2.907265761658183e-05, ,1.8333333333333333, ,0.7039708473900931, ,0.4347258219220016, ,0.05336625783147283
66, ,PASS, ,0.014259379999999988, ,0.002021463090653006, ,0.027109082418113915, ,2.9475462853126596e-05, ,1.8333333333333333, ,0.6954111908198897, ,0.43041978735127856, ,0.04603987673720945
67, ,PASS, ,0.014107959999999992, ,0.0020093301637893594, ,0.026790236294361336, ,2.904499040307585e-05, ,1.8333333333333333, ,0.702587817901498, ,0.43150139793065445, ,0.0422848513295647
68, ,PASS, ,0.01426896, ,0.002024412026616363, ,0.02680852337523724, ,2.948360739724275e-05, ,1.8333333333333333, ,0.7022277050792576, ,0.42619538376767824, ,0.03863186465582335
69, ,PASS, ,0.014229430000000019, ,0.002022942343048566, ,0.026587307011081404, ,2.9394248107551177e-05, ,1.8333333333333333, ,0.7116115166350906, ,0.4305626415787433, ,0.039182873818901655
70, ,PASS, ,0.014399060000000009, ,0.002072428103789642, ,0.026766566221505684, ,3.047793785925324e-05, ,1.8333333333333333, ,0.7155052186997853, ,0.4260117140466521, ,0.04099916328238199
71, ,PASS, ,0.01416885, ,0.0020271294242191055, ,0.026806709490826718, ,2.924337725005304e-05, ,1.9166666666666667, ,0.7106320156633071, ,0.4226648435746209, ,0.05038672680149385
72, ,PASS, ,0.014428049999999998, ,0.0020434507203782857, ,0.02699113803412175, ,3.0154357864670138e-05, ,1.8333333333333333, ,0.7028036928723268, ,0.42946062325258666, ,0.04224403583600335
73, ,PASS, ,0.01909713999999999, ,0.002920388917108387, ,0.026486982344850106, ,5.694615662535579e-05, ,1.9166666666666667, ,0.7480296066598163, ,0.42505254994796027, ,0.054284606436603336
74, ,PASS, ,0.011591399999999991, ,0.0016024958149100969, ,0.026835231995061323, ,1.900852379611508e-05, ,1.8333333333333333, ,0.6905873117285789, ,0.4287871676088243, ,0.04477459643680741
75, ,PASS, ,0.011217729999999988, ,0.0014973744028388659, ,0.027056686699863268, ,1.721575155949538e-05, ,1.8333333333333333, ,0.676951583910148, ,0.428807575355605, ,0.02887696169465929
76, ,PASS, ,0.010928819999999988, ,0.0014589242002009397, ,0.027216599739393072, ,1.6364361589260698e-05, ,1.8333333333333333, ,0.6801044150735531, ,0.4325013775229077, ,0.04426440276729046
77, ,PASS, ,0.010824919999999988, ,0.0014384267756705252, ,0.02696959171323034, ,1.599435031730336e-05, ,1.8333333333333333, ,0.6758417563731554, ,0.426460684475827, ,0.02565253770331218
78, ,PASS, ,0.011003020000000013, ,0.0014964860435899804, ,0.026909830885083977, ,1.6897120384527418e-05, ,1.8333333333333333, ,0.6879389499011745, ,0.43074631129976937, ,0.0407134548274525
79, ,PASS, ,0.011117919999999979, ,0.0014536061361755343, ,0.027057270690189997, ,1.6559545083412734e-05, ,1.8333333333333333, ,0.6535343081492787, ,0.4266647619436338, ,0.03526458643701149
112, ,PASS, ,0.010657979999999994, ,0.0015051700909779993, ,0.027040381732413625, ,1.6417867193049614e-05, ,1.8333333333333333, ,0.7109361386791225, ,0.4286034978877982, ,0.042937899226546394
113, ,PASS, ,0.011045249999999986, ,0.0014991105199958202, ,0.027019669347564335, ,1.6964080838827913e-05, ,1.9166666666666667, ,0.6957930136759563, ,0.4238689006346809, ,0.029774902553009124
114, ,PASS, ,0.010830879999999984, ,0.0015016677741279578, ,0.027154333571151608, ,1.6677873193675738e-05, ,1.8333333333333333, ,0.6863572531309912, ,0.4296238852268321, ,0.04793779718781249
115, ,PASS, ,0.010935809999999987, ,0.0014852686823075025, ,0.02709178996938838, ,1.6675525935115515e-05, ,1.8333333333333333, ,0.6876282334325632, ,0.4283177894328687, ,0.03473398502071386
116, ,PASS, ,0.010979139999999981, ,0.001481136593480882, ,0.02716529576804555, ,1.6662119828766763e-05, ,1.9166666666666667, ,0.6864301190716424, ,0.42274647456174363, ,0.04377461684455419
117, ,PASS, ,0.011065269999999999, ,0.0014801346017903237, ,0.027210319634497254, ,1.67771962230886e-05, ,1.8333333333333333, ,0.6854842871223834, ,0.4313177282096284, ,0.03897879635109488
118, ,PASS, ,0.011040469999999993, ,0.0014944982687181772, ,0.026970243725434176, ,1.689125093865986e-05, ,1.9166666666666667, ,0.6920032873761909, ,0.425134180935083, ,0.04834595212342605
119, ,PASS, ,0.010712509999999995, ,0.0014807755911932354, ,0.027111972077100466, ,1.6237957770925833e-05, ,1.9166666666666667, ,0.6877068587299109, ,0.42403216260892634, ,0.04336646190894063
120, ,PASS, ,0.010924569999999991, ,0.0014771653659321705, ,0.02704992097589845, ,1.6507811147788765e-05, ,1.9166666666666667, ,0.6854236382592157, ,0.4225423970939369, ,0.036713536458439625
121, ,PASS, ,0.01086794, ,0.001467054712152694, ,0.0270578238374727, ,1.632236993555154e-05, ,1.9166666666666667, ,0.6846815475986477, ,0.42156282524846433, ,0.042835860492643006
122, ,PASS, ,0.010750759999999995, ,0.0014771071681800253, ,0.027073599977755557, ,1.6322002126371925e-05, ,1.8333333333333333, ,0.694680134431466, ,0.43207281484051346, ,0.04008081467725148
123, ,PASS, ,0.010886309999999996, ,0.001468566558316272, ,0.027030073463806863, ,1.6429274213903294e-05, ,1.8333333333333333, ,0.6923987270321583, ,0.43035856411093654, ,0.053570335299279605
124, ,PASS, ,0.010595929999999986, ,0.0014490729001321715, ,0.027085319344911325, ,1.5714222063170013e-05, ,1.8333333333333333, ,0.6985853592472088, ,0.4267668006775372, ,0.04055019285320708
125, ,PASS, ,0.01085908, ,0.0014334020090721556, ,0.0272550014246648, ,1.598901467727859e-05, ,1.8333333333333333, ,0.6683313237489096, ,0.4313177282096284, ,0.03218301667312912
126, ,PASS, ,0.010754799999999991, ,0.0015012239340003882, ,0.027195191217118015, ,1.6526182463992673e-05, ,1.8333333333333333, ,0.6980698688058712, ,0.42782800351013245, ,0.042039958368196566
127, ,PASS, ,0.01073993999999999, ,0.0014851875106309765, ,0.02722911689638987, ,1.633289209053327e-05, ,1.8333333333333333, ,0.7110205159636239, ,0.4337054345829677, ,0.047835758453909104
128, ,PASS, ,0.010578569999999995, ,0.0014597729280111953, ,0.027473561900573457, ,1.5832444566630464e-05, ,1.8333333333333333, ,0.7043457021037288, ,0.4316850676516806, ,0.04303993796044979
129, ,PASS, ,0.010666959999999986, ,0.0014791277047467364, ,0.027302154377461682, ,1.6249611595463103e-05, ,1.75, ,0.6940333452635734, ,0.43535846207220263, ,0.0408971245484786
130, ,PASS, ,0.010781079999999998, ,0.001436858081858326, ,0.027260389845921513, ,1.588846539896568e-05, ,1.8333333333333333, ,0.6896672348834169, ,0.4284402359135528, ,0.036284973776045386
131, ,PASS, ,0.010733179999999981, ,0.0014676526425047422, ,0.02725966125793351, ,1.6121537821857535e-05, ,1.9166666666666667, ,0.6900384207336933, ,0.42319544499091855, ,0.03946858227383115
132, ,PASS, ,0.010779729999999998, ,0.001460328346412983, ,0.027427643839717557, ,1.6152088185525994e-05, ,1.8333333333333333, ,0.6916259647315054, ,0.42809330421828123, ,0.048631660578355544
133, ,PASS, ,0.010800150000000005, ,0.0014554858546719936, ,0.02700508700679578, ,1.6130401951296015e-05, ,1.75, ,0.6792328949325065, ,0.43246056202934635, ,0.02867288422685251
134, ,PASS, ,0.010746989999999991, ,0.001454188493859972, ,0.027124649793269527, ,1.5980736693458914e-05, ,1.8333333333333333, ,0.6865232081817698, ,0.42893002183628903, ,0.03652986673741352
135, ,PASS, ,0.010680299999999986, ,0.0014567624860931554, ,0.027127361101814247, ,1.5954772734782107e-05, ,1.8333333333333333, ,0.6851105818789364, ,0.4309299810207955, ,0.04316238444113386
136, ,PASS, ,0.010882139999999981, ,0.0014435577784730896, ,0.027326699737964533, ,1.612475866499448e-05, ,1.8333333333333333, ,0.6720136338957096, ,0.4333585028876962, ,0.05091732821779148
137, ,PASS, ,0.010976759999999981, ,0.0013932564945089855, ,0.027339606519254708, ,1.564257425243245e-05, ,1.9166666666666667, ,0.6625038833083098, ,0.4283994204199914, ,0.03446868431256505
138, ,PASS, ,0.010697509999999986, ,0.001405075068102503, ,0.02722047316462929, ,1.5429626468291008e-05, ,1.8333333333333333, ,0.6729990081465466, ,0.4281545274586233, ,0.026366808840635907
139, ,PASS, ,0.010551149999999999, ,0.001436191072959642, ,0.02718018538131875, ,1.5548287612208847e-05, ,1.75, ,0.6884319903131693, ,0.4317666986388033, ,0.05059080426930063
140, ,PASS, ,0.01030704, ,0.0014476102021629192, ,0.027300950670394484, ,1.529240915939417e-05, ,1.8333333333333333, ,0.6893065198965549, ,0.4252770351625477, ,0.0396930674884186
141, ,PASS, ,0.01038778, ,0.0015028048871817876, ,0.027088722188730843, ,1.5952686950782193e-05, ,1.8333333333333333, ,0.7211074173596487, ,0.43190955286626803, ,0.04440725699475521
142, ,PASS, ,0.010748939999999992, ,0.0014292927131029432, ,0.027337045792534844, ,1.5750758922681822e-05, ,1.8333333333333333, ,0.6663584028823545, ,0.4300320401624457, ,0.03287688006367217
143, ,PASS, ,0.010817819999999971, ,0.001412106910301602, ,0.027252817699230627, ,1.5683205238643343e-05, ,1.8333333333333333, ,0.661747526470606, ,0.43123609722250567, ,0.031754453990734885
176, ,PASS, ,0.010646179999999988, ,0.0014357475063790134, ,0.02729407270218975, ,1.5680722374973274e-05, ,1.8333333333333333, ,0.6738974896877694, ,0.4286034978877982, ,0.049407154956021306
177, ,PASS, ,0.010516919999999992, ,0.0014079069941316854, ,0.027168173564417055, ,1.5198545132680615e-05, ,1.8333333333333333, ,0.6786869705314981, ,0.4329503479520826, ,0.04179506540682843
178, ,PASS, ,0.010583999999999982, ,0.0014148238565938674, ,0.027382273873390338, ,1.530812625113681e-05, ,1.8333333333333333, ,0.6849041158951598, ,0.4310320197546989, ,0.041672618926144364
179, ,PASS, ,0.010223490000000012, ,0.0013991814894706237, ,0.027245737869839387, ,1.4673741129750393e-05, ,1.8333333333333333, ,0.6972133237156314, ,0.4272565866002735, ,0.04777453521356707
180, ,PASS, ,0.01058758999999998, ,0.001448784985227555, ,0.027260266517009857, ,1.5728036113451015e-05, ,1.9166666666666667, ,0.696563221056361, ,0.42441990979775923, ,0.03410134487051285
181, ,PASS, ,0.010817309999999986, ,0.0016489211493905145, ,0.027114116142527702, ,1.8160459618163836e-05, ,1.8333333333333333, ,0.7417088314268031, ,0.4260117140466521, ,0.022101589763474216
182, ,PASS, ,0.010403109999999997, ,0.0014005701473907897, ,0.0272960351707108, ,1.493643182687174e-05, ,1.8333333333333333, ,0.6804877089822631, ,0.430644272565866, ,0.031734046243954206
183, ,PASS, ,0.01055138999999999, ,0.001404949276751727, ,0.027324665385400296, ,1.5176706889372516e-05, ,1.8333333333333333, ,0.6803586297010354, ,0.42960347748005145, ,0.040448154119303685
184, ,PASS, ,0.010394049999999995, ,0.0013822914309111784, ,0.027213635554784597, ,1.4758121826391518e-05, ,1.8333333333333333, ,0.6762866538308775, ,0.4327054549907145, ,0.0407134548274525
185, ,PASS, ,0.010317719999999996, ,0.0013877495763382711, ,0.02712386924879084, ,1.4650752218410656e-05, ,1.9166666666666667, ,0.6847646114297916, ,0.4255219281239158, ,0.04467255770290402
186, ,PASS, ,0.010397949999999986, ,0.0014184739784558452, ,0.027284767793310336, ,1.5099242422444505e-05, ,1.8333333333333333, ,0.6850111312911019, ,0.4293177690251219, ,0.04510112038529826
187, ,PASS, ,0.010431739999999991, ,0.0013955273109419277, ,0.027313741766698638, ,1.4921460232084868e-05, ,1.8333333333333333, ,0.6783360071925532, ,0.42901165282341175, ,0.04212158935531928
188, ,PASS, ,0.01024286, ,0.0013800456101233376, ,0.02721863304218281, ,1.4478930920873802e-05, ,1.8333333333333333, ,0.6748248176016799, ,0.42737903308095754, ,0.03687679843268505
189, ,PASS, ,0.010363119999999997, ,0.0013437076340725627, ,0.027166658143711355, ,1.4304772300347933e-05, ,1.75, ,0.6741797787473937, ,0.4275218873084223, ,0.03097895961306912
190, ,PASS, ,0.010251039999999986, ,0.001378865547613366, ,0.027290248263300745, ,1.4497431118873892e-05, ,1.8333333333333333, ,0.677405242041417, ,0.4278688190036938, ,0.035815595600089796
191, ,PASS, ,0.010023090000000002, ,0.0013764146779166949, ,0.02719771557070264, ,1.412634181019036e-05, ,1.8333333333333333, ,0.6868920717615933, ,0.4301748943899104, ,0.04055019285320708
192, ,PASS, ,0.010207310000000008, ,0.0013882781993318667, ,0.02711294834636028, ,1.452695653346942e-05, ,1.8333333333333333, ,0.683608528055507, ,0.4329503479520826, ,0.03944817452705047
193, ,PASS, ,0.010232970000000011, ,0.0014006917516317377, ,0.027229808907369236, ,1.4690995541291489e-05, ,1.8333333333333333, ,0.6854408558370765, ,0.43282790147139855, ,0.039162466072120976
194, ,PASS, ,0.010036030000000008, ,0.0013572063037851029, ,0.02717725645966409, ,1.3966676305387177e-05, ,1.8333333333333333, ,0.6893622223290167, ,0.427603518295545, ,0.043264423175037245
195, ,PASS, ,0.010131589999999996, ,0.0013597951626715496, ,0.027253548822881165, ,1.4123086983631098e-05, ,1.8333333333333333, ,0.6694301623910193, ,0.42941980775902533, ,0.029162670149588784
196, ,PASS, ,0.01014116999999998, ,0.0013449885400131693, ,0.02733677933225852, ,1.3974267479888426e-05, ,1.8333333333333333, ,0.6737811073906291, ,0.4316646599048999, ,0.04316238444113386
197, ,PASS, ,0.01005975999999999, ,0.0013525751060790817, ,0.027373138044733777, ,1.395656726164576e-05, ,1.8333333333333333, ,0.68982213609126, ,0.4321136303340748, ,0.032142201179567766
198, ,PASS, ,0.010220799999999999, ,0.0013401437857267005, ,0.027507718861451806, ,1.4058110146249313e-05, ,1.8333333333333333, ,0.6810846709738242, ,0.42986877818820024, ,0.03297891879757556
199, ,PASS, ,0.010037210000000015, ,0.0013495483290303061, ,0.027184351805677433, ,1.3871502046915811e-05, ,1.8333333333333333, ,0.6807458500314879, ,0.43074631129976937, ,0.014836431909552866
200, ,PASS, ,0.010209199999999988, ,0.0013449716451536982, ,0.027255464550723457, ,1.4082240478911735e-05, ,1.8333333333333333, ,0.6795676119556112, ,0.4299912246688843, ,0.04401950980592233
201, ,PASS, ,0.009978909999999987, ,0.0013725514516335223, ,0.02705603708005959, ,1.4018286258867623e-05, ,1.8333333333333333, ,0.699597928793588, ,0.43207281484051346, ,0.03889716536397216
202, ,PASS, ,0.010019639999999993, ,0.0013537203114910026, ,0.027350574319911836, ,1.391829885004238e-05, ,1.75, ,0.6783092771340961, ,0.4326034162568111, ,0.03367278218811861
203, ,PASS, ,0.010070040000000006, ,0.0013310877346985625, ,0.02730882637068631, ,1.3771234347920071e-05, ,1.8333333333333333, ,0.6686203812422109, ,0.43162384441133855, ,0.03206057019244505
204, ,PASS, ,0.010044029999999989, ,0.001327486168281197, ,0.027317674840309378, ,1.3699178820914614e-05, ,1.75, ,0.6875715407034363, ,0.4355829472867901, ,0.04963164017060876
205, ,PASS, ,0.010232889999999994, ,0.0013400445611741181, ,0.027340579629803474, ,1.4082132798656178e-05, ,1.8333333333333333, ,0.6645809362673538, ,0.43225648456153953, ,0.0320197546988837
206, ,PASS, ,0.009829310000000008, ,0.0013355795282375773, ,0.027175991280994263, ,1.3528313997770866e-05, ,1.75, ,0.6879871764525607, ,0.4213995632742189, ,0.03567274137262505
207, ,PASS, ,0.009942270000000007, ,0.0012913235551533697, ,0.027263002806677414, ,1.317615015921764e-05, ,1.8333333333333333, ,0.6611317154687704, ,0.4326646394971531, ,0.03240750188771658
208, ,PASS, ,0.009798709999999988, ,0.001305382832318962, ,0.027344610491418543, ,1.3090955290239816e-05, ,1.8333333333333333, ,0.6756493656302186, ,0.4275831105487643, ,0.042080773861757924
209, ,PASS, ,0.010028209999999992, ,0.0012830127565236827, ,0.02720458613905839, ,1.315916796058817e-05, ,1.8333333333333333, ,0.6723567522794465, ,0.42976673945429683, ,0.03726454562151793
210, ,PASS, ,0.009866639999999989, ,0.0012644251911590038, ,0.027261157858819208, ,1.276965555897475e-05, ,1.9166666666666667, ,0.6757635048009558, ,0.4225219893471562, ,0.03952980551417318
211, ,PASS, ,0.009587839999999997, ,0.001261086704652424, ,0.027165115054182568, ,1.2390882832214554e-05, ,1.8333333333333333, ,0.6781061352845795, ,0.42829738168608805, ,0.04175424991326707
212, ,PASS, ,0.00958390000000001, ,0.0012255165697931368, ,0.027411977328625946, ,1.2035465932835777e-05, ,1.8333333333333333, ,0.6601604221087796, ,0.42650149996938835, ,0.0415501724454603
213, ,PASS, ,0.00964091000000001, ,0.0012120957066575101, ,0.027333809433276873, ,1.1974686859928438e-05, ,1.8333333333333333, ,0.6563563580440559, ,0.4238689006346809, ,0.040039999183690125
214, ,PASS, ,0.009658489999999999, ,0.0012416067981597793, ,0.027333437066794555, ,1.2304143433828721e-05, ,1.8333333333333333, ,0.6624580882130547, ,0.4284402359135528, ,0.02463215036427828
215, ,PASS, ,0.009741489999999992, ,0.0012823396802329743, ,0.027321050405910083, ,1.280712213985643e-05, ,1.8333333333333333, ,0.6741555691355293, ,0.4292361380379992, ,0.04503989714495622
