Channel, ,Pass/Fail, ,Amplitude, ,Sorting Function Response, ,Mean, ,Variance, ,NPeaksRatio, ,PosIntegralRatio, ,ToT50, ,ToT99
0, ,PASS, ,0.06399993600000002, ,0.010219089610104757, ,0.033710341176506606, ,0.000664467839277311, ,1.9166666666666667, ,0.8131618008990029, ,0.595783759515112, ,0.16236403338707373
1, ,PASS, ,0.06395585100000002, ,0.010134095949734872, ,0.033885780671823025, ,0.0006584944098427094, ,1.9166666666666667, ,0.8100267074414266, ,0.595273565845595, ,0.1418338401257117
2, ,PASS, ,0.06432791900000003, ,0.010249600404149642, ,0.033840997228627996, ,0.0006698275268734381, ,1.8333333333333333, ,0.8131804404207406, ,0.5954980510601825, ,0.15889471643435849
3, ,PASS, ,0.06405062300000003, ,0.01017636524236465, ,0.03370673295096019, ,0.0006622420211451994, ,1.9166666666666667, ,0.8117197831720941, ,0.5961306912103834, ,0.14862961980367748
4, ,PASS, ,0.06421998400000004, ,0.010135666734397131, ,0.03373781271892411, ,0.0006613293919194741, ,1.8333333333333333, ,0.8085041160754821, ,0.5959878369829187, ,0.13573192383828903
5, ,PASS, ,0.06389536400000001, ,0.010133378949250874, ,0.033911860115916, ,0.0006576434916789575, ,1.8333333333333333, ,0.8107032069672852, ,0.5953347890859371, ,0.14505826411705883
6, ,PASS, ,0.06396415800000001, ,0.010147349662289857, ,0.03378039764882349, ,0.0006592444001040639, ,1.8333333333333333, ,0.8105040425474758, ,0.5954368278198404, ,0.1403848901042836
7, ,PASS, ,0.06381400500000002, ,0.010122935936527246, ,0.03373664124221955, ,0.0006561956731141772, ,1.8333333333333333, ,0.8111796779619138, ,0.5954980510601825, ,0.14926225995387848
8, ,PASS, ,0.06391775300000002, ,0.0101494896081911, ,0.03344125451786698, ,0.0006588774352811464, ,1.8333333333333333, ,0.8122933711833102, ,0.5956817207812085, ,0.14956837615558866
9, ,PASS, ,0.06363596900000001, ,0.010116994686675741, ,0.03356507671272015, ,0.000653912131092392, ,1.9166666666666667, ,0.8125614208917078, ,0.5964572151588743, ,0.15142548111263035
10, ,PASS, ,0.06365171400000001, ,0.010095020037489614, ,0.03393783396849044, ,0.0006528539794007465, ,1.8333333333333333, ,0.8108807818387856, ,0.595906205995796, ,0.14746637823717884
11, ,PASS, ,0.06338075700000001, ,0.010093489297588201, ,0.03385998258974307, ,0.0006498399119785122, ,1.8333333333333333, ,0.8126083842982647, ,0.5956409052876472, ,0.15362951776494357
12, ,PASS, ,0.06361850400000002, ,0.010080046772868391, ,0.033702819489602256, ,0.0006514862628899956, ,1.8333333333333333, ,0.8087510010320931, ,0.5958653905022346, ,0.13483398297993918
13, ,PASS, ,0.06345555500000001, ,0.010103016624377419, ,0.033579952061998736, ,0.0006512829374197446, ,1.9166666666666667, ,0.810680759414237, ,0.5954164200730597, ,0.13793596049060222
14, ,PASS, ,0.06342002000000002, ,0.010095617781761703, ,0.03365165766168038, ,0.0006503717966914569, ,1.8333333333333333, ,0.8127643202717191, ,0.5955388665537438, ,0.15409889594089918
15, ,PASS, ,0.06386182200000001, ,0.01015737775781737, ,0.03362023792759332, ,0.0006589052040536516, ,1.8333333333333333, ,0.8113023256387285, ,0.5959266137425767, ,0.1420583253402992
16, ,PASS, ,0.069052511, ,0.01092584526514051, ,0.034382356650680596, ,0.0007665013012980224, ,1.9166666666666667, ,0.8085729332047192, ,0.595844982755454, ,0.14328279014713985
17, ,PASS, ,0.19801283999999986, ,0.0321453474084821, ,0.0377390627719842, ,0.006486037887883367, ,1.8333333333333333, ,0.8544318521780055, ,0.6186404359094713, ,0.3916858839615518
18, ,PASS, ,0.08135207000000003, ,0.01267805998797034, ,0.03509748201546908, ,0.001047937249800709, ,1.9166666666666667, ,0.7965645329577246, ,0.5968857778412685, ,0.1376706597824534
19, ,PASS, ,0.066940896, ,0.010646799533087451, ,0.03394363306034571, ,0.000723672079802157, ,1.9166666666666667, ,0.8105461824002245, ,0.5960490602232608, ,0.14887451276504562
20, ,PASS, ,0.06599082799999999, ,0.010511605210185944, ,0.03399073626742312, ,0.0007047329942375506, ,1.9166666666666667, ,0.8116795387805756, ,0.5960082447296994, ,0.15367033325850493
21, ,PASS, ,0.066194424, ,0.010517918051907837, ,0.03364246767576172, ,0.00070723518344883, ,1.9166666666666667, ,0.8086823986117937, ,0.5947225566825167, ,0.14724189302259139
22, ,PASS, ,0.06681256499999998, ,0.01058831451650127, ,0.0340140386269668, ,0.0007187256304790415, ,1.9166666666666667, ,0.809447601769305, ,0.5963755841717516, ,0.1527723924001551
23, ,PASS, ,0.066623757, ,0.01045775649077196, ,0.03380852180486113, ,0.0007077306246242816, ,1.9166666666666667, ,0.8057864207128426, ,0.5967021081202425, ,0.13356870267953716
24, ,PASS, ,0.06604258500000001, ,0.010515330094968007, ,0.03376714585110509, ,0.0007053874914270491, ,1.9166666666666667, ,0.8116780611035219, ,0.5955796820473052, ,0.15822126079059612
25, ,PASS, ,0.06604803, ,0.010473019091766669, ,0.0340042299855105, ,0.0007028392110763577, ,1.9166666666666667, ,0.8093089270959536, ,0.5961715067039448, ,0.15134385012550763
26, ,PASS, ,0.065855165, ,0.01046869938803678, ,0.03395207471296505, ,0.0007003033249980904, ,1.9166666666666667, ,0.8096811253817913, ,0.5948654109099815, ,0.15011938531866698
27, ,PASS, ,0.06584371900000001, ,0.010398825726258925, ,0.03377335548458195, ,0.0006955265419486436, ,1.9166666666666667, ,0.8058039481342839, ,0.5957021285279892, ,0.13695638864512968
28, ,PASS, ,0.06612886899999999, ,0.01042239836557503, ,0.03384591597028632, ,0.00070041971657503, ,1.9166666666666667, ,0.8025769971907672, ,0.5956204975408665, ,0.11699761229362667
29, ,PASS, ,0.065400232, ,0.010434000488709532, ,0.034144079372665864, ,0.0006929791185662227, ,1.9166666666666667, ,0.8111143182474915, ,0.5961919144507255, ,0.1478745331727924
30, ,PASS, ,0.06553563400000001, ,0.010404364524480429, ,0.03385761983857473, ,0.0006923770505698937, ,1.9166666666666667, ,0.8076161028209344, ,0.5931103446868431, ,0.14213995632742188
31, ,PASS, ,0.065335893, ,0.010365467174016329, ,0.03361756134487052, ,0.0006881278193192941, ,1.9166666666666667, ,0.8084314045319702, ,0.5958857982490153, ,0.14809901838737985
32, ,PASS, ,0.06492170400000001, ,0.010300936261125463, ,0.0336977113124222, ,0.0006793992189490794, ,1.9166666666666667, ,0.8104750002986798, ,0.5951103038713496, ,0.15342544029713678
33, ,PASS, ,0.06483331200000002, ,0.010279084019423216, ,0.033758853206669256, ,0.0006771317807364611, ,1.9166666666666667, ,0.8087198912307179, ,0.595906205995796, ,0.14432358523295444
34, ,PASS, ,0.06478394500000002, ,0.010289994225583354, ,0.03380151966347626, ,0.0006768991591283342, ,1.9166666666666667, ,0.8084582731515302, ,0.5936001306095794, ,0.14440521622007715
35, ,PASS, ,0.06463694700000001, ,0.010268324168791594, ,0.03374483524846432, ,0.0006740813108959408, ,1.9166666666666667, ,0.8099242184342892, ,0.5940286932919736, ,0.14873165853758086
36, ,PASS, ,0.065011436, ,0.010278097997379332, ,0.03366172423930124, ,0.0006787880904093179, ,1.9166666666666667, ,0.8070240111050969, ,0.5950898961245689, ,0.14067059855921307
37, ,PASS, ,0.06489104700000004, ,0.010272232299386968, ,0.03368647847023531, ,0.0006773857539726841, ,1.9166666666666667, ,0.807859314739634, ,0.5963347686781902, ,0.14946633742168527
38, ,PASS, ,0.06518509, ,0.010306446898885815, ,0.03385765569008796, ,0.0006823975451687251, ,1.9166666666666667, ,0.8063158684165629, ,0.5954572355666211, ,0.1430583049325524
39, ,PASS, ,0.06470945100000002, ,0.010244231772098055, ,0.03384597526621906, ,0.0006736236365612339, ,1.9166666666666667, ,0.8059326315983473, ,0.5962939531846289, ,0.13928287177812698
40, ,PASS, ,0.06498759400000002, ,0.010308444240629695, ,0.033384850350401014, ,0.0006802363773223456, ,1.9166666666666667, ,0.8084726815728296, ,0.5931715679271852, ,0.14624191343033816
41, ,PASS, ,0.06479833300000003, ,0.010283964304462694, ,0.033753473363808906, ,0.0006769909402072111, ,1.9166666666666667, ,0.8096650092232373, ,0.5966204771331197, ,0.14744597049039815
42, ,PASS, ,0.06477574500000001, ,0.010247598042078193, ,0.03359791886655375, ,0.000674377968558364, ,1.9166666666666667, ,0.8087197652700303, ,0.5962939531846289, ,0.14446643946041918
43, ,PASS, ,0.06464838500000002, ,0.01026816160635727, ,0.03377693658109019, ,0.000674528698275809, ,1.9166666666666667, ,0.8100509551544931, ,0.5963347686781902, ,0.1538948184730924
44, ,PASS, ,0.06450721000000002, ,0.010223502914868501, ,0.033809603955225406, ,0.000670109570764756, ,1.9166666666666667, ,0.8085516140033524, ,0.5962735454378482, ,0.14540519581233036
45, ,PASS, ,0.06480156200000002, ,0.010263731021485678, ,0.03341606253831555, ,0.0006757602811835473, ,1.9166666666666667, ,0.8083915479234541, ,0.5963755841717516, ,0.14944592967490458
46, ,PASS, ,0.06445401200000002, ,0.01021316551631679, ,0.033494253375441325, ,0.0006686232416729314, ,1.9166666666666667, ,0.8074879328721425, ,0.5943960327340259, ,0.13989510418154733
47, ,PASS, ,0.06453701700000003, ,0.010248356484290658, ,0.0336709453854003, ,0.0006716426144773747, ,1.9166666666666667, ,0.8091091811027633, ,0.5942327707597804, ,0.1468337380869778
48, ,PASS, ,0.064173263, ,0.010205392823425424, ,0.03344647567988408, ,0.0006655086785877614, ,1.9166666666666667, ,0.8104586839670931, ,0.5952327503520336, ,0.15669067978204526
49, ,PASS, ,0.06419610400000003, ,0.010213031640048944, ,0.0334832851807106, ,0.0006660197805529494, ,1.9166666666666667, ,0.8111727104421064, ,0.5951307116181302, ,0.15197649027570867
50, ,PASS, ,0.06487831800000002, ,0.010299075703762024, ,0.03336925583090141, ,0.0006789266782336984, ,1.9166666666666667, ,0.807512699337993, ,0.5947837799228587, ,0.14975204587661475
51, ,PASS, ,0.06500180200000003, ,0.010308070501716157, ,0.033653988109426346, ,0.000680930182810541, ,1.9166666666666667, ,0.8063085080697113, ,0.5957021285279892, ,0.1360176322932185
52, ,PASS, ,0.06415816600000002, ,0.010149671482084751, ,0.033604171851594866, ,0.0006616487960318519, ,1.9166666666666667, ,0.8079712337062798, ,0.5957429440215506, ,0.1443439929797351
53, ,PASS, ,0.06386606800000001, ,0.010168639588181363, ,0.03349786161425278, ,0.0006596241318336763, ,1.9166666666666667, ,0.812088551859914, ,0.5964163996653129, ,0.15456827411685475
54, ,PASS, ,0.06387843400000001, ,0.010157248880462445, ,0.03353897814371136, ,0.0006592291833765239, ,1.9166666666666667, ,0.8105858403709273, ,0.595967429236138, ,0.1505683557478419
55, ,PASS, ,0.06408333500000002, ,0.010188594257438724, ,0.03330353975000511, ,0.000663262560352086, ,1.9166666666666667, ,0.8094657920696882, ,0.5956000897940859, ,0.14642558315136425
56, ,PASS, ,0.06416274700000002, ,0.010233593442469586, ,0.033406810410807945, ,0.0006667653748243795, ,1.9166666666666667, ,0.8105619753750962, ,0.5938450235709475, ,0.15067039448174527
57, ,PASS, ,0.06409310600000001, ,0.010190646587898186, ,0.0335359918875125, ,0.0006637220211532573, ,1.9166666666666667, ,0.8073742802927392, ,0.5938246158241669, ,0.14079304503989715
58, ,PASS, ,0.06500069300000001, ,0.010315450851810484, ,0.033375574736842106, ,0.0006811776626057758, ,1.9166666666666667, ,0.8077671052453459, ,0.5951307116181302, ,0.1449970408767168
59, ,PASS, ,0.06570327900000002, ,0.01039944055279535, ,0.03376454611579356, ,0.0006943113827378399, ,1.9166666666666667, ,0.8065512065760131, ,0.5962327299442869, ,0.13865023162792597
60, ,PASS, ,0.06440799300000001, ,0.010245446250310873, ,0.033595090110405915, ,0.0006703718606339158, ,1.9166666666666667, ,0.8109449226617979, ,0.5962939531846289, ,0.1539560417134344
61, ,PASS, ,0.06454928300000001, ,0.01026245722147187, ,0.03342223989367565, ,0.0006728986785751667, ,1.9166666666666667, ,0.8109643130842566, ,0.5954164200730597, ,0.1506499867349646
62, ,PASS, ,0.06439936800000001, ,0.010220894946141488, ,0.03351287432072815, ,0.0006687486244087497, ,1.9166666666666667, ,0.8098667795530928, ,0.5962123221975062, ,0.14885410501826493
63, ,PASS, ,0.06466024800000003, ,0.010247583309461527, ,0.033452595031121815, ,0.0006733485343940963, ,1.9166666666666667, ,0.808349046149642, ,0.5963347686781902, ,0.13987469643476663
64, ,PASS, ,0.06434706300000004, ,0.01023016748861796, ,0.03351885421991388, ,0.0006687923580648135, ,1.9166666666666667, ,0.8105882034744124, ,0.5954980510601825, ,0.14732352400971407
65, ,PASS, ,0.06459802400000003, ,0.01024541462554385, ,0.03319311340156324, ,0.0006723695413267286, ,1.9166666666666667, ,0.8066149727529826, ,0.5931511601804045, ,0.14465010918144527
66, ,PASS, ,0.06447019200000004, ,0.010232723826362254, ,0.033718846098651056, ,0.0006702233577161594, ,1.9166666666666667, ,0.8098260401564966, ,0.5958857982490153, ,0.14887451276504562
67, ,FAIL, ,0.0062242399999999955, ,0.000201626533991785, ,0.027910930329585113, ,1.3499312025579928e-06, ,0.6666666666666666, ,0.28267609084127354, ,0.6313544621538336, ,0.015264994591947103
68, ,PASS, ,0.06460034400000002, ,0.01020484208709486, ,0.033490895472745454, ,0.0006698949475551352, ,1.9166666666666667, ,0.8056058104967465, ,0.595844982755454, ,0.1250994877655558
69, ,PASS, ,0.06448138000000002, ,0.01019227866012374, ,0.033587360436929864, ,0.0006677548336620588, ,1.9166666666666667, ,0.8084831717440207, ,0.5966204771331197, ,0.14542560355911105
70, ,PASS, ,0.06447374000000002, ,0.010193046874681155, ,0.03334454343870533, ,0.0006675817244242791, ,1.9166666666666667, ,0.8073149846191369, ,0.595906205995796, ,0.13689516540478766
71, ,PASS, ,0.06426753400000002, ,0.010209833981834364, ,0.0336308001567315, ,0.0006666977256691459, ,1.9166666666666667, ,0.8095825883610347, ,0.5955796820473052, ,0.14760923246464358
72, ,PASS, ,0.06425224000000002, ,0.010239484513304628, ,0.03338600651945879, ,0.0006684466239255024, ,1.9166666666666667, ,0.8055172738586567, ,0.5936001306095794, ,0.12995653149935715
73, ,PASS, ,0.06416310800000002, ,0.010237388128273078, ,0.03366607191587927, ,0.0006673807355881183, ,1.9166666666666667, ,0.8117153186178248, ,0.5952531580988143, ,0.1553845839880819
74, ,PASS, ,0.06440973700000002, ,0.010201965287919681, ,0.03345624270484276, ,0.0006675167803119033, ,1.9166666666666667, ,0.8048188295190832, ,0.5928042284851329, ,0.13244627660659986
75, ,PASS, ,0.06430362700000002, ,0.010174879077498084, ,0.03344626769514908, ,0.0006645414647590658, ,1.9166666666666667, ,0.8074875933239809, ,0.5948858186567622, ,0.13985428868798597
76, ,PASS, ,0.06404042200000001, ,0.010212834439566025, ,0.03315034766861901, ,0.0006641466499826451, ,1.9166666666666667, ,0.8103828998384515, ,0.593436868635334, ,0.14618069018999613
77, ,PASS, ,0.06426382700000001, ,0.010216113016297447, ,0.03327906550233669, ,0.0006666933467029737, ,1.9166666666666667, ,0.8097965634239307, ,0.5938858390645089, ,0.14411950776514765
78, ,PASS, ,0.06397694100000001, ,0.010207145754586899, ,0.03348864428174936, ,0.000663361592591, ,1.9166666666666667, ,0.8111359697663193, ,0.5949062264035427, ,0.15340503255035612
79, ,PASS, ,0.06386479500000003, ,0.010166497595440797, ,0.03333763516377217, ,0.0006596500795839458, ,1.9166666666666667, ,0.8107126547240576, ,0.5954368278198404, ,0.14797657190669578
80, ,PASS, ,0.064419847, ,0.010231668686656691, ,0.033548618203506055, ,0.000669699815621238, ,1.9166666666666667, ,0.8099779309709205, ,0.5957225362747699, ,0.1537723719924083
81, ,PASS, ,0.06413781900000003, ,0.010228290095616545, ,0.03346902088692068, ,0.0006665722500962832, ,1.9166666666666667, ,0.8104163505774002, ,0.5958245750086733, ,0.1476704557049856
82, ,PASS, ,0.06415658900000003, ,0.010220239313594389, ,0.033450522807085575, ,0.0006659462967934806, ,1.9166666666666667, ,0.8118427689684681, ,0.5957429440215506, ,0.1476704557049856
83, ,PASS, ,0.06418209600000002, ,0.01021245494781761, ,0.03347229830064693, ,0.0006659202491828641, ,1.9166666666666667, ,0.8101338008140501, ,0.5955592743005245, ,0.14944592967490458
84, ,PASS, ,0.06445196500000001, ,0.010218112002708793, ,0.0335361048247995, ,0.000669077135908411, ,1.9166666666666667, ,0.8062470863504799, ,0.5953347890859371, ,0.12169139405318259
85, ,PASS, ,0.06424220000000003, ,0.010218051980624004, ,0.03360158710393666, ,0.0006671048804070558, ,1.9166666666666667, ,0.8089048073976333, ,0.5957225362747699, ,0.13873186261504866
86, ,PASS, ,0.06448695800000002, ,0.010207065532868532, ,0.03361122425460705, ,0.0006687647865797292, ,1.9166666666666667, ,0.8067736391186159, ,0.5954776433134018, ,0.140548152078529
87, ,PASS, ,0.06468987300000002, ,0.010312490568790446, ,0.03344763691251199, ,0.0006777522255361453, ,1.9166666666666667, ,0.8097624892606711, ,0.5949470418971041, ,0.1496295993959307
88, ,PASS, ,0.06425310200000003, ,0.010222447877033147, ,0.0337122087781882, ,0.0006673024832689383, ,1.9166666666666667, ,0.8094279799535191, ,0.5956817207812085, ,0.14136446194975613
89, ,PASS, ,0.06439152000000002, ,0.010213695011309453, ,0.033188232274647456, ,0.0006681877885947748, ,1.9166666666666667, ,0.8088419142004101, ,0.5961715067039448, ,0.1436093140956307
90, ,PASS, ,0.06435754700000001, ,0.010251464795615966, ,0.033182655951715274, ,0.0006703609878923535, ,1.9166666666666667, ,0.8059497155219957, ,0.5927634129915716, ,0.1330585090100202
91, ,PASS, ,0.06771801299999998, ,0.010713851229412711, ,0.0337151021166915, ,0.0007371206572559796, ,1.9166666666666667, ,0.806795733585698, ,0.5957225362747699, ,0.14152772392400156
92, ,PASS, ,0.1948756699999999, ,0.03151962846624177, ,0.03757057976347417, ,0.006258406716888126, ,1.8333333333333333, ,0.8433795045212916, ,0.614599702046897, ,0.3693189934899288
93, ,PASS, ,0.08387732999999999, ,0.01306063276970318, ,0.034920250345095, ,0.0011131122491344438, ,1.8333333333333333, ,0.7924880701579715, ,0.5962939531846289, ,0.13607885553356053
94, ,PASS, ,0.068762294, ,0.01088572054322138, ,0.033709626026203546, ,0.000760058934008876, ,1.9166666666666667, ,0.8048753951684885, ,0.5926205587641069, ,0.12707903920328156
95, ,PASS, ,0.06800308299999998, ,0.010655690315618246, ,0.03366029711414053, ,0.0007361608826333289, ,1.9166666666666667, ,0.8011033507676669, ,0.5957225362747699, ,0.1179771841390992
96, ,PASS, ,0.06731592199999999, ,0.010664697066574271, ,0.03364606716862921, ,0.0007295333076772216, ,1.9166666666666667, ,0.8072568403490487, ,0.5952531580988143, ,0.1462215056835575
97, ,PASS, ,0.067160274, ,0.010710166166908484, ,0.033457651705067246, ,0.00073065215969593, ,1.9166666666666667, ,0.807340764402196, ,0.5934164608885533, ,0.14958878390236935
98, ,PASS, ,0.06764299099999999, ,0.010662494013434618, ,0.03364617093814412, ,0.0007323735952904951, ,1.9166666666666667, ,0.8079014233098912, ,0.5963551764249709, ,0.13636456398849003
99, ,PASS, ,0.06741675299999998, ,0.010677065281612374, ,0.03390277645272546, ,0.000730963111557467, ,1.9166666666666667, ,0.8079573765082595, ,0.5956000897940859, ,0.14071141405277443
100, ,PASS, ,0.06698102199999999, ,0.010590144116381837, ,0.033887898486153346, ,0.0007206931396668582, ,1.9166666666666667, ,0.8052568662858712, ,0.5954572355666211, ,0.13465031325891308
101, ,PASS, ,0.067064124, ,0.01060654508328299, ,0.03362150706944756, ,0.0007227429940067905, ,1.9166666666666667, ,0.8050075132211728, ,0.5957633517683313, ,0.13462990551213241
102, ,PASS, ,0.06727300599999998, ,0.010581863133465447, ,0.033459055279075944, ,0.0007232093891529761, ,1.9166666666666667, ,0.8011898457988524, ,0.5941511397726577, ,0.12565049692863411
103, ,PASS, ,0.067288116, ,0.010661103924543995, ,0.033565645935185, ,0.0007283988463985424, ,1.9166666666666667, ,0.8045324901177179, ,0.5928246362319136, ,0.1355482541172629
104, ,PASS, ,0.06755600199999999, ,0.01070197244177834, ,0.03368445445990898, ,0.0007344228100859476, ,1.9166666666666667, ,0.8052843831651118, ,0.5951715271116916, ,0.13697679639191038
105, ,PASS, ,0.06800688499999999, ,0.0107889808567164, ,0.03352330426297422, ,0.0007449675100839411, ,1.9166666666666667, ,0.8070367741014476, ,0.5933348299014306, ,0.14660925287239035
106, ,PASS, ,0.068142419, ,0.01078682956545826, ,0.03378382958021265, ,0.0007468636570507077, ,1.9166666666666667, ,0.8067864710297185, ,0.5964163996653129, ,0.15009897757188628
107, ,PASS, ,0.06860396799999999, ,0.010808160500286604, ,0.03372612133221771, ,0.000753354172351179, ,1.9166666666666667, ,0.8020783772772628, ,0.5961510989571641, ,0.1315891512418114
108, ,PASS, ,0.06897454799999997, ,0.010892501609186266, ,0.03374606629456542, ,0.0007635070784327884, ,1.9166666666666667, ,0.803711627353356, ,0.5960898757168221, ,0.13587477806575377
109, ,PASS, ,0.07000991399999999, ,0.011038552938367242, ,0.033596185533764616, ,0.0007852240592288187, ,1.9166666666666667, ,0.8017392381262437, ,0.595906205995796, ,0.1431399359196751
