Channel, ,Pass/Fail, ,Amplitude, ,Sorting Function Response, ,Mean, ,Variance, ,NPeaksRatio, ,PosIntegralRatio, ,ToT50, ,ToT99
0, ,PASS, ,0.039006778000000006, ,0.005252408561728384, ,0.030065164430093265, ,0.00020645854950106498, ,1.8333333333333333, ,0.689966687330593, ,0.5320503663190547, ,0.05512132405461113
1, ,PASS, ,0.038446392, ,0.00516781581724792, ,0.03004610901471399, ,0.0002004613065359205, ,1.8333333333333333, ,0.6894340228620031, ,0.5319891430787127, ,0.05450909165119079
2, ,PASS, ,0.038684274000000005, ,0.005149572364677421, ,0.029975544850166323, ,0.00020087587068324945, ,1.8333333333333333, ,0.6813694832932865, ,0.5306830472847492, ,0.050672435256423336
3, ,PASS, ,0.038589168, ,0.0051318097666643876, ,0.02998052447358217, ,0.00019978931946090057, ,1.8333333333333333, ,0.6836502387013578, ,0.5312340564478276, ,0.05138670639374707
4, ,PASS, ,0.03812497999999997, ,0.005113241056204691, ,0.029767565063202793, ,0.00019660031684828243, ,1.8333333333333333, ,0.6862733547064565, ,0.5312952796881696, ,0.048692883818697574
5, ,PASS, ,0.03799450199999999, ,0.00509305892086306, ,0.030114239471031205, ,0.00019535956854876786, ,1.8333333333333333, ,0.6848094728292342, ,0.5310912022203629, ,0.05373359727352503
6, ,PASS, ,0.03783038399999999, ,0.005136507005461765, ,0.029879435148466357, ,0.00019614946473253933, ,1.8333333333333333, ,0.69320256244873, ,0.5309687557396788, ,0.05708046774555621
7, ,PASS, ,0.037788313999999996, ,0.00508443898193437, ,0.03014666313483398, ,0.00019393217726339286, ,1.8333333333333333, ,0.6894563943334107, ,0.5306626395379687, ,0.054794800106120284
8, ,PASS, ,0.03775604299999999, ,0.005139097812809272, ,0.029883903596049057, ,0.00019568162777237392, ,1.8333333333333333, ,0.6935005968266411, ,0.5304789698169425, ,0.05650905083569723
9, ,PASS, ,0.038105399000000005, ,0.005120988001473062, ,0.030033683221158753, ,0.0001971047444074622, ,1.8333333333333333, ,0.6864412027701305, ,0.5299483684006449, ,0.051896900063264015
10, ,PASS, ,0.03821347699999999, ,0.005156319438976547, ,0.02993768654976429, ,0.000199041621185581, ,1.8333333333333333, ,0.6913731956577351, ,0.5300912226281096, ,0.056855982530968754
11, ,PASS, ,0.038420712, ,0.0051367835230289125, ,0.030020179362951777, ,0.0001993548646662348, ,1.8333333333333333, ,0.686947391275281, ,0.5297238831860575, ,0.046060284483990126
12, ,PASS, ,0.05246295399999997, ,0.008075974261500009, ,0.031086468109283484, ,0.0004284978931314848, ,1.9166666666666667, ,0.7668214377288198, ,0.5387441072631171, ,0.05869267974122977
13, ,PASS, ,0.07137448599999999, ,0.011709998142757671, ,0.03206535678852268, ,0.000846697606894631, ,1.9166666666666667, ,0.79901690729502, ,0.5399889798167384, ,0.07552907083528908
