Channel, ,Pass/Fail, ,Amplitude, ,Sorting Function Response, ,Mean, ,Variance
0, ,PASS, ,0.029172462748952, ,0.0151439496866662, ,-0.0007073232507625932, ,9.687328991299444e-05
1, ,PASS, ,0.028968544241316, ,0.014662345267370628, ,-0.000348871413405289, ,9.327680563894905e-05
2, ,PASS, ,0.028945377472204, ,0.014956923968124586, ,-0.0007373652256375823, ,9.491591443541143e-05
3, ,PASS, ,0.028622878760675, ,0.014752306205330423, ,-0.0007469031452452921, ,9.25422688886359e-05
4, ,PASS, ,0.040235693604725994, ,0.02422575520832666, ,0.00011862329705406557, ,0.0002143293203229937
5, ,PASS, ,0.052206010227474, ,0.032365405335476875, ,0.0005835333795609727, ,0.00037195518867335037
