Channel, ,Pass/Fail, ,Amplitude, ,Sorting Function Response, ,Mean, ,Variance, ,NPeaksRatio, ,PosIntegralRatio, ,ToT50, ,ToT99
0, ,PASS, ,0.043026492, ,0.006393718101920929, ,0.028185675272218935, ,0.00027591517687675614, ,1.8333333333333333, ,0.7122646936998929, ,0.5076631089161445, ,0.05263157894736842
1, ,PASS, ,0.047851449000000025, ,0.0076055351391093335, ,0.029241519299095943, ,0.00036469206102254803, ,1.8333333333333333, ,0.7642145527442717, ,0.5140507336584967, ,0.07926368849615315
2, ,PASS, ,0.048138553000000014, ,0.007706904248223158, ,0.029115947723638298, ,0.00037152174009374707, ,1.8333333333333333, ,0.7643615104395627, ,0.5161119160833453, ,0.09387563519111855
3, ,PASS, ,0.047941072000000015, ,0.007695041616732125, ,0.02882071923352585, ,0.00036938800996375937, ,1.8333333333333333, ,0.7618689398922396, ,0.5024183179935103, ,0.07795759270218976
4, ,PASS, ,0.04794540000000002, ,0.007561832073002911, ,0.02906368970716925, ,0.00036350775975630084, ,1.75, ,0.7572748714077847, ,0.5115813962980348, ,0.07783514622150568
5, ,PASS, ,0.047946957000000026, ,0.007591989846717317, ,0.0293714621451399, ,0.00036494918414654875, ,1.9166666666666667, ,0.7659690474382457, ,0.5201118344523581, ,0.09122262810963042
6, ,PASS, ,0.04770252600000002, ,0.0075742303141032455, ,0.029494385863349733, ,0.0003619258009201421, ,1.8333333333333333, ,0.7660981645730358, ,0.5182547294953164, ,0.09232464643578703
7, ,PASS, ,0.04768830200000002, ,0.007594930430628615, ,0.029256942729821843, ,0.0003627929847150448, ,1.8333333333333333, ,0.7645921704160432, ,0.5150915287443113, ,0.08871247525560703
8, ,PASS, ,0.047659281000000026, ,0.007577679987079423, ,0.02932025599857146, ,0.000362102633394308, ,1.9166666666666667, ,0.7662109540476969, ,0.5208873288300239, ,0.09507969225117854
9, ,PASS, ,0.04775786500000002, ,0.007689638682314616, ,0.029315381209097782, ,0.0003677372567946963, ,1.8333333333333333, ,0.7676258579920764, ,0.518152690761413, ,0.10061019162874227
10, ,PASS, ,0.047576306000000027, ,0.0075958681028527935, ,0.02914450892198119, ,0.0003619576519756771, ,1.8333333333333333, ,0.7656471306507951, ,0.5147650047958205, ,0.09052876471908737
11, ,PASS, ,0.04775827900000003, ,0.007548010351052105, ,0.029513322262668118, ,0.00036129107039916156, ,1.9166666666666667, ,0.763085973276346, ,0.5202138731862616, ,0.07330462643619517
12, ,PASS, ,0.04731254900000002, ,0.00754934411170124, ,0.028592683047917396, ,0.0003577707003006342, ,1.8333333333333333, ,0.75876072043658, ,0.5009285524785209, ,0.07536580886104365
13, ,PASS, ,0.04717688800000003, ,0.0075565654735420505, ,0.02868907204606029, ,0.00035654433530147764, ,1.8333333333333333, ,0.7580435287686448, ,0.5027856574355626, ,0.07583518703699925
14, ,PASS, ,0.04700012100000004, ,0.00746855079520645, ,0.029175253656802926, ,0.00035206243560744594, ,1.9166666666666667, ,0.7666990932960195, ,0.5210097753107079, ,0.09569192465459889
15, ,PASS, ,0.04715394500000003, ,0.007497400932800559, ,0.029283937193363408, ,0.00035397036724743326, ,1.8333333333333333, ,0.7636152106384136, ,0.5150711209975307, ,0.0936511499765311
16, ,PASS, ,0.04691997600000003, ,0.0075759729074118005, ,0.029380314453480546, ,0.000356539989322895, ,1.9166666666666667, ,0.7681879027553021, ,0.5201934654394809, ,0.10254892757290668
17, ,PASS, ,0.04751292600000003, ,0.0075558679130049815, ,0.029102743799820415, ,0.0003595730526508629, ,1.8333333333333333, ,0.7621504608568614, ,0.515622130160609, ,0.08330442235872737
18, ,PASS, ,0.04858188900000001, ,0.007812972173503189, ,0.029106802421128147, ,0.0003796420402394559, ,1.8333333333333333, ,0.76981872278981, ,0.5127446378645334, ,0.1067937389032877
19, ,PASS, ,0.04745628400000002, ,0.007600092059777326, ,0.029057404770208777, ,0.0003605556960741085, ,1.8333333333333333, ,0.763725007909257, ,0.5084386032938103, ,0.08893696047019449
20, ,PASS, ,0.04747560600000003, ,0.007560958130975239, ,0.02847290678549418, ,0.00035959549373017126, ,1.8333333333333333, ,0.7576649249923625, ,0.5004591743025653, ,0.07528417787392094
21, ,PASS, ,0.04733258600000002, ,0.007586578987551483, ,0.029069040598661257, ,0.0003594954608065317, ,1.8333333333333333, ,0.7664038421816189, ,0.5128466765984367, ,0.09446745984775821
22, ,PASS, ,0.04765454300000003, ,0.007638220735845784, ,0.029127836590232856, ,0.0003641321467073222, ,1.8333333333333333, ,0.7650074842345793, ,0.5123364829289199, ,0.08685537029856534
23, ,PASS, ,0.04773104200000002, ,0.007582427760985273, ,0.029749584198526566, ,0.00036308585268829294, ,1.9166666666666667, ,0.769217573000741, ,0.5213362992591988, ,0.10238566559866125
24, ,PASS, ,0.04788078900000002, ,0.007738710241781577, ,0.028745865015040516, ,0.00037103841515349065, ,1.8333333333333333, ,0.7682328742338701, ,0.5024591334870717, ,0.09875308667170057
25, ,PASS, ,0.048226402000000015, ,0.007714615448212358, ,0.029392629260647746, ,0.0003724640094642501, ,1.8333333333333333, ,0.7653173464266546, ,0.5146017428215751, ,0.0928144323585233
26, ,PASS, ,0.050011409100000015, ,0.007952729617668818, ,0.02966405366104774, ,0.00039849231480916725, ,1.8333333333333333, ,0.7722675209947298, ,0.5203159119201649, ,0.10852839737964531
27, ,PASS, ,0.048259341000000025, ,0.007773757034722256, ,0.028501806809289612, ,0.0003760796164311134, ,1.8333333333333333, ,0.7635484537558983, ,0.5000102038733903, ,0.08554927450460195
28, ,PASS, ,0.04825553200000003, ,0.007704679290058672, ,0.029130329857043738, ,0.0003721615003845653, ,1.8333333333333333, ,0.7634326904179, ,0.5134180935082957, ,0.08201873431154466
29, ,PASS, ,0.04822141200000001, ,0.007688061348915812, ,0.02955815860727333, ,0.0003715516626705115, ,1.8333333333333333, ,0.7689419583969892, ,0.5190506316197628, ,0.09226342319544499
30, ,PASS, ,0.04813607300000001, ,0.0077410008806049835, ,0.02902900885028878, ,0.00037250101996454333, ,1.8333333333333333, ,0.7650857800151888, ,0.5062141588947164, ,0.08867165976204568
31, ,PASS, ,0.04840780300000003, ,0.007671230989070446, ,0.029402414487173737, ,0.00037246525609933346, ,1.9166666666666667, ,0.7675295491266051, ,0.519295524581131, ,0.09499806126405584
32, ,PASS, ,0.047966202000000006, ,0.0076529754731177796, ,0.029010696079998375, ,0.0003675015452828362, ,1.8333333333333333, ,0.7641368258621323, ,0.5121732209546744, ,0.0879165731311606
33, ,PASS, ,0.04732379300000001, ,0.007411210318337508, ,0.028910843768576153, ,0.0003506768279694586, ,1.8333333333333333, ,0.753696136313501, ,0.5040917532295259, ,0.07542703210138568
34, ,PASS, ,0.046945460000000036, ,0.007490399737632105, ,0.02844194878971858, ,0.00035180405591754555, ,1.9166666666666667, ,0.7567494681023164, ,0.5053162180363666, ,0.0657945756209057
35, ,PASS, ,0.046815119000000016, ,0.007520215558290635, ,0.02808455797859228, ,0.000352667494946482, ,1.75, ,0.7625434674563762, ,0.49556131507520257, ,0.08603906042733822
36, ,PASS, ,0.047338939000000024, ,0.007512282337435546, ,0.02929224993855228, ,0.0003562972322392434, ,1.8333333333333333, ,0.7602362027970387, ,0.5140099181649355, ,0.06389665517030264
37, ,PASS, ,0.04722959500000003, ,0.00744094913426962, ,0.028510443685373775, ,0.0003524144479230826, ,1.75, ,0.753682867641058, ,0.4998673496459256, ,0.05777433113609926
38, ,PASS, ,0.047100616000000026, ,0.007457503205269095, ,0.028516812585069697, ,0.0003525598883295677, ,1.75, ,0.7602716738877046, ,0.49623477071896493, ,0.06987612497704128
39, ,PASS, ,0.04731843100000001, ,0.007520892034228158, ,0.029380280451705074, ,0.00035680044284526567, ,1.8333333333333333, ,0.7668807224695494, ,0.5190710393665435, ,0.0877124956633538
40, ,PASS, ,0.047745039000000024, ,0.0076188532293257095, ,0.02896642005638661, ,0.00036492284755612104, ,1.9166666666666667, ,0.7659345579647151, ,0.5189894083794209, ,0.08603906042733822
41, ,PASS, ,0.048000001000000014, ,0.007700006310326469, ,0.028478666489724705, ,0.00036980135809635113, ,1.8333333333333333, ,0.7663370369707119, ,0.5110507948817371, ,0.09028387175771924
42, ,PASS, ,0.04789597100000002, ,0.007659715369485338, ,0.028367833120997537, ,0.000366890630307803, ,1.8333333333333333, ,0.7613858000370025, ,0.5050917328217791, ,0.07610048774514806
43, ,PASS, ,0.04828832900000002, ,0.007741167845004052, ,0.02859114986963532, ,0.0003745943011979189, ,1.8333333333333333, ,0.7621127207849351, ,0.5007448827574947, ,0.0736515581314667
44, ,PASS, ,0.0528327382, ,0.008413216603822049, ,0.02869234663708496, ,0.0004447010390714059, ,1.8333333333333333, ,0.7611023028313141, ,0.5076835166629252, ,0.08612069141446092
45, ,PASS, ,0.19004919, ,0.027644396538436308, ,0.03701653181384055, ,0.005283205655585291, ,1.75, ,0.749182817650076, ,0.536907410052856, ,0.10538560437542091
46, ,PASS, ,0.06116817009999999, ,0.009692384546055118, ,0.029678221642746066, ,0.0005935531902611261, ,1.8333333333333333, ,0.7693969442813127, ,0.5188873696455174, ,0.10830391216505786
47, ,PASS, ,0.051297044300000025, ,0.008171321877088047, ,0.02879774082909125, ,0.0004194825064459668, ,1.8333333333333333, ,0.7619038854214725, ,0.5104589702250975, ,0.07163119120017959
48, ,PASS, ,0.05043585710000002, ,0.008015071687494298, ,0.02911129035335402, ,0.0004049594349696047, ,1.8333333333333333, ,0.7629362080352178, ,0.5148466357829432, ,0.07036591089977756
49, ,PASS, ,0.050929132000000016, ,0.008044775634821774, ,0.029193924244835828, ,0.00041045779303463246, ,1.8333333333333333, ,0.7589382310696007, ,0.5145813350747944, ,0.06567212914022162
50, ,PASS, ,0.05022261410000003, ,0.008053294699121277, ,0.02901107935308668, ,0.00040527008097415295, ,1.8333333333333333, ,0.7683702934832817, ,0.5179690210403869, ,0.0974265831309565
51, ,PASS, ,0.050363852600000016, ,0.008043538910784548, ,0.029230067557527405, ,0.00040651169615491293, ,1.9166666666666667, ,0.7680027119256934, ,0.5203567274137263, ,0.09581437113528295
52, ,PASS, ,0.05034633710000001, ,0.008030297211637972, ,0.028340882849815317, ,0.0004046623422867293, ,1.8333333333333333, ,0.7604197208649963, ,0.5031529968776147, ,0.07630456521295484
53, ,PASS, ,0.0503068608, ,0.00803222548288013, ,0.029078108206685584, ,0.00040511454791279227, ,1.8333333333333333, ,0.7668661541305943, ,0.5191934858472276, ,0.09063080345299075
54, ,PASS, ,0.05031944620000002, ,0.008043674158929844, ,0.02900645640990797, ,0.0004051028963293341, ,1.8333333333333333, ,0.7657374538147074, ,0.5166629252464235, ,0.08501867308830433
55, ,PASS, ,0.050566076900000013, ,0.008046407905930848, ,0.028884612519879192, ,0.00040762851088577926, ,1.8333333333333333, ,0.7654302767704507, ,0.5157037611477316, ,0.08379420828146364
56, ,PASS, ,0.05020360490000001, ,0.008079282636462987, ,0.02886486438937165, ,0.00040614613362168124, ,1.8333333333333333, ,0.7693447649400829, ,0.5133976857615151, ,0.09254913165037448
57, ,PASS, ,0.05057053480000001, ,0.007968466750443468, ,0.028698805775839272, ,0.0004043741233540512, ,1.8333333333333333, ,0.7617057404878611, ,0.5081324870921001, ,0.06863125242341993
58, ,PASS, ,0.05040741980000002, ,0.008081559446913121, ,0.028751029325448468, ,0.00040754298904391995, ,1.9166666666666667, ,0.763722143057701, ,0.5099691843023612, ,0.06981490173669926
59, ,PASS, ,0.05012989700000003, ,0.008117607245061591, ,0.028448895154747866, ,0.0004070457977193723, ,1.8333333333333333, ,0.7669794971639223, ,0.5050917328217791, ,0.10181424868880228
60, ,PASS, ,0.0508665118, ,0.008058099323388671, ,0.02907507744576642, ,0.0004110336784157783, ,1.9166666666666667, ,0.7651893060445606, ,0.519989387971674, ,0.08163098712271179
61, ,PASS, ,0.0507956946, ,0.00809908081552197, ,0.028655258508320243, ,0.0004116679516902057, ,1.8333333333333333, ,0.7644769173148324, ,0.5131119773065855, ,0.08054937654333585
62, ,PASS, ,0.05065104010000002, ,0.00807900363571983, ,0.029126722447874537, ,0.00041000424049456746, ,1.8333333333333333, ,0.764682386700299, ,0.5155813146670476, ,0.07671272014856839
63, ,PASS, ,0.050566381400000006, ,0.008123959825420968, ,0.029017263702322407, ,0.00041141763264594103, ,1.8333333333333333, ,0.7664414283577313, ,0.5165812942593009, ,0.09054917246586805
64, ,PASS, ,0.05076592790000002, ,0.008055935930885246, ,0.029228210985802337, ,0.00041045550447737193, ,1.9166666666666667, ,0.7668837519213767, ,0.5210301830574886, ,0.07483520744474603
65, ,PASS, ,0.05057620120000002, ,0.008118480818101792, ,0.028958650609067167, ,0.00041117911779547776, ,1.8333333333333333, ,0.7641531437381945, ,0.5142548111263036, ,0.0822636272729128
66, ,PASS, ,0.05061332090000001, ,0.00802443530602738, ,0.029206596577657604, ,0.00040782936954186094, ,1.9166666666666667, ,0.7668973398046829, ,0.5227240260402849, ,0.0919777147405155
67, ,PASS, ,0.050638273700000014, ,0.00800890938708436, ,0.028938803703922374, ,0.0004065690596951714, ,1.8333333333333333, ,0.7635205585076692, ,0.5189281851390788, ,0.08316156813126263
68, ,PASS, ,0.050336985500000014, ,0.008015901287612277, ,0.028808005981396302, ,0.0004041857127688006, ,1.8333333333333333, ,0.7624277774036214, ,0.5132344237872697, ,0.0770800595906206
69, ,PASS, ,0.05040963760000003, ,0.008045550579375862, ,0.02869895751992409, ,0.00040628999113813305, ,1.8333333333333333, ,0.765592064869182, ,0.515683353400951, ,0.0781004469296545
70, ,PASS, ,0.05034884750000002, ,0.008013252857898327, ,0.028864958887371693, ,0.00040399365953995857, ,1.8333333333333333, ,0.7615381489500173, ,0.5123772984224811, ,0.07489643068508806
71, ,PASS, ,0.05036608040000002, ,0.008041995691298362, ,0.02825901163341361, ,0.0004054304387123609, ,1.8333333333333333, ,0.7595899785269226, ,0.5036019673067896, ,0.07695761310993653
72, ,PASS, ,0.05136353890000002, ,0.008198879060501141, ,0.029028773171700585, ,0.00042188329121892654, ,1.8333333333333333, ,0.7676193064324534, ,0.5167853717271076, ,0.08887573722985245
73, ,PASS, ,0.05100521540000002, ,0.008133270163806229, ,0.028842728848045965, ,0.0004156932898994265, ,1.8333333333333333, ,0.7654732736964261, ,0.5161119160833453, ,0.08338605334585009
74, ,PASS, ,0.0507185875, ,0.008110075315167177, ,0.0289941579810759, ,0.00041164605318348956, ,1.8333333333333333, ,0.7609648224630098, ,0.5075610701822412, ,0.06577416787412502
75, ,PASS, ,0.05076723880000002, ,0.008068979757591452, ,0.029146780093708295, ,0.0004108972838306699, ,1.9166666666666667, ,0.767096873148743, ,0.5192138935940083, ,0.086243137895145
76, ,PASS, ,0.05066663750000001, ,0.008082827924674607, ,0.02897231872055265, ,0.0004101694679912705, ,1.8333333333333333, ,0.7655561731514234, ,0.515111936491092, ,0.0855084590110406
77, ,PASS, ,0.05085728290000001, ,0.008158408457130171, ,0.028242151118379223, ,0.0004153802791713115, ,1.9166666666666667, ,0.7591839754004632, ,0.5039284912552805, ,0.06916185383971755
78, ,PASS, ,0.051112277800000015, ,0.008105642525497917, ,0.029138807490959373, ,0.00041538436845769646, ,1.8333333333333333, ,0.7647537148714463, ,0.5183363604824391, ,0.07312095671516908
79, ,PASS, ,0.0511349693, ,0.00812999111461397, ,0.0289622759328075, ,0.0004163190801991983, ,1.8333333333333333, ,0.7629345105270108, ,0.5146425583151364, ,0.07408012081386094
80, ,PASS, ,0.0524203643, ,0.008394546690890368, ,0.02898021411316912, ,0.00044142358812860764, ,1.9166666666666667, ,0.7675361539125133, ,0.5119079202465255, ,0.08293708291667518
81, ,PASS, ,0.052291889800000005, ,0.008407128369528732, ,0.028799720511646705, ,0.0004396866083961232, ,1.8333333333333333, ,0.7705219142218005, ,0.5108875329074917, ,0.10638558396767413
82, ,PASS, ,0.0515148552, ,0.008181087386725608, ,0.02910715344308892, ,0.0004228127118097363, ,1.8333333333333333, ,0.767585785754718, ,0.5195608252892798, ,0.0806922307708006
83, ,PASS, ,0.05126297110000001, ,0.008219194663201274, ,0.02885358310002245, ,0.00042227464125636245, ,1.8333333333333333, ,0.7715535801610736, ,0.5172547499030632, ,0.0992836880879982
84, ,PASS, ,0.051551568000000006, ,0.008185879805672334, ,0.029385531624026042, ,0.0004234257012502742, ,1.9166666666666667, ,0.7679631309613905, ,0.5196832717699639, ,0.09214097671476092
85, ,PASS, ,0.051411251100000006, ,0.008198034539052683, ,0.028757358754186654, ,0.0004219061669003111, ,1.8333333333333333, ,0.7609963958291359, ,0.5113977265770087, ,0.06324360727332096
86, ,PASS, ,0.051198246499999996, ,0.00817496186726335, ,0.0291550477700047, ,0.0004196981799859821, ,1.8333333333333333, ,0.7663556733105987, ,0.5173567886369665, ,0.08893696047019449
87, ,PASS, ,0.05135741890000001, ,0.008174191104268624, ,0.02896850407861881, ,0.00042071405454025104, ,1.8333333333333333, ,0.764339433793708, ,0.5158874308687578, ,0.08259015122140365
88, ,PASS, ,0.050993310600000015, ,0.008169934449426016, ,0.029084067104242776, ,0.0004173785264570663, ,1.8333333333333333, ,0.765541986966359, ,0.5158466153751964, ,0.07997795963347687
89, ,PASS, ,0.051192106300000005, ,0.008233605888108654, ,0.02847223084793372, ,0.0004221759061721713, ,1.75, ,0.7643355860510419, ,0.5097446990877738, ,0.06861084467663925
90, ,PASS, ,0.05119008230000001, ,0.008157611392410988, ,0.029427073428707585, ,0.0004193991289380522, ,1.9166666666666667, ,0.7699659967901539, ,0.5231934042162405, ,0.09130425909675313
91, ,PASS, ,0.0511905119, ,0.008153666010997228, ,0.029315408108987577, ,0.0004192349224773169, ,1.8333333333333333, ,0.7680225236621838, ,0.5230301422419951, ,0.09097773514826228
92, ,PASS, ,0.051408365500000004, ,0.008162757779409282, ,0.028874474234166652, ,0.0004208287468600995, ,1.8333333333333333, ,0.7647587497333926, ,0.5139895104181548, ,0.08563090549172465
93, ,PASS, ,0.051449924099999995, ,0.008191390727420035, ,0.028651840488957372, ,0.0004221549049710289, ,1.8333333333333333, ,0.7637601771882339, ,0.5130507540662436, ,0.07818207791677721
94, ,PASS, ,0.05119932410000001, ,0.008195009204919813, ,0.028680697368670034, ,0.00042018624659200676, ,1.8333333333333333, ,0.7657579168308125, ,0.5114793575641313, ,0.08891655272341381
95, ,PASS, ,0.051229292300000014, ,0.008184246232631632, ,0.02899381372628722, ,0.0004201574198051938, ,1.8333333333333333, ,0.7673203977114317, ,0.5180506520275097, ,0.08242688924715823
96, ,PASS, ,0.0514074496, ,0.00823849135043307, ,0.028487809044784804, ,0.00042411115945864206, ,1.8333333333333333, ,0.7650941952572541, ,0.5099691843023612, ,0.08230444276647415
97, ,PASS, ,0.0516330174, ,0.008278230792500965, ,0.02895522177570254, ,0.000428330913922972, ,1.8333333333333333, ,0.7678965148110923, ,0.5166833329932042, ,0.09038591049162262
98, ,PASS, ,0.05135225950000002, ,0.008280846330022587, ,0.028860284696234775, ,0.000425747535792968, ,1.8333333333333333, ,0.770258072657932, ,0.5129283075855595, ,0.09214097671476092
99, ,PASS, ,0.0515941304, ,0.008210993536162368, ,0.029333375830191227, ,0.0004253961734207453, ,1.9166666666666667, ,0.7684645690143909, ,0.5191322626068856, ,0.08250852023428093
100, ,PASS, ,0.051211657100000016, ,0.008207623539114934, ,0.029137503896626605, ,0.00042163115971460277, ,1.9166666666666667, ,0.7730738429168237, ,0.5202138731862616, ,0.10361013040550193
101, ,PASS, ,0.05131979680000001, ,0.00815991466743265, ,0.02890882346134365, ,0.0004201701837292316, ,1.9166666666666667, ,0.7667785434176625, ,0.5199485724781127, ,0.08848799004101957
102, ,PASS, ,0.051168849800000006, ,0.00813027685771878, ,0.029462280298926558, ,0.0004178274386100469, ,1.9166666666666667, ,0.7676415145612728, ,0.520683251362217, ,0.07928409624293382
103, ,PASS, ,0.05157085480000001, ,0.008145389861781946, ,0.02942011450546724, ,0.00042162126446290276, ,1.75, ,0.766884935970484, ,0.5170710801820371, ,0.07352911165078263
104, ,PASS, ,0.05156355110000001, ,0.008194692349964377, ,0.029135945227693315, ,0.0004242745573120318, ,1.8333333333333333, ,0.7652202298349352, ,0.5191934858472276, ,0.07563110956919246
105, ,PASS, ,0.05189533280000001, ,0.008254427756629932, ,0.028776887710503872, ,0.00042883852065288877, ,1.8333333333333333, ,0.761311414267167, ,0.509601844860309, ,0.05879471847513316
106, ,PASS, ,0.05307350400000001, ,0.008392065731221162, ,0.029451526479369813, ,0.0004475514189679769, ,1.8333333333333333, ,0.7658372034064088, ,0.5233566661904859, ,0.07214138486969654
107, ,PASS, ,0.09197662, ,0.013434340529816102, ,0.032755172300606115, ,0.0012424383137823723, ,1.75, ,0.753865922841362, ,0.5364788473704618, ,0.08212077304544806
108, ,PASS, ,0.12330806, ,0.01761925783289308, ,0.03438272781963633, ,0.00218319095050672, ,1.75, ,0.7456613008609029, ,0.5389277769841432, ,0.10014081345278668
109, ,PASS, ,0.05593166, ,0.008703158494994496, ,0.028798673341231814, ,0.000488467920967902, ,1.8333333333333333, ,0.7403196601556093, ,0.5159486541090998, ,0.07520254688679823
110, ,PASS, ,0.053888989500000005, ,0.008635316858203852, ,0.028952979053035656, ,0.0004662196241315067, ,1.8333333333333333, ,0.7670286163944484, ,0.5150098977571886, ,0.08507989632864635
111, ,PASS, ,0.053517747, ,0.008543017594668318, ,0.029028614551868333, ,0.0004588723884825005, ,1.8333333333333333, ,0.766275333705224, ,0.518724107671272, ,0.08148813289524703
112, ,PASS, ,0.053581913200000025, ,0.008416305970972246, ,0.024664322673898495, ,0.00045556438985926503, ,1.8333333333333333, ,0.7360096377880296, ,0.4385216628232077, ,0.07201893838901247
113, ,PASS, ,0.053959086600000004, ,0.008517228441003371, ,0.02904969748225751, ,0.00046123605381800605, ,1.8333333333333333, ,0.7609402627245125, ,0.5131119773065855, ,0.06752923409726332
114, ,PASS, ,0.0534916832, ,0.008514638932407698, ,0.029014003525709684, ,0.0004585659861725153, ,1.8333333333333333, ,0.7660143613061107, ,0.5161119160833453, ,0.09946735780902431
115, ,PASS, ,0.05348931700000001, ,0.00854902173326403, ,0.029012057129664707, ,0.000458716403432614, ,1.8333333333333333, ,0.7689470799459379, ,0.5191526703536663, ,0.09097773514826228
116, ,PASS, ,0.05355485890000001, ,0.008541386085670377, ,0.02897628232981164, ,0.00045887683169620533, ,1.9166666666666667, ,0.7648873919977818, ,0.5191730781004469, ,0.08465133364625212
117, ,PASS, ,0.0536467496, ,0.00855697777171409, ,0.028955226972469956, ,0.00046003400483263056, ,1.8333333333333333, ,0.7640031551864409, ,0.5160098773494418, ,0.08497785759474297
118, ,PASS, ,0.053369920500000015, ,0.008546696871060811, ,0.02867876296969654, ,0.00045618819306042084, ,1.8333333333333333, ,0.7668468344155224, ,0.5095406216199669, ,0.08775331115691516
119, ,PASS, ,0.053636993400000006, ,0.008491105474309953, ,0.029493786950849987, ,0.00045765558982631486, ,1.9166666666666667, ,0.7664497703588578, ,0.5222342401175486, ,0.07954939695108264
120, ,PASS, ,0.05337826590000001, ,0.008571641428874706, ,0.02831367951339361, ,0.0004577855223932531, ,1.8333333333333333, ,0.7642932588382824, ,0.5076835166629252, ,0.08277382094242974
121, ,PASS, ,0.05352659480000002, ,0.008532899410485443, ,0.02917123365109488, ,0.00045827423280468514, ,1.9166666666666667, ,0.7696567897919022, ,0.5215607844737863, ,0.09699802044856227
122, ,PASS, ,0.05338929500000001, ,0.008505057453787821, ,0.029216252621005696, ,0.0004555758876780642, ,1.9166666666666667, ,0.7659265438040406, ,0.5206220281218751, ,0.08869206750882636
123, ,PASS, ,0.053909300300000004, ,0.008613248806635488, ,0.02845924750338769, ,0.00046472603970260416, ,1.9166666666666667, ,0.7649308382089062, ,0.5050509173282178, ,0.08814105834574805
124, ,PASS, ,0.05297057250000001, ,0.008456790083662716, ,0.0291137273678027, ,0.0004491673891288142, ,1.9166666666666667, ,0.7691767991297184, ,0.5193975633150344, ,0.09632456480479991
125, ,PASS, ,0.053034924700000007, ,0.008498792656091088, ,0.028143296623875026, ,0.000451786905256281, ,1.8333333333333333, ,0.7599213659913515, ,0.5008877369849595, ,0.07038631864655823
126, ,PASS, ,0.0532126948, ,0.008563271335556346, ,0.029158837598551056, ,0.00045665960337065855, ,1.8333333333333333, ,0.7695926747767697, ,0.5161731393236872, ,0.08475337238015551
127, ,PASS, ,0.053229906100000016, ,0.008543741166899021, ,0.028985646553670336, ,0.0004547583465659448, ,1.9166666666666667, ,0.7652338936392669, ,0.5178465745597028, ,0.07961062019142466
128, ,PASS, ,0.0531034708, ,0.008523922927397537, ,0.029219149083375858, ,0.00045316883341626763, ,1.8333333333333333, ,0.7693949950416793, ,0.5148466357829432, ,0.09440623660741618
129, ,PASS, ,0.05351587830000001, ,0.008500841000851751, ,0.02913521932765046, ,0.00045581026115681505, ,1.8333333333333333, ,0.7627414534880407, ,0.517520050611212, ,0.07665149690822637
130, ,PASS, ,0.053875371599999985, ,0.008574290793910814, ,0.029410850167812905, ,0.00046354606554, ,1.8333333333333333, ,0.76542008852849, ,0.5164588477786167, ,0.08312075263770127
131, ,PASS, ,0.053747183500000004, ,0.00862068327597502, ,0.029341432929530016, ,0.00046357296634658477, ,1.8333333333333333, ,0.7648393659965744, ,0.512132405461113, ,0.07571274055631518
132, ,PASS, ,0.053858112900000005, ,0.008624377542825364, ,0.02900848589107978, ,0.0004654154013973264, ,1.8333333333333333, ,0.7692858056415286, ,0.5153568294524602, ,0.09575314789494092
133, ,PASS, ,0.053975727100000016, ,0.008635589657097329, ,0.0290272793302851, ,0.00046665506874312573, ,1.8333333333333333, ,0.7686798940479644, ,0.5155609069202669, ,0.09403889716536397
134, ,PASS, ,0.05439485250000001, ,0.008701598952376962, ,0.028872071939280836, ,0.0004736991433129869, ,1.8333333333333333, ,0.7650858975732565, ,0.5101120385298259, ,0.08316156813126263
135, ,PASS, ,0.05504524809999999, ,0.00886378245444288, ,0.028916555123738294, ,0.0004881826502666343, ,1.8333333333333333, ,0.7702914528302506, ,0.508336564559907, ,0.10044692965449685
136, ,PASS, ,0.0538409601, ,0.008650618679240132, ,0.029049943270182243, ,0.00046623365016234663, ,1.8333333333333333, ,0.7671220650846879, ,0.5118671047529643, ,0.0896716393542989
137, ,PASS, ,0.05359796470000001, ,0.00853443983855463, ,0.029119459269576136, ,0.0004580274631885243, ,1.8333333333333333, ,0.7619358136165304, ,0.5126221913838493, ,0.07126385175812738
138, ,PASS, ,0.05345759290000002, ,0.008504311924047075, ,0.02899037067139447, ,0.00045486298487207365, ,1.8333333333333333, ,0.7612588863691849, ,0.5102548927572906, ,0.07591681802412195
139, ,PASS, ,0.053052486100000004, ,0.008480230841049298, ,0.029671278645107248, ,0.00045155347826216744, ,1.9166666666666667, ,0.7669642772879194, ,0.5187445154180527, ,0.09591640986918634
140, ,PASS, ,0.053202729700000014, ,0.008508141341571514, ,0.029017363755380506, ,0.0004525689115407476, ,1.8333333333333333, ,0.7677291077306218, ,0.5122548519417971, ,0.09644701128548397
141, ,PASS, ,0.0534131831, ,0.008451531727275155, ,0.027493696242880762, ,0.0004540575785274444, ,1.8333333333333333, ,0.7497653252624199, ,0.4863778290238975, ,0.07346788841044061
142, ,PASS, ,0.053518813200000015, ,0.00856685910568486, ,0.028898573241886907, ,0.0004584571703317085, ,1.8333333333333333, ,0.7634416551335012, ,0.5088263504826432, ,0.07897798004122365
143, ,PASS, ,0.054706953999999995, ,0.00873657425910448, ,0.029633411230776927, ,0.00048087683342364453, ,1.9166666666666667, ,0.7696129334223603, ,0.5191118548601049, ,0.09497765351727516
144, ,PASS, ,0.05361277709999999, ,0.008519449026563816, ,0.02912720732400972, ,0.00045792116770006984, ,1.8333333333333333, ,0.7660587818614955, ,0.5168057794738883, ,0.07112099753066264
145, ,PASS, ,0.053609944299999976, ,0.008508581605229609, ,0.028631840073990333, ,0.00045664421793078217, ,1.8333333333333333, ,0.7594812159354238, ,0.5037040060406931, ,0.06463133405440705
146, ,PASS, ,0.053661909299999984, ,0.008432632187261589, ,0.02919995683374013, ,0.00045503922391905205, ,1.75, ,0.7580821974475381, ,0.5125201526499459, ,0.06646803126466806
147, ,PASS, ,0.0532082227, ,0.008496506904317063, ,0.028728008886043148, ,0.0004521900566129443, ,1.8333333333333333, ,0.7630996586038685, ,0.5082345258260036, ,0.08001877512703823
148, ,PASS, ,0.0531842396, ,0.008349676174347035, ,0.0292665429244893, ,0.0004461662132195327, ,1.9166666666666667, ,0.7610857832233907, ,0.5127242301177527, ,0.06787616579253485
149, ,PASS, ,0.052928373300000005, ,0.00836739403654904, ,0.02928611192980756, ,0.0004439532688039115, ,1.8333333333333333, ,0.7608906482197206, ,0.515744576641293, ,0.06414154813167078
150, ,PASS, ,0.05286634979999999, ,0.008391745753152562, ,0.02905174370771209, ,0.00044439556409696444, ,1.8333333333333333, ,0.7613668896260597, ,0.5113977265770087, ,0.07052917287402298
151, ,PASS, ,0.0523792345, ,0.008448597933358089, ,0.028561879276424975, ,0.00044257020399525584, ,1.8333333333333333, ,0.7670540222811608, ,0.5078467786371706, ,0.09371237321687312
152, ,PASS, ,0.052667659199999994, ,0.008420729555863643, ,0.029341097423160756, ,0.00044454961566069737, ,1.8333333333333333, ,0.7694389784250968, ,0.5189894083794209, ,0.08728393298095957
153, ,PASS, ,0.05304229379999998, ,0.00843869394132409, ,0.02818960249822045, ,0.0004497956101070663, ,1.8333333333333333, ,0.7552706494892945, ,0.4926225995387849, ,0.06712107916164976
154, ,PASS, ,0.05340856300000001, ,0.008528465079729411, ,0.029287695695963355, ,0.0004565281727003856, ,1.8333333333333333, ,0.7672281694016422, ,0.5135609477357604, ,0.08173302585661517
155, ,PASS, ,0.0533068359, ,0.008497020736662333, ,0.029176697632854433, ,0.0004539501511262828, ,1.8333333333333333, ,0.7642321023844141, ,0.5161323238301259, ,0.06889655313156874
156, ,PASS, ,0.05359733569999999, ,0.008339018035903895, ,0.02852706262124651, ,0.0004472954321341517, ,1.8333333333333333, ,0.7429133365548808, ,0.5105406012122201, ,0.06916185383971755
157, ,PASS, ,0.053914559900000006, ,0.008528004894102749, ,0.029015841261441605, ,0.0004602087535612391, ,1.9166666666666667, ,0.758849601270026, ,0.509601844860309, ,0.06750882635048264
158, ,PASS, ,0.053701479899999995, ,0.008558308148041465, ,0.0291299738097896, ,0.00046014798509337476, ,1.8333333333333333, ,0.761873414684289, ,0.5132956470276117, ,0.07465153772371992
159, ,PASS, ,0.053515292900000004, ,0.008922685905342455, ,0.028962664518144533, ,0.0004794632595425849, ,1.9166666666666667, ,0.7715424566237763, ,0.5199689802248934, ,0.0937327809636538
160, ,PASS, ,0.05379515679999999, ,0.008629189546904678, ,0.02905005165818249, ,0.0004642460753573581, ,1.8333333333333333, ,0.7665623552594835, ,0.5106018244525622, ,0.0713454827452501
161, ,PASS, ,0.0536254026, ,0.008557527533980851, ,0.029490659837164552, ,0.00046033649387602796, ,1.9166666666666667, ,0.7665448569287203, ,0.519234301340789, ,0.0686516601702006
162, ,PASS, ,0.05355349279999999, ,0.008600084243347711, ,0.029520052886932924, ,0.00046146906721705516, ,1.8333333333333333, ,0.7704905879791006, ,0.5170098569416951, ,0.09116140486928838
163, ,PASS, ,0.0533888327, ,0.008510305748787967, ,0.029158756776922923, ,0.0004550234596744266, ,1.8333333333333333, ,0.7654537940687101, ,0.51264259913063, ,0.07908001877512703
164, ,PASS, ,0.05351913089999999, ,0.00862706088004171, ,0.02913195297214547, ,0.0004621225967584594, ,1.8333333333333333, ,0.7698681661271236, ,0.5137038019632253, ,0.0887328830023877
165, ,PASS, ,0.0536085596, ,0.008558263904156573, ,0.02687614675659885, ,0.0004595748290596993, ,1.75, ,0.7524050997217326, ,0.4713985428868799, ,0.0804065223158711
166, ,PASS, ,0.0534342777, ,0.008559308444018606, ,0.029195452580749376, ,0.00045796172961077425, ,1.8333333333333333, ,0.7680852286358651, ,0.5120507744739903, ,0.08075345401114263
167, ,PASS, ,0.053333787800000004, ,0.008514777808837373, ,0.02942789588003715, ,0.0004555633753352596, ,1.8333333333333333, ,0.7675937931678727, ,0.5166833329932042, ,0.09332462602804024
168, ,PASS, ,0.0580004069, ,0.009235523659942428, ,0.029341641403542784, ,0.0005368841548206348, ,1.8333333333333333, ,0.768485784665557, ,0.5175812738515541, ,0.10279382053427481
169, ,PASS, ,0.05361452010000001, ,0.008510016638925023, ,0.029526473182484036, ,0.00045752858223625277, ,1.9166666666666667, ,0.763702052673839, ,0.5191118548601049, ,0.06891696087834942
170, ,PASS, ,0.06475768, ,0.01029469279630776, ,0.03008072125212955, ,0.0006672045094527447, ,1.8333333333333333, ,0.7699746153283418, ,0.5198057182506479, ,0.10897736780882022
171, ,PASS, ,0.21009169000000005, ,0.030400299490846015, ,0.039824022422195474, ,0.006426942389381154, ,1.75, ,0.7523723058571412, ,0.5450909165119079, ,0.11222219954694802
172, ,PASS, ,0.0567362544, ,0.009017225226155206, ,0.029593252207140673, ,0.000511949308934296, ,1.8333333333333333, ,0.7652124718523681, ,0.518091467521071, ,0.08838595130711618
173, ,PASS, ,0.056080115599999994, ,0.00892719221908735, ,0.02907932754959695, ,0.000500419780772049, ,1.8333333333333333, ,0.76247140685228, ,0.5116630272851574, ,0.07571274055631518
174, ,PASS, ,0.0562460255, ,0.008936341289443895, ,0.028649871360545705, ,0.0005026690497964776, ,1.8333333333333333, ,0.7577880993921978, ,0.5054998877573927, ,0.04865206832513622
175, ,PASS, ,0.05719697509999999, ,0.009082207980974404, ,0.02840840425173364, ,0.0005206556973753437, ,1.8333333333333333, ,0.7593064372332189, ,0.5003775433154426, ,0.08071263851758127
176, ,PASS, ,0.05642862450000001, ,0.008921827147723585, ,0.0296248489226526, ,0.0005036867000663271, ,1.75, ,0.7647620151252434, ,0.5238668598600028, ,0.08144731740168568
177, ,PASS, ,0.05617926680000001, ,0.008895583102595245, ,0.02968966799706945, ,0.0005010118459407711, ,1.9166666666666667, ,0.7629727141586353, ,0.5203771351605069, ,0.07744739903267281
178, ,PASS, ,0.0562639625, ,0.008940683091129942, ,0.02919805600813045, ,0.000503121500268038, ,1.8333333333333333, ,0.7634212632820675, ,0.513907879431032, ,0.08542682802391788
179, ,PASS, ,0.05641131629999999, ,0.00897049170517247, ,0.029117894410671214, ,0.0005060165932501653, ,1.8333333333333333, ,0.7594294970489588, ,0.5076222934225832, ,0.07167200669374095
180, ,PASS, ,0.0565152269, ,0.00898644301036174, ,0.02942001867072101, ,0.0005081614216233435, ,1.8333333333333333, ,0.7660638151434481, ,0.5154384604395829, ,0.0892022611783433
181, ,PASS, ,0.05673268309999999, ,0.008932650845914464, ,0.02853539542965858, ,0.0005081819488305471, ,1.75, ,0.7610830282984292, ,0.4944797044958266, ,0.0703250954062162
182, ,PASS, ,0.0565610959, ,0.009040848277890562, ,0.029103947096185797, ,0.0005115326927163271, ,1.8333333333333333, ,0.7663778991353657, ,0.5101528540233873, ,0.09214097671476092
183, ,PASS, ,0.057046353499999994, ,0.00910431201583631, ,0.02918099572316484, ,0.0005189643766909568, ,1.8333333333333333, ,0.7659059700641482, ,0.5094385828860636, ,0.09881430991204261
184, ,PASS, ,0.0569217156, ,0.00846021143243876, ,0.028885534222338322, ,0.0004843635922172997, ,1.9166666666666667, ,0.7195615293259693, ,0.51986694149099, ,0.06728434113589518
185, ,PASS, ,0.0567071474, ,0.009249297290560923, ,0.02908122945726414, ,0.0005261689944672761, ,1.8333333333333333, ,0.7817761907297893, ,0.5038060447745965, ,0.09389604293789923
186, ,PASS, ,0.05681349119999999, ,0.008986204859434072, ,0.030137935649580623, ,0.0005123388955517307, ,1.8333333333333333, ,0.7687666126536119, ,0.5235607436582926, ,0.08969204710107957
187, ,PASS, ,0.05636735080000001, ,0.009015077248184285, ,0.028572396364653786, ,0.0005085690792903896, ,1.8333333333333333, ,0.762834570962291, ,0.5047652088732884, ,0.08712067100671415
188, ,PASS, ,0.056443817099999995, ,0.009006932994362685, ,0.029034077642448114, ,0.0005087472039992925, ,1.8333333333333333, ,0.7645009407461646, ,0.5082549335727843, ,0.08632476888226771
189, ,PASS, ,0.056671130099999995, ,0.00893274650269907, ,0.028090210299773478, ,0.0005084670337149576, ,1.75, ,0.7510721035852711, ,0.4915205812126283, ,0.06665170098569417
190, ,PASS, ,0.056336016899999994, ,0.008744213717289066, ,0.029114559551886698, ,0.000493121038384609, ,1.9166666666666667, ,0.7479701260096222, ,0.518540437950246, ,0.06881492214444603
191, ,PASS, ,0.056315978999999995, ,0.008868592129342379, ,0.029521386565496625, ,0.0005009100626804305, ,1.9166666666666667, ,0.766268835695064, ,0.5212138527785147, ,0.09377359645721516
192, ,PASS, ,0.05596384960000001, ,0.008916817424440329, ,0.029839284068347585, ,0.0004996844863156477, ,1.8333333333333333, ,0.7677415816461386, ,0.5173567886369665, ,0.09783473806657007
193, ,PASS, ,0.056160227099999994, ,0.008919821259302737, ,0.029388822166906803, ,0.0005016865454114187, ,1.8333333333333333, ,0.7679254083963614, ,0.5178669823064835, ,0.09422256688639008
194, ,PASS, ,0.0558512979, ,0.008870016131670166, ,0.02983171086055183, ,0.0004971790104694913, ,1.8333333333333333, ,0.7717676832891567, ,0.5238668598600028, ,0.10540601212220159
195, ,PASS, ,0.0560459044, ,0.008853167266170098, ,0.029575468657513114, ,0.0004969732921234456, ,1.9166666666666667, ,0.7651427653304721, ,0.520499581641191, ,0.08214118079222874
196, ,PASS, ,0.05583658259999999, ,0.008845323931839207, ,0.029640490959362057, ,0.0004949121821579931, ,1.9166666666666667, ,0.7671281823801428, ,0.5218669006754965, ,0.0905899879594294
197, ,PASS, ,0.0567516818, ,0.00900543671807659, ,0.029417444590049188, ,0.0005119141801455473, ,1.8333333333333333, ,0.7647823191465416, ,0.5149486745168466, ,0.09222260770188363
198, ,PASS, ,0.05573203829999999, ,0.008820640184930225, ,0.029622602766559866, ,0.0004920399811883448, ,1.8333333333333333, ,0.7632509050685626, ,0.5170302646884758, ,0.07744739903267281
199, ,PASS, ,0.055173758700000006, ,0.008760638326798216, ,0.029063292360011022, ,0.0004837240433107774, ,1.8333333333333333, ,0.7618928788057433, ,0.5119691434868676, ,0.07887594130732026
200, ,PASS, ,0.0556017826, ,0.008807586773312635, ,0.029346892544617458, ,0.0004909001042443256, ,1.8333333333333333, ,0.7662526294812569, ,0.515622130160609, ,0.0883655435603355
201, ,PASS, ,0.0552665231, ,0.008734243820430766, ,0.029740269958741662, ,0.00048449219032240914, ,1.8333333333333333, ,0.7695417144526817, ,0.5242341993020551, ,0.09473276055590703
202, ,PASS, ,0.054847658900000006, ,0.008779453669190048, ,0.02973438601293239, ,0.0004819762887748205, ,1.8333333333333333, ,0.7705382341658052, ,0.5213771147527602, ,0.0987326789249199
203, ,PASS, ,0.055410022799999986, ,0.008698681237642909, ,0.029601762842003228, ,0.00048296679355946216, ,1.9166666666666667, ,0.7628930498628655, ,0.5219485316626191, ,0.08810024285218669
204, ,PASS, ,0.05568423399999999, ,0.008753557047484534, ,0.029826119561021207, ,0.0004884394223051748, ,1.9166666666666667, ,0.764031662247233, ,0.5203363196669456, ,0.07510050815289483
205, ,PASS, ,0.0569623655, ,0.009055091712957451, ,0.030054240417456787, ,0.0005173269815263905, ,1.8333333333333333, ,0.7717247739848258, ,0.5227444337870656, ,0.1115079284096243
206, ,PASS, ,0.05617957959999999, ,0.008927489109103624, ,0.029491836794132777, ,0.0005021317957161696, ,1.8333333333333333, ,0.7687936453071549, ,0.5186016611905879, ,0.1028958592681782
207, ,PASS, ,0.055388173, ,0.008754901065451477, ,0.029583372480610604, ,0.0004858657138937546, ,1.9166666666666667, ,0.7651578637005992, ,0.5208056978429012, ,0.09436542111385482
208, ,PASS, ,0.0553291351, ,0.008793170199724368, ,0.029584239354423385, ,0.000487293903056712, ,1.8333333333333333, ,0.7660360250228316, ,0.5182955449888778, ,0.09036550274484194
209, ,PASS, ,0.055347588400000015, ,0.008746650059205397, ,0.029505772977075982, ,0.00048541326900365325, ,1.8333333333333333, ,0.7660117053908925, ,0.5219077161690577, ,0.09416134364604804
210, ,PASS, ,0.055232637999999994, ,0.008673093702009296, ,0.029831998325658665, ,0.000480982255452159, ,1.8333333333333333, ,0.7672240415156736, ,0.5263770127140263, ,0.09238586967612906
211, ,PASS, ,0.05540628720000001, ,0.00875911874935105, ,0.029659523064859906, ,0.0004862844529129299, ,1.9166666666666667, ,0.766639797962994, ,0.5208669210832432, ,0.09218179220832227
212, ,PASS, ,0.055527915699999986, ,0.00879458632253117, ,0.029436907203230552, ,0.0004891890058269632, ,1.8333333333333333, ,0.767078620251305, ,0.5180506520275097, ,0.08487581886083957
213, ,PASS, ,0.055666208200000004, ,0.008818873091516749, ,0.029007949026368853, ,0.0004912739435152531, ,1.8333333333333333, ,0.7626580319018389, ,0.5064794596028652, ,0.09083488092079753
214, ,PASS, ,0.0555523771, ,0.008775962894479124, ,0.029993965216924146, ,0.0004886206187543898, ,1.9166666666666667, ,0.76600453417684, ,0.5243974612763005, ,0.09175322952592804
215, ,PASS, ,0.05560351639999999, ,0.008835614722154807, ,0.029701383983700334, ,0.0004926116019933774, ,1.8333333333333333, ,0.7713727253909797, ,0.5215403767270056, ,0.0912430358564111
216, ,PASS, ,0.0556549838, ,0.008846734550583666, ,0.029552973986216608, ,0.0004929606374085184, ,1.8333333333333333, ,0.7681443747282747, ,0.5164792555253974, ,0.10212036489051243
217, ,PASS, ,0.055301333599999995, ,0.008848600282100825, ,0.02947993639215935, ,0.0004898593677036442, ,1.8333333333333333, ,0.7677029929245388, ,0.5178465745597028, ,0.09277361686496194
218, ,PASS, ,0.055250935099999995, ,0.008830616561632601, ,0.029118865933640135, ,0.0004879375420902489, ,1.8333333333333333, ,0.7663899495710236, ,0.512193628701455, ,0.09356951898940838
219, ,PASS, ,0.055232842899999995, ,0.008753357484199743, ,0.02936607196328851, ,0.0004843149151957517, ,1.8333333333333333, ,0.7661162837899793, ,0.5186832921777107, ,0.09987551274463786
220, ,PASS, ,0.0548378939, ,0.00872804987537091, ,0.029468338448503096, ,0.0004799765096200593, ,1.9166666666666667, ,0.7701816936409743, ,0.5228668802677496, ,0.10754882553417278
221, ,PASS, ,0.054969978, ,0.008716118659057451, ,0.029306364770857744, ,0.00047972745807209105, ,1.8333333333333333, ,0.765023504961595, ,0.51625477031081, ,0.0901206097834738
222, ,PASS, ,0.05491350769999999, ,0.008692341787688159, ,0.02971424169145528, ,0.00047887185910904645, ,1.8333333333333333, ,0.7664101432543992, ,0.5242750147956164, ,0.09554907042713413
223, ,PASS, ,0.0548816873, ,0.00869638235420874, ,0.02931385753842575, ,0.00047759812874499663, ,1.8333333333333333, ,0.7622366675419245, ,0.5150098977571886, ,0.07148833697271484
224, ,PASS, ,0.05503282849999999, ,0.008459039095229577, ,0.029237925700106124, ,0.0004670756295958153, ,1.75, ,0.7438603541390648, ,0.5170506724352564, ,0.07167200669374095
225, ,PASS, ,0.054698531999999994, ,0.008689298471334542, ,0.02958109915011735, ,0.0004762041858190697, ,1.9166666666666667, ,0.7667822115705577, ,0.521132221791392, ,0.08632476888226771
226, ,PASS, ,0.054711407700000006, ,0.008730957283780804, ,0.02950151753852575, ,0.0004778780471089195, ,1.8333333333333333, ,0.7673544920843791, ,0.5167037407399849, ,0.09881430991204261
227, ,PASS, ,0.0550449466, ,0.00868963519055739, ,0.02959422861495072, ,0.0004792259280037793, ,1.9166666666666667, ,0.7641590671490545, ,0.519356747821473, ,0.08612069141446092
228, ,PASS, ,0.054911949300000006, ,0.008681924037305108, ,0.029646854544274612, ,0.0004781431413044234, ,1.8333333333333333, ,0.7688638490909075, ,0.5223362788514521, ,0.09638578804514193
229, ,PASS, ,0.05472185859999999, ,0.008669217626829455, ,0.029240134097857192, ,0.0004751180490250341, ,1.8333333333333333, ,0.7625185017277379, ,0.5162139548172486, ,0.07785555396828636
230, ,PASS, ,0.0545093653, ,0.008716501417028217, ,0.02861506589327361, ,0.00047541724698467127, ,1.9166666666666667, ,0.7619436454432542, ,0.5041937919634293, ,0.08297789841023652
231, ,PASS, ,0.055616847799999994, ,0.00886671929543973, ,0.02905539447827596, ,0.0004940667336731194, ,1.9166666666666667, ,0.7651496784116462, ,0.51264259913063, ,0.0969776127017816
232, ,PASS, ,0.10488659, ,0.015074772569723865, ,0.034124218131262624, ,0.0015932558695090989, ,1.75, ,0.7512331617079178, ,0.5427848411256914, ,0.11003857064141548
233, ,PASS, ,0.13003129000000002, ,0.01779492826272635, ,0.03612927080345299, ,0.0023316472312447435, ,1.75, ,0.729560588361191, ,0.549907144752148, ,0.10069182261586498
234, ,PASS, ,0.06755791300000002, ,0.009965716927220175, ,0.031181846078747372, ,0.0006738247246395235, ,1.8333333333333333, ,0.7504241364791854, ,0.5286830881002429, ,0.10756923328095346
235, ,PASS, ,0.065687851, ,0.00965593233363038, ,0.031841519667772086, ,0.0006377223310498628, ,1.75, ,0.7560524343282201, ,0.5408052896879656, ,0.1040999163282382
236, ,PASS, ,0.06577714800000002, ,0.009681180885363452, ,0.03158619203748291, ,0.000638816995680881, ,1.75, ,0.7549810136056961, ,0.5364380318769004, ,0.10507948817371074
237, ,PASS, ,0.06595596500000002, ,0.009679865180288684, ,0.031490175077204544, ,0.000639085612095267, ,1.8333333333333333, ,0.7500328864137903, ,0.535009489602253, ,0.07681475888247179
238, ,PASS, ,0.06590635700000001, ,0.00973062929529155, ,0.03046800940391216, ,0.0006428026607254395, ,1.75, ,0.7480568153837263, ,0.5223362788514521, ,0.10948756147833717
239, ,PASS, ,0.06588309400000002, ,0.009652448491994786, ,0.031477268510220195, ,0.0006379573025631457, ,1.75, ,0.7489199440096247, ,0.5343564417052713, ,0.08728393298095957
240, ,PASS, ,0.06597168700000001, ,0.009752867272788157, ,0.030600584992161384, ,0.000644447695302186, ,1.75, ,0.7494857133189619, ,0.5252749943878696, ,0.10544682761576295
241, ,PASS, ,0.06593184900000001, ,0.009732032827837979, ,0.03112146527123324, ,0.0006430282573212452, ,1.8333333333333333, ,0.7517948104965355, ,0.5299687761474255, ,0.1116915981306504
242, ,PASS, ,0.065590572, ,0.009688348577448134, ,0.03169490160229995, ,0.0006375561241900566, ,1.75, ,0.7565050070308603, ,0.5379482051386706, ,0.10728352482602396
243, ,PASS, ,0.065733883, ,0.009815549541773806, ,0.03112378735799065, ,0.0006470171176395087, ,1.75, ,0.7537414140014728, ,0.5344176649456134, ,0.11393645027652496
244, ,PASS, ,0.06594694100000002, ,0.009763801592085836, ,0.03102725874435012, ,0.0006444997810715742, ,1.8333333333333333, ,0.7517353157574421, ,0.5284381951388747, ,0.10781412624232159
245, ,PASS, ,0.06606531800000001, ,0.009747273521819439, ,0.03131944149077978, ,0.0006456533105639241, ,1.9166666666666667, ,0.7514066865375277, ,0.532540152241791, ,0.10934470725087243
246, ,PASS, ,0.06616292300000003, ,0.009720138713197433, ,0.03205106547385564, ,0.0006447184869475709, ,1.8333333333333333, ,0.7543792225976277, ,0.5437644129711638, ,0.1018754719291443
247, ,PASS, ,0.06629819700000002, ,0.00977183734539459, ,0.030466920731499356, ,0.0006487918482147171, ,1.75, ,0.7475712424051236, ,0.520438358400849, ,0.10691618538397175
248, ,PASS, ,0.06667816800000002, ,0.009693509508749254, ,0.03160026483876656, ,0.0006496089277295481, ,1.75, ,0.7508779484842975, ,0.5412950756107018, ,0.11181404461133446
249, ,PASS, ,0.06630159800000002, ,0.009741472096851436, ,0.031568136039289, ,0.0006479974589391241, ,1.75, ,0.7525764284248815, ,0.5374992347094957, ,0.1114058896757209
250, ,PASS, ,0.06615012900000002, ,0.009546753293018092, ,0.031381707560239586, ,0.0006331174248492094, ,1.6666666666666667, ,0.7385389483777465, ,0.5296626599457154, ,0.09273280137140058
251, ,PASS, ,0.06663648500000002, ,0.009806786328707946, ,0.03093322968966348, ,0.0006546771058117652, ,1.9166666666666667, ,0.7490471009888374, ,0.5296422521989347, ,0.1040999163282382
252, ,PASS, ,0.06592852800000001, ,0.009683875991325691, ,0.031642553839858374, ,0.0006411627802334811, ,1.75, ,0.7538130642796924, ,0.5392951164261954, ,0.10979367768004734
253, ,PASS, ,0.06640592700000003, ,0.00981925814156626, ,0.031407406481431, ,0.0006527732447168363, ,1.8333333333333333, ,0.7509224871624056, ,0.5291320585294178, ,0.10456929450419379
254, ,PASS, ,0.06710985900000002, ,0.00980962790987439, ,0.03166135197612702, ,0.0006603106282677225, ,1.75, ,0.7503280482183337, ,0.5372135262545662, ,0.10281422828105549
255, ,PASS, ,0.06709301600000002, ,0.009908168439661991, ,0.0305672874596947, ,0.0006659731035064864, ,1.75, ,0.7472137823729601, ,0.5218056774351544, ,0.10587539029815718
