Channel, ,Pass/Fail, ,Amplitude, ,Sorting Function Response, ,Mean, ,Variance
233, ,PASS, ,0.05407692348494299, ,0.03876733601089561, ,0.001752670023415143, ,0.00045842771753897026
234, ,PASS, ,0.040622394684379, ,0.028309981827135053, ,0.001027707276443327, ,0.00025167823026413943
235, ,PASS, ,0.024325565431713, ,0.014032214385736824, ,-9.582503686441316e-05, ,7.492636487093278e-05
236, ,PASS, ,0.023642623488524, ,0.013589639707305116, ,-0.0001746457454508152, ,7.053097202226535e-05
237, ,PASS, ,0.023867665575712002, ,0.013681731758514878, ,-0.00010002273867229165, ,7.170397834336363e-05
238, ,PASS, ,0.023558315575920002, ,0.013406292623939213, ,-0.00014547966508908857, ,6.93788417832999e-05
239, ,PASS, ,0.023620484498195, ,0.013594776501706558, ,-8.354535485150282e-05, ,7.054043770807813e-05
240, ,PASS, ,0.023670588665598003, ,0.013646813377401411, ,-0.00018730711109851467, ,7.090461153400574e-05
241, ,PASS, ,0.023934783558384, ,0.013720928473290067, ,-0.00012793328114625205, ,7.214259315369106e-05
242, ,PASS, ,0.023853633168557004, ,0.013605744012069432, ,-0.00017457511575383108, ,7.123999433807576e-05
243, ,PASS, ,0.024101898678852, ,0.0138210687144854, ,-0.0001141787588469355, ,7.314224578243454e-05
244, ,PASS, ,0.024253368874485, ,0.0139229949417927, ,-0.00014990436679570762, ,7.415397804462645e-05
245, ,PASS, ,0.024495416373521005, ,0.014107376992740693, ,-6.403524163799228e-05, ,7.587733127477128e-05
246, ,PASS, ,0.024426066130501002, ,0.013934121752978866, ,-8.575855584385194e-05, ,7.478330253148747e-05
247, ,PASS, ,0.024658865309444, ,0.01420175463290344, ,-0.00011080874878844982, ,7.687561067983691e-05
248, ,PASS, ,0.024916359030639, ,0.014262455023559962, ,-0.00010672071152223587, ,7.804588887893566e-05
249, ,PASS, ,0.025014265730356998, ,0.01440863615462148, ,-6.315495958997404e-05, ,7.916867367898499e-05
250, ,PASS, ,0.025005564366574, ,0.014288237610130521, ,-0.00013122562804619866, ,7.846271900528095e-05
251, ,PASS, ,0.025112066618092, ,0.014444101283974341, ,-0.0001295224396401246, ,7.967481669698262e-05
252, ,PASS, ,0.024791995244727003, ,0.014264204708516495, ,-5.485936162370236e-05, ,7.768257963537662e-05
253, ,PASS, ,0.025038540686239005, ,0.014470169213780248, ,-6.0213591501824064e-05, ,7.953837424333424e-05
254, ,PASS, ,0.025492609032809005, ,0.014580630395733627, ,-7.966228277978954e-05, ,8.162200217245018e-05
255, ,PASS, ,0.025512280947142994, ,0.0147663769026617, ,-0.0001075682891708821, ,8.27134489309795e-05
