Channel, ,Pass/Fail, ,Amplitude, ,Sorting Function Response, ,Mean, ,Variance, ,NPeaksRatio, ,PosIntegralRatio, ,ToT50, ,ToT99
0, ,PASS, ,0.027722770000000008, ,0.0031442280077423382, ,0.02672771403052999, ,8.866893473807976e-05, ,1.5833333333333333, ,0.6059580949404371, ,0.43190955286626803, ,0.04461133446256199
1, ,PASS, ,0.03343607999999998, ,0.0047367412447918535, ,0.025736325878043306, ,0.00016084079868523203, ,1.8333333333333333, ,0.7208288787632601, ,0.40931817718005753, ,0.06348850023468909
2, ,PASS, ,0.03342683999999998, ,0.004733627951400107, ,0.02580066519111855, ,0.0001607667795426646, ,1.8333333333333333, ,0.7184548938423841, ,0.41331809554907045, ,0.07399848982673823
3, ,PASS, ,0.033208302999999974, ,0.004593734453658715, ,0.02570605127507602, ,0.0001549573210845122, ,1.8333333333333333, ,0.7122113632735007, ,0.410175302544846, ,0.05961102834636028
4, ,PASS, ,0.033056929999999984, ,0.0046913306581163805, ,0.025497103233893186, ,0.0001574272925886862, ,1.8333333333333333, ,0.7240427960400204, ,0.4049917348625538, ,0.072365870084284
5, ,PASS, ,0.033030429999999986, ,0.004611664533961665, ,0.025554880295198056, ,0.00015471520555697973, ,1.8333333333333333, ,0.7115697068111135, ,0.4097263321156711, ,0.05728454521336299
6, ,PASS, ,0.03328961, ,0.004639005009742369, ,0.025913234250729573, ,0.00015681075967206162, ,1.8333333333333333, ,0.7131012041851837, ,0.4100936715577233, ,0.05695802126487214
7, ,PASS, ,0.03315670999999997, ,0.0046793130705157044, ,0.025596132218117996, ,0.00015749712849329517, ,1.8333333333333333, ,0.7196052635585164, ,0.4099304095834779, ,0.06803942776678026
8, ,PASS, ,0.033016099999999986, ,0.004620900110579559, ,0.025544115047039854, ,0.00015502026947060058, ,1.8333333333333333, ,0.7152479263066668, ,0.40895083773800533, ,0.06018244525621926
9, ,PASS, ,0.033012649999999984, ,0.004688123107039849, ,0.02556419269402665, ,0.00015712484790541628, ,1.8333333333333333, ,0.7219579426862244, ,0.40772637293116465, ,0.06763127283116671
10, ,PASS, ,0.03332961799999999, ,0.004690271961189479, ,0.02551517142350156, ,0.00015872872587836516, ,1.8333333333333333, ,0.7235055313232636, ,0.4059508989612457, ,0.0611620171016918
11, ,PASS, ,0.03302256999999998, ,0.004711047150852992, ,0.025725788759208994, ,0.00015788510006081076, ,1.8333333333333333, ,0.7253469158115283, ,0.40562437501275483, ,0.06752923409726332
12, ,PASS, ,0.033150772999999994, ,0.0046635186748796645, ,0.025575461020775087, ,0.00015700051683613587, ,1.8333333333333333, ,0.7223819015863473, ,0.40997122507703926, ,0.06712107916164976
13, ,PASS, ,0.033384259999999985, ,0.004745218891757763, ,0.025621847953551966, ,0.00016082525677999182, ,1.8333333333333333, ,0.7204559368372581, ,0.40644068488398194, ,0.058141670578151464
14, ,PASS, ,0.033107101999999985, ,0.004762244803581098, ,0.02537096893208302, ,0.00016005982135613642, ,1.8333333333333333, ,0.7256594031673366, ,0.4062161996693945, ,0.07059039611436502
15, ,PASS, ,0.03333293599999997, ,0.004847408294369789, ,0.025392789990653253, ,0.00016398125291034843, ,1.9166666666666667, ,0.7332799949162908, ,0.40227750454072364, ,0.07303932572804636
16, ,PASS, ,0.03344340999999998, ,0.004796425769471118, ,0.02533040371033244, ,0.0001628970841680904, ,1.8333333333333333, ,0.7281949941236033, ,0.40446113344625617, ,0.06508030448358197
17, ,PASS, ,0.03382763399999999, ,0.004926903917582408, ,0.02520755491408339, ,0.00016921456988374148, ,1.9166666666666667, ,0.7312620041691992, ,0.4046448031672823, ,0.0694883777882084
18, ,PASS, ,0.034170455, ,0.004969467441921083, ,0.02533653188269627, ,0.00017228147673368274, ,1.9166666666666667, ,0.7357134732803222, ,0.4046856186608437, ,0.0796718434317667
19, ,PASS, ,0.033585613, ,0.004846872429003065, ,0.02576080672557703, ,0.00016520530939184084, ,1.8333333333333333, ,0.7297055260169035, ,0.40544070529172876, ,0.0694883777882084
20, ,PASS, ,0.03373074999999998, ,0.004899120764489564, ,0.025300248263259932, ,0.00016779083384336292, ,1.9166666666666667, ,0.7297021142695461, ,0.40356319258790635, ,0.0640395093977674
21, ,PASS, ,0.033923734, ,0.004874795102340066, ,0.02526962467504745, ,0.00016796413265358513, ,1.8333333333333333, ,0.729235696083447, ,0.4045631721801596, ,0.07420256729454501
22, ,PASS, ,0.03413792299999998, ,0.00488742435696387, ,0.02516205721964858, ,0.0001694210443733126, ,1.8333333333333333, ,0.7265830976256265, ,0.4058488602273423, ,0.07018224117875145
23, ,PASS, ,0.034186254999999985, ,0.004922324991097241, ,0.02535229559015122, ,0.00017086182084149516, ,1.8333333333333333, ,0.7274248740175222, ,0.407195771514867, ,0.0694883777882084
24, ,PASS, ,0.034162524, ,0.004910714855660305, ,0.025384905856207014, ,0.00017035828328895014, ,1.8333333333333333, ,0.7283249362095309, ,0.4079508581457521, ,0.06940674680108569
25, ,PASS, ,0.03431783699999999, ,0.00489268454696527, ,0.0256314160382033, ,0.0001706267533396356, ,1.8333333333333333, ,0.7236547051769608, ,0.41146099059202873, ,0.06724352564233382
26, ,PASS, ,0.03532197699999999, ,0.005089617689884964, ,0.025511247967551682, ,0.00018262989122204068, ,1.8333333333333333, ,0.7295402411662208, ,0.4114201750984674, ,0.07181486092120569
27, ,PASS, ,0.03435071499999999, ,0.004819477559851359, ,0.025734181953205038, ,0.00016823909592319052, ,1.8333333333333333, ,0.7223894523229127, ,0.41107324340319584, ,0.0642231791187935
28, ,PASS, ,0.03377464599999999, ,0.004857666745541623, ,0.025329621124875003, ,0.0001665919569883619, ,1.8333333333333333, ,0.7280658824689481, ,0.4047468419011857, ,0.07063121160792638
29, ,PASS, ,0.033895386999999985, ,0.0048326256912077795, ,0.02550084846066407, ,0.00016645414163558427, ,1.8333333333333333, ,0.7247881973078769, ,0.4087263525234179, ,0.07163119120017959
30, ,PASS, ,0.034102065, ,0.0048563772770930875, ,0.025682511956388647, ,0.00016820705404193114, ,1.8333333333333333, ,0.730623829800678, ,0.4100936715577233, ,0.07063121160792638
31, ,PASS, ,0.03427644199999998, ,0.0048993673965693485, ,0.025475532679700413, ,0.00017053720920720618, ,1.8333333333333333, ,0.7277891635648219, ,0.4080937123732169, ,0.07585559478377993
32, ,PASS, ,0.03416475699999999, ,0.004821755038230256, ,0.02553154472484235, ,0.0001673678955143214, ,1.8333333333333333, ,0.7251257590051766, ,0.4057672292402196, ,0.06705985592130773
33, ,PASS, ,0.034227037999999994, ,0.004812491083098281, ,0.025515149052998915, ,0.00016739179858046152, ,1.8333333333333333, ,0.7216191165232533, ,0.4063998693904206, ,0.06705985592130773
34, ,PASS, ,0.03402953099999998, ,0.004861487887249821, ,0.02544077887300259, ,0.00016803923690997778, ,1.8333333333333333, ,0.7238404852874507, ,0.4071141405277443, ,0.06481500377543316
35, ,PASS, ,0.03433172399999998, ,0.004873344070052697, ,0.02527815270927124, ,0.00016992415531582312, ,1.8333333333333333, ,0.7243897415731756, ,0.40578763698700027, ,0.06691700169384299
36, ,PASS, ,0.034782793, ,0.004986251722527576, ,0.02573054924089304, ,0.00017612968677509862, ,1.8333333333333333, ,0.728787390336927, ,0.40748147996979656, ,0.0717128221873023
37, ,PASS, ,0.034784444, ,0.005014898678464171, ,0.025193827314687455, ,0.00017720729510951522, ,1.8333333333333333, ,0.7288491453093731, ,0.40660394685822737, ,0.0741209363074223
38, ,PASS, ,0.03482283999999998, ,0.005016776059242744, ,0.025705265751025486, ,0.0001774563984311393, ,1.8333333333333333, ,0.7283947286285269, ,0.40737944123589315, ,0.06346809248790841
39, ,PASS, ,0.034605954999999994, ,0.004928023549445361, ,0.02566918746527622, ,0.00017335664441371816, ,1.8333333333333333, ,0.726114788256748, ,0.4091957306993735, ,0.06765168057794739
40, ,PASS, ,0.034821137999999995, ,0.004983403021634976, ,0.025121807366482316, ,0.00017632681498130304, ,1.8333333333333333, ,0.7243686287697143, ,0.407073325034183, ,0.06257015162955858
41, ,PASS, ,0.03505066999999998, ,0.004974217741407755, ,0.02524223498493908, ,0.00017720322032419868, ,1.8333333333333333, ,0.7230515522020623, ,0.4092977694332769, ,0.0659782453419318
42, ,PASS, ,0.034979683, ,0.004998853392636644, ,0.025184044233342175, ,0.00017767894249954061, ,1.8333333333333333, ,0.727785267560826, ,0.4026856594763372, ,0.06899859186547214
43, ,PASS, ,0.035013361999999985, ,0.004995317198827462, ,0.025156482245586826, ,0.00017760680487763757, ,1.8333333333333333, ,0.7274772938862535, ,0.4046856186608437, ,0.07087610456929451
44, ,PASS, ,0.03966816799999999, ,0.005693837925879069, ,0.024857025123283197, ,0.0002294974317896895, ,1.8333333333333333, ,0.7281887263090953, ,0.40729781024877043, ,0.06318238403297892
45, ,PASS, ,0.052526061409999984, ,0.007438338375745476, ,0.023882953869555724, ,0.00039709475904155337, ,1.8333333333333333, ,0.7241551170408711, ,0.40746107222301586, ,0.06587620660802841
46, ,PASS, ,0.039669097, ,0.005402297870142684, ,0.025088159956694764, ,0.00021781309350481462, ,1.8333333333333333, ,0.7103903634686108, ,0.40746107222301586, ,0.06289667557804943
47, ,PASS, ,0.039320182999999974, ,0.005359833437184542, ,0.025065469112181382, ,0.00021417981390012587, ,1.8333333333333333, ,0.7116943133988887, ,0.40735903348911245, ,0.061406910063059934
48, ,PASS, ,0.03945833499999998, ,0.005353197004567563, ,0.025094966386747207, ,0.00021473199658868675, ,1.8333333333333333, ,0.708097984861736, ,0.4075835187036999, ,0.05734576845370502
49, ,PASS, ,0.03950096999999999, ,0.005359908629962022, ,0.024967432566029263, ,0.0002150405255108823, ,1.8333333333333333, ,0.7045570186086778, ,0.4021754658068203, ,0.062161996693945024
50, ,PASS, ,0.03916387099999999, ,0.005388359872181511, ,0.024864160142772596, ,0.00021446244651885104, ,1.8333333333333333, ,0.7108866561616131, ,0.40646109263076263, ,0.05689679802453011
51, ,PASS, ,0.039278128999999995, ,0.005392122145663817, ,0.0249545363603804, ,0.00021521071400974835, ,1.8333333333333333, ,0.711622001110582, ,0.40656313136466604, ,0.060468153711148755
52, ,PASS, ,0.039084386999999984, ,0.005353891684141082, ,0.025066891177302503, ,0.00021265911257487637, ,1.8333333333333333, ,0.7133240233108192, ,0.40709373278096367, ,0.06710067141486908
53, ,PASS, ,0.03909932299999999, ,0.005296746617868189, ,0.024973165289851225, ,0.0002105730933209085, ,1.8333333333333333, ,0.7074685392880996, ,0.40735903348911245, ,0.05952939735923757
54, ,PASS, ,0.03902073999999999, ,0.005342905833095719, ,0.024902437383788084, ,0.00021177018380585654, ,1.8333333333333333, ,0.7111862807273411, ,0.4045835799269403, ,0.060447745964368076
55, ,PASS, ,0.038824096999999995, ,0.0053259176554456365, ,0.025074533225811716, ,0.00021013395721183935, ,1.8333333333333333, ,0.7119303152549018, ,0.4067672088324728, ,0.05738658394726638
56, ,PASS, ,0.039161279999999986, ,0.0053483756410161115, ,0.0251853826520071, ,0.0002128480683441742, ,1.8333333333333333, ,0.7066118555165577, ,0.4088283912573213, ,0.058141670578151464
57, ,PASS, ,0.038792376999999996, ,0.005359392875108762, ,0.025166504077529028, ,0.00021121835550610654, ,1.8333333333333333, ,0.7122350125674923, ,0.407073325034183, ,0.06242729740209384
58, ,PASS, ,0.038904738999999994, ,0.005356839591714979, ,0.024992588605089693, ,0.00021175244651720283, ,1.8333333333333333, ,0.7148795773592017, ,0.407073325034183, ,0.0635701312218118
59, ,PASS, ,0.03880457299999998, ,0.005328438277776114, ,0.025270577981775882, ,0.00021004010313167604, ,1.8333333333333333, ,0.7113561662655697, ,0.4075018877165772, ,0.060835493153200956
60, ,PASS, ,0.039060122999999995, ,0.005404105528927279, ,0.025036323943286868, ,0.00021442470139974206, ,1.8333333333333333, ,0.7153853907706172, ,0.40688965531315685, ,0.060100814269096546
61, ,PASS, ,0.039255817999999984, ,0.005398446749674736, ,0.024888588457194747, ,0.0002153675180376588, ,1.8333333333333333, ,0.7143652604910982, ,0.4071141405277443, ,0.061345686822717904
62, ,PASS, ,0.03873742599999999, ,0.005406216595640919, ,0.024963933097487807, ,0.00021278007865845012, ,1.8333333333333333, ,0.7189137103868158, ,0.40660394685822737, ,0.06371298544927655
63, ,PASS, ,0.03902241699999999, ,0.0054340935683284755, ,0.0249384859947348, ,0.0002153750747783673, ,1.8333333333333333, ,0.7152134492229391, ,0.4067468010856921, ,0.06189669598579621
64, ,PASS, ,0.039089253000000004, ,0.0054263893001950374, ,0.024891822220240403, ,0.00021552316446483516, ,1.8333333333333333, ,0.716117399031291, ,0.4073182179955511, ,0.0638354319299606
65, ,PASS, ,0.038834707999999996, ,0.005430532882514926, ,0.025190437212628314, ,0.00021420835444535213, ,1.8333333333333333, ,0.7206877461602389, ,0.4097059243688904, ,0.06248852064243587
66, ,PASS, ,0.038921847999999995, ,0.005401718019773388, ,0.025179062922634228, ,0.0002135629864654682, ,1.8333333333333333, ,0.7182880989672328, ,0.40460398767372097, ,0.0621824044407257
67, ,PASS, ,0.03838357399999999, ,0.005320318514650969, ,0.024997481806657007, ,0.00020743800198098555, ,1.8333333333333333, ,0.7166194947439106, ,0.4071549560213057, ,0.06299871431195282
68, ,PASS, ,0.03851498499999998, ,0.005300548671342785, ,0.025104749478704513, ,0.00020744470071275544, ,1.8333333333333333, ,0.7147672923171137, ,0.4073386257423318, ,0.06326401502010164
69, ,PASS, ,0.03818642799999999, ,0.005197938186199011, ,0.02503161578904512, ,0.00020173891642345505, ,1.8333333333333333, ,0.7109522075757325, ,0.40439991020591415, ,0.057733515642537904
70, ,PASS, ,0.03756166099999998, ,0.005163431162950691, ,0.025157331840697128, ,0.00019710691297594762, ,1.8333333333333333, ,0.7135575132348754, ,0.4068488398195955, ,0.062141588947164345
71, ,PASS, ,0.03770515800000001, ,0.005104498886447949, ,0.02523355396149058, ,0.00019562453028142617, ,1.8333333333333333, ,0.7057709560104951, ,0.4073182179955511, ,0.06110079386134977
72, ,PASS, ,0.03766532599999999, ,0.005185277369304055, ,0.0251277720700802, ,0.0001984468340282225, ,1.8333333333333333, ,0.7133230833421792, ,0.40695087855349893, ,0.06842717495561315
73, ,PASS, ,0.037913141, ,0.005208736665979016, ,0.02520326225942328, ,0.0002006929637544736, ,1.8333333333333333, ,0.709583291627089, ,0.410052856064162, ,0.06273341360380401
74, ,PASS, ,0.037775661999999995, ,0.005199652281215403, ,0.025134034817064957, ,0.00019954993699035774, ,1.8333333333333333, ,0.713590136208525, ,0.4064815003775433, ,0.06263137486990061
75, ,PASS, ,0.037795496, ,0.005169427047559069, ,0.02520087270480194, ,0.0001985317756020263, ,1.8333333333333333, ,0.7108212484071139, ,0.406501908124324, ,0.058468194526642314
76, ,PASS, ,0.037595754999999995, ,0.0051153418773226145, ,0.0251127085287239, ,0.00019544017542149868, ,1.8333333333333333, ,0.7091413143143417, ,0.40693047080671824, ,0.059631436093140956
77, ,PASS, ,0.03753785, ,0.005116238440278948, ,0.02526418353021367, ,0.00019517882672752943, ,1.8333333333333333, ,0.7105758824178751, ,0.4073182179955511, ,0.06740678761657926
78, ,PASS, ,0.038274222000000004, ,0.00534602082804556, ,0.025065924350747944, ,0.0002078428863566136, ,1.8333333333333333, ,0.719912271314289, ,0.40460398767372097, ,0.06354972347503113
79, ,PASS, ,0.03752649799999998, ,0.005120632622100219, ,0.02493197807046795, ,0.00019531096247365356, ,1.8333333333333333, ,0.7107933681540809, ,0.4065835391114467, ,0.05834574804595825
80, ,PASS, ,0.03797309299999999, ,0.0052283969458038785, ,0.024921896797187808, ,0.00020171732752266735, ,1.8333333333333333, ,0.7109038805776862, ,0.4025836207424338, ,0.06452929532050367
81, ,PASS, ,0.037895138, ,0.005278058999342498, ,0.02503275348692884, ,0.0002032248389093532, ,1.8333333333333333, ,0.7149859004171676, ,0.40864472153629516, ,0.05957021285279892
82, ,PASS, ,0.03808648799999999, ,0.005256565186473559, ,0.0251235641767719, ,0.00020345954638294935, ,1.8333333333333333, ,0.7167996535103001, ,0.4072161792616477, ,0.06448847982694231
83, ,PASS, ,0.037912656999999995, ,0.005252889711630796, ,0.024974498672700556, ,0.00020241621927515285, ,1.8333333333333333, ,0.7137368079371865, ,0.4064202771372013, ,0.06112120160813045
84, ,PASS, ,0.038080799999999984, ,0.005255112300932592, ,0.024899529238791043, ,0.000203407553189054, ,1.8333333333333333, ,0.713859368807198, ,0.40615497642905246, ,0.0609783473806657
85, ,PASS, ,0.038161172999999986, ,0.005270840411036722, ,0.024985683640986918, ,0.00020442667432152704, ,1.8333333333333333, ,0.7105650821352434, ,0.4063182384032979, ,0.06169261851798943
86, ,PASS, ,0.03921965199999998, ,0.005532066637362517, ,0.025053492152282603, ,0.000220472422078355, ,1.8333333333333333, ,0.7208646745346926, ,0.4067059855921308, ,0.061243648088814516
87, ,PASS, ,0.038793322, ,0.0054475687767442885, ,0.024850150011244666, ,0.00021465233624380135, ,1.8333333333333333, ,0.7210443043966229, ,0.40691006305993754, ,0.06638640027754536
88, ,PASS, ,0.03863292699999999, ,0.0053786603224877235, ,0.025057118432950345, ,0.00021113485605712352, ,1.8333333333333333, ,0.717456222757492, ,0.4065835391114467, ,0.06238648190853248
89, ,PASS, ,0.038659064999999986, ,0.005355574881657156, ,0.024996270205689678, ,0.00021035826123120123, ,1.8333333333333333, ,0.715184904615721, ,0.4068080243260342, ,0.056039672659741635
90, ,PASS, ,0.038658249, ,0.005394943174738625, ,0.02499466169276137, ,0.00021192767206159707, ,1.8333333333333333, ,0.718643763895888, ,0.4067263933389115, ,0.062121181200383666
91, ,PASS, ,0.038910738999999986, ,0.0053907008060048445, ,0.02495597203104018, ,0.00021312311733485381, ,1.8333333333333333, ,0.7162951787255315, ,0.40646109263076263, ,0.06273341360380401
92, ,PASS, ,0.03901223399999999, ,0.00537833392453504, ,0.024896734900226522, ,0.00021316356115007442, ,1.8333333333333333, ,0.7169758272397543, ,0.4059508989612457, ,0.06646803126466806
93, ,PASS, ,0.038725124, ,0.005440749972676153, ,0.02468233633211567, ,0.0002139670918290073, ,1.8333333333333333, ,0.7198689410930083, ,0.404093794004204, ,0.06963123201567314
94, ,PASS, ,0.03875068199999999, ,0.005409095228526697, ,0.02511311073080141, ,0.00021284964913519897, ,1.8333333333333333, ,0.7148390188818488, ,0.406501908124324, ,0.058468194526642314
95, ,PASS, ,0.03840126699999999, ,0.005292382618587645, ,0.025031930974306647, ,0.00020650723003849545, ,1.8333333333333333, ,0.711143499601539, ,0.40662435460500806, ,0.05995796004163181
96, ,PASS, ,0.038480880999999995, ,0.0053355490030020224, ,0.024954117148405133, ,0.00020855853077838386, ,1.8333333333333333, ,0.7141918493281127, ,0.405869267974123, ,0.05624375012754842
97, ,PASS, ,0.03832240699999999, ,0.005278359035431368, ,0.024885069871227114, ,0.00020558778834969127, ,1.8333333333333333, ,0.7141821763319549, ,0.407073325034183, ,0.061019162874227054
98, ,PASS, ,0.038681994, ,0.005349368088455307, ,0.025251240898940836, ,0.00021023714788413435, ,1.8333333333333333, ,0.7151379240256588, ,0.4062978306565172, ,0.06387624742352196
99, ,PASS, ,0.038873476000000004, ,0.005342203258465716, ,0.024908835996489864, ,0.00021107940894192644, ,1.8333333333333333, ,0.7139818453419557, ,0.40709373278096367, ,0.06389665517030264
100, ,PASS, ,0.038446109, ,0.00530434160385729, ,0.02493459519111855, ,0.00020723803604276862, ,1.8333333333333333, ,0.7141720339716051, ,0.40644068488398194, ,0.06481500377543316
101, ,PASS, ,0.03854971799999999, ,0.005276173340264796, ,0.025051203419481236, ,0.00020677291024178115, ,1.8333333333333333, ,0.7142991785006592, ,0.407073325034183, ,0.06152935654374401
102, ,PASS, ,0.038342872999999986, ,0.005322886418110861, ,0.025077344780759576, ,0.0002074561121714081, ,1.8333333333333333, ,0.7188380085754597, ,0.4072161792616477, ,0.05854982551376502
103, ,PASS, ,0.038453995, ,0.005321565350513767, ,0.025000631505071327, ,0.00020789224498844958, ,1.8333333333333333, ,0.7122824923161545, ,0.40660394685822737, ,0.06281504459092671
104, ,PASS, ,0.03896431899999999, ,0.00537610730954284, ,0.025176024532050364, ,0.00021286192455275936, ,1.8333333333333333, ,0.714989822589133, ,0.40652231587110466, ,0.06187628823901553
105, ,PASS, ,0.03931614999999998, ,0.005402572807842048, ,0.025049248841942, ,0.0002158230306375946, ,1.8333333333333333, ,0.7110063226019792, ,0.4067059855921308, ,0.05785596212322198
106, ,PASS, ,0.039194816999999986, ,0.005409084243213742, ,0.02507983482018734, ,0.00021550762578371747, ,1.8333333333333333, ,0.7136302258945699, ,0.4068284320728148, ,0.06020285300299994
107, ,PASS, ,0.03939445, ,0.005425166227362314, ,0.025012977242362396, ,0.00021717412467471596, ,1.8333333333333333, ,0.71370157072668, ,0.406501908124324, ,0.06418236362523214
108, ,PASS, ,0.039630425999999996, ,0.005428081158414955, ,0.024898422609518172, ,0.00021861988023845662, ,1.8333333333333333, ,0.7122716889337998, ,0.4062161996693945, ,0.058835533968694516
109, ,PASS, ,0.03952249799999999, ,0.005409357278080819, ,0.02497169830266729, ,0.00021733210282981618, ,1.8333333333333333, ,0.7106513213644373, ,0.40646109263076263, ,0.060080406522315874
110, ,PASS, ,0.03942938699999999, ,0.005472219065504785, ,0.0252132964552152, ,0.0002192177124131053, ,1.8333333333333333, ,0.7153875016707923, ,0.40688965531315685, ,0.062161996693945024
111, ,PASS, ,0.039400816, ,0.005431233404438276, ,0.02511586632748311, ,0.0002174830965673305, ,1.8333333333333333, ,0.7147672026928892, ,0.40660394685822737, ,0.06248852064243587
112, ,PASS, ,0.03953602499999998, ,0.005471164954842858, ,0.02506505129652456, ,0.00021977251456453852, ,1.8333333333333333, ,0.7127235787565219, ,0.40599171445480703, ,0.06026407624334197
113, ,PASS, ,0.03946869799999999, ,0.005473200757003832, ,0.02501065168480235, ,0.00021950221155798134, ,1.8333333333333333, ,0.7169715623216516, ,0.4065835391114467, ,0.06228444317462909
114, ,PASS, ,0.03953701599999999, ,0.005491135640754978, ,0.025040929790330808, ,0.00022067312142982578, ,1.8333333333333333, ,0.7184176685941335, ,0.4063998693904206, ,0.06250892838921655
115, ,PASS, ,0.03977855499999999, ,0.0055589086440788246, ,0.0252147519826126, ,0.00022474983225115251, ,1.8333333333333333, ,0.7185938540521896, ,0.40654272361788535, ,0.06783535029897349
116, ,PASS, ,0.039966563999999996, ,0.005567496337201384, ,0.0250011733237689, ,0.0002261406883701577, ,1.8333333333333333, ,0.7203586402337514, ,0.4063386461500786, ,0.062100773453602987
117, ,PASS, ,0.040186485999999993, ,0.005597059141524665, ,0.02494690785998245, ,0.00022858839054725453, ,1.8333333333333333, ,0.718495438295912, ,0.4062161996693945, ,0.06914144609293688
118, ,PASS, ,0.040267259, ,0.005604890871568859, ,0.024857778807901878, ,0.00022952281939298813, ,1.8333333333333333, ,0.7171849942256855, ,0.406501908124324, ,0.06034570723046469
119, ,PASS, ,0.04215957300000001, ,0.005904750225802541, ,0.024878580086590073, ,0.0002530435451868431, ,1.8333333333333333, ,0.7200129607933861, ,0.40627742290973656, ,0.06057019244505214
120, ,PASS, ,0.051693616799999995, ,0.0073632861904906755, ,0.024020972341748124, ,0.00038691796292021115, ,1.8333333333333333, ,0.7266323826203744, ,0.4051345890900186, ,0.05881512622191384
121, ,PASS, ,0.041805003000000014, ,0.005752784684342135, ,0.025052037205832534, ,0.0002444906186890485, ,1.8333333333333333, ,0.7164132889699836, ,0.40625701516295587, ,0.06336605375400502
122, ,PASS, ,0.04183119400000001, ,0.005722321560746651, ,0.024654240037631885, ,0.00024330525163849983, ,1.8333333333333333, ,0.7117835356537364, ,0.40572641374665824, ,0.05346829656537622
123, ,PASS, ,0.04159530700000001, ,0.005685640071488967, ,0.024885752584130935, ,0.00024042510035347678, ,1.8333333333333333, ,0.7123266627661603, ,0.40660394685822737, ,0.06471296504152976
124, ,PASS, ,0.04096036800000001, ,0.005656651719637422, ,0.024933944858329418, ,0.00023553773018849115, ,1.8333333333333333, ,0.7142551436050709, ,0.405869267974123, ,0.06071304667251689
125, ,PASS, ,0.041380752000000014, ,0.005689989029929201, ,0.024762556561580374, ,0.00023939739721366894, ,1.8333333333333333, ,0.7133721483001898, ,0.40572641374665824, ,0.06308034529907552
126, ,PASS, ,0.041499665000000005, ,0.005740056641889968, ,0.024991258708393707, ,0.00024214095535897572, ,1.8333333333333333, ,0.7165646025076714, ,0.4065835391114467, ,0.06497826574967858
127, ,PASS, ,0.04134059700000002, ,0.005727247971363634, ,0.025111096039060428, ,0.00024065697125360365, ,1.8333333333333333, ,0.717816304033423, ,0.4063386461500786, ,0.06497826574967858
128, ,PASS, ,0.04123213300000001, ,0.0057088486128998315, ,0.02511756168833289, ,0.00023926495803484906, ,1.8333333333333333, ,0.7193525908367842, ,0.4063590538968592, ,0.06750882635048264
129, ,PASS, ,0.04142070400000001, ,0.00570903101774291, ,0.02506708035513561, ,0.00024032684617620833, ,1.8333333333333333, ,0.7143336029918668, ,0.40625701516295587, ,0.05740699169404706
130, ,PASS, ,0.041443827000000016, ,0.005731514592235493, ,0.02502804773153609, ,0.00024141800287807665, ,1.8333333333333333, ,0.7168527935226625, ,0.40605293769514905, ,0.0604273382175874
131, ,PASS, ,0.04150722600000001, ,0.005717076729836514, ,0.025018651003448907, ,0.0002411577488359388, ,1.8333333333333333, ,0.716263239051795, ,0.40605293769514905, ,0.05834574804595825
132, ,PASS, ,0.04184685000000002, ,0.005720072859099638, ,0.025015177842105264, ,0.00024334047443902917, ,1.8333333333333333, ,0.7121449375942557, ,0.40605293769514905, ,0.05999877553519316
133, ,PASS, ,0.041686762, ,0.00568345373009429, ,0.024943393903328503, ,0.0002408742722745776, ,1.8333333333333333, ,0.7121375233126543, ,0.4066855778453501, ,0.06189669598579621
134, ,PASS, ,0.041444219, ,0.005755080310273322, ,0.02499469435050305, ,0.00024239275687783313, ,1.8333333333333333, ,0.713365979315404, ,0.4047468419011857, ,0.05950898961245689
135, ,PASS, ,0.041692662, ,0.005697072961836405, ,0.025065148742270567, ,0.0002414758445596652, ,1.8333333333333333, ,0.7125334896803088, ,0.405930491214465, ,0.05834574804595825
136, ,PASS, ,0.04182486100000001, ,0.005714723860475608, ,0.025043571228281058, ,0.0002430584834748214, ,1.8333333333333333, ,0.7118932543560829, ,0.40613456868227177, ,0.05930491214465011
137, ,PASS, ,0.041651516000000006, ,0.0057530245590113925, ,0.02471859836646191, ,0.0002435353959760575, ,1.8333333333333333, ,0.718756428239661, ,0.4027060672231179, ,0.0657945756209057
138, ,PASS, ,0.04159128700000001, ,0.0057323071690023476, ,0.025295967237240057, ,0.000242255631272261, ,1.8333333333333333, ,0.7165048049225514, ,0.406501908124324, ,0.06285586008448807
139, ,PASS, ,0.041402216000000026, ,0.005710603891020692, ,0.02518085135133977, ,0.00024030210348622633, ,1.8333333333333333, ,0.7153464072009809, ,0.40617538417583315, ,0.05914165017040469
140, ,PASS, ,0.04165722199999999, ,0.0058035836103163775, ,0.02490304603985633, ,0.0002456370849849398, ,1.8333333333333333, ,0.7195538496949082, ,0.4052162200771413, ,0.06750882635048264
141, ,PASS, ,0.041064345, ,0.005698562883196639, ,0.024683572098487785, ,0.0002378135161296343, ,1.8333333333333333, ,0.7169879492790684, ,0.40152241790983856, ,0.06342727699434705
142, ,PASS, ,0.041745961000000005, ,0.005714339603516518, ,0.024910203303891758, ,0.000242512852405545, ,1.8333333333333333, ,0.7119481481290174, ,0.4063182384032979, ,0.059713067080263665
143, ,PASS, ,0.04147884200000001, ,0.005704962348381555, ,0.024995139364237463, ,0.0002405542503378408, ,1.8333333333333333, ,0.7158687551701356, ,0.40599171445480703, ,0.06585579886124773
144, ,PASS, ,0.041092488, ,0.0057054745065853755, ,0.024984814151956084, ,0.00023822943668073442, ,1.8333333333333333, ,0.7178494425325719, ,0.4059713067080264, ,0.06305993755229485
145, ,PASS, ,0.041407197, ,0.005690367072439398, ,0.024967211118242485, ,0.0002395191504083519, ,1.8333333333333333, ,0.7159587806911635, ,0.40644068488398194, ,0.06601906083549315
146, ,PASS, ,0.041197713000000004, ,0.005711662624157682, ,0.025048983943735843, ,0.0002391967093160563, ,1.8333333333333333, ,0.7152631083072191, ,0.4060325299483684, ,0.06518234321748535
147, ,PASS, ,0.04113765200000001, ,0.005704777067676932, ,0.02521865074722965, ,0.0002384447279818259, ,1.8333333333333333, ,0.7151600755338019, ,0.4053998897981674, ,0.061304871329156546
148, ,PASS, ,0.04130756800000002, ,0.005705205984445506, ,0.02486450041364462, ,0.0002395096001753715, ,1.8333333333333333, ,0.7166342818181838, ,0.40605293769514905, ,0.06283545233770739
149, ,PASS, ,0.04133747500000001, ,0.005685977250380417, ,0.02495306397744944, ,0.0002388090991985677, ,1.8333333333333333, ,0.7129114728077179, ,0.40560396726597414, ,0.06022326074978061
150, ,PASS, ,0.041506359000000013, ,0.0057135954024775506, ,0.02520362370155711, ,0.00024110809320342525, ,1.8333333333333333, ,0.7187077386405767, ,0.4067876165792535, ,0.06661088549213282
151, ,PASS, ,0.041020371000000014, ,0.005690601586299193, ,0.025291628029856534, ,0.00023714607999825797, ,1.8333333333333333, ,0.7172375679155936, ,0.4049305116222118, ,0.0656109058998796
152, ,PASS, ,0.04152217800000001, ,0.0057548462488686445, ,0.02496249462747699, ,0.0002427502795257022, ,1.8333333333333333, ,0.7134820225521994, ,0.40523662782392195, ,0.059284504397869434
153, ,PASS, ,0.04210239900000001, ,0.005864499359215863, ,0.02509989164470113, ,0.000251000177955889, ,1.8333333333333333, ,0.7197220857272466, ,0.4063182384032979, ,0.06146813330340197
154, ,PASS, ,0.04145321900000001, ,0.005804214940954123, ,0.025076532217424133, ,0.0002444536117014761, ,1.8333333333333333, ,0.7207616546242318, ,0.4051958123303606, ,0.07022305667231281
155, ,PASS, ,0.04162459900000002, ,0.005728568971637047, ,0.025010341563212996, ,0.0002423786985877, ,1.8333333333333333, ,0.7156460340468264, ,0.40574682149343894, ,0.057182506479459605
156, ,PASS, ,0.041722005000000006, ,0.005700059192083876, ,0.025187470108548805, ,0.0002416945407916677, ,1.8333333333333333, ,0.7122503614981193, ,0.4056651905063162, ,0.060508969204710106
157, ,PASS, ,0.04162261800000001, ,0.005689741301833735, ,0.024979731330544274, ,0.00024075663047873908, ,1.8333333333333333, ,0.7113729052778139, ,0.40607334544192975, ,0.06167221077120875
158, ,PASS, ,0.041832090000000016, ,0.005679774597085585, ,0.02482505444127671, ,0.00024155661343327242, ,1.8333333333333333, ,0.7140822171480267, ,0.40578763698700027, ,0.06159057978408604
159, ,PASS, ,0.04169460900000001, ,0.005718612976340265, ,0.025147410070549582, ,0.00024232443386665108, ,1.8333333333333333, ,0.7139334138464433, ,0.40562437501275483, ,0.06128446358237587
160, ,PASS, ,0.04204961400000001, ,0.005774384169452762, ,0.02504776754407053, ,0.00024670980641303196, ,1.8333333333333333, ,0.7121628012528189, ,0.40431827921879143, ,0.06040693047080672
161, ,PASS, ,0.04238065700000001, ,0.0059588737312442595, ,0.024970489611926286, ,0.0002565787627456437, ,1.8333333333333333, ,0.7206003297229437, ,0.4063794616436399, ,0.06454970306728434
162, ,PASS, ,0.042467833999999996, ,0.005868872213359131, ,0.024932972928776963, ,0.000253300662766926, ,1.8333333333333333, ,0.7158549685115844, ,0.40570600599987755, ,0.05961102834636028
163, ,PASS, ,0.04212907200000002, ,0.005757059491874837, ,0.02503727199430624, ,0.0002464483489889531, ,1.8333333333333333, ,0.7129281225301055, ,0.4051754045835799, ,0.06340686924756637
164, ,PASS, ,0.042287513000000006, ,0.005834059222317708, ,0.025025201124589294, ,0.0002507096054553737, ,1.8333333333333333, ,0.7156704175696276, ,0.404665210914063, ,0.0645905185608457
165, ,PASS, ,0.04220321100000001, ,0.0058287440147265415, ,0.024907558993428707, ,0.0002499477443974311, ,1.8333333333333333, ,0.7130711674356853, ,0.4049305116222118, ,0.05897838819615926
166, ,PASS, ,0.04240965800000002, ,0.0057955958683133055, ,0.024974790754862145, ,0.0002499280616008989, ,1.8333333333333333, ,0.7158907800379598, ,0.4060325299483684, ,0.0606110079386135
167, ,PASS, ,0.04236883200000001, ,0.005820260243406594, ,0.024987932135303363, ,0.00025065028656925443, ,1.8333333333333333, ,0.7143256912060039, ,0.40497132711577316, ,0.06324360727332096
168, ,PASS, ,0.042296054, ,0.005773074353468392, ,0.024912353518887372, ,0.00024819658565431894, ,1.8333333333333333, ,0.7133766247827276, ,0.4053998897981674, ,0.0574682149343891
169, ,PASS, ,0.04210732300000001, ,0.00581096795271309, ,0.024951658283116674, ,0.00024867199905517323, ,1.8333333333333333, ,0.7151958037072467, ,0.4063590538968592, ,0.06397828615742536
170, ,PASS, ,0.041999463, ,0.005809024710341177, ,0.0251471865584784, ,0.0002479191060769605, ,1.8333333333333333, ,0.7150258332847603, ,0.40693047080671824, ,0.0609783473806657
171, ,PASS, ,0.042326454, ,0.00582405433464782, ,0.025036635075100507, ,0.00025048815903744754, ,1.8333333333333333, ,0.7157192430215767, ,0.4050325503561152, ,0.06318238403297892
172, ,PASS, ,0.04228324700000001, ,0.005824337976551174, ,0.02500408052096896, ,0.00025030492730479883, ,1.8333333333333333, ,0.7155274681481019, ,0.4042978714720108, ,0.06059060019183282
173, ,PASS, ,0.04226749900000001, ,0.005820862285834334, ,0.024840252484867653, ,0.0002500096159297418, ,1.8333333333333333, ,0.7139852493520117, ,0.404665210914063, ,0.062447705148874516
174, ,PASS, ,0.042678856000000015, ,0.005889038222744254, ,0.0249577140555907, ,0.00025536228993145756, ,1.8333333333333333, ,0.7133499212117803, ,0.4041754249913267, ,0.05981510581416706
175, ,PASS, ,0.042244177, ,0.005848953871817615, ,0.024846859748086775, ,0.0002510667543685712, ,1.8333333333333333, ,0.7135446066356267, ,0.4046856186608437, ,0.05881512622191384
176, ,PASS, ,0.04290452700000001, ,0.005893383939794633, ,0.02492705152070366, ,0.0002569165868096212, ,1.8333333333333333, ,0.7168733867818167, ,0.4055019285320708, ,0.06073345441929757
177, ,PASS, ,0.042945766, ,0.005920317545131814, ,0.02523251124707659, ,0.0002583074826161855, ,1.8333333333333333, ,0.7114339887553683, ,0.40560396726597414, ,0.057631476908634516
178, ,PASS, ,0.043001905000000014, ,0.00591152076887269, ,0.02490485625189282, ,0.00025838932822711355, ,1.8333333333333333, ,0.7153495345447918, ,0.40560396726597414, ,0.06589661435480909
179, ,PASS, ,0.04289506, ,0.005866039614839496, ,0.02512564497334748, ,0.0002558328064235414, ,1.8333333333333333, ,0.712268546771805, ,0.40578763698700027, ,0.05632538111467113
180, ,PASS, ,0.04296246400000001, ,0.005862373447335712, ,0.02484956239880819, ,0.0002560844911431965, ,1.8333333333333333, ,0.7123882303012397, ,0.4059100834676843, ,0.062202812187506375
181, ,PASS, ,0.043031164000000025, ,0.0058689226584554164, ,0.02485768683994204, ,0.0002567387560964995, ,1.8333333333333333, ,0.7136778017373671, ,0.4051345890900186, ,0.06601906083549315
182, ,PASS, ,0.04331150500000001, ,0.005861193219801665, ,0.0248481432415665, ,0.0002581693936964873, ,1.8333333333333333, ,0.7121474069434046, ,0.4058284524805616, ,0.06205995796004163
183, ,PASS, ,0.043398745999999995, ,0.005928302709135059, ,0.024891757645762333, ,0.0002615962608004219, ,1.8333333333333333, ,0.7122763302276882, ,0.40609375318871044, ,0.06334564600722434
184, ,PASS, ,0.043550168000000014, ,0.00597766088455315, ,0.024909177169527154, ,0.0002646850548748544, ,1.8333333333333333, ,0.7155683790587785, ,0.40568559825309686, ,0.06318238403297892
185, ,PASS, ,0.04331682, ,0.005986758692350542, ,0.02477461879935103, ,0.00026379328137902746, ,1.8333333333333333, ,0.7145399520374305, ,0.40578763698700027, ,0.06018244525621926
186, ,PASS, ,0.043791829, ,0.006019975031351762, ,0.024783795876022936, ,0.00026803175668595685, ,1.8333333333333333, ,0.7156542771952218, ,0.4058896757209037, ,0.06665170098569417
187, ,PASS, ,0.04382648700000001, ,0.005966796512373101, ,0.0248313151027326, ,0.00026589223628126516, ,1.8333333333333333, ,0.7124893873440611, ,0.4051958123303606, ,0.0582028938184935
188, ,PASS, ,0.04390919000000001, ,0.006024175114896508, ,0.02498948182230975, ,0.0002688454339960115, ,1.8333333333333333, ,0.7175937337304598, ,0.40529785106426397, ,0.06024366849656129
189, ,PASS, ,0.04373027399999999, ,0.006023651361112914, ,0.024929328884737048, ,0.0002678077863854352, ,1.8333333333333333, ,0.7139088915418582, ,0.4067468010856921, ,0.05865186424766841
190, ,PASS, ,0.04406618300000001, ,0.006081829286143615, ,0.024834371854819293, ,0.0002723889289315077, ,1.8333333333333333, ,0.7166963358250488, ,0.4051754045835799, ,0.06057019244505214
191, ,PASS, ,0.044050003, ,0.006047921453257904, ,0.024745005002101996, ,0.0002709419631615639, ,1.8333333333333333, ,0.7175908726702344, ,0.40491010387543114, ,0.0625497438827779
192, ,PASS, ,0.044313471, ,0.00613489147697427, ,0.024778592939654294, ,0.00027630749119348025, ,1.8333333333333333, ,0.7178122633164782, ,0.4053998897981674, ,0.05983551356094773
193, ,PASS, ,0.044352791, ,0.006201409343058117, ,0.02502935272276076, ,0.0002794720853273393, ,1.8333333333333333, ,0.7239111536581313, ,0.40646109263076263, ,0.06926389257362095
194, ,PASS, ,0.04793488500000001, ,0.0068478916894483466, ,0.024382771899328585, ,0.00033351939821092024, ,1.8333333333333333, ,0.7300081841287344, ,0.40313462990551213, ,0.06401910165098672
195, ,PASS, ,0.06455487600000001, ,0.009790547440192336, ,0.022593545355604986, ,0.000641518223377685, ,1.9166666666666667, ,0.746117479713594, ,0.4043386869655721, ,0.07973306667210873
196, ,PASS, ,0.05129060959999999, ,0.007293404397824311, ,0.024085499260464074, ,0.00037993145249593684, ,1.8333333333333333, ,0.7235929645918767, ,0.4051141813432379, ,0.06293749107161078
197, ,PASS, ,0.05131061199999997, ,0.007247726977642988, ,0.024324281045937837, ,0.00037768148882557056, ,1.8333333333333333, ,0.7204231468396709, ,0.4050325503561152, ,0.059672251586702314
198, ,PASS, ,0.05107665599999998, ,0.007246348701685128, ,0.024315138296198035, ,0.00037579110982997914, ,1.8333333333333333, ,0.7237419972130269, ,0.40560396726597414, ,0.05985592130772841
199, ,PASS, ,0.050372986999999994, ,0.007155466021245104, ,0.024119741892512397, ,0.0003660207124404086, ,1.8333333333333333, ,0.7247838959485216, ,0.40484888063508906, ,0.06587620660802841
200, ,PASS, ,0.05058661999999999, ,0.0071847801352638045, ,0.02396619452892798, ,0.0003690493245311232, ,1.8333333333333333, ,0.7215844625932057, ,0.40491010387543114, ,0.06273341360380401
201, ,PASS, ,0.050672242699999974, ,0.007204600688036266, ,0.024128498140037955, ,0.000370679884140017, ,1.8333333333333333, ,0.7251963555586755, ,0.4054611130385094, ,0.06565172139344096
202, ,PASS, ,0.050519828999999974, ,0.007237139766032294, ,0.024119069845309277, ,0.0003711800165932595, ,1.8333333333333333, ,0.7267543125525278, ,0.40529785106426397, ,0.06805983551356094
203, ,PASS, ,0.0502669, ,0.00717543795519247, ,0.024046496346115383, ,0.00036613186490201184, ,1.8333333333333333, ,0.725341958336074, ,0.40488969612865044, ,0.06746801085692129
204, ,PASS, ,0.050344711999999986, ,0.00721309003605662, ,0.02420857931913634, ,0.0003686478220590969, ,1.9166666666666667, ,0.7243989126400938, ,0.40272647496989855, ,0.05950898961245689
205, ,PASS, ,0.05033762099999998, ,0.007168159819873727, ,0.024370683369870003, ,0.0003663073980508683, ,1.8333333333333333, ,0.725593343213507, ,0.40533866655782536, ,0.06785575804575417
206, ,PASS, ,0.050340555999999974, ,0.00718367619503008, ,0.024132841846064366, ,0.0003670597288949497, ,1.8333333333333333, ,0.725729514113822, ,0.4055019285320708, ,0.06440684883981959
207, ,PASS, ,0.050059047999999974, ,0.007148107404639215, ,0.024318439896614356, ,0.0003633065985676987, ,1.8333333333333333, ,0.7247972257240703, ,0.4056651905063162, ,0.06589661435480909
208, ,PASS, ,0.05024744499999999, ,0.0071893588069374854, ,0.024176837331095286, ,0.0003667234705356333, ,1.8333333333333333, ,0.726243495599277, ,0.4052162200771413, ,0.06401910165098672
209, ,PASS, ,0.05009539299999998, ,0.007154913194945274, ,0.02422985765555805, ,0.00036397153299686305, ,1.8333333333333333, ,0.7264036726152203, ,0.4053794820513867, ,0.06846799044917451
210, ,PASS, ,0.05012406729999999, ,0.007215734800880199, ,0.024085992076304567, ,0.0003672005010014234, ,1.8333333333333333, ,0.7284548885670565, ,0.40542029754494807, ,0.07140670598559214
211, ,PASS, ,0.050233674299999996, ,0.007192446784287184, ,0.02403716768232485, ,0.00036674578235036475, ,1.8333333333333333, ,0.7252254406282137, ,0.40523662782392195, ,0.06491704250933654
212, ,PASS, ,0.050248520999999984, ,0.007205577641410141, ,0.02414676320160813, ,0.0003675538588242407, ,1.8333333333333333, ,0.7260429606256057, ,0.4054815207852901, ,0.06361094671537315
213, ,PASS, ,0.05006717299999999, ,0.007188333593243013, ,0.024198124062080363, ,0.0003653766241454221, ,1.8333333333333333, ,0.7270001173558229, ,0.40523662782392195, ,0.06850880594273587
214, ,PASS, ,0.05011258299999998, ,0.0072134272543088514, ,0.024029006016652723, ,0.0003668815515272235, ,1.9166666666666667, ,0.7268621904026613, ,0.402889736944144, ,0.06273341360380401
215, ,PASS, ,0.050295692999999975, ,0.0072124504207304665, ,0.024184436942021593, ,0.0003680926532776678, ,1.9166666666666667, ,0.726045899204725, ,0.4050733658496765, ,0.06612109956939655
216, ,PASS, ,0.05047887199999999, ,0.00729545387976289, ,0.023894077944327664, ,0.00037380956344498187, ,1.9166666666666667, ,0.7291577727193601, ,0.40286932919736335, ,0.06665170098569417
217, ,PASS, ,0.050827266999999995, ,0.00725753893454813, ,0.023914991534111547, ,0.00037437374508441485, ,1.9166666666666667, ,0.7236256060473228, ,0.4049305116222118, ,0.060835493153200956
218, ,PASS, ,0.050474237999999984, ,0.007262195443940136, ,0.023934377953817268, ,0.00037201080977079755, ,1.9166666666666667, ,0.7271508078938901, ,0.40497132711577316, ,0.06777412705863145
219, ,PASS, ,0.050389632999999975, ,0.007238894910263449, ,0.024182390361604862, ,0.0003701786018402973, ,1.9166666666666667, ,0.7255619333546963, ,0.4055019285320708, ,0.06552927491275688
220, ,PASS, ,0.05029841799999999, ,0.007218467339555237, ,0.02405779640695088, ,0.0003684657250331578, ,1.9166666666666667, ,0.7244672067614476, ,0.4046448031672823, ,0.06324360727332096
221, ,PASS, ,0.050670300999999994, ,0.007264346184470249, ,0.024200125691924652, ,0.00037350210906986144, ,1.9166666666666667, ,0.7251109874360021, ,0.40515499683679923, ,0.06705985592130773
222, ,PASS, ,0.05062049699999998, ,0.007266138081775242, ,0.024030219781882, ,0.000373329940765166, ,1.9166666666666667, ,0.7239044320187337, ,0.40486928838186975, ,0.05714169098589825
223, ,PASS, ,0.05070359629999999, ,0.007312596046750855, ,0.023866168680620803, ,0.000376319476116256, ,1.9166666666666667, ,0.7258508789729374, ,0.40535907430460605, ,0.06491704250933654
224, ,PASS, ,0.05099558999999998, ,0.0073721523833547055, ,0.023910309910205912, ,0.0003815044267901415, ,1.9166666666666667, ,0.7269605907040284, ,0.4038897165363972, ,0.06279463684414603
225, ,PASS, ,0.05097726099999999, ,0.007321967590085338, ,0.023855063875880083, ,0.0003789100786029367, ,1.9166666666666667, ,0.7248258595985374, ,0.4030529989183894, ,0.06554968265953756
226, ,PASS, ,0.051052184999999986, ,0.007388235799928124, ,0.02403674461127324, ,0.0003827103178161061, ,1.9166666666666667, ,0.7290679856379698, ,0.4051754045835799, ,0.067549641844044
227, ,PASS, ,0.05106734729999998, ,0.007373362741085354, ,0.023946130778541252, ,0.00038202249060451294, ,1.9166666666666667, ,0.7280646654426352, ,0.40442031795269484, ,0.06681496295993959
228, ,PASS, ,0.05157412669999998, ,0.007495471307843447, ,0.023623399991285893, ,0.0003923014160349313, ,1.9166666666666667, ,0.729932057895017, ,0.4031550376522928, ,0.06897818411869146
229, ,PASS, ,0.05136519199999999, ,0.007359175736174058, ,0.02404006800114283, ,0.00038348377776108476, ,1.9166666666666667, ,0.7226653180302415, ,0.4047060264076243, ,0.06505989673680129
230, ,PASS, ,0.05134972799999999, ,0.007315756727405641, ,0.024106006884471745, ,0.00038109383006356334, ,1.9166666666666667, ,0.725144884221813, ,0.4049917348625538, ,0.06205995796004163
231, ,PASS, ,0.051103336299999996, ,0.007309066023104913, ,0.023765276590375705, ,0.00037912409201477134, ,1.9166666666666667, ,0.7265929611972278, ,0.40248158200853046, ,0.06518234321748535
232, ,PASS, ,0.051444853, ,0.007372971638547656, ,0.02412037443054223, ,0.00038470503707088005, ,1.9166666666666667, ,0.7282887458756472, ,0.40476724964796634, ,0.0637538009428379
233, ,PASS, ,0.05120194199999998, ,0.007421362579597064, ,0.023885018398195956, ,0.00038547280275407945, ,1.9166666666666667, ,0.7289451654726625, ,0.4046856186608437, ,0.06575376012734434
234, ,PASS, ,0.05157002929999999, ,0.007451862209169004, ,0.023969327614965, ,0.00038985204534594184, ,1.9166666666666667, ,0.7253595296407467, ,0.4048284728883084, ,0.06293749107161078
235, ,PASS, ,0.05146214199999999, ,0.007498356311641967, ,0.02398482595301932, ,0.00039161522436614036, ,1.9166666666666667, ,0.7289723652914019, ,0.4046856186608437, ,0.06840676720883247
236, ,PASS, ,0.05294259309999999, ,0.007746083370818637, ,0.023645988676314764, ,0.00041615290338673064, ,1.9166666666666667, ,0.7290028947889913, ,0.4050325503561152, ,0.06565172139344096
237, ,PASS, ,0.052637287709999994, ,0.007669226011080079, ,0.023655585543252176, ,0.00040963084574989614, ,1.9166666666666667, ,0.7298966383362765, ,0.4068692475663762, ,0.07097814330319789
238, ,PASS, ,0.0521542965, ,0.007612265576416142, ,0.023802696592663417, ,0.00040266605918725165, ,1.9166666666666667, ,0.7299433984080548, ,0.404665210914063, ,0.07003938695128671
239, ,PASS, ,0.052039100699999986, ,0.007595790536707447, ,0.02371718037208628, ,0.00040098726678419413, ,1.9166666666666667, ,0.7287016048421616, ,0.40495091936899247, ,0.06779453480541213
240, ,PASS, ,0.05263712360000001, ,0.007673776516502724, ,0.023955341131256507, ,0.0004096717045399033, ,1.9166666666666667, ,0.7293447094506779, ,0.4045631721801596, ,0.06587620660802841
241, ,PASS, ,0.0527517736, ,0.007631477194380105, ,0.023773068288161465, ,0.00040832952565160175, ,1.9166666666666667, ,0.7275810727312624, ,0.4053998897981674, ,0.0640395093977674
242, ,PASS, ,0.05258617700000001, ,0.0076587165688605475, ,0.02370739349771025, ,0.00040860573314399726, ,1.9166666666666667, ,0.7289123107618568, ,0.4026856594763372, ,0.06520275096426603
243, ,PASS, ,0.0524818534, ,0.007663748327934143, ,0.023782794346270484, ,0.00040801188804301766, ,1.9166666666666667, ,0.7290886102220876, ,0.40533866655782536, ,0.06546805167241485
244, ,PASS, ,0.052871960700000005, ,0.007726428254278991, ,0.023517443213709924, ,0.0004143800084501518, ,1.9166666666666667, ,0.7299066692812798, ,0.4043386869655721, ,0.06920266933327891
245, ,PASS, ,0.053153393400000006, ,0.007753124610576678, ,0.023620815153762166, ,0.0004178889783009459, ,1.9166666666666667, ,0.7303375729742663, ,0.40491010387543114, ,0.07010061019162875
246, ,PASS, ,0.0532716091, ,0.007753609900438681, ,0.02371059426451297, ,0.0004191093182932133, ,1.9166666666666667, ,0.727183203548396, ,0.4050325503561152, ,0.06542723617885349
247, ,PASS, ,0.05335962880000002, ,0.007793174552213612, ,0.023799509247721475, ,0.00042182698967346973, ,1.9166666666666667, ,0.73022720611506, ,0.40286932919736335, ,0.06946797004142773
248, ,PASS, ,0.053733113020000015, ,0.00785573323545273, ,0.023720771914563173, ,0.0004282899807947736, ,1.9166666666666667, ,0.7273534433263417, ,0.4043795024591335, ,0.0689373686251301
249, ,PASS, ,0.05388983508000001, ,0.007847595078828755, ,0.02361369867019367, ,0.0004290350309507947, ,1.9166666666666667, ,0.7263149482539527, ,0.4047060264076243, ,0.06387624742352196
250, ,PASS, ,0.05421496147000001, ,0.007938874940086953, ,0.023576148438515743, ,0.0004363474340125749, ,1.9166666666666667, ,0.7281644948573956, ,0.40560396726597414, ,0.07156996795983755
251, ,PASS, ,0.05403541868, ,0.007934373886005201, ,0.02352939950827534, ,0.0004349526998568515, ,1.9166666666666667, ,0.7294079745121667, ,0.40542029754494807, ,0.0728148405134589
252, ,PASS, ,0.05397553997, ,0.007965103564706234, ,0.02355569160212873, ,0.000436090574907479, ,1.9166666666666667, ,0.7337848553233733, ,0.40319585314585416, ,0.07659027366788433
253, ,PASS, ,0.05416422671999999, ,0.007958080146831484, ,0.0234737985471521, ,0.0004372696005626312, ,1.9166666666666667, ,0.7292412029439364, ,0.40478765739474704, ,0.07195771514867043
254, ,PASS, ,0.054849335040000016, ,0.008016337084088573, ,0.02354323052396747, ,0.00044603580191056964, ,1.9166666666666667, ,0.7276623360995899, ,0.4050937735964572, ,0.0667129242260362
255, ,PASS, ,0.05486237003000001, ,0.008044101644688096, ,0.02347558994230873, ,0.00044769013784789954, ,1.9166666666666667, ,0.7283472443305091, ,0.4051754045835799, ,0.07044754188690026
