Channel, ,Pass/Fail, ,Amplitude, ,Sorting Function Response, ,Mean, ,Variance, ,NPeaksRatio, ,PosIntegralRatio, ,ToT50, ,ToT99
38, ,PASS, ,0.06749496099999999, ,0.009388697348880265, ,0.03217849823097488, ,0.0006449546181451876, ,1.75, ,0.7126632379788455, ,0.5948858186567622, ,0.05195812330360605
39, ,PASS, ,0.10411429999999999, ,0.012007547820308731, ,0.0332701805932532, ,0.0012709623944100973, ,1.6666666666666667, ,0.615347367905546, ,0.5951715271116916, ,0.03228505540703251
40, ,PASS, ,0.10383206, ,0.012083186139474155, ,0.033048026294769495, ,0.0012746743430549724, ,1.6666666666666667, ,0.6161535238322817, ,0.5940286932919736, ,0.035897226587212505
41, ,PASS, ,0.06923535100000001, ,0.010292184524113773, ,0.03258968942276688, ,0.0007248246994960781, ,1.8333333333333333, ,0.739503140491535, ,0.5957429440215506, ,0.12885451317320054
42, ,PASS, ,0.07429269699999996, ,0.009609694823650932, ,0.032292455543397075, ,0.0007266282215972127, ,1.75, ,0.6771332688817965, ,0.5950694883777882, ,0.03204016244566438
43, ,PASS, ,0.11215243, ,0.012350318167818574, ,0.033430315603150955, ,0.0014080187459676687, ,1.6666666666666667, ,0.5998710015452499, ,0.5956204975408665, ,0.02444848064325218
44, ,PASS, ,0.11143900999999995, ,0.012263274370400336, ,0.0330452597789841, ,0.0013884374897720072, ,1.6666666666666667, ,0.5956125949345762, ,0.5950490806310075, ,0.02640762433419726
45, ,PASS, ,0.07441095699999997, ,0.010285529060884398, ,0.03251071709624293, ,0.0007784453016538413, ,1.75, ,0.7046443880573073, ,0.5955388665537438, ,0.08410032448317381
46, ,PASS, ,0.07511014799999999, ,0.009360588193856417, ,0.03236824298934715, ,0.0007156398077920211, ,1.6666666666666667, ,0.6634426328147731, ,0.5959878369829187, ,0.031040182853411154
47, ,PASS, ,0.11057719999999996, ,0.012018072036359939, ,0.03319716822375054, ,0.0013505722619146336, ,1.6666666666666667, ,0.5909857487554465, ,0.5927838207383522, ,0.02640762433419726
48, ,PASS, ,0.11034758999999997, ,0.01197891707406642, ,0.03291875624875003, ,0.0013426031196410366, ,1.6666666666666667, ,0.5896176466829116, ,0.5909063080345299, ,0.026795371523030142
49, ,PASS, ,0.07508872299999997, ,0.009937111537267902, ,0.03235067099487766, ,0.0007586918534110371, ,1.75, ,0.6804221026402598, ,0.5951715271116916, ,0.06342727699434705
50, ,PASS, ,0.07328190499999997, ,0.00926744004969525, ,0.032261701700434686, ,0.000691078427642009, ,1.6666666666666667, ,0.6677900018902283, ,0.5952531580988143, ,0.037999224505622334
51, ,PASS, ,0.11139706999999999, ,0.012068184962056895, ,0.03311859960974266, ,0.0013661831820240477, ,1.6666666666666667, ,0.5908153107816588, ,0.594191955266219, ,0.02483622783208506
52, ,PASS, ,0.11122321999999998, ,0.012142780673506891, ,0.032961144940368566, ,0.0013721558384692347, ,1.6666666666666667, ,0.5914469207547486, ,0.5896002122405665, ,0.027489234913573194
53, ,PASS, ,0.07869463899999998, ,0.010876465655914965, ,0.03279485733829921, ,0.0008706470204019344, ,1.6666666666666667, ,0.7011290612153717, ,0.5949674496438848, ,0.09142670557743719
54, ,PASS, ,0.07595562999999995, ,0.009177425541231698, ,0.03210612432258525, ,0.0007092551907070448, ,1.6666666666666667, ,0.6468506337859233, ,0.5951919348584723, ,0.02959123283198302
55, ,PASS, ,0.11624232999999998, ,0.01242212454613091, ,0.03333616680859574, ,0.0014675232851971039, ,1.6666666666666667, ,0.5864183974659092, ,0.5952531580988143, ,0.026305585600293873
56, ,PASS, ,0.11619299000000001, ,0.012510117400741587, ,0.03311658926403543, ,0.0014766511261164429, ,1.6666666666666667, ,0.5874424300888347, ,0.5879063692577703, ,0.027795351115283362
57, ,PASS, ,0.077160308, ,0.010428067044195735, ,0.032401644315136424, ,0.0008184360600789046, ,1.6666666666666667, ,0.6917225351766044, ,0.594579702455052, ,0.07081488132895247
58, ,PASS, ,0.07268850099999997, ,0.00870574449790119, ,0.031836231618293506, ,0.0006440119722950036, ,1.75, ,0.6441480826371555, ,0.5944776637211485, ,0.027632089141037937
59, ,PASS, ,0.11428603000000005, ,0.012232381454177968, ,0.033126089631721804, ,0.0014207109814825358, ,1.6666666666666667, ,0.5853043410519295, ,0.5924981122834228, ,0.023917879226954552
60, ,PASS, ,0.11400762000000005, ,0.012365829654666175, ,0.0328024527415767, ,0.001432130849414366, ,1.6666666666666667, ,0.5884471634416126, ,0.5880084079916736, ,0.02910144690924675
61, ,PASS, ,0.067982033, ,0.009379095965216187, ,0.03203166233868696, ,0.0006486496594998743, ,1.75, ,0.7036271003479901, ,0.5937429848370441, ,0.08185547233729924
62, ,PASS, ,0.07081222, ,0.00854947469087152, ,0.031956499876859654, ,0.0006162162980027908, ,1.6666666666666667, ,0.6500147351228529, ,0.5960286524764801, ,0.03008101875471929
63, ,PASS, ,0.11490534999999999, ,0.012306335290936206, ,0.03296639560137548, ,0.001436877313086958, ,1.6666666666666667, ,0.5857095830666889, ,0.5894573580131017, ,0.024060733454419298
64, ,PASS, ,0.11397988000000002, ,0.012367150889977866, ,0.03313084098887778, ,0.0014320993728393246, ,1.6666666666666667, ,0.5895533426702918, ,0.5897430664680313, ,0.025489275729066754
65, ,PASS, ,0.06280962069999996, ,0.00893271124893933, ,0.03217683032629946, ,0.0005708331180419464, ,1.75, ,0.7227198065983597, ,0.5987428827983102, ,0.0860594681741189
66, ,PASS, ,0.07598059399999997, ,0.008823044540045538, ,0.031991439800330604, ,0.0006822747101273185, ,1.6666666666666667, ,0.628030807456991, ,0.5923960735495194, ,0.027672904634599295
67, ,PASS, ,0.12058840999999997, ,0.012668936426244296, ,0.033389268832044246, ,0.0015526858177810966, ,1.6666666666666667, ,0.5785918126952712, ,0.592987898206159, ,0.02312197710250811
68, ,PASS, ,0.11919250999999999, ,0.012605965536760093, ,0.033474827789636945, ,0.001526775528367776, ,1.6666666666666667, ,0.5813422828186161, ,0.5944368482275872, ,0.02444848064325218
69, ,PASS, ,0.067186035, ,0.009062118233844193, ,0.03220135125558662, ,0.0006195056474572416, ,1.8333333333333333, ,0.6955709935200359, ,0.5951715271116916, ,0.05242750147956164
70, ,PASS, ,0.07364443099999994, ,0.008580068687121694, ,0.031835680176527006, ,0.0006431213727773045, ,1.6666666666666667, ,0.6327484083888553, ,0.5956204975408665, ,0.028387175771923023
71, ,PASS, ,0.11832610999999996, ,0.012422007744981185, ,0.03312954357247811, ,0.0014933792033587402, ,1.6666666666666667, ,0.5799741186549527, ,0.5895389890002245, ,0.023979102467296586
72, ,PASS, ,0.11592421, ,0.012215306011673503, ,0.03385156791410379, ,0.0014385622372629376, ,1.6666666666666667, ,0.5838243610033884, ,0.5987224750515295, ,0.0258157996775576
73, ,PASS, ,0.06130261579999998, ,0.008565000958269803, ,0.031682921838656355, ,0.00053445692568644, ,1.75, ,0.712744336792177, ,0.5928450439786943, ,0.07285565600702026
74, ,PASS, ,0.07300120799999998, ,0.008787997104535651, ,0.031927084738127796, ,0.0006531406140488618, ,1.6666666666666667, ,0.6511595282995979, ,0.5949062264035427, ,0.02940756311095692
75, ,PASS, ,0.11816751999999998, ,0.01235276432891471, ,0.033110075758596764, ,0.0014833797973258375, ,1.6666666666666667, ,0.5778453726378744, ,0.5904369298585743, ,0.021877104548886757
76, ,PASS, ,0.11500243000000004, ,0.012340771923939462, ,0.032782684962653824, ,0.0014417133013334832, ,1.6666666666666667, ,0.5836371612828176, ,0.5871512826268852, ,0.025081120793453194
77, ,PASS, ,0.058403632007000016, ,0.008578433960080277, ,0.03175675161580376, ,0.0005101401523978381, ,1.75, ,0.7395761330208903, ,0.595396012326279, ,0.09065121119977143
78, ,PASS, ,0.08693826999999998, ,0.009608288656724726, ,0.032108881856962104, ,0.0008504229236474415, ,1.6666666666666667, ,0.6123603318946953, ,0.5938858390645089, ,0.019428174935205406
79, ,PASS, ,0.12814574000000004, ,0.013065113881739166, ,0.03317727290287953, ,0.0017011944212634194, ,1.5833333333333333, ,0.5683512308372413, ,0.584498275545397, ,0.021693434827860656
80, ,PASS, ,0.12558184, ,0.012825138422838594, ,0.03306111416828228, ,0.00163577967373172, ,1.5833333333333333, ,0.5684124879259627, ,0.5847839840003265, ,0.022019958776351503
81, ,PASS, ,0.07597206299999995, ,0.009939877474709095, ,0.032209717996714356, ,0.000768465294563639, ,1.75, ,0.6826422127009371, ,0.5931715679271852, ,0.04026448439827759
82, ,PASS, ,0.08656325000000001, ,0.009986349627117167, ,0.03248016681708536, ,0.0008799488132590456, ,1.6666666666666667, ,0.6307326548238203, ,0.5955592743005245, ,0.02653007081488133
83, ,PASS, ,0.12646656, ,0.012918668320371094, ,0.03320667820932226, ,0.0016602226166477073, ,1.6666666666666667, ,0.569973239481445, ,0.5879471847513316, ,0.021019979184098283
84, ,PASS, ,0.12351027, ,0.012658084725202535, ,0.032858588277769836, ,0.0015880646266299753, ,1.5, ,0.5685836126145758, ,0.5839880818758801, ,0.022244443990938962
85, ,PASS, ,0.073553147, ,0.010470037544157283, ,0.03271394061825269, ,0.0007836881559161872, ,1.75, ,0.7246339566412621, ,0.592987898206159, ,0.05899879594293994
86, ,PASS, ,0.09329331999999999, ,0.0112035841693148, ,0.033091715401012224, ,0.0010644718920845232, ,1.75, ,0.6525005549528068, ,0.5953551968327176, ,0.025938246158241668
87, ,PASS, ,0.12978916000000004, ,0.013220100616565157, ,0.033421843110691615, ,0.0017438226368164382, ,1.6666666666666667, ,0.5678732348124321, ,0.588620640395094, ,0.020428154527458622
88, ,PASS, ,0.12605945000000002, ,0.01289422827367898, ,0.03303348794900104, ,0.0016513972660756732, ,1.5833333333333333, ,0.5676006905343981, ,0.5870492438929817, ,0.02316279259606947
89, ,PASS, ,0.07461114799999997, ,0.010836658126458338, ,0.032962884234199304, ,0.0008233506774880426, ,1.75, ,0.7364851592007402, ,0.594702148935736, ,0.0625497438827779
90, ,PASS, ,0.08692474999999998, ,0.010590454641625707, ,0.03309282146490888, ,0.00093760605477255, ,1.6666666666666667, ,0.6599871960833624, ,0.5992938919613885, ,0.02887696169465929
91, ,PASS, ,0.12169332000000002, ,0.012668295438962812, ,0.033026898762698716, ,0.0015667395860872867, ,1.6666666666666667, ,0.5751421450842459, ,0.5890696108242689, ,0.022673006673333197
92, ,PASS, ,0.11755800999999996, ,0.012254331330744148, ,0.03283020705206016, ,0.0014633990179466064, ,1.6666666666666667, ,0.575686766645356, ,0.5877226995367442, ,0.026346401093855228
93, ,PASS, ,0.06658051199999998, ,0.00978679929418986, ,0.03243819619052672, ,0.0006636676771654808, ,1.75, ,0.7417599291432591, ,0.5947837799228587, ,0.06589661435480909
198, ,PASS, ,0.26098869999999996, ,0.03727794730587237, ,0.04666420721932204, ,0.009958061536508727, ,1.9166666666666667, ,0.8949362260131164, ,0.621191404257056, ,0.06361094671537315
199, ,PASS, ,0.16445858000000002, ,0.020716021223115905, ,0.03889184029648374, ,0.0034929807337397596, ,1.9166666666666667, ,0.8658619846508331, ,0.6336605375400503, ,0.05563151772412808
200, ,PASS, ,0.16488908000000005, ,0.020159460467491678, ,0.03894536995369482, ,0.0033945856679109395, ,1.9166666666666667, ,0.8700398192466561, ,0.6261913022183221, ,0.05032550356115181
201, ,PASS, ,0.17385857000000005, ,0.022342397899497088, ,0.039564818769657756, ,0.003973361267563175, ,1.9166666666666667, ,0.8435267896617659, ,0.650333666659864, ,0.04857043733801351
202, ,PASS, ,0.12594228000000002, ,0.015144490717818437, ,0.03622868727797392, ,0.0019593789765544327, ,1.8333333333333333, ,0.8712112731400382, ,0.6128446358237587, ,0.040876716801697924
203, ,PASS, ,0.11873804999999998, ,0.01467778647133525, ,0.0358211169783882, ,0.0017888663107861742, ,1.9166666666666667, ,0.8714383465985838, ,0.612130364686435, ,0.04336646190894063
204, ,PASS, ,0.08662675999999996, ,0.011376108196934359, ,0.03404259916338442, ,0.0010146843822265105, ,1.9166666666666667, ,0.86703385779423, ,0.606803942776678, ,0.03944817452705047
205, ,PASS, ,0.08957814999999995, ,0.011630668179490511, ,0.03417763415542539, ,0.0010714997708677777, ,1.9166666666666667, ,0.8657383680283124, ,0.6073957674333177, ,0.04840717536376809
206, ,PASS, ,0.07476234999999996, ,0.009332683587664033, ,0.03300871647766373, ,0.0007206788794473082, ,1.9166666666666667, ,0.8536526111174303, ,0.6051509152874431, ,0.03675435195200098
207, ,PASS, ,0.08794913999999997, ,0.011056389323839623, ,0.034220607824064816, ,0.0009989007925193774, ,1.9166666666666667, ,0.8517262951646623, ,0.6085998244933777, ,0.03573396461296708
208, ,PASS, ,0.06554814900000001, ,0.008424369649735865, ,0.032538930926389265, ,0.0005702999255162652, ,1.9166666666666667, ,0.854101997201572, ,0.6045999061243648, ,0.03734617660864064
209, ,PASS, ,0.06875595000000002, ,0.009056189371963265, ,0.032720172587273735, ,0.0006421425947949032, ,1.9166666666666667, ,0.8597741151485877, ,0.6049468378196363, ,0.0443256260076325
210, ,PASS, ,0.07258377999999996, ,0.00967721556539128, ,0.03310744883543194, ,0.0007252796682253066, ,1.9166666666666667, ,0.8557909971505137, ,0.6037427807595763, ,0.04022366890471623
211, ,PASS, ,0.08007736999999998, ,0.010099743526317437, ,0.03325888320885288, ,0.0008329891945842017, ,1.9166666666666667, ,0.8602759397561375, ,0.6067223117895553, ,0.0474684190118569
212, ,PASS, ,0.11155766, ,0.014813651996600424, ,0.035620843304748885, ,0.0016926878374986585, ,1.9166666666666667, ,0.8789221697867042, ,0.6111303850941817, ,0.04946837819636334
213, ,PASS, ,0.09934943000000002, ,0.012486368195344629, ,0.034452321502295866, ,0.0012823609886335155, ,1.8333333333333333, ,0.8652967999976694, ,0.6041917511887512, ,0.04430521826085182
214, ,PASS, ,0.08165565000000002, ,0.010577974846906217, ,0.033609450288728804, ,0.0008893910626603225, ,1.9166666666666667, ,0.8700819150707345, ,0.6071100589783882, ,0.04675414787453317
215, ,PASS, ,0.12021398999999997, ,0.01506266245291565, ,0.03592775885951307, ,0.001857574720725573, ,1.8333333333333333, ,0.8759985947937506, ,0.6143139935919675, ,0.05018264933368707
216, ,PASS, ,0.09964978000000002, ,0.013152402210385742, ,0.034852872392747085, ,0.001340610303748379, ,1.9166666666666667, ,0.872914693576678, ,0.6089059406950879, ,0.042448113303810125
217, ,PASS, ,0.09974089000000005, ,0.012492468347765918, ,0.0347045603311565, ,0.0012799054857200128, ,1.9166666666666667, ,0.8706881899411232, ,0.6099263280341217, ,0.046162323217893514
218, ,PASS, ,0.10949716000000001, ,0.014474802459833458, ,0.03550363955998857, ,0.0016304658126367168, ,1.9166666666666667, ,0.8774447348897636, ,0.6077222913818086, ,0.048611252831574865
219, ,PASS, ,0.12038081999999999, ,0.015265716191454263, ,0.0359303723661762, ,0.0018886250166841264, ,1.8333333333333333, ,0.8704552397672984, ,0.6100487745148058, ,0.04789698169425114
220, ,PASS, ,0.09540827, ,0.012511551400219445, ,0.03454017367665965, ,0.0012258894699247352, ,1.9166666666666667, ,0.8757329663069912, ,0.6083549315320096, ,0.046141915471112835
221, ,PASS, ,0.12059240999999997, ,0.015440004007822444, ,0.03586235354296852, ,0.001906797064226221, ,1.9166666666666667, ,0.8757005223274708, ,0.612191587926777, ,0.052672394440929776
222, ,PASS, ,0.07378400999999997, ,0.009502097048821531, ,0.03298226151121406, ,0.0007235165258113632, ,1.9166666666666667, ,0.8585987812374205, ,0.6048856145792944, ,0.03397889838982878
223, ,PASS, ,0.10143969, ,0.0128480910066456, ,0.03467025553645844, ,0.0013332141340875543, ,1.9166666666666667, ,0.873066805993804, ,0.6104365217036387, ,0.049896940878757574
224, ,PASS, ,0.08463145999999999, ,0.010888312406369444, ,0.03363076509307973, ,0.0009476091600950649, ,1.9166666666666667, ,0.8700007619896505, ,0.6069263892573621, ,0.04132568723087284
225, ,PASS, ,0.08735568999999999, ,0.01096303749603664, ,0.03367743947301075, ,0.0009853151241539814, ,1.9166666666666667, ,0.8643813638129839, ,0.6070080202444849, ,0.04183588090038979
226, ,PASS, ,0.07594617999999997, ,0.009267875462299515, ,0.032861255583212595, ,0.0007274857838518961, ,1.9166666666666667, ,0.8558156365306652, ,0.6057835554376442, ,0.03934613579314708
227, ,PASS, ,0.12577582000000004, ,0.016029927221966486, ,0.03626186401795882, ,0.0020628851508430455, ,1.9166666666666667, ,0.8769331230546796, ,0.612763004836636, ,0.04630517744535826
228, ,PASS, ,0.2751667, ,0.04487807838152135, ,0.04942061578890227, ,0.01265518916522931, ,1.9166666666666667, ,0.8894449278511029, ,0.6167221077120875, ,0.06150894879696333
229, ,PASS, ,0.25943659999999996, ,0.040713063196912126, ,0.04785363825940286, ,0.010794635299399174, ,1.9166666666666667, ,0.8872932704607894, ,0.6198240852227506, ,0.05948858186567621
230, ,PASS, ,0.2722518, ,0.04467708448636921, ,0.0499819423198098, ,0.012433307407486308, ,1.9166666666666667, ,0.8916786603694082, ,0.6198240852227506, ,0.06359053896859247
231, ,PASS, ,0.3412993000000001, ,0.059135024199331816, ,0.05567818160294687, ,0.020739928150574495, ,1.9166666666666667, ,0.8904935399918835, ,0.6141915471112834, ,0.08081467725148467
232, ,PASS, ,0.1208932, ,0.016011290801727023, ,0.03625708022015877, ,0.0019898278954145155, ,1.9166666666666667, ,0.8768507213976555, ,0.6080692230770801, ,0.04022366890471623
233, ,PASS, ,0.14242374, ,0.019941301413638528, ,0.038208607890798135, ,0.0029085343049124225, ,1.9166666666666667, ,0.8830694758273867, ,0.6106610069182261, ,0.0590396114365013
234, ,PASS, ,0.10810964000000003, ,0.01417575536630657, ,0.03547881838740026, ,0.0015704908629338196, ,1.9166666666666667, ,0.8751334787337527, ,0.6095793963388503, ,0.03993796044978674
235, ,PASS, ,0.13049740999999998, ,0.016866134178802755, ,0.036738327007754944, ,0.002245826591282836, ,1.9166666666666667, ,0.8795478179310965, ,0.6110895696006204, ,0.045713352788718596
236, ,PASS, ,0.07734764, ,0.010756516350019191, ,0.03354297697424543, ,0.000858637323561058, ,1.9166666666666667, ,0.864710228696093, ,0.6036203342788923, ,0.033019734291136915
237, ,PASS, ,0.09317723, ,0.012037262569787021, ,0.03442464549013285, ,0.0011520668821650706, ,2.0, ,0.8739366688525807, ,0.6071100589783882, ,0.04579498377584131
238, ,PASS, ,0.0165452382, ,0.0002502516075891913, ,0.027876418032489123, ,4.648751542225207e-06, ,0.5, ,0.24705490306618444, ,0.8455949878573906, ,0.0008163098712271178
239, ,PASS, ,0.016652463600000018, ,0.00042986914579999647, ,0.027996437641476694, ,7.791399526123409e-06, ,0.6666666666666666, ,0.2965283802383064, ,0.7981673843390951, ,0.000734678884104406
240, ,PASS, ,0.017047956741000007, ,0.00021550457237541254, ,0.027803291264647652, ,4.323201464454146e-06, ,0.4166666666666667, ,0.23516901825824274, ,0.8705128466765985, ,0.0008775331115691516
241, ,PASS, ,0.11610375, ,0.012917162704241217, ,0.035437931299667345, ,0.0015481019138242986, ,1.9166666666666667, ,0.8749491403320343, ,0.6094569498581661, ,0.037917593518499625
242, ,PASS, ,0.10810233999999999, ,0.011983845311966952, ,0.03469449074706638, ,0.0013434167680934632, ,1.9166666666666667, ,0.8646949987017771, ,0.6062529336135998, ,0.02712189547152099
243, ,PASS, ,0.10565367999999996, ,0.01014317786925581, ,0.03409647977337196, ,0.0011170744164260898, ,1.9166666666666667, ,0.86436684781421, ,0.6085998244933777, ,0.028019836329870818
244, ,PASS, ,0.21873909999999983, ,0.024289191772822176, ,0.04152995665817023, ,0.0054651521057148215, ,1.9166666666666667, ,0.880985927092384, ,0.6193138915532336, ,0.03436664557866166
245, ,PASS, ,0.27589109999999994, ,0.03526503488167907, ,0.04655573220573047, ,0.009944053441084394, ,1.9166666666666667, ,0.8985817124753629, ,0.6147017407808004, ,0.0422848513295647
246, ,PASS, ,0.2731117999999999, ,0.03070178308744044, ,0.04502146560117139, ,0.008611683036227382, ,1.9166666666666667, ,0.8404609670237634, ,0.6674965817024142, ,0.05540703250954062
