Channel, ,Pass/Fail, ,Amplitude, ,Sorting Function Response, ,Mean, ,Variance, ,NPeaksRatio, ,PosIntegralRatio, ,ToT50, ,ToT99
0, ,PASS, ,0.05782158346, ,0.00907273366129367, ,0.028408211747439845, ,0.0005303372550508849, ,1.75, ,0.7587114550983942, ,0.4780922838309422, ,0.07242709332462603
1, ,PASS, ,0.057576793939999996, ,0.009031913384235693, ,0.02843076442737291, ,0.0005260793751835782, ,1.75, ,0.7556014077789588, ,0.47750045917430256, ,0.06975367849635722
2, ,PASS, ,0.05783253588000001, ,0.00909361688955398, ,0.028260476639118383, ,0.000531648788982236, ,1.75, ,0.7586914700790185, ,0.4769290422644436, ,0.07073325034182976
3, ,PASS, ,0.057918746220000004, ,0.00908653551976276, ,0.028333798574669087, ,0.000532010523114793, ,1.75, ,0.7586695782093852, ,0.4773780126936185, ,0.07087610456929451
4, ,PASS, ,0.05329382499999999, ,0.007242056124717664, ,0.027774552885288052, ,0.00039158106330379916, ,1.75, ,0.686282564526331, ,0.47084753372380156, ,0.05224383175853554
5, ,PASS, ,0.05771981704, ,0.00905319233234387, ,0.02849350527882288, ,0.0005284115673706346, ,1.75, ,0.7592503353668906, ,0.47882696271504666, ,0.07130466725168874
6, ,PASS, ,0.0578475897, ,0.009023614220607344, ,0.028423825088902264, ,0.0005281545338288958, ,1.75, ,0.757236401647368, ,0.4792147099038795, ,0.06689659394706231
7, ,PASS, ,0.05775316580000001, ,0.00899179729269787, ,0.028699352356660067, ,0.0005260034036707001, ,1.75, ,0.7564485329305376, ,0.4822146486806392, ,0.07105977429032061
8, ,PASS, ,0.05737769137999999, ,0.009007063785805274, ,0.028499193797855146, ,0.0005231917968386955, ,1.75, ,0.7593277381434609, ,0.4810105916205792, ,0.07475357645762332
9, ,PASS, ,0.05753902536, ,0.009003611911872019, ,0.028421676610811207, ,0.0005237574703241669, ,1.75, ,0.7575409717111251, ,0.47835758453909105, ,0.07534540111426298
10, ,PASS, ,0.0573069354, ,0.008976072310820801, ,0.028568373545562332, ,0.0005199417864973911, ,1.75, ,0.7567227082929073, ,0.4778473908695741, ,0.07246790881818739
11, ,PASS, ,0.05733714136, ,0.008933596944593412, ,0.02880819023220138, ,0.000518218872206601, ,1.75, ,0.75460173689074, ,0.4801534662557907, ,0.07165159894696027
12, ,PASS, ,0.05703709046, ,0.008873161633047652, ,0.028711547866268033, ,0.0005121867687951852, ,1.75, ,0.7541155067712336, ,0.47994938878798393, ,0.07108018203710129
13, ,PASS, ,0.057241621520000015, ,0.00890716914482279, ,0.028537725365327237, ,0.0005156031973894872, ,1.75, ,0.7541503471283111, ,0.4781739148180649, ,0.0713454827452501
14, ,PASS, ,0.05668081587999999, ,0.008861097511366949, ,0.0283051477752005, ,0.0005078895151167141, ,1.75, ,0.7559911129125104, ,0.47660251831595274, ,0.07099855104997857
15, ,PASS, ,0.05709177817999999, ,0.008828393474585668, ,0.028333322515367028, ,0.0005102961573502935, ,1.75, ,0.7537900312354899, ,0.47868410848758186, ,0.07065161935470704
16, ,PASS, ,0.057172528, ,0.008895890419603697, ,0.028452509879471843, ,0.0005145751829455097, ,1.75, ,0.7566910770114701, ,0.4792963408910022, ,0.07024346441909349
17, ,PASS, ,0.057210395220000015, ,0.008896747706835963, ,0.028405516790002243, ,0.0005149251725748142, ,1.75, ,0.7551539078756561, ,0.47964327258627376, ,0.07099855104997857
18, ,PASS, ,0.05796910198000001, ,0.00903558817660004, ,0.028590898502518315, ,0.0005306288773614284, ,1.75, ,0.7562862200207828, ,0.4797861268137385, ,0.06783535029897349
19, ,PASS, ,0.05709743142000002, ,0.008867878553433586, ,0.028516218624428068, ,0.0005124999385615239, ,1.75, ,0.7535399377165863, ,0.480071835268668, ,0.06369257770249587
20, ,PASS, ,0.05705507148, ,0.008838334001871225, ,0.028492988335848245, ,0.0005106428774226173, ,1.75, ,0.7530295963185494, ,0.4807248831656497, ,0.06448847982694231
21, ,PASS, ,0.05692641866000001, ,0.008859502357081177, ,0.02852673581525479, ,0.000510366580559979, ,1.75, ,0.755956808254327, ,0.47835758453909105, ,0.07024346441909349
22, ,PASS, ,0.05722853382000001, ,0.008885832019624444, ,0.02881382895345809, ,0.0005145778931189417, ,1.75, ,0.755414590807899, ,0.4803167282300361, ,0.07414134405420297
23, ,PASS, ,0.057207281519999986, ,0.008903957448580378, ,0.028381414433213608, ,0.0005155749686258387, ,1.75, ,0.7574584691168889, ,0.4773167894532765, ,0.0748556151915267
24, ,PASS, ,0.05727957428000001, ,0.008903056628497606, ,0.028526557042239952, ,0.0005164037189627552, ,1.75, ,0.7572469683713554, ,0.4801534662557907, ,0.06857002918307789
25, ,PASS, ,0.057731829920000005, ,0.008926384704817719, ,0.02843502864115426, ,0.0005215090806744933, ,1.75, ,0.7516817291087653, ,0.47909226342319544, ,0.06573335238056366
26, ,PASS, ,0.058218399500000004, ,0.00909417232049945, ,0.028599033368304726, ,0.0005357487873202642, ,1.75, ,0.7554695046113082, ,0.4783984000326524, ,0.06805983551356094
27, ,PASS, ,0.05759355054, ,0.008901843820556914, ,0.028569169320407744, ,0.0005189722307529849, ,1.75, ,0.7517054630753318, ,0.4815003775433154, ,0.07008020244484807
28, ,PASS, ,0.0575176582, ,0.008921711521992474, ,0.02844257554819289, ,0.0005199220920955419, ,1.75, ,0.756107065878397, ,0.48239831840166525, ,0.07179445317442501
29, ,PASS, ,0.05781577281999999, ,0.008958029874283636, ,0.028501917792700147, ,0.0005246729943740875, ,1.75, ,0.7552067040959215, ,0.4811738535948246, ,0.06689659394706231
30, ,PASS, ,0.057764629119999994, ,0.008964397903863214, ,0.028548052525013773, ,0.0005244118513183045, ,1.75, ,0.7538992314995118, ,0.4793983796249056, ,0.07203934613579314
31, ,PASS, ,0.05802885911999999, ,0.008979666050210246, ,0.028524882926407622, ,0.0005276136012389762, ,1.75, ,0.7540195728601249, ,0.4798677578008612, ,0.06577416787412502
32, ,PASS, ,0.05766777706, ,0.008875099461626904, ,0.02853412605508867, ,0.000519021472942279, ,1.75, ,0.7502068663210375, ,0.48131670782228936, ,0.06744760311014061
33, ,PASS, ,0.05782032718, ,0.00886343595785319, ,0.028571873999282054, ,0.0005194304078690752, ,1.75, ,0.7499358841432131, ,0.48035754372359746, ,0.06744760311014061
34, ,PASS, ,0.057628974400000005, ,0.008861446693219038, ,0.028458266852162198, ,0.0005172991192756301, ,1.75, ,0.7499995854459528, ,0.4798473500540805, ,0.06565172139344096
35, ,PASS, ,0.057684387120000014, ,0.008915684331976769, ,0.028501224245011326, ,0.0005207615927836792, ,1.75, ,0.7524750102870056, ,0.47919430215709885, ,0.07101895879675925
36, ,PASS, ,0.058013562299999995, ,0.009011612954120467, ,0.02871465552196282, ,0.0005292567106518998, ,1.75, ,0.7537546474758654, ,0.4787657394747046, ,0.06799861227321892
37, ,PASS, ,0.05810920658, ,0.00904049130914809, ,0.028675309081100383, ,0.0005325756059354078, ,1.75, ,0.757826341475786, ,0.48290851207118224, ,0.07416175180098365
38, ,PASS, ,0.05830999312, ,0.009050090136568139, ,0.028609711840129382, ,0.0005347552688152021, ,1.75, ,0.7549381658171572, ,0.48194934797249034, ,0.0672639333891145
39, ,PASS, ,0.05814493886, ,0.009037680534039435, ,0.028808818288292074, ,0.0005325428393958667, ,1.75, ,0.7582626184272282, ,0.4814187465561927, ,0.07552907083528908
40, ,PASS, ,0.058675191499999994, ,0.009140335156267476, ,0.02831556382244403, ,0.0005432391566135101, ,1.75, ,0.7572523483295895, ,0.4801738740025714, ,0.0706108038611457
41, ,PASS, ,0.05872661444, ,0.009121965326753868, ,0.02830030726184853, ,0.0005423776967878337, ,1.75, ,0.75539227762791, ,0.47899022468929203, ,0.07036591089977756
42, ,PASS, ,0.058594728559999996, ,0.009138056519871898, ,0.02824343056897369, ,0.0005421408516820431, ,1.75, ,0.7569605044895181, ,0.4785412542601171, ,0.07363115038468603
43, ,PASS, ,0.058905062, ,0.009134783182598331, ,0.02838445001762127, ,0.0005451295045176295, ,1.75, ,0.7541284239735019, ,0.47948001061202833, ,0.06712107916164976
44, ,PASS, ,0.05998804962000002, ,0.009320020527773743, ,0.028104053992490764, ,0.0005665344509581336, ,1.75, ,0.7551269249560524, ,0.48074529091243035, ,0.0715291524662762
45, ,PASS, ,0.10226153999999998, ,0.01655014403636788, ,0.030065744552274443, ,0.0017125201586383205, ,2.0, ,0.7748872190583048, ,0.49723475031121817, ,0.11126303544825616
46, ,PASS, ,0.079849112, ,0.012942039612296443, ,0.02890945042950144, ,0.0010460711079801845, ,1.8333333333333333, ,0.7745891143806835, ,0.4885818656762107, ,0.0866104773371972
47, ,PASS, ,0.06347295400000001, ,0.00974922852279273, ,0.028123941368874108, ,0.0006265026581705799, ,1.75, ,0.7490515178171169, ,0.48027591273647474, ,0.0661619150629579
48, ,PASS, ,0.06280869920000001, ,0.009616505340657448, ,0.028162494225396628, ,0.000611556160832708, ,1.75, ,0.7480657628081121, ,0.4797453113201771, ,0.06585579886124773
49, ,PASS, ,0.06254941120000003, ,0.009642272079722233, ,0.028183334525658254, ,0.0006105293560644167, ,1.75, ,0.7485823751852527, ,0.4797657190669578, ,0.06628436154364196
50, ,PASS, ,0.06277673240000001, ,0.009683806759546547, ,0.028256503815931512, ,0.0006156680044973467, ,1.75, ,0.7507114043163573, ,0.48047999020428156, ,0.07230464684394196
51, ,PASS, ,0.06280762420000002, ,0.009649017025663285, ,0.028305171539096348, ,0.0006140690711274705, ,1.75, ,0.7493510749683233, ,0.48213301769351646, ,0.06716189465521112
52, ,PASS, ,0.06274532200000002, ,0.009619371783673234, ,0.02814657806023918, ,0.000611786549877902, ,1.75, ,0.7501484849977864, ,0.4822758719209812, ,0.06689659394706231
53, ,PASS, ,0.06277960500000002, ,0.009609960696276782, ,0.028192875180078368, ,0.0006114720336984776, ,1.75, ,0.7493862683461244, ,0.4818677169853676, ,0.0703250954062162
54, ,PASS, ,0.06245809460000002, ,0.009586940275072975, ,0.028377521750396116, ,0.0006067377051511653, ,1.75, ,0.7500220669427273, ,0.4819901634660517, ,0.06957000877533112
55, ,PASS, ,0.0626234112, ,0.009584517926576719, ,0.028348009524323998, ,0.0006082069806640886, ,1.75, ,0.749274158581499, ,0.4822554641742005, ,0.06526397420460807
56, ,PASS, ,0.06270926080000003, ,0.009605970716588589, ,0.0284109491068819, ,0.000610297794916605, ,1.75, ,0.7493306843436762, ,0.4819901634660517, ,0.06418236362523214
57, ,PASS, ,0.06275408100000003, ,0.00965213802610514, ,0.02825287225151609, ,0.0006137886315023915, ,1.75, ,0.7512127543568499, ,0.4819901634660517, ,0.07126385175812738
58, ,PASS, ,0.06259200880000003, ,0.00963488651042325, ,0.02843008043510663, ,0.0006111447524595644, ,1.75, ,0.7515210982218796, ,0.4817452705046836, ,0.06879451439766536
59, ,PASS, ,0.062408257400000014, ,0.009603587029642834, ,0.02805718560775127, ,0.0006072373857670893, ,1.75, ,0.7513065363004106, ,0.4820105712128324, ,0.06699863268096569
60, ,PASS, ,0.06283232140000003, ,0.00968998868195877, ,0.028164577158611055, ,0.0006168670084978562, ,1.75, ,0.7519557573618251, ,0.48156160078365745, ,0.06985571723026061
61, ,PASS, ,0.06291687350000001, ,0.009687384147277925, ,0.02819607676715904, ,0.0006173284822502913, ,1.75, ,0.7514023237706181, ,0.4819901634660517, ,0.07022305667231281
62, ,PASS, ,0.06285218840000004, ,0.009655587433205694, ,0.028232224392825047, ,0.0006148139928303878, ,1.75, ,0.7500367630570112, ,0.48156160078365745, ,0.06503948899002061
63, ,PASS, ,0.06277310240000002, ,0.009683247848256738, ,0.028224473670581826, ,0.000615886625535095, ,1.75, ,0.752538562444293, ,0.481908532478929, ,0.06679455521315891
64, ,PASS, ,0.06310144700000003, ,0.009677526151611103, ,0.02811528378376727, ,0.0006188277068688897, ,1.75, ,0.7489315914116966, ,0.4813983388094121, ,0.06601906083549315
65, ,PASS, ,0.06279104270000001, ,0.009673262292323627, ,0.028416228236305793, ,0.0006151066513141152, ,1.75, ,0.7500682046481578, ,0.4810309993673598, ,0.06846799044917451
66, ,PASS, ,0.06291626220000002, ,0.009673341488344, ,0.02835728794415502, ,0.0006164808316657359, ,1.75, ,0.7499022481886749, ,0.48092896063345647, ,0.06728434113589518
67, ,PASS, ,0.06305029080000002, ,0.009695517153930903, ,0.028334895477707806, ,0.000619379098838257, ,1.75, ,0.751130572851957, ,0.4815207852900961, ,0.07073325034182976
68, ,PASS, ,0.06316698300000001, ,0.009723586381158316, ,0.02836645428892431, ,0.0006221519628614547, ,1.75, ,0.7515541427010434, ,0.4821738331870778, ,0.06830472847492908
69, ,PASS, ,0.06323243100000002, ,0.009704275915382412, ,0.028227479387414954, ,0.000621713584768482, ,1.75, ,0.750348923359227, ,0.4818269014918063, ,0.06973327074957654
70, ,PASS, ,0.06308062040000001, ,0.009679863703792495, ,0.02808641655953634, ,0.0006186873319165085, ,1.75, ,0.7503950578450929, ,0.4820105712128324, ,0.07005979469806739
71, ,PASS, ,0.06295960610000004, ,0.009688303474662999, ,0.028447182087774945, ,0.0006180062715721455, ,1.75, ,0.7507340085159633, ,0.4820105712128324, ,0.06752923409726332
72, ,PASS, ,0.06367381400000001, ,0.009862771225969326, ,0.028423635314691133, ,0.0006363886378953072, ,1.75, ,0.7535519609475608, ,0.48260239586947207, ,0.07244750107140671
73, ,PASS, ,0.06367764900000002, ,0.00982849688132797, ,0.028330236837057203, ,0.0006345848247752331, ,1.75, ,0.7542006747679633, ,0.48372482194240934, ,0.07534540111426298
74, ,PASS, ,0.06329535030000003, ,0.009741417415253473, ,0.028332622526439463, ,0.0006251192107071995, ,1.75, ,0.7523973862681818, ,0.4828268810840595, ,0.06714148690843044
75, ,PASS, ,0.06316033850000001, ,0.009751414681993453, ,0.028529098193831964, ,0.0006244477458840303, ,1.75, ,0.7538213118615708, ,0.4831329972857697, ,0.06981490173669926
76, ,PASS, ,0.06308699600000003, ,0.009671155679525131, ,0.02814719272173303, ,0.0006185750370720643, ,1.75, ,0.749397465557145, ,0.48243913389522664, ,0.07110058978388197
77, ,PASS, ,0.063345568, ,0.009713921988628518, ,0.028263106979331442, ,0.0006238082896877798, ,1.75, ,0.7490912910582873, ,0.4818677169853676, ,0.06734556437623722
78, ,PASS, ,0.06335860650000003, ,0.009691673288413524, ,0.028326369324086855, ,0.0006224863333725005, ,1.75, ,0.7485485688857126, ,0.48156160078365745, ,0.06803942776678026
79, ,PASS, ,0.063409743, ,0.009690770580890164, ,0.02825472448407992, ,0.0006228468809767832, ,1.75, ,0.7467908673992922, ,0.481847309238587, ,0.06354972347503113
80, ,PASS, ,0.064656697, ,0.010009046785511067, ,0.028061319242181183, ,0.0006560175160718261, ,1.75, ,0.7538715910022754, ,0.4829289198179629, ,0.0673659721230179
81, ,PASS, ,0.06448619700000002, ,0.01001596865330744, ,0.028328683968550847, ,0.0006544746593752427, ,1.75, ,0.7563907245124342, ,0.48243913389522664, ,0.07371278137180874
82, ,PASS, ,0.064318979, ,0.009882257580796586, ,0.0283637873927777, ,0.0006443056100548219, ,1.75, ,0.750341645607096, ,0.4820922021999551, ,0.06687618620028163
83, ,PASS, ,0.06431666300000001, ,0.009875569865386638, ,0.028208336451265897, ,0.0006439809968140521, ,1.75, ,0.7499825983093078, ,0.48211260994673577, ,0.06518234321748535
84, ,PASS, ,0.06437971400000002, ,0.009865538378825046, ,0.028173198020780395, ,0.0006441814617592242, ,1.75, ,0.7505372433259954, ,0.48231668741454253, ,0.06640680802432604
85, ,PASS, ,0.064495983, ,0.009890875622221072, ,0.028164302287242305, ,0.0006467924968132302, ,1.75, ,0.7514677187707907, ,0.48243913389522664, ,0.06973327074957654
86, ,PASS, ,0.06434817500000001, ,0.00987792583365441, ,0.028081228484441136, ,0.0006445211653539371, ,1.75, ,0.7506320163771947, ,0.4818881247321483, ,0.06620273055651925
87, ,PASS, ,0.064161837, ,0.009879698012199092, ,0.028343774642930964, ,0.0006425009352753844, ,1.75, ,0.7504550018311585, ,0.48176567825146427, ,0.0703250954062162
88, ,PASS, ,0.06452745100000003, ,0.009912508789351947, ,0.027978417244222772, ,0.0006482770354730552, ,1.75, ,0.7503864094382192, ,0.48194934797249034, ,0.06926389257362095
89, ,PASS, ,0.06477608000000003, ,0.0099464615849652, ,0.028078745782686067, ,0.0006533100922184254, ,1.75, ,0.7528035710605225, ,0.48245954164200733, ,0.06781494255219281
90, ,PASS, ,0.06481252900000002, ,0.009913240106786996, ,0.028128987957085367, ,0.0006514286294086814, ,1.75, ,0.7480061928024437, ,0.4818677169853676, ,0.06952919328176976
91, ,PASS, ,0.06484162900000001, ,0.009942259282022336, ,0.02802855232299137, ,0.0006535937679827333, ,1.75, ,0.7508871973199184, ,0.4817860859982449, ,0.06724352564233382
92, ,PASS, ,0.06473983700000001, ,0.00996982965833814, ,0.02825079659740291, ,0.0006542018128654518, ,1.75, ,0.7524538271072371, ,0.48162282402399953, ,0.06979449398991858
93, ,PASS, ,0.06501107100000002, ,0.009989074098263936, ,0.028290677248674928, ,0.0006585554136279393, ,1.75, ,0.7525577810049421, ,0.48166363951756086, ,0.0688353298912267
94, ,PASS, ,0.06474127700000001, ,0.010007129099681567, ,0.027993226881582012, ,0.000656576173826279, ,1.75, ,0.7533433110990396, ,0.48168404726434155, ,0.07012101793840941
95, ,PASS, ,0.064922093, ,0.009993669497595604, ,0.02832381651754128, ,0.0006577430835293463, ,1.75, ,0.7511771715240516, ,0.4805208056978429, ,0.07159037570661823
96, ,PASS, ,0.06512344500000002, ,0.01004388955320915, ,0.028062411080775087, ,0.0006629654610422135, ,1.75, ,0.7518502737694198, ,0.4810105916205792, ,0.0688353298912267
97, ,PASS, ,0.064989532, ,0.010026700858730036, ,0.028123857301635885, ,0.0006604269180723001, ,1.75, ,0.7520452909951838, ,0.48113303810126323, ,0.06720271014877248
98, ,PASS, ,0.06475556100000002, ,0.01004256461994736, ,0.02813755641741189, ,0.0006587418323288439, ,1.75, ,0.7529869997440966, ,0.48094936838023716, ,0.06975367849635722
99, ,PASS, ,0.06494287000000001, ,0.010062986761074344, ,0.02813864773800535, ,0.0006623014953202283, ,1.75, ,0.7548357029182847, ,0.48111263035448254, ,0.07028427991265485
100, ,PASS, ,0.06468273740000001, ,0.0099830619791092, ,0.02803747507794331, ,0.0006544322036552356, ,1.75, ,0.753109500092016, ,0.48076569865921104, ,0.06954960102855044
101, ,PASS, ,0.06498258000000001, ,0.010043407424999658, ,0.028038772278529012, ,0.000661441145898175, ,1.75, ,0.752464113648706, ,0.4805003979510622, ,0.07052917287402298
102, ,PASS, ,0.065119353, ,0.010027716095376551, ,0.028049504088710434, ,0.0006617226387047549, ,1.75, ,0.7510648691177149, ,0.480643252178527, ,0.06659047774535214
103, ,PASS, ,0.065135366, ,0.010035877312565531, ,0.028051256143352583, ,0.000662669053306065, ,1.75, ,0.7532852691141639, ,0.48074529091243035, ,0.06946797004142773
104, ,PASS, ,0.06546610700000001, ,0.010117577555270858, ,0.028184599163317076, ,0.0006710953866848353, ,1.75, ,0.7527120663523067, ,0.48047999020428156, ,0.07173322993408297
105, ,PASS, ,0.06588946500000002, ,0.010166511278207838, ,0.02790531789810004, ,0.000678621292093287, ,1.75, ,0.7525723867376197, ,0.4805412134446236, ,0.069957755964164
106, ,PASS, ,0.06659622200000002, ,0.01026688173319482, ,0.02797604826239873, ,0.000692873939294413, ,1.75, ,0.7520780484362666, ,0.48066365992530763, ,0.06826391298136773
107, ,PASS, ,0.08409689000000001, ,0.013781553050125031, ,0.02876452645339891, ,0.0011736739798396808, ,1.9166666666666667, ,0.7824358612931347, ,0.4901736699251036, ,0.0991000183669721
108, ,PASS, ,0.13323403999999997, ,0.021176420184923397, ,0.030484263617885355, ,0.0028546191306107757, ,1.8333333333333333, ,0.7653705304393345, ,0.5028672884226852, ,0.12163017081284055
109, ,PASS, ,0.07457519600000001, ,0.011385237905704327, ,0.027868408625334174, ,0.0008603131914146889, ,1.75, ,0.7465897452446405, ,0.48009224301544867, ,0.06771290381828943
110, ,PASS, ,0.07275925099999997, ,0.011113590110600417, ,0.027917388481296296, ,0.0008193234219044877, ,1.75, ,0.7479286335220926, ,0.48047999020428156, ,0.07018224117875145
111, ,PASS, ,0.07263604699999997, ,0.011054236521552114, ,0.02776668770278157, ,0.0008133833878493565, ,1.75, ,0.7447603358368471, ,0.4798473500540805, ,0.0635701312218118
112, ,PASS, ,0.07258569899999996, ,0.011078360721505686, ,0.027816308309320217, ,0.0008147270548324389, ,1.75, ,0.7470641032470577, ,0.47990857329442255, ,0.06648843901144874
113, ,PASS, ,0.07251799299999998, ,0.011123454731134023, ,0.027821604739066547, ,0.0008171219846636678, ,1.75, ,0.7492801190052288, ,0.47996979653476457, ,0.06836595171527111
114, ,PASS, ,0.07214258999999996, ,0.011048454038803446, ,0.02781924594028693, ,0.0008073996515835324, ,1.75, ,0.7475668472135893, ,0.47999020428154526, ,0.06971286300279586
115, ,PASS, ,0.07225169299999996, ,0.011043824339034612, ,0.02783514741001204, ,0.0008084459519716987, ,1.75, ,0.7465064034685523, ,0.4798473500540805, ,0.06693740944062367
116, ,PASS, ,0.072064964, ,0.011025574240290662, ,0.027951352683598295, ,0.0008049858972072137, ,1.75, ,0.7457959887437383, ,0.4798881655476419, ,0.06761086508438603
117, ,PASS, ,0.07196419899999996, ,0.011005322427834386, ,0.02796797097616375, ,0.0008022559315327376, ,1.75, ,0.7470519350581922, ,0.47962286483949307, ,0.06844758270239383
118, ,PASS, ,0.07187093599999998, ,0.011021191041504052, ,0.027728409159833472, ,0.0008021185003369131, ,1.75, ,0.7471553870902248, ,0.4796024570927124, ,0.06914144609293688
119, ,PASS, ,0.07174039399999996, ,0.010960881538124119, ,0.027863750608110034, ,0.0007963176626090409, ,1.75, ,0.7466475792895283, ,0.4785820697536785, ,0.06497826574967858
120, ,PASS, ,0.072029555, ,0.01101733750055614, ,0.027936426518275135, ,0.000803446949782061, ,1.75, ,0.7468436722757676, ,0.47870451623436255, ,0.06436603334625823
121, ,PASS, ,0.07179718299999997, ,0.01097680283218099, ,0.027784079056998832, ,0.0007979723019056352, ,1.75, ,0.746652155955396, ,0.47829636129874903, ,0.06587620660802841
122, ,PASS, ,0.07183316099999999, ,0.010952882141893227, ,0.028067791892145057, ,0.0007966323001156924, ,1.75, ,0.7447216881546863, ,0.47823513805840695, ,0.06630476929042264
123, ,PASS, ,0.07164887999999996, ,0.010929600317826213, ,0.027795087752392807, ,0.0007928365470007158, ,1.75, ,0.7463897599619134, ,0.4789085937021693, ,0.06620273055651925
124, ,PASS, ,0.07070787099999999, ,0.010882509019172456, ,0.02780613667508826, ,0.0007790528851214056, ,1.75, ,0.7489113316649713, ,0.4790310401828534, ,0.06775371931185079
125, ,PASS, ,0.07129863699999993, ,0.010914825215701396, ,0.0277751610260811, ,0.0007881955675769424, ,1.75, ,0.7475129724473117, ,0.4793575641313443, ,0.06814146650068366
126, ,PASS, ,0.07160798699999996, ,0.01095381201213392, ,0.028115239082528925, ,0.000794357792248774, ,1.75, ,0.7472646991649857, ,0.4797453113201771, ,0.06632517703720332
127, ,PASS, ,0.07163072899999998, ,0.010969245035836725, ,0.02781226574884186, ,0.0007958999039809078, ,1.75, ,0.748052336582019, ,0.4797044958266158, ,0.0673659721230179
128, ,PASS, ,0.07106220199999998, ,0.010900061107829349, ,0.027961035340870594, ,0.0007843541979681553, ,1.75, ,0.746878911546124, ,0.47982694230729983, ,0.06485581926899452
129, ,PASS, ,0.07167212499999996, ,0.010969738218413152, ,0.028072485317462908, ,0.0007963414199642424, ,1.75, ,0.746281688457304, ,0.47911267116997613, ,0.06859043692985857
130, ,PASS, ,0.07211305399999998, ,0.011062074991327792, ,0.02791687432672802, ,0.0008077333610887066, ,1.75, ,0.7470937539935096, ,0.47915348666353746, ,0.0640395093977674
131, ,PASS, ,0.07185246299999996, ,0.011048599651473442, ,0.027966755082733004, ,0.0008034273384739947, ,1.75, ,0.7490283920626108, ,0.4788473704618273, ,0.0682843207281484
132, ,PASS, ,0.07224981799999995, ,0.011065102128452527, ,0.027916953110548762, ,0.0008093294306740181, ,1.75, ,0.7484249407259245, ,0.4780514683373809, ,0.06683537070672027
133, ,PASS, ,0.072624837, ,0.011095311405533095, ,0.02791899918985327, ,0.0008156655102908232, ,1.75, ,0.7459796662288571, ,0.4775616824146446, ,0.06783535029897349
134, ,PASS, ,0.07246137699999995, ,0.01111832526239274, ,0.027990815012224238, ,0.0008154795754052231, ,1.75, ,0.7488150544368032, ,0.4780922838309422, ,0.07046794963368094
135, ,PASS, ,0.07304234599999998, ,0.011260040320017225, ,0.02794720838174731, ,0.0008324761458655497, ,1.75, ,0.7503433248015353, ,0.4782147303116263, ,0.06814146650068366
136, ,PASS, ,0.07256459499999998, ,0.01111763127718405, ,0.027901849743780734, ,0.0008164344944822847, ,1.75, ,0.7466148512257162, ,0.477663721148548, ,0.06667210873247485
137, ,PASS, ,0.07286817099999995, ,0.011082863333631864, ,0.028061513463766043, ,0.0008177841530900256, ,1.75, ,0.7452040076152289, ,0.47864329299402053, ,0.06342727699434705
138, ,PASS, ,0.07287106299999996, ,0.011096675136437816, ,0.028062596451215276, ,0.0008188387366095442, ,1.75, ,0.7433481647636707, ,0.4786637007408012, ,0.06183547274545417
139, ,PASS, ,0.07230457899999998, ,0.011089468016282088, ,0.0280404732202404, ,0.0008118114466653382, ,1.75, ,0.7469990512181426, ,0.4785616620068978, ,0.0681006510071223
140, ,PASS, ,0.07258681800000001, ,0.011124878287561212, ,0.0279223910279382, ,0.0008174862792511839, ,1.75, ,0.7456210675122787, ,0.4781943225648456, ,0.06405991714454808
141, ,PASS, ,0.07271271999999998, ,0.011178802047706203, ,0.027847427436562516, ,0.0008227938777978277, ,1.75, ,0.7485740888623922, ,0.47831676904552967, ,0.06687618620028163
142, ,PASS, ,0.07245263899999999, ,0.011160669142000998, ,0.02813277605538662, ,0.0008184937314020041, ,1.75, ,0.7491067160689306, ,0.4775616824146446, ,0.06795779677965756
143, ,PASS, ,0.07323110399999999, ,0.01136901352566763, ,0.027995237583926857, ,0.000842207520246484, ,1.75, ,0.7530841029003036, ,0.47835758453909105, ,0.07044754188690026
144, ,PASS, ,0.07255063299999998, ,0.011204431164459705, ,0.028080915216689453, ,0.0008224756484575454, ,1.75, ,0.7502571564123224, ,0.4776229056549866, ,0.07093732780963653
145, ,PASS, ,0.07258904899999999, ,0.011212098708372937, ,0.027900192817003733, ,0.0008235431764723605, ,1.75, ,0.7520883907413203, ,0.4776433134017673, ,0.0681006510071223
146, ,PASS, ,0.07249153, ,0.01117562078090678, ,0.028024027083732982, ,0.0008195357627093242, ,1.75, ,0.7497063271399762, ,0.4773576049468378, ,0.06630476929042264
147, ,PASS, ,0.072563744, ,0.011181396577449374, ,0.027737333551743838, ,0.0008209040473204223, ,1.75, ,0.7499877596252331, ,0.4773780126936185, ,0.06957000877533112
148, ,PASS, ,0.07232204899999997, ,0.011129483712257962, ,0.027852784370910797, ,0.0008143993518006308, ,1.75, ,0.7477955960704925, ,0.4770106732515663, ,0.06399869390420604
149, ,PASS, ,0.07264201399999998, ,0.011124244664743058, ,0.027922378434664597, ,0.0008180933943828831, ,1.75, ,0.7478516128684268, ,0.47823513805840695, ,0.06814146650068366
150, ,PASS, ,0.07252887599999998, ,0.011140589353666496, ,0.028067160607416174, ,0.0008179122381334771, ,1.75, ,0.7486950066512544, ,0.47829636129874903, ,0.06944756229464705
151, ,PASS, ,0.07221806599999997, ,0.011108442075116475, ,0.02804948939184914, ,0.0008121161566124385, ,1.75, ,0.7479250324399713, ,0.47835758453909105, ,0.0691210383461562
152, ,PASS, ,0.07271327499999998, ,0.011191110113316112, ,0.028064364311973223, ,0.0008239907929594758, ,1.75, ,0.7500033987672969, ,0.4785616620068978, ,0.07099855104997857
153, ,PASS, ,0.07280487399999998, ,0.011192740937771695, ,0.027885664366870063, ,0.0008248989543473825, ,1.75, ,0.7483456668137713, ,0.478867778208608, ,0.06744760311014061
154, ,PASS, ,0.07311173500000001, ,0.01123201117656211, ,0.02801492017758821, ,0.0008315997737179968, ,1.75, ,0.7484206613107649, ,0.4790514479296341, ,0.06940674680108569
155, ,PASS, ,0.07291277599999997, ,0.011242248670173606, ,0.027972207462459948, ,0.0008299737835265133, ,1.75, ,0.751349223675977, ,0.4790106324360727, ,0.07075365808861044
156, ,PASS, ,0.073191542, ,0.011217244689451854, ,0.027955714632497294, ,0.0008311861609678571, ,1.75, ,0.7479565431432176, ,0.47796983735025816, ,0.06646803126466806
157, ,PASS, ,0.07341530599999997, ,0.011226380405157861, ,0.02794225486016612, ,0.0008345017048548844, ,1.75, ,0.7472617403891808, ,0.47835758453909105, ,0.06512111997714333
158, ,PASS, ,0.07333461000000001, ,0.011235155635857672, ,0.028017643285177852, ,0.0008342971839503578, ,1.75, ,0.7470080732388692, ,0.47790861410991614, ,0.06538642068529214
159, ,PASS, ,0.073634839, ,0.011267492362671423, ,0.028054676368686353, ,0.0008399174493795636, ,1.75, ,0.7470791029885142, ,0.47752086692108325, ,0.06430481010591621
160, ,PASS, ,0.073479528, ,0.011303004591885215, ,0.027875960089059404, ,0.0008405458985639099, ,1.75, ,0.7487248702457838, ,0.47754127466786395, ,0.06910063059937552
161, ,PASS, ,0.07357285300000001, ,0.01129882876275104, ,0.027797014502663208, ,0.0008414177257999854, ,1.75, ,0.7481836503419305, ,0.4761739556335585, ,0.06405991714454808
162, ,PASS, ,0.07306799000000003, ,0.011278043244341788, ,0.02781364146860268, ,0.0008336271493532738, ,1.75, ,0.7501798879155486, ,0.47631680986102326, ,0.06846799044917451
163, ,PASS, ,0.07293929199999999, ,0.011220010493270928, ,0.02774161907487602, ,0.0008281457027116554, ,1.75, ,0.7472175035310271, ,0.476459664088488, ,0.06612109956939655
164, ,PASS, ,0.07301927499999997, ,0.011242255495620686, ,0.028031934529825917, ,0.0008303959786884763, ,1.75, ,0.7470405311561036, ,0.4773576049468378, ,0.06034570723046469
165, ,PASS, ,0.073231795, ,0.011281009716608555, ,0.02807919302750964, ,0.0008362346351955168, ,1.75, ,0.7490613006665343, ,0.4772555662129344, ,0.0649578580028979
166, ,PASS, ,0.07304033399999998, ,0.011221192842440358, ,0.027944496777412703, ,0.0008294100171319465, ,1.75, ,0.7500283327691387, ,0.4772759739597151, ,0.06950878553498908
167, ,PASS, ,0.07301189999999998, ,0.011249506113524932, ,0.027789375124323987, ,0.0008313319145277483, ,1.75, ,0.7517158865482765, ,0.47790861410991614, ,0.07146792922593416
168, ,PASS, ,0.07581056600000005, ,0.011690871806506895, ,0.028008948120956712, ,0.0008971984854966794, ,1.75, ,0.7512777509807724, ,0.4788473704618273, ,0.06675373971959755
169, ,PASS, ,0.073411111, ,0.011303636910525803, ,0.027973759891492006, ,0.0008400923794898002, ,1.75, ,0.7497585050955782, ,0.47778616762923204, ,0.06587620660802841
170, ,PASS, ,0.08315637000000001, ,0.013316915032464067, ,0.028899796289749192, ,0.001119685254277255, ,1.75, ,0.770571987894204, ,0.4869288381869758, ,0.08205954980510602
171, ,PASS, ,0.15716479999999994, ,0.024702366817304176, ,0.03131470275320912, ,0.003923558281997119, ,1.75, ,0.7595108457119407, ,0.5022754637660456, ,0.1292830758555948
172, ,PASS, ,0.07338180899999996, ,0.011468829088646763, ,0.0284171182884839, ,0.0008507921945599316, ,1.75, ,0.7568821772059111, ,0.4821738331870778, ,0.07279443276667823
173, ,PASS, ,0.073194996, ,0.011430386158376705, ,0.028248282837799225, ,0.0008461803743698319, ,1.75, ,0.7580117300548872, ,0.4822554641742005, ,0.07526377012714026
174, ,PASS, ,0.073203152, ,0.01141285398662776, ,0.028553829974184194, ,0.0008450529412422099, ,1.75, ,0.7560286945922716, ,0.481908532478929, ,0.07579437154343789
175, ,PASS, ,0.07403732599999999, ,0.011515018618266249, ,0.02845849369133283, ,0.0008623766474699963, ,1.75, ,0.7566187976831661, ,0.48252076488234935, ,0.07495765392543009
176, ,PASS, ,0.073306784, ,0.011459516250155139, ,0.028520514074733168, ,0.0008497687068774427, ,1.75, ,0.7581184255383203, ,0.4822146486806392, ,0.0769780208567172
177, ,PASS, ,0.07339563300000003, ,0.011450076315051459, ,0.028418682296095996, ,0.0008499644644009368, ,1.75, ,0.7568354236358567, ,0.48170445501112225, ,0.06942715454786637
178, ,PASS, ,0.07333660800000001, ,0.011456597167759507, ,0.02832931948190853, ,0.0008496105786808505, ,1.75, ,0.7568099928165651, ,0.4815003775433154, ,0.07330462643619517
179, ,PASS, ,0.073160873, ,0.011430302799063019, ,0.028364799149384702, ,0.0008456681161548733, ,1.75, ,0.7569116030045053, ,0.4820105712128324, ,0.07352911165078263
180, ,PASS, ,0.07300272499999998, ,0.011387536786664274, ,0.02830031289902247, ,0.000840813436028369, ,1.75, ,0.7569848166927374, ,0.48168404726434155, ,0.07424338278810637
181, ,PASS, ,0.07272702999999998, ,0.01135389022915627, ,0.02836317053370339, ,0.000834898823866794, ,1.75, ,0.756315182733484, ,0.4817248627579029, ,0.07250872431174873
182, ,PASS, ,0.07288412099999997, ,0.011369047666141444, ,0.028556687419909795, ,0.0008380088164502375, ,1.75, ,0.7573555246931556, ,0.48158200853043814, ,0.07601885675802535
183, ,PASS, ,0.07276112700000001, ,0.011367859208519676, ,0.028237082185506412, ,0.0008364277495217177, ,1.75, ,0.7555076555785338, ,0.4813779310626314, ,0.06895777637191078
184, ,PASS, ,0.07298638899999998, ,0.011408695757644718, ,0.028377843795493966, ,0.0008418127947298563, ,1.75, ,0.7569697919852556, ,0.4817860859982449, ,0.07285565600702026
185, ,PASS, ,0.07296500899999998, ,0.011387337362673541, ,0.02830139512122201, ,0.0008400487099930922, ,1.75, ,0.7574772745914272, ,0.48194934797249034, ,0.07585559478377993
186, ,PASS, ,0.07291056699999997, ,0.011411210225125054, ,0.028238809173812777, ,0.000841035847817309, ,1.75, ,0.7572479695938971, ,0.48156160078365745, ,0.07169241444052162
187, ,PASS, ,0.07266654699999994, ,0.011360456652500838, ,0.028259392422991365, ,0.0008346554634799404, ,1.75, ,0.7568914908456253, ,0.4813983388094121, ,0.07420256729454501
188, ,PASS, ,0.07277091899999998, ,0.011372986823355297, ,0.028466711377420868, ,0.0008368110245505097, ,1.75, ,0.7582586848634438, ,0.4818064937450256, ,0.07601885675802535
189, ,PASS, ,0.07270083599999996, ,0.011366183881802008, ,0.02832586544774596, ,0.0008353093676034174, ,1.75, ,0.7569681564289311, ,0.4815411930368768, ,0.0746719454705006
190, ,PASS, ,0.07233612899999997, ,0.01134718337290428, ,0.028341796760657942, ,0.00082968128457088, ,1.75, ,0.758916258808885, ,0.4814391543029734, ,0.07512091589967551
191, ,PASS, ,0.07242492699999999, ,0.011351134465880883, ,0.028186101190914466, ,0.0008310370678155988, ,1.75, ,0.7591885995961507, ,0.48196975571927103, ,0.07824330115711925
192, ,PASS, ,0.07237992799999998, ,0.011367445614653708, ,0.028258376612824224, ,0.0008316537547945761, ,1.75, ,0.7582053397426356, ,0.4806024366849656, ,0.07434542152200975
193, ,PASS, ,0.07254554099999999, ,0.01138548449955428, ,0.02819880770218975, ,0.0008350851304932071, ,1.75, ,0.7595102017448875, ,0.48131670782228936, ,0.07354951939756331
194, ,PASS, ,0.07217863899999998, ,0.011352990427755215, ,0.028295225214118078, ,0.0008280885848108632, ,1.75, ,0.7590311563319436, ,0.4810718148609212, ,0.0744882757494745
195, ,PASS, ,0.07256141499999996, ,0.011378309464247031, ,0.028373877583273806, ,0.0008344771524748026, ,1.75, ,0.7589104934019948, ,0.48111263035448254, ,0.07367196587824738
196, ,PASS, ,0.07283314799999999, ,0.011377362411311277, ,0.0282331114383584, ,0.0008376862029637613, ,1.75, ,0.7575704078239691, ,0.4810514071141405, ,0.075406624354605
197, ,PASS, ,0.07329333400000002, ,0.011518389122009675, ,0.0283560209462664, ,0.0008530040208930938, ,1.75, ,0.7592754570109103, ,0.4809697761270178, ,0.07479439195118467
198, ,PASS, ,0.07277712300000001, ,0.011427954244688048, ,0.028264311287341068, ,0.0008404675855300841, ,1.75, ,0.758116403236154, ,0.4801738740025714, ,0.07432501377522907
199, ,PASS, ,0.07228087099999995, ,0.011331344872512543, ,0.028169610594171543, ,0.0008279582727256771, ,1.75, ,0.7587375795556619, ,0.4807248831656497, ,0.07508010040611417
200, ,PASS, ,0.07220694399999995, ,0.011303615501087752, ,0.02842382727138221, ,0.0008249673133876095, ,1.75, ,0.757718795580816, ,0.4810514071141405, ,0.0765290504275423
201, ,PASS, ,0.07251383399999997, ,0.011366809912135118, ,0.02824462014273178, ,0.0008330353409222096, ,1.75, ,0.7587552491609758, ,0.48082692189955306, ,0.07197812289545111
202, ,PASS, ,0.07216737599999998, ,0.011328734729723086, ,0.028362540243158298, ,0.0008262582878016789, ,1.75, ,0.7602672884720454, ,0.4820922021999551, ,0.07495765392543009
203, ,PASS, ,0.07220692699999996, ,0.011304300722394632, ,0.028288060615416007, ,0.0008251323197487892, ,1.75, ,0.7582234616323963, ,0.4814595620497541, ,0.07720250607130466
204, ,PASS, ,0.07231802899999998, ,0.011363663245959605, ,0.028402596861370172, ,0.0008305875556453622, ,1.75, ,0.7587689294668111, ,0.4819289402257097, ,0.07338625742331789
205, ,PASS, ,0.07334576999999999, ,0.011586714791240882, ,0.02842189517234342, ,0.0008588576586489298, ,1.75, ,0.7611114085688092, ,0.4821738331870778, ,0.07095773555641721
206, ,PASS, ,0.07315716400000001, ,0.011540332669503947, ,0.028718164278973897, ,0.0008534127868941049, ,1.75, ,0.7612758461608643, ,0.48194934797249034, ,0.07830452439746127
207, ,PASS, ,0.07230122799999998, ,0.01137931885267691, ,0.028458457293136872, ,0.0008317245916203178, ,1.75, ,0.7612422797254189, ,0.48207179445317444, ,0.07914124201546907
208, ,PASS, ,0.07246154099999996, ,0.011400404702249217, ,0.028222517143935835, ,0.0008349998327884743, ,1.75, ,0.7597555425703191, ,0.48247994938878797, ,0.07612089549192874
209, ,PASS, ,0.072375679, ,0.011393958336774998, ,0.028436153480153464, ,0.0008334409148564526, ,1.75, ,0.7595416875661989, ,0.48166363951756086, ,0.0746719454705006
210, ,PASS, ,0.07262327699999994, ,0.011391140020393414, ,0.028365700395828652, ,0.0008361049594275528, ,1.75, ,0.7574403178530102, ,0.48162282402399953, ,0.0713454827452501
211, ,PASS, ,0.072441908, ,0.011394631198763897, ,0.02844676915683353, ,0.0008342402232437808, ,1.75, ,0.7611020062891238, ,0.48127589232872797, ,0.07687598212281382
212, ,PASS, ,0.07219613499999998, ,0.011401221493332728, ,0.028203579356033546, ,0.0008315751403012168, ,1.75, ,0.7612998176221278, ,0.48131670782228936, ,0.07832493214424195
213, ,PASS, ,0.07232480999999996, ,0.011399799925977653, ,0.028409060775555595, ,0.0008329056609373389, ,1.75, ,0.7597915232772019, ,0.48045958245750087, ,0.07681475888247179
214, ,PASS, ,0.07203898499999997, ,0.011354757162595439, ,0.028325437570376113, ,0.0008268204181973999, ,1.75, ,0.7610293971344442, ,0.4813983388094121, ,0.0772637293116467
215, ,PASS, ,0.07240653199999998, ,0.01136737877308169, ,0.028335766052039753, ,0.0008319507529087852, ,1.75, ,0.7586503565079058, ,0.4813575233158507, ,0.07316177220873044
216, ,PASS, ,0.07250881999999996, ,0.011412787765600368, ,0.02836130931278953, ,0.0008363671604721799, ,1.75, ,0.7595186654437905, ,0.48084732964633375, ,0.07312095671516908
217, ,PASS, ,0.07263366999999998, ,0.011431316492972424, ,0.02812320200122446, ,0.0008391574241188434, ,1.75, ,0.7594906358409615, ,0.48127589232872797, ,0.0697740862431379
218, ,PASS, ,0.07234856299999996, ,0.011382936985109764, ,0.028338334323707675, ,0.000832276763806527, ,1.75, ,0.7593652173296755, ,0.4809901838737985, ,0.07361074263790535
219, ,PASS, ,0.07231534299999998, ,0.011387941383964158, ,0.02815789760243668, ,0.0008321421562927432, ,1.75, ,0.7593735188843859, ,0.4810105916205792, ,0.07326381094263382
220, ,PASS, ,0.07235798199999999, ,0.011359842060533119, ,0.02831554276337217, ,0.000830701735855647, ,1.75, ,0.7587994168398468, ,0.48082692189955306, ,0.07818207791677721
221, ,PASS, ,0.07251487399999999, ,0.011372661818756406, ,0.02826311800946919, ,0.0008335661877490315, ,1.75, ,0.7581092695037519, ,0.4805003979510622, ,0.07046794963368094
222, ,PASS, ,0.07214679499999993, ,0.011343316840384378, ,0.028123322130058564, ,0.0008268714108162858, ,1.75, ,0.759710517701464, ,0.48045958245750087, ,0.07483520744474603
223, ,PASS, ,0.07235552099999999, ,0.011349306100572517, ,0.028264560004550923, ,0.0008298077947615038, ,1.75, ,0.7579975055646678, ,0.4792963408910022, ,0.07220260811003858
224, ,PASS, ,0.07245931899999998, ,0.011418089301787107, ,0.028165715700087753, ,0.0008362891551872176, ,1.75, ,0.7615779008993614, ,0.4806840676720883, ,0.07693720536315585
225, ,PASS, ,0.07244022899999998, ,0.011379667603015972, ,0.02818946506842717, ,0.0008329524665626918, ,1.75, ,0.7580580311849313, ,0.48041876696393954, ,0.07505969265933349
226, ,PASS, ,0.07240568599999998, ,0.011351939143177564, ,0.028255509650598965, ,0.0008305925636277073, ,1.75, ,0.7576071494299407, ,0.4797453113201771, ,0.07493724617864941
227, ,PASS, ,0.07252857099999999, ,0.011391353427628198, ,0.02814173010203873, ,0.0008349085983111321, ,1.75, ,0.7596154567603397, ,0.47992898104120324, ,0.07438623701557111
228, ,PASS, ,0.07241671499999996, ,0.011352912363826212, ,0.02805325332105467, ,0.0008308427790058, ,1.75, ,0.7572731597199974, ,0.47948001061202833, ,0.07459031448337788
229, ,PASS, ,0.07230383099999999, ,0.011336527578684417, ,0.028315022857472293, ,0.0008282363318319511, ,1.75, ,0.7577206663917933, ,0.47962286483949307, ,0.07308014122160772
230, ,PASS, ,0.07209667299999997, ,0.011318164124125693, ,0.02834025793883798, ,0.0008246265900011913, ,1.75, ,0.7583578091171416, ,0.4790514479296341, ,0.0753249933674823
231, ,PASS, ,0.07330249499999997, ,0.011522392466758897, ,0.028111862954000935, ,0.000853387648015913, ,1.75, ,0.7603828714050125, ,0.47999020428154526, ,0.07852900961204873
232, ,PASS, ,0.10970975999999999, ,0.017407956291903285, ,0.02988045749568376, ,0.0019280829984004634, ,2.0, ,0.7634666278176288, ,0.49619395522540355, ,0.10758964102773413
233, ,PASS, ,0.15950959000000003, ,0.02302599159180205, ,0.032647165444378685, ,0.0037065123780042767, ,1.75, ,0.7160227264494039, ,0.5146629660619171, ,0.13995632742188935
234, ,PASS, ,0.10526173999999998, ,0.015387439102526834, ,0.030962272358002894, ,0.0016352753717167117, ,1.75, ,0.7201098566480305, ,0.5095406216199669, ,0.09961021203648905
235, ,PASS, ,0.10331929999999998, ,0.015165040733161628, ,0.031001509293855634, ,0.0015813407914671536, ,1.75, ,0.7233626414710735, ,0.5104997857186588, ,0.09948776555580498
236, ,PASS, ,0.10380528, ,0.015232854135164007, ,0.030958552207781882, ,0.0015960522936816527, ,1.75, ,0.7233168143645755, ,0.5103977469847554, ,0.09944695006224363
237, ,PASS, ,0.10421847, ,0.015285767586875854, ,0.03102850792476521, ,0.0016078676079863182, ,1.75, ,0.7226589072520146, ,0.5107650864268076, ,0.09685516622109752
238, ,PASS, ,0.10391589999999998, ,0.015268681311811253, ,0.031165161338309832, ,0.0016014196312836842, ,1.75, ,0.7241080055478205, ,0.5117854737658415, ,0.10036529866737413
239, ,PASS, ,0.10443391999999996, ,0.015278402808658302, ,0.031109141072563823, ,0.001610990630045804, ,1.75, ,0.7221147667925617, ,0.5119895512336483, ,0.09965102753005041
240, ,PASS, ,0.10455087999999998, ,0.015362854202845147, ,0.031073594324091753, ,0.0016213441563938617, ,1.75, ,0.7241780869983097, ,0.5115609885512541, ,0.10226321911797719
241, ,PASS, ,0.10499401000000001, ,0.015389737424138784, ,0.03108970041571274, ,0.0016313363919792877, ,1.75, ,0.7228426493130441, ,0.5121732209546744, ,0.10236525785188057
242, ,PASS, ,0.10477663999999998, ,0.015359451897828362, ,0.031180093041618742, ,0.0016246139113236086, ,1.75, ,0.7227560316050624, ,0.5116222117915961, ,0.10056937613518091
243, ,PASS, ,0.10499106999999996, ,0.015384230389870548, ,0.03117390645935879, ,0.001630851410038443, ,1.75, ,0.7216875040190556, ,0.5122344441950164, ,0.10003877471888328
244, ,PASS, ,0.10523394, ,0.01541231608204232, ,0.03111297919511928, ,0.001637520779891002, ,1.75, ,0.7222065970777997, ,0.5118671047529643, ,0.09850819371033244
245, ,PASS, ,0.1053069, ,0.015442444867845333, ,0.031175176753710333, ,0.0016414693302085578, ,1.75, ,0.7230224495253224, ,0.5117446582722801, ,0.1002224444399094
246, ,PASS, ,0.10477242, ,0.01538326610998758, ,0.031217421434085017, ,0.0016263990142008772, ,1.75, ,0.7239697610258549, ,0.5116834350319381, ,0.09971225077039245
247, ,PASS, ,0.10538304999999998, ,0.015421932350415347, ,0.030948066419982444, ,0.0016404032512509592, ,1.75, ,0.7224402608335936, ,0.5114589498173506, ,0.0991000183669721
248, ,PASS, ,0.10560683999999997, ,0.015474700462381441, ,0.030937132780737533, ,0.0016492802951467204, ,1.75, ,0.7220316844896157, ,0.5092549131650375, ,0.09644701128548397
249, ,PASS, ,0.10573003999999998, ,0.015503862852765544, ,0.030779942825006835, ,0.0016541082898683993, ,1.75, ,0.7232586503886564, ,0.5099283688087998, ,0.09793677680047345
250, ,PASS, ,0.10545356999999997, ,0.01539334183575334, ,0.031063365942626476, ,0.0016384739941197807, ,1.75, ,0.7194129123109737, ,0.5106834554396849, ,0.0969776127017816
251, ,PASS, ,0.10637833000000002, ,0.015551985091475007, ,0.031214579120098365, ,0.0016693069809848727, ,1.75, ,0.7212146344617374, ,0.5101936695169487, ,0.09814085426828024
252, ,PASS, ,0.10531247999999999, ,0.015418804470206599, ,0.030971309585348054, ,0.001638280622964613, ,1.75, ,0.722191357721018, ,0.5107242709332462, ,0.09958980428970837
253, ,PASS, ,0.10600958999999997, ,0.01551231233641723, ,0.03104239292276484, ,0.0016590082197324636, ,1.75, ,0.7220282613638126, ,0.5100916307830452, ,0.09581437113528295
254, ,PASS, ,0.10661813000000003, ,0.015634873840356042, ,0.030845781540064485, ,0.001681750452085073, ,1.75, ,0.7229695957234423, ,0.5097038835942124, ,0.09575314789494092
255, ,PASS, ,0.10737466999999998, ,0.015689386907198087, ,0.03099193787101365, ,0.0016997553182132405, ,1.75, ,0.7209205923840043, ,0.5106018244525622, ,0.1002224444399094
