Channel, ,Pass/Fail, ,Amplitude, ,Sorting Function Response, ,Mean, ,Variance, ,NPeaksRatio, ,PosIntegralRatio, ,ToT50, ,ToT99
233, ,PASS, ,0.050017920000000014, ,0.003819330142683095, ,0.030367674349543888, ,0.00019499170310728755, ,1.3333333333333333, ,0.5079058917410276, ,0.551866288443093, ,0.0528356564151752
234, ,PASS, ,0.02747812999999999, ,0.0017587434892408476, ,0.029084562870961818, ,4.915669436460735e-05, ,0.8333333333333334, ,0.3969578893594072, ,0.5453562172200568, ,0.03850941817513928
235, ,PASS, ,0.024074790000000016, ,0.0015332809646737668, ,0.02915462814595621, ,3.752141760144885e-05, ,0.8333333333333334, ,0.40313808074516483, ,0.5249280626925981, ,0.03567274137262505
236, ,PASS, ,0.024528950000000015, ,0.0015271231778542524, ,0.02912087982020775, ,3.816096867347869e-05, ,0.8333333333333334, ,0.393033127402037, ,0.5335605395808248, ,0.019897553111160995
237, ,PASS, ,0.024412380000000015, ,0.0015282513081936193, ,0.02890436066672109, ,3.802130884683453e-05, ,0.8333333333333334, ,0.38629884858806085, ,0.5552335666619048, ,0.031836084977857594
238, ,PASS, ,0.024157650000000027, ,0.001516822346436091, ,0.029229015328462685, ,3.724564609887759e-05, ,0.8333333333333334, ,0.39387272269354934, ,0.5419073080141221, ,0.018346564355829473
239, ,PASS, ,0.024333090000000016, ,0.0015233581417373498, ,0.029136089348992877, ,3.775824784446688e-05, ,0.8333333333333334, ,0.39193956794482626, ,0.5382951368339421, ,0.019122058733495234
240, ,PASS, ,0.024183330000000003, ,0.0015215392016934533, ,0.028989040982837087, ,3.748441659017252e-05, ,0.8333333333333334, ,0.394656906478486, ,0.5436827819840412, ,0.03614211954858064
241, ,PASS, ,0.024142200000000027, ,0.0015239065098769057, ,0.028958967692496073, ,3.754370436332068e-05, ,0.8333333333333334, ,0.3986101251946304, ,0.5338870635293157, ,0.037101283647272505
242, ,PASS, ,0.02411078000000001, ,0.0015291391028428609, ,0.028947480209995716, ,3.751000416147209e-05, ,0.8333333333333334, ,0.39565835126425847, ,0.5414175220913859, ,0.03765229281035081
243, ,PASS, ,0.02418191000000001, ,0.0015184546560826212, ,0.02908793949409196, ,3.7365016762850384e-05, ,0.8333333333333334, ,0.3877942359391315, ,0.55990694067468, ,0.03734617660864064
244, ,PASS, ,0.02418377000000001, ,0.0015202912638039696, ,0.029106519012060978, ,3.744852237003267e-05, ,0.8333333333333334, ,0.39341323607303247, ,0.5414787453317279, ,0.037386992102202
245, ,PASS, ,0.024367180000000016, ,0.001555397634420825, ,0.029220230175302547, ,3.853554607798334e-05, ,0.8333333333333334, ,0.38411358688052993, ,0.5644578682067712, ,0.03922368931246301
246, ,PASS, ,0.024650510000000007, ,0.0015426100370841446, ,0.02916035074712761, ,3.871537367712407e-05, ,0.8333333333333334, ,0.392708177045764, ,0.5398461255892737, ,0.021591396093957268
247, ,PASS, ,0.024604340000000016, ,0.0015516176265229858, ,0.029226110244076654, ,3.880582252215531e-05, ,0.8333333333333334, ,0.3910268085306385, ,0.5454990714475215, ,0.031080998346972512
248, ,PASS, ,0.025016860000000023, ,0.0015530335999760802, ,0.028944687855758048, ,3.9614109735666135e-05, ,0.8333333333333334, ,0.38567547409898373, ,0.5595600089794086, ,0.03369318993489929
249, ,PASS, ,0.02513927, ,0.0015573382728134699, ,0.029152318871451605, ,3.985332894603916e-05, ,0.8333333333333334, ,0.3911385484134943, ,0.5405808044733781, ,0.02095875594375625
250, ,PASS, ,0.025597350000000012, ,0.0015696564709096012, ,0.028818561173037285, ,4.099163506904383e-05, ,0.8333333333333334, ,0.3876680175617764, ,0.5440909369196547, ,0.02097916369053693
251, ,PASS, ,0.02485875000000002, ,0.0015711798297388959, ,0.028983530845901107, ,3.970195048262019e-05, ,0.8333333333333334, ,0.390117211021506, ,0.5575192343013408, ,0.03922368931246301
252, ,PASS, ,0.024425040000000016, ,0.0015375786914717628, ,0.029242842621375078, ,3.820607942658181e-05, ,0.8333333333333334, ,0.39411311644941915, ,0.5431317728209628, ,0.03614211954858064
253, ,PASS, ,0.024753940000000023, ,0.0015557814625451025, ,0.02917199663149732, ,3.920647055525096e-05, ,0.8333333333333334, ,0.39525614466260334, ,0.5412950756107018, ,0.03567274137262505
254, ,PASS, ,0.025124060000000014, ,0.0015500091720291821, ,0.029053363746658234, ,3.96581865641706e-05, ,0.8333333333333334, ,0.387211649319827, ,0.5558457990653252, ,0.023224015836411503
255, ,PASS, ,0.024994430000000005, ,0.0015768709230067706, ,0.02925777056080488, ,4.012899315387508e-05, ,0.8333333333333334, ,0.3996270318592158, ,0.5373563804820309, ,0.029652456072325056
