Channel, ,Pass/Fail, ,Amplitude, ,Sorting Function Response, ,Mean, ,Variance
0, ,PASS, ,0.03095485999999998, ,0.01137689292560691, ,0.00017961791352625418, ,7.2016699498289325e-05
1, ,PASS, ,0.030283379999999992, ,0.011152371409711341, ,-5.8212567945552564e-05, ,6.9075500100123245e-05
2, ,PASS, ,0.030755199999999983, ,0.011262410411735074, ,0.00025791818846145959, ,7.0836782642390034e-05
3, ,PASS, ,0.030503809999999989, ,0.010921008933313745, ,0.00010710737700046888, ,6.815582154527689e-05
4, ,PASS, ,0.041860970000000025, ,0.020633058819461706, ,-0.00093702581390175867, ,0.00017596618827756894
5, ,PASS, ,0.072856810000000091, ,0.047683390954963677, ,-0.003409429667761886, ,0.00070814182672003176
