Channel, ,Pass/Fail, ,Amplitude, ,Sorting Function Response, ,Mean, ,Variance, ,NPeaksRatio, ,PosIntegralRatio, ,ToT50, ,ToT99
43, ,PASS, ,0.021820959999999997, ,0.0030871852077635586, ,0.03322562563580335, ,6.808224804799723e-05, ,1.8333333333333333, ,0.7237543375432829, ,0.3737678822881166, ,0.0474684190118569
44, ,PASS, ,0.04153488000000001, ,0.006109722108942175, ,0.03072179128732067, ,0.000258231326532074, ,1.9166666666666667, ,0.7400631599591121, ,0.36817615967021083, ,0.0578355543764413
45, ,PASS, ,0.050934703, ,0.008088053302957803, ,0.028555402257096792, ,0.00042092383287072206, ,1.9166666666666667, ,0.8046345741548058, ,0.37227811677312705, ,0.16618028203506052
46, ,PASS, ,0.053670408999999995, ,0.008636717464739265, ,0.0273235873063815, ,0.000474946087689411, ,1.9166666666666667, ,0.8209020012255963, ,0.37440052243831756, ,0.21175078059631436
47, ,PASS, ,0.051640560999999995, ,0.008339462096116537, ,0.028022543563600743, ,0.0004416143497694804, ,1.9166666666666667, ,0.8123592804277195, ,0.3699312258933491, ,0.19556743739923674
48, ,PASS, ,0.04203488999999998, ,0.006429688301551091, ,0.030331458060447743, ,0.0002770199489646315, ,1.9166666666666667, ,0.7560758390430868, ,0.36101304055019284, ,0.07277402501989755
49, ,PASS, ,0.02050073999999999, ,0.0030367880968762574, ,0.03326256023203608, ,6.342406994189656e-05, ,1.9166666666666667, ,0.7465214359762058, ,0.3686455378461664, ,0.06257015162955858
50, ,PASS, ,0.014985900000000007, ,0.0018388593109457973, ,0.03432817527376992, ,2.7556244860132013e-05, ,1.8333333333333333, ,0.6691809338394575, ,0.3808493704210118, ,0.03908083508499827
51, ,PASS, ,0.03583166999999998, ,0.00519678769904176, ,0.03148511215526214, ,0.00018903302931960487, ,1.9166666666666667, ,0.7369837298219513, ,0.3700536723740332, ,0.055549886737005366
52, ,PASS, ,0.050136876, ,0.0077352126142904536, ,0.028979492111385483, ,0.0003956808442478917, ,1.9166666666666667, ,0.7875348882730383, ,0.3718903695842942, ,0.14326238240035918
53, ,PASS, ,0.053343091999999995, ,0.008444719710441232, ,0.027676059733474825, ,0.00046070621862719877, ,1.9166666666666667, ,0.814857019523877, ,0.37568621048550027, ,0.19295524581130996
54, ,PASS, ,0.051195863999999994, ,0.007879112828196411, ,0.028561311630987123, ,0.00041292433399089945, ,1.9166666666666667, ,0.7936764881106013, ,0.3716250688761454, ,0.16058855941715475
55, ,PASS, ,0.03775755, ,0.005456853665451672, ,0.03112429103671354, ,0.00021003874671569038, ,1.9166666666666667, ,0.7322917700905643, ,0.36682924838268605, ,0.05610089590008367
56, ,PASS, ,0.016378690000000026, ,0.0021638952135205045, ,0.03390562836717618, ,3.566052225102445e-05, ,1.8333333333333333, ,0.6939637134769752, ,0.3761555886614559, ,0.0377543315442542
57, ,PASS, ,0.015009250000000005, ,0.001873983530871874, ,0.03423725190689986, ,2.818192731575809e-05, ,1.8333333333333333, ,0.6733323892355605, ,0.38029836125793354, ,0.03144833778902471
58, ,PASS, ,0.035115549999999995, ,0.005156795428537595, ,0.03148453933593192, ,0.0001841873781140889, ,1.9166666666666667, ,0.7407515201088466, ,0.3701353033611559, ,0.05338666557825351
59, ,PASS, ,0.050333135999999994, ,0.00786605334455275, ,0.0288577919844493, ,0.000404506719181747, ,1.9166666666666667, ,0.7953730366490672, ,0.371523030142242, ,0.15275198465337442
60, ,PASS, ,0.053844151, ,0.008688194330709227, ,0.027311295640088978, ,0.0004791471636849588, ,1.9166666666666667, ,0.8227546018840696, ,0.3754617252709128, ,0.21377114752760148
61, ,PASS, ,0.051482147, ,0.008123218780480746, ,0.02828592918369013, ,0.0004284299371573145, ,1.9166666666666667, ,0.8035562931883592, ,0.37119650619375116, ,0.17754739699189812
62, ,PASS, ,0.03807146999999999, ,0.005561623852177852, ,0.031082134845207242, ,0.00021620301091047626, ,1.9166666666666667, ,0.7383918097338414, ,0.36564559906940675, ,0.06344768474112773
63, ,PASS, ,0.016441770000000012, ,0.002183260791610183, ,0.033878513179322875, ,3.622754582439433e-05, ,1.8333333333333333, ,0.6981689573293844, ,0.3756045794983776, ,0.04826432113630334
64, ,PASS, ,0.017030390000000006, ,0.0022383587072749905, ,0.033997396430685084, ,3.825977250504479e-05, ,1.8333333333333333, ,0.6946647200364616, ,0.3783392175669884, ,0.04212158935531928
65, ,PASS, ,0.03667546999999999, ,0.0054831847114479625, ,0.031144378263912986, ,0.00020521738476177626, ,1.9166666666666667, ,0.747836876532967, ,0.36740066529254506, ,0.05622334238076774
66, ,PASS, ,0.051010187, ,0.008178322909972368, ,0.028232315483153407, ,0.00042730009767359564, ,1.9166666666666667, ,0.8078744450578808, ,0.36770678149425523, ,0.17854737658415135
67, ,PASS, ,0.054689944, ,0.00889101155299249, ,0.026631744367665966, ,0.0004992785301740369, ,2.0, ,0.8227355711321882, ,0.37358421256709046, ,0.23885226832105466
68, ,PASS, ,0.052302798, ,0.008412008399327967, ,0.02769638266443542, ,0.0004517202475992461, ,2.0, ,0.81097174695447, ,0.36984959490622643, ,0.20650598967368014
69, ,PASS, ,0.03999295999999997, ,0.005895176016114094, ,0.030508325166425175, ,0.00024136520463958477, ,1.9166666666666667, ,0.7420213137628417, ,0.361890573661762, ,0.0554274402563213
70, ,PASS, ,0.016015350000000008, ,0.002191885890339491, ,0.03392354056345789, ,3.557073788824377e-05, ,1.8333333333333333, ,0.7100699077227114, ,0.3724821942409339, ,0.042141997102099954
71, ,PASS, ,0.01586807000000001, ,0.0020443634571754477, ,0.03416689063059938, ,3.245902112097242e-05, ,1.8333333333333333, ,0.7044273080297506, ,0.37950245913348707, ,0.04218281259566131
72, ,PASS, ,0.0356644, ,0.005443753803267683, ,0.031334342034040126, ,0.00019760132612456856, ,1.9166666666666667, ,0.755738371861729, ,0.36821697516377216, ,0.06503948899002061
73, ,PASS, ,0.05099153299999999, ,0.008235405217027819, ,0.028361624616028248, ,0.0004300572213296714, ,1.9166666666666667, ,0.8115295086790383, ,0.3701353033611559, ,0.1818330238158405
74, ,PASS, ,0.055018476, ,0.00894319104609334, ,0.026511784909899798, ,0.0005052907974758792, ,2.0, ,0.8238360863726396, ,0.3743801146915369, ,0.2404848880635089
75, ,PASS, ,0.052529175, ,0.00844447068187575, ,0.027637556420073057, ,0.0004554665187345247, ,2.0, ,0.813093261603252, ,0.37023734209505926, ,0.21026101508132486
76, ,PASS, ,0.03939021999999997, ,0.005870745564066057, ,0.03088703337217608, ,0.00023671161949884121, ,1.9166666666666667, ,0.7428436863217027, ,0.36158445746005186, ,0.058366155792738926
77, ,PASS, ,0.014369539999999997, ,0.0019983379581715293, ,0.034013758197383726, ,2.9039017545948182e-05, ,1.8333333333333333, ,0.7198414775081476, ,0.37286994142976676, ,0.05124385216628232
78, ,PASS, ,0.016090809999999987, ,0.002200749904789691, ,0.03401748287953307, ,3.567828698157454e-05, ,1.8333333333333333, ,0.7072099856437238, ,0.3758086569661844, ,0.03244831738127793
79, ,PASS, ,0.038912789999999975, ,0.005987810915624176, ,0.030884662663210955, ,0.00023813868651170002, ,1.9166666666666667, ,0.7557940030423032, ,0.3650945899063284, ,0.06844758270239383
80, ,PASS, ,0.05278744, ,0.008669745632723063, ,0.027369388322279135, ,0.0004698752042646598, ,2.0, ,0.8195745585498142, ,0.37101283647272504, ,0.23360747739842044
81, ,PASS, ,0.056446933, ,0.009138581470336435, ,0.025181075564580314, ,0.0005312253309811726, ,1.75, ,0.8165748871943594, ,0.3673598497989837, ,0.2324442358319218
82, ,PASS, ,0.054974826, ,0.00887346707641211, ,0.02629928377869839, ,0.0005020191457452915, ,1.75, ,0.8114037038003659, ,0.3717679231036101, ,0.23091365482337095
83, ,PASS, ,0.04454891, ,0.00662555402420177, ,0.029878013817881268, ,0.00030339910576180517, ,1.8333333333333333, ,0.7457489336766663, ,0.3544825615803759, ,0.07001897920450603
84, ,PASS, ,0.01854753999999999, ,0.0026754213697756262, ,0.03351421638701251, ,5.070508379111267e-05, ,1.9166666666666667, ,0.7306777476969487, ,0.36860472235260505, ,0.0471010795698047
85, ,PASS, ,0.013710840000000016, ,0.0019513537648458415, ,0.03417870372849533, ,2.6935499880034083e-05, ,1.9166666666666667, ,0.7328547705900557, ,0.375767841472623, ,0.05734576845370502
86, ,PASS, ,0.038104289999999985, ,0.005849387495898462, ,0.030896384177669843, ,0.0002278998855343385, ,1.9166666666666667, ,0.755821711654137, ,0.363727270872023, ,0.06016203750943858
87, ,PASS, ,0.052781694, ,0.008695685967454849, ,0.027259847043529725, ,0.00047132629209167484, ,2.0, ,0.818202829695832, ,0.3700332646272525, ,0.23201567314952756
88, ,PASS, ,0.0568651719, ,0.009275845061662902, ,0.02532934815452746, ,0.0005430342008589808, ,1.75, ,0.8196506946885765, ,0.37356380482030976, ,0.23840329789187975
89, ,PASS, ,0.055437957999999996, ,0.008929824286425588, ,0.026058555019693477, ,0.000509661218606498, ,1.6666666666666667, ,0.8106706053040106, ,0.37138017591477723, ,0.23040346115385402
90, ,PASS, ,0.04497698, ,0.006688850876487151, ,0.029772673656251917, ,0.0003094414493370164, ,1.8333333333333333, ,0.7457708378843678, ,0.3530948347992898, ,0.0677333115650701
91, ,PASS, ,0.01792229999999999, ,0.0025778953133907202, ,0.0334702185608457, ,4.7201379681778596e-05, ,1.9166666666666667, ,0.7309815328936621, ,0.3651149976531091, ,0.060100814269096546
92, ,PASS, ,0.01362151000000002, ,0.001971933766020951, ,0.034218176818024124, ,2.7193935476728686e-05, ,2.0, ,0.7449728894032858, ,0.3755229485112549, ,0.0403461153854003
93, ,PASS, ,0.038379239999999995, ,0.005974123663649838, ,0.03088401186241097, ,0.0002347912424104056, ,1.9166666666666667, ,0.7623282509170918, ,0.3620130201424461, ,0.07028427991265485
94, ,PASS, ,0.053288116999999996, ,0.008776102082576497, ,0.026952796958021264, ,0.0004805521773566887, ,1.9166666666666667, ,0.8161785007003506, ,0.3700536723740332, ,0.23146466398644924
95, ,PASS, ,0.057555535399999996, ,0.00939084276459459, ,0.024954668557988613, ,0.0005567410044337045, ,1.6666666666666667, ,0.8174737818779652, ,0.37401277524948473, ,0.2374237260464072
96, ,PASS, ,0.05588972799999999, ,0.008983670198622609, ,0.025766371352829533, ,0.0005174336779205435, ,1.6666666666666667, ,0.8089913638085023, ,0.3700740801208139, ,0.2277300463255852
97, ,PASS, ,0.04598385000000002, ,0.0067798643336645075, ,0.029655279507561073, ,0.00032096577969177933, ,1.6666666666666667, ,0.7458652600679644, ,0.3488092079753474, ,0.07428419828166773
98, ,PASS, ,0.018530720000000004, ,0.0027169049287000704, ,0.03328555668741454, ,5.160256387916356e-05, ,1.9166666666666667, ,0.736083379793584, ,0.3620946511295688, ,0.06322319952654028
99, ,PASS, ,0.012245040000000016, ,0.0018388019075426239, ,0.034089235336421705, ,2.2842954495195223e-05, ,1.9166666666666667, ,0.7510992970938218, ,0.3737882900348972, ,0.05254994796024571
100, ,PASS, ,0.03831080999999999, ,0.005923675218225177, ,0.030706094586437013, ,0.00023284143330707632, ,1.8333333333333333, ,0.7552749759138078, ,0.3567682292198118, ,0.05912124242362401
101, ,PASS, ,0.05368964, ,0.008665760865746662, ,0.02640831373869921, ,0.0004795344513579743, ,1.6666666666666667, ,0.8055526171697502, ,0.3623599518377176, ,0.21813840533866655
102, ,PASS, ,0.05770817355, ,0.009310682117169709, ,0.024887656999040834, ,0.0005543725594177596, ,1.6666666666666667, ,0.8094824040225376, ,0.3721352625456623, ,0.23117895553151976
103, ,PASS, ,0.056230061, ,0.008873143895354827, ,0.02567560973878084, ,0.0005148773678700924, ,1.6666666666666667, ,0.7958890693123055, ,0.36980877941266505, ,0.21973020958755943
104, ,PASS, ,0.047791179999999996, ,0.00696636760104525, ,0.029309718952674434, ,0.00034317638162799857, ,1.6666666666666667, ,0.7538893907056012, ,0.3427481071814861, ,0.13344625619885309
105, ,PASS, ,0.019566960000000005, ,0.002847704457776105, ,0.03310656755392747, ,5.7290331016137015e-05, ,1.8333333333333333, ,0.7374037660238283, ,0.352829534091141, ,0.06485581926899452
106, ,PASS, ,0.009972819999999997, ,0.001532707823569743, ,0.03443122356625374, ,1.545912489359519e-05, ,1.9166666666666667, ,0.759585500759486, ,0.37611477316789454, ,0.03736658435542132
107, ,PASS, ,0.03628101999999998, ,0.005598685020375485, ,0.030895436700067343, ,0.00020854082586395346, ,1.8333333333333333, ,0.7577675392998003, ,0.3574620926103549, ,0.06381502418317994
108, ,PASS, ,0.053638952999999996, ,0.008665927544243288, ,0.02668199688006367, ,0.00047876097473942617, ,1.6666666666666667, ,0.8054827792131188, ,0.36646190894063385, ,0.22138323707679436
109, ,PASS, ,0.057919986099999994, ,0.009312377320699936, ,0.024793868351258137, ,0.0005567514905193246, ,1.6666666666666667, ,0.8075872762459086, ,0.37238015550703046, ,0.23007693720536315
110, ,PASS, ,0.056258476999999994, ,0.008859306350439201, ,0.025695744705822327, ,0.0005141951006352679, ,1.6666666666666667, ,0.7935144160489543, ,0.3704414195628661, ,0.21870982224852553
111, ,PASS, ,0.047059670000000005, ,0.006742419218010016, ,0.029620081785473765, ,0.0003271742484793695, ,1.6666666666666667, ,0.7455921203629875, ,0.3403195853145854, ,0.10356931491194057
112, ,PASS, ,0.018129150000000007, ,0.002614351011651862, ,0.03316878821656701, ,4.874455638660026e-05, ,1.75, ,0.7354213818472942, ,0.3520948552070366, ,0.05314177261688537
113, ,PASS, ,0.008370999999999983, ,0.0011850380941465905, ,0.03475858848411257, ,1.0030587983745208e-05, ,1.9166666666666667, ,0.7460164958018454, ,0.37905348870431216, ,0.03806044774596437
114, ,PASS, ,0.03388961, ,0.005256382306809984, ,0.03129447948041877, ,0.0001827662902214764, ,1.9166666666666667, ,0.7601756756213437, ,0.35952327503520337, ,0.07073325034182976
115, ,PASS, ,0.052645478999999995, ,0.008509096145388329, ,0.026923357125160707, ,0.00046222474855135877, ,1.6666666666666667, ,0.8083851771476315, ,0.36054366237423724, ,0.21746494969490418
116, ,PASS, ,0.0570779762, ,0.009185343398747239, ,0.025172273339319606, ,0.0005408680757031884, ,1.6666666666666667, ,0.8098667822294835, ,0.3700944878675945, ,0.2281790167547601
117, ,PASS, ,0.055456333999999996, ,0.008656515395517962, ,0.02612955868533295, ,0.0004948699496587592, ,1.6666666666666667, ,0.7790208485670183, ,0.373298504112161, ,0.2147711271198547
118, ,PASS, ,0.04496449000000002, ,0.00632340419486321, ,0.029978015354584605, ,0.00029307537795745993, ,1.6666666666666667, ,0.7402487768762706, ,0.33654415216016, ,0.07769229199404094
119, ,PASS, ,0.01432947000000001, ,0.0020657943359615066, ,0.03383148416420073, ,3.039331685950612e-05, ,1.8333333333333333, ,0.7335398596059123, ,0.3566661904859085, ,0.060937531887104344
199, ,FAIL, ,0.019683120000000023, ,0.0013968105291296798, ,0.03449503472929124, ,3.0617844287544704e-05, ,1.8333333333333333, ,0.6855589346536, ,0.39117569029203486, ,0.001122426072937287
200, ,FAIL, ,0.021322100000000007, ,0.0018140385603386444, ,0.034359583052590764, ,4.200830311821622e-05, ,1.8333333333333333, ,0.7000859033937533, ,0.38980837125772944, ,0.0016122119956735576
201, ,PASS, ,0.027342349999999998, ,0.0037672491028154236, ,0.0333666701530581, ,0.00010874008461770112, ,1.8333333333333333, ,0.8221107675406085, ,0.3876043346054162, ,0.024917858819207772
202, ,PASS, ,0.028646190000000012, ,0.0035812104915726476, ,0.03348309697618416, ,0.00010793785212957793, ,1.8333333333333333, ,0.7975289885360615, ,0.38778800432644234, ,0.01965266014979286
203, ,PASS, ,0.032898000000000004, ,0.004791629959621358, ,0.03281197377482093, ,0.00016347160357086413, ,1.8333333333333333, ,0.838935659204893, ,0.38684924797453113, ,0.03675435195200098
204, ,PASS, ,0.053372458, ,0.00801946652951405, ,0.030745256180914674, ,0.00043835019382290787, ,1.8333333333333333, ,0.9012811628675326, ,0.3905838656353952, ,0.13358911042631783
205, ,PASS, ,0.055799217, ,0.00853656900202473, ,0.030159796461296712, ,0.0004875492084918551, ,1.8333333333333333, ,0.9297559834146207, ,0.3922573008714108, ,0.2273422991367523
206, ,FAIL, ,0.09015482999999998, ,0.009547676205442994, ,0.02467905797146997, ,0.0008477884601394029, ,1.4166666666666667, ,0.6335868215273865, ,0.6703536662517091, ,0.21701597926572927
207, ,PASS, ,0.064780329, ,0.009599973112324318, ,0.027084062660884475, ,0.0006332209345165961, ,1.8333333333333333, ,0.9450110973169713, ,0.3963388502275464, ,0.3502377502499949
208, ,PASS, ,0.055522214, ,0.008032737169459628, ,0.0305939074791739, ,0.0004561672274379958, ,1.8333333333333333, ,0.9110359441020603, ,0.39231852411175283, ,0.16638435950286729
209, ,PASS, ,0.0571992794, ,0.008435802828853062, ,0.02998608765429277, ,0.0004955806602415068, ,1.8333333333333333, ,0.9293078509020599, ,0.3930327952490765, ,0.22850554070325096
210, ,PASS, ,0.053677345999999994, ,0.007309679107203209, ,0.031166990636946182, ,0.00040095553448680495, ,1.8333333333333333, ,0.8697205907373745, ,0.3913185445194996, ,0.0952225464786433
211, ,PASS, ,0.05584147899999999, ,0.008530958748788288, ,0.030096882961878332, ,0.00048793156965506275, ,1.8333333333333333, ,0.9276211132272445, ,0.3921348543907267, ,0.22195465398665334
212, ,PASS, ,0.05888525719999999, ,0.008639383732131573, ,0.02972214476603947, ,0.0005189609549403582, ,1.8333333333333333, ,0.9366221484079715, ,0.3946654149915308, ,0.2724434195220506
213, ,PASS, ,0.061300262099999996, ,0.00913835965358272, ,0.02870213820879778, ,0.0005699249328753302, ,1.8333333333333333, ,0.9446752381234997, ,0.3957674333176874, ,0.3492377706577417
214, ,PASS, ,0.064109577, ,0.009456488525609496, ,0.027582177794698067, ,0.0006165448766547383, ,1.8333333333333333, ,0.9440115533306828, ,0.3967470051631599, ,0.3496051100997939
215, ,PASS, ,0.069513728, ,0.010215577812119077, ,0.025404647759617153, ,0.0007186627609381218, ,1.8333333333333333, ,0.9417185054939432, ,0.3997265361931389, ,0.3499724495418461
216, ,PASS, ,0.06456889099999999, ,0.009734661700614043, ,0.027002743986326808, ,0.0006387888772149115, ,1.8333333333333333, ,0.944387827429607, ,0.39656333544213385, ,0.3496051100997939
217, ,PASS, ,0.06520208, ,0.009990499224986274, ,0.026470702558498805, ,0.0006622843180722375, ,1.8333333333333333, ,0.9439124691598336, ,0.3973388298197996, ,0.34938062488520644
218, ,PASS, ,0.067027056, ,0.009979457318497673, ,0.026214442497867387, ,0.0006785878491052386, ,1.8333333333333333, ,0.9426336905687503, ,0.3985428868798596, ,0.3496867410869166
219, ,PASS, ,0.062581316, ,0.009825569848794522, ,0.027265498877778002, ,0.0006247148665269959, ,1.8333333333333333, ,0.9449745060027345, ,0.39578784106446807, ,0.34862553825432135
220, ,PASS, ,0.04947544400000002, ,0.00727946779368543, ,0.03131703302571376, ,0.00036986111063988454, ,1.8333333333333333, ,0.8510015602243727, ,0.3882573825023979, ,0.05414175220913859
221, ,FAIL, ,0.07378693, ,0.010029608298791603, ,0.024715915271198544, ,0.0007407165934754623, ,1.6666666666666667, ,0.7110683710496586, ,0.5121732209546744, ,0.23721964857860045
222, ,PASS, ,0.04334234000000001, ,0.006305533692393221, ,0.03182875228097386, ,0.0002803732033618253, ,1.8333333333333333, ,0.8492954904226396, ,0.3879512663006877, ,0.04659088590028775
223, ,PASS, ,0.051473940999999995, ,0.008274501389358176, ,0.03069215119638375, ,0.00043470221139711284, ,1.9166666666666667, ,0.8971479606576337, ,0.38899206138650233, ,0.12730352441786902
224, ,PASS, ,0.044404970000000016, ,0.006893877805297523, ,0.031601180459990615, ,0.0003127810421897603, ,1.9166666666666667, ,0.8518271796949114, ,0.38654313177282096, ,0.04995816411909961
225, ,PASS, ,0.03493268000000001, ,0.005307779461076257, ,0.03258504446092937, ,0.00019126355604599492, ,1.9166666666666667, ,0.8394323449197046, ,0.38599212260974264, ,0.05175404583579927
226, ,PASS, ,0.030873570000000024, ,0.004711738034268127, ,0.03284952167384339, ,0.00015018095698726266, ,1.9166666666666667, ,0.8448754238564727, ,0.38644109303891755, ,0.04752964225219893
227, ,PASS, ,0.02381181000000001, ,0.0034310340564633513, ,0.033611151281810574, ,8.524776829195861e-05, ,1.8333333333333333, ,0.8234663794268813, ,0.3862778310646722, ,0.041672618926144364
228, ,PASS, ,0.016584899999999986, ,0.002831991794333043, ,0.03402880149425522, ,4.872958530724454e-05, ,1.9166666666666667, ,0.860403927116336, ,0.3837472704638681, ,0.059713067080263665
