Channel, ,Pass/Fail, ,Amplitude, ,Sorting Function Response, ,Mean, ,Variance, ,NPeaksRatio, ,PosIntegralRatio, ,ToT50, ,ToT99
40, ,PASS, ,0.011756140000000005, ,0.001633115990852994, ,0.03408338904042775, ,1.964966467858836e-05, ,1.8333333333333333, ,0.7415907403772125, ,0.43035856411093654, ,0.039958368196567416
41, ,PASS, ,0.013745670000000022, ,0.0021439057697155775, ,0.03400245976143344, ,2.972386125104074e-05, ,1.8333333333333333, ,0.7613450208016718, ,0.430011632415665, ,0.06281504459092671
42, ,PASS, ,0.013061150000000007, ,0.0020263781596395907, ,0.03420623834207466, ,2.6742425866692164e-05, ,1.8333333333333333, ,0.7398523907732394, ,0.423358706965164, ,0.0433052386685986
43, ,PASS, ,0.012771999999999999, ,0.001964128578530095, ,0.034251214269708785, ,2.5334641854986975e-05, ,1.8333333333333333, ,0.7454361976110304, ,0.4272157711067121, ,0.040795085814575215
44, ,PASS, ,0.012398890000000006, ,0.0018976917735797473, ,0.03418038301014266, ,2.380626197245587e-05, ,1.8333333333333333, ,0.7409634048031916, ,0.424623987265566, ,0.049896940878757574
45, ,PASS, ,0.012317790000000002, ,0.0019018504930897265, ,0.034229904087059455, ,2.3715334015193212e-05, ,1.8333333333333333, ,0.7362849158916741, ,0.4226852513214016, ,0.044488887981877924
46, ,PASS, ,0.012018440000000016, ,0.0018807859657495377, ,0.03416437127915757, ,2.2847559225446346e-05, ,1.8333333333333333, ,0.7477272883759601, ,0.42446072529132056, ,0.04346850064284402
47, ,PASS, ,0.012408080000000009, ,0.0019114503104209158, ,0.03409039589049203, ,2.3975174953184982e-05, ,1.8333333333333333, ,0.7383422211355998, ,0.4229913675231118, ,0.05085610497744944
48, ,PASS, ,0.012298730000000015, ,0.001960573555989791, ,0.03439570688067591, ,2.4332693716130987e-05, ,1.8333333333333333, ,0.7583756128272819, ,0.4260321217934328, ,0.0573661762004857
49, ,PASS, ,0.012524440000000015, ,0.0019537620115455956, ,0.03444482488887982, ,2.4760372475305594e-05, ,1.8333333333333333, ,0.7545159601496156, ,0.4254811126303545, ,0.0597742903206057
50, ,PASS, ,0.012398960000000004, ,0.0019360940627955756, ,0.03450755784126855, ,2.4266533591261055e-05, ,1.8333333333333333, ,0.7519302636735803, ,0.42578722883206466, ,0.06840676720883247
51, ,PASS, ,0.012435190000000013, ,0.0019116570315674808, ,0.034275543227077, ,2.3999697402407893e-05, ,1.8333333333333333, ,0.7402002231537601, ,0.4220322034244199, ,0.053590743046060284
52, ,PASS, ,0.012292070000000006, ,0.0019423491752730768, ,0.03433535420419992, ,2.4116364960094695e-05, ,1.8333333333333333, ,0.7409599264347891, ,0.4221750576518847, ,0.04271341401195894
53, ,PASS, ,0.012449140000000008, ,0.0019266030052221914, ,0.03433924772392401, ,2.4241931724387456e-05, ,1.8333333333333333, ,0.742445816554789, ,0.4245423562784433, ,0.035040101222424035
54, ,PASS, ,0.01234393000000001, ,0.001947118226783548, ,0.03416876467276179, ,2.4246405546245177e-05, ,1.8333333333333333, ,0.7515298378961782, ,0.4255831513642579, ,0.04473378094324606
55, ,PASS, ,0.01246518000000001, ,0.0018959421160518546, ,0.034359594226852516, ,2.3849634063238286e-05, ,1.8333333333333333, ,0.7387063268205801, ,0.42374645415399687, ,0.037019652660149796
56, ,PASS, ,0.012403930000000004, ,0.0019438655216850482, ,0.034463967411889555, ,2.434980057204893e-05, ,1.8333333333333333, ,0.7506622540004451, ,0.426399461235485, ,0.0519989387971674
57, ,PASS, ,0.012360860000000022, ,0.001938765988650396, ,0.03439339842003225, ,2.4188637115898812e-05, ,1.8333333333333333, ,0.7514148482604613, ,0.42656272320973043, ,0.07797800044897044
58, ,PASS, ,0.012242960000000015, ,0.001983307698288247, ,0.034233439978367794, ,2.4515274797454643e-05, ,1.8333333333333333, ,0.7600789808796232, ,0.42437909430419785, ,0.061019162874227054
59, ,PASS, ,0.012279570000000007, ,0.0019183083995578697, ,0.0344176339815514, ,2.379416914070643e-05, ,1.8333333333333333, ,0.7436445587881881, ,0.4233995224587253, ,0.04624395420501622
60, ,PASS, ,0.012555680000000017, ,0.0019209492424592373, ,0.034118202916675174, ,2.4361924350669123e-05, ,1.8333333333333333, ,0.7431204216619149, ,0.4271545478663701, ,0.04844799085732944
61, ,PASS, ,0.01280661000000002, ,0.0019380312290544495, ,0.034111481723842374, ,2.5139647142883417e-05, ,1.8333333333333333, ,0.7403478030949376, ,0.425195404175425, ,0.06110079386134977
62, ,PASS, ,0.01225178, ,0.0019465064623029804, ,0.034180913286055395, ,2.4138467876252076e-05, ,1.8333333333333333, ,0.7548990789543316, ,0.42401175486214565, ,0.07859023285239077
63, ,PASS, ,0.012224270000000023, ,0.0019437738233390699, ,0.03432776414603784, ,2.4000600623391284e-05, ,1.8333333333333333, ,0.7561101245981393, ,0.4248280647333728, ,0.05130507540662436
64, ,PASS, ,0.012475220000000013, ,0.0019633469793759613, ,0.034127712102202, ,2.4693486176123373e-05, ,1.8333333333333333, ,0.7600357817319128, ,0.42819534295218464, ,0.058141670578151464
65, ,PASS, ,0.012303950000000004, ,0.0019500072249792845, ,0.03427043372971981, ,2.4254225432909372e-05, ,1.8333333333333333, ,0.7539277601244182, ,0.42505254994796027, ,0.05657027407603926
66, ,PASS, ,0.012359380000000017, ,0.0019626533137435094, ,0.03427403483337075, ,2.4514585136637005e-05, ,1.8333333333333333, ,0.753267499780257, ,0.4246443950123467, ,0.05732536070692435
67, ,PASS, ,0.01215297000000002, ,0.0019368299116669892, ,0.03426362206669252, ,2.3829105898640617e-05, ,1.8333333333333333, ,0.7554625832834464, ,0.42744025632129956, ,0.05587641068549622
68, ,PASS, ,0.012447910000000024, ,0.001971260430712559, ,0.0341622418866962, ,2.4791458216479154e-05, ,1.8333333333333333, ,0.7534223383149862, ,0.4238076773943389, ,0.04489704291749148
69, ,PASS, ,0.012507490000000013, ,0.0019353866409245306, ,0.03419117050284689, ,2.4517619791314306e-05, ,1.8333333333333333, ,0.7411446669649782, ,0.42284851329564704, ,0.016530274892349137
70, ,PASS, ,0.012453360000000021, ,0.001963901149163768, ,0.03423482962225261, ,2.4750309003010356e-05, ,1.8333333333333333, ,0.7562698488550929, ,0.42368523091365484, ,0.06354972347503113
71, ,PASS, ,0.012328180000000011, ,0.0019619524619105882, ,0.03423604826493337, ,2.4421525935775313e-05, ,1.8333333333333333, ,0.7497825194686397, ,0.42476684149303073, ,0.044509295728658596
72, ,PASS, ,0.012413870000000014, ,0.0019653131794195623, ,0.034197152773820946, ,2.463317916734405e-05, ,1.8333333333333333, ,0.757195116081654, ,0.4233995224587253, ,0.05779473888287994
73, ,PASS, ,0.01250637000000001, ,0.0019178700546903424, ,0.03399954062284444, ,2.4251949440042643e-05, ,1.8333333333333333, ,0.7407167578661848, ,0.42356278443297074, ,0.041162425256627416
74, ,PASS, ,0.012235780000000009, ,0.0019386589867247859, ,0.0342262304130528, ,2.396498205099114e-05, ,1.8333333333333333, ,0.7515504782440467, ,0.4253790738964511, ,0.03291769555723353
75, ,PASS, ,0.012396360000000009, ,0.001905546737630166, ,0.034259228320442446, ,2.38786908146295e-05, ,1.8333333333333333, ,0.7349628298174823, ,0.4222362808922267, ,0.027489234913573194
76, ,PASS, ,0.012522080000000012, ,0.0019461300616497633, ,0.034148855447439855, ,2.4615660135217046e-05, ,1.8333333333333333, ,0.7459067572779471, ,0.4223179118793494, ,0.04112160976306606
77, ,PASS, ,0.012562080000000017, ,0.001969865555310987, ,0.03409845849962246, ,2.4986042706203463e-05, ,1.8333333333333333, ,0.7552443177312513, ,0.422215873145446, ,0.05424379094304198
78, ,PASS, ,0.012883740000000032, ,0.0020366770005417457, ,0.03415599128221874, ,2.653721852012014e-05, ,1.8333333333333333, ,0.7550978893189894, ,0.42450154078488195, ,0.051488745127650455
79, ,PASS, ,0.01376514000000002, ,0.0022054487822054433, ,0.03413005816064979, ,3.0588221707484056e-05, ,1.8333333333333333, ,0.7681685898635968, ,0.4280524887247199, ,0.07146792922593416
112, ,PASS, ,0.012179220000000001, ,0.001959342660514178, ,0.03404227253362177, ,2.4123748154369006e-05, ,1.8333333333333333, ,0.7633405612022878, ,0.42409338584926837, ,0.06665170098569417
113, ,PASS, ,0.012499660000000006, ,0.0019829059645531536, ,0.034272492810350816, ,2.5057857053567314e-05, ,1.8333333333333333, ,0.7586461567728409, ,0.4231342217505765, ,0.06752923409726332
114, ,PASS, ,0.012393920000000013, ,0.0019845923147058346, ,0.0340604949425522, ,2.484531599202073e-05, ,1.8333333333333333, ,0.7655230197433309, ,0.4225832125874982, ,0.06081508540642028
115, ,PASS, ,0.012444390000000013, ,0.001918935371225061, ,0.034124415549478586, ,2.4178961734872917e-05, ,1.8333333333333333, ,0.74458833595151, ,0.4202771372012816, ,0.039550213260953856
116, ,PASS, ,0.01268958000000001, ,0.0019940896606232958, ,0.03408878150670395, ,2.562162700516282e-05, ,1.8333333333333333, ,0.7535352058916626, ,0.42323626048447993, ,0.051876492316483336
117, ,PASS, ,0.012662080000000006, ,0.001998281634342316, ,0.0340589436048244, ,2.5556260224014548e-05, ,1.8333333333333333, ,0.7543800635992003, ,0.4231546294973572, ,0.0623660741617518
118, ,PASS, ,0.01273881000000001, ,0.0020315045559136957, ,0.03412719114262975, ,2.615816605214964e-05, ,1.8333333333333333, ,0.7556876743510792, ,0.4214811942613416, ,0.053162180363666045
119, ,PASS, ,0.012841890000000019, ,0.0020915681141794955, ,0.03396990317973103, ,2.7122581215271558e-05, ,1.8333333333333333, ,0.7785229252608011, ,0.4255831513642579, ,0.055080508561049776
120, ,PASS, ,0.012987040000000019, ,0.00204421207380636, ,0.03419109174057673, ,2.6864267277281334e-05, ,1.8333333333333333, ,0.7499209832745592, ,0.4225628048407175, ,0.04665210914062978
121, ,PASS, ,0.012903189999999998, ,0.0020705492530704215, ,0.03387437733148304, ,2.7000161083196118e-05, ,1.8333333333333333, ,0.7650703772223323, ,0.4242974633170752, ,0.0633864615007857
122, ,PASS, ,0.012697759999999992, ,0.0019995674615087907, ,0.03436712180465706, ,2.5678041725541608e-05, ,1.8333333333333333, ,0.7530914246163805, ,0.42144037876778023, ,0.043182792187914536
123, ,PASS, ,0.012620530000000012, ,0.0019879572903144425, ,0.03398294834085019, ,2.532405561904144e-05, ,1.8333333333333333, ,0.7642338877796503, ,0.423991347115365, ,0.06136609456949858
124, ,PASS, ,0.0124609, ,0.001964350267404586, ,0.03417033177649437, ,2.4761716241368636e-05, ,1.8333333333333333, ,0.7472087092140038, ,0.4217873104630518, ,0.04669292463419114
125, ,PASS, ,0.012848330000000008, ,0.002000683009123615, ,0.03409375604395829, ,2.603373064575088e-05, ,1.8333333333333333, ,0.7613769246149831, ,0.4225015816003755, ,0.0686516601702006
126, ,PASS, ,0.01251617000000001, ,0.002011554364622961, ,0.03403337598742883, ,2.548268770889521e-05, ,1.8333333333333333, ,0.7615702637903886, ,0.42241995061325277, ,0.06226403542784841
127, ,PASS, ,0.01268137, ,0.001996177522791725, ,0.03409159618681252, ,2.561139222572294e-05, ,1.8333333333333333, ,0.7517146398997395, ,0.4221954653986653, ,0.04965204791738944
128, ,PASS, ,0.012603619999999992, ,0.0019997991609065477, ,0.03433962221322014, ,2.5485933302058095e-05, ,1.8333333333333333, ,0.7569371362572781, ,0.42105263157894735, ,0.05501928532070774
129, ,PASS, ,0.012996730000000012, ,0.0020446543893241718, ,0.03438177901634661, ,2.689487343161662e-05, ,1.8333333333333333, ,0.7600520597488533, ,0.4213587477806575, ,0.06293749107161078
130, ,PASS, ,0.013021290000000005, ,0.0020478022341586075, ,0.0343556765637436, ,2.6951658698035322e-05, ,1.8333333333333333, ,0.7609455294541724, ,0.422154649905104, ,0.04928470847533724
131, ,PASS, ,0.012927540000000015, ,0.002065220637309009, ,0.03426456728311668, ,2.7002903372080645e-05, ,1.8333333333333333, ,0.7611662853626309, ,0.4221342421583233, ,0.04628476969857758
132, ,PASS, ,0.012942390000000005, ,0.0020933585071994535, ,0.03426848616028245, ,2.739248523572785e-05, ,1.8333333333333333, ,0.7639226799072177, ,0.42193016469051653, ,0.04936633946245995
133, ,PASS, ,0.013021639999999994, ,0.002079790517386892, ,0.03417843243015449, ,2.7452822798771035e-05, ,1.8333333333333333, ,0.7632369637196406, ,0.4227668823085243, ,0.04797861268137385
134, ,PASS, ,0.013200790000000007, ,0.0020996237884228523, ,0.03431371370788352, ,2.802122010724094e-05, ,1.8333333333333333, ,0.7535254678590755, ,0.42076692312401787, ,0.04926430072855656
135, ,PASS, ,0.013170150000000005, ,0.0020541549366191896, ,0.03426082312544643, ,2.739321438880472e-05, ,1.9166666666666667, ,0.7587461279475775, ,0.41911389563478296, ,0.05728454521336299
136, ,PASS, ,0.012952200000000021, ,0.002076728979259812, ,0.034510313475235206, ,2.7188936644066338e-05, ,1.8333333333333333, ,0.7617434063329932, ,0.4210322238321667, ,0.049488785943144015
137, ,PASS, ,0.01299457000000001, ,0.00208370313190143, ,0.03418852430725904, ,2.734067759348416e-05, ,1.8333333333333333, ,0.7645122036548372, ,0.4214199710209996, ,0.03857064141548132
138, ,PASS, ,0.013000710000000016, ,0.0020912855030923595, ,0.034191454752352, ,2.748213155365325e-05, ,1.8333333333333333, ,0.7593360266328745, ,0.4212158935531928, ,0.049896940878757574
139, ,PASS, ,0.012962669999999999, ,0.00203300639257109, ,0.034395045692332815, ,2.66433221770345e-05, ,1.8333333333333333, ,0.7541397657830108, ,0.42041999142874636, ,0.05010101834656436
140, ,PASS, ,0.012753170000000015, ,0.002036467903165813, ,0.03408069337870656, ,2.6232435061123235e-05, ,1.8333333333333333, ,0.7601254845319801, ,0.4198281667721067, ,0.04387665557845758
141, ,PASS, ,0.013234760000000005, ,0.0020537821865389116, ,0.03444147177771883, ,2.7570261720965635e-05, ,1.9166666666666667, ,0.7666029285170286, ,0.42319544499091855, ,0.06608028407583519
142, ,PASS, ,0.013031810000000012, ,0.002055177565298411, ,0.03425076146956185, ,2.710223078206566e-05, ,1.8333333333333333, ,0.7659762033759697, ,0.4216648639823677, ,0.04889696128650436
143, ,PASS, ,0.012906970000000018, ,0.002046975825892351, ,0.034316016177629034, ,2.6747839569119606e-05, ,1.9166666666666667, ,0.7553422065449521, ,0.4181547315360911, ,0.034631946286810475
176, ,PASS, ,0.013143760000000018, ,0.0020694270926336095, ,0.03413343961286505, ,2.7550527448943854e-05, ,1.8333333333333333, ,0.7531401148159028, ,0.42005265198669417, ,0.048203097895961305
177, ,PASS, ,0.013471310000000021, ,0.0021102843732082746, ,0.03431316674435216, ,2.8767269005300522e-05, ,1.9166666666666667, ,0.755673935045413, ,0.4200322442399135, ,0.037182914634395214
178, ,PASS, ,0.013359860000000008, ,0.0021055486782361353, ,0.0343425268237383, ,2.8441563417752175e-05, ,1.8333333333333333, ,0.7611400798454845, ,0.42078733087079856, ,0.0550601008142691
179, ,PASS, ,0.01329692000000001, ,0.0020919351482070214, ,0.03412208800391829, ,2.816215483438681e-05, ,1.8333333333333333, ,0.7513462394154989, ,0.4179914695618457, ,0.05414175220913859
180, ,PASS, ,0.01347911000000002, ,0.0021143135106704096, ,0.034275249327156594, ,2.8800738778489436e-05, ,1.8333333333333333, ,0.7605786701041047, ,0.4196853125446419, ,0.04726434154405012
181, ,PASS, ,0.013339910000000017, ,0.0021263939945982257, ,0.034258671341809356, ,2.868280559353643e-05, ,1.9166666666666667, ,0.7582496257035736, ,0.41893022591375684, ,0.049896940878757574
182, ,PASS, ,0.013438460000000013, ,0.002149441821140012, ,0.0340558285726822, ,2.920020197278593e-05, ,1.8333333333333333, ,0.7618128255833806, ,0.42070569988367584, ,0.04030529989183894
183, ,PASS, ,0.013376730000000003, ,0.0021393541744018953, ,0.034169060818758805, ,2.8937734750973074e-05, ,1.9166666666666667, ,0.7620711237160839, ,0.41995061325279076, ,0.054713169118997575
184, ,PASS, ,0.013430370000000014, ,0.002149122120929228, ,0.03423570834329912, ,2.917489262007391e-05, ,1.8333333333333333, ,0.7645461293495073, ,0.4197261280382033, ,0.051100997938817574
185, ,PASS, ,0.01337936000000001, ,0.002152313215769176, ,0.034250613116262936, ,2.9126988013246956e-05, ,1.9166666666666667, ,0.7673095026202559, ,0.4204812146690884, ,0.03481561600783657
186, ,PASS, ,0.013618830000000002, ,0.0021457523501929037, ,0.03418173169567968, ,2.952418566536068e-05, ,1.8333333333333333, ,0.7443643476072453, ,0.42327707597804126, ,0.053100957123324015
187, ,PASS, ,0.013269790000000017, ,0.002115423554214765, ,0.034307260234893174, ,2.8509041823441423e-05, ,1.8333333333333333, ,0.7586090452293661, ,0.4248280647333728, ,0.04632558519213894
188, ,PASS, ,0.013865700000000022, ,0.00222236747735556, ,0.03402813429501439, ,3.115995888275556e-05, ,1.8333333333333333, ,0.7719599149261371, ,0.4205628456562111, ,0.053182588110446724
189, ,PASS, ,0.013788930000000019, ,0.002217111938730027, ,0.03416207638680843, ,3.088426818257921e-05, ,1.8333333333333333, ,0.7672421813813228, ,0.4207465153772372, ,0.056039672659741635
190, ,PASS, ,0.023824349999999998, ,0.003868849026571315, ,0.03396053053815228, ,9.22679532807925e-05, ,1.75, ,0.7645573762354702, ,0.4406236607416175, ,0.10440603252994837
191, ,PASS, ,0.05695465799999998, ,0.008590791313535446, ,0.03364304006803943, ,0.0004889687274977488, ,1.75, ,0.726835886055553, ,0.45280708556968224, ,0.11295687843105243
192, ,PASS, ,0.018051970000000014, ,0.0029002071031443153, ,0.03392792566723128, ,5.293779062575363e-05, ,1.8333333333333333, ,0.7616480949692862, ,0.4226036203342789, ,0.06314156853941756
193, ,PASS, ,0.01756433000000001, ,0.0028376992659306546, ,0.033678981962204854, ,5.0416022951484544e-05, ,1.8333333333333333, ,0.7686968336652975, ,0.4222362808922267, ,0.06022326074978061
194, ,PASS, ,0.01768877999999999, ,0.002796870316332619, ,0.033852245588661456, ,5.006430567794798e-05, ,1.8333333333333333, ,0.7531569847530328, ,0.4207465153772372, ,0.05250913246668435
195, ,PASS, ,0.01733998000000001, ,0.002778737112495327, ,0.034053289940817535, ,4.870069581402175e-05, ,1.8333333333333333, ,0.7592911735416523, ,0.42107303932572804, ,0.058529417766984344
196, ,PASS, ,0.01750681000000001, ,0.0027825418492697035, ,0.03387420689434909, ,4.929021222208897e-05, ,1.8333333333333333, ,0.7553158740103673, ,0.42280769780208566, ,0.05732536070692435
197, ,PASS, ,0.017670160000000008, ,0.002803563552021015, ,0.03386065863390543, ,5.012460844287932e-05, ,1.8333333333333333, ,0.750914109212227, ,0.4177873920940389, ,0.05057039652251995
198, ,PASS, ,0.017557620000000017, ,0.002772087066057239, ,0.03390032768657783, ,4.925345155451386e-05, ,1.8333333333333333, ,0.7541246196215565, ,0.4226036203342789, ,0.05418256770269995
199, ,PASS, ,0.01751921, ,0.0027958874659950402, ,0.03376923614946634, ,4.954012897364672e-05, ,1.8333333333333333, ,0.758035618387376, ,0.42239954286647213, ,0.06136609456949858
200, ,PASS, ,0.017596330000000014, ,0.002822007372172179, ,0.03400964925164793, ,5.0228887684150315e-05, ,1.8333333333333333, ,0.7580578096061117, ,0.42152200975490295, ,0.058366155792738926
201, ,PASS, ,0.017341690000000007, ,0.002772124738421529, ,0.033744562260157956, ,4.8599317983764645e-05, ,1.8333333333333333, ,0.7576710184277143, ,0.4212771167935348, ,0.040060406930470804
202, ,PASS, ,0.01738799, ,0.002767152964109623, ,0.03400154317299647, ,4.868944719161363e-05, ,1.8333333333333333, ,0.7583867543382202, ,0.4222566886390074, ,0.035489071651598945
203, ,PASS, ,0.017361419999999992, ,0.002777667068960624, ,0.03386972422399543, ,4.876886815053795e-05, ,1.8333333333333333, ,0.7574198274137071, ,0.42331789147160265, ,0.055570294483786045
204, ,PASS, ,0.017357329999999997, ,0.0027800748758851556, ,0.033855553873594416, ,4.878830982174016e-05, ,1.8333333333333333, ,0.7602857323754159, ,0.4219505724372972, ,0.0417338421664864
205, ,PASS, ,0.01721032000000002, ,0.0027526198464057016, ,0.03379182894410319, ,4.7964708983320854e-05, ,1.8333333333333333, ,0.7609588691116042, ,0.42209342666476196, ,0.05038672680149385
206, ,PASS, ,0.017379910000000005, ,0.0027694868237048706, ,0.033918421516703746, ,4.869495983490323e-05, ,1.8333333333333333, ,0.7557197479790444, ,0.4226852513214016, ,0.04132568723087284
207, ,PASS, ,0.017382130000000003, ,0.0026932791771798995, ,0.03382374838166568, ,4.740777154434728e-05, ,1.8333333333333333, ,0.7532390778000678, ,0.4218689414501745, ,0.04993775637231893
208, ,PASS, ,0.017266649999999998, ,0.0027684748471586097, ,0.03404554653782576, ,4.8316607382608594e-05, ,1.8333333333333333, ,0.763395052999363, ,0.422787290055305, ,0.05667231280994266
209, ,PASS, ,0.017312480000000005, ,0.002782094133892552, ,0.03381208835942124, ,4.875244469420106e-05, ,1.8333333333333333, ,0.7615543099024135, ,0.4205220301626497, ,0.0621824044407257
210, ,PASS, ,0.01739339000000002, ,0.0027598532066111883, ,0.03398183341115488, ,4.85909378731695e-05, ,1.8333333333333333, ,0.7632525980854642, ,0.423358706965164, ,0.05491724658680435
211, ,PASS, ,0.017307110000000025, ,0.0027718693013157178, ,0.03401569118120039, ,4.862899895612229e-05, ,1.8333333333333333, ,0.7617390469959023, ,0.4264810922226077, ,0.05195812330360605
212, ,PASS, ,0.017326950000000008, ,0.0027740873510527326, ,0.033945763364625216, ,4.862589692153899e-05, ,1.8333333333333333, ,0.7617681579498559, ,0.42356278443297074, ,0.05330503459113079
213, ,PASS, ,0.01740159000000002, ,0.0027789812284038083, ,0.03406027719577152, ,4.897138238953985e-05, ,1.8333333333333333, ,0.7606334259213272, ,0.4221138344115426, ,0.05373359727352503
214, ,PASS, ,0.017206040000000002, ,0.0027890436087625536, ,0.033738848992469546, ,4.8524506008107944e-05, ,1.8333333333333333, ,0.7719380285854585, ,0.42403216260892634, ,0.0538560437542091
215, ,PASS, ,0.017437650000000016, ,0.0027540369463085936, ,0.03409827558498806, ,4.86476488048925e-05, ,1.8333333333333333, ,0.7553174224974731, ,0.42160364074202566, ,0.05291728740229791
216, ,PASS, ,0.017604709999999996, ,0.002831239957279439, ,0.03376139821003653, ,5.0403402855708846e-05, ,1.8333333333333333, ,0.7568378088724632, ,0.4218281259566131, ,0.04671333238097182
217, ,PASS, ,0.0174164, ,0.002819542115704291, ,0.03390031857921267, ,4.992003881840569e-05, ,1.75, ,0.7708981323696116, ,0.4316646599048999, ,0.06436603334625823
218, ,PASS, ,0.018027420000000006, ,0.002872105857169401, ,0.0338816508912063, ,5.23394262320334e-05, ,1.8333333333333333, ,0.755015503303287, ,0.4229505520295504, ,0.0389583886043142
219, ,PASS, ,0.018291919999999993, ,0.002928051923627492, ,0.03392154452460154, ,5.412025903159891e-05, ,1.8333333333333333, ,0.7646512989206798, ,0.42525662741576703, ,0.04587661476296402
220, ,PASS, ,0.01746683000000001, ,0.002808967222291356, ,0.03402618868819004, ,4.96721858247777e-05, ,1.8333333333333333, ,0.7612862356348132, ,0.42158323299524497, ,0.05512132405461113
221, ,PASS, ,0.01749478000000002, ,0.0028121285262836682, ,0.03381550809656946, ,4.978312649389033e-05, ,1.8333333333333333, ,0.761707927753011, ,0.42072610763045654, ,0.0621824044407257
222, ,PASS, ,0.017437320000000017, ,0.002808832129548068, ,0.03405447262423216, ,4.9551727455094095e-05, ,1.8333333333333333, ,0.7651647451838927, ,0.4225219893471562, ,0.05412134446235791
223, ,PASS, ,0.017534649999999992, ,0.0027916437400221255, ,0.033821189252056086, ,4.949607363858449e-05, ,1.8333333333333333, ,0.760467172757112, ,0.4247872492398114, ,0.060080406522315874
224, ,PASS, ,0.017468600000000018, ,0.0028190255926959355, ,0.03387723681720781, ,4.977038352700787e-05, ,1.8333333333333333, ,0.7629419395664591, ,0.42366482316687415, ,0.04499908165139487
225, ,PASS, ,0.017612839999999994, ,0.0028297492816343546, ,0.0337705285943144, ,5.0393095035441956e-05, ,1.8333333333333333, ,0.7699584058403794, ,0.4225832125874982, ,0.05881512622191384
226, ,PASS, ,0.017682170000000007, ,0.002803757433783793, ,0.03416152409685517, ,5.020096637442717e-05, ,1.8333333333333333, ,0.7558742601571586, ,0.42144037876778023, ,0.060835493153200956
227, ,PASS, ,0.017778199999999997, ,0.0028714564899943447, ,0.03380893911879349, ,5.1673887258583795e-05, ,1.8333333333333333, ,0.7681686947528673, ,0.42233831962613005, ,0.05881512622191384
228, ,PASS, ,0.017787560000000004, ,0.0028553855407568254, ,0.03394564417542499, ,5.140240723450313e-05, ,1.8333333333333333, ,0.7587901031412213, ,0.4217056794759291, ,0.053549927552498926
229, ,PASS, ,0.017559640000000015, ,0.0028223209476354663, ,0.03378973796820473, ,5.017645905753202e-05, ,1.8333333333333333, ,0.7611837752496524, ,0.419236342115467, ,0.059243688904308076
230, ,PASS, ,0.017650840000000004, ,0.002817377401985622, ,0.03379301004918267, ,5.03524477543786e-05, ,1.8333333333333333, ,0.7596059829011491, ,0.42193016469051653, ,0.05873349523479113
231, ,PASS, ,0.017521880000000017, ,0.002800343375595288, ,0.03386484613885431, ,4.961551891981926e-05, ,1.8333333333333333, ,0.760553451701979, ,0.4204812146690884, ,0.05130507540662436
232, ,PASS, ,0.017779910000000006, ,0.0027886639129558063, ,0.033826251824656636, ,5.015426527616237e-05, ,1.8333333333333333, ,0.7501335555248485, ,0.41819554702965245, ,0.044448072488316566
233, ,PASS, ,0.017738820000000016, ,0.0028344051634071883, ,0.03393329117528214, ,5.08690565566615e-05, ,1.8333333333333333, ,0.7577056558713068, ,0.42080773861757925, ,0.05293769514907859
234, ,PASS, ,0.017688900000000014, ,0.002819020223832875, ,0.03391399463398706, ,5.046451855405157e-05, ,1.8333333333333333, ,0.7505302930346958, ,0.4200934674802555, ,0.04516234362564029
235, ,PASS, ,0.01771648000000001, ,0.002835473394734615, ,0.033780883002795865, ,5.0815565394192064e-05, ,1.8333333333333333, ,0.7590721751171491, ,0.4208485541111406, ,0.06595783759515111
236, ,PASS, ,0.018014480000000013, ,0.0028945219874148115, ,0.033962837953511155, ,5.274554221690053e-05, ,1.8333333333333333, ,0.7587133223595733, ,0.42070569988367584, ,0.04289708373298504
237, ,PASS, ,0.01812535, ,0.002872337983285927, ,0.03386939582049346, ,5.2711747125659995e-05, ,1.8333333333333333, ,0.7540091205274072, ,0.41995061325279076, ,0.05083569723066876
238, ,PASS, ,0.01793631000000001, ,0.0028646354702017533, ,0.03378494449358176, ,5.202330836079691e-05, ,1.8333333333333333, ,0.763373147494445, ,0.4214607865145609, ,0.06138650231627926
239, ,PASS, ,0.017974739999999986, ,0.0028562694772985304, ,0.03371402400461215, ,5.191428955389363e-05, ,1.8333333333333333, ,0.7595116092310413, ,0.41874655619273077, ,0.04930511622211792
240, ,PASS, ,0.018048740000000014, ,0.0028334529896072874, ,0.03392944854390727, ,5.186401622100828e-05, ,1.8333333333333333, ,0.7553254596921167, ,0.41860370196526603, ,0.053407073325034186
241, ,PASS, ,0.017943920000000002, ,0.0028448929409671136, ,0.03398201287177813, ,5.1604864298117263e-05, ,1.9166666666666667, ,0.7550368746144932, ,0.4273178098406155, ,0.02275463766045591
242, ,PASS, ,0.018422650000000002, ,0.00281618509078688, ,0.03396790032938103, ,5.2646724031994655e-05, ,1.9166666666666667, ,0.7492418608165949, ,0.4206240688965531, ,0.04906022326074978
243, ,PASS, ,0.018030530000000013, ,0.002871007743881931, ,0.033895250144895, ,5.237373137089564e-05, ,1.8333333333333333, ,0.7584961610650942, ,0.41939960408971244, ,0.051488745127650455
244, ,PASS, ,0.017993559999999995, ,0.0028712862914177235, ,0.03391517210730393, ,5.225075825092155e-05, ,1.8333333333333333, ,0.759002947338859, ,0.42005265198669417, ,0.04144813371155691
245, ,PASS, ,0.0178855, ,0.0029012214559807513, ,0.033643765029489195, ,5.259251801127777e-05, ,1.8333333333333333, ,0.7648862232382637, ,0.4206240688965531, ,0.05634578886145181
246, ,PASS, ,0.018201750000000006, ,0.002889104646351477, ,0.0339579220387339, ,5.322854507679626e-05, ,1.8333333333333333, ,0.7584189380569119, ,0.42105263157894735, ,0.04601946899042877
247, ,PASS, ,0.01849221, ,0.002999345457037245, ,0.03385106814371135, ,5.6092823677794994e-05, ,1.8333333333333333, ,0.7693586414265811, ,0.4251137731883023, ,0.06381502418317994
248, ,PASS, ,0.018237760000000006, ,0.0028992628622923427, ,0.03375186124711741, ,5.344672089620005e-05, ,1.8333333333333333, ,0.7664410833690375, ,0.4222362808922267, ,0.04908063100753046
249, ,PASS, ,0.018192340000000005, ,0.0029105623980929776, ,0.03373965777718822, ,5.358510520321954e-05, ,1.8333333333333333, ,0.7604740853848632, ,0.4201138752270362, ,0.05379482051386707
250, ,PASS, ,0.01868885999999999, ,0.0029925094265737134, ,0.03401985961286504, ,5.663141031817458e-05, ,1.8333333333333333, ,0.7634376204287314, ,0.42078733087079856, ,0.05826411705883553
251, ,PASS, ,0.01894815999999999, ,0.003035511677642684, ,0.03364980334503378, ,5.822268048947268e-05, ,1.8333333333333333, ,0.7602959709573279, ,0.42068529213689515, ,0.056468235342135874
252, ,PASS, ,0.01802929000000001, ,0.0028579742565615477, ,0.03392139192322605, ,5.217543238684498e-05, ,1.9166666666666667, ,0.759906898543923, ,0.4200118364931328, ,0.05671312830350401
253, ,PASS, ,0.018925339999999995, ,0.003020797133383341, ,0.03366901438358401, ,5.781357171275005e-05, ,1.8333333333333333, ,0.7617950413124717, ,0.4199914287463521, ,0.042529744290932835
254, ,PASS, ,0.033313090000000004, ,0.005667445301215538, ,0.0333732472420971, ,0.00018950004470560797, ,1.75, ,0.7856276055212398, ,0.4359094712352809, ,0.09028387175771924
255, ,PASS, ,0.14788254, ,0.023750787184883958, ,0.030112996822411784, ,0.003515778947279734, ,1.9166666666666667, ,0.7548288476597487, ,0.4515622130160609, ,0.16669047570457746
