Channel, ,Pass/Fail, ,Amplitude, ,Sorting Function Response, ,Mean, ,Variance, ,NPeaksRatio, ,PosIntegralRatio, ,ToT50, ,ToT99
40, ,PASS, ,0.015118710000000007, ,0.0020854424647582114, ,0.037301810239791025, ,3.231266500441216e-05, ,1.75, ,0.7580303872589513, ,0.6179261647721475, ,0.025346421501602007
41, ,PASS, ,0.018095119999999992, ,0.002790127188771414, ,0.03776744113732373, ,5.1364528905099295e-05, ,1.8333333333333333, ,0.7836468466113254, ,0.609212056896798, ,0.04999897961266097
42, ,PASS, ,0.017645120000000014, ,0.0027308720833475004, ,0.03758284023203608, ,4.9151750050836874e-05, ,1.8333333333333333, ,0.7928909114697043, ,0.6134160527336177, ,0.05954980510601825
43, ,PASS, ,0.017386400000000024, ,0.0027002924394899162, ,0.037431914101753026, ,4.787361571532289e-05, ,1.8333333333333333, ,0.7963216170209433, ,0.6108242688924715, ,0.08010040611416093
44, ,PASS, ,0.01697888000000002, ,0.002621120204583338, ,0.03740873518173099, ,4.533378350764106e-05, ,1.8333333333333333, ,0.7944201266908725, ,0.6098855125405604, ,0.062121181200383666
45, ,PASS, ,0.016871839999999996, ,0.002614036903631702, ,0.03738621251239771, ,4.504195741500879e-05, ,1.8333333333333333, ,0.7970001837876819, ,0.616375176016816, ,0.08140650190812432
46, ,PASS, ,0.016891760000000016, ,0.0025911677202434956, ,0.03750364224607661, ,4.4611041962625544e-05, ,1.8333333333333333, ,0.7986903910356509, ,0.6130283055447848, ,0.07924328074937247
47, ,PASS, ,0.01679888, ,0.0025925573150203805, ,0.03769981290341014, ,4.442816322308369e-05, ,1.8333333333333333, ,0.7849480395082884, ,0.6117222097508214, ,0.04101957102916267
48, ,PASS, ,0.016901600000000017, ,0.002578776640043578, ,0.03760642381257525, ,4.441602092452325e-05, ,1.8333333333333333, ,0.7875819453382239, ,0.6126405583559519, ,0.053080549376543336
49, ,PASS, ,0.016926320000000016, ,0.0026404822611347366, ,0.03752187363319116, ,4.558515946383298e-05, ,1.8333333333333333, ,0.801727273760159, ,0.6139262464031346, ,0.11022224036244159
50, ,PASS, ,0.01716152, ,0.0026442928286562147, ,0.03757466888247179, ,4.629272592280216e-05, ,1.8333333333333333, ,0.796754415049943, ,0.6131915675190303, ,0.0770800595906206
51, ,PASS, ,0.01712504000000002, ,0.0026690826563045503, ,0.03734633212832392, ,4.656639682609305e-05, ,1.8333333333333333, ,0.7951118321290545, ,0.6083141160384482, ,0.06918226158649823
52, ,PASS, ,0.01723400000000001, ,0.0027079541769995594, ,0.03754666605416216, ,4.758582809610753e-05, ,1.8333333333333333, ,0.804695404856032, ,0.6142935858451868, ,0.11042631783024837
53, ,PASS, ,0.01728848000000001, ,0.002649846416253389, ,0.037521353572172, ,4.66972423447845e-05, ,1.8333333333333333, ,0.7977255276674052, ,0.6111507928409624, ,0.07265157853921349
54, ,PASS, ,0.01738952000000001, ,0.0026994380997996717, ,0.03746381839472664, ,4.782490733193365e-05, ,1.8333333333333333, ,0.7983976069628308, ,0.6099875512744638, ,0.07044754188690026
55, ,PASS, ,0.017269760000000006, ,0.0026802343890930877, ,0.03740620123017897, ,4.7158866987094176e-05, ,1.8333333333333333, ,0.8054448209470576, ,0.6130487132915655, ,0.10720189383890125
56, ,PASS, ,0.017481680000000013, ,0.0026950223276054953, ,0.037436337764943574, ,4.809362400402947e-05, ,1.8333333333333333, ,0.7973269158688816, ,0.6151507112099753, ,0.04757045774576029
57, ,PASS, ,0.01766888000000002, ,0.002708258825647019, ,0.03735229996020489, ,4.876490666837699e-05, ,1.8333333333333333, ,0.7947797028417799, ,0.6122936266606804, ,0.04061141609354911
58, ,PASS, ,0.017475440000000016, ,0.00273914143616105, ,0.03743416694557254, ,4.877955970617634e-05, ,1.8333333333333333, ,0.8032555365020202, ,0.6123140344074611, ,0.10589579804493786
59, ,PASS, ,0.017517440000000013, ,0.0027384717972253445, ,0.03759671384522765, ,4.885078825115737e-05, ,1.8333333333333333, ,0.7889228779752799, ,0.6094161343646048, ,0.0621824044407257
60, ,PASS, ,0.017811920000000002, ,0.002748978049760931, ,0.03749824116834351, ,4.990298112377293e-05, ,1.8333333333333333, ,0.7931848073807007, ,0.6104977449439807, ,0.04675414787453317
61, ,PASS, ,0.018018079999999992, ,0.0027821701499956917, ,0.03761756692740965, ,5.100250498673053e-05, ,1.8333333333333333, ,0.7982568890234198, ,0.6094977653517275, ,0.08228403501969347
62, ,PASS, ,0.017806399999999993, ,0.002806366657527914, ,0.03753652541866492, ,5.083621189134192e-05, ,1.8333333333333333, ,0.8038313268679727, ,0.6127834125834166, ,0.1233444215424175
63, ,PASS, ,0.01796672000000001, ,0.0027516992546301987, ,0.037473188449827555, ,5.0353987662880894e-05, ,1.8333333333333333, ,0.7964057877257191, ,0.6115793555233566, ,0.05995796004163181
64, ,PASS, ,0.01788320000000001, ,0.00276268924687188, ,0.037706436665782335, ,5.0397562391387866e-05, ,1.8333333333333333, ,0.7967261394898857, ,0.6127834125834166, ,0.06265178261668129
65, ,PASS, ,0.01800272, ,0.0027795342731628068, ,0.037574225129079, ,5.1036485226196446e-05, ,1.8333333333333333, ,0.7958235185757673, ,0.6138446154160119, ,0.06491704250933654
66, ,PASS, ,0.017863040000000007, ,0.0027701414765692422, ,0.03733449286341095, ,5.044746439999592e-05, ,1.8333333333333333, ,0.7971880392316087, ,0.6116813942572601, ,0.08089630823860737
67, ,PASS, ,0.017721920000000016, ,0.002752930233069033, ,0.037518119115120104, ,4.967265278234433e-05, ,1.8333333333333333, ,0.8018142807896548, ,0.6133548294932757, ,0.0878145343972572
68, ,PASS, ,0.017852480000000018, ,0.002766603540106018, ,0.037463441173037286, ,5.0416268163257875e-05, ,1.8333333333333333, ,0.7922468611332537, ,0.6148037795147038, ,0.053937674741331806
69, ,PASS, ,0.01794392, ,0.002774419140693594, ,0.03759232334952348, ,5.07126050378644e-05, ,1.8333333333333333, ,0.7897598634531934, ,0.6112120160813045, ,0.05330503459113079
70, ,PASS, ,0.017925679999999992, ,0.002802280043969978, ,0.037696673549723475, ,5.1145675818969064e-05, ,1.8333333333333333, ,0.7932639948528679, ,0.6113956858023306, ,0.05630497336789045
71, ,PASS, ,0.01771064000000002, ,0.0027994354319389033, ,0.03767708593396053, ,5.0523565243028934e-05, ,1.8333333333333333, ,0.801694295816, ,0.6117426174976021, ,0.11485479888165548
72, ,PASS, ,0.018174320000000004, ,0.00285222454316154, ,0.03753141276320891, ,5.2869309593028614e-05, ,1.8333333333333333, ,0.7949702597206526, ,0.6128650435705394, ,0.08256974347462297
73, ,PASS, ,0.01826359999999999, ,0.002848941439768627, ,0.03777877796024571, ,5.299893188054607e-05, ,1.8333333333333333, ,0.7937835096526146, ,0.6100283667680252, ,0.057202914226240284
74, ,PASS, ,0.018249439999999992, ,0.0028172747151082524, ,0.0375091130060611, ,5.255469641428069e-05, ,1.8333333333333333, ,0.7920514020007581, ,0.6147425562743617, ,0.05665190506316198
75, ,PASS, ,0.01862887999999999, ,0.0028805270869072547, ,0.03767388083488092, ,5.466719251766854e-05, ,1.8333333333333333, ,0.7962469500290209, ,0.613395644986837, ,0.04993775637231893
76, ,PASS, ,0.01819832, ,0.0028688390896250827, ,0.03758081899348993, ,5.326362746204778e-05, ,1.8333333333333333, ,0.8008690765242628, ,0.6119875104589703, ,0.08367176180077958
77, ,PASS, ,0.018244400000000004, ,0.0029079444508987398, ,0.037688764154200936, ,5.4036916457454714e-05, ,1.8333333333333333, ,0.8079624375729221, ,0.6125589273688292, ,0.12499744903165241
78, ,PASS, ,0.018690799999999997, ,0.0029064898091140396, ,0.03765220859839595, ,5.536790840205428e-05, ,1.8333333333333333, ,0.7970407086612447, ,0.6148241872614845, ,0.05424379094304198
79, ,PASS, ,0.019082239999999993, ,0.0029913805728353643, ,0.03744469493602172, ,5.816835344089951e-05, ,1.8333333333333333, ,0.7984061994490913, ,0.6100283667680252, ,0.056794759290626724
112, ,PASS, ,0.018147439999999997, ,0.0028598810494854386, ,0.0376797728176976, ,5.28284258643006e-05, ,1.8333333333333333, ,0.7993887192685083, ,0.6113344625619885, ,0.062141588947164345
113, ,PASS, ,0.01846472000000001, ,0.002871797348234939, ,0.03769589059794698, ,5.3963983117293186e-05, ,1.8333333333333333, ,0.7929309993115257, ,0.6103752984632966, ,0.04501948939817555
114, ,PASS, ,0.018739279999999983, ,0.0029015547337214297, ,0.037717679019203684, ,5.547050928554024e-05, ,1.8333333333333333, ,0.7979198250135086, ,0.614028285137038, ,0.05195812330360605
115, ,PASS, ,0.01856, ,0.0028741766433289673, ,0.037653575783351365, ,5.437319716206729e-05, ,1.8333333333333333, ,0.7943134078149824, ,0.612824228076978, ,0.04132568723087284
116, ,PASS, ,0.01869895999999999, ,0.002930064250953333, ,0.037582447581069774, ,5.588448165112614e-05, ,1.8333333333333333, ,0.7876197330890171, ,0.6099875512744638, ,0.04546845982735046
117, ,PASS, ,0.018898880000000007, ,0.0029162576936559914, ,0.037591314956021304, ,5.619289442712895e-05, ,1.8333333333333333, ,0.7916432494845838, ,0.6123752576478031, ,0.04420317952694843
118, ,PASS, ,0.019003520000000013, ,0.00295770333237365, ,0.037444567758413094, ,5.714023684416039e-05, ,1.8333333333333333, ,0.7955506593490991, ,0.6088243097079652, ,0.0851207118222077
119, ,PASS, ,0.019004720000000003, ,0.0030139614645739686, ,0.03767979797249036, ,5.8410681773558946e-05, ,1.8333333333333333, ,0.8074682727008036, ,0.6111507928409624, ,0.08869206750882636
120, ,PASS, ,0.018895040000000005, ,0.0029898296547072887, ,0.03780011567274137, ,5.753328884370744e-05, ,1.8333333333333333, ,0.8027146825914598, ,0.6130283055447848, ,0.07356992714434399
121, ,PASS, ,0.018931280000000016, ,0.0029964354325570587, ,0.037650623884206445, ,5.7923165932582874e-05, ,1.8333333333333333, ,0.8095613822470342, ,0.6178037182914634, ,0.09503887675761719
122, ,PASS, ,0.0191936, ,0.0029968982402007764, ,0.03774744285973756, ,5.8578260742277386e-05, ,1.8333333333333333, ,0.7990758316829089, ,0.6114773167894533, ,0.05822330156527418
123, ,PASS, ,0.019373599999999994, ,0.0030423411441718373, ,0.03761518224934185, ,6.0129238549909264e-05, ,1.8333333333333333, ,0.8034124321039905, ,0.6156200893859309, ,0.07169241444052162
124, ,PASS, ,0.019193119999999998, ,0.0029701062976044313, ,0.037597870739372666, ,5.8033017188927194e-05, ,1.8333333333333333, ,0.7934152606539909, ,0.6084569702659129, ,0.06034570723046469
125, ,PASS, ,0.019527679999999995, ,0.0030690538027865278, ,0.03775659809779392, ,6.1113609804865e-05, ,1.8333333333333333, ,0.7980540848412279, ,0.6126405583559519, ,0.08238607375359687
126, ,PASS, ,0.019327040000000004, ,0.0030547121711758437, ,0.037732856737821674, ,6.012917950331739e-05, ,1.8333333333333333, ,0.8014529145478098, ,0.612252811167119, ,0.10075304585620702
127, ,PASS, ,0.01919215999999999, ,0.003009868401578292, ,0.03770146576865778, ,5.895838521044213e-05, ,1.8333333333333333, ,0.8020191691657067, ,0.6130895287851268, ,0.07020264892553213
128, ,PASS, ,0.01930208, ,0.003011906928367408, ,0.03810018505091733, ,5.93357530401394e-05, ,1.8333333333333333, ,0.8018048294666408, ,0.6147221485275811, ,0.06024366849656129
129, ,PASS, ,0.01944295999999999, ,0.00302777236559328, ,0.03805444411869145, ,6.0020364689192464e-05, ,1.8333333333333333, ,0.8022236092404688, ,0.6140078773902573, ,0.09065121119977143
130, ,PASS, ,0.019516879999999997, ,0.0030751402266152644, ,0.038027418274116855, ,6.117402606303276e-05, ,1.8333333333333333, ,0.800401173367631, ,0.6125997428623906, ,0.03514213995632742
131, ,PASS, ,0.01946936, ,0.003036825451568674, ,0.03795149872165874, ,6.028266759934556e-05, ,1.8333333333333333, ,0.7982948531504949, ,0.614660925287239, ,0.06491704250933654
132, ,PASS, ,0.019423759999999995, ,0.003098215406777502, ,0.03816018375951511, ,6.140173064846688e-05, ,1.8333333333333333, ,0.8068862581838707, ,0.613905838656354, ,0.11736495173567886
133, ,PASS, ,0.01970312000000001, ,0.0031078210005937037, ,0.03820539007530458, ,6.248678475791331e-05, ,1.8333333333333333, ,0.8050656213684202, ,0.6131711597722496, ,0.1009571233240138
134, ,PASS, ,0.020023040000000027, ,0.0031305728395274713, ,0.03789491814289504, ,6.39501717204185e-05, ,1.8333333333333333, ,0.8024151681015793, ,0.6145588865533357, ,0.06601906083549315
135, ,PASS, ,0.020099839999999994, ,0.0030503769839980823, ,0.0378863233474827, ,6.245406694492044e-05, ,1.8333333333333333, ,0.7923301795224991, ,0.6118854717250668, ,0.05873349523479113
136, ,PASS, ,0.02007776000000001, ,0.003188511064433441, ,0.03819415249892859, ,6.520828126880666e-05, ,1.8333333333333333, ,0.8066973821749697, ,0.6106201914246648, ,0.10009999795922532
137, ,PASS, ,0.019965680000000003, ,0.003202808330282171, ,0.037984684489296136, ,6.52103185302577e-05, ,1.8333333333333333, ,0.809139630454569, ,0.6113344625619885, ,0.07512091589967551
138, ,PASS, ,0.020204480000000014, ,0.003184135825160181, ,0.03800733965082345, ,6.56894029482941e-05, ,1.8333333333333333, ,0.799430557502599, ,0.613395644986837, ,0.051182628925940284
139, ,PASS, ,0.020280560000000003, ,0.0031899600044416137, ,0.03840007283341156, ,6.600353768467182e-05, ,1.8333333333333333, ,0.8013338056774741, ,0.6134772759739597, ,0.06348850023468909
140, ,PASS, ,0.02037176000000001, ,0.0031685844819006426, ,0.03808765212240567, ,6.586288075904365e-05, ,1.8333333333333333, ,0.7994736062520039, ,0.6128446358237587, ,0.05503969306748842
141, ,PASS, ,0.020506159999999992, ,0.003233001486374951, ,0.03823763770331218, ,6.771631955876229e-05, ,1.8333333333333333, ,0.8013682480693359, ,0.6146201097936776, ,0.06930470806718231
142, ,PASS, ,0.020633359999999993, ,0.003255642983024617, ,0.038078353685230916, ,6.864423515548196e-05, ,1.8333333333333333, ,0.8005260189276514, ,0.6162527295361319, ,0.05697842901165282
143, ,PASS, ,0.020607200000000003, ,0.0032510414577608363, ,0.03827645936715577, ,6.837872201618192e-05, ,1.8333333333333333, ,0.8050595528729363, ,0.6143956245790902, ,0.07163119120017959
176, ,PASS, ,0.020953280000000015, ,0.0032770293793209586, ,0.03818338397195976, ,7.006757715176943e-05, ,1.8333333333333333, ,0.8007482500091146, ,0.6133140139997143, ,0.0655088671659762
177, ,PASS, ,0.021039440000000003, ,0.003267205334993874, ,0.038127977052305057, ,7.000229177324487e-05, ,1.8333333333333333, ,0.7949625171109683, ,0.6115385400297954, ,0.06377420868961858
178, ,PASS, ,0.021069919999999995, ,0.003272634460079772, ,0.038174931164261953, ,7.045814735541928e-05, ,1.8333333333333333, ,0.7963021141718739, ,0.6144160323258709, ,0.05591722617905757
179, ,PASS, ,0.02057432, ,0.0032501006697531433, ,0.03816006691557315, ,6.83419338527835e-05, ,1.8333333333333333, ,0.8029854341476259, ,0.6151915267035367, ,0.09510009999795922
180, ,PASS, ,0.02101087999999999, ,0.003222572341221643, ,0.038366364458888594, ,6.907487067805389e-05, ,1.8333333333333333, ,0.7965043634978408, ,0.6146813330340197, ,0.06318238403297892
181, ,PASS, ,0.02112799999999999, ,0.0032856598865720304, ,0.038046077072100566, ,7.09578377263176e-05, ,1.8333333333333333, ,0.8036648548329389, ,0.6163547682700353, ,0.08422277096385788
182, ,PASS, ,0.021538879999999996, ,0.003265923497017325, ,0.03819441532356482, ,7.185086738876225e-05, ,1.8333333333333333, ,0.7859214614354294, ,0.6146201097936776, ,0.034713577273933184
183, ,PASS, ,0.021236, ,0.0033141329876316245, ,0.038172437089447155, ,7.188580905965836e-05, ,1.8333333333333333, ,0.8042681944441206, ,0.6160486520683252, ,0.08575335197240873
184, ,PASS, ,0.02158015999999999, ,0.003381477440007307, ,0.0382315813956858, ,7.462077907534142e-05, ,1.8333333333333333, ,0.8075625187541542, ,0.6177424950511214, ,0.09520213873186262
185, ,PASS, ,0.021782959999999994, ,0.003386496478494953, ,0.0380867559396747, ,7.535695884327849e-05, ,1.8333333333333333, ,0.8020670141211672, ,0.6154568274116855, ,0.09356951898940838
186, ,PASS, ,0.0217808, ,0.0034357129976834893, ,0.03813322375563764, ,7.63161256371819e-05, ,1.8333333333333333, ,0.8097065090254223, ,0.6161302830554478, ,0.10707944735821717
187, ,PASS, ,0.021941600000000006, ,0.003449250351008389, ,0.038258307420868956, ,7.722366903247894e-05, ,1.8333333333333333, ,0.803530949614291, ,0.6149262259953878, ,0.1114058896757209
188, ,PASS, ,0.02197831999999999, ,0.0034624549543421724, ,0.03811247344054203, ,7.765971387504287e-05, ,1.8333333333333333, ,0.809797713639772, ,0.6162119140425706, ,0.09612048733699312
189, ,PASS, ,0.022194079999999984, ,0.0035059770503742564, ,0.03834694097426583, ,7.940035899750968e-05, ,1.8333333333333333, ,0.8119856059753813, ,0.6168649619395522, ,0.10318156772310769
190, ,PASS, ,0.025506209999999998, ,0.004035187272164896, ,0.038434417367400664, ,0.00010509818620865623, ,1.8333333333333333, ,0.8093905487588456, ,0.6158853900940797, ,0.07526377012714026
191, ,PASS, ,0.03244013, ,0.005088545925037027, ,0.03940373020305708, ,0.00016896017413003562, ,1.8333333333333333, ,0.8107130484847929, ,0.6198444929695313, ,0.1165894573580131
192, ,PASS, ,0.024409759999999975, ,0.003893902303983955, ,0.03849436492194037, ,9.701786488999949e-05, ,1.8333333333333333, ,0.8084396447711626, ,0.6141915471112834, ,0.10973245443970531
193, ,PASS, ,0.024301580000000003, ,0.0038463143440096346, ,0.03862300667312912, ,9.51429267388829e-05, ,1.8333333333333333, ,0.8011710493487987, ,0.6092528723903594, ,0.09120222036284974
194, ,PASS, ,0.024066589999999995, ,0.003793531823105298, ,0.03854414833023816, ,9.301258879311996e-05, ,1.8333333333333333, ,0.8060199342919059, ,0.6120283259525315, ,0.060508969204710106
195, ,PASS, ,0.02342144000000001, ,0.0037249711136006095, ,0.038484056968225135, ,8.907482757305634e-05, ,1.8333333333333333, ,0.8109076730687848, ,0.6149874492357299, ,0.1009571233240138
196, ,PASS, ,0.02385728, ,0.003784895339749867, ,0.038484443232178936, ,9.193719459217935e-05, ,1.8333333333333333, ,0.8078516600812886, ,0.6124160731413645, ,0.1060386522724026
197, ,PASS, ,0.023796079999999994, ,0.003763294266800872, ,0.03837082676414767, ,9.115948079949517e-05, ,1.8333333333333333, ,0.8091681215665671, ,0.6127834125834166, ,0.10189587967592498
198, ,PASS, ,0.023868319999999985, ,0.0037640740745865237, ,0.038372780813452786, ,9.145272210014264e-05, ,1.8333333333333333, ,0.8012681348449895, ,0.612191587926777, ,0.058366155792738926
199, ,PASS, ,0.02343944000000001, ,0.003738783636717429, ,0.03822731728760637, ,8.92014565495792e-05, ,1.8333333333333333, ,0.8080127742829426, ,0.6126405583559519, ,0.0895696006203955
200, ,PASS, ,0.023604079999999993, ,0.003710194534176657, ,0.03847216835084998, ,8.939109091476828e-05, ,1.8333333333333333, ,0.8001107050839218, ,0.6149670414889492, ,0.0492234852349952
201, ,PASS, ,0.023586090000000014, ,0.00377896895563927, ,0.038429010064692556, ,9.085994109558248e-05, ,1.8333333333333333, ,0.8108010713082742, ,0.6126405583559519, ,0.09485520703659109
202, ,PASS, ,0.023639120000000017, ,0.003788530410663474, ,0.03832193771535275, ,9.127180167352948e-05, ,1.8333333333333333, ,0.8109048288772625, ,0.6126609661027326, ,0.10189587967592498
203, ,PASS, ,0.02364416000000002, ,0.003781289455065336, ,0.03826154811575274, ,9.111069963515913e-05, ,1.8333333333333333, ,0.8092421499285452, ,0.6115385400297954, ,0.08846758229423889
204, ,PASS, ,0.023702959999999988, ,0.0037751241104131143, ,0.03814125675863758, ,9.124323432161086e-05, ,1.8333333333333333, ,0.8067889486256972, ,0.6115997632701373, ,0.09391645068467991
205, ,PASS, ,0.023717129999999993, ,0.003813613907365016, ,0.0384369618856758, ,9.202458834915456e-05, ,1.8333333333333333, ,0.8099704673197256, ,0.6102732597293933, ,0.11440582845248057
206, ,PASS, ,0.023868800000000003, ,0.0037952451792032677, ,0.03836916365523153, ,9.223444540425512e-05, ,1.8333333333333333, ,0.8093718880388205, ,0.6137425766821085, ,0.06808024326034162
207, ,PASS, ,0.02375191999999999, ,0.0037961008885565497, ,0.03809512060468154, ,9.176140263852006e-05, ,1.8333333333333333, ,0.807767601824101, ,0.6086814554805003, ,0.09783473806657007
208, ,PASS, ,0.024019549999999987, ,0.0038091150909742295, ,0.03834452773310749, ,9.308628068740889e-05, ,1.8333333333333333, ,0.7968678096326501, ,0.6087222709740617, ,0.04748882675863758
209, ,PASS, ,0.0238364, ,0.0038083019487635417, ,0.03849024890696108, ,9.247167813199244e-05, ,1.8333333333333333, ,0.806269253782369, ,0.6145588865533357, ,0.09936531907512092
210, ,PASS, ,0.023853199999999998, ,0.0038049051941133703, ,0.038271312639742046, ,9.242482665228603e-05, ,1.8333333333333333, ,0.8094832800971858, ,0.6117222097508214, ,0.10887532907491684
211, ,PASS, ,0.02350544, ,0.003775332181395356, ,0.03836913855594783, ,9.033834031893354e-05, ,1.8333333333333333, ,0.8091224077786415, ,0.6115589477765759, ,0.09267157813105854
212, ,PASS, ,0.02360288, ,0.003750567947600151, ,0.03837110835819677, ,9.019909264793057e-05, ,1.8333333333333333, ,0.8024826730902098, ,0.6126813738495133, ,0.09765106834554396
213, ,PASS, ,0.023832079999999995, ,0.0037949715362043663, ,0.03836283326748434, ,9.215669643942542e-05, ,1.8333333333333333, ,0.8035094027663753, ,0.6119875104589703, ,0.0762433419726128
214, ,PASS, ,0.023564240000000004, ,0.0037523502398882683, ,0.03833077832187098, ,8.999147227155993e-05, ,1.8333333333333333, ,0.8023516115097279, ,0.6096202118324116, ,0.06489663476255586
215, ,PASS, ,0.023445919999999995, ,0.0037557763159642007, ,0.03831142805208057, ,8.952716274187481e-05, ,1.8333333333333333, ,0.8075912943082458, ,0.6119671027121896, ,0.11420175098467378
216, ,PASS, ,0.023674639999999997, ,0.003775101168238756, ,0.03839110536478847, ,9.112654062990806e-05, ,1.8333333333333333, ,0.8039910920711605, ,0.610987530866717, ,0.07148833697271484
217, ,PASS, ,0.02385224, ,0.003845183227301096, ,0.038447057509846734, ,9.344169106878659e-05, ,1.8333333333333333, ,0.8117370630774674, ,0.6114365012958919, ,0.13022183220750597
218, ,PASS, ,0.024344260000000006, ,0.003909705365416867, ,0.038365518411869144, ,9.706875765667035e-05, ,1.8333333333333333, ,0.8131914711882156, ,0.6138650231627926, ,0.11671190383869717
219, ,PASS, ,0.02442899, ,0.00394277480167919, ,0.03845821361910981, ,9.803456388774709e-05, ,1.8333333333333333, ,0.8126190683141157, ,0.6107834533989103, ,0.11089569600620396
220, ,PASS, ,0.024325290000000006, ,0.0038380519002700606, ,0.03863106568723087, ,9.49322474902987e-05, ,1.8333333333333333, ,0.8014295594656036, ,0.6107222301585682, ,0.07261076304565213
221, ,PASS, ,0.02431928000000001, ,0.0039025083103480813, ,0.038454192922185264, ,9.674759036622273e-05, ,1.8333333333333333, ,0.8100338559788289, ,0.6107834533989103, ,0.12469133282994224
222, ,PASS, ,0.024395379999999984, ,0.003909172542847848, ,0.03826575635599273, ,9.711601011173546e-05, ,1.8333333333333333, ,0.8061174671324104, ,0.6090692026693333, ,0.08897777596375585
223, ,PASS, ,0.02434522999999999, ,0.0038815259964577386, ,0.038441048233709516, ,9.617795449144081e-05, ,1.8333333333333333, ,0.803804429029677, ,0.6111712005877431, ,0.05673353605028469
224, ,PASS, ,0.02431425, ,0.003881861018853381, ,0.03846460236525785, ,9.628823245596157e-05, ,1.8333333333333333, ,0.8110608476572323, ,0.6155996816391502, ,0.113365033366666
225, ,PASS, ,0.024254720000000004, ,0.003852392804911982, ,0.03853861650047958, ,9.513759069906682e-05, ,1.8333333333333333, ,0.8056369223637537, ,0.6121099569396543, ,0.10518152690761413
226, ,PASS, ,0.024188240000000003, ,0.0038883268423799988, ,0.03818502200404073, ,9.552487335507946e-05, ,1.8333333333333333, ,0.8097723276933889, ,0.608518193506255, ,0.11793636864553785
227, ,PASS, ,0.02458377999999998, ,0.003940842916111819, ,0.038260777776984146, ,9.870080641068099e-05, ,1.8333333333333333, ,0.8030403639955097, ,0.6103957062100773, ,0.07595763351768331
228, ,PASS, ,0.024420089999999974, ,0.0038650276285346796, ,0.03843186322279137, ,9.625481213681707e-05, ,1.8333333333333333, ,0.8016287314991766, ,0.6113344625619885, ,0.059264096651088755
229, ,PASS, ,0.02432383999999999, ,0.0038659007600297945, ,0.03824327346727618, ,9.580674435258235e-05, ,1.8333333333333333, ,0.8032782250071532, ,0.611497724536234, ,0.0641211403848901
230, ,PASS, ,0.024322639999999996, ,0.003878031151625545, ,0.03838760068039428, ,9.604858764447838e-05, ,1.8333333333333333, ,0.8077991241063691, ,0.611620171016918, ,0.11275280096324565
231, ,PASS, ,0.0244316, ,0.003870313111675596, ,0.03836703553111161, ,9.622987876126805e-05, ,1.8333333333333333, ,0.8016003560668925, ,0.6116405787636987, ,0.07473316871084264
232, ,PASS, ,0.02482284, ,0.0039027331552513736, ,0.03850252593742985, ,9.861253512563007e-05, ,1.8333333333333333, ,0.7984969456986463, ,0.6098242893002184, ,0.06522315871104671
233, ,PASS, ,0.02466106999999999, ,0.003934466635160991, ,0.03854955292279749, ,9.882219304440625e-05, ,1.8333333333333333, ,0.8028558970381293, ,0.6118854717250668, ,0.05748862268116977
234, ,PASS, ,0.0245692, ,0.003941667284064513, ,0.03847518689720618, ,9.856360804249604e-05, ,1.8333333333333333, ,0.8067558728966923, ,0.6100895900083672, ,0.10781412624232159
235, ,PASS, ,0.024501220000000004, ,0.0039499510401892965, ,0.038300829495928654, ,9.849125516272083e-05, ,1.8333333333333333, ,0.8101399322166802, ,0.6118650639782861, ,0.1282626885165609
236, ,PASS, ,0.024917499999999992, ,0.0039811318592922985, ,0.03859107389706332, ,0.00010104567922999447, ,1.8333333333333333, ,0.8067865578264626, ,0.6110283463602784, ,0.09738576763739515
237, ,PASS, ,0.025202319999999997, ,0.004039599649924367, ,0.03845056789636946, ,0.00010358768411328297, ,1.8333333333333333, ,0.8086190351589334, ,0.6117834329911634, ,0.10454888675741311
238, ,PASS, ,0.02520646, ,0.004053830677977875, ,0.03852996049203077, ,0.00010421834340614892, ,1.8333333333333333, ,0.8118688373461462, ,0.6120487336993122, ,0.12065059896736802
239, ,PASS, ,0.025232369999999987, ,0.004042787916084706, ,0.03855626921246505, ,0.00010408973559986627, ,1.8333333333333333, ,0.8084741874735896, ,0.6126609661027326, ,0.10671210791616498
240, ,PASS, ,0.025551350000000004, ,0.004061821450504917, ,0.03853888129997347, ,0.0001056943108965013, ,1.8333333333333333, ,0.8009368997854905, ,0.6107222301585682, ,0.05134589090018571
241, ,PASS, ,0.025743039999999984, ,0.004124844505586561, ,0.03840461225668863, ,0.00010812405835734845, ,1.8333333333333333, ,0.8082427265406078, ,0.6104977449439807, ,0.08895736821697517
242, ,PASS, ,0.025622729999999996, ,0.004121697036362168, ,0.0386221246617416, ,0.00010753170614310617, ,1.8333333333333333, ,0.8098538859323842, ,0.6114365012958919, ,0.09783473806657007
243, ,PASS, ,0.02570011999999999, ,0.004104193534578925, ,0.038530428590028774, ,0.00010747732206966533, ,1.8333333333333333, ,0.8056837031602768, ,0.6124977041284871, ,0.07297810248770434
244, ,PASS, ,0.025829570000000003, ,0.004118041403959829, ,0.038612389111854856, ,0.0001084551867724555, ,1.8333333333333333, ,0.8070657582618005, ,0.6147017407808004, ,0.07334544192975653
245, ,PASS, ,0.02601432000000001, ,0.004115993901112496, ,0.038660870602844837, ,0.00010923811288872747, ,1.8333333333333333, ,0.8056606967899091, ,0.613211975265811, ,0.09397767392502193
246, ,PASS, ,0.02578093000000001, ,0.004121651121949711, ,0.03848865540070611, ,0.00010823016601636838, ,1.8333333333333333, ,0.8088733837050682, ,0.6124977041284871, ,0.11016101712209955
247, ,PASS, ,0.026374680000000025, ,0.004211070294284824, ,0.0386529169114916, ,0.0001133099785854446, ,1.8333333333333333, ,0.80741820915936, ,0.6129058590641008, ,0.08428399420419991
248, ,PASS, ,0.026233, ,0.0041579453581981176, ,0.03871698810207955, ,0.00011119189064456704, ,1.8333333333333333, ,0.8025388587850936, ,0.6131507520254689, ,0.060835493153200956
249, ,PASS, ,0.026279190000000004, ,0.004212929851015867, ,0.03853916171690374, ,0.00011298586128379787, ,1.8333333333333333, ,0.8094408177678948, ,0.6130078977980041, ,0.09479398379624905
250, ,PASS, ,0.026905130000000003, ,0.004268089169596244, ,0.03858758915205812, ,0.00011698959923747157, ,1.8333333333333333, ,0.8070607862870681, ,0.6139466541499153, ,0.09634497255158057
251, ,PASS, ,0.02684790000000002, ,0.00429193059462263, ,0.038788911323238306, ,0.00011739715708472126, ,1.8333333333333333, ,0.8089993126086352, ,0.6137017611885471, ,0.12442603212179343
252, ,PASS, ,0.026464529999999997, ,0.004226667965621236, ,0.03846459409685517, ,0.0001140002576276113, ,1.8333333333333333, ,0.8078158457364946, ,0.613334421746495, ,0.09242668516969041
253, ,PASS, ,0.027295260000000005, ,0.004338233414161411, ,0.03861217574845411, ,0.00012071583730124577, ,1.8333333333333333, ,0.8051570125485908, ,0.6135180914675211, ,0.05454990714475215
254, ,PASS, ,0.030158549999999996, ,0.004805440710096698, ,0.03888440658884513, ,0.0001478931349093202, ,1.8333333333333333, ,0.8104497614653072, ,0.6151303034631946, ,0.12711985469684292
255, ,PASS, ,0.08287939500000002, ,0.01350435275531562, ,0.04296645769639956, ,0.0011323156576817429, ,1.8333333333333333, ,0.7929106203976917, ,0.6013346666394563, ,0.16197628619824087
