Channel, ,Pass/Fail, ,Amplitude, ,Sorting Function Response, ,Mean, ,Variance, ,NPeaksRatio, ,PosIntegralRatio, ,ToT50, ,ToT99
22, ,PASS, ,0.05160036999999999, ,0.007611570804777454, ,0.03053037060529377, ,0.0003973843265002789, ,1.75, ,0.7549403967107531, ,0.5417032305463154, ,0.12820146527621884
23, ,PASS, ,0.08635966000000002, ,0.010155901262572195, ,0.032926321959388584, ,0.0008888815988557598, ,1.75, ,0.6688282001050699, ,0.5601314258892676, ,0.040815493561355894
24, ,PASS, ,0.06938324500000002, ,0.009626119260037275, ,0.03166198601695884, ,0.0006756452985315092, ,1.75, ,0.7315076885358947, ,0.5471316911899757, ,0.10648762270157752
25, ,PASS, ,0.06536772100000002, ,0.008094172565004982, ,0.031398723877016387, ,0.0005364792400712775, ,1.75, ,0.6896884587265113, ,0.5511520173057692, ,0.048243913389522664
26, ,PASS, ,0.1028382, ,0.010710735630621268, ,0.03408032960072244, ,0.0011185126603261355, ,1.6666666666666667, ,0.626364635018148, ,0.5690087957388624, ,0.029183077896369463
27, ,PASS, ,0.09394630000000001, ,0.010661342566432364, ,0.03339672297028632, ,0.0010151229973120004, ,1.6666666666666667, ,0.6582173386231157, ,0.5603763188506357, ,0.03826452521377115
28, ,PASS, ,0.06219741699999998, ,0.0078488422292275, ,0.031449542878234725, ,0.0004950588965684625, ,1.75, ,0.6998199623943743, ,0.5517030264688476, ,0.05789677761678333
29, ,PASS, ,0.09807908999999998, ,0.010199519102570026, ,0.03408348671729148, ,0.001017890987125898, ,1.75, ,0.6258612268967083, ,0.5744168486357422, ,0.035917634333993184
30, ,PASS, ,0.08935471, ,0.01016602036545356, ,0.033455066417501685, ,0.0009226708532433291, ,1.6666666666666667, ,0.6594936989570611, ,0.565233362584437, ,0.041223648496969446
31, ,PASS, ,0.061717617999999995, ,0.007607641864152207, ,0.031137724139894695, ,0.00047568594226094955, ,1.75, ,0.689835693992091, ,0.550662231383033, ,0.051876492316483336
32, ,PASS, ,0.09717316000000001, ,0.010643025493932064, ,0.03359492129774903, ,0.0010490396033928315, ,1.5833333333333333, ,0.6440553877534101, ,0.5646415379277974, ,0.03826452521377115
33, ,PASS, ,0.08221074000000003, ,0.00991514527003486, ,0.03243686837156384, ,0.00082782397485748, ,1.75, ,0.6807644102862963, ,0.5595600089794086, ,0.051815269076141306
34, ,PASS, ,0.04966461100000002, ,0.00634316636174157, ,0.030741671621375075, ,0.0003192701888830858, ,1.75, ,0.7060872434715809, ,0.5491724658680435, ,0.061733434011550785
35, ,PASS, ,0.08838795999999999, ,0.011052605828321014, ,0.033015132610497745, ,0.0009893146343536656, ,1.75, ,0.69253872310275, ,0.5572947490867534, ,0.062161996693945024
36, ,PASS, ,0.05613356743000001, ,0.009007441166571522, ,0.03040117058411951, ,0.000510795013615394, ,1.9166666666666667, ,0.7888152824707209, ,0.5314789494091957, ,0.1639762453827473
37, ,PASS, ,0.05095723500000001, ,0.0065111698379461775, ,0.03083346355839677, ,0.00033613100517108246, ,1.75, ,0.7061353705623878, ,0.5498459215118059, ,0.06395787841064468
38, ,PASS, ,0.08841532000000002, ,0.011094983771062293, ,0.0330609423205853, ,0.0009930892067081302, ,1.75, ,0.6934665674010342, ,0.5550498969408788, ,0.06642721577110672
39, ,PASS, ,0.05386971176000003, ,0.008609705524709015, ,0.03021545384006041, ,0.00046833908218763887, ,1.9166666666666667, ,0.7857345748151162, ,0.5311320177139242, ,0.15446623538295137
40, ,PASS, ,0.05547320332000002, ,0.007209334924083653, ,0.03080290079169813, ,0.00040533439194412763, ,1.75, ,0.7094915368830826, ,0.549519397563315, ,0.06916185383971755
41, ,PASS, ,0.08962673999999997, ,0.011408405677366134, ,0.033338643119936326, ,0.0010346822454560106, ,1.8333333333333333, ,0.7043054283410746, ,0.5607640660394686, ,0.07401889757351891
42, ,PASS, ,0.05453606295000002, ,0.008871376434103727, ,0.029944831422305262, ,0.000488352642111877, ,1.9166666666666667, ,0.795360461886247, ,0.5304789698169425, ,0.16726189261443644
43, ,PASS, ,0.05543402821000003, ,0.007378621489831629, ,0.030471302347339854, ,0.0004141338255668908, ,1.75, ,0.7152270099338547, ,0.5433970735291116, ,0.0776310687536989
44, ,PASS, ,0.08844699000000003, ,0.011477868346641454, ,0.032553713336156406, ,0.0010277693042877352, ,1.75, ,0.7044863840575285, ,0.5524172976061713, ,0.08061059978367788
45, ,PASS, ,0.052726156860000005, ,0.008631424502744515, ,0.030078698763786455, ,0.0004606880410649465, ,1.9166666666666667, ,0.8001987782188682, ,0.5349074508683497, ,0.16205791718536355
46, ,PASS, ,0.058864103659999986, ,0.007831529527448547, ,0.031120911293559313, ,0.00046672927012322694, ,1.75, ,0.720574434095595, ,0.548886757413114, ,0.08171261810983449
47, ,PASS, ,0.08898732999999999, ,0.011498597106981527, ,0.03287120016458848, ,0.0010371498790462098, ,1.75, ,0.704823161784414, ,0.5568253709107978, ,0.08140650190812432
48, ,PASS, ,0.05461063743000002, ,0.008911933537247748, ,0.030193708781696704, ,0.0004913717598445598, ,1.9166666666666667, ,0.7953835270679226, ,0.5319483275851513, ,0.1488949205118263
49, ,PASS, ,0.06485967600000003, ,0.008848596223112144, ,0.03138946917182323, ,0.0005808457119373417, ,1.75, ,0.7300591940189884, ,0.5500704067263933, ,0.09803881553437685
50, ,PASS, ,0.08789782, ,0.011443332161840314, ,0.03267876662833412, ,0.0010180936268293188, ,1.75, ,0.7081047486226243, ,0.5553764208893696, ,0.07850860186526805
51, ,PASS, ,0.05427484805000001, ,0.008819966718854527, ,0.030020004897283934, ,0.00048342987002625976, ,1.9166666666666667, ,0.7926688031217068, ,0.5298667374135222, ,0.13218097589845104
52, ,PASS, ,0.06557417100000004, ,0.008853268572904338, ,0.03120515646998286, ,0.000588076945788066, ,1.75, ,0.7247838388422871, ,0.5486010489581845, ,0.0854064202771372
53, ,PASS, ,0.08840429000000001, ,0.011447575832116308, ,0.03297208133917675, ,0.0010257023258844243, ,1.75, ,0.7068542843056921, ,0.5576008652884635, ,0.0786514560927328
54, ,PASS, ,0.05534940477000003, ,0.009034633718609708, ,0.030491423589228798, ,0.0005056125835091559, ,1.8333333333333333, ,0.798655070212593, ,0.5366012938511459, ,0.15662945654170324
55, ,PASS, ,0.06828798400000001, ,0.009069229779647622, ,0.031201426130936107, ,0.0006273783991110839, ,1.75, ,0.7135423979485017, ,0.5478663700740801, ,0.07795759270218976
56, ,PASS, ,0.08757935, ,0.011301755851146468, ,0.032849705679965716, ,0.0010031567366049856, ,1.75, ,0.7044072511009272, ,0.5575600497949021, ,0.07924328074937247
57, ,PASS, ,0.05650054297000001, ,0.009201708376885073, ,0.030125244330643664, ,0.0005245830838785363, ,1.9166666666666667, ,0.7940910671326955, ,0.5310912022203629, ,0.16367012918103713
58, ,PASS, ,0.071247834, ,0.009376462826044516, ,0.03146113047258219, ,0.0006764493776992389, ,1.75, ,0.7110625167606803, ,0.5496826595375605, ,0.07110058978388197
59, ,PASS, ,0.08691668000000004, ,0.011148950157252898, ,0.03222385122919941, ,0.0009814060613645337, ,1.75, ,0.6999872172663861, ,0.5511928327993306, ,0.07450868349625518
60, ,PASS, ,0.05575673243000002, ,0.008973734466345449, ,0.030087814009044107, ,0.0005049851511234429, ,1.9166666666666667, ,0.7879403514641276, ,0.5323360747739843, ,0.1486092120568968
61, ,PASS, ,0.06885363300000001, ,0.009771990734003779, ,0.03149236074090325, ,0.000680197380383912, ,1.75, ,0.7391785532287386, ,0.5458664108895737, ,0.11920164894593988
62, ,PASS, ,0.08350248000000002, ,0.011381122475514382, ,0.03296925065059897, ,0.0009631894481160945, ,1.8333333333333333, ,0.7261566198483344, ,0.5586620681210588, ,0.11028346360278361
63, ,PASS, ,0.05415787838000001, ,0.009098771901507707, ,0.02982670045755454, ,0.0004977203724690574, ,1.9166666666666667, ,0.807039912344719, ,0.5316830268770025, ,0.13634415624170934
198, ,PASS, ,0.08298137999999998, ,0.014487492170941235, ,0.026547172036019674, ,0.0012249883411858866, ,1.9166666666666667, ,0.8830299698017426, ,0.5022958715128263, ,0.04065223158711047
199, ,PASS, ,0.05975426900000002, ,0.01033580011797221, ,0.027253795870329178, ,0.0006203591164756021, ,2.0, ,0.8662120662725592, ,0.5012142609334503, ,0.031774861737515564
200, ,PASS, ,0.059240773000000024, ,0.009901883655802317, ,0.02717889244188894, ,0.0005886579244230647, ,2.0, ,0.8440409177149227, ,0.5053774412767086, ,0.030938144119507766
201, ,PASS, ,0.06200237100000001, ,0.009847746277471344, ,0.02712284025940287, ,0.0006205545096186207, ,2.0, ,0.8470502945413807, ,0.5059080426930063, ,0.027774943368502683
202, ,PASS, ,0.06143208600000002, ,0.009610294213232708, ,0.027254335983959505, ,0.00059492312030754, ,2.0, ,0.8434623423021376, ,0.5087447194955205, ,0.02601987714536438
203, ,PASS, ,0.058972925000000016, ,0.00932198466286084, ,0.02713533001575478, ,0.0005462717571917895, ,2.0, ,0.8408643147122271, ,0.5037652292810351, ,0.026183139119609802
204, ,PASS, ,0.054324218599999995, ,0.008174815714783715, ,0.02723811657233526, ,0.0004514153599719675, ,1.9166666666666667, ,0.8304207415242095, ,0.5052141793024633, ,0.02583620742433828
205, ,PASS, ,0.05593422620000001, ,0.008561943987705028, ,0.02725493831089161, ,0.0004867503546659288, ,2.0, ,0.8339438361143383, ,0.5057447807187608, ,0.025387236995163365
206, ,PASS, ,0.054090836700000006, ,0.007899751611170815, ,0.027251976398542883, ,0.0004431582278935378, ,1.9166666666666667, ,0.8260796496550631, ,0.5055815187445154, ,0.023795432746270485
207, ,PASS, ,0.05937485700000002, ,0.009111483913141644, ,0.027175853301238746, ,0.0005491348759319423, ,2.0, ,0.8256132610117068, ,0.5051325483153405, ,0.023305646823534212
208, ,PASS, ,0.052279382990000005, ,0.007859545033697226, ,0.027310096931654457, ,0.0004145229375304283, ,2.0, ,0.8171589824013966, ,0.5070916920062856, ,0.020387339033897268
209, ,PASS, ,0.05223362056, ,0.0080666577843671, ,0.027314320899226547, ,0.000424615626864152, ,2.0, ,0.8254865048461335, ,0.5067651680577947, ,0.02632599334707455
210, ,PASS, ,0.05385292449999999, ,0.008133835054304329, ,0.027312662823350542, ,0.0004404274676548091, ,2.0, ,0.8200422423362772, ,0.5072141384869696, ,0.02257096793942981
211, ,PASS, ,0.05718592600000001, ,0.00891219529690555, ,0.02702286391320585, ,0.0005124785241656333, ,2.0, ,0.8279253259174512, ,0.5029285116630273, ,0.028448399012265056
212, ,PASS, ,0.07472664000000002, ,0.011552148923224648, ,0.026714992268423093, ,0.0008715998844174319, ,2.0, ,0.8436577891999465, ,0.5086222730148364, ,0.029652456072325056
213, ,PASS, ,0.06270321000000002, ,0.009851571216856087, ,0.026982243999367356, ,0.000621355033769872, ,2.0, ,0.8415817767823295, ,0.5060304891736903, ,0.02940756311095692
214, ,PASS, ,0.060038255000000006, ,0.009169194109126479, ,0.02704951150964266, ,0.0005504741356961696, ,2.0, ,0.8343849272192145, ,0.5061937511479357, ,0.02542805248872472
215, ,PASS, ,0.07128335000000001, ,0.011230394041855574, ,0.02701410861019163, ,0.0008142576839428538, ,2.0, ,0.8433553350905018, ,0.5094589906328443, ,0.030876920879165732
216, ,PASS, ,0.06990517499999999, ,0.010768949953091161, ,0.026869457715638458, ,0.0007594412642956385, ,2.0, ,0.8409858526088919, ,0.5081937103324422, ,0.02908103916246607
217, ,PASS, ,0.063506778, ,0.009942388329422678, ,0.027207578805085612, ,0.0006409583297779683, ,2.0, ,0.8396818526601063, ,0.507887594130732, ,0.02930552437705353
218, ,PASS, ,0.07385172000000002, ,0.011640526157603576, ,0.026749810031203445, ,0.0008661868141926975, ,2.0, ,0.8453604350041345, ,0.5079284096242934, ,0.030876920879165732
219, ,PASS, ,0.069760999, ,0.011063736241531832, ,0.02695419970059795, ,0.0007767936191793112, ,2.0, ,0.8435800868513655, ,0.5069896532723822, ,0.028836146201097937
220, ,PASS, ,0.06719002099999997, ,0.01058829906192895, ,0.02702717769251648, ,0.0007152379919496944, ,2.0, ,0.8396334995073991, ,0.5062753821350585, ,0.02871369972041387
221, ,PASS, ,0.07117343000000002, ,0.01172067190457605, ,0.0270545220445093, ,0.0008377195584006797, ,2.0, ,0.8507607083833777, ,0.5082549335727843, ,0.03452990755290709
222, ,PASS, ,0.060620479000000026, ,0.009469793387183924, ,0.027242930219403685, ,0.0005821587634001819, ,2.0, ,0.8307103385101062, ,0.5075610701822412, ,0.03079528989204302
223, ,PASS, ,0.06822541099999997, ,0.010949394937265695, ,0.02720241088139018, ,0.0007574461121748595, ,2.0, ,0.8381559240165785, ,0.5090712434440113, ,0.030550396930674885
224, ,PASS, ,0.06800945199999998, ,0.010817643739934804, ,0.027065925473480138, ,0.0007403218822800609, ,2.0, ,0.8367961360662485, ,0.5064998673496459, ,0.028162690557335564
225, ,PASS, ,0.062869357, ,0.009931621462433902, ,0.0273217346006408, ,0.0006331656901916872, ,2.0, ,0.8313217076113603, ,0.5068467990449175, ,0.029734087059447765
226, ,PASS, ,0.05727948800000002, ,0.008980838289871874, ,0.027070127898838798, ,0.0005157872976949148, ,2.0, ,0.835211582717002, ,0.5035407440664477, ,0.02661170180200404
227, ,PASS, ,0.0748047, ,0.011957029818065982, ,0.026852867720175103, ,0.0009089306615411261, ,2.0, ,0.847196214648819, ,0.5080712638517582, ,0.0319177159649803
228, ,PASS, ,0.16385828, ,0.029602882665774898, ,0.02778354112916063, ,0.004874218423534046, ,1.9166666666666667, ,0.8599387069099155, ,0.5237852288728801, ,0.04344809289606334
229, ,PASS, ,0.14572392999999995, ,0.026281588780108712, ,0.02764114000040815, ,0.0038455688263878763, ,1.9166666666666667, ,0.8621240087654376, ,0.5238872676067835, ,0.0450603048917369
230, ,PASS, ,0.16583060000000002, ,0.03009555496204483, ,0.02819532894267464, ,0.005015061104118933, ,1.9166666666666667, ,0.8607827149692756, ,0.5250505091732822, ,0.0462643619517969
231, ,PASS, ,0.19979999999999998, ,0.038031955397091116, ,0.031519008960021244, ,0.007708155993714448, ,1.9166666666666667, ,0.8929937419390384, ,0.5412338523703598, ,0.22154649905103976
232, ,PASS, ,0.08506576999999996, ,0.013923462085550115, ,0.02705123826548234, ,0.0012013193077507725, ,1.9166666666666667, ,0.8526003246819309, ,0.51625477031081, ,0.032611579355523355
233, ,PASS, ,0.08248001999999996, ,0.01369346619170712, ,0.02686916890499827, ,0.0011399239112805568, ,2.0, ,0.8566954464134274, ,0.5103773392379747, ,0.03281565682333014
234, ,PASS, ,0.10494549999999998, ,0.018025794652775533, ,0.026970688784718682, ,0.0019173408944865283, ,1.9166666666666667, ,0.8700693892772395, ,0.5178669823064835, ,0.038693087896165386
