Channel, ,Pass/Fail, ,Amplitude, ,Sorting Function Response, ,Mean, ,Variance, ,NPeaksRatio, ,PosIntegralRatio, ,ToT50, ,ToT99
0, ,PASS, ,0.056615384, ,0.007528322858582721, ,0.029945002882186076, ,0.0004334934688026983, ,1.75, ,0.638508290207241, ,0.3920940388971654, ,0.07773310748760229
1, ,PASS, ,0.056044151999999965, ,0.007494262727212979, ,0.029950264647660253, ,0.0004269098014048561, ,1.75, ,0.6393999912328394, ,0.3924409705924369, ,0.07454949898981654
2, ,PASS, ,0.05618568999999998, ,0.007522514843154578, ,0.02980978438827779, ,0.0004296864902778991, ,1.75, ,0.6392647071553984, ,0.3929307565151732, ,0.0796718434317667
3, ,PASS, ,0.05598030699999998, ,0.0074839373844605185, ,0.029862815733148303, ,0.0004259551461520415, ,1.75, ,0.638188932911167, ,0.3930532029958572, ,0.07579437154343789
4, ,PASS, ,0.05568549999999997, ,0.0074598847540071345, ,0.030002587053937678, ,0.0004224732858361635, ,1.6666666666666667, ,0.6388657030246987, ,0.39356339666537415, ,0.0755086630885084
5, ,PASS, ,0.055493357, ,0.007418688522791216, ,0.029968850246117427, ,0.00041880733080134903, ,1.75, ,0.6386868512272419, ,0.39319605722332196, ,0.07928409624293382
6, ,PASS, ,0.05575759200000001, ,0.0073810173516611665, ,0.029781895248872474, ,0.00041780502212920075, ,1.75, ,0.6338838646667009, ,0.39311442623619924, ,0.062223219934287054
7, ,PASS, ,0.05540809099999998, ,0.007376774254005864, ,0.030156298584926838, ,0.00041546680682576676, ,1.75, ,0.6387349640533135, ,0.3942572600559172, ,0.07885553356053958
8, ,PASS, ,0.05511417800000001, ,0.00735149548463044, ,0.029988874392767498, ,0.00041186557861728313, ,1.75, ,0.6379127586113758, ,0.39274708679414705, ,0.07699842860349788
9, ,PASS, ,0.05500234900000003, ,0.0073486696410389974, ,0.030032099362053838, ,0.0004105832673225026, ,1.75, ,0.6386938230843044, ,0.39235933960531416, ,0.07685557437603315
10, ,PASS, ,0.054776118, ,0.007284277641999275, ,0.030080410780596315, ,0.0004056919960124814, ,1.75, ,0.6378462233157085, ,0.3937878818799616, ,0.0739372665863962
11, ,PASS, ,0.05459461300000002, ,0.007290798508819484, ,0.030106811044264402, ,0.00040400779831206436, ,1.75, ,0.6379662936377967, ,0.39348176567825144, ,0.07881471806697822
12, ,PASS, ,0.05457019900000001, ,0.007275091499735152, ,0.029998596687006388, ,0.00040353068857098184, ,1.75, ,0.6375736772145402, ,0.3928899410216118, ,0.07693720536315585
13, ,PASS, ,0.05451571600000002, ,0.007213157810620691, ,0.030162952068733293, ,0.0003997107134502373, ,1.75, ,0.6371321614454375, ,0.393257280463664, ,0.07769229199404094
14, ,PASS, ,0.054385293000000015, ,0.007236556230638539, ,0.030183601364666027, ,0.0004000183232606808, ,1.75, ,0.6373968545756176, ,0.39480826921899553, ,0.07571274055631518
15, ,PASS, ,0.054262992000000024, ,0.007236163898298786, ,0.030101880455296832, ,0.00039863744820629627, ,1.75, ,0.6371183321980464, ,0.39560417134344195, ,0.07820248566355789
16, ,PASS, ,0.05409257100000001, ,0.007119551655454493, ,0.029864353726454563, ,0.0003911651153916073, ,1.75, ,0.6368527044491068, ,0.3850941817513928, ,0.07775351523438297
17, ,PASS, ,0.054111836, ,0.007176678546180333, ,0.029862135173771967, ,0.00039504503156853626, ,1.75, ,0.6360970743998928, ,0.39368584314605826, ,0.0779167772086284
18, ,PASS, ,0.05409883300000001, ,0.007269007619017185, ,0.030489966761494663, ,0.00039756336180890627, ,1.75, ,0.6392582160455622, ,0.40235913552784636, ,0.07452909124303586
19, ,PASS, ,0.05532786600000003, ,0.007251468235107851, ,0.029960934770923046, ,0.00040717084239228185, ,1.75, ,0.6310209439558445, ,0.39401236709454907, ,0.08018203710128365
20, ,PASS, ,0.054303259, ,0.007169194281224353, ,0.030115469118181262, ,0.0003948000602664701, ,1.75, ,0.6362994493699115, ,0.3896042937899227, ,0.07740658353911145
21, ,PASS, ,0.054025877000000014, ,0.007169143106425055, ,0.030309602309544704, ,0.0003932155051828785, ,1.75, ,0.6339216193954589, ,0.3982571784249301, ,0.08054937654333585
22, ,PASS, ,0.05386614400000001, ,0.007118565892915973, ,0.030233232974429095, ,0.00039025454517048247, ,1.75, ,0.6348819995962262, ,0.39158384522764844, ,0.07638619620007756
23, ,PASS, ,0.05385149900000001, ,0.007114124734975452, ,0.030133404009305934, ,0.0003893032761123981, ,1.75, ,0.6342694912753024, ,0.3942368523091365, ,0.077814738474725
24, ,PASS, ,0.053708432000000014, ,0.007108384943033161, ,0.030082247655762128, ,0.0003878235337169532, ,1.75, ,0.6339531391765949, ,0.39405318258811045, ,0.06957000877533112
25, ,PASS, ,0.05369114500000002, ,0.0071406583958074695, ,0.030332382974225018, ,0.0003893293624156605, ,1.75, ,0.6348516191088281, ,0.3946858227383115, ,0.07665149690822637
26, ,PASS, ,0.053619529, ,0.007119666492561557, ,0.03011799373420951, ,0.0003876398730365951, ,1.75, ,0.6356843497867702, ,0.39315524172976063, ,0.07716169057774332
27, ,PASS, ,0.05502916499999998, ,0.0072105320213242995, ,0.03007246113956858, ,0.0004028898993819662, ,1.75, ,0.6307220612520205, ,0.39029815718046573, ,0.07665149690822637
28, ,PASS, ,0.05389350500000001, ,0.007111136220839487, ,0.030303425457643723, ,0.00038958424639591734, ,1.75, ,0.6333347454873429, ,0.3955837635966613, ,0.07859023285239077
29, ,PASS, ,0.053328792, ,0.007081422587691887, ,0.03033945670945491, ,0.0003839524692636737, ,1.75, ,0.6369830933089782, ,0.39431848329625924, ,0.07832493214424195
30, ,PASS, ,0.05285574500000001, ,0.007010258097130164, ,0.03022634882839126, ,0.00037673546790582347, ,1.75, ,0.6359308004010119, ,0.3929307565151732, ,0.07912083426868839
31, ,PASS, ,0.05269810799999999, ,0.007029802598120974, ,0.030341205700495907, ,0.0003766747437990455, ,1.75, ,0.6379084801657122, ,0.3943797065366013, ,0.07891675680088162
32, ,PASS, ,0.05277596600000001, ,0.00699386690158678, ,0.030423179521642415, ,0.0003751744716985975, ,1.75, ,0.6357163002520354, ,0.39407359033489114, ,0.07483520744474603
33, ,PASS, ,0.052536941, ,0.007007574265263183, ,0.030310100785902332, ,0.00037388865880682464, ,1.75, ,0.6378627250113045, ,0.3938491051203037, ,0.08216158853900941
34, ,PASS, ,0.052566414, ,0.006954488902610209, ,0.030429337368829208, ,0.00037180281212645475, ,1.75, ,0.633978975882762, ,0.39266545580702433, ,0.0681006510071223
35, ,PASS, ,0.05237237399999999, ,0.0069693251758545325, ,0.03034985875471929, ,0.00037077133699970813, ,1.75, ,0.6367239375373616, ,0.39331850370400606, ,0.07348829615722129
36, ,PASS, ,0.05230339199999999, ,0.006963257670006785, ,0.03034283980490194, ,0.00037010765788723536, ,1.75, ,0.6368316933411933, ,0.3929715720087345, ,0.07405971306708026
37, ,PASS, ,0.05242811, ,0.006956159993127833, ,0.03043114660598763, ,0.0003706093638228298, ,1.75, ,0.6355671687102409, ,0.39282871778126977, ,0.07581477929021857
38, ,PASS, ,0.05232773900000001, ,0.006941026938423926, ,0.03049803005224383, ,0.0003696108085949034, ,1.75, ,0.6362662180432326, ,0.3935225811718128, ,0.07932491173649517
39, ,PASS, ,0.052006050999999984, ,0.00690886609207561, ,0.030522969573682168, ,0.0003651161034307225, ,1.75, ,0.6367275374951089, ,0.3946245994979694, ,0.07567192506275382
40, ,PASS, ,0.05212407799999999, ,0.006939356416513086, ,0.030239737994326644, ,0.0003679630089966636, ,1.75, ,0.6375061421799432, ,0.39199200016326197, ,0.07812085467643518
41, ,PASS, ,0.05243199500000001, ,0.0069575904944771385, ,0.030266025868247587, ,0.00037055298214871854, ,1.75, ,0.634619532202359, ,0.39413481357523317, ,0.06797820452643824
42, ,PASS, ,0.052130942999999985, ,0.00693337272107768, ,0.030143275273769924, ,0.0003672428139868541, ,1.75, ,0.6370963763520715, ,0.39413481357523317, ,0.07089651231607519
43, ,PASS, ,0.05202219099999998, ,0.006910337889579861, ,0.03011210524642354, ,0.0003655791235334617, ,1.75, ,0.636235397693954, ,0.39311442623619924, ,0.0718964919083284
44, ,PASS, ,0.051896467, ,0.006935108121562674, ,0.030290469710209995, ,0.000366095600421286, ,1.75, ,0.638875749608107, ,0.39203281565682335, ,0.07824330115711925
45, ,PASS, ,0.052082733, ,0.006884259826763518, ,0.030293245162343625, ,0.0003644700927790985, ,1.75, ,0.6364492713181904, ,0.3935225811718128, ,0.0746719454705006
46, ,PASS, ,0.051751905, ,0.006910773649211783, ,0.03000678683700333, ,0.0003633462067072897, ,1.75, ,0.6384740343026658, ,0.39350217342503213, ,0.07567192506275382
47, ,PASS, ,0.05160999399999999, ,0.0068620855485786066, ,0.030289428347380666, ,0.0003604716690886885, ,1.75, ,0.6385388246654361, ,0.3939103283606457, ,0.07130466725168874
48, ,PASS, ,0.05152767600000001, ,0.006881524905324304, ,0.030124011183445237, ,0.0003608300869233479, ,1.75, ,0.6385260890927663, ,0.3920940388971654, ,0.07297810248770434
49, ,PASS, ,0.0515975, ,0.006878740951838116, ,0.030204600513458912, ,0.00036106568393915676, ,1.75, ,0.6393957180711506, ,0.3942572600559172, ,0.075406624354605
50, ,PASS, ,0.051358366, ,0.006886433348934529, ,0.030106221007734534, ,0.0003597653505725063, ,1.75, ,0.6420726107447787, ,0.3954205016224159, ,0.08373298504112162
51, ,PASS, ,0.05156558, ,0.006858841736935599, ,0.029952762524438275, ,0.00035974794315183094, ,1.75, ,0.638791414626302, ,0.3937266586396196, ,0.07501887716577213
52, ,PASS, ,0.051477463999999994, ,0.006873244738249497, ,0.030039159236342115, ,0.00036035194965521885, ,1.75, ,0.6398774225887943, ,0.3917879226954552, ,0.0739372665863962
53, ,PASS, ,0.051310898, ,0.006854444762626694, ,0.030018259806330484, ,0.00035802539160638283, ,1.75, ,0.6406115884709367, ,0.39119609803881555, ,0.08269218995530704
54, ,PASS, ,0.05160374400000001, ,0.006862825010612862, ,0.03020014393542989, ,0.0003607064273181967, ,1.75, ,0.6375020216830177, ,0.39358380441215485, ,0.0720801616293545
55, ,PASS, ,0.05154970700000002, ,0.0068723045401353, ,0.030207824169506747, ,0.00036038224598937564, ,1.75, ,0.6379581765560468, ,0.3942368523091365, ,0.07450868349625518
56, ,PASS, ,0.051515290000000005, ,0.006852113123834016, ,0.030207522938307384, ,0.00035909555729174945, ,1.75, ,0.6365924275277576, ,0.39348176567825144, ,0.07416175180098365
57, ,PASS, ,0.051620281000000004, ,0.006861202656799321, ,0.03026254126874962, ,0.0003601109844801462, ,1.75, ,0.6376783089471668, ,0.39311442623619924, ,0.07626374971939348
58, ,PASS, ,0.051626575, ,0.006868380499944884, ,0.030206006726801495, ,0.0003610515892050169, ,1.75, ,0.6384634989583623, ,0.3925226015795596, ,0.07752903001979551
59, ,PASS, ,0.052307829999999986, ,0.006918847432235637, ,0.03008218495255199, ,0.0003683407075267096, ,1.75, ,0.6355687049537598, ,0.39211444664394607, ,0.07644741944041958
60, ,PASS, ,0.07864831800000004, ,0.00918736874074566, ,0.028163137618824108, ,0.000732386525556442, ,1.6666666666666667, ,0.5829567230912147, ,0.3930736107426379, ,0.0450603048917369
61, ,PASS, ,0.14721800000000002, ,0.016335560328063076, ,0.022952604337870657, ,0.0024325837831749367, ,1.6666666666666667, ,0.5673199844495296, ,0.39619599600008165, ,0.03826452521377115
62, ,PASS, ,0.054127179000000025, ,0.007355614962481265, ,0.029938881132834022, ,0.00040424905833962943, ,1.75, ,0.6472522211711923, ,0.3924205628456562, ,0.07295769474092366
63, ,PASS, ,0.05146764000000001, ,0.007076826930867714, ,0.030107384727046386, ,0.0003702716794500515, ,1.6666666666666667, ,0.6527891019946134, ,0.39364502765249687, ,0.07501887716577213
64, ,PASS, ,0.05131594700000001, ,0.007031834778714755, ,0.030111500553049942, ,0.0003670452823092521, ,1.75, ,0.6527439364556944, ,0.39360421215893554, ,0.07838615538458399
65, ,PASS, ,0.051403723, ,0.007011749757498076, ,0.030185440477133122, ,0.0003665731859236091, ,1.6666666666666667, ,0.6509822790952572, ,0.3925226015795596, ,0.07173322993408297
66, ,PASS, ,0.051005573999999984, ,0.007019705286844339, ,0.03007362794412359, ,0.0003642946752069277, ,1.6666666666666667, ,0.6541086330300763, ,0.3946654149915308, ,0.0820799575518867
67, ,PASS, ,0.05093775099999999, ,0.00700289322609802, ,0.030023023402991778, ,0.00036264832925158365, ,1.6666666666666667, ,0.651942836984252, ,0.39311442623619924, ,0.07579437154343789
68, ,PASS, ,0.05087738000000002, ,0.007010427167811307, ,0.030235923041162426, ,0.00036272275155667903, ,1.75, ,0.6539204488071234, ,0.3938695128670843, ,0.08275341319564906
69, ,PASS, ,0.051128814, ,0.00698482357736924, ,0.030207354088692066, ,0.00036357973791156984, ,1.6666666666666667, ,0.6519209190163222, ,0.39401236709454907, ,0.0796718434317667
70, ,PASS, ,0.05086102, ,0.006981201200963555, ,0.030284599729597357, ,0.00036117580479883314, ,1.6666666666666667, ,0.6528120722551856, ,0.3938695128670843, ,0.0813452786677823
71, ,PASS, ,0.05085256199999999, ,0.0070748632541897385, ,0.03040396992530765, ,0.00036264740727145626, ,1.75, ,0.656253899730798, ,0.39397155160098773, ,0.07377400461215078
72, ,PASS, ,0.050778816999999976, ,0.006945578623887078, ,0.030054418351666293, ,0.0003588481207712693, ,1.75, ,0.6502414738545226, ,0.3935225811718128, ,0.07626374971939348
73, ,PASS, ,0.050816294000000005, ,0.0069542698455802455, ,0.030021286942307303, ,0.0003597828462756546, ,1.6666666666666667, ,0.6504735011858428, ,0.3925838248199016, ,0.08193710332442194
74, ,PASS, ,0.05072784000000001, ,0.006927993463063337, ,0.030135972627293322, ,0.0003574015355987443, ,1.6666666666666667, ,0.6494055192506145, ,0.39444092977694334, ,0.08199832656476398
75, ,PASS, ,0.05076562900000001, ,0.006923843127492824, ,0.030172496221505685, ,0.00035743781419769315, ,1.6666666666666667, ,0.649766748980164, ,0.39362461990571623, ,0.07426379053488705
76, ,PASS, ,0.05067601399999999, ,0.006891127657974855, ,0.03025374426277015, ,0.0003549019668577166, ,1.75, ,0.6507955441193026, ,0.3967674129099406, ,0.0813452786677823
77, ,PASS, ,0.050785817999999996, ,0.006939228737615747, ,0.030033787281892207, ,0.00035852205718343416, ,1.75, ,0.6505079605817703, ,0.3918695536825779, ,0.07581477929021857
78, ,PASS, ,0.050759068, ,0.006889986026270852, ,0.030125579319401644, ,0.0003555397066585394, ,1.75, ,0.6471745453731746, ,0.39452256076406605, ,0.07548825534172772
79, ,PASS, ,0.05061935099999999, ,0.006888043162906067, ,0.030134561946899042, ,0.0003541914697695638, ,1.6666666666666667, ,0.6478393592456358, ,0.3946858227383115, ,0.07754943776657619
80, ,PASS, ,0.05070112099999999, ,0.006910956904679357, ,0.02998144130711618, ,0.0003562588675728652, ,1.75, ,0.6494298429419646, ,0.3910532438113508, ,0.07612089549192874
81, ,PASS, ,0.05165754999999999, ,0.006991023974139411, ,0.030098613431562622, ,0.00036719686079642565, ,1.75, ,0.6441342196928432, ,0.39564498683700333, ,0.07475357645762332
82, ,PASS, ,0.050857646000000006, ,0.00691222053737637, ,0.030026038996347013, ,0.0003577094493750847, ,1.75, ,0.6473258294584564, ,0.39356339666537415, ,0.07773310748760229
83, ,PASS, ,0.05028511699999997, ,0.006859212452041356, ,0.029985061805065202, ,0.0003503668313975081, ,1.75, ,0.6495652446376563, ,0.39407359033489114, ,0.0803248913287484
84, ,PASS, ,0.050457524999999975, ,0.006877432998621769, ,0.030153037194547053, ,0.00035306673205278127, ,1.75, ,0.648734841468186, ,0.391420583253403, ,0.07908001877512703
85, ,PASS, ,0.05042520899999997, ,0.006864156298866159, ,0.029940714911736492, ,0.0003518343495382303, ,1.6666666666666667, ,0.6487193607082555, ,0.3939307361074264, ,0.0800391828738189
86, ,PASS, ,0.050187965999999966, ,0.006858311367313596, ,0.030076506074773985, ,0.0003496962837877718, ,1.75, ,0.6473789075745208, ,0.3937470663864003, ,0.07640660394685823
87, ,PASS, ,0.05021782299999997, ,0.007025425764384216, ,0.030654797970245506, ,0.00035679050967497367, ,1.75, ,0.6531625197169834, ,0.40654272361788535, ,0.08087590049182669
88, ,PASS, ,0.05000586899999995, ,0.006830174290959962, ,0.030146223819922043, ,0.00034693819409927754, ,1.75, ,0.6492043703039666, ,0.3929307565151732, ,0.07669231240178771
89, ,PASS, ,0.051009752000000005, ,0.006862496154442172, ,0.03007665667578213, ,0.00035621062745645526, ,1.75, ,0.64347719126194, ,0.3930736107426379, ,0.07271280177955552
90, ,PASS, ,0.05062521899999998, ,0.006830881321908798, ,0.030232388727781067, ,0.00035131884674559496, ,1.75, ,0.6447406065269069, ,0.39488990020611825, ,0.07987592089957347
91, ,PASS, ,0.04944479499999999, ,0.006758379635037851, ,0.029999908231872822, ,0.00034001228356470367, ,1.75, ,0.6498483799336833, ,0.3922573008714108, ,0.08138609416134365
92, ,PASS, ,0.049201017999999985, ,0.0067065111507114365, ,0.03021455861798739, ,0.00033533295432424905, ,1.75, ,0.6485623999227096, ,0.3933797269443481, ,0.07554947858206976
93, ,PASS, ,0.04904319699999998, ,0.006696472610310744, ,0.030318397472296487, ,0.00033437868018481085, ,1.6666666666666667, ,0.6492206596363008, ,0.39284912552805046, ,0.0704067263933389
94, ,PASS, ,0.04865445600000001, ,0.006676179119424658, ,0.030254464428481058, ,0.0003300317415058586, ,1.75, ,0.650731261793324, ,0.39358380441215485, ,0.07601885675802535
95, ,PASS, ,0.048706247, ,0.006622099021862892, ,0.030361843567886376, ,0.0003278528648037377, ,1.75, ,0.6499563741113548, ,0.39240015509887555, ,0.07640660394685823
96, ,PASS, ,0.048572625999999994, ,0.006610483754047633, ,0.030445130254892757, ,0.00032663521522097736, ,1.75, ,0.6501764301323167, ,0.39229811636497214, ,0.07677394338891043
97, ,PASS, ,0.04836749900000001, ,0.00663284007279471, ,0.030193009851839762, ,0.00032576544112352095, ,1.75, ,0.6520583557785642, ,0.3937878818799616, ,0.08301871390379788
98, ,PASS, ,0.04824922200000002, ,0.006580016997541077, ,0.030283468039631847, ,0.0003227733489438314, ,1.75, ,0.6503387449323734, ,0.39313483398297994, ,0.07683516662925247
99, ,PASS, ,0.04809087700000002, ,0.006611861363909464, ,0.030333371637517603, ,0.0003228117081523133, ,1.75, ,0.65196698743477, ,0.3945633762576274, ,0.08095753147894941
100, ,PASS, ,0.04818459900000002, ,0.006616964422321422, ,0.03027961702148936, ,0.0003240392369100836, ,1.75, ,0.6511877014118931, ,0.3949511234464603, ,0.08171261810983449
101, ,PASS, ,0.048394087000000016, ,0.006612340283259311, ,0.030368253147078632, ,0.0003248960790882794, ,1.75, ,0.6496969710203148, ,0.39280831003448907, ,0.0779984081957511
102, ,PASS, ,0.048722414, ,0.006577493316136339, ,0.03046105589028796, ,0.00032565216537574956, ,1.75, ,0.6461365353706323, ,0.3925226015795596, ,0.07759025326013755
103, ,PASS, ,0.04878763500000001, ,0.006615764422113057, ,0.030291059282055468, ,0.00032818736790930997, ,1.75, ,0.6461982497405027, ,0.3937878818799616, ,0.0782841166506806
104, ,PASS, ,0.049125616999999976, ,0.006691338586634847, ,0.030464029883471765, ,0.00033384880303130566, ,1.75, ,0.6485798152022716, ,0.39413481357523317, ,0.08544723577069856
105, ,PASS, ,0.049929402999999976, ,0.00672226320952523, ,0.03000892039876737, ,0.00034083267567197774, ,1.75, ,0.6435787562262063, ,0.3939103283606457, ,0.07479439195118467
106, ,PASS, ,0.05044793899999999, ,0.006741577986458656, ,0.030133264192975656, ,0.0003459038375588708, ,1.75, ,0.6412075258604376, ,0.39274708679414705, ,0.07473316871084264
107, ,PASS, ,0.05090803600000002, ,0.006911085932022674, ,0.030405509900614275, ,0.0003559143602619173, ,1.75, ,0.6406726170345468, ,0.40276729046345994, ,0.07483520744474603
108, ,PASS, ,0.05149125400000001, ,0.006862962854453699, ,0.03001470140303259, ,0.0003586267255452048, ,1.75, ,0.6365929127944674, ,0.39654292769535315, ,0.0768963898695945
109, ,PASS, ,0.04771334600000002, ,0.00672231498588017, ,0.030286619657558012, ,0.00032603033837679267, ,1.75, ,0.6679459256275302, ,0.3935225811718128, ,0.07075365808861044
