Channel, ,Pass/Fail, ,Amplitude, ,Sorting Function Response, ,Mean, ,Variance, ,NPeaksRatio, ,PosIntegralRatio, ,ToT50, ,ToT99
42, ,PASS, ,0.04544949900000002, ,0.0043782671553041445, ,0.03210604789310423, ,0.00020068280508110968, ,1.5, ,0.5293494776133059, ,0.39164506846799046, ,0.017652700965286424
43, ,PASS, ,0.08744050500000003, ,0.007940046634283715, ,0.029514203098304118, ,0.0006994610215951556, ,1.5, ,0.5181847056623125, ,0.3939103283606457, ,0.014530315707842698
44, ,PASS, ,0.09046534600000003, ,0.008473087068674117, ,0.02930329675863758, ,0.0007709311226147335, ,1.5, ,0.525074297838028, ,0.39817554743780736, ,0.015938450235709476
45, ,PASS, ,0.050468124999999975, ,0.00551250650328503, ,0.03126636440235914, ,0.00028069233954876825, ,1.6666666666666667, ,0.5643784478677515, ,0.395032754433583, ,0.02334646231709557
46, ,PASS, ,0.053384190999999984, ,0.004950458533915361, ,0.03144105372196486, ,0.00026692486811403767, ,1.5, ,0.5162096219562684, ,0.3905634578886145, ,0.013714005836615578
47, ,PASS, ,0.094533392, ,0.008606026782613102, ,0.029603102185669684, ,0.000817783117412645, ,1.5, ,0.5249093582245082, ,0.3983796249056142, ,0.014407869227158629
48, ,PASS, ,0.09833731, ,0.009015877150170586, ,0.029321632074039306, ,0.0008900688619823918, ,1.5, ,0.5277460660940188, ,0.39446133752372403, ,0.014183384012571172
49, ,PASS, ,0.05835511000000003, ,0.005858442176640801, ,0.030956550944470522, ,0.00034491463486011786, ,1.5833333333333333, ,0.5329025137594002, ,0.39948164323177077, ,0.018020040407338626
50, ,PASS, ,0.05239966200000001, ,0.004933029228135548, ,0.03181376567131283, ,0.00025969782000168133, ,1.5, ,0.5241857447096372, ,0.39044101140793047, ,0.015183363604824392
51, ,PASS, ,0.091176065, ,0.008190949515429882, ,0.02924054097793923, ,0.0007512782261888595, ,1.5, ,0.5188129415424566, ,0.39031856492724637, ,0.014509907961062019
52, ,PASS, ,0.09596928599999999, ,0.008669855565657943, ,0.02889798244770515, ,0.0008390072468283968, ,1.5, ,0.5130577751703989, ,0.39607354951939755, ,0.014754800922430155
53, ,PASS, ,0.05771586900000002, ,0.005726491180889043, ,0.031031521324054612, ,0.00033463162371547434, ,1.5, ,0.532706420188848, ,0.3924409705924369, ,0.017652700965286424
54, ,PASS, ,0.053274043, ,0.004993248819956895, ,0.031642864808269215, ,0.0002676221895843687, ,1.5833333333333333, ,0.5220940498238352, ,0.3942980755494786, ,0.014224199506132528
55, ,PASS, ,0.09181894600000003, ,0.008163353848150035, ,0.02966538342013428, ,0.000755223828320118, ,1.5, ,0.5162223718347791, ,0.3920736311503847, ,0.014632354441746086
56, ,PASS, ,0.096100585, ,0.00876889189919574, ,0.02936726554090733, ,0.0008463005355549953, ,1.5, ,0.5265806627685489, ,0.39431848329625924, ,0.014509907961062019
57, ,PASS, ,0.05931746600000004, ,0.00602768062966889, ,0.0310910143701149, ,0.0003600320333821496, ,1.5, ,0.5366528077221567, ,0.40533866655782536, ,0.015938450235709476
58, ,PASS, ,0.058641811000000016, ,0.005434861208253557, ,0.03143259059345728, ,0.0003203252778334392, ,1.5, ,0.5175128550689467, ,0.396869451643844, ,0.014183384012571172
59, ,PASS, ,0.09561078900000002, ,0.008800624113694942, ,0.02969485538376768, ,0.0008437331805565954, ,1.5833333333333333, ,0.5292377135439787, ,0.4017060876308647, ,0.01616293545029693
60, ,PASS, ,0.10164732999999998, ,0.009316781785080993, ,0.028961306528030042, ,0.0009520373442399825, ,1.5, ,0.5235531733336275, ,0.39564498683700333, ,0.014305830493255239
61, ,PASS, ,0.06694491909999999, ,0.006629750527488159, ,0.03039560245505194, ,0.00044697214594643914, ,1.5833333333333333, ,0.5375110588112327, ,0.393767474133181, ,0.018407787596171506
62, ,PASS, ,0.057832306000000014, ,0.005497772229943809, ,0.031659744696230695, ,0.00031909356809847847, ,1.5, ,0.5333665414016654, ,0.398073508703904, ,0.01540784881941185
63, ,PASS, ,0.094126253, ,0.008386414633631687, ,0.029495103526662722, ,0.0007945844685971348, ,1.5, ,0.5165573694844353, ,0.3951347931674864, ,0.014979286137017612
64, ,PASS, ,0.09856523999999998, ,0.009026672913420153, ,0.029078065935797228, ,0.0008934866382243997, ,1.5, ,0.5222188916355576, ,0.39697149037774737, ,0.014326238240035918
65, ,PASS, ,0.06597285138, ,0.006540546761861302, ,0.03045943709944695, ,0.00043501428291940633, ,1.5833333333333333, ,0.538265770215534, ,0.39195118466970064, ,0.016305789677761678
66, ,PASS, ,0.060784940000000016, ,0.0055662191105398965, ,0.03128545059488582, ,0.00034018792087770676, ,1.5, ,0.5132511842377366, ,0.38944103181567724, ,0.012163017081284056
67, ,PASS, ,0.09585181899999996, ,0.008758556602206306, ,0.029804459942450155, ,0.0008412775351972323, ,1.5833333333333333, ,0.5263363773590248, ,0.4018081263647681, ,0.01528540233872778
68, ,PASS, ,0.10105207, ,0.009214272822604909, ,0.02891807419175119, ,0.0009352730688428607, ,1.5, ,0.5223331459584004, ,0.3955225403563193, ,0.014652762188526765
69, ,PASS, ,0.06839709306, ,0.006651475367494257, ,0.030294761654864187, ,0.0004607662363242976, ,1.5, ,0.5305056576245313, ,0.3948286769657762, ,0.018203710128364727
70, ,PASS, ,0.05922477300000004, ,0.0057144189886035816, ,0.031508189431644254, ,0.00034039062594777363, ,1.5833333333333333, ,0.530684976843032, ,0.4012979326952511, ,0.013836452317299647
71, ,PASS, ,0.09311207300000002, ,0.008246069731405911, ,0.029123082835452337, ,0.0007734360205337367, ,1.4166666666666667, ,0.5124588169463113, ,0.39286953327483115, ,0.01499969388379829
72, ,PASS, ,0.09799746, ,0.009009593554918758, ,0.029282369897144958, ,0.0008875436167864279, ,1.5, ,0.5251318085233628, ,0.3950123466868023, ,0.014673169935307442
73, ,PASS, ,0.06733473105999997, ,0.00674530688245313, ,0.030225013200138772, ,0.0004579657068386249, ,1.5833333333333333, ,0.5366937868177415, ,0.39433889104303993, ,0.017509846737821678
74, ,PASS, ,0.060230004000000004, ,0.005691468782810381, ,0.03099975549580621, ,0.0003447702076023473, ,1.5833333333333333, ,0.525590011530421, ,0.3903797881675884, ,0.014469092467500663
75, ,PASS, ,0.09301803, ,0.008658086675418382, ,0.030081555576620886, ,0.000807459097337671, ,1.5833333333333333, ,0.5330444063295235, ,0.40266525172955653, ,0.017713924205628458
76, ,PASS, ,0.09822754999999998, ,0.009007023601938299, ,0.02886039699495929, ,0.0008886682410916443, ,1.5, ,0.5241802870531544, ,0.3972163833391155, ,0.015244586845166426
77, ,PASS, ,0.06994259041999999, ,0.007004385922237817, ,0.029956229093283812, ,0.0004938413311529432, ,1.5833333333333333, ,0.53969756205487, ,0.39115528254525417, ,0.016305789677761678
78, ,PASS, ,0.06315406500000001, ,0.005843315086087201, ,0.03077909412073223, ,0.0003724483273863201, ,1.5, ,0.5160703350882226, ,0.3930327952490765, ,0.015938450235709476
79, ,PASS, ,0.09674963899999998, ,0.008663971064186603, ,0.029020311773637276, ,0.0008438838592675138, ,1.5, ,0.5188898681846332, ,0.39248178608599826, ,0.014836431909552866
80, ,PASS, ,0.10107738999999999, ,0.009097534352805732, ,0.02877435659639599, ,0.0009250217528966226, ,1.5, ,0.5042772397977728, ,0.4030121834248281, ,0.0148976551498949
81, ,PASS, ,0.07397869236000001, ,0.007222974024506251, ,0.029318437106181507, ,0.0005431577057563149, ,1.5, ,0.5300948056866017, ,0.38615538458398807, ,0.01746903124426032
82, ,PASS, ,0.060761809700000016, ,0.005750069192994688, ,0.03095655473663803, ,0.0003519653255846931, ,1.5833333333333333, ,0.5224435756865343, ,0.3951347931674864, ,0.01540784881941185
83, ,PASS, ,0.093500879, ,0.008553867759204617, ,0.029498411963021165, ,0.0008027674283248782, ,1.4166666666666667, ,0.5241301702000932, ,0.39786943123609725, ,0.01499969388379829
84, ,PASS, ,0.09928897999999999, ,0.009294992396536294, ,0.029138867844941938, ,0.0009264333646868179, ,1.5, ,0.5342082943480078, ,0.39856329462664025, ,0.01636701291810371
85, ,PASS, ,0.07179882554000001, ,0.007424195725417366, ,0.02979861712271178, ,0.0005372931663953857, ,1.5833333333333333, ,0.5499069046883494, ,0.39397155160098773, ,0.02006081508540642
86, ,PASS, ,0.06208443600000002, ,0.005975762128871373, ,0.03114318688353299, ,0.0003724426532976784, ,1.5, ,0.5326213351863748, ,0.39525723964817044, ,0.014346645986816595
87, ,PASS, ,0.09350196500000002, ,0.008768653237998757, ,0.030101619027162713, ,0.0008241113813120196, ,1.5, ,0.5392691556253871, ,0.4030938144119508, ,0.015632334033999305
88, ,PASS, ,0.09904714000000002, ,0.00918552202861345, ,0.029057865391930775, ,0.0009137216134664654, ,1.5, ,0.5291570773732498, ,0.39397155160098773, ,0.015060917124140323
89, ,PASS, ,0.07269551512000003, ,0.007429836034993089, ,0.029886899624497462, ,0.0005448946845682172, ,1.5833333333333333, ,0.5419267743025806, ,0.39664496642925656, ,0.018326156609048794
90, ,PASS, ,0.06651873114, ,0.006214780983569399, ,0.030490851577518827, ,0.0004177535393779535, ,1.5, ,0.518371249121099, ,0.39099202057100874, ,0.015122140364482357
91, ,PASS, ,0.095687476, ,0.008571219139061925, ,0.029037013072386278, ,0.0008269160780920969, ,1.5, ,0.5135948089347654, ,0.39203281565682335, ,0.014652762188526765
92, ,PASS, ,0.10119953999999998, ,0.009129969831762941, ,0.028594820128568805, ,0.0009316094933762699, ,1.5, ,0.5143075441281764, ,0.38946143956245793, ,0.014836431909552866
93, ,PASS, ,0.07529427184000005, ,0.007566775266262752, ,0.029601257321279162, ,0.0005781389975383959, ,1.5833333333333333, ,0.5367969795541829, ,0.3938491051203037, ,0.017958817166996592
94, ,FAIL, ,0.008507190000000019, ,0.0007194916337109976, ,0.035195474033182995, ,6.541116463591795e-06, ,1.6666666666666667, ,0.5654363283627336, ,0.396298034733985, ,0.01595885798249015
95, ,PASS, ,0.092996638, ,0.008571560444154271, ,0.029687732374237264, ,0.0008008269429170818, ,1.5, ,0.5298391763401425, ,0.39431848329625924, ,0.015244586845166426
96, ,PASS, ,0.096835261, ,0.009056690170606065, ,0.02925398677251485, ,0.0008817044160820012, ,1.5, ,0.5303809212656461, ,0.39368584314605826, ,0.015162955858043713
97, ,PASS, ,0.07166513744, ,0.007477958709265526, ,0.029973291600987734, ,0.0005406939862503444, ,1.5833333333333333, ,0.5482344357617598, ,0.3984408481459562, ,0.021877104548886757
98, ,PASS, ,0.06233905900000001, ,0.0060288232966867975, ,0.030583526588845125, ,0.00038004332299785036, ,1.5833333333333333, ,0.5283677322104927, ,0.3895634782963613, ,0.017020060815085405
99, ,PASS, ,0.08682087299999999, ,0.00813246301778313, ,0.029728372547294952, ,0.0007096098174812887, ,1.5, ,0.5280791492363066, ,0.39476745372543415, ,0.014734393175649476
100, ,PASS, ,0.09026275100000003, ,0.008412514544234594, ,0.028558951107936572, ,0.0007660721460988092, ,1.5, ,0.5224517329811328, ,0.38699210220199587, ,0.017101691802208118
101, ,PASS, ,0.06782797488, ,0.007444927600493452, ,0.03014193553907063, ,0.0005103667510447373, ,1.6666666666666667, ,0.5643798262723586, ,0.3983592171588335, ,0.024999489806330485
198, ,FAIL, ,0.005964799999999999, ,7.887306795126403e-05, ,0.03571447590538968, ,6.770900264633556e-07, ,0.3333333333333333, ,0.18602309979256218, ,0.7408420236321708, ,0.010652843819513888
199, ,FAIL, ,0.004757480000000008, ,8.972588595772121e-05, ,0.03571542960755903, ,4.769758300059133e-07, ,0.9166666666666666, ,0.2550493122364121, ,0.6601497928613702, ,0.003836656394767454
200, ,FAIL, ,0.012028559999999994, ,0.0003189126523027731, ,0.035625469853472376, ,3.804015517908738e-06, ,0.9166666666666666, ,0.28135276799804665, ,0.5742739944082774, ,0.0018366972102610152
201, ,PASS, ,0.047338489, ,0.007187730650601644, ,0.03186564665680292, ,0.0003759439267240758, ,1.8333333333333333, ,0.8714752676553915, ,0.40450194893981756, ,0.058080447337809434
202, ,PASS, ,0.05145206899999999, ,0.007623441476667134, ,0.03156768132691169, ,0.0004315895368881968, ,1.8333333333333333, ,0.8702165170594264, ,0.40491010387543114, ,0.05822330156527418
203, ,PASS, ,0.049457065999999994, ,0.007500775935395731, ,0.03170480872818922, ,0.00039815115683940444, ,1.8333333333333333, ,0.8640148991441852, ,0.40497132711577316, ,0.04769290422644436
204, ,PASS, ,0.056723078600000004, ,0.00807262189094728, ,0.0311515316230281, ,0.0005026106673431068, ,1.8333333333333333, ,0.8621903352002515, ,0.40480806514152773, ,0.052366278239219605
205, ,PASS, ,0.06107705860000001, ,0.008717564376297622, ,0.030641976360074284, ,0.0005833306843586717, ,1.9166666666666667, ,0.8624312762538084, ,0.40278769821024063, ,0.05571314871125079
206, ,PASS, ,0.06252116180000002, ,0.008827642478242494, ,0.03124501296912308, ,0.000606200258198229, ,1.9166666666666667, ,0.8517693159975347, ,0.4175833146262321, ,0.04832554437664537
207, ,PASS, ,0.06457230068000001, ,0.009517185750058683, ,0.030397060609416136, ,0.0006662478573533549, ,1.8333333333333333, ,0.869098249550724, ,0.40460398767372097, ,0.057223321973020956
208, ,PASS, ,0.05198949499999999, ,0.007541696345450056, ,0.03186105118140446, ,0.0004244269601652448, ,1.8333333333333333, ,0.8602278687098388, ,0.40866512928307586, ,0.05165200710189588
209, ,PASS, ,0.053541979999999996, ,0.007565332528301484, ,0.03146099324585212, ,0.0004495572433115514, ,1.8333333333333333, ,0.8515502582698483, ,0.4064815003775433, ,0.06022326074978061
210, ,PASS, ,0.049810642, ,0.006908713450494876, ,0.03181532541662415, ,0.0003805642607978643, ,1.8333333333333333, ,0.8538584534017464, ,0.4038489010428359, ,0.049325523968898596
211, ,PASS, ,0.058465036199999994, ,0.008461211235351792, ,0.03122938108875329, ,0.0005429148408953346, ,1.8333333333333333, ,0.8598077681497602, ,0.4076243341972613, ,0.055998857166180284
212, ,PASS, ,0.061880819920000024, ,0.009075634966840907, ,0.03060913680026938, ,0.0006131627577589215, ,1.9166666666666667, ,0.8605105852181059, ,0.4029917756780474, ,0.05985592130772841
213, ,PASS, ,0.06746053768, ,0.009611178160310185, ,0.030602207292912395, ,0.0007092915555747882, ,1.8333333333333333, ,0.8546861195603532, ,0.41409358992673617, ,0.060100814269096546
214, ,PASS, ,0.07512396999999998, ,0.01089255213063371, ,0.02973875560600804, ,0.0008888967866586191, ,1.9166666666666667, ,0.8514173272600316, ,0.40793045039897147, ,0.06201914246648028
215, ,PASS, ,0.07822695399999999, ,0.01152606014030051, ,0.029584895469480215, ,0.0009790945490248232, ,1.8333333333333333, ,0.8635396775610483, ,0.4099304095834779, ,0.0670802636680884
216, ,PASS, ,0.06669780556000003, ,0.009960369420885287, ,0.030093404542682806, ,0.00071166098308117, ,1.8333333333333333, ,0.8659160281758005, ,0.40327748413297687, ,0.06161098753086672
217, ,PASS, ,0.07507660599999999, ,0.011345223225762367, ,0.029143372045631725, ,0.000904218574924475, ,1.8333333333333333, ,0.8702749252471954, ,0.4013387481888125, ,0.06999857145772535
218, ,PASS, ,0.07289170569999998, ,0.010555144067407795, ,0.030458532883614622, ,0.000831782998996896, ,1.8333333333333333, ,0.8551372054413099, ,0.4169506744760311, ,0.05871308748801045
219, ,PASS, ,0.07068032384, ,0.010684058735504237, ,0.029723287421113857, ,0.0008096310167326125, ,1.8333333333333333, ,0.8684929015894834, ,0.404093794004204, ,0.06322319952654028
220, ,PASS, ,0.04483598199999998, ,0.006613641190407347, ,0.03224554158445746, ,0.00031975377240407883, ,1.8333333333333333, ,0.8593664359829017, ,0.40568559825309686, ,0.05450909165119079
221, ,PASS, ,0.054093231, ,0.0077914290321104305, ,0.03169448628681047, ,0.00045854931385311514, ,1.8333333333333333, ,0.8540933270596397, ,0.4085426828023918, ,0.055958041672618926
222, ,PASS, ,0.053047108999999995, ,0.007568501550306514, ,0.03158002735270708, ,0.0004405604503831107, ,1.8333333333333333, ,0.8540912184753442, ,0.40331829962653826, ,0.054753984612558926
223, ,PASS, ,0.061682971520000025, ,0.009035391538934267, ,0.031079009758576356, ,0.0006113433888616308, ,1.8333333333333333, ,0.8515517503017243, ,0.4121956694761331, ,0.062039550213260956
224, ,PASS, ,0.07772608199999997, ,0.011664078788683226, ,0.029255090356115183, ,0.0009800816113639263, ,1.8333333333333333, ,0.862504335419551, ,0.4072365870084284, ,0.068753698904104
225, ,PASS, ,0.07483994170000001, ,0.01104904211234989, ,0.029833833709516137, ,0.0008996634617814706, ,1.8333333333333333, ,0.8613847142913166, ,0.4092569539397155, ,0.0682843207281484
226, ,PASS, ,0.07259048493999998, ,0.010554944926218087, ,0.0300571353437685, ,0.0008289767260627152, ,1.8333333333333333, ,0.857899714697201, ,0.40911409971225077, ,0.06150894879696333
227, ,PASS, ,0.08972005399999998, ,0.014004988315594836, ,0.0278267101414665, ,0.0013475735140369492, ,1.9166666666666667, ,0.8747509231693842, ,0.402950960184486, ,0.07577396379665721
228, ,PASS, ,0.077110872, ,0.011729624449876751, ,0.02938745258076366, ,0.0009779733158546207, ,1.9166666666666667, ,0.8660741743569264, ,0.4074202567294545, ,0.07248831656496806
229, ,PASS, ,0.07849624100000001, ,0.011700232883900725, ,0.029327073821350583, ,0.0009915543816265899, ,1.9166666666666667, ,0.8522146990209781, ,0.4088283912573213, ,0.06928430032040163
230, ,PASS, ,0.0670551265, ,0.009834325512876914, ,0.030122532412807906, ,0.0007180492732319335, ,1.9166666666666667, ,0.856734005294007, ,0.40127752494847047, ,0.06118242484847248
231, ,PASS, ,0.08767606199999999, ,0.013677562754714613, ,0.02799363966143548, ,0.001280551364533762, ,1.9166666666666667, ,0.8658744425954742, ,0.40578763698700027, ,0.07922287300259179
232, ,PASS, ,0.06812963792000003, ,0.01030681819972665, ,0.030063114193996047, ,0.0007581154834693089, ,1.9166666666666667, ,0.8646357403172116, ,0.4060121222015877, ,0.06914144609293688
233, ,PASS, ,0.06886081374000003, ,0.01017617156051994, ,0.030401271601191816, ,0.0007611663893247932, ,1.9166666666666667, ,0.8543694383163253, ,0.4141548131670782, ,0.06489663476255586
234, ,PASS, ,0.06712689146000002, ,0.009792658136302467, ,0.030653294388277793, ,0.0007129179312151897, ,1.8333333333333333, ,0.8532104120362094, ,0.415501724454603, ,0.061345686822717904
235, ,PASS, ,0.06749392624, ,0.010307432312583893, ,0.029949990684802353, ,0.0007467529022480714, ,1.9166666666666667, ,0.8714474577640247, ,0.40491010387543114, ,0.07136589049203078
236, ,PASS, ,0.0555239716, ,0.008207766990749875, ,0.031178080587334952, ,0.0004967898086535036, ,1.8333333333333333, ,0.8578301558240128, ,0.40491010387543114, ,0.055080508561049776
237, ,PASS, ,0.07214644348, ,0.010737297705602687, ,0.02959977720393462, ,0.0008347397592445014, ,1.9166666666666667, ,0.8589138236766688, ,0.40397134752351993, ,0.0561621191404257
238, ,PASS, ,0.06914411112000005, ,0.010236176677618345, ,0.030160509549192877, ,0.000761736743109744, ,1.9166666666666667, ,0.8599824596612886, ,0.4080120813860942, ,0.06808024326034162
239, ,PASS, ,0.06687434842, ,0.010150516083568154, ,0.030199140822636274, ,0.0007324738284860276, ,1.8333333333333333, ,0.864001222107369, ,0.4075427032101386, ,0.06952919328176976
240, ,PASS, ,0.055807989999999995, ,0.00841474263377376, ,0.031047464271953637, ,0.0005112617387056299, ,1.9166666666666667, ,0.8568546953260133, ,0.4063182384032979, ,0.06614150731617723
241, ,PASS, ,0.07852048399999999, ,0.011936773409007818, ,0.02982482146690884, ,0.0010090731506296373, ,1.8333333333333333, ,0.8536609297578862, ,0.41560376318850634, ,0.06783535029897349
242, ,PASS, ,0.06775392497999999, ,0.010128149436293777, ,0.03017999024693374, ,0.0007404974328520283, ,1.9166666666666667, ,0.8514331423187992, ,0.4073182179955511, ,0.06189669598579621
243, ,PASS, ,0.08813645199999999, ,0.014016480958084372, ,0.028280332867900656, ,0.0013225165904686069, ,1.9166666666666667, ,0.8633748420635611, ,0.40691006305993754, ,0.0781004469296545
244, ,PASS, ,0.06629033506000001, ,0.01020091579618219, ,0.030189915199485728, ,0.0007289328341642665, ,1.9166666666666667, ,0.8564538490376847, ,0.4071753637680864, ,0.07193730740188976
245, ,PASS, ,0.06880991806, ,0.010445225949162343, ,0.03019960363033408, ,0.0007787077281406666, ,1.8333333333333333, ,0.8560104958810115, ,0.4087059447766372, ,0.06908022285259484
246, ,PASS, ,0.057253375, ,0.008838918194617344, ,0.031403141376094366, ,0.0005490198084374655, ,1.9166666666666667, ,0.8687071276344122, ,0.4126854553988694, ,0.07146792922593416
247, ,PASS, ,0.07283281655999999, ,0.011517511430164, ,0.029483652451378545, ,0.0008954748217596967, ,1.9166666666666667, ,0.8612490923421907, ,0.4101957102916267, ,0.08230444276647415
248, ,PASS, ,0.05589482300000001, ,0.008525900083202722, ,0.031143486179465725, ,0.000516534609826498, ,1.9166666666666667, ,0.8560509629501397, ,0.4067876165792535, ,0.06524356645782739
249, ,PASS, ,0.054830165, ,0.00886196818443248, ,0.03138302783392175, ,0.0005157366458989511, ,1.8333333333333333, ,0.8718469475300658, ,0.4105018264933369, ,0.07103936654353993
250, ,FAIL, ,0.01755838, ,0.000672034739049206, ,0.035319724565417036, ,1.3872098922561678e-05, ,1.25, ,0.4729009396106133, ,0.40699169404706026, ,0.0018366972102610152
251, ,PASS, ,0.054972614, ,0.009133112568436364, ,0.03123381553315238, ,0.0005269238408171183, ,1.8333333333333333, ,0.8753578614168003, ,0.41035897226587215, ,0.0743046060284484
252, ,PASS, ,0.03897496000000001, ,0.006193487854187617, ,0.03229435333095244, ,0.00026397482809549326, ,1.9166666666666667, ,0.8736728004221511, ,0.4003999918369013, ,0.06516193547070467
253, ,FAIL, ,0.03378935000000004, ,0.0038751953899187537, ,0.033770921407726376, ,0.00013659067591827536, ,1.75, ,0.6762007882813754, ,0.40035917634333995, ,0.041611395685802334
254, ,FAIL, ,0.024096859999999998, ,0.0025653768692433234, ,0.034321095964368074, ,6.472273766693183e-05, ,1.75, ,0.6484431654965424, ,0.39448174527050467, ,0.02524438276769862
