Channel, ,Pass/Fail, ,Amplitude, ,Sorting Function Response, ,Mean, ,Variance, ,NPeaksRatio, ,IntegralRatio, ,ToT50, ,ToT99
32, ,PASS, ,0.022199905, ,0.018041363093339476, ,0.00010406361559968165, ,8.249800041421704e-05, ,1.0, ,0.39090512058627386, ,0.5034591130793249, ,0.0752229546335789
33, ,PASS, ,0.07781445000000006, ,0.0490800655078742, ,0.00033395529887145155, ,0.000800828449217476, ,1.0, ,0.33261053499814497, ,0.504336646190894, ,0.049794902144854186
34, ,PASS, ,0.09763090999999999, ,0.05446252101099404, ,0.0004736791304259098, ,0.0011199882633137288, ,1.0, ,0.3114516038872857, ,0.5031121813840533, ,0.03199934695210302
35, ,PASS, ,0.08140022, ,0.05505257129277833, ,0.0003044038986959448, ,0.0009385110177507074, ,1.0, ,0.3468584284082273, ,0.5041937919634293, ,0.07269239403277485
36, ,PASS, ,0.03678590000000001, ,0.029635048868836025, ,4.032886269667941e-05, ,0.00022435440622681088, ,1.0, ,0.3868596346126417, ,0.5047652088732884, ,0.08561049774494398
37, ,PASS, ,0.02624111000000001, ,0.021413577532689375, ,0.00015838955629476998, ,0.00011595698554159739, ,1.0, ,0.3906915194335468, ,0.5043570539376747, ,0.08822268933287075
38, ,PASS, ,0.08016314000000002, ,0.04986543098960828, ,0.0005103540591008346, ,0.0008385743701652101, ,1.0, ,0.3320922505639655, ,0.504275422950552, ,0.05575396420481215
39, ,PASS, ,0.09887093999999998, ,0.05458226563718028, ,0.0004097916024162771, ,0.0011374639717748832, ,0.9166666666666666, ,0.30849746302573255, ,0.5036835982939124, ,0.03061162017101692
40, ,PASS, ,0.08370642, ,0.05554545885716585, ,0.00034910832289136956, ,0.0009745020458481127, ,1.0, ,0.34337546277708025, ,0.5043978694312361, ,0.06073345441929757
41, ,PASS, ,0.038425790000000015, ,0.031839686665174845, ,0.0002556847874125019, ,0.00025237648676189025, ,1.0, ,0.39749979436581623, ,0.5045815391522622, ,0.08646762310973245
42, ,PASS, ,0.031590909999999986, ,0.02501110816104779, ,0.00015214569796534748, ,0.000163922137362398, ,1.0, ,0.3810741170189187, ,0.5041121609763066, ,0.11267116997612293
43, ,PASS, ,0.08982390999999997, ,0.053258558610266835, ,0.0004986950692843004, ,0.0010051440601562625, ,1.0, ,0.3223720564749726, ,0.5041325687230873, ,0.04024407665149691
44, ,PASS, ,0.10626093, ,0.05746046831128922, ,0.0005799292924634193, ,0.0012877733490226598, ,1.0, ,0.3052592508411276, ,0.5051325483153405, ,0.02650966306810065
45, ,PASS, ,0.09342491000000004, ,0.05864168428750452, ,0.000523747820860799, ,0.0011500962825555842, ,1.0, ,0.3341465956923579, ,0.5042958306973327, ,0.044856227423930126
46, ,PASS, ,0.039573520000000015, ,0.03371355634633249, ,0.00024354754953980542, ,0.00027608785549437234, ,1.0, ,0.4015920655408103, ,0.5053774412767086, ,0.11512009958980429
47, ,PASS, ,0.032521549999999996, ,0.02611934571737694, ,0.00013425322932185036, ,0.00017600544390111828, ,1.0, ,0.38364070684430707, ,0.5040509377359645, ,0.11532417705761107
48, ,PASS, ,0.08859627999999997, ,0.053123634163883694, ,0.0005026810950796919, ,0.0009883725609246146, ,1.0, ,0.3241855213723131, ,0.5047039856329463, ,0.046509254913165037
49, ,PASS, ,0.10524323, ,0.05744308534946567, ,0.0004501781043244016, ,0.0012747295049583163, ,0.9166666666666666, ,0.3063520083180011, ,0.5040101222424033, ,0.030040203261157937
50, ,PASS, ,0.09290896000000004, ,0.05890961884284808, ,0.00037774870431215695, ,0.0011482649682459235, ,1.0, ,0.3346713558733273, ,0.5038876757617191, ,0.046570478153507074
51, ,PASS, ,0.039661550000000004, ,0.03360783578075192, ,0.00012584615875186226, ,0.0002758016406668513, ,1.0, ,0.3977966637077316, ,0.5049692863410951, ,0.11609967143527683
52, ,PASS, ,0.03797263000000002, ,0.029781864701351905, ,0.0001174429614089508, ,0.0002349375335845144, ,1.0, ,0.37650630453270467, ,0.5039488990020612, ,0.1426909654905002
53, ,PASS, ,0.09317751000000003, ,0.05487639283727412, ,0.0003630230844268485, ,0.0010745493134113136, ,1.0, ,0.31948537104214925, ,0.5041733842166486, ,0.04050937735964572
54, ,PASS, ,0.10821338000000003, ,0.05842091496062465, ,0.0005926912409950823, ,0.0013334192309250174, ,1.0, ,0.30541948791812834, ,0.5044386849247975, ,0.029387155364176243
55, ,PASS, ,0.09701335999999997, ,0.060377776532102224, ,0.0004881439605314177, ,0.001229867730500348, ,1.0, ,0.3326402260524493, ,0.5031529968776147, ,0.04224403583600335
56, ,PASS, ,0.045575460000000005, ,0.038716699959028995, ,1.9372017877185938e-05, ,0.00036599554420870613, ,1.0, ,0.3948196186347848, ,0.5042346074569907, ,0.12987490051223444
57, ,PASS, ,0.03667933000000001, ,0.02877530239737512, ,0.00016153490996102118, ,0.00021939045854367384, ,1.0, ,0.3778545123749164, ,0.5046835778861656, ,0.118813901757107
58, ,PASS, ,0.08926605999999994, ,0.05305104361868576, ,0.00029152955756004984, ,0.0009947096059887655, ,1.0, ,0.3208089306871786, ,0.5034795208261056, ,0.041999142874635215
59, ,PASS, ,0.10308556000000002, ,0.05621441450881053, ,0.00041236389400216343, ,0.0012218084707849785, ,0.9166666666666666, ,0.3059997789994673, ,0.5038468602681578, ,0.028652476480071836
60, ,PASS, ,0.09205548000000002, ,0.05824367120469984, ,0.00045483139752249983, ,0.0011248258417227478, ,1.0, ,0.335364884233154, ,0.5032754433582988, ,0.04667251688741046
61, ,PASS, ,0.043457739999999995, ,0.037283401757345444, ,-6.056994663374166e-05, ,0.00033638837615464245, ,1.0, ,0.39674439398467726, ,0.5040101222424033, ,0.12507908001877513
62, ,PASS, ,0.038259250000000015, ,0.029612111110162587, ,0.00023644574437256405, ,0.00023565622860336627, ,1.0, ,0.3761304548478145, ,0.5052345870492438, ,0.126038244117467
63, ,PASS, ,0.09077168999999999, ,0.05373598323487629, ,0.00039358961408950826, ,0.0010245975067130777, ,1.0, ,0.3211334678218858, ,0.5035611518132282, ,0.03924409705924369
64, ,PASS, ,0.10401141, ,0.056766918974357365, ,0.0005535663470133263, ,0.0012447796908839543, ,0.9166666666666666, ,0.3074692890038376, ,0.5038468602681578, ,0.0284075835187037
65, ,PASS, ,0.09345472000000005, ,0.05869262933737863, ,0.000570281803636661, ,0.001151040932604002, ,1.0, ,0.3348598682209586, ,0.5035611518132282, ,0.04597865349686741
66, ,PASS, ,0.04656326000000001, ,0.03929474130339247, ,0.00017042522542397084, ,0.0003800751372247435, ,1.0, ,0.39710753306079477, ,0.5038876757617191, ,0.13136466602722394
67, ,PASS, ,0.04360169999999999, ,0.03290957065764063, ,0.00021707722168935303, ,0.00029896439054719125, ,1.0, ,0.37068305702593946, ,0.5029897349033693, ,0.14189506336605376
68, ,PASS, ,0.09451651000000003, ,0.05504161997868412, ,0.0005145411863023202, ,0.0010935646753740137, ,1.0, ,0.31890588486537413, ,0.5039693067488419, ,0.03728495336829861
69, ,PASS, ,0.10728507000000001, ,0.0582398187274657, ,0.0005378139211444661, ,0.0013175055008069797, ,0.9166666666666666, ,0.30622067273816905, ,0.5038468602681578, ,0.026958633497275567
70, ,PASS, ,0.09728326000000001, ,0.06021393928919621, ,0.0005304209073284218, ,0.0012295440141873307, ,1.0, ,0.3315809314125972, ,0.5034591130793249, ,0.04136650272443419
71, ,PASS, ,0.04949822, ,0.041435441676042566, ,0.000285445206057019, ,0.0004263908044180767, ,1.0, ,0.3965124640696961, ,0.5040713454827452, ,0.15242546070488358
72, ,PASS, ,0.04168937, ,0.03260006326537493, ,0.00023913176486194178, ,0.0002826120751562763, ,1.0, ,0.3783537789000662, ,0.5047448011265077, ,0.124834187057407
73, ,PASS, ,0.09085252999999999, ,0.05444423848598327, ,0.00043975347972490355, ,0.0010386365110940546, ,1.0, ,0.3229697959598374, ,0.504724393379727, ,0.04363176261708945
74, ,PASS, ,0.10431668999999999, ,0.057706513205844294, ,0.00043942645537846153, ,0.0012684510232813377, ,0.9166666666666666, ,0.3092345141643586, ,0.503132589130834, ,0.028795330707536582
75, ,PASS, ,0.09295174000000003, ,0.05930364166584415, ,0.00034532182465664, ,0.0011560454736024113, ,1.0, ,0.3357914373224388, ,0.5031529968776147, ,0.05342748107181486
76, ,PASS, ,0.040675960000000004, ,0.03491521172103298, ,0.00026704531815677256, ,0.0002944749636961971, ,1.0, ,0.4055426710490853, ,0.5040101222424033, ,0.12126283137078835
77, ,PASS, ,0.04466608999999998, ,0.03450340815326724, ,0.00020855912267096584, ,0.0003204080253233593, ,1.0, ,0.3747301205975051, ,0.5035407440664477, ,0.1364053794820514
78, ,PASS, ,0.09172927, ,0.054825974765477264, ,0.0004942103785637032, ,0.0010561255015062527, ,1.0, ,0.32356255103088954, ,0.5038876757617191, ,0.04152976469867962
79, ,PASS, ,0.10466307999999999, ,0.05821428183252228, ,0.0006521225340299177, ,0.0012832429040546183, ,0.9166666666666666, ,0.3120066306772996, ,0.5030917736372728, ,0.03171363849717353
80, ,PASS, ,0.09405253000000004, ,0.060072723290148185, ,0.0004104367372094451, ,0.001184576108931282, ,1.0, ,0.3365027937901594, ,0.5030305503969307, ,0.05130507540662436
81, ,PASS, ,0.04326462, ,0.03642262134592541, ,3.196402271382243e-05, ,0.00032685376034388106, ,1.0, ,0.39306208183936236, ,0.5046223546458235, ,0.12373216873125038
82, ,PASS, ,0.0452509, ,0.03466897073119503, ,0.00016812464480316745, ,0.0003264965475464796, ,1.0, ,0.37211178086217334, ,0.5038060447745965, ,0.13522173016877206
83, ,PASS, ,0.09542884000000001, ,0.05693488534427148, ,0.0004965084553376462, ,0.0011407688899824201, ,1.0, ,0.3229882173756243, ,0.5041325687230873, ,0.042427705557029446
84, ,PASS, ,0.10921379000000006, ,0.06025805028650896, ,0.0004652638535948248, ,0.0013866285385141872, ,0.9166666666666666, ,0.30839493745575125, ,0.5036223750535703, ,0.030325911716087426
85, ,PASS, ,0.09743793999999999, ,0.06162966495765968, ,0.00045975949082671766, ,0.0012594479086108802, ,1.0, ,0.3352916295310958, ,0.5029081039162466, ,0.048305136629864694
86, ,PASS, ,0.04679931000000001, ,0.03930377949066329, ,0.0003008772288320647, ,0.00038165139093837856, ,1.0, ,0.3979731373716998, ,0.5040509377359645, ,0.13042590967531276
87, ,PASS, ,0.03988569, ,0.03180116429876284, ,0.00017297718691455298, ,0.0002630883486908989, ,1.0, ,0.38249723412193665, ,0.5037652292810351, ,0.11654864186445174
88, ,PASS, ,0.09125076000000001, ,0.05661277587658592, ,0.00045084033652374457, ,0.0010832729809525877, ,1.0, ,0.33031601190237986, ,0.503520336319667, ,0.05381522826064774
89, ,PASS, ,0.10589706000000002, ,0.05954056638538021, ,0.0004072356621293444, ,0.0013273946560571515, ,1.0, ,0.31109097689553383, ,0.5039488990020612, ,0.033489112467092505
90, ,PASS, ,0.09345422000000003, ,0.06129497198571366, ,0.00031049246260280426, ,0.0012001005563802378, ,1.0, ,0.3404595933705221, ,0.503132589130834, ,0.06030489173690333
91, ,PASS, ,0.04483184999999999, ,0.037824580170816906, ,0.00030104400546927606, ,0.00035140888661470304, ,1.0, ,0.40078362341978946, ,0.5038876757617191, ,0.10281422828105549
92, ,PASS, ,0.04175542000000001, ,0.03283384820860203, ,0.0003068810291626703, ,0.0002844244788053947, ,1.0, ,0.3814410906038648, ,0.5039897144956226, ,0.11969143486867614
93, ,PASS, ,0.09209961, ,0.05699270271704854, ,0.000533812000775495, ,0.0011006623941100864, ,1.0, ,0.33048767356546416, ,0.5038060447745965, ,0.0519989387971674
94, ,PASS, ,0.10625095999999999, ,0.0597052411522067, ,0.00048764169221036295, ,0.0013356477936354908, ,1.0, ,0.31194462846068927, ,0.5037448215342544, ,0.03048917369033285
95, ,PASS, ,0.09477941000000005, ,0.06174023752809904, ,0.0005789138537989032, ,0.0012259358616341287, ,1.0, ,0.3422950796280912, ,0.5027244341952205, ,0.05365196628640232
96, ,PASS, ,0.047606010000000004, ,0.039743474553743954, ,0.00019297843444011312, ,0.00039224370514597874, ,1.0, ,0.39423436711593557, ,0.5047856166200689, ,0.11407930450398972
97, ,PASS, ,0.044094309999999984, ,0.03439431837515316, ,0.00015745366910879365, ,0.00031525371516493317, ,1.0, ,0.3756110824217755, ,0.5044182771780168, ,0.1324054611130385
98, ,PASS, ,0.09973548999999998, ,0.060253042375176445, ,0.0003342735768657783, ,0.0012611335126254675, ,1.0, ,0.32329080536768456, ,0.5043162384441134, ,0.04473378094324606
99, ,PASS, ,0.11413257000000002, ,0.06286152735030347, ,0.00046834529989183885, ,0.0015118815393046572, ,1.0, ,0.3077147503531081, ,0.5040713454827452, ,0.029958572274035224
100, ,PASS, ,0.1032846, ,0.06504823117541755, ,0.0005418065425195407, ,0.0014092096364934855, ,1.0, ,0.3347669026154141, ,0.5030917736372728, ,0.047019448582681984
101, ,PASS, ,0.051798979999999994, ,0.043444372530243844, ,0.0002849571839350213, ,0.0004677229740011046, ,1.0, ,0.39717806588866295, ,0.5032958511050795, ,0.1299973469929185
198, ,PASS, ,0.06558701, ,0.050234386734051804, ,0.00014494447534213543, ,0.0006730105697644741, ,1.0, ,0.3781594283792724, ,0.5108467174139303, ,0.05330503459113079
199, ,PASS, ,0.061046370000000016, ,0.045398393830127275, ,-6.366057629436169e-05, ,0.0005698348921505095, ,1.0, ,0.3696323229091372, ,0.5119691434868676, ,0.04836635987020673
200, ,PASS, ,0.03962266, ,0.028283874412118885, ,-2.6966945384380256e-05, ,0.0002285465874310844, ,1.0, ,0.3663321642307012, ,0.5058060039591029, ,0.03724413787473725
201, ,PASS, ,0.036561300000000005, ,0.026610904201611735, ,-0.00010530493725107675, ,0.00019822880164861793, ,1.0, ,0.36944831622546237, ,0.504152976469868, ,0.03818289422664844
202, ,PASS, ,0.04142330000000001, ,0.027442672807490534, ,8.143329800004064e-05, ,0.00023156394701473858, ,1.0, ,0.35245653992259746, ,0.5061937511479357, ,0.03518295544988878
203, ,PASS, ,0.04250879000000002, ,0.028011705973410635, ,-6.0537213253199076e-05, ,0.00024314328152672476, ,1.0, ,0.34754553118910747, ,0.5072957694740924, ,0.03481561600783657
204, ,PASS, ,0.05749417, ,0.038595846029580085, ,3.557268177098491e-05, ,0.00045553902012887435, ,1.0, ,0.34891632970104797, ,0.5124385216628232, ,0.03952980551417318
205, ,PASS, ,0.07088074000000003, ,0.048498704406724505, ,0.0001094950729764692, ,0.000707426370295525, ,1.0, ,0.35114599610720976, ,0.5152751984653374, ,0.0415501724454603
206, ,PASS, ,0.060180880000000006, ,0.03858928186179931, ,0.00010132778399706123, ,0.0004768330941483462, ,1.0, ,0.3414871611581232, ,0.5119487357400869, ,0.03814207873308708
207, ,PASS, ,0.06530641999999999, ,0.04277518505287029, ,1.1415725767229062e-05, ,0.0005742529959252643, ,1.0, ,0.3416422741763646, ,0.5141527723924002, ,0.04018285341115487
208, ,PASS, ,0.049540089999999995, ,0.032735002993785366, ,-2.2867370268362384e-05, ,0.0003320943141017564, ,1.0, ,0.348438179454292, ,0.5088263504826432, ,0.035080916715985386
209, ,PASS, ,0.04429513000000001, ,0.029566728266905706, ,0.00017135062434317684, ,0.0002671360564746673, ,1.0, ,0.35569379649228766, ,0.5069080222852594, ,0.032223832166690475
210, ,PASS, ,0.046521269999999997, ,0.0303707875188989, ,0.00010200135191567511, ,0.00028796470830411527, ,1.0, ,0.34850610056393444, ,0.5075202546886798, ,0.03595844982755454
211, ,PASS, ,0.05620555000000001, ,0.03679219446229338, ,7.624207703475419e-05, ,0.0004227331111778244, ,1.0, ,0.34890609242315024, ,0.5075406624354605, ,0.035427848411256915
212, ,PASS, ,0.07168144000000001, ,0.0488613225821021, ,3.9990839370401707e-08, ,0.0007205286467778612, ,1.0, ,0.3499258878351292, ,0.5142548111263036, ,0.04050937735964572
213, ,PASS, ,0.06170744999999998, ,0.0416116237419187, ,0.00010613583508581487, ,0.0005266686319447599, ,1.0, ,0.3540764883750197, ,0.509663068100651, ,0.03810126323952572
214, ,PASS, ,0.053362910000000006, ,0.03403037947549229, ,6.775791017530201e-05, ,0.0003718009971959379, ,1.0, ,0.34123577587318704, ,0.5102344850105099, ,0.03206057019244505
215, ,PASS, ,0.06373801000000001, ,0.042109573506356246, ,9.605370824105624e-05, ,0.0005497233493568679, ,1.0, ,0.3429990388578562, ,0.5141935878859615, ,0.04187669639395114
216, ,PASS, ,0.04868809, ,0.03267111440513591, ,0.00016131726119875044, ,0.0003246155081991705, ,1.0, ,0.3554787167303303, ,0.5077447399032673, ,0.03561151813228301
217, ,PASS, ,0.0627233, ,0.042355043873908114, ,0.00014620290881002396, ,0.0005432847067725921, ,1.0, ,0.3520221081435005, ,0.5112956878431052, ,0.04150935695189894
218, ,PASS, ,0.05420101000000001, ,0.03546042633471023, ,-7.96986337862497e-05, ,0.0003907639425031391, ,1.0, ,0.34426656491915736, ,0.5077855553968287, ,0.03699924491336912
219, ,PASS, ,0.049817299999999995, ,0.02430745275927318, ,-0.0001609772688067592, ,0.0002449578288634752, ,1.0, ,0.28721909447943983, ,0.49625517846574557, ,0.033734005428460646
220, ,PASS, ,0.044696570000000005, ,0.02978380708768675, ,0.0001349764143392992, ,0.00026922525436606055, ,1.0, ,0.35559841319058566, ,0.5044386849247975, ,0.03722373012795657
221, ,PASS, ,0.04079366999999999, ,0.027208632763752263, ,-5.903877573518662e-06, ,0.00022380450247332762, ,1.0, ,0.3537378119051194, ,0.5028876961694659, ,0.024672965857839634
222, ,PASS, ,0.043124440000000014, ,0.027902903180705402, ,-9.794640133466648e-05, ,0.00024245533884830435, ,1.0, ,0.345386965804795, ,0.5029285116630273, ,0.030162649741842004
223, ,PASS, ,0.047345769999999995, ,0.03247499808868388, ,-5.15884382281992e-05, ,0.00030970639648974363, ,1.0, ,0.3561559298273021, ,0.5039488990020612, ,0.03491765474173997
224, ,PASS, ,0.1998, ,0.21344045560578012, ,0.0031100401761188536, ,0.008978620125752382, ,1.0, ,0.4683101328183091, ,0.5126630068774106, ,0.4270525091324667
225, ,PASS, ,0.05741231, ,0.037618237676748364, ,-0.00011779685210750756, ,0.00043635513267353566, ,1.0, ,0.34369678583908697, ,0.5072141384869696, ,0.033407481479969796
226, ,PASS, ,0.05865137000000001, ,0.03741218547356295, ,2.303069495561279e-05, ,0.0004430360152782397, ,1.0, ,0.34019097289690936, ,0.5074590314483378, ,0.035815595600089796
227, ,PASS, ,0.05425701000000001, ,0.03479565208023699, ,-2.585817405522372e-05, ,0.00038019013816851214, ,1.0, ,0.3413503340033772, ,0.5060713046672517, ,0.033897267402706065
228, ,PASS, ,0.04146274000000001, ,0.027038590564684235, ,2.4938111983428956e-05, ,0.00022484347648627433, ,1.0, ,0.35006197024911234, ,0.5020917940450195, ,0.025734168690434888
229, ,PASS, ,0.038927069999999994, ,0.025518285796616084, ,1.2798496904143981e-05, ,0.00019902388631173814, ,1.0, ,0.3507010909772444, ,0.5019489398175547, ,0.03399930613660946
230, ,PASS, ,0.039541539999999986, ,0.025479517207297065, ,-6.247197246750141e-05, ,0.00020182552449150916, ,1.0, ,0.3449197190061406, ,0.5020917940450195, ,0.03567274137262505
231, ,PASS, ,0.04272149, ,0.027712888046178656, ,-0.0001570635248035752, ,0.00023746695994902284, ,1.0, ,0.3438074096391637, ,0.502499948980633, ,0.027876982102406075
232, ,PASS, ,0.050305639999999985, ,0.03390818100413746, ,-6.301807035611573e-05, ,0.00034258317130414934, ,1.0, ,0.353224431243844, ,0.5030713658904921, ,0.03355033570743454
233, ,PASS, ,0.04788985, ,0.03242237443800575, ,-8.905948345952483e-06, ,0.00031164806450629785, ,1.0, ,0.3543777232942089, ,0.5036631905471317, ,0.04587661476296402
234, ,PASS, ,0.057397210000000004, ,0.03709235350378094, ,8.882674006448897e-05, ,0.00042818739976041353, ,1.0, ,0.3447916408277346, ,0.5057243729719801, ,0.037550254076447416
235, ,PASS, ,0.05993467999999999, ,0.039091876277238556, ,-7.262365594824604e-05, ,0.0004712224715595736, ,1.0, ,0.34433316899822375, ,0.5053774412767086, ,0.03248913287483929
236, ,PASS, ,0.04563123000000001, ,0.029708928077890908, ,3.6655818820024143e-06, ,0.00027191782083818854, ,1.0, ,0.3476597883991245, ,0.5030305503969307, ,0.02385665598661252
237, ,PASS, ,0.05043729999999999, ,0.03358230398925648, ,-0.00011085730957490737, ,0.0003400064601413849, ,1.0, ,0.3497764748689234, ,0.5031121813840533, ,0.031142221587314545
238, ,PASS, ,0.03487034, ,0.0217612617790011, ,1.5895308116160166e-05, ,0.00015177722438230423, ,1.0, ,0.34281105115105565, ,0.5009285524785209, ,0.019142466480275913
239, ,PASS, ,0.04270621000000001, ,0.02742408716024062, ,0.00015908582640558356, ,0.00023442192775571626, ,1.0, ,0.34946620770284337, ,0.5022550560192649, ,0.023060753862166078
240, ,PASS, ,0.057542529999999995, ,0.03791945058787304, ,0.00013689797657068234, ,0.00043808024854224726, ,1.0, ,0.3506561016646507, ,0.5043774616844554, ,0.037162506887614535
241, ,PASS, ,0.04482986000000001, ,0.029696949638532, ,2.81045195485806e-05, ,0.00026665085600475954, ,1.0, ,0.3519796394537216, ,0.5026836187016591, ,0.03499928572886268
242, ,PASS, ,0.033995199999999996, ,0.02131001187203296, ,9.84133498704102e-05, ,0.00014484961591009466, ,1.0, ,0.34549101222263656, ,0.501234668680231, ,0.02432603416256811
243, ,PASS, ,0.039770949999999985, ,0.02562595412119163, ,-1.2663229254097164e-05, ,0.00020383377600143005, ,1.0, ,0.34682318210953217, ,0.501928532070774, ,0.029325932123834206
244, ,PASS, ,0.06102803000000001, ,0.03971296843075559, ,-0.00010745721442827646, ,0.0004872445296571328, ,1.0, ,0.34280906849512555, ,0.5058468194526642, ,0.036795167445562334
245, ,PASS, ,0.042341190000000015, ,0.027972576666296534, ,-2.2792920744474287e-05, ,0.00023693988062151763, ,1.0, ,0.3512827359936201, ,0.5019489398175547, ,0.02948919409807963
246, ,PASS, ,0.03603242999999999, ,0.023235109983193534, ,0.00010371762559947703, ,0.00016734878612180396, ,1.0, ,0.3512889539630762, ,0.5009897757188628, ,0.02663210954878472
247, ,PASS, ,0.03911620999999999, ,0.025670228024432796, ,-8.47690343588911e-05, ,0.00020090658204799505, ,1.0, ,0.34892282712162576, ,0.5015611926287219, ,0.030040203261157937
248, ,PASS, ,0.05827154999999999, ,0.03713619766052501, ,6.537758835819667e-05, ,0.0004346149087963563, ,1.0, ,0.34257586838137577, ,0.5051325483153405, ,0.03279524907654946
249, ,PASS, ,0.044371120000000014, ,0.029257014521654787, ,7.87090457480459e-05, ,0.00025970843916314805, ,1.0, ,0.3531140268732141, ,0.5022550560192649, ,0.029570825085202344
250, ,PASS, ,0.03276807999999999, ,0.02097859473708098, ,9.649776637211268e-06, ,0.00013740906525398392, ,1.0, ,0.3487949414684204, ,0.5002142813411972, ,0.021632211587518622
251, ,PASS, ,0.0370012, ,0.02448179804672901, ,-0.00012068722235668686, ,0.0001810913418727138, ,1.0, ,0.3505648636168089, ,0.5011326299463277, ,0.027999428583090142
252, ,PASS, ,0.06012939, ,0.04136812607540373, ,-0.00010202421014550672, ,0.0004989865009132994, ,1.0, ,0.35678940413997295, ,0.5034182975857635, ,0.03585641109365115
253, ,PASS, ,0.06204982000000001, ,0.042294255502076446, ,-1.7131492174445045e-05, ,0.0005264741522057913, ,1.0, ,0.35572656245773815, ,0.5040305299891839, ,0.034305422338319624
254, ,PASS, ,0.06559348999999998, ,0.04750549878447558, ,-4.046266634762561e-05, ,0.0006237644053667604, ,1.0, ,0.3670316413972146, ,0.5036019673067896, ,0.046550070406726395
255, ,PASS, ,0.10146733000000002, ,0.03393492767992429, ,5.944482196281711e-05, ,0.0007139707161717707, ,1.0, ,0.1912431045051256, ,0.5093365441521601, ,0.03281565682333014
