Channel, ,Pass/Fail, ,Amplitude, ,Sorting Function Response, ,Mean, ,Variance, ,NPeaksRatio, ,PosIntegralRatio, ,ToT50, ,ToT99
8, ,PASS, ,0.007026750000000009, ,0.0008238879896220571, ,0.029000666294973575, ,5.878704854932697e-06, ,1.8333333333333333, ,0.6377066497419636, ,0.5622742393012388, ,0.030632027917797598
9, ,PASS, ,0.01744705, ,0.0026822701619176265, ,0.029927556137425766, ,4.7715053149198584e-05, ,1.9166666666666667, ,0.769878786533492, ,0.5763351768331259, ,0.0729168792473623
10, ,PASS, ,0.027357779999999988, ,0.004201864245704891, ,0.030417699659394705, ,0.00011730620931971783, ,1.9166666666666667, ,0.7704264232969338, ,0.5816820064896635, ,0.06728434113589518
11, ,PASS, ,0.03100850999999999, ,0.004753859176407005, ,0.030732472969123074, ,0.0001505065877855688, ,1.8333333333333333, ,0.7669958483134789, ,0.5837431889145119, ,0.06630476929042264
12, ,PASS, ,0.029573119999999994, ,0.004517361715776099, ,0.030698139216138447, ,0.0001363838467050105, ,1.8333333333333333, ,0.7648003435328387, ,0.5837431889145119, ,0.06563131364666028
13, ,PASS, ,0.02253912000000001, ,0.003482593669334961, ,0.03019567218179221, ,8.008735074195201e-05, ,1.9166666666666667, ,0.7745011996096072, ,0.5817432297300055, ,0.060549784698271464
14, ,PASS, ,0.011313769999999987, ,0.0014175059232691782, ,0.029167320878349424, ,1.633208659238096e-05, ,1.75, ,0.6879076664225431, ,0.5703965225199485, ,0.06361094671537315
15, ,PASS, ,0.006954470000000011, ,0.0007543345896418725, ,0.029052042383216674, ,5.302139896993708e-06, ,1.75, ,0.5786102630241722, ,0.5584171751596906, ,0.03695842941980776
16, ,PASS, ,0.016809470000000003, ,0.0025268816220879614, ,0.029897423214220117, ,4.3270637531851107e-05, ,1.9166666666666667, ,0.7592542635891287, ,0.5725393359319197, ,0.06073345441929757
17, ,PASS, ,0.027897789999999978, ,0.004204110997841846, ,0.030559703228097385, ,0.00011967765859571284, ,1.9166666666666667, ,0.7606375516917955, ,0.5797228627987184, ,0.06654966225179078
18, ,PASS, ,0.03160151, ,0.004759951552392839, ,0.030689857360053873, ,0.00015354076163026154, ,1.9166666666666667, ,0.7578576671208942, ,0.5820697536784963, ,0.06599865308871247
19, ,PASS, ,0.029880719999999986, ,0.0045359905616471725, ,0.030689865920491416, ,0.00013828726933935042, ,1.9166666666666667, ,0.7627763846648112, ,0.5818248607171282, ,0.0666312932389135
20, ,PASS, ,0.021555450000000004, ,0.003283355328486612, ,0.02993387066651701, ,7.216079735731865e-05, ,1.9166666666666667, ,0.7672727642201164, ,0.5779473888287994, ,0.06312116079263688
21, ,PASS, ,0.00948812999999998, ,0.0011361259436711304, ,0.02898022413501766, ,1.094070402792552e-05, ,1.8333333333333333, ,0.6352480185838825, ,0.5644578682067712, ,0.025856615171118955
22, ,PASS, ,0.00859768, ,0.0009627703693681545, ,0.028975186265790497, ,8.381416762272975e-06, ,1.8333333333333333, ,0.5989062176951462, ,0.5607640660394686, ,0.045427644333789104
23, ,PASS, ,0.01971729, ,0.003149910186948827, ,0.029973122593824616, ,6.328117478602499e-05, ,1.9166666666666667, ,0.7915892194638711, ,0.5753556049876534, ,0.06608028407583519
24, ,PASS, ,0.031141159999999994, ,0.004912201401188417, ,0.030850572590559372, ,0.00015607825892548756, ,1.8333333333333333, ,0.7802045393286721, ,0.5828248403093814, ,0.0680190200199996
25, ,PASS, ,0.03546222500000001, ,0.005567442708177121, ,0.031048252084039104, ,0.0002014963878761285, ,1.8333333333333333, ,0.77601525970185, ,0.5858247790861411, ,0.07389645109283484
26, ,PASS, ,0.032996100000000014, ,0.005219351053282876, ,0.030908686129466748, ,0.00017578159993829028, ,1.8333333333333333, ,0.7805280103973166, ,0.5851921389359401, ,0.07795759270218976
27, ,PASS, ,0.023436430000000008, ,0.0037488078322948544, ,0.030361106551090793, ,8.95117223283284e-05, ,1.9166666666666667, ,0.7905984228121474, ,0.5798044937858411, ,0.07350870390400197
28, ,PASS, ,0.010198799999999984, ,0.0013466064940083956, ,0.02916147545560295, ,1.3970823112125854e-05, ,1.75, ,0.6921318314540562, ,0.5681312626272933, ,0.03977469847554132
29, ,PASS, ,0.00917016, ,0.0011108235128191174, ,0.028887017921062838, ,1.0321504515165627e-05, ,1.8333333333333333, ,0.6461946527622641, ,0.5625395400093876, ,0.018632272810758965
30, ,PASS, ,0.02199590999999999, ,0.00361105875686924, ,0.030223698539213483, ,8.094265007735222e-05, ,1.9166666666666667, ,0.8072294565732233, ,0.5801718332278933, ,0.0877124956633538
31, ,PASS, ,0.034608686, ,0.005633297620654765, ,0.031191995502744846, ,0.00019889977948832346, ,1.75, ,0.7923608324048108, ,0.587988000244893, ,0.07932491173649517
32, ,PASS, ,0.03860488700000001, ,0.006308801828767117, ,0.03155112812901778, ,0.00024861113842186683, ,1.75, ,0.7914645386696967, ,0.5908859002877492, ,0.08187588008407992
33, ,PASS, ,0.036018905000000004, ,0.005822153148556296, ,0.03124863001897921, ,0.00021400396839130455, ,1.75, ,0.7891737203342359, ,0.5900083671761801, ,0.07740658353911145
34, ,PASS, ,0.02478005000000002, ,0.004025602071681367, ,0.03040826531254464, ,0.0001017987987084074, ,1.8333333333333333, ,0.8003273992896132, ,0.585008469214914, ,0.07132507499846942
35, ,PASS, ,0.009286240000000001, ,0.0012241465841615982, ,0.029242478250443873, ,1.1535447750019116e-05, ,1.75, ,0.697346572761796, ,0.5666619048590845, ,0.049488785943144015
36, ,PASS, ,0.00863734, ,0.0010582503224859062, ,0.029265218227587195, ,9.28127887951307e-06, ,1.8333333333333333, ,0.6562569481158725, ,0.5636007428419828, ,0.03489724699495929
37, ,PASS, ,0.02151063000000001, ,0.0035707944938546178, ,0.030217761366298647, ,7.826065726673084e-05, ,1.9166666666666667, ,0.8090598735781769, ,0.5778045346013346, ,0.08840635905389686
38, ,PASS, ,0.03472130700000001, ,0.005689801563716983, ,0.03133872222791372, ,0.00020158438078587962, ,1.75, ,0.7965894302095663, ,0.5879063692577703, ,0.07228423909716128
39, ,PASS, ,0.03967717000000001, ,0.006436913292068163, ,0.03180336332319749, ,0.0002606827891729042, ,1.8333333333333333, ,0.7896472321300326, ,0.5923756658027387, ,0.07654945817432297
40, ,PASS, ,0.036328912000000005, ,0.0059637986605535955, ,0.031046852351584664, ,0.0002211905887699118, ,1.75, ,0.7967722548348376, ,0.5911716087426787, ,0.09026346401093856
41, ,PASS, ,0.024024120000000024, ,0.003959544575433867, ,0.030298769132670763, ,9.708019618577357e-05, ,1.8333333333333333, ,0.8055396645176695, ,0.5838860431419767, ,0.06793738903287688
42, ,PASS, ,0.008789820000000004, ,0.0011970292594744648, ,0.029037585315605807, ,1.0718968021235678e-05, ,1.8333333333333333, ,0.7064490493277817, ,0.568274116854758, ,0.03355033570743454
43, ,PASS, ,0.008292549999999992, ,0.0012849849738498273, ,0.029229480665496625, ,1.0836307188540136e-05, ,1.8333333333333333, ,0.7771628964327549, ,0.5812534438072693, ,0.03165241525683149
44, ,PASS, ,0.013644810000000007, ,0.0018465597910240876, ,0.029695212300157137, ,2.5749453244897818e-05, ,1.75, ,0.7261342918413247, ,0.5937838003306055, ,0.04761127323932165
45, ,PASS, ,0.01677492000000001, ,0.00208727350099067, ,0.029786936659047775, ,3.576530255327884e-05, ,1.75, ,0.6950864773876088, ,0.5892328727985143, ,0.009816126201506091
46, ,PASS, ,0.017126110000000014, ,0.0022917676367832976, ,0.029970695374380116, ,4.008879033471401e-05, ,1.8333333333333333, ,0.7271503859429922, ,0.591089977755556, ,0.035427848411256915
47, ,PASS, ,0.016718500000000004, ,0.0021426728797819166, ,0.029997290134282976, ,3.659772532660882e-05, ,1.8333333333333333, ,0.7089657341247526, ,0.5923144425623967, ,0.023081161608946757
48, ,PASS, ,0.018797599999999984, ,0.0019937373256710897, ,0.03003759890247138, ,3.83138282282009e-05, ,1.75, ,0.6360929294892007, ,0.592294034815616, ,0.012979326952511173
49, ,PASS, ,0.009722269999999995, ,0.0013687521125616327, ,0.02943471479133079, ,1.3572720134131126e-05, ,1.8333333333333333, ,0.7413019871327277, ,0.5933348299014306, ,0.048590845084794186
