Channel, ,Pass/Fail, ,Amplitude, ,Sorting Function Response, ,Mean, ,Variance, ,NPeaksRatio, ,PosIntegralRatio, ,ToT50, ,ToT99
60, ,PASS, ,0.03032166, ,0.003072740713383382, ,0.04123256047448011, ,9.53712911543729e-05, ,1.5833333333333333, ,0.6162036898047811, ,0.5621722005673354, ,0.033795228668802677
61, ,PASS, ,0.05000793000000004, ,0.005380811803189139, ,0.04270321650211221, ,0.00027732725219806203, ,1.75, ,0.6514718111167371, ,0.5654578477990245, ,0.07083528907573315
62, ,PASS, ,0.05136625000000001, ,0.00552381715797581, ,0.04236429418297586, ,0.0002913574342551723, ,1.75, ,0.6475929518479041, ,0.5629068794514398, ,0.06454970306728434
63, ,PASS, ,0.02864752, ,0.00290603403599679, ,0.04125993537499234, ,8.555664066946607e-05, ,1.6666666666666667, ,0.6196582277775595, ,0.5655190710393665, ,0.03097895961306912
64, ,PASS, ,0.03033907000000001, ,0.00308282612751373, ,0.04146834558988592, ,9.605303705450325e-05, ,1.6666666666666667, ,0.6248284916802328, ,0.5621109773269933, ,0.046999040835901305
65, ,PASS, ,0.050431580000000024, ,0.005300625136262802, ,0.04249994867492501, ,0.0002751441212585502, ,1.75, ,0.6416571775263159, ,0.5624987245158262, ,0.06434562559947757
66, ,PASS, ,0.05200211, ,0.005563827609100475, ,0.04252160114507868, ,0.0002978814393605618, ,1.75, ,0.6477355485628858, ,0.5640905287647191, ,0.06869247566376196
67, ,PASS, ,0.030807510000000024, ,0.003177610012060319, ,0.04147922649986735, ,0.00010038717497501221, ,1.6666666666666667, ,0.6304065758908522, ,0.5626415787432909, ,0.06275382135058469
68, ,PASS, ,0.03262067000000003, ,0.0036803177357164632, ,0.041432350678557585, ,0.00012282165023338174, ,1.8333333333333333, ,0.672443707822043, ,0.5628456562110977, ,0.07399848982673823
69, ,PASS, ,0.053877209999999995, ,0.006026560674487393, ,0.04267293293789923, ,0.00033393938818700864, ,1.8333333333333333, ,0.6682093213535518, ,0.563968082284035, ,0.062161996693945024
70, ,PASS, ,0.05580177999999998, ,0.006375270231133497, ,0.04265094476153548, ,0.00036466059496095533, ,1.8333333333333333, ,0.6693090536962772, ,0.5622538315544581, ,0.06957000877533112
71, ,PASS, ,0.033081790000000014, ,0.003770883705592851, ,0.0414579352549948, ,0.0001277612180735241, ,1.8333333333333333, ,0.6742768676701271, ,0.5626415787432909, ,0.07824330115711925
72, ,PASS, ,0.033527820000000014, ,0.0036921054715484698, ,0.04150537704679497, ,0.00012715720869089318, ,1.75, ,0.6616589905764728, ,0.5629476949450011, ,0.0666312932389135
73, ,PASS, ,0.05675795700000001, ,0.006702784456509542, ,0.042593827323319934, ,0.00038963875855823807, ,1.8333333333333333, ,0.6863408356245789, ,0.5628048407175363, ,0.07501887716577213
74, ,PASS, ,0.058669861000000004, ,0.007025804586743672, ,0.042604733455439685, ,0.000421506531604535, ,1.9166666666666667, ,0.6857972846324576, ,0.5618864921124058, ,0.07020264892553213
75, ,PASS, ,0.03649121000000001, ,0.0042301232789777555, ,0.04168612046121508, ,0.00015833186850987957, ,1.9166666666666667, ,0.6754539567007091, ,0.5620497540866513, ,0.0752229546335789
76, ,PASS, ,0.03581838000000001, ,0.003952092020724974, ,0.041847754885614576, ,0.0001455387425294146, ,1.75, ,0.6638901796838558, ,0.5626007632497296, ,0.07132507499846942
77, ,PASS, ,0.05862021400000001, ,0.006866121095604214, ,0.04283202484337054, ,0.00041246948754679547, ,1.8333333333333333, ,0.6817441018664724, ,0.5624987245158262, ,0.07534540111426298
78, ,PASS, ,0.05956454000000002, ,0.007090294750435772, ,0.042841594302973414, ,0.00043206793200319625, ,1.8333333333333333, ,0.6855935022074635, ,0.5623150547948002, ,0.07681475888247179
79, ,PASS, ,0.03560986000000001, ,0.004133060074092825, ,0.0416423372249546, ,0.00015077801089994516, ,1.8333333333333333, ,0.6769309199976178, ,0.5621517928205547, ,0.0748556151915267
80, ,PASS, ,0.04445625, ,0.005394273612522941, ,0.042224550978551455, ,0.000245459536994976, ,1.8333333333333333, ,0.6983076461905298, ,0.5649476541295075, ,0.0855900899981633
81, ,PASS, ,0.06903576900000001, ,0.008680766761544032, ,0.04342695973306668, ,0.0006127209099653548, ,2.0, ,0.7094618616044011, ,0.5623966857819228, ,0.08950837738005347
82, ,PASS, ,0.06768422900000001, ,0.00846440950670793, ,0.04322694026305586, ,0.0005857018341634418, ,2.0, ,0.7005969055555543, ,0.5628456562110977, ,0.08750841819554703
83, ,PASS, ,0.03798135999999999, ,0.004700634621508231, ,0.04176238241586907, ,0.00018295740693050045, ,2.0, ,0.6992009369763851, ,0.5628456562110977, ,0.09371237321687312
84, ,PASS, ,0.04120050999999997, ,0.0049210947059874, ,0.04194365046999041, ,0.00020755956381256303, ,1.8333333333333333, ,0.6890909487853065, ,0.5625191322626069, ,0.07814126242321585
85, ,PASS, ,0.06943571700000002, ,0.008564633398512675, ,0.04346191905144794, ,0.0006091429592577633, ,2.0, ,0.6967934529585621, ,0.5646619456745781, ,0.08491663435440093
86, ,PASS, ,0.06803412200000002, ,0.008332181579688009, ,0.04311182461011, ,0.000579973256626953, ,1.9166666666666667, ,0.6886388824985752, ,0.5620905695802126, ,0.08546764351747924
87, ,PASS, ,0.03761793000000001, ,0.004550851579496005, ,0.04168448869390421, ,0.00017502128393568145, ,1.8333333333333333, ,0.686011192676345, ,0.5618864921124058, ,0.07499846941899145
88, ,PASS, ,0.040855799999999984, ,0.004979152388920939, ,0.04198758695414379, ,0.00020869279978492534, ,1.9166666666666667, ,0.6976859974610387, ,0.5638252280565703, ,0.07563110956919246
89, ,PASS, ,0.07024317799999998, ,0.009056475859289233, ,0.04347474838901247, ,0.0006514782396053658, ,2.0, ,0.716143506391803, ,0.565172139344095, ,0.08616150690802228
90, ,PASS, ,0.069193894, ,0.008933646955730993, ,0.04353617013775229, ,0.0006327335478370673, ,2.0, ,0.7116162614458347, ,0.5663557886573743, ,0.07363115038468603
91, ,PASS, ,0.03533769000000002, ,0.0044144105291948075, ,0.04155783503438706, ,0.00015932385409140186, ,1.9166666666666667, ,0.702517022834677, ,0.5630089181853432, ,0.0795698046978633
92, ,PASS, ,0.0375221, ,0.004751526388617476, ,0.04169706163690537, ,0.00018222121360580304, ,1.9166666666666667, ,0.7144494890418274, ,0.562825248464317, ,0.08185547233729924
93, ,PASS, ,0.06746896100000001, ,0.008843182767948649, ,0.043172635763964004, ,0.000611253725818948, ,1.9166666666666667, ,0.715349191621236, ,0.5641109365114998, ,0.08083508499826535
94, ,PASS, ,0.06766167099999999, ,0.009016889391818767, ,0.04305873441195077, ,0.0006244658146246012, ,1.9166666666666667, ,0.7187364681181238, ,0.5641925674986225, ,0.08377380053468296
95, ,PASS, ,0.03385798000000001, ,0.004377803811809883, ,0.04137034632721782, ,0.00015168804139053315, ,2.0, ,0.7175991026534122, ,0.56321299565315, ,0.09191649150017346
96, ,PASS, ,0.03524727, ,0.004416621715525228, ,0.04154772799473481, ,0.00015937528431145587, ,1.9166666666666667, ,0.7063128482730382, ,0.5629068794514398, ,0.0741209363074223
97, ,PASS, ,0.06628057000000004, ,0.008798422475273878, ,0.043000766022122, ,0.0005965376711737029, ,2.0, ,0.7214539069065957, ,0.5629681026917818, ,0.08432480969776127
98, ,PASS, ,0.067640237, ,0.00902103323966895, ,0.042994312091998124, ,0.000623691082831449, ,1.9166666666666667, ,0.7181583865423904, ,0.5623966857819228, ,0.081426909654905
99, ,PASS, ,0.03287720000000001, ,0.004266604316835654, ,0.04134458780473868, ,0.0001433542561436985, ,2.0, ,0.7150879353432573, ,0.56200893859309, ,0.08838595130711618
100, ,PASS, ,0.03331136000000001, ,0.003564374966722603, ,0.04148253238301259, ,0.00012145794097037608, ,1.6666666666666667, ,0.6414569015405519, ,0.5628048407175363, ,0.06720271014877248
101, ,PASS, ,0.06549187900000004, ,0.007716338388568234, ,0.042933233704414195, ,0.0005168148680165363, ,1.9166666666666667, ,0.6731677934247686, ,0.5612742597089855, ,0.07187608416154773
102, ,PASS, ,0.06753266599999999, ,0.008049620792936191, ,0.043043364139099205, ,0.000555166417084822, ,2.0, ,0.6764546928591965, ,0.5613762984428889, ,0.08314116038448195
103, ,PASS, ,0.03115108000000003, ,0.0035002013124170194, ,0.041281659441031814, ,0.00011152127172410079, ,1.75, ,0.6570000837896177, ,0.5616007836574763, ,0.08020244484806432
198, ,PASS, ,0.029428919999999997, ,0.0033762510636272964, ,0.04118059049203077, ,0.00010328252088449402, ,1.9166666666666667, ,0.7905243718247447, ,0.5624783167690456, ,0.0008163098712271178
199, ,PASS, ,0.019228390000000005, ,0.0027397111906036623, ,0.040862450285708465, ,5.509432827997476e-05, ,2.0, ,0.8122054007411171, ,0.5619273076059672, ,0.0019999591845064387
200, ,PASS, ,0.033526960000000036, ,0.004744060007126592, ,0.041562615697026586, ,0.0001653362561473804, ,1.9166666666666667, ,0.8342404294229298, ,0.56321299565315, ,0.0353462174241342
201, ,PASS, ,0.06958443293999997, ,0.00987415309220892, ,0.04345862603865228, ,0.0007168513143834035, ,1.9166666666666667, ,0.8794405594034409, ,0.5671108752882594, ,0.0697740862431379
202, ,PASS, ,0.07177021432000001, ,0.010125034625609583, ,0.0433026706757005, ,0.0007498735707847027, ,1.9166666666666667, ,0.878351513718414, ,0.5635191118548601, ,0.060529376951490785
203, ,PASS, ,0.07497190199999999, ,0.009878934666828317, ,0.04380293989347157, ,0.0007696078648503094, ,1.9166666666666667, ,0.8743988279931104, ,0.5726005591722618, ,0.06367216995571519
204, ,PASS, ,0.08423645399999999, ,0.010583098502949908, ,0.04401449185690088, ,0.0009380277082686707, ,1.9166666666666667, ,0.8728460586243315, ,0.5694169506744761, ,0.05908042693006265
205, ,PASS, ,0.09370116999999999, ,0.01236032211301347, ,0.04477019777167813, ,0.001212478212214486, ,2.0, ,0.8703190839553485, ,0.5673149527560662, ,0.07128425950490806
206, ,PASS, ,0.09210641999999994, ,0.011659640868663317, ,0.04444137548233709, ,0.0011213205961486698, ,1.9166666666666667, ,0.8698221182713045, ,0.5706005999877554, ,0.05406012122201588
207, ,PASS, ,0.09989999999999985, ,0.01575061054291512, ,0.0473213480379992, ,0.001650491437116241, ,1.9166666666666667, ,0.9046095440613412, ,0.5711516091508336, ,0.19511846697006183
208, ,PASS, ,0.07485401399999997, ,0.00875653372590643, ,0.04331237693985838, ,0.0006875889736139484, ,1.9166666666666667, ,0.8668491100339348, ,0.5679884083998286, ,0.049447970449582664
209, ,PASS, ,0.08118858300000001, ,0.009987344553229133, ,0.04318029845533765, ,0.0008428621454014271, ,2.0, ,0.8678442031914004, ,0.5606212118120039, ,0.07005979469806739
210, ,PASS, ,0.06985084088000001, ,0.008254514851450293, ,0.043585597195771514, ,0.0006141970585713505, ,2.0, ,0.8611547615684269, ,0.5719883267688415, ,0.05016224158690639
211, ,PASS, ,0.07943072500000002, ,0.00933089972863442, ,0.04334041209016143, ,0.0007764220249815217, ,2.0, ,0.8663037845525019, ,0.5643966449664293, ,0.05497846982714639
212, ,PASS, ,0.07970191600000001, ,0.010125661504216876, ,0.04344351641946083, ,0.0008438868735159838, ,2.0, ,0.8708541996041823, ,0.5628864717046591, ,0.04959082467704741
213, ,PASS, ,0.09387130999999994, ,0.012327673053032801, ,0.044736155160098774, ,0.0012131441005402994, ,2.0, ,0.8698751533959156, ,0.5666414971123038, ,0.05993755229485113
214, ,PASS, ,0.08628664600000001, ,0.01106658903249584, ,0.04397299710965083, ,0.0010021633118286073, ,2.0, ,0.8782828075965396, ,0.5657843717475154, ,0.05744780718760842
215, ,PASS, ,0.04942467999999999, ,0.005815122714767911, ,0.04262927753902982, ,0.00030721889871787296, ,1.9166666666666667, ,0.8302083482271251, ,0.5753556049876534, ,0.037999224505622334
216, ,FAIL, ,0.025157599999999995, ,0.002169639852076885, ,0.04096364888022694, ,5.7755380464023274e-05, ,2.0, ,0.7159299905861186, ,0.5595396012326279, ,0.0008163098712271178
217, ,PASS, ,0.03130339069999999, ,0.0031876032944729332, ,0.041311790531213644, ,0.0001043413359124614, ,2.0, ,0.7780282193906197, ,0.5550090814473174, ,0.0007142711373237281
