Channel, ,Pass/Fail, ,Amplitude, ,Sorting Function Response, ,Mean, ,Variance, ,NPeaksRatio, ,PosIntegralRatio, ,ToT50, ,ToT99
64, ,PASS, ,0.016767780000000013, ,0.002482681022538477, ,0.026598506117834333, ,4.194425552641448e-05, ,1.75, ,0.7012967948833567, ,0.4347462296687823, ,0.029142262402808105
65, ,PASS, ,0.02545458000000001, ,0.003654003366456767, ,0.02618677223485235, ,9.36143700650303e-05, ,1.75, ,0.6911558898799577, ,0.4388685945184792, ,0.038754311136507416
66, ,PASS, ,0.02462689, ,0.003497737787355719, ,0.026108045342135875, ,8.671879805449611e-05, ,1.75, ,0.689241410005152, ,0.4372767902695863, ,0.034631946286810475
67, ,PASS, ,0.016056059999999994, ,0.0025959364832857114, ,0.026638258224321955, ,4.199694289376629e-05, ,1.8333333333333333, ,0.7432871467945299, ,0.43605232546274564, ,0.046937817595559275
68, ,PASS, ,0.029659510000000017, ,0.0050557056400443055, ,0.025723480425297447, ,0.00015112047760247108, ,1.8333333333333333, ,0.7802370002919292, ,0.4383379931021816, ,0.08779412665047652
69, ,PASS, ,0.03979083, ,0.006920905734762656, ,0.02510162606214159, ,0.0002775776005881528, ,1.8333333333333333, ,0.7864701858949429, ,0.4383379931021816, ,0.09087569641435889
70, ,PASS, ,0.037596118000000005, ,0.006511340618619309, ,0.025313261259484496, ,0.00024689834349791756, ,1.8333333333333333, ,0.7885947427858423, ,0.4384604395828657, ,0.08340646109263077
71, ,PASS, ,0.025468170000000012, ,0.004280940647306636, ,0.026194607751066308, ,0.00011007964201946625, ,1.9166666666666667, ,0.7832629192417503, ,0.43856247831676903, ,0.07979428991245077
72, ,PASS, ,0.03056007000000001, ,0.005172426013166368, ,0.025687852263015044, ,0.0001594944391779947, ,1.8333333333333333, ,0.7813784399423535, ,0.4381135078875941, ,0.08297789841023652
73, ,PASS, ,0.039059148, ,0.006818707720064285, ,0.02525191620352646, ,0.00026854300987379546, ,1.8333333333333333, ,0.7908887164812608, ,0.4384196240893043, ,0.09005938654313177
74, ,PASS, ,0.03646779299999999, ,0.006368471168939403, ,0.025414775740086933, ,0.000234273939881112, ,1.8333333333333333, ,0.7928615648110725, ,0.4379706536601294, ,0.08899818371053651
75, ,PASS, ,0.023965230000000007, ,0.004020853547072775, ,0.026375888418399624, ,9.735873741025562e-05, ,2.0, ,0.786289626368434, ,0.4380114691536907, ,0.07481479969796535
76, ,PASS, ,0.027475059999999996, ,0.004708965210231964, ,0.026128796565580297, ,0.00013054798963397496, ,1.8333333333333333, ,0.7898197871189787, ,0.43874614803779516, ,0.08879410624272974
77, ,PASS, ,0.036963107999999995, ,0.006533040840592332, ,0.025366679876492316, ,0.00024364627886827968, ,1.8333333333333333, ,0.7987193660157951, ,0.437868614926226, ,0.09052876471908737
78, ,PASS, ,0.036869327999999986, ,0.006507507205539976, ,0.02537870769729189, ,0.00024206511411811927, ,1.8333333333333333, ,0.7975904879112774, ,0.4379502459133487, ,0.08916144568478195
79, ,PASS, ,0.02568788000000002, ,0.004401862555993545, ,0.02612592487745148, ,0.00011418832054390003, ,1.9166666666666667, ,0.7907850169988584, ,0.4376849452051999, ,0.08130446317422094
80, ,PASS, ,0.026129250000000014, ,0.004269836083407889, ,0.02618924380971817, ,0.00011276335595892865, ,2.0, ,0.7784160138321128, ,0.43835840084896227, ,0.0741209363074223
81, ,PASS, ,0.03429928599999999, ,0.005788357015375151, ,0.02585384655964164, ,0.00020048603853753863, ,1.9166666666666667, ,0.7843369299636086, ,0.4386032938103304, ,0.07640660394685823
82, ,PASS, ,0.03502544799999998, ,0.005931146194809309, ,0.025615186469561846, ,0.00020976899466601154, ,1.9166666666666667, ,0.7855694226256821, ,0.4377665761923226, ,0.0680190200199996
83, ,PASS, ,0.026968980000000004, ,0.004383142317750255, ,0.026211911586498236, ,0.00011942126682193788, ,2.0, ,0.7712816061844506, ,0.4379502459133487, ,0.06263137486990061
84, ,PASS, ,0.02531308, ,0.004061804589058605, ,0.02621431272974021, ,0.00010392804807120458, ,2.0, ,0.7699262132268907, ,0.4376237219648579, ,0.06997816371094467
85, ,PASS, ,0.03258941000000001, ,0.005488966444484328, ,0.025766311060590602, ,0.00018062312094717034, ,1.9166666666666667, ,0.78470863621239, ,0.43827676986183955, ,0.07054958062080366
86, ,PASS, ,0.03373620100000001, ,0.005697128109875753, ,0.02552587913444624, ,0.00019407183000567853, ,1.9166666666666667, ,0.7838907531481047, ,0.43819513887471684, ,0.07269239403277485
87, ,PASS, ,0.028116290000000006, ,0.004483150747928588, ,0.02597001851656089, ,0.00012737735793198784, ,2.0, ,0.7655049906552052, ,0.43780739168588395, ,0.06991694047060264
88, ,PASS, ,0.023290090000000013, ,0.0035995970533758553, ,0.026382210879573886, ,8.482329698706401e-05, ,2.0, ,0.7573540045089873, ,0.4381543233811555, ,0.06932511581396299
89, ,PASS, ,0.03099145000000001, ,0.0050096681863567374, ,0.02582506644701129, ,0.00015691166839198144, ,2.0, ,0.7713495070028324, ,0.4377665761923226, ,0.06973327074957654
90, ,PASS, ,0.032667167000000004, ,0.005281634391151231, ,0.02581452506132528, ,0.0001742776056570512, ,2.0, ,0.7713601985487439, ,0.4383992163425236, ,0.07548825534172772
91, ,PASS, ,0.02841487000000001, ,0.004327074397285043, ,0.026215326618028206, ,0.00012436385106945168, ,2.0, ,0.7526540291307382, ,0.4387869635313565, ,0.06365176220893451
