Channel, ,Pass/Fail, ,Amplitude, ,Sorting Function Response, ,Mean, ,Variance, ,NPeaksRatio, ,PosIntegralRatio, ,ToT50, ,ToT99
56, ,PASS, ,0.071234845, ,0.011088010339568046, ,0.027347811536887003, ,0.0007964641998271656, ,1.75, ,0.7501991210104095, ,0.472276075998449, ,0.06205995796004163
57, ,PASS, ,0.06719756700000003, ,0.01060143335151432, ,0.027520310095528668, ,0.0007186242710684924, ,1.75, ,0.7553072797058513, ,0.4719291443031775, ,0.06332523826044366
58, ,PASS, ,0.05097792800000001, ,0.00825218055014184, ,0.027621463212322193, ,0.0004246126919536054, ,1.75, ,0.7710683353632013, ,0.4708067182302402, ,0.0653251974449501
59, ,PASS, ,0.02597336999999998, ,0.00429122417588881, ,0.02828175941960368, ,0.00011251680049941584, ,1.75, ,0.783169210231883, ,0.46882716679251446, ,0.0672639333891145
60, ,PASS, ,0.036589505999999994, ,0.005386092408656605, ,0.027195997847125574, ,0.00020006411489117946, ,1.9166666666666667, ,0.731598034702479, ,0.4539091038958389, ,0.04865206832513622
61, ,PASS, ,0.06783126000000002, ,0.009894892038400596, ,0.026553370058386563, ,0.0006785487055930601, ,1.9166666666666667, ,0.7209418733969734, ,0.46215383359523277, ,0.05093773596457215
62, ,PASS, ,0.07523878100000002, ,0.011823362681928034, ,0.027190233161547728, ,0.0008970479185015774, ,1.75, ,0.7542219946602509, ,0.47203118303708086, ,0.06269259811024265
63, ,PASS, ,0.07120288699999998, ,0.010574003763978417, ,0.026863725962061998, ,0.0007600786000412668, ,1.9166666666666667, ,0.7260405387354489, ,0.46629660619171037, ,0.05499887757392706
64, ,PASS, ,0.05067957200000003, ,0.007609406280488717, ,0.027100421396991897, ,0.00039001008048885266, ,1.9166666666666667, ,0.7355821386173076, ,0.4616436399257158, ,0.0632027917797596
65, ,PASS, ,0.02066743999999999, ,0.0029481821417101763, ,0.02807953284157466, ,6.182989739193751e-05, ,1.8333333333333333, ,0.7093840519738787, ,0.4501540784881941, ,0.05689679802453011
66, ,PASS, ,0.043837316999999994, ,0.006994900707467641, ,0.027408709491826697, ,0.0003104136255045943, ,1.9166666666666667, ,0.767847680762593, ,0.45870492438929816, ,0.05424379094304198
67, ,PASS, ,0.06836968800000003, ,0.010493801989661496, ,0.02697048444337871, ,0.0007248581452543376, ,1.9166666666666667, ,0.7461929933986079, ,0.4651537723719924, ,0.05583559519193486
68, ,PASS, ,0.010175850000000004, ,0.0005246044053663007, ,0.028282095782330974, ,5.67322646058449e-06, ,1.0, ,0.24791341846981535, ,0.5410093671557723, ,0.020591416501704048
69, ,PASS, ,0.06675101900000002, ,0.010455126685528402, ,0.02716138231872819, ,0.0007045415922831396, ,1.8333333333333333, ,0.7534877550257627, ,0.46866390481826903, ,0.06505989673680129
70, ,PASS, ,0.04787491299999998, ,0.007618754141037651, ,0.027468533682414642, ,0.0003689378094502486, ,1.9166666666666667, ,0.7634976929859392, ,0.4629293279728985, ,0.06438644109303891
71, ,PASS, ,0.019104300000000015, ,0.002974975128788426, ,0.028140058339421643, ,5.763654859094617e-05, ,1.9166666666666667, ,0.7580569312642302, ,0.4547662292606273, ,0.06540682843207281
72, ,PASS, ,0.057020707519999984, ,0.009100115151392996, ,0.027378153528806348, ,0.0005241270228740058, ,1.9166666666666667, ,0.7645397725034148, ,0.46586804350931615, ,0.06028448399012265
73, ,PASS, ,0.069104748, ,0.010926677340088385, ,0.02724664544970511, ,0.0007621549317794257, ,1.8333333333333333, ,0.7573022813275184, ,0.4689087977796372, ,0.0595906205995796
74, ,PASS, ,0.06642629100000003, ,0.010705694847248492, ,0.027309544143792986, ,0.0007174738241615087, ,1.75, ,0.7655718725045394, ,0.471010795698047, ,0.06259055937633926
75, ,PASS, ,0.054384663400000005, ,0.009039061979105215, ,0.027672419476965776, ,0.0004962706773538629, ,1.8333333333333333, ,0.7821827196820976, ,0.46992918511867104, ,0.067549641844044
76, ,PASS, ,0.039856842999999996, ,0.006591319271939044, ,0.02753910511940573, ,0.00026602066678428583, ,1.9166666666666667, ,0.7828021324135329, ,0.4613987469643477, ,0.06610069182261587
77, ,PASS, ,0.017762850000000004, ,0.002612962394572159, ,0.02797363596783739, ,4.710431753375879e-05, ,1.9166666666666667, ,0.7235528813310149, ,0.45243974612763005, ,0.03355033570743454
78, ,PASS, ,0.0528539245, ,0.008423860510533452, ,0.02743456057831473, ,0.0004501662732256314, ,1.9166666666666667, ,0.7658939678390463, ,0.4639088998183711, ,0.05908042693006265
79, ,PASS, ,0.06848545700000003, ,0.01078712693849005, ,0.027154107166894557, ,0.0007455156703358829, ,1.8333333333333333, ,0.7557244210321783, ,0.4684598273504622, ,0.054713169118997575
80, ,PASS, ,0.06584914300000003, ,0.010683649759471638, ,0.02764180700265301, ,0.0007094935939898204, ,1.75, ,0.7686449301773911, ,0.47203118303708086, ,0.06642721577110672
81, ,PASS, ,0.03751692900000001, ,0.0031711346691686106, ,0.026411330438970634, ,0.00012301001785647677, ,1.3333333333333333, ,0.431808684078426, ,0.4343584824799494, ,0.02948919409807963
82, ,PASS, ,0.037004096, ,0.0062131197663105354, ,0.027796936282749336, ,0.0002328494074543203, ,1.9166666666666667, ,0.7918858668576839, ,0.4614599702046897, ,0.07167200669374095
83, ,PASS, ,0.015243380000000022, ,0.002306101426642248, ,0.028184658528193303, ,3.5765161586445796e-05, ,2.0, ,0.7397874413884825, ,0.4515418052692802, ,0.0471010795698047
84, ,PASS, ,0.04077507199999998, ,0.006654778767815899, ,0.02772261343874615, ,0.00027422382755910597, ,1.9166666666666667, ,0.7760519197079753, ,0.46254158078406565, ,0.06342727699434705
85, ,PASS, ,0.07302353700000001, ,0.011563297370258643, ,0.027162799499744907, ,0.0008519911511362042, ,1.75, ,0.7576738138991443, ,0.469235321728128, ,0.06605987632905451
86, ,PASS, ,0.08297708000000001, ,0.012959094374991827, ,0.027379504527254545, ,0.0010839369786570451, ,1.75, ,0.7506475470362473, ,0.47419440419583275, ,0.06920266933327891
87, ,PASS, ,0.07838195299999999, ,0.012194225657322038, ,0.0273845132315463, ,0.0009636451905803998, ,1.75, ,0.7488898808135923, ,0.47464337462500766, ,0.0671823024019918
88, ,PASS, ,0.05660948512, ,0.008880535524793183, ,0.027447760009284297, ,0.0005072990975458174, ,1.75, ,0.755017963589995, ,0.4685822738311463, ,0.06401910165098672
89, ,PASS, ,0.022507170000000003, ,0.0034967324976235316, ,0.028077353555029487, ,7.956421885484851e-05, ,1.9166666666666667, ,0.7576239308434274, ,0.46152119344503173, ,0.06491704250933654
90, ,PASS, ,0.035962558, ,0.005664427024704486, ,0.02777687966935369, ,0.00020604324214542526, ,1.9166666666666667, ,0.7611845029358316, ,0.4581130997326585, ,0.05418256770269995
91, ,PASS, ,0.07080019699999998, ,0.011008391254244663, ,0.027079798718026165, ,0.0007865785324312788, ,1.8333333333333333, ,0.7492516381394027, ,0.46743944001142834, ,0.05957021285279892
92, ,PASS, ,0.08234108999999998, ,0.012685447417092018, ,0.027229194952572398, ,0.001052872712617319, ,1.75, ,0.743826267415998, ,0.4730311626293341, ,0.0642231791187935
93, ,PASS, ,0.077906268, ,0.011940036273227376, ,0.027161530570069998, ,0.000937738856286691, ,1.75, ,0.7413345526163985, ,0.4732148323503602, ,0.0607946776596396
94, ,PASS, ,0.054508435800000005, ,0.008396818644371067, ,0.027449607217926164, ,0.00046207260014036335, ,1.8333333333333333, ,0.7467687744389558, ,0.466765984367666, ,0.06487622701577518
95, ,PASS, ,0.01842174000000001, ,0.002752095866328454, ,0.028185437176996387, ,5.131493713182286e-05, ,1.9166666666666667, ,0.7306733346930963, ,0.4543376665782331, ,0.05969265933348299
96, ,PASS, ,0.03531717000000001, ,0.005912694526879006, ,0.02798212470112855, ,0.0002109753870101023, ,1.9166666666666667, ,0.7880248976286921, ,0.4631129976939246, ,0.0819779188179833
97, ,PASS, ,0.070242306, ,0.011453898100396273, ,0.027444269957429445, ,0.0008114999614420823, ,1.75, ,0.7712109898040043, ,0.4717658823289321, ,0.07793718495540908
98, ,PASS, ,0.08082012200000001, ,0.013026292635424012, ,0.027876622862002813, ,0.0010603160385240808, ,1.75, ,0.7625536867628677, ,0.47733719720005713, ,0.07908001877512703
99, ,PASS, ,0.076765685, ,0.0122342752832613, ,0.027728893712924228, ,0.0009463716531530546, ,1.75, ,0.7591198305849844, ,0.4780718760841616, ,0.07877390257341686
100, ,PASS, ,0.05399590090000001, ,0.008619831114148865, ,0.027756842474276035, ,0.0004694649848638857, ,1.75, ,0.7641374467292703, ,0.4729495316422114, ,0.07510050815289483
101, ,PASS, ,0.01944601, ,0.0030573349197776495, ,0.02823323311177323, ,6.007230947130194e-05, ,1.9166666666666667, ,0.7604988075788306, ,0.46317422093426663, ,0.06448847982694231
102, ,PASS, ,0.03298588999999999, ,0.0054829178046985234, ,0.028012244717862903, ,0.00018265004170150406, ,1.9166666666666667, ,0.7836496564026466, ,0.46419460827330056, ,0.08230444276647415
103, ,PASS, ,0.06618707100000003, ,0.010884216235863215, ,0.02794779008220649, ,0.0007263812325871332, ,1.75, ,0.7745362370966529, ,0.47382706475378056, ,0.0892022611783433
104, ,PASS, ,0.07724691099999999, ,0.012520423576864774, ,0.028083290402297914, ,0.0009741763520555213, ,1.75, ,0.7649072517498529, ,0.48001061202832596, ,0.09607967184343176
105, ,PASS, ,0.07266518400000001, ,0.011620388771217271, ,0.028221380431644256, ,0.0008506702184902642, ,1.75, ,0.7602209976972938, ,0.48027591273647474, ,0.086243137895145
106, ,PASS, ,0.051522206000000015, ,0.008157006248188603, ,0.02812230821148548, ,0.0004237745458113985, ,1.75, ,0.7602220006122276, ,0.4743372584232975, ,0.07267198628599417
107, ,PASS, ,0.019928969999999994, ,0.0030971630172512148, ,0.028401988793085853, ,6.225982109240032e-05, ,1.9166666666666667, ,0.7534894764667158, ,0.4652354033591151, ,0.07093732780963653
108, ,PASS, ,0.03082268000000001, ,0.00510556228390951, ,0.028232547887185978, ,0.0001588967469358297, ,1.9166666666666667, ,0.7820478148054223, ,0.46494969490418564, ,0.0640395093977674
109, ,PASS, ,0.06542251300000002, ,0.010756226957607841, ,0.02798887592568519, ,0.0007092839844421989, ,1.75, ,0.7731091134939428, ,0.4756229464704802, ,0.09191649150017346
110, ,PASS, ,0.07737467399999998, ,0.012448394223423455, ,0.028224803485234998, ,0.0009699752625122667, ,1.8333333333333333, ,0.761193979780287, ,0.48286769657762085, ,0.09516132323830126
111, ,PASS, ,0.072612328, ,0.01155014331181449, ,0.028227845477357603, ,0.0008445672458808067, ,1.8333333333333333, ,0.756644064932917, ,0.48252076488234935, ,0.09014101753025448
112, ,PASS, ,0.049552272999999994, ,0.007825333236215187, ,0.028286944195669475, ,0.00039079253857689705, ,1.75, ,0.7565056112039089, ,0.47631680986102326, ,0.06965163976245382
113, ,PASS, ,0.017825860000000002, ,0.002805771665876811, ,0.028534716992714433, ,5.043002491617268e-05, ,1.8333333333333333, ,0.7559515901214788, ,0.4665414991530785, ,0.07579437154343789
114, ,PASS, ,0.02839739999999999, ,0.0043357257158041645, ,0.027939950870798556, ,0.00012450764307593104, ,1.9166666666666667, ,0.7440504729003294, ,0.45788861451807106, ,0.053529519805718254
115, ,PASS, ,0.06221378740000004, ,0.00954882198183739, ,0.02740214098235138, ,0.0005992610681831012, ,1.75, ,0.7440034712052113, ,0.46907205975388255, ,0.062121181200383666
116, ,PASS, ,0.07217312399999998, ,0.011028997814470497, ,0.02763626839897145, ,0.0008021010114414697, ,1.75, ,0.7388676500057951, ,0.4763372176078039, ,0.06554968265953756
117, ,PASS, ,0.06695439300000003, ,0.010191364749514398, ,0.02784366954509092, ,0.0006874686906065471, ,1.75, ,0.7381887655905978, ,0.47733719720005713, ,0.06646803126466806
118, ,PASS, ,0.04389447599999999, ,0.006650603477614383, ,0.02805993480814677, ,0.0002944826173620856, ,1.75, ,0.7386127305509165, ,0.47178629007571277, ,0.06889655313156874
119, ,PASS, ,0.013424729999999996, ,0.0019410789343915161, ,0.028234574084814595, ,2.6354489632662176e-05, ,1.9166666666666667, ,0.7159650097007035, ,0.45854166241505273, ,0.05620293463398706
198, ,FAIL, ,0.030641660000000008, ,0.0016783690363515865, ,0.027276790294483787, ,5.420752497439872e-05, ,1.0, ,0.28934948903913355, ,0.4331544254198894, ,0.016040488969612864
199, ,FAIL, ,0.026908694720000008, ,0.0020927562852503002, ,0.027860848964715003, ,5.661717421520757e-05, ,1.8333333333333333, ,0.6880436328929571, ,0.43621558743699107, ,0.0006530478969816942
200, ,FAIL, ,0.02834963099999998, ,0.0025683532498617222, ,0.027676071950368357, ,7.407045953345246e-05, ,1.9166666666666667, ,0.6880488009489172, ,0.4368074120936307, ,0.0008979408583498296
201, ,PASS, ,0.038355867, ,0.0056028030789177004, ,0.026793309976939253, ,0.000220039302639529, ,1.9166666666666667, ,0.8112404178271658, ,0.43995020509785515, ,0.017020060815085405
202, ,PASS, ,0.036238564, ,0.004813964841243375, ,0.026864992765453767, ,0.0001789250129294151, ,1.9166666666666667, ,0.7855929529635375, ,0.4401338748188812, ,0.013142588926756597
203, ,PASS, ,0.04216267000000001, ,0.0061805534869850964, ,0.026418646799861233, ,0.00026853844655674766, ,1.9166666666666667, ,0.8190953233917774, ,0.44217464949694907, ,0.022509744699087775
204, ,PASS, ,0.06660361499999999, ,0.009274850103491649, ,0.024945095663639515, ,0.0006403752600466463, ,1.9166666666666667, ,0.8353464933067883, ,0.44717454745821517, ,0.02828513703801963
205, ,PASS, ,0.06669929, ,0.009165587937919856, ,0.02484579597842901, ,0.0006346425008819505, ,1.9166666666666667, ,0.8341136785608894, ,0.4480520805697843, ,0.025509683475847433
206, ,PASS, ,0.06798915200000001, ,0.009266023122225152, ,0.024824390946572517, ,0.000653895249122516, ,1.9166666666666667, ,0.8302126101577352, ,0.44778677986163545, ,0.028387175771923023
207, ,PASS, ,0.06957958299999997, ,0.009702776745182417, ,0.024673182494626637, ,0.0007010325629949661, ,1.9166666666666667, ,0.8309785548505122, ,0.44754188690026736, ,0.026999448990836922
208, ,PASS, ,0.06439176, ,0.008658985916446793, ,0.02509594816607824, ,0.0005783463495254436, ,1.9166666666666667, ,0.8225380325597197, ,0.4467868002693823, ,0.023877063733393197
209, ,PASS, ,0.05924635400000001, ,0.008287873221118697, ,0.0252877843164017, ,0.0005086235753992928, ,1.9166666666666667, ,0.8262566637276265, ,0.44613375237240055, ,0.02908103916246607
210, ,PASS, ,0.060196737000000014, ,0.008038590426352082, ,0.02532955772059754, ,0.0005025501369902974, ,1.9166666666666667, ,0.8224999879784066, ,0.44741944041958326, ,0.025387236995163365
211, ,PASS, ,0.06573765799999999, ,0.008946896928835713, ,0.024899951689883876, ,0.0006109555421223394, ,1.9166666666666667, ,0.8283268563943789, ,0.448133711556907, ,0.027448419420011836
212, ,PASS, ,0.10909461999999995, ,0.015276770635479895, ,0.021925880185914574, ,0.0017316797405720656, ,1.8333333333333333, ,0.8424822009631576, ,0.4551131609558989, ,0.033815636415583356
213, ,PASS, ,0.07603569000000002, ,0.010401532697004829, ,0.024214411524239914, ,0.0008229154290429423, ,1.8333333333333333, ,0.8347733421631692, ,0.45086834962551786, ,0.028060651823432176
214, ,PASS, ,0.07731298000000003, ,0.010585624552001256, ,0.024096666632799333, ,0.0008515750444220296, ,1.8333333333333333, ,0.8331852633727891, ,0.45041937919634295, ,0.030366727209648784
215, ,PASS, ,0.09231878999999998, ,0.013067828666821555, ,0.023101791932123836, ,0.001255058308910107, ,1.8333333333333333, ,0.8447931342888537, ,0.4542968510846717, ,0.03355033570743454
216, ,PASS, ,0.08976653000000001, ,0.012988000520311285, ,0.023259150593845025, ,0.0012115747213672168, ,1.8333333333333333, ,0.845299986862474, ,0.45272545458255953, ,0.03289728781045285
217, ,PASS, ,0.12543602, ,0.009882228539412848, ,0.021220609415052754, ,0.0012853729510400318, ,1.3333333333333333, ,0.3895968243211993, ,0.42327707597804126, ,0.02653007081488133
218, ,PASS, ,0.09534448000000004, ,0.013743988381633569, ,0.022832128990408363, ,0.0013613888613388473, ,1.8333333333333333, ,0.8437613186367422, ,0.45403155037652293, ,0.03434623783188098
219, ,PASS, ,0.08719162000000003, ,0.0126630205925134, ,0.023487827516458847, ,0.001148008135485572, ,1.8333333333333333, ,0.8451950276962537, ,0.45337850247954126, ,0.03483602375461725
220, ,PASS, ,0.08680836000000004, ,0.012605120859377306, ,0.023447631082549335, ,0.0011368710514930642, ,1.8333333333333333, ,0.8414031707554078, ,0.4521948531662619, ,0.03416256811085488
221, ,PASS, ,0.09357277000000001, ,0.013743548679791303, ,0.0230485870342442, ,0.0013359368335747648, ,1.8333333333333333, ,0.8399200968782263, ,0.45280708556968224, ,0.033019734291136915
222, ,PASS, ,0.07083280100000004, ,0.010320572163446565, ,0.024594895616136, ,0.0007591910887303853, ,1.8333333333333333, ,0.8304334757717128, ,0.44790922634231956, ,0.02987694128691251
223, ,PASS, ,0.08036908999999998, ,0.012201413136553074, ,0.024043867024815823, ,0.0010182287416324771, ,1.8333333333333333, ,0.842642495399653, ,0.4504397869431236, ,0.033101365278259624
224, ,PASS, ,0.04567572299999998, ,0.006969066434650062, ,0.026275967386175793, ,0.0003294979151566272, ,1.9166666666666667, ,0.822914779594269, ,0.4443174629089202, ,0.026468847574539295
225, ,PASS, ,0.035055377999999984, ,0.005214099389594069, ,0.02686187167159854, ,0.00018831372683471935, ,1.9166666666666667, ,0.8018285414245295, ,0.44074610722230156, ,0.02155058060039591
226, ,PASS, ,0.0331775, ,0.005042569723966972, ,0.027017365478051468, ,0.00017205645194231874, ,1.9166666666666667, ,0.8147904529609491, ,0.4410318156772311, ,0.024693373604620313
227, ,FAIL, ,0.026227100000000003, ,0.003174133642380208, ,0.027583091785473766, ,8.510794501489661e-05, ,1.9166666666666667, ,0.7372237510015156, ,0.4384196240893043, ,0.002224444399093896
228, ,PASS, ,0.036453763999999986, ,0.006061934999820171, ,0.0269611311675272, ,0.00022615502218634938, ,1.9166666666666667, ,0.831355196976332, ,0.4388890022652599, ,0.013040550192853207
229, ,FAIL, ,0.02742798999999999, ,0.0027113319611816473, ,0.02777533299259199, ,7.630281608298598e-05, ,1.5833333333333333, ,0.5025193178616213, ,0.43292994020530196, ,0.032162608926348445
