Channel, ,Pass/Fail, ,Amplitude, ,Sorting Function Response, ,Mean, ,Variance, ,NPeaksRatio, ,PosIntegralRatio, ,ToT50, ,ToT99
88, ,PASS, ,0.01851862000000002, ,0.002860861375139695, ,0.03853219886553336, ,5.331933178899216e-05, ,1.8333333333333333, ,0.7617352417253548, ,0.49250015305810085, ,0.08677373931144262
89, ,PASS, ,0.00788618, ,0.00043309937812798996, ,0.03793887588151263, ,3.5657341482462827e-06, ,1.0833333333333333, ,0.27726236613337446, ,0.46958225342339954, ,0.011877308626354565
90, ,PASS, ,0.10765597000000002, ,0.013336534703558984, ,0.04407338885059101, ,0.001447586458010407, ,1.75, ,0.6857998080776052, ,0.5481520785290096, ,0.0632027917797596
91, ,PASS, ,0.06948032200000001, ,0.01146643863295572, ,0.04002229577841269, ,0.0008011530239463556, ,1.8333333333333333, ,0.794279870543971, ,0.5123364829289199, ,0.234015632334034
92, ,PASS, ,0.12527806999999996, ,0.01517644151352532, ,0.04527619871141834, ,0.0019204227948726859, ,1.75, ,0.6817750545704075, ,0.5499275524989286, ,0.04906022326074978
93, ,PASS, ,0.12642216999999994, ,0.013794671444756686, ,0.04608093928130038, ,0.0017648157585192998, ,1.5833333333333333, ,0.64675592929062, ,0.5605395808248811, ,0.03963184424807657
94, ,PASS, ,0.06954047000000001, ,0.011566515822887901, ,0.04013728944299096, ,0.0008089307997816018, ,1.8333333333333333, ,0.7973730988640194, ,0.513907879431032, ,0.23942368523091365
95, ,PASS, ,0.12225867999999998, ,0.015039001528038552, ,0.04502040332709333, ,0.001856171472105385, ,1.75, ,0.688706077297353, ,0.5478867778208608, ,0.05379482051386707
96, ,PASS, ,0.12818951999999997, ,0.013773333657927836, ,0.046364369844737865, ,0.0017878540707744507, ,1.5833333333333333, ,0.638361032216702, ,0.5649068386359462, ,0.040386930878961655
97, ,PASS, ,0.0735409735, ,0.012137052525490752, ,0.04061089211889553, ,0.000898668850411307, ,1.8333333333333333, ,0.7967557762421812, ,0.5171323034223791, ,0.23668904716230282
98, ,PASS, ,0.12662666999999997, ,0.015270186114901876, ,0.04500410344433665, ,0.0019514662812267825, ,1.75, ,0.679032524678557, ,0.5469480214689496, ,0.04912144650109181
99, ,PASS, ,0.13196075, ,0.01397337403813026, ,0.04669264710873247, ,0.0018691400610274793, ,1.5833333333333333, ,0.6345517431324295, ,0.5674169914899696, ,0.03699924491336912
100, ,PASS, ,0.07473150982000004, ,0.012232055745760256, ,0.04062753609122263, ,0.0009196820450197781, ,1.8333333333333333, ,0.7925172848437446, ,0.5188057386583947, ,0.23693394012367094
101, ,PASS, ,0.12047469999999998, ,0.014927157464380768, ,0.043962593124605834, ,0.0018121180327058132, ,1.75, ,0.6859220005616554, ,0.5379073896451093, ,0.05375400502030571
102, ,PASS, ,0.12019893999999995, ,0.013365991863755379, ,0.045188145540723666, ,0.0016248987190210166, ,1.6666666666666667, ,0.6485645802134627, ,0.5569886328850432, ,0.03897879635109488
103, ,PASS, ,0.07392772187000002, ,0.012137699594012112, ,0.03869824270708761, ,0.0009026167918975934, ,1.8333333333333333, ,0.7829996393474675, ,0.49374502561172223, ,0.20219995510295707
104, ,PASS, ,0.12036609999999999, ,0.014982984936927573, ,0.04368342461770985, ,0.0018169091433302938, ,1.75, ,0.68782860146123, ,0.5326830064692557, ,0.051407114140527746
105, ,PASS, ,0.11881545999999996, ,0.013210148195281378, ,0.04587754479088182, ,0.0015897210260147952, ,1.5833333333333333, ,0.6515086054105912, ,0.5638048203097896, ,0.041182833003408095
106, ,PASS, ,0.07275944749999999, ,0.012041048159045739, ,0.04046964365917022, ,0.0008822831408236888, ,1.8333333333333333, ,0.7989005487070896, ,0.5171118956755985, ,0.23815840493051163
107, ,PASS, ,0.12408363, ,0.015352783427573428, ,0.04504391605895533, ,0.001923049820156268, ,1.75, ,0.6888807651601191, ,0.5478255545805187, ,0.051427521887308425
108, ,PASS, ,0.10900275000000006, ,0.012939227389591012, ,0.04421712620446522, ,0.0014236438369459095, ,1.75, ,0.6724498259722774, ,0.5490296116405787, ,0.05059080426930063
109, ,PASS, ,0.065503198, ,0.01128093172157729, ,0.03972368493147079, ,0.0007434291128387603, ,1.8333333333333333, ,0.8100145035425516, ,0.5080712638517582, ,0.20132242199138792
110, ,PASS, ,0.11701022999999998, ,0.015037097414731495, ,0.04472184228957654, ,0.0017755179518052576, ,1.75, ,0.7045467798098632, ,0.5484173792371584, ,0.06534560519173079
111, ,PASS, ,0.09092323399999998, ,0.0121626902442918, ,0.043187640130711615, ,0.0011157323869797591, ,1.75, ,0.7169286553570123, ,0.5447439848166364, ,0.09550825493357279
112, ,PASS, ,0.06732013099999999, ,0.011682139938714399, ,0.03988275648613293, ,0.0007918355368094886, ,1.8333333333333333, ,0.8137167474045431, ,0.5107038631864655, ,0.18352686679863675
113, ,PASS, ,0.11633370000000001, ,0.01493002199496208, ,0.044411145358085345, ,0.0017521657241456544, ,1.75, ,0.7001798521416481, ,0.5465398665333361, ,0.06144772555662129
114, ,PASS, ,0.08707223700000001, ,0.011279522583232275, ,0.041244662057488626, ,0.0009867320444766406, ,1.6666666666666667, ,0.6999720415843791, ,0.5128466765984367, ,0.0819779188179833
115, ,PASS, ,0.06053003999999999, ,0.009788334758423564, ,0.03997734346688843, ,0.00059702912137697, ,1.8333333333333333, ,0.7908359985186777, ,0.5144997040876716, ,0.1873635231934042
116, ,PASS, ,0.12835701, ,0.015539188227088638, ,0.04561959946581437, ,0.002016531832442366, ,1.75, ,0.6829180896448739, ,0.5534376849452052, ,0.050305095814371134
117, ,PASS, ,0.10217066000000002, ,0.012816616483229213, ,0.043602978762841575, ,0.0013211828301855316, ,1.75, ,0.6945626818960956, ,0.5431929960613049, ,0.06034570723046469
118, ,PASS, ,0.06785358799999999, ,0.011401517970749474, ,0.04007396607987592, ,0.0007797297108772097, ,1.8333333333333333, ,0.8062237789075855, ,0.5157037611477316, ,0.23148507173322994
119, ,PASS, ,0.12466289000000001, ,0.015265119649792625, ,0.045179558179082875, ,0.001921705775411902, ,1.75, ,0.6852705336097002, ,0.5491316503744822, ,0.05083569723066876
120, ,PASS, ,0.099555829, ,0.012776158491897989, ,0.043730494191343026, ,0.0012834087908445597, ,1.75, ,0.7009229785054536, ,0.5463970123058713, ,0.0705087651272423
121, ,PASS, ,0.07528919117, ,0.01179717204869055, ,0.04064535388320647, ,0.0008960037481130973, ,1.8333333333333333, ,0.7815424931286311, ,0.5180098365339483, ,0.14691536907410052
122, ,PASS, ,0.12793566999999995, ,0.015303497456276984, ,0.04527960261068672, ,0.001976707632260727, ,1.75, ,0.6749681313172438, ,0.551866288443093, ,0.04638680843248097
123, ,PASS, ,0.11275424000000003, ,0.01329779680033044, ,0.04456642417469032, ,0.0015149338407736068, ,1.75, ,0.6709858491081365, ,0.551294871533234, ,0.04548886757413114
124, ,PASS, ,0.08760062400000002, ,0.011959674724204065, ,0.04148519427597396, ,0.0010564314109542442, ,1.75, ,0.7269621568993341, ,0.5236423746454154, ,0.06659047774535214
125, ,PASS, ,0.1296032, ,0.01459246431775496, ,0.04537500503759739, ,0.0019112595767703112, ,1.75, ,0.655044263240846, ,0.551111201812208, ,0.03863186465582335
126, ,PASS, ,0.12774294999999994, ,0.013781291667931081, ,0.04570459379471725, ,0.0017794772921726272, ,1.75, ,0.6366854212761343, ,0.562070161833432, ,0.03563192587906369
198, ,PASS, ,0.19980000000000012, ,0.04226156863315609, ,0.02918430046550081, ,0.008698367494399244, ,1.9166666666666667, ,0.9538628088606218, ,0.5001326503540744, ,0.4494398073508704
199, ,PASS, ,0.09551508000000003, ,0.013704064665161947, ,0.03474454687010674, ,0.0013494357072280244, ,2.0, ,0.8538615174293063, ,0.48168404726434155, ,0.0297953102997898
200, ,PASS, ,0.083184111, ,0.01093183992422797, ,0.034998357959102874, ,0.0009505944855664033, ,1.9166666666666667, ,0.8358641820081845, ,0.47835758453909105, ,0.026877002510152855
201, ,PASS, ,0.08028429799999999, ,0.010602764477098231, ,0.035174506132323834, ,0.0008808212536857042, ,2.0, ,0.8273071178688115, ,0.4810922226077019, ,0.024958674312769127
202, ,PASS, ,0.08883688, ,0.012050780530002754, ,0.03518600578618804, ,0.001092234145898125, ,2.0, ,0.8175187458302582, ,0.4856023346462317, ,0.02465255811105896
203, ,PASS, ,0.08927749000000004, ,0.012221216659827535, ,0.03541103988965531, ,0.001108920535780584, ,2.0, ,0.819402487338364, ,0.48815330299381643, ,0.028040244076651497
204, ,PASS, ,0.09435704000000004, ,0.013111350378358423, ,0.034647551397032725, ,0.0012652501018390618, ,2.0, ,0.8280584538108171, ,0.48327585151323443, ,0.02789738984918675
205, ,PASS, ,0.10461181, ,0.014183803105704874, ,0.032845318095067445, ,0.0015666174352954906, ,1.9166666666666667, ,0.8271812112702805, ,0.46964347666374157, ,0.028815738454317258
206, ,PASS, ,0.10387942, ,0.01435041121908575, ,0.03440907251083407, ,0.0015254887737988854, ,2.0, ,0.8297129267784654, ,0.49158180445297034, ,0.028795330707536582
207, ,PASS, ,0.10763244999999998, ,0.014726385843234296, ,0.03372296323117569, ,0.0016347300447546666, ,2.0, ,0.836940260820572, ,0.4910716107834534, ,0.031836084977857594
208, ,PASS, ,0.08197104300000001, ,0.011570119024847666, ,0.03540951594138895, ,0.0009703412245465054, ,1.9166666666666667, ,0.8292278095527993, ,0.4881124875002551, ,0.02832595253158099
209, ,PASS, ,0.08071830399999999, ,0.010936599782590777, ,0.03497268611385482, ,0.0009152018852150065, ,2.0, ,0.8254256690874652, ,0.4810105916205792, ,0.029734087059447765
210, ,PASS, ,0.07350419700000002, ,0.010147678504913058, ,0.03562400774004613, ,0.000761175988595101, ,2.0, ,0.8230203730237464, ,0.4865002755045815, ,0.029938164527254545
211, ,PASS, ,0.07751528399999999, ,0.01071493275742632, ,0.03540421415773148, ,0.0008483995382470248, ,2.0, ,0.825591818744078, ,0.48741862410971204, ,0.028958592681782004
212, ,PASS, ,0.08678264, ,0.012051527236518996, ,0.035215946567988404, ,0.0010806200334931527, ,2.0, ,0.8318671313427594, ,0.4939695108263097, ,0.031427930042244034
213, ,PASS, ,0.10349248, ,0.014646240176084877, ,0.03369132139890309, ,0.0015670663444928132, ,2.0, ,0.8354960905205664, ,0.48411256913124223, ,0.0335911512009959
214, ,PASS, ,0.10473794999999997, ,0.015146658530385201, ,0.03443748877753128, ,0.001631678205961468, ,1.9166666666666667, ,0.8388931378638521, ,0.49537764535417644, ,0.03473398502071386
215, ,PASS, ,0.12643704000000003, ,0.018855897233016967, ,0.03324188367482296, ,0.002434306938874895, ,2.0, ,0.8441936650926644, ,0.49660211016101713, ,0.03687679843268505
216, ,PASS, ,0.10372454000000002, ,0.015396604465514137, ,0.034291483012122204, ,0.0016382250263442955, ,2.0, ,0.8387172160709238, ,0.49003081569763884, ,0.037162506887614535
217, ,PASS, ,0.11745278999999993, ,0.017103725409228037, ,0.03418933602908105, ,0.0020681897591520765, ,1.9166666666666667, ,0.840119993610116, ,0.49880614681333035, ,0.03624415828248403
218, ,PASS, ,0.11420700999999998, ,0.01676425357178513, ,0.03328670376992307, ,0.001969182121481082, ,2.0, ,0.8427280631771917, ,0.4885206424358687, ,0.03571355686618641
219, ,PASS, ,0.11454420999999998, ,0.016821012851800834, ,0.03370089883459522, ,0.0019671147428777275, ,2.0, ,0.8418098170105569, ,0.4952347911267117, ,0.03491765474173997
220, ,PASS, ,0.06261266499999998, ,0.009013033902667524, ,0.03569666434970715, ,0.0005885705764926007, ,1.9166666666666667, ,0.8227576216189458, ,0.47574539295116425, ,0.029570825085202344
221, ,PASS, ,0.06934717611, ,0.010043640872608126, ,0.03569865299667354, ,0.0007148214323039287, ,2.0, ,0.8290923359470278, ,0.4839697149037775, ,0.033897267402706065
222, ,PASS, ,0.058990534000000004, ,0.008225271634606643, ,0.03526455832860554, ,0.0005181780977962272, ,1.8333333333333333, ,0.8248288351521459, ,0.4604599906124365, ,0.028427991265484377
223, ,PASS, ,0.08116894400000002, ,0.011945501037986778, ,0.03518720431895267, ,0.000994335881439141, ,2.0, ,0.8318706918685995, ,0.4865206832513622, ,0.03357074345421522
224, ,PASS, ,0.11210370999999998, ,0.01714723196631423, ,0.03511158002693823, ,0.0019894266465780444, ,1.8333333333333333, ,0.8474135763515127, ,0.5038876757617191, ,0.04095834778882063
225, ,PASS, ,0.09215092000000003, ,0.014323792841265968, ,0.03495629962682558, ,0.0013511364354445205, ,2.0, ,0.846034875735006, ,0.49119405726413745, ,0.03934613579314708
226, ,PASS, ,0.09166401000000002, ,0.014308172288839027, ,0.03488737834472848, ,0.001343702777067431, ,2.0, ,0.8448584552428374, ,0.48962266076202526, ,0.03952980551417318
227, ,FAIL, ,0.0002546900000000227, ,4.57980705595593e-06, ,0.038479352555662136, ,1.6277109904176915e-09, ,0.4166666666666667, ,0.26144020282139385, ,0.16305789677761678, ,0.00034693169527152506
228, ,FAIL, ,0.0002531500000000006, ,8.071406912369018e-06, ,0.03851994992734843, ,2.6235885825462157e-09, ,1.0, ,0.321010756274197, ,0.4780310605906002, ,0.0010816105793759311
229, ,PASS, ,0.09423801999999999, ,0.015244906231322951, ,0.03532727789398584, ,0.001470643845789568, ,2.0, ,0.8463992708527378, ,0.4909899797963307, ,0.04057060059998775
230, ,PASS, ,0.07150334319000001, ,0.01107480281546008, ,0.03607551072104651, ,0.0008143671396695149, ,1.9166666666666667, ,0.8366787687284731, ,0.48990836921695474, ,0.036693128711658946
231, ,PASS, ,0.19980000000000012, ,0.043561571761438496, ,0.03341410609742669, ,0.008903953442785825, ,1.9166666666666667, ,0.9354505286314754, ,0.5389073692373625, ,0.45790902226485175
232, ,PASS, ,0.09696812999999999, ,0.014715855003501201, ,0.03515686416124977, ,0.001466928749446329, ,1.9166666666666667, ,0.8389257909605881, ,0.4964592559335524, ,0.03575437235974776
233, ,PASS, ,0.19980000000000012, ,0.04283551383300994, ,0.03530898670190415, ,0.008801542061591243, ,2.0, ,0.9331198454661354, ,0.547682700353054, ,0.4636844146037836
234, ,PASS, ,0.12835870000000005, ,0.020621191587389086, ,0.034078048975327034, ,0.0027024631087728323, ,2.0, ,0.8594453673844491, ,0.4976429052468317, ,0.04577457602906063
235, ,PASS, ,0.19980000000000012, ,0.03890529629329517, ,0.034254643410950865, ,0.007910807667447917, ,1.9166666666666667, ,0.9303694148888324, ,0.5119895512336483, ,0.39329809595722537
