Channel, ,Pass/Fail, ,Amplitude, ,Sorting Function Response, ,Mean, ,Variance, ,NPeaksRatio, ,PosIntegralRatio, ,ToT50, ,ToT99
0, ,PASS, ,0.08047609917999997, ,0.012606975121121149, ,0.04567717831636088, ,0.001033261530835053, ,1.75, ,0.7803336490010125, ,0.5940491010387543, ,0.1575069896532724
1, ,PASS, ,0.07958722159999997, ,0.012463159053656327, ,0.0455389166968021, ,0.0010104309251466612, ,1.75, ,0.7810500342550997, ,0.5943348094936838, ,0.16005795800085712
2, ,PASS, ,0.07991737709999998, ,0.012495548110016632, ,0.045817631352013215, ,0.0010170834082418375, ,1.75, ,0.7801769376640854, ,0.5944368482275872, ,0.1505479480010612
3, ,PASS, ,0.07996391952, ,0.012501173432498264, ,0.045564138553907056, ,0.001018096021782099, ,1.75, ,0.7791629392567216, ,0.593947062304851, ,0.1545274586232934
4, ,PASS, ,0.07995610716, ,0.012494502014476433, ,0.04564636415848655, ,0.001017678848871616, ,1.75, ,0.7799887154635643, ,0.5943348094936838, ,0.15589477765759882
5, ,PASS, ,0.07960518599999998, ,0.012464726053743297, ,0.045683639387155354, ,0.001010550404126911, ,1.75, ,0.781691014271698, ,0.594640925695394, ,0.16177220873043408
6, ,PASS, ,0.07924448895999998, ,0.012431073585713442, ,0.04562699066814963, ,0.0010034186984052558, ,1.75, ,0.7817542095719858, ,0.594640925695394, ,0.15940491010387542
7, ,PASS, ,0.07922373283999999, ,0.012417030730825637, ,0.045605773757474335, ,0.0010018876926884176, ,1.75, ,0.7789169988141571, ,0.5937633925838248, ,0.15007856982510562
8, ,PASS, ,0.07910034648, ,0.012398409963620013, ,0.045736510769167966, ,0.0009990668952271084, ,1.75, ,0.7809746955926266, ,0.5941511397726577, ,0.15820085304381543
9, ,PASS, ,0.07914787502, ,0.012380600269810527, ,0.0457681526609661, ,0.0009980509783402809, ,1.75, ,0.7807209066331046, ,0.5947225566825167, ,0.15403767270055713
10, ,PASS, ,0.07944108547999998, ,0.012408828598088884, ,0.04565709000204077, ,0.001004096086895386, ,1.75, ,0.7795816526369403, ,0.5942327707597804, ,0.15281320789371647
11, ,PASS, ,0.07938876791999999, ,0.012396499942247246, ,0.04563778018346564, ,0.0010022486190695414, ,1.75, ,0.7784850712880264, ,0.5945388869614906, ,0.14650721413848697
12, ,PASS, ,0.07948199339999998, ,0.012407819950664943, ,0.04561613898716352, ,0.0010043400147528752, ,1.75, ,0.7783523114101428, ,0.5939878777984122, ,0.1455684577865758
13, ,PASS, ,0.079160018, ,0.01240824015902789, ,0.04574193634619701, ,0.0010002908551925709, ,1.75, ,0.7814466848794311, ,0.5943144017469031, ,0.1572825044386849
14, ,PASS, ,0.07978614178, ,0.01244081249456272, ,0.045655098400848956, ,0.0010108612991327128, ,1.75, ,0.7780301752380284, ,0.5942735862533418, ,0.15022142405257036
15, ,PASS, ,0.08031173827999998, ,0.012511710891346627, ,0.04552375599538784, ,0.001023297094093764, ,1.75, ,0.776732277396664, ,0.5936613538499215, ,0.14669088385951307
16, ,PASS, ,0.07864201215999998, ,0.012334862013320538, ,0.04557985212403828, ,0.0009879743899112432, ,1.75, ,0.7802251201725697, ,0.5942123630129997, ,0.15450705087651273
17, ,PASS, ,0.07902177913999998, ,0.012359090400441667, ,0.04563446579784086, ,0.0009946391437006465, ,1.75, ,0.780319184236878, ,0.5944572559743678, ,0.15524172976061712
18, ,PASS, ,0.07886181076, ,0.012349003930724177, ,0.04551762656374359, ,0.0009918905323847275, ,1.75, ,0.7800572319944834, ,0.594191955266219, ,0.1537111487520663
19, ,PASS, ,0.07878647515999997, ,0.012313969473842744, ,0.04550195586232934, ,0.000988044038224614, ,1.75, ,0.7783847613457314, ,0.5942531785065611, ,0.14924185220709782
20, ,PASS, ,0.07890853503999999, ,0.012346507891706089, ,0.045473866296606186, ,0.000992349650142626, ,1.75, ,0.7799386079151504, ,0.594191955266219, ,0.1546090896104161
21, ,PASS, ,0.07902690671999998, ,0.012370522729185558, ,0.04558734791065488, ,0.0009957371916239786, ,1.75, ,0.7802876834575738, ,0.5941715475194383, ,0.15509887553315238
22, ,PASS, ,0.07936007457999997, ,0.012434621830132195, ,0.04572180319034305, ,0.0010051511715816737, ,1.75, ,0.7812044575115771, ,0.5943348094936838, ,0.16307830452439745
23, ,PASS, ,0.08023374307999996, ,0.012539043920069628, ,0.04554589032938102, ,0.0010247812579283282, ,1.75, ,0.7798377199833071, ,0.5944368482275872, ,0.1570376114773168
24, ,PASS, ,0.07924654846, ,0.012382644367519062, ,0.04569528457092712, ,0.0009995267070580431, ,1.75, ,0.7788382784885297, ,0.5942327707597804, ,0.14956837615558866
25, ,PASS, ,0.07949639852, ,0.012434740485579205, ,0.04560824624272974, ,0.0010069463251254401, ,1.75, ,0.7800995127849069, ,0.5941307320258771, ,0.15548662272198527
26, ,PASS, ,0.07959648288, ,0.012438456803332682, ,0.045391841576090275, ,0.0010084550816331283, ,1.75, ,0.7801477498867313, ,0.5941715475194383, ,0.15562947694945
27, ,PASS, ,0.07998227961999996, ,0.012471270301962965, ,0.04566478111201811, ,0.0010159332182171075, ,1.75, ,0.7785363238524926, ,0.5941715475194383, ,0.1485275810697741
28, ,PASS, ,0.07986724125999994, ,0.01247922467477875, ,0.04571235651517316, ,0.001015218425347099, ,1.75, ,0.7803255910425384, ,0.5942531785065611, ,0.15905797840860392
29, ,PASS, ,0.08017819333999995, ,0.012503102437949724, ,0.045544860117548616, ,0.0010208866117008574, ,1.75, ,0.7782083500014023, ,0.5940899165323157, ,0.14873165853758086
30, ,PASS, ,0.07986937629999999, ,0.012499367052844844, ,0.04570055501581599, ,0.001016999989011863, ,1.75, ,0.7805275444010079, ,0.5941103242790964, ,0.15744576641293034
31, ,PASS, ,0.07990850298, ,0.01245249043720935, ,0.04570718945327645, ,0.0010133987230005821, ,1.75, ,0.77863354110331, ,0.5943348094936838, ,0.14948674516846594
32, ,PASS, ,0.07969494743999998, ,0.012426560763324459, ,0.04584413375155608, ,0.0010088334059503011, ,1.75, ,0.7784994205769037, ,0.5944164404808066, ,0.14328279014713985
33, ,PASS, ,0.07914570212000001, ,0.01239409587034158, ,0.045707449970408764, ,0.000999182269815744, ,1.75, ,0.7802318024808298, ,0.5942531785065611, ,0.15569070018979206
34, ,PASS, ,0.07894966139999998, ,0.012364066108083542, ,0.045548519065937425, ,0.0009942345293213614, ,1.75, ,0.7800078260926548, ,0.5942327707597804, ,0.15464990510397747
35, ,PASS, ,0.07893277276, ,0.012371129457779066, ,0.04543957329462664, ,0.0009944652999554929, ,1.75, ,0.781002080980828, ,0.5942327707597804, ,0.15695598049019407
36, ,PASS, ,0.07918218535999998, ,0.012427729708579697, ,0.04558233370727128, ,0.0010022261018436025, ,1.75, ,0.781443532891886, ,0.5936205383563601, ,0.1620375094385829
37, ,PASS, ,0.08014836875999998, ,0.012542609179770094, ,0.045749256507214134, ,0.00102377661688424, ,1.75, ,0.7805199206577954, ,0.594069508785535, ,0.1543437889022673
38, ,PASS, ,0.08701831300000001, ,0.01352420975066954, ,0.046253731725883145, ,0.0011988124370144707, ,1.75, ,0.7787986050911305, ,0.5944164404808066, ,0.1583232995244995
39, ,PASS, ,0.1998000000000002, ,0.03369701869177636, ,0.05461762204852971, ,0.006860107214134985, ,1.8333333333333333, ,0.8329838137023597, ,0.6029060631415686, ,0.3677271892410359
40, ,PASS, ,0.08508999699999999, ,0.01328675520484933, ,0.04568663919471031, ,0.0011514594840308942, ,1.75, ,0.7787390861934423, ,0.5943756249872452, ,0.14773167894532765
41, ,PASS, ,0.08065786605999996, ,0.012696381194501963, ,0.04523760235525805, ,0.00104284085787346, ,1.8333333333333333, ,0.7800761975040117, ,0.5938246158241669, ,0.15209893675639272
42, ,PASS, ,0.07964240979999998, ,0.012540512493925982, ,0.045081529820615904, ,0.0010171010880126047, ,1.8333333333333333, ,0.78105884852987, ,0.5946001102018326, ,0.15291524662761985
43, ,PASS, ,0.07978247133999998, ,0.012540862887596326, ,0.04530672434501336, ,0.0010189114052725151, ,1.8333333333333333, ,0.7794564361092181, ,0.5945388869614906, ,0.14585416624150527
44, ,PASS, ,0.07971731623999999, ,0.012533675416249458, ,0.045346524791943024, ,0.001017587899216223, ,1.8333333333333333, ,0.7813844858644986, ,0.5945388869614906, ,0.1514662966061917
45, ,PASS, ,0.07984948027999998, ,0.012571717419466286, ,0.04531746321564866, ,0.001022146502227811, ,1.8333333333333333, ,0.7806406475425222, ,0.5939266545580703, ,0.15273157690659375
46, ,PASS, ,0.07975800844, ,0.01250854448454083, ,0.04514706034203383, ,0.0010160262745040089, ,1.8333333333333333, ,0.7786112979129793, ,0.5943348094936838, ,0.14171139364502766
47, ,PASS, ,0.07962306697999998, ,0.012497334848863442, ,0.04524008609763065, ,0.0010135459888417021, ,1.8333333333333333, ,0.7794879317983636, ,0.5942327707597804, ,0.14007877390257342
48, ,PASS, ,0.07912105328000002, ,0.012446013828608736, ,0.04524039516642517, ,0.0010027570968565323, ,1.8333333333333333, ,0.779536951973556, ,0.5943348094936838, ,0.1455480500397951
49, ,PASS, ,0.07922860975999999, ,0.012442952774206652, ,0.045196162121181195, ,0.0010038326661163145, ,1.8333333333333333, ,0.7789008456591134, ,0.5943144017469031, ,0.14516030285096224
50, ,PASS, ,0.07903545833999999, ,0.012462009599526824, ,0.04521824692251178, ,0.001003094905279107, ,1.8333333333333333, ,0.782153631684372, ,0.594579702455052, ,0.15281320789371647
51, ,PASS, ,0.0794546817, ,0.012499896174111211, ,0.04511701673822983, ,0.0010113536697675008, ,1.8333333333333333, ,0.7796468478910239, ,0.5941511397726577, ,0.14467051692822597
52, ,PASS, ,0.07931468554, ,0.012488107975504632, ,0.04522790104487663, ,0.0010086947469698413, ,1.8333333333333333, ,0.7815784964764105, ,0.5944776637211485, ,0.15201730576927003
53, ,PASS, ,0.07936705137999998, ,0.012498398295570434, ,0.045121973054223385, ,0.0010101003114814159, ,1.75, ,0.7808973235551576, ,0.5942531785065611, ,0.14858880431011612
54, ,PASS, ,0.07936651829999998, ,0.012507501551220403, ,0.04521022797187812, ,0.001010843893775962, ,1.8333333333333333, ,0.7817018952255519, ,0.5943144017469031, ,0.15428256566192527
55, ,PASS, ,0.07927714363999996, ,0.012439546176113606, ,0.04514281664741535, ,0.001004208462027742, ,1.8333333333333333, ,0.7782649094844456, ,0.5939266545580703, ,0.13928287177812698
56, ,PASS, ,0.07919802213999999, ,0.012463920160056749, ,0.04519597850431624, ,0.0010052936914841932, ,1.75, ,0.7806869327131652, ,0.5943144017469031, ,0.1476908634517663
57, ,PASS, ,0.07934796413999999, ,0.012490787682635007, ,0.04522918451460174, ,0.001009490794796465, ,1.8333333333333333, ,0.7810245042411421, ,0.5942327707597804, ,0.14858880431011612
58, ,PASS, ,0.07919243341999999, ,0.01247620563247271, ,0.045283157050672436, ,0.0010063163874484459, ,1.75, ,0.7816645812116949, ,0.5942939940001224, ,0.15550703046876593
59, ,PASS, ,0.07914824752, ,0.012470801560723974, ,0.04515057931409563, ,0.0010053337011744676, ,1.8333333333333333, ,0.7805122748899266, ,0.5940899165323157, ,0.14673169935307442
60, ,PASS, ,0.07929237315999997, ,0.012504694399472235, ,0.0452076694728679, ,0.0010097574491933858, ,1.75, ,0.7815404825750122, ,0.5942531785065611, ,0.15409889594089918
61, ,PASS, ,0.07939275775999997, ,0.012496892002557925, ,0.04532295212444643, ,0.0010103859735942748, ,1.8333333333333333, ,0.7806095523134072, ,0.5944776637211485, ,0.14965000714271137
62, ,PASS, ,0.07912690858000002, ,0.012462571433909048, ,0.04523642926899451, ,0.0010044577757115497, ,1.75, ,0.7812440762303495, ,0.5942327707597804, ,0.1466704761127324
63, ,PASS, ,0.07927743445999999, ,0.012472199513356099, ,0.0451806456272321, ,0.0010070836022472711, ,1.8333333333333333, ,0.7815905000851386, ,0.5943960327340259, ,0.15475194383788085
64, ,PASS, ,0.07925069027999998, ,0.012464780783861517, ,0.04506680609599804, ,0.0010060100341413483, ,1.75, ,0.7812394675932148, ,0.5941307320258771, ,0.14791534866635375
65, ,PASS, ,0.07922380779999998, ,0.01250307502118726, ,0.04522919067794534, ,0.0010087969713822673, ,1.75, ,0.7824635533037589, ,0.5942327707597804, ,0.15144588885941104
66, ,PASS, ,0.07923095911999999, ,0.01247248562116764, ,0.04553469634395216, ,0.0010064460273777394, ,1.75, ,0.7812814699044883, ,0.5942123630129997, ,0.14840513458909002
67, ,PASS, ,0.07941792081999999, ,0.012499724915382676, ,0.04525370023387277, ,0.0010109833145383737, ,1.75, ,0.7809400915405562, ,0.5939674700516316, ,0.14899695924572967
68, ,PASS, ,0.07944121347999998, ,0.012470382076192514, ,0.04531384794208281, ,0.001008735531816641, ,1.75, ,0.7774717589580632, ,0.5938858390645089, ,0.13781351400991818
69, ,PASS, ,0.07936233195999998, ,0.012499601901363594, ,0.0453235918448603, ,0.0010103334927031504, ,1.75, ,0.7820566748695852, ,0.5947225566825167, ,0.1528540233872778
70, ,PASS, ,0.08061765215999998, ,0.012669354270664823, ,0.045366411712822186, ,0.0010401633980475073, ,1.75, ,0.7807630693378469, ,0.5941511397726577, ,0.15089487969633272
71, ,PASS, ,0.08027533549999996, ,0.012612673221994473, ,0.04536527964286443, ,0.0010311447572417943, ,1.75, ,0.7806544649761634, ,0.5942123630129997, ,0.1471194465419073
72, ,PASS, ,0.07960304387999997, ,0.012530132666163214, ,0.045161745199893875, ,0.0010157023992910783, ,1.75, ,0.7802860657439191, ,0.5940082855451929, ,0.1480582028938185
73, ,PASS, ,0.07964212216000001, ,0.012557814228560957, ,0.04524398070937327, ,0.0010184110357568817, ,1.75, ,0.7818462656640962, ,0.5942327707597804, ,0.15307850860186528
74, ,PASS, ,0.07949367365999999, ,0.012527680174646144, ,0.045420033513397684, ,0.001014292496856365, ,1.75, ,0.7818413560076652, ,0.5944368482275872, ,0.1541601191812412
75, ,PASS, ,0.07972400939999996, ,0.012543119472917712, ,0.04519508482051386, ,0.0010183488284244398, ,1.75, ,0.7804784789554278, ,0.5942123630129997, ,0.14687455358053916
76, ,PASS, ,0.07982072771999998, ,0.012544517161529933, ,0.045216136347217405, ,0.0010197027895822294, ,1.75, ,0.7797668614323874, ,0.594069508785535, ,0.14528274933164628
77, ,PASS, ,0.08006494663999998, ,0.01258890288659028, ,0.04528014539540009, ,0.001026720206492208, ,1.75, ,0.7802144623763573, ,0.5941307320258771, ,0.14505826411705883
78, ,PASS, ,0.08062884355999995, ,0.012696675137386215, ,0.04532678520499581, ,0.0010426675476967614, ,1.75, ,0.7824329503023962, ,0.594069508785535, ,0.1554458072284239
79, ,PASS, ,0.08063642129999996, ,0.012687357650220945, ,0.04534665636844146, ,0.0010419951740895793, ,1.75, ,0.7806371133933555, ,0.593559315116018, ,0.15171118956755986
80, ,PASS, ,0.08005331477999998, ,0.012612041716280237, ,0.045143279751025486, ,0.0010282804141672612, ,1.75, ,0.7821579335523632, ,0.5940286932919736, ,0.15207852900961205
81, ,PASS, ,0.07991761387999996, ,0.012588075896348324, ,0.04532924339380829, ,0.0010245903113595132, ,1.75, ,0.7825385446725126, ,0.5944980714679292, ,0.15442541988939001
82, ,PASS, ,0.07989337633999995, ,0.012580750280245077, ,0.04534000816248648, ,0.0010237950766975167, ,1.75, ,0.7802532845122789, ,0.5937429848370441, ,0.14873165853758086
83, ,PASS, ,0.07961922303999998, ,0.012575202697839516, ,0.045357451211199766, ,0.0010196367948151158, ,1.8333333333333333, ,0.7823534497626954, ,0.5944572559743678, ,0.15426215791514458
84, ,PASS, ,0.07984510837999999, ,0.01257631433678762, ,0.04512292210689577, ,0.0010226636209677512, ,1.8333333333333333, ,0.7808074829428324, ,0.5943756249872452, ,0.14905818248607172
85, ,PASS, ,0.08023639321999998, ,0.012613907072776303, ,0.04515839123466868, ,0.0010306964405935903, ,1.8333333333333333, ,0.779368032684968, ,0.5941511397726577, ,0.14930307544743984
86, ,PASS, ,0.08003347949999999, ,0.012594896041801237, ,0.045350251816901686, ,0.0010268498936946853, ,1.8333333333333333, ,0.7802782316460464, ,0.5940286932919736, ,0.1456500887736985
87, ,PASS, ,0.08017664591999998, ,0.01262102056810188, ,0.045171048582273825, ,0.0010305103875025865, ,1.8333333333333333, ,0.7812637944538469, ,0.594069508785535, ,0.15262953817269034
88, ,PASS, ,0.07998329296, ,0.012565533601348494, ,0.04528976076651497, ,0.0010235133343040321, ,1.8333333333333333, ,0.7788190332558028, ,0.5945184792147099, ,0.14095630701414258
89, ,PASS, ,0.08001051581999999, ,0.012624886476329244, ,0.045240565066427214, ,0.0010287870603159918, ,1.8333333333333333, ,0.7816156187463194, ,0.5941511397726577, ,0.15403767270055713
90, ,PASS, ,0.08010233536, ,0.012574100646809352, ,0.04515445369216954, ,0.0010257376543625356, ,1.8333333333333333, ,0.7794752482172714, ,0.5944164404808066, ,0.14534397257198833
91, ,PASS, ,0.08019254521999997, ,0.012621842248190742, ,0.0450968447450052, ,0.0010307906685983574, ,1.8333333333333333, ,0.7799209413943008, ,0.5943144017469031, ,0.146568437378829
92, ,PASS, ,0.08018030573999997, ,0.012646585495655043, ,0.045400013465847634, ,0.0010329032323426665, ,1.8333333333333333, ,0.7809360461454025, ,0.594191955266219, ,0.15271116915981306
93, ,PASS, ,0.08032361837999999, ,0.012657137233529632, ,0.045263386591906284, ,0.0010355245118600963, ,1.8333333333333333, ,0.7804432736694513, ,0.5942327707597804, ,0.14922144446031713
94, ,PASS, ,0.08011789838000001, ,0.012638021575619994, ,0.04526767747556172, ,0.0010312632998024374, ,1.8333333333333333, ,0.7813753323549016, ,0.5943756249872452, ,0.15477235158466154
95, ,PASS, ,0.08025311959999995, ,0.012652330766735451, ,0.04532224427113732, ,0.0010341426173599132, ,1.8333333333333333, ,0.7815097155202073, ,0.5942327707597804, ,0.14924185220709782
96, ,PASS, ,0.08017450323999997, ,0.012645245689848851, ,0.04524501872574029, ,0.001032534451987495, ,1.8333333333333333, ,0.7804238248999019, ,0.5940286932919736, ,0.1468541458337585
97, ,PASS, ,0.08046545415999998, ,0.012666164600566767, ,0.04516753074671945, ,0.001037982945791936, ,1.8333333333333333, ,0.7806162914042004, ,0.5939674700516316, ,0.14681333034019714
98, ,PASS, ,0.08040416895999998, ,0.012660286145787104, ,0.045193284539091036, ,0.0010366396444151677, ,1.8333333333333333, ,0.7814729454768287, ,0.5944776637211485, ,0.15207852900961205
99, ,PASS, ,0.08056521489999997, ,0.012669753868694863, ,0.045415204807861057, ,0.0010396525602387942, ,1.8333333333333333, ,0.7810166054797973, ,0.5941715475194383, ,0.14793575641313442
100, ,PASS, ,0.08035939227999998, ,0.0126548294851332, ,0.04532870353502989, ,0.0010356168837207717, ,1.8333333333333333, ,0.7810009285451548, ,0.594069508785535, ,0.14522152609130426
101, ,PASS, ,0.08052299185999996, ,0.012696590736314083, ,0.04524389444990918, ,0.0010411775605859285, ,1.8333333333333333, ,0.781574838448043, ,0.5941511397726577, ,0.15050713250749984
102, ,PASS, ,0.08064925049999999, ,0.012702072688530157, ,0.04530282662925245, ,0.0010432534622307193, ,1.8333333333333333, ,0.7805527177676824, ,0.5941511397726577, ,0.14967041488949206
103, ,PASS, ,0.08055058759999999, ,0.012700039426959632, ,0.0452038387102304, ,0.0010417833506244241, ,1.8333333333333333, ,0.7806658619483041, ,0.5942327707597804, ,0.14709903879512662
104, ,PASS, ,0.08073470499999996, ,0.012728431352817053, ,0.04529384344625619, ,0.0010465241136771643, ,1.8333333333333333, ,0.7813041492691832, ,0.5943960327340259, ,0.15197649027570867
105, ,PASS, ,0.08083477039999998, ,0.01277031778944423, ,0.04522233656680476, ,0.001051310775522478, ,1.8333333333333333, ,0.7814335803566395, ,0.594069508785535, ,0.1520377135160507
106, ,PASS, ,0.08074296700000001, ,0.012720573263003411, ,0.04517837932307503, ,0.0010458908895632968, ,1.8333333333333333, ,0.7804493339762103, ,0.5942939940001224, ,0.1476908634517663
107, ,PASS, ,0.0807122295, ,0.012760228975864304, ,0.04535557992755249, ,0.0010488794783752484, ,1.8333333333333333, ,0.7814427861889217, ,0.5942327707597804, ,0.1535070712842595
108, ,PASS, ,0.08199406429999999, ,0.01289302783876626, ,0.04540807304055019, ,0.0010767104684401636, ,1.8333333333333333, ,0.779917510890453, ,0.5941715475194383, ,0.1453847880655497
109, ,PASS, ,0.09818882400000002, ,0.015150772689617648, ,0.04686308506010082, ,0.001515228004512871, ,1.8333333333333333, ,0.7763496924853708, ,0.594191955266219, ,0.1539560417134344
110, ,PASS, ,0.1998000000000002, ,0.03218290224898854, ,0.05451025187485978, ,0.006547947845176799, ,1.8333333333333333, ,0.814097943990245, ,0.6026203546866391, ,0.33864615007856985
111, ,PASS, ,0.08711148199999999, ,0.01370648077247421, ,0.04582542447378624, ,0.0012158402497037862, ,1.8333333333333333, ,0.7792038419121684, ,0.5941511397726577, ,0.14544601130589171
112, ,PASS, ,0.08391235799999996, ,0.01323151988774978, ,0.045486708797371475, ,0.0011306847778468935, ,1.8333333333333333, ,0.7809442736614303, ,0.5943756249872452, ,0.14611946694965408
113, ,PASS, ,0.08316543499999995, ,0.01312597686884461, ,0.04542523793983795, ,0.0011116795801542057, ,1.8333333333333333, ,0.7802118468047424, ,0.5940082855451929, ,0.14226240280810595
114, ,PASS, ,0.08304902599999997, ,0.013112123966197679, ,0.04533689574008693, ,0.001109097895022184, ,1.8333333333333333, ,0.7809953135961031, ,0.5943756249872452, ,0.14405828452480562
115, ,PASS, ,0.083090615, ,0.013104749306679878, ,0.04534091696679658, ,0.0011089090202817393, ,1.8333333333333333, ,0.780410406428614, ,0.5943144017469031, ,0.144160323258709
116, ,PASS, ,0.08324504199999995, ,0.013093835759814054, ,0.04524468909103895, ,0.0011099496004733013, ,1.8333333333333333, ,0.7781660839603035, ,0.5942531785065611, ,0.13124221954653986
117, ,PASS, ,0.08330038899999995, ,0.013146170695935452, ,0.04555276749025529, ,0.0011154556014674605, ,1.8333333333333333, ,0.7802514857908758, ,0.5940491010387543, ,0.1443439929797351
118, ,PASS, ,0.08300609299999995, ,0.013100017657369642, ,0.04550840355380502, ,0.0011073628003369948, ,1.8333333333333333, ,0.7810555217008616, ,0.5941103242790964, ,0.14775208669210832
119, ,PASS, ,0.08300390699999992, ,0.013074176056153608, ,0.045332124217260863, ,0.0011050628348586334, ,1.8333333333333333, ,0.7770413187488648, ,0.5938246158241669, ,0.1288953286667619
120, ,PASS, ,0.08295830999999997, ,0.013097355432672843, ,0.0455577916773127, ,0.0011066439394333855, ,1.8333333333333333, ,0.7813029524050384, ,0.5942735862533418, ,0.14887451276504562
121, ,PASS, ,0.08289779299999997, ,0.013088493879174866, ,0.04558215556886593, ,0.0011049487226498366, ,1.8333333333333333, ,0.7813557095018824, ,0.5945592947082713, ,0.14775208669210832
122, ,PASS, ,0.08297128399999998, ,0.013107917776863313, ,0.04546280558927368, ,0.001107683649861043, ,1.8333333333333333, ,0.7815851224708193, ,0.5942327707597804, ,0.1475888247178629
123, ,PASS, ,0.08309167399999993, ,0.013125224008857132, ,0.045397669035325806, ,0.0011106131992152898, ,1.8333333333333333, ,0.7809342087481653, ,0.5944980714679292, ,0.14677251484663578
124, ,PASS, ,0.08244844199999998, ,0.013019082158865014, ,0.04527956743780739, ,0.0010932129410716727, ,1.8333333333333333, ,0.7806099000907807, ,0.5942123630129997, ,0.1448133711556907
125, ,PASS, ,0.08257745799999998, ,0.013053133835874049, ,0.04531206421970979, ,0.0010977676716397164, ,1.8333333333333333, ,0.7809739277460379, ,0.594191955266219, ,0.1425072957694741
126, ,PASS, ,0.08291649399999994, ,0.013085626685433444, ,0.045450483825228045, ,0.001104985960158558, ,1.8333333333333333, ,0.7794912776347592, ,0.5940082855451929, ,0.13632374849492868
127, ,PASS, ,0.08283583499999995, ,0.013082366710291003, ,0.045383070343462374, ,0.0011037274255567995, ,1.8333333333333333, ,0.7814115773416023, ,0.5943348094936838, ,0.14789494091957306
128, ,PASS, ,0.08240192379999996, ,0.013028567251202702, ,0.04573762905430501, ,0.0010932760641421957, ,1.8333333333333333, ,0.7819170304771523, ,0.5945592947082713, ,0.14944592967490458
129, ,PASS, ,0.08273160489999994, ,0.013081730428544824, ,0.045548032542193015, ,0.0011021361874253924, ,1.8333333333333333, ,0.7816995265013996, ,0.5943960327340259, ,0.148976551498949
130, ,PASS, ,0.08301717289999998, ,0.013114044266403915, ,0.04582447484867655, ,0.0011088175192036057, ,1.8333333333333333, ,0.7807648920941198, ,0.5940491010387543, ,0.14391543029734086
131, ,PASS, ,0.08311764969999996, ,0.013075168148520886, ,0.0458549588704312, ,0.0011066803048621135, ,1.8333333333333333, ,0.7780147120318188, ,0.5944572559743678, ,0.13354829493275647
132, ,PASS, ,0.08322059959999993, ,0.01312216179273594, ,0.04570729284035018, ,0.0011120002419733302, ,1.8333333333333333, ,0.7793974557153094, ,0.5940286932919736, ,0.13716046611293647
133, ,PASS, ,0.08319650799999996, ,0.01315760065398049, ,0.04573518050590804, ,0.0011147974593819123, ,1.8333333333333333, ,0.7816947198856181, ,0.5941307320258771, ,0.1478745331727924
134, ,PASS, ,0.08351479899999997, ,0.013164005700439362, ,0.04575683300993857, ,0.0011196445556549764, ,1.8333333333333333, ,0.7796588618145716, ,0.5937633925838248, ,0.14344605212138528
135, ,PASS, ,0.08334576299999996, ,0.013139138305609942, ,0.04581180778392276, ,0.0011152715560989277, ,1.8333333333333333, ,0.7799770366569142, ,0.5941103242790964, ,0.1430583049325524
136, ,PASS, ,0.08335764999999998, ,0.01311080254361538, ,0.04570929098630639, ,0.001113131803121963, ,1.8333333333333333, ,0.7798706999742498, ,0.5942735862533418, ,0.1382420766923124
137, ,PASS, ,0.08293032389999999, ,0.013112086001856533, ,0.045745968793494, ,0.0011073832940276143, ,1.8333333333333333, ,0.7819714804651584, ,0.5941715475194383, ,0.1487112507908002
138, ,PASS, ,0.08277472489999999, ,0.01302974653608164, ,0.04568472587049243, ,0.001098334990068001, ,1.8333333333333333, ,0.7805362804116963, ,0.5944980714679292, ,0.1440786922715863
139, ,PASS, ,0.08289279329999995, ,0.013044306996797109, ,0.0455442743754209, ,0.0011013402356680945, ,1.8333333333333333, ,0.7808987808573096, ,0.5944368482275872, ,0.14524193383808492
140, ,PASS, ,0.08230582699999993, ,0.013018333485255941, ,0.04565506312258933, ,0.0010912298275174378, ,1.8333333333333333, ,0.7815676565806068, ,0.5943960327340259, ,0.14477255566212935
141, ,PASS, ,0.08369566499999997, ,0.013208143346765063, ,0.04586883063243607, ,0.0011259813617399848, ,1.8333333333333333, ,0.7813971916061846, ,0.5942939940001224, ,0.14593579722862798
142, ,PASS, ,0.08269587869999995, ,0.013036042069479179, ,0.045776817493724614, ,0.0010978036437961805, ,1.8333333333333333, ,0.7785734553599227, ,0.5939674700516316, ,0.13534417664945614
143, ,PASS, ,0.08236717979999995, ,0.012984341892457955, ,0.04559056849880614, ,0.001089146662521924, ,1.8333333333333333, ,0.779214760202257, ,0.5943552172404645, ,0.13644619497561275
144, ,PASS, ,0.08256148629999994, ,0.01302018584798492, ,0.04568229567437398, ,0.0010949451108668209, ,1.8333333333333333, ,0.7800755853531242, ,0.5941307320258771, ,0.13873186261504866
145, ,PASS, ,0.08306528789999994, ,0.013062641240434934, ,0.045620427602497904, ,0.001104923488960312, ,1.8333333333333333, ,0.7767338681650902, ,0.5935389073692373, ,0.13362992591987918
146, ,PASS, ,0.08321254065999995, ,0.013030129651304234, ,0.045688610344890905, ,0.0011041808321098543, ,1.8333333333333333, ,0.7784130815302283, ,0.5947429644292974, ,0.13560947735760495
147, ,PASS, ,0.08330284299999996, ,0.013122637525418384, ,0.04558158104589701, ,0.0011132392076423298, ,1.8333333333333333, ,0.7800747901105857, ,0.5941511397726577, ,0.1462010979367768
148, ,PASS, ,0.08270756099999994, ,0.013076175670712774, ,0.04553737762923205, ,0.0011011621087180865, ,1.8333333333333333, ,0.7797072443165051, ,0.5939878777984122, ,0.14393583804412155
149, ,PASS, ,0.08338646599999998, ,0.013188397953700099, ,0.04573085792147098, ,0.0011201551726501052, ,1.8333333333333333, ,0.7829460371914203, ,0.5944572559743678, ,0.15405808044733782
150, ,PASS, ,0.08293968989999993, ,0.013109525723778126, ,0.04570532885083977, ,0.0011074281584589076, ,1.8333333333333333, ,0.7825636378683409, ,0.5943144017469031, ,0.15224179098385748
151, ,PASS, ,0.08239836359999998, ,0.013009915232258395, ,0.04559740969633272, ,0.0010918670612738348, ,1.8333333333333333, ,0.780729583135131, ,0.594069508785535, ,0.14346645986816595
152, ,PASS, ,0.08264733089999998, ,0.01304946765072189, ,0.04558904559131445, ,0.0010983794473225872, ,1.8333333333333333, ,0.7808952016000951, ,0.5945388869614906, ,0.14679292259341645
153, ,PASS, ,0.08282812759999995, ,0.01306727073051169, ,0.04563755536050284, ,0.0011023706715320388, ,1.8333333333333333, ,0.7808929457764207, ,0.5943348094936838, ,0.14411950776514765
154, ,PASS, ,0.08272825699999997, ,0.01310077325798093, ,0.04555891744801126, ,0.0011037384213553767, ,1.8333333333333333, ,0.7816576101148425, ,0.5943144017469031, ,0.15013979306544764
155, ,PASS, ,0.08314866399999994, ,0.01309411199718384, ,0.04558227256811084, ,0.0011088227046208937, ,1.8333333333333333, ,0.779623559684981, ,0.5941511397726577, ,0.14016040488969614
156, ,PASS, ,0.08339964699999997, ,0.013158378126827195, ,0.04572494708026365, ,0.0011176263268912483, ,1.8333333333333333, ,0.7799854287462137, ,0.5943960327340259, ,0.1480582028938185
157, ,PASS, ,0.08368962499999996, ,0.013207557052065041, ,0.04568557002979531, ,0.0011255653769161767, ,1.8333333333333333, ,0.7809995130781285, ,0.5941103242790964, ,0.14738474725005613
158, ,PASS, ,0.08367050499999996, ,0.013211174764684832, ,0.04574254360706923, ,0.0011257019620488549, ,1.8333333333333333, ,0.7802733707390405, ,0.5942531785065611, ,0.14275218873084222
159, ,PASS, ,0.08363723999999999, ,0.013187218349653616, ,0.04588688052223423, ,0.0011233366529581803, ,1.8333333333333333, ,0.7812437897734866, ,0.5943144017469031, ,0.14311952817289442
160, ,PASS, ,0.08407425999999998, ,0.01326060205983445, ,0.0457018634715618, ,0.001135413272516279, ,1.8333333333333333, ,0.781269503125589, ,0.5942735862533418, ,0.14593579722862798
161, ,PASS, ,0.08407919199999997, ,0.013235714781447501, ,0.04575653849696944, ,0.0011333201880790664, ,1.8333333333333333, ,0.7795652910623291, ,0.594579702455052, ,0.14320115916001713
162, ,PASS, ,0.08394984599999997, ,0.013221501668068503, ,0.04579212930103467, ,0.0011303106967972345, ,1.8333333333333333, ,0.7800117047874893, ,0.5943756249872452, ,0.14136446194975613
163, ,PASS, ,0.08369045699999997, ,0.01322155557462602, ,0.04563668049039815, ,0.0011269051199590387, ,1.8333333333333333, ,0.78099329075933, ,0.5942735862533418, ,0.1458337584947246
164, ,PASS, ,0.08349312599999999, ,0.013192028266177182, ,0.04563546629823881, ,0.0011217297268694723, ,1.8333333333333333, ,0.7809650696520825, ,0.5943756249872452, ,0.1487928817779229
165, ,PASS, ,0.08383657899999998, ,0.013186650676999097, ,0.045756013354421324, ,0.0011257843899728458, ,1.8333333333333333, ,0.7782924493893744, ,0.5941307320258771, ,0.1400991816493541
166, ,PASS, ,0.08347199699999996, ,0.013165843092813549, ,0.045729180983245236, ,0.001119113185439959, ,1.8333333333333333, ,0.7805236692943945, ,0.5942123630129997, ,0.14505826411705883
167, ,PASS, ,0.08330433599999998, ,0.013160147019519633, ,0.04569933862900756, ,0.0011165954088713606, ,1.8333333333333333, ,0.7811047267593563, ,0.594191955266219, ,0.14348686761494664
168, ,PASS, ,0.08319290699999995, ,0.013162736651245658, ,0.04555323775535192, ,0.0011152097436487414, ,1.8333333333333333, ,0.7820306622712295, ,0.5941715475194383, ,0.15103773392379746
169, ,PASS, ,0.08353867359999997, ,0.013148774644778908, ,0.04545849463766045, ,0.0011186637043003101, ,1.8333333333333333, ,0.779171113965167, ,0.5941511397726577, ,0.14160935491112425
170, ,PASS, ,0.08333694399999995, ,0.013119754695690855, ,0.04560104767249647, ,0.0011134478854604314, ,1.8333333333333333, ,0.7792415321750276, ,0.5938450235709475, ,0.14362972184241138
171, ,PASS, ,0.08308219799999994, ,0.013137814839328228, ,0.04574474311993632, ,0.0011116194546496889, ,1.8333333333333333, ,0.7813972893060482, ,0.5942939940001224, ,0.14846635782943204
172, ,PASS, ,0.08304207099999994, ,0.013119852780958924, ,0.045615960049794894, ,0.0011095237812986528, ,1.8333333333333333, ,0.7806503954416155, ,0.5941103242790964, ,0.1432419746535785
173, ,PASS, ,0.08307767339999997, ,0.013114448497370005, ,0.04583240211158955, ,0.0011095409054359571, ,1.8333333333333333, ,0.7791206564687246, ,0.5941307320258771, ,0.1360176322932185
174, ,PASS, ,0.08283601165999997, ,0.01307057348816893, ,0.045545700829778976, ,0.0011025551906777053, ,1.8333333333333333, ,0.7784990935393696, ,0.5941715475194383, ,0.1366706801902002
175, ,PASS, ,0.08307504029999996, ,0.01311676916453328, ,0.045650177007408005, ,0.0011095656468613508, ,1.8333333333333333, ,0.7791940987764842, ,0.5941103242790964, ,0.14444603171363848
176, ,PASS, ,0.08339952499999993, ,0.013164977074047466, ,0.0454782267610865, ,0.0011180778877331952, ,1.8333333333333333, ,0.7791852402925067, ,0.5942939940001224, ,0.13979306544764392
177, ,PASS, ,0.08354008099999997, ,0.013180835583542641, ,0.045729687085773754, ,0.001121277088030744, ,1.8333333333333333, ,0.7797398259289793, ,0.5942735862533418, ,0.14354809085528866
178, ,PASS, ,0.08365833399999997, ,0.013223638714666464, ,0.045717322135670695, ,0.0011264647686604675, ,1.8333333333333333, ,0.779337440086514, ,0.593947062304851, ,0.14446643946041918
179, ,PASS, ,0.08440457499999997, ,0.013306704836107177, ,0.045606112193628694, ,0.0011439590286206718, ,1.8333333333333333, ,0.7798734312425792, ,0.5943144017469031, ,0.14030325911716088
180, ,PASS, ,0.10426507000000003, ,0.016061581004518863, ,0.04781725464133386, ,0.0017062813182190733, ,1.8333333333333333, ,0.7762010591216091, ,0.5940899165323157, ,0.1355686618640436
181, ,PASS, ,0.1998000000000002, ,0.030896223678704433, ,0.0548282753960124, ,0.006284957304869066, ,1.8333333333333333, ,0.8014311255613475, ,0.6037019652660149, ,0.3170547539846126
182, ,PASS, ,0.09089001500000002, ,0.014372945677914972, ,0.0462863980282035, ,0.0013302251454569499, ,1.8333333333333333, ,0.7802566694907058, ,0.5943144017469031, ,0.14642558315136425
183, ,PASS, ,0.08816046500000002, ,0.013950642175551751, ,0.045879158921450586, ,0.0012523926319950368, ,1.8333333333333333, ,0.7793173960654111, ,0.5941511397726577, ,0.14091549152058122
184, ,PASS, ,0.08774616700000001, ,0.013909205206820067, ,0.046084472085875794, ,0.0012427630599527637, ,1.8333333333333333, ,0.7803025532500243, ,0.5937429848370441, ,0.14387461480377953
185, ,PASS, ,0.087947913, ,0.013914240732715993, ,0.04595238423644415, ,0.0012461222622021893, ,1.8333333333333333, ,0.7793045120141554, ,0.5940082855451929, ,0.13756862104855003
186, ,PASS, ,0.08790705200000001, ,0.01390381802181048, ,0.04591344144997041, ,0.001244550299461294, ,1.8333333333333333, ,0.7792015756361982, ,0.5939674700516316, ,0.13818085345197037
187, ,PASS, ,0.08836780700000003, ,0.013988019473144502, ,0.04577696033754413, ,0.0012586400241053014, ,1.8333333333333333, ,0.7808408330903032, ,0.5940491010387543, ,0.14542560355911105
188, ,PASS, ,0.08825069999999999, ,0.013972507150659095, ,0.045991265224587255, ,0.0012557161435304222, ,1.8333333333333333, ,0.7815287911977318, ,0.5941715475194383, ,0.14507867186383952
189, ,PASS, ,0.08809118800000003, ,0.013967754053764644, ,0.04590764550417338, ,0.0012529525837552478, ,1.8333333333333333, ,0.7821825130890606, ,0.5941307320258771, ,0.14946633742168527
190, ,PASS, ,0.08780910900000001, ,0.01393391042352277, ,0.046028210129385114, ,0.0012460217414100147, ,1.8333333333333333, ,0.7820955496009406, ,0.5942735862533418, ,0.146568437378829
191, ,PASS, ,0.08799472600000001, ,0.013972940187807866, ,0.04595306181628947, ,0.0012521643737819779, ,1.8333333333333333, ,0.7821563915737537, ,0.5942939940001224, ,0.15007856982510562
192, ,PASS, ,0.08802735000000003, ,0.013943537740365266, ,0.046254926513132386, ,0.0012499662093065867, ,1.8333333333333333, ,0.7809604809664574, ,0.5942327707597804, ,0.14422154649905103
193, ,PASS, ,0.08826284200000001, ,0.013981384513240222, ,0.04615741615477235, ,0.0012566864771171818, ,1.8333333333333333, ,0.7807499041225341, ,0.593947062304851, ,0.1433440133874819
194, ,PASS, ,0.08799113500000001, ,0.013944222692925124, ,0.046048850063059935, ,0.001249567239241247, ,1.8333333333333333, ,0.7816938664228881, ,0.594579702455052, ,0.14526234158486562
195, ,PASS, ,0.08836927700000002, ,0.013966923009807142, ,0.04589024901328544, ,0.0012569655103312073, ,1.8333333333333333, ,0.7804769530253428, ,0.593947062304851, ,0.13965021122017918
196, ,PASS, ,0.08800216900000003, ,0.01392247900998298, ,0.04590289902940756, ,0.001247725833099038, ,1.8333333333333333, ,0.7810086180693379, ,0.5941307320258771, ,0.14130323870941408
197, ,PASS, ,0.088036023, ,0.01392017623074298, ,0.04594402465704781, ,0.0012479804953334243, ,1.8333333333333333, ,0.7793518356396968, ,0.5941307320258771, ,0.1385073774004612
198, ,PASS, ,0.08799611500000001, ,0.013938684543114263, ,0.04597132035529887, ,0.0012489177436628912, ,1.8333333333333333, ,0.7813494851040662, ,0.5943552172404645, ,0.14589498173506663
199, ,PASS, ,0.08806332800000001, ,0.013920227856207402, ,0.04606918453827473, ,0.0012483598972157395, ,1.8333333333333333, ,0.7805516646247617, ,0.594069508785535, ,0.14344605212138528
200, ,PASS, ,0.088062751, ,0.013935580623324624, ,0.04607463718271055, ,0.0012498732478975717, ,1.8333333333333333, ,0.7794888835768626, ,0.594069508785535, ,0.13636456398849003
201, ,PASS, ,0.08800923499999999, ,0.013916437307825354, ,0.046082518175343354, ,0.001247281356159309, ,1.8333333333333333, ,0.7814498993357515, ,0.5949266341503234, ,0.14385420705699883
202, ,PASS, ,0.087715299, ,0.013865525103092406, ,0.04604248300034693, ,0.001238580113713638, ,1.8333333333333333, ,0.7809746287467917, ,0.5946001102018326, ,0.14358890634885002
203, ,PASS, ,0.08734124999999998, ,0.01385837160357567, ,0.045973302571784246, ,0.0012325533078513626, ,1.8333333333333333, ,0.7809790515236653, ,0.5941715475194383, ,0.1456500887736985
204, ,PASS, ,0.08741783700000003, ,0.01382654731543005, ,0.046016113366053754, ,0.0012308877322238267, ,1.8333333333333333, ,0.7804797254989306, ,0.594191955266219, ,0.14403787677802493
205, ,PASS, ,0.08749305800000003, ,0.01383207658766968, ,0.04583768432950348, ,0.0012323882783125655, ,1.8333333333333333, ,0.7797665734111031, ,0.5944368482275872, ,0.14013999714291545
206, ,PASS, ,0.08739606000000003, ,0.013812828742804779, ,0.04577308516234363, ,0.0012291985075559466, ,1.8333333333333333, ,0.780237658991644, ,0.5943960327340259, ,0.14197669435317647
207, ,PASS, ,0.08720011000000003, ,0.013796971810525912, ,0.045839848120242443, ,0.0012251063231964166, ,1.8333333333333333, ,0.7803678880114103, ,0.5938858390645089, ,0.1418542478724924
208, ,PASS, ,0.087283182, ,0.013827751551489123, ,0.04568248981775882, ,0.0012288690880230325, ,1.8333333333333333, ,0.780323748984294, ,0.5940899165323157, ,0.14271137323728086
209, ,PASS, ,0.08724165800000003, ,0.013813899586077772, ,0.0459746763282382, ,0.0012270674930069698, ,1.8333333333333333, ,0.7797687763052029, ,0.594191955266219, ,0.1402012203832575
210, ,PASS, ,0.087385063, ,0.013834164372774816, ,0.04590996341258342, ,0.0012309544575126636, ,1.8333333333333333, ,0.7805577381859277, ,0.5942531785065611, ,0.14501744862349747
211, ,PASS, ,0.08774024100000004, ,0.013840265143478301, ,0.045994388490643044, ,0.0012365092363070854, ,1.8333333333333333, ,0.7785476727754844, ,0.5940082855451929, ,0.13577273933185038
212, ,PASS, ,0.08949162099999998, ,0.014170068449121317, ,0.045936533767474134, ,0.0012915117555833881, ,1.8333333333333333, ,0.7827019443030133, ,0.5943552172404645, ,0.1512826268851656
213, ,PASS, ,0.08863973000000001, ,0.014051419930623364, ,0.04612200398032693, ,0.0012686422597708335, ,1.8333333333333333, ,0.7820021325651987, ,0.5944368482275872, ,0.15144588885941104
214, ,PASS, ,0.08825975600000001, ,0.013969309649970191, ,0.0462261465166017, ,0.0012556740986344793, ,1.8333333333333333, ,0.7811940302774453, ,0.5943756249872452, ,0.14260933450337748
215, ,PASS, ,0.088881148, ,0.0139838508536182, ,0.04604717109385523, ,0.001265950091345737, ,1.8333333333333333, ,0.7797186675009892, ,0.594763372176078, ,0.1362217097610253
216, ,PASS, ,0.08873383600000001, ,0.014060970426279835, ,0.04612271687659436, ,0.0012706594880617112, ,1.8333333333333333, ,0.7821366066602247, ,0.5942327707597804, ,0.1487928817779229
217, ,PASS, ,0.08868861700000001, ,0.014001815902021097, ,0.0461242969006755, ,0.0012644786895439162, ,1.8333333333333333, ,0.7790843733741548, ,0.5942327707597804, ,0.139344095018469
218, ,PASS, ,0.088611764, ,0.014027991381087054, ,0.045989439690618555, ,0.0012658927426027118, ,1.8333333333333333, ,0.7810117122312389, ,0.5945184792147099, ,0.1464051754045836
219, ,PASS, ,0.088482461, ,0.01397783432669361, ,0.04617463363237485, ,0.001259439709933203, ,1.8333333333333333, ,0.7801728787519201, ,0.5943756249872452, ,0.1416705781514663
220, ,PASS, ,0.089306488, ,0.014150642541680894, ,0.04625627920287341, ,0.0012869536846834423, ,1.8333333333333333, ,0.7815451758106868, ,0.594069508785535, ,0.1503642782800351
221, ,PASS, ,0.088824969, ,0.014027129948148918, ,0.04617943355625396, ,0.0012687232257293892, ,1.8333333333333333, ,0.7787358694176706, ,0.5942123630129997, ,0.13775229076957612
222, ,PASS, ,0.08812355600000002, ,0.013957261475934199, ,0.04586510118079223, ,0.0012524980953194363, ,1.8333333333333333, ,0.7813855140718226, ,0.5941103242790964, ,0.14573171976082122
223, ,PASS, ,0.08800694800000003, ,0.013923588386010799, ,0.04595316951837718, ,0.0012477100143422292, ,1.8333333333333333, ,0.7800337670082982, ,0.5942123630129997, ,0.1416501704046856
224, ,PASS, ,0.08805189600000002, ,0.013963819588733668, ,0.04612576511112018, ,0.0012521852729426622, ,1.8333333333333333, ,0.7817323829811565, ,0.5941511397726577, ,0.14707863104834595
225, ,PASS, ,0.088394492, ,0.013987670163358066, ,0.04582891751127528, ,0.0012591865189496285, ,1.8333333333333333, ,0.7804295053652036, ,0.5938246158241669, ,0.13995632742188935
226, ,PASS, ,0.08828846999999998, ,0.013956656096238182, ,0.04617604159343686, ,0.0012548976690799829, ,1.8333333333333333, ,0.7798653779601422, ,0.5940899165323157, ,0.1389767555764168
227, ,PASS, ,0.08816680500000003, ,0.01393251877775459, ,0.0459126316809861, ,0.0012509013290256759, ,1.8333333333333333, ,0.780115213366824, ,0.5941307320258771, ,0.14060937531887105
228, ,PASS, ,0.08791423599999999, ,0.013886502563731598, ,0.04595043180384074, ,0.0012431203759015862, ,1.8333333333333333, ,0.7789786531778294, ,0.5941103242790964, ,0.13387481888124733
229, ,PASS, ,0.08784594600000002, ,0.013910938659746342, ,0.045929434389298175, ,0.0012444683515779888, ,1.8333333333333333, ,0.7805343471862681, ,0.5939674700516316, ,0.13950735699271444
230, ,PASS, ,0.087897228, ,0.013879354232179163, ,0.04615848774331136, ,0.0012422688003981737, ,1.8333333333333333, ,0.7797146335642424, ,0.594069508785535, ,0.13671149568376156
231, ,PASS, ,0.08796464300000002, ,0.013908178014886845, ,0.04594056397359238, ,0.0012458422761325656, ,1.8333333333333333, ,0.7801778828896908, ,0.593947062304851, ,0.14097671476092324
232, ,PASS, ,0.08798756500000003, ,0.013895937351280545, ,0.04605101156262117, ,0.001244949436484462, ,1.8333333333333333, ,0.7795789275862667, ,0.5941715475194383, ,0.1385277851472419
233, ,PASS, ,0.087993838, ,0.013930900243195585, ,0.0459962519662864, ,0.001248366080634711, ,1.8333333333333333, ,0.7813515851524127, ,0.5942735862533418, ,0.14501744862349747
234, ,PASS, ,0.088279566, ,0.013966998136369653, ,0.04614284134099304, ,0.0012556308567015322, ,1.8333333333333333, ,0.7810910381050308, ,0.5942327707597804, ,0.1443644007265158
235, ,PASS, ,0.088628631, ,0.014013559436694302, ,0.04598632546335789, ,0.0012648111782192076, ,1.8333333333333333, ,0.7799428797360113, ,0.5941103242790964, ,0.13828289218587375
236, ,PASS, ,0.08918792000000002, ,0.014081545208255124, ,0.04616502132385054, ,0.00127897437728937, ,1.8333333333333333, ,0.7796768436526138, ,0.5940899165323157, ,0.13881349360217138
237, ,PASS, ,0.08939083700000004, ,0.01411489926060054, ,0.04609619457888615, ,0.0012848765648852142, ,1.8333333333333333, ,0.7803759766587813, ,0.5943348094936838, ,0.14311952817289442
238, ,PASS, ,0.08905102000000002, ,0.014105149838096753, ,0.04614386057937593, ,0.0012791274500878053, ,1.8333333333333333, ,0.7805401019277096, ,0.5940286932919736, ,0.14689496132731986
239, ,PASS, ,0.08900782100000003, ,0.014084729199546779, ,0.04625587487928817, ,0.001276525643416486, ,1.8333333333333333, ,0.7798545812201969, ,0.5939878777984122, ,0.13909920205710088
240, ,PASS, ,0.08905235600000001, ,0.014060460405202662, ,0.04611084279749393, ,0.00127496385394594, ,1.8333333333333333, ,0.7787730567499578, ,0.5940082855451929, ,0.13758902879533072
241, ,PASS, ,0.088771919, ,0.014038434560242622, ,0.04608467055345809, ,0.0012689632640426622, ,1.8333333333333333, ,0.7804764110417538, ,0.594191955266219, ,0.14469092467500663
242, ,PASS, ,0.08851404199999999, ,0.013984466794511438, ,0.04607054055917226, ,0.0012606383802680002, ,1.8333333333333333, ,0.7792759960556558, ,0.5942123630129997, ,0.1360176322932185
243, ,PASS, ,0.08846385000000002, ,0.01398958301154881, ,0.04613511689373686, ,0.0012603252086071538, ,1.8333333333333333, ,0.7796298902786869, ,0.5938450235709475, ,0.14187465561927307
244, ,PASS, ,0.088445533, ,0.013977416840849565, ,0.04582007691455276, ,0.0012588821253828092, ,1.8333333333333333, ,0.7785861436891273, ,0.5941511397726577, ,0.1368339421644456
245, ,PASS, ,0.08847259300000002, ,0.013977318883178977, ,0.04604564089528785, ,0.001259139741324692, ,1.8333333333333333, ,0.778993556795444, ,0.594191955266219, ,0.14162976265790495
246, ,PASS, ,0.08823433100000003, ,0.01393825470052155, ,0.045888705670904674, ,0.001252425720771793, ,1.8333333333333333, ,0.7785386202155568, ,0.5941715475194383, ,0.139915511928328
247, ,PASS, ,0.08851984600000003, ,0.0139824331615179, ,0.045711513430542236, ,0.0012601786183824143, ,1.8333333333333333, ,0.7783516652098967, ,0.5939674700516316, ,0.14042570559784495
248, ,PASS, ,0.08855147900000002, ,0.0139703452747, ,0.045945532253015245, ,0.0012596373259008422, ,1.8333333333333333, ,0.7780914609550021, ,0.594579702455052, ,0.13785432950347953
249, ,PASS, ,0.08867489299999999, ,0.014022325999714506, ,0.04612391354523377, ,0.0012660557209919078, ,1.8333333333333333, ,0.7788969386991913, ,0.5943960327340259, ,0.1426705577437195
250, ,PASS, ,0.08966449600000002, ,0.014170514899697296, ,0.0462323161543642, ,0.0012937243756890949, ,1.8333333333333333, ,0.7788609319969482, ,0.5939878777984122, ,0.14060937531887105
251, ,PASS, ,0.12390134, ,0.018780541777361354, ,0.04943716586171711, ,0.0023707803542819096, ,1.8333333333333333, ,0.772328947579684, ,0.5942123630129997, ,0.15636415583355442
252, ,PASS, ,0.19979713000000018, ,0.0283497488895382, ,0.05523063440297142, ,0.005764648402357496, ,1.75, ,0.7710916175107047, ,0.605477439235934, ,0.26221913838493094
253, ,PASS, ,0.14436902999999995, ,0.0176959341216701, ,0.051002511458133504, ,0.002601794072549256, ,1.75, ,0.6957243221698172, ,0.5939878777984122, ,0.07814126242321585
254, ,PASS, ,0.14334728000000002, ,0.017506606206243166, ,0.051076353013816043, ,0.002555704186751072, ,1.6666666666666667, ,0.6944564055885535, ,0.5943348094936838, ,0.07520254688679823
255, ,PASS, ,0.14333832999999999, ,0.0174767651567324, ,0.05096475082120773, ,0.0025513368380163082, ,1.6666666666666667, ,0.6941738946935727, ,0.5943348094936838, ,0.07516173139323687
