Channel, ,Pass/Fail, ,Amplitude, ,Sorting Function Response, ,Mean, ,Variance
31, ,PASS, ,0.083325510000000019, ,0.045895755915541014, ,-0.0018324919183690174, ,0.00079534702608013085
32, ,PASS, ,0.084289890000000034, ,0.048489191996465716, ,-0.0023512837241484899, ,0.00085084694390076749
33, ,PASS, ,0.079126689999999944, ,0.044287358748428901, ,-0.0018224987650048009, ,0.00072903695767107413
34, ,PASS, ,0.079899629999999916, ,0.046675301501588058, ,-0.0021876461369563956, ,0.00077668818922344268
35, ,PASS, ,0.082513379999999914, ,0.045135321125738398, ,-0.0019381075655802997, ,0.00077471531722505974
36, ,PASS, ,0.082663539999999952, ,0.047681364404880459, ,-0.002284373224342366, ,0.00082102436617753204
37, ,PASS, ,0.07679570000000005, ,0.043776013297395819, ,-0.0018399385672333264, ,0.00069981899447496099
38, ,PASS, ,0.077085290000000029, ,0.046427607318306453, ,-0.0021587661608538657, ,0.00074565735159421213
39, ,PASS, ,0.07777363000000001, ,0.043880753010990863, ,-0.0017149590007550914, ,0.0007101788438000601
40, ,PASS, ,0.078084229999999977, ,0.046647675992203, ,-0.0022589766777004593, ,0.00075873056195819547
41, ,PASS, ,0.081256489999999959, ,0.04546794114707095, ,-0.0017330714981735143, ,0.00076870702448017124
42, ,PASS, ,0.08199100999999992, ,0.048038345782231415, ,-0.0023808227050672506, ,0.0008202053405156264
43, ,PASS, ,0.077178010000000019, ,0.044744450270443797, ,-0.0018069052904430573, ,0.00071868715341478302
44, ,PASS, ,0.077768670000000026, ,0.047488796574521312, ,-0.0023287827104548934, ,0.00076913068470473109
45, ,PASS, ,0.078817699999999963, ,0.045336072272805845, ,-0.0019870236658435592, ,0.00074388369032437295
46, ,PASS, ,0.080165549999999919, ,0.048642588041835286, ,-0.0022717495113977332, ,0.00081246685778635093
47, ,PASS, ,0.073258430000000041, ,0.043803005810594271, ,-0.0019835997903308151, ,0.00066793495646206397
48, ,PASS, ,0.07494600000000004, ,0.046893401865792002, ,-0.0023438007369033353, ,0.00073223158216479203
49, ,PASS, ,0.072910960000000025, ,0.043106372324232936, ,-0.0019676384833166721, ,0.00065442239707133414
50, ,PASS, ,0.075244740000000032, ,0.0467730608864112, ,-0.0022335597331891248, ,0.00073313153110619173
51, ,PASS, ,0.075644590000000025, ,0.043874260720449518, ,-0.0019220607779229057, ,0.00069122443633315076
52, ,PASS, ,0.079491469999999953, ,0.048353264532486687, ,-0.0023117819022877148, ,0.00080078096028628838
53, ,PASS, ,0.071892730000000099, ,0.042825210866350848, ,-0.0020910673837880914, ,0.0006411190798525806
54, ,PASS, ,0.075950270000000028, ,0.047459754302585568, ,-0.002518325370502649, ,0.00075115242607998623
198, ,PASS, ,0.074429329999999932, ,0.055050317230491759, ,-0.0055956508616150837, ,0.00091883714840816481
199, ,PASS, ,0.065381270000000019, ,0.049635097324539072, ,-0.0048957742323626095, ,0.00071451243529478995
200, ,PASS, ,0.047827569999999986, ,0.030657396254858308, ,-0.0030994196765372142, ,0.00033610909974473777
201, ,PASS, ,0.040862340000000011, ,0.025125031486958532, ,-0.0024799816742515461, ,0.00023644330593392695
202, ,PASS, ,0.047886470000000014, ,0.028652362625164133, ,-0.0029610738472684232, ,0.00031533469812786483
203, ,PASS, ,0.045529989999999999, ,0.027763745816774824, ,-0.0027147635458460028, ,0.00028953759915351676
204, ,PASS, ,0.064555780000000007, ,0.040936723153117395, ,-0.0044433468698597952, ,0.00058980129108309246
205, ,PASS, ,0.078893679999999911, ,0.051723035668182073, ,-0.0056082407375359754, ,0.00090472762127613636
206, ,PASS, ,0.063148560000000034, ,0.038666890583044858, ,-0.0042921955023366822, ,0.00055013099804613241
207, ,PASS, ,0.068030759999999954, ,0.042530341108668671, ,-0.0046507095447031674, ,0.00064596628446897571
208, ,PASS, ,0.053114599999999998, ,0.031845453061067071, ,-0.0033485998151058117, ,0.00038342363018876541
209, ,PASS, ,0.052546630000000011, ,0.032372387156697713, ,-0.0035488467780249353, ,0.00038636137674051302
210, ,PASS, ,0.052012220000000005, ,0.031499662216944439, ,-0.0033852623689312445, ,0.00037249249900776337
211, ,PASS, ,0.056612380000000018, ,0.03614294172121383, ,-0.003754265750698958, ,0.00046251004855131077
212, ,PASS, ,0.0733615499999999, ,0.047749063746794967, ,-0.00525665375584172, ,0.00077433006986847347
213, ,PASS, ,0.15689130000000007, ,0.084086218418656655, ,-0.011146272673822982, ,0.0027220918197311053
214, ,PASS, ,0.060684600000000033, ,0.038668277867294785, ,-0.003964578650231621, ,0.00052774082329010727
215, ,PASS, ,0.069066129999999976, ,0.045926892031220273, ,-0.0049703614309912058, ,0.0007038468589701494
216, ,PASS, ,0.060514980000000038, ,0.037313710852626719, ,-0.0039785032054447814, ,0.0005089762361774943
217, ,PASS, ,0.070890349999999949, ,0.045877061911588871, ,-0.0048204852668312908, ,0.00072138355668309006
218, ,PASS, ,0.055360630000000043, ,0.033857393389684333, ,-0.0037787866837411446, ,0.00042173875449821803
219, ,PASS, ,0.060214800000000041, ,0.037736944224191632, ,-0.0040760092583824754, ,0.00050893674891093531
220, ,PASS, ,0.049075169999999974, ,0.029950913548936413, ,-0.0030756617066998618, ,0.00033322812024113929
221, ,PASS, ,0.046942740000000011, ,0.029363547681554969, ,-0.0029210559035529877, ,0.00031256207432849177
222, ,PASS, ,0.050632969999999979, ,0.028593239394005508, ,-0.0031829879745311302, ,0.00033179854391365328
223, ,PASS, ,0.050689629999999979, ,0.030895285959423244, ,-0.0034099625668863875, ,0.00035447092559586207
224, ,PASS, ,0.15310263000000043, ,0.075672872804849314, ,-0.010142717153323419, ,0.002552861289688613
225, ,PASS, ,0.066636469999999975, ,0.041759614424898631, ,-0.0045900541611395666, ,0.00061924781451927892
226, ,PASS, ,0.067245629999999973, ,0.039600550761061865, ,-0.0045716887759433451, ,0.00059670469910767408
227, ,PASS, ,0.060348190000000052, ,0.037239978439263556, ,-0.0041099111789555266, ,0.00050215268042293486
228, ,PASS, ,0.047766669999999997, ,0.028860529567750596, ,-0.0031298096773535213, ,0.00031253047891478754
229, ,PASS, ,0.050247179999999961, ,0.030829302308987491, ,-0.0031873797040876694, ,0.00035070210051079965
230, ,PASS, ,0.046443890000000002, ,0.028275036337901936, ,-0.0031829668790432832, ,0.00029810352626507977
231, ,PASS, ,0.051420669999999988, ,0.031997300195342443, ,-0.0032593779400420368, ,0.00037071483613525057
232, ,PASS, ,0.058221800000000011, ,0.03645879230689425, ,-0.0039445385908450795, ,0.00047380724270336156
233, ,PASS, ,0.065590410000000002, ,0.042880790359114344, ,-0.0046129531744250104, ,0.00062519577044359612
234, ,PASS, ,0.077040749999999963, ,0.053379474623147162, ,-0.0057919474120936374, ,0.00090352415744580461
