Channel, ,Pass/Fail, ,Amplitude, ,Sorting Function Response, ,Mean, ,Variance, ,NPeaksRatio, ,PosIntegralRatio, ,ToT50, ,ToT99
0, ,PASS, ,0.04995159999999997, ,0.010982459714447753, ,0.025398056453949908, ,0.0005602071551436176, ,1.9166666666666667, ,0.9368981244198465, ,0.41188955327442295, ,0.3505030509581437
1, ,PASS, ,0.026578877999999986, ,0.0038933234438604082, ,0.027179242715046632, ,0.00010515739193583956, ,1.8333333333333333, ,0.7512306990834422, ,0.41405277443317484, ,0.0616313952776474
