Channel, ,Pass/Fail, ,Amplitude, ,Sorting Function Response, ,Mean, ,Variance, ,NPeaksRatio, ,PosIntegralRatio, ,ToT50, ,ToT99
24, ,PASS, ,0.012679186000000005, ,0.0017561063544678046, ,0.02810149019311851, ,2.2633711649903406e-05, ,1.8333333333333333, ,0.7270180398335037, ,0.4146241913430338, ,0.017142507295769473
25, ,PASS, ,0.03972234620000001, ,0.006561383370563976, ,0.025808764454186648, ,0.000263959624537863, ,1.9166666666666667, ,0.7794017379821825, ,0.415562947694945, ,0.057202914226240284
26, ,PASS, ,0.04995159999999998, ,0.010311095193709666, ,0.02426662241586906, ,0.0005231350297378789, ,1.9166666666666667, ,0.8823119796598479, ,0.4170527132099345, ,0.30768759821228137
27, ,PASS, ,0.04995159999999998, ,0.01051101860027703, ,0.02418714532152404, ,0.0005341929382502627, ,2.0, ,0.8983537062784321, ,0.4154813167078223, ,0.32009550825493355
28, ,PASS, ,0.04995159999999998, ,0.010468252154491521, ,0.024262352645864363, ,0.0005319974335447645, ,2.0, ,0.8951981449834682, ,0.41697108222281176, ,0.3176669863880329
29, ,PASS, ,0.036791527800000015, ,0.006013529027276479, ,0.02606918663290749, ,0.00022477811935480818, ,1.8333333333333333, ,0.7916986274898338, ,0.41544050121426096, ,0.052386685986000284
30, ,PASS, ,0.010007553000000006, ,0.0011385608598874165, ,0.028493063070957732, ,1.1650883070418798e-05, ,2.0, ,0.666954910035408, ,0.4161139568580233, ,0.0319177159649803
31, ,PASS, ,0.013428498000000021, ,0.001990781269063981, ,0.027925961181669765, ,2.716219801102306e-05, ,1.8333333333333333, ,0.7533992170772059, ,0.41535887022713824, ,0.057733515642537904
32, ,PASS, ,0.042471459899999994, ,0.007077180281125144, ,0.025386377577092303, ,0.0003043915817155501, ,1.8333333333333333, ,0.779803648075626, ,0.4130119793473603, ,0.06150894879696333
33, ,PASS, ,0.04995159999999998, ,0.010360429845271416, ,0.02425350343666455, ,0.0005257787837434571, ,1.9166666666666667, ,0.8859182056132016, ,0.4168486357421277, ,0.3099732658517173
34, ,PASS, ,0.04995159999999998, ,0.010542435188502657, ,0.024258361419154707, ,0.0005358208356387308, ,2.0, ,0.8997500834828408, ,0.4170527132099345, ,0.3230138160445705
35, ,PASS, ,0.04995159999999998, ,0.010481384395751952, ,0.024264763784412554, ,0.0005327393099474474, ,1.9166666666666667, ,0.8962303393047591, ,0.41699148996959245, ,0.3192179751433644
36, ,PASS, ,0.03875810980000001, ,0.006521170053724222, ,0.025985016200536722, ,0.0002567313437412643, ,1.8333333333333333, ,0.8019290350230335, ,0.4156445786820677, ,0.053488704312156896
37, ,PASS, ,0.011630603999999989, ,0.0015132663458123383, ,0.028188620319238383, ,1.798125500139145e-05, ,1.9166666666666667, ,0.7137715814707352, ,0.4147466378237179, ,0.03904001959143691
38, ,PASS, ,0.01411194600000001, ,0.002083367529374381, ,0.027931481474663785, ,2.9868440386814326e-05, ,1.8333333333333333, ,0.749907858928818, ,0.41460378359625316, ,0.046060284483990126
39, ,PASS, ,0.04553293700000001, ,0.007615375385247479, ,0.025345559353658093, ,0.0003511764320322149, ,1.8333333333333333, ,0.7812986056152277, ,0.41497112303830536, ,0.06250892838921655
40, ,PASS, ,0.04995159999999998, ,0.010382544437692834, ,0.02417894838676761, ,0.0005272443380707374, ,2.0, ,0.8884325257031038, ,0.4153996857206996, ,0.3121977102508112
41, ,PASS, ,0.04995159999999998, ,0.010559465204447586, ,0.024201965506826382, ,0.0005368277017874181, ,2.0, ,0.9017724060274307, ,0.4158690638966552, ,0.3233811554866227
42, ,PASS, ,0.04995159999999998, ,0.010506446189128561, ,0.024205445972531166, ,0.0005342274129433262, ,1.9166666666666667, ,0.898421628114421, ,0.4159302871369972, ,0.3200342850145915
43, ,PASS, ,0.041342406499999984, ,0.006981204635674752, ,0.02552097456717618, ,0.0002933021654961827, ,1.9166666666666667, ,0.8003696599873719, ,0.414991530785086, ,0.0544070529172874
44, ,PASS, ,0.014641841999999988, ,0.0018828907193549466, ,0.027830289646007225, ,2.8178445965343058e-05, ,1.9166666666666667, ,0.713974351656411, ,0.41560376318850634, ,0.04193791963429318
45, ,PASS, ,0.01634627600000001, ,0.002390664634091229, ,0.027628206861553845, ,3.971096468940775e-05, ,1.8333333333333333, ,0.7550079745317577, ,0.4150527540254281, ,0.04757045774576029
46, ,PASS, ,0.04918418870000001, ,0.00820713275403221, ,0.02464938202101998, ,0.00040880480566099427, ,1.8333333333333333, ,0.7836608833734909, ,0.41162425256627416, ,0.06965163976245382
47, ,PASS, ,0.04995159999999998, ,0.010429429948251811, ,0.02408623050141833, ,0.0005298603107602496, ,2.0, ,0.8932323308772265, ,0.41327728005550907, ,0.3142588926756597
48, ,PASS, ,0.04995159999999998, ,0.010589264140855776, ,0.024215567449643878, ,0.0005386617529365001, ,2.0, ,0.9042980558238363, ,0.41615477235158466, ,0.32597293932776883
49, ,PASS, ,0.04995159999999998, ,0.010564806858961866, ,0.024255315587436984, ,0.0005376504224548245, ,1.9166666666666667, ,0.9026857428640673, ,0.4170527132099345, ,0.3253607069243485
50, ,PASS, ,0.044301187, ,0.007485493757651461, ,0.025203993313416054, ,0.0003369112038514178, ,1.9166666666666667, ,0.8023499044499467, ,0.4152772392400155, ,0.05252954021346503
51, ,PASS, ,0.016453073999999998, ,0.0021385332261801893, ,0.027685322850921408, ,3.592294483910683e-05, ,1.9166666666666667, ,0.720451896237814, ,0.41486908430440195, ,0.04306034570723046
52, ,PASS, ,0.016449524000000007, ,0.00229097594066584, ,0.02765532799575519, ,3.8337219565201716e-05, ,1.8333333333333333, ,0.7415284468720891, ,0.41570580192240975, ,0.0653251974449501
53, ,PASS, ,0.04767068799999999, ,0.007778131531771651, ,0.025098789712067103, ,0.0003757207291360576, ,1.9166666666666667, ,0.7776621693655418, ,0.4150323462786474, ,0.062121181200383666
54, ,PASS, ,0.04995159999999998, ,0.010463145348949118, ,0.024228142893002173, ,0.0005316414175641935, ,2.0, ,0.8943865437163976, ,0.4163384420726108, ,0.3170751617313932
55, ,PASS, ,0.04995159999999998, ,0.010599673551738792, ,0.02420891794249096, ,0.0005394547749399984, ,2.0, ,0.9052939111947323, ,0.41609354911124263, ,0.3270341421603641
56, ,PASS, ,0.04995159999999998, ,0.010566253679387277, ,0.024193954423379106, ,0.0005377627042572243, ,1.9166666666666667, ,0.9034706606949693, ,0.4157466174159711, ,0.3240750188771658
57, ,PASS, ,0.04513990830000001, ,0.007310834353343516, ,0.025463547316287423, ,0.0003354273605821112, ,1.8333333333333333, ,0.789833045642039, ,0.4153996857206996, ,0.054284606436603336
58, ,PASS, ,0.01571231, ,0.0019116841309014514, ,0.02772936485753352, ,3.071116295686211e-05, ,2.0, ,0.6989319963300319, ,0.4147262300769372, ,0.0561621191404257
59, ,PASS, ,0.017014390999999983, ,0.002390023822528806, ,0.027595664862288528, ,4.135775532817276e-05, ,1.8333333333333333, ,0.739636905951821, ,0.41535887022713824, ,0.05530499377563723
60, ,PASS, ,0.049142058399999994, ,0.008050644748623645, ,0.02484717843203812, ,0.0004008109210168018, ,1.9166666666666667, ,0.7769542712481367, ,0.41460378359625316, ,0.060549784698271464
61, ,PASS, ,0.04995159999999998, ,0.01048200087137636, ,0.02429522020571008, ,0.0005325997479651187, ,2.0, ,0.8952194159862494, ,0.41772616885369684, ,0.319115936409461
62, ,PASS, ,0.04995159999999998, ,0.010596251877260494, ,0.024178461943633794, ,0.0005390639633099977, ,2.0, ,0.9052100250570252, ,0.4153792779739189, ,0.32648313299728576
63, ,PASS, ,0.04995159999999998, ,0.010572184936609308, ,0.0242231738229832, ,0.0005381371013642548, ,1.9166666666666667, ,0.903453204681738, ,0.41644048080651414, ,0.3247076590273668
64, ,PASS, ,0.04659045550000002, ,0.007572042150859201, ,0.0252141028208608, ,0.0003584991342705307, ,1.8333333333333333, ,0.7905991262656328, ,0.4155425399481643, ,0.05552947899022469
65, ,PASS, ,0.015919840000000022, ,0.0019720304601688944, ,0.027753698436623744, ,3.206996999894723e-05, ,1.9166666666666667, ,0.7053702051080509, ,0.41570580192240975, ,0.04010122242403216
66, ,PASS, ,0.016792265999999986, ,0.0022106366891634327, ,0.02762247859841636, ,3.782394988258307e-05, ,1.9166666666666667, ,0.7215751200082524, ,0.4154609089610416, ,0.05687639027774943
67, ,PASS, ,0.0462142355, ,0.007173902917030924, ,0.02533804030903247, ,0.00033639938931212185, ,1.9166666666666667, ,0.7643276108017395, ,0.4155425399481643, ,0.0573661762004857
68, ,PASS, ,0.04995159999999998, ,0.010506103363041459, ,0.024184168390441005, ,0.0005338285877373618, ,1.9166666666666667, ,0.8976155112520825, ,0.41568539417562905, ,0.3192587906369258
69, ,PASS, ,0.04995159999999998, ,0.010648195631456562, ,0.02420153708291667, ,0.0005422465302409865, ,1.9166666666666667, ,0.9095318954418052, ,0.4159098793902165, ,0.3299728576967817
70, ,PASS, ,0.04995159999999998, ,0.01052853421868091, ,0.0241045413281035, ,0.0005359399199375925, ,1.9166666666666667, ,0.9043924663981917, ,0.41348135752331583, ,0.3057692700148977
71, ,PASS, ,0.0435207111, ,0.006689219603261769, ,0.02568561280857738, ,0.0002966420930797694, ,1.8333333333333333, ,0.7745947239485954, ,0.41484867655762125, ,0.05001938735944164
72, ,PASS, ,0.015848196000000005, ,0.001990795179991434, ,0.027854706924532156, ,3.222449708420345e-05, ,1.9166666666666667, ,0.7046258913482911, ,0.4158486561498745, ,0.04177465766004775
73, ,PASS, ,0.015439121000000014, ,0.001942851901980275, ,0.027893601358115142, ,3.058472992892399e-05, ,1.9166666666666667, ,0.7001897379830062, ,0.41570580192240975, ,0.051121405685598253
74, ,PASS, ,0.04674519500000001, ,0.0069847038925967145, ,0.025596319016354768, ,0.00033130804457722895, ,1.8333333333333333, ,0.7525074804401454, ,0.4152772392400155, ,0.05408052896879655
75, ,PASS, ,0.04995159999999998, ,0.010314999918657359, ,0.024233172250229584, ,0.0005243527800582724, ,1.9166666666666667, ,0.8899131883549857, ,0.41570580192240975, ,0.2761372216893533
76, ,PASS, ,0.04995159999999998, ,0.010601570146740109, ,0.024229711334668672, ,0.0005393051114582734, ,1.9166666666666667, ,0.9068115644458798, ,0.4162159955919267, ,0.31778943286871697
77, ,PASS, ,0.04995159999999998, ,0.01020946905303453, ,0.02429909082309952, ,0.000519800629529439, ,1.9166666666666667, ,0.8905092633467391, ,0.41570580192240975, ,0.2554845819473072
78, ,PASS, ,0.04270173179999999, ,0.00614536420791763, ,0.02584544465249077, ,0.00026738057954601025, ,1.8333333333333333, ,0.7530147129224191, ,0.4156649864288484, ,0.045264382359543685
79, ,PASS, ,0.01737688199999998, ,0.0018177042325541737, ,0.028037575676618846, ,3.239948026438064e-05, ,1.9166666666666667, ,0.6360859055332663, ,0.4168486357421277, ,0.038407379441235893
80, ,PASS, ,0.01722147399999998, ,0.0022914213763875276, ,0.027610322685088062, ,4.016855800442879e-05, ,1.9166666666666667, ,0.7270526768364305, ,0.4163792575661721, ,0.059223281157527397
81, ,PASS, ,0.04628115740000001, ,0.007048989808302736, ,0.025352597378865735, ,0.00033095499762787967, ,1.8333333333333333, ,0.7575969650442059, ,0.4155833554417257, ,0.050692843003204015
82, ,PASS, ,0.04995159999999998, ,0.010180312979212305, ,0.024249559706232524, ,0.0005174444927950758, ,1.9166666666666667, ,0.8836551894143287, ,0.4154813167078223, ,0.25746413338503293
83, ,PASS, ,0.04995159999999998, ,0.010561702550682105, ,0.024232590300102032, ,0.0005373083795565974, ,1.9166666666666667, ,0.9053548478329265, ,0.4158282484030938, ,0.31187118630232036
84, ,PASS, ,0.04995159999999998, ,0.010046187559111004, ,0.024425945633842164, ,0.0005111859522395507, ,1.9166666666666667, ,0.8844346566383213, ,0.41646088855329483, ,0.2415052754025428
85, ,PASS, ,0.04183781139999998, ,0.00605054740647941, ,0.02591642668806351, ,0.0002579938467744996, ,1.8333333333333333, ,0.7544193416702856, ,0.41521601599967345, ,0.045754168282279954
86, ,PASS, ,0.018780038000000006, ,0.001996606023714302, ,0.02776627508979409, ,3.84451217002018e-05, ,1.9166666666666667, ,0.6428393488172133, ,0.4151343850125508, ,0.039488990020611826
87, ,PASS, ,0.013428560000000013, ,0.001455632407219972, ,0.027989550035529887, ,2.001499884205395e-05, ,1.9166666666666667, ,0.6500729123146304, ,0.41578743290953246, ,0.042141997102099954
88, ,PASS, ,0.03953488940000001, ,0.005375292257439758, ,0.02627657899106549, ,0.00021606734073403017, ,1.8333333333333333, ,0.7239349371200697, ,0.4151547927593314, ,0.05128466765984368
89, ,PASS, ,0.04995159999999998, ,0.008731241317358217, ,0.024713211888792063, ,0.0004436022661434469, ,1.8333333333333333, ,0.8203714012967251, ,0.41495071529152466, ,0.16573131160588558
90, ,PASS, ,0.04995159999999998, ,0.009450240809713493, ,0.024603559215918037, ,0.00048093161562110426, ,1.8333333333333333, ,0.8578319721833737, ,0.4162772188322687, ,0.21164874186241098
91, ,PASS, ,0.04995159999999998, ,0.008339968985864003, ,0.025103859187488007, ,0.0004243697123308803, ,1.8333333333333333, ,0.8094693391345863, ,0.4178894308279423, ,0.1449970408767168
92, ,PASS, ,0.03636752590000001, ,0.004728912565973802, ,0.026476389342299136, ,0.00017576154913641234, ,1.9166666666666667, ,0.7187281284112712, ,0.414991530785086, ,0.04232566682312606
93, ,PASS, ,0.015623175, ,0.0014758625248870948, ,0.028027697182343218, ,2.3690861238290812e-05, ,1.75, ,0.6012738842813593, ,0.4152772392400155, ,0.04352972388318606
94, ,PASS, ,0.014274143999999999, ,0.00159266385614849, ,0.027864584309524296, ,2.3201486682790978e-05, ,1.8333333333333333, ,0.6631382636512284, ,0.41654251954041754, ,0.04703985632946266
95, ,PASS, ,0.04126122499999999, ,0.005663867034081315, ,0.026107366160788556, ,0.0002373222353479749, ,1.8333333333333333, ,0.7238756135682062, ,0.4158690638966552, ,0.05083569723066876
96, ,PASS, ,0.04995159999999998, ,0.008797056266414404, ,0.024766878358853897, ,0.0004468327247262181, ,1.8333333333333333, ,0.8225778776776851, ,0.4163180343258301, ,0.1696087834942144
97, ,PASS, ,0.04995159999999998, ,0.009477231301646192, ,0.024546274786083955, ,0.00048216425758376827, ,1.9166666666666667, ,0.8563674832645864, ,0.41607314136446194, ,0.21168955735597234
98, ,PASS, ,0.04995159999999998, ,0.008480928424859775, ,0.02488234691254872, ,0.00043109965334398286, ,1.8333333333333333, ,0.8121193069865753, ,0.4155425399481643, ,0.15364992551172424
99, ,PASS, ,0.03826096, ,0.005029027310228597, ,0.026248478335095204, ,0.0001963099355923979, ,1.8333333333333333, ,0.7204992360972707, ,0.41542009346748027, ,0.04261137527805555
100, ,PASS, ,0.015086872000000001, ,0.0014306111360748628, ,0.02808530003071366, ,2.2171870972041964e-05, ,1.75, ,0.6024579530619258, ,0.41646088855329483, ,0.040468561866084364
101, ,PASS, ,0.011660316000000021, ,0.0020646711239828124, ,0.027595795740209383, ,2.436278837271896e-05, ,1.8333333333333333, ,0.7938573610230285, ,0.415562947694945, ,0.10369176139262463
199, ,FAIL, ,0.025080410300000015, ,0.0026515834366706275, ,0.02741068772504643, ,6.672120066019792e-05, ,2.0, ,0.7360494468276468, ,0.41697108222281176, ,0.0009183486051305076
200, ,PASS, ,0.024507775000000002, ,0.002950577852437053, ,0.02750183574069917, ,7.281815148287524e-05, ,2.0, ,0.7564583868926931, ,0.41693026672925043, ,0.00228566763943593
201, ,PASS, ,0.0418114739, ,0.006233512918475069, ,0.026181512742760354, ,0.00026572683057195354, ,2.0, ,0.8425521758874831, ,0.41780779984081956, ,0.025387236995163365
202, ,PASS, ,0.0379691537, ,0.005167462217467227, ,0.026625328030203465, ,0.00019955093455070215, ,2.0, ,0.8219697548012564, ,0.41864451745882736, ,0.021713842574641335
203, ,PASS, ,0.045315666, ,0.006495962419053593, ,0.026111012416603744, ,0.00030118811316487756, ,2.0, ,0.8439264045882054, ,0.419175118875125, ,0.02253015244586845
204, ,PASS, ,0.04995159999999998, ,0.01070065975989935, ,0.025474358128244314, ,0.0005429337892243621, ,2.0, ,0.969925069889253, ,0.41939960408971244, ,0.39284912552805046
205, ,PASS, ,0.04995159999999998, ,0.010639004507874176, ,0.025558781246525573, ,0.0005402414492369999, ,2.0, ,0.9707635895493135, ,0.419175118875125, ,0.39323687271688335
206, ,PASS, ,0.04995159999999998, ,0.00965887150955162, ,0.02681561115092344, ,0.0004910601158061492, ,2.0, ,0.9616438515112946, ,0.42144037876778023, ,0.3449521438337993
207, ,PASS, ,0.04995159999999998, ,0.010607225951759376, ,0.025616755197510246, ,0.0005374870005305535, ,2.0, ,0.9714578345503868, ,0.41866492520560805, ,0.39313483398297994
208, ,PASS, ,0.04995159999999998, ,0.009287623644564112, ,0.026252566414334398, ,0.00047180316228336987, ,2.0, ,0.9254601110631624, ,0.41831799351033655, ,0.16671088345135812
209, ,PASS, ,0.04995159999999998, ,0.009708226884272591, ,0.026057982826801492, ,0.0004918173991027903, ,2.0, ,0.9408099857226131, ,0.41823636252321383, ,0.20362849737760455
210, ,PASS, ,0.04995159999999998, ,0.00959979061743366, ,0.026215141169465928, ,0.00048649821402407453, ,2.0, ,0.9402924291644381, ,0.4184812554845819, ,0.20501622415869064
211, ,PASS, ,0.04995159999999998, ,0.010230174865619779, ,0.02588887435881716, ,0.0005193377480519674, ,2.0, ,0.9672130671276276, ,0.41664455827432095, ,0.35621722005673356
212, ,PASS, ,0.04995159999999998, ,0.011270378765090938, ,0.02473072209677557, ,0.0005760813860714784, ,2.0, ,0.9727860333637677, ,0.42021591396093955, ,0.3948286769657762
213, ,PASS, ,0.04995159999999998, ,0.010793968985170897, ,0.025426766282698302, ,0.0005467464538363052, ,2.0, ,0.9727312817825563, ,0.41909348788800227, ,0.39431848329625924
214, ,PASS, ,0.04995159999999998, ,0.010687157890499914, ,0.025506263967970032, ,0.000541947027252516, ,2.0, ,0.9725829081192074, ,0.4183384012571172, ,0.39350217342503213
215, ,PASS, ,0.04995159999999998, ,0.011528923458662984, ,0.024302141147552084, ,0.0005879826971253931, ,2.0, ,0.974103788726218, ,0.4176649456133548, ,0.393767474133181
216, ,PASS, ,0.04995159999999998, ,0.011380524822769088, ,0.02460264371427929, ,0.0005789759240176807, ,2.0, ,0.9734365663071055, ,0.41911389563478296, ,0.39484908471255686
217, ,PASS, ,0.04995159999999998, ,0.011333588414142245, ,0.024734103602942786, ,0.0005738433072533653, ,2.0, ,0.9735896144980473, ,0.41907308014122163, ,0.39523683190138975
218, ,PASS, ,0.04995159999999998, ,0.01159185068047597, ,0.024376984782079947, ,0.0005882975069473531, ,2.0, ,0.974146377282729, ,0.41905267239444094, ,0.39531846288851247
219, ,PASS, ,0.04995159999999998, ,0.011457547324653932, ,0.024542148525897423, ,0.0005830918470925712, ,2.0, ,0.973821561606677, ,0.419746535784984, ,0.3957674333176874
220, ,PASS, ,0.04995159999999998, ,0.011274467341989567, ,0.024771100905003972, ,0.0005716474395644778, ,2.0, ,0.9733300566279971, ,0.4188077794330728, ,0.3946654149915308
221, ,PASS, ,0.04995159999999998, ,0.011603129930122545, ,0.024370369971771996, ,0.0005880482688945035, ,2.0, ,0.9742681104990034, ,0.4187873716862921, ,0.3953796861288545
222, ,PASS, ,0.04995159999999998, ,0.010723989482176134, ,0.02541523225117446, ,0.0005427607197879302, ,2.0, ,0.9730762199431885, ,0.41709352870349586, ,0.3934409501846901
223, ,PASS, ,0.04995159999999998, ,0.011475110212874638, ,0.02449315989368379, ,0.0005817439533308993, ,2.0, ,0.9738743150892338, ,0.41831799351033655, ,0.3945837840044081
224, ,PASS, ,0.0470856598, ,0.006466352117091641, ,0.026138671798861247, ,0.00030899535405142024, ,2.0, ,0.8286526955588964, ,0.41901185690087955, ,0.017407808003918286
225, ,PASS, ,0.0333770123, ,0.004349822866653005, ,0.02691901249988776, ,0.00014697297637708437, ,2.0, ,0.8086717856822995, ,0.41764453786657413, ,0.018917981265688454
226, ,PASS, ,0.035793240799999994, ,0.004739566701928836, ,0.02673051987339034, ,0.00017147826029000147, ,2.0, ,0.8144910540158269, ,0.41772616885369684, ,0.01528540233872778
227, ,FAIL, ,0.030015543799999992, ,0.00303444665422235, ,0.02728751093381768, ,9.203966882450436e-05, ,2.0, ,0.7353755105282651, ,0.4158486561498745, ,0.0014285422746474561
228, ,PASS, ,0.0433642802, ,0.0052050219505218554, ,0.026475469396787823, ,0.0002254223946761246, ,2.0, ,0.7877585743325163, ,0.4188281871798535, ,0.0016530274892349135
