Channel, ,Pass/Fail, ,Amplitude, ,Sorting Function Response, ,Mean, ,Variance, ,NPeaksRatio, ,PosIntegralRatio, ,ToT50, ,ToT99
0, ,PASS, ,0.061645845000000005, ,0.008887520800042476, ,0.0336997051259158, ,0.0005541712727915456, ,1.8333333333333333, ,0.7167189049062228, ,0.41727719842452193, ,0.05912124242362401
1, ,PASS, ,0.06049492100000002, ,0.008666225876894931, ,0.0338811504491541, ,0.0005298963799010241, ,1.8333333333333333, ,0.7140374495832883, ,0.4192567498622477, ,0.05879471847513316
2, ,PASS, ,0.061406253000000015, ,0.008843220730704423, ,0.03393955901008142, ,0.0005490229294529013, ,1.8333333333333333, ,0.714707292490955, ,0.4184404399910206, ,0.056753943797065366
3, ,PASS, ,0.06059062799999999, ,0.0086816517896759, ,0.033948473595212345, ,0.0005316623622859313, ,1.8333333333333333, ,0.7145368842057066, ,0.4189098181669762, ,0.05828452480561621
4, ,PASS, ,0.060927204000000006, ,0.008775661471959182, ,0.03397342076592315, ,0.0005399551633528558, ,1.8333333333333333, ,0.7158299314389907, ,0.4220322034244199, ,0.05828452480561621
5, ,PASS, ,0.060195438999999996, ,0.008661503656522835, ,0.03390028716205792, ,0.0005270868570265013, ,1.8333333333333333, ,0.7170578741055, ,0.4185220709781433, ,0.06118242484847248
6, ,PASS, ,0.060510656, ,0.008732905355137422, ,0.03387215947456174, ,0.0005340508627005959, ,1.8333333333333333, ,0.7158845135126031, ,0.4191547111283443, ,0.05818248607171282
7, ,PASS, ,0.059961442, ,0.008640224534017707, ,0.03392413256266199, ,0.0005240364084184896, ,1.8333333333333333, ,0.7172369915493152, ,0.4175016836391094, ,0.058080447337809434
8, ,PASS, ,0.060696197, ,0.008792170107777225, ,0.0337505497979429, ,0.0005391175756543244, ,1.8333333333333333, ,0.7172827093673168, ,0.4193179731025897, ,0.058447786779861635
9, ,PASS, ,0.060378853, ,0.008707886533396556, ,0.03374544451188751, ,0.000531762969859629, ,1.8333333333333333, ,0.7162650313843266, ,0.4165833350339789, ,0.05785596212322198
10, ,PASS, ,0.060485400999999994, ,0.008721977942586565, ,0.03394804460768148, ,0.0005330404706135718, ,1.8333333333333333, ,0.7170221172390062, ,0.4193587885961511, ,0.06063141568539417
11, ,PASS, ,0.05994273300000001, ,0.008609916764113277, ,0.03395871698659211, ,0.000521630727797934, ,1.8333333333333333, ,0.7177039049102361, ,0.4193179731025897, ,0.06159057978408604
12, ,PASS, ,0.060737329, ,0.008780360934582903, ,0.03391445385332952, ,0.00053862727412933, ,1.8333333333333333, ,0.7179056009769906, ,0.4201546907205975, ,0.05989673680128977
13, ,PASS, ,0.07438367789999997, ,0.010941568585485681, ,0.03302184187646048, ,0.0008221991898721175, ,1.9166666666666667, ,0.7219469017559091, ,0.4193587885961511, ,0.060039591028754516
14, ,PASS, ,0.12012431000000001, ,0.01790575388232084, ,0.02917856469186343, ,0.0021739305828206313, ,1.8333333333333333, ,0.7255817198710611, ,0.4171955674373992, ,0.05483561559968164
15, ,PASS, ,0.048095969999999974, ,0.0063202745454761225, ,0.03529708685026836, ,0.00030848094490028185, ,1.9166666666666667, ,0.6986391734087485, ,0.416828227995347, ,0.062039550213260956
16, ,PASS, ,0.04576224, ,0.0060417008353838625, ,0.03523111305626416, ,0.0002804031980648831, ,1.8333333333333333, ,0.7015020402944431, ,0.41821595477643314, ,0.0677333115650701
17, ,PASS, ,0.04587694000000001, ,0.0059631206117728075, ,0.03550540267341483, ,0.0002776344016071381, ,1.8333333333333333, ,0.6963722929998308, ,0.4171139364502765, ,0.05938654313177282
18, ,PASS, ,0.04613012000000001, ,0.006093760286013076, ,0.03538232843452175, ,0.00028528067677352964, ,1.9166666666666667, ,0.7000432473667374, ,0.4168690434889084, ,0.06587620660802841
19, ,PASS, ,0.04587414000000001, ,0.005966653340476995, ,0.035440926133548295, ,0.0002776713626011191, ,1.8333333333333333, ,0.6959256187351971, ,0.41893022591375684, ,0.06389665517030264
20, ,PASS, ,0.04576249, ,0.006078842987769586, ,0.035434955911512016, ,0.0002820461433021778, ,1.9166666666666667, ,0.7026441234747488, ,0.4188894104201955, ,0.06185588049223485
21, ,PASS, ,0.04563649000000001, ,0.0059770049320778205, ,0.035440071181200385, ,0.00027660694321701484, ,1.8333333333333333, ,0.699250716448768, ,0.41907308014122163, ,0.06750882635048264
22, ,PASS, ,0.04595101, ,0.006136940966284558, ,0.03547481059345728, ,0.00028590015512300657, ,1.8333333333333333, ,0.7030567429272443, ,0.4193791963429318, ,0.06330483051366298
23, ,PASS, ,0.04542127000000001, ,0.005996202351022969, ,0.03540007280259586, ,0.0002764764161531598, ,1.9166666666666667, ,0.7004137729634137, ,0.41693026672925043, ,0.06112120160813045
24, ,PASS, ,0.04545676000000001, ,0.0060553492373528126, ,0.03535402395951103, ,0.00027902822815442684, ,1.9166666666666667, ,0.7020262646850856, ,0.4191955266219057, ,0.06263137486990061
25, ,PASS, ,0.045346739999999996, ,0.005906608750952983, ,0.03551397898859207, ,0.0002716069405785821, ,1.8333333333333333, ,0.6940057639185745, ,0.419236342115467, ,0.05961102834636028
26, ,PASS, ,0.04557487000000002, ,0.005989802010924161, ,0.035525658565335405, ,0.00027676527282297325, ,1.9166666666666667, ,0.6996030775494543, ,0.41876696393951146, ,0.058774310728352486
27, ,PASS, ,0.044963119999999995, ,0.005886868907814859, ,0.03537364284239097, ,0.0002686332754156446, ,1.8333333333333333, ,0.6992629729065585, ,0.4147058223301565, ,0.06499867349645926
28, ,PASS, ,0.04537944, ,0.005974087909752793, ,0.03540123569376136, ,0.0002751377313711157, ,1.9166666666666667, ,0.6989500412100383, ,0.41680782024856633, ,0.0623660741617518
29, ,PASS, ,0.045129470000000005, ,0.005905323031344423, ,0.03578209356890676, ,0.0002700910926406212, ,1.8333333333333333, ,0.6970858976168021, ,0.42005265198669417, ,0.06346809248790841
30, ,PASS, ,0.045534770000000016, ,0.006029797509598926, ,0.03550123347421481, ,0.000278320569360026, ,1.8333333333333333, ,0.7007700429204446, ,0.4195628660639579, ,0.06546805167241485
31, ,PASS, ,0.04491980000000002, ,0.005881400048082819, ,0.03562624474643375, ,0.0002676408455861511, ,1.8333333333333333, ,0.6971612768548252, ,0.41946082733005446, ,0.06259055937633926
32, ,PASS, ,0.04516287000000001, ,0.0060197777911938435, ,0.035461832038733904, ,0.0002756573422566394, ,1.9166666666666667, ,0.7012317181272542, ,0.4197261280382033, ,0.06742719536335993
33, ,PASS, ,0.045172460000000005, ,0.005897667368930593, ,0.035679504006857, ,0.0002701878138499092, ,1.8333333333333333, ,0.6997873631355596, ,0.4196444970510806, ,0.06722311789555316
34, ,PASS, ,0.04524455000000001, ,0.006034755934468972, ,0.035414642855247855, ,0.00027683257381944836, ,1.9166666666666667, ,0.70413165425742, ,0.418542478724924, ,0.06640680802432604
35, ,PASS, ,0.04494105000000001, ,0.00592887401283752, ,0.035393219264504804, ,0.0002701796322916245, ,1.8333333333333333, ,0.7008514768469276, ,0.41976694353176464, ,0.06571294463378298
36, ,PASS, ,0.04537159, ,0.006023182193480417, ,0.03551318373176058, ,0.00027696809504859936, ,1.8333333333333333, ,0.7027119951864869, ,0.41986898226566804, ,0.0637538009428379
37, ,PASS, ,0.044944460000000006, ,0.005898165550871045, ,0.03565456290341014, ,0.00026884333332794744, ,1.8333333333333333, ,0.6982648229277845, ,0.4192975653558091, ,0.06832513622170976
38, ,PASS, ,0.045169280000000006, ,0.005966836754113426, ,0.03550712025693353, ,0.00027306552617919073, ,1.8333333333333333, ,0.7010867439962831, ,0.420379175935185, ,0.06685577845350095
39, ,PASS, ,0.044650930000000005, ,0.005900495904409872, ,0.0354710089122671, ,0.00026705109874955815, ,1.8333333333333333, ,0.6990246381861699, ,0.419175118875125, ,0.0630191220587335
40, ,PASS, ,0.04522137000000001, ,0.006064104032408386, ,0.035401298180649375, ,0.00027801184806574284, ,1.9166666666666667, ,0.7040679917475019, ,0.41907308014122163, ,0.06822309748780638
41, ,PASS, ,0.04522976000000001, ,0.006000613619642647, ,0.03535702367706782, ,0.00027525570936200904, ,1.8333333333333333, ,0.7050067248530498, ,0.41921593436868637, ,0.06559049815309892
42, ,PASS, ,0.04550727, ,0.006072372492664433, ,0.03534469097793923, ,0.00028022859208887764, ,1.9166666666666667, ,0.7040895558501162, ,0.41913430338156366, ,0.06795779677965756
43, ,PASS, ,0.04538185, ,0.0060961482040240355, ,0.03540435442297096, ,0.00028029983572551263, ,1.8333333333333333, ,0.7079706093193365, ,0.42452194853166264, ,0.06714148690843044
44, ,PASS, ,0.04588075000000001, ,0.006118199717680456, ,0.035153829170425095, ,0.0002846787836613597, ,1.9166666666666667, ,0.7059632861736302, ,0.4191955266219057, ,0.0694883777882084
45, ,PASS, ,0.045198300000000004, ,0.006014102214773627, ,0.03534999832676884, ,0.000275590360896302, ,1.9166666666666667, ,0.7021224778785331, ,0.41909348788800227, ,0.06554968265953756
46, ,PASS, ,0.04527859, ,0.0060900938771616345, ,0.03506878393400135, ,0.000279508406073707, ,1.9166666666666667, ,0.7058426225343696, ,0.4191547111283443, ,0.0642231791187935
47, ,PASS, ,0.04585307000000001, ,0.006187727692583236, ,0.03533781651986694, ,0.0002875364722034506, ,1.9166666666666667, ,0.7069972354389239, ,0.419175118875125, ,0.0632027917797596
48, ,PASS, ,0.045487, ,0.006077210013225481, ,0.03517512065835392, ,0.0002802275623064774, ,1.9166666666666667, ,0.7053718880959176, ,0.42076692312401787, ,0.06781494255219281
49, ,PASS, ,0.04493648, ,0.005932527006407267, ,0.035296890756107015, ,0.0002702938368767996, ,1.8333333333333333, ,0.7004843342071342, ,0.4194404195832738, ,0.0625497438827779
50, ,PASS, ,0.04501385000000001, ,0.0059838507581381475, ,0.03527488246872513, ,0.00027328543333471545, ,1.9166666666666667, ,0.7047963223875845, ,0.4171955674373992, ,0.06587620660802841
51, ,PASS, ,0.04489254999999999, ,0.005886149418617418, ,0.03530127796412318, ,0.0002679366227583272, ,1.8333333333333333, ,0.6969213081750893, ,0.41948123507683516, ,0.06001918328197384
52, ,PASS, ,0.04499170999999999, ,0.0059700642338446205, ,0.03508098020183262, ,0.00027255648797684374, ,1.9166666666666667, ,0.7037768045807918, ,0.4185016632313626, ,0.06757004959082467
53, ,PASS, ,0.044865230000000006, ,0.00590958365152678, ,0.035172779802248935, ,0.00026891100177019227, ,1.8333333333333333, ,0.699325825140966, ,0.4198281667721067, ,0.06159057978408604
54, ,PASS, ,0.04526448, ,0.006030281466816115, ,0.03517490865472133, ,0.00027713827203225833, ,1.9166666666666667, ,0.7080639869316958, ,0.41703230546315384, ,0.06797820452643824
55, ,PASS, ,0.04566137000000001, ,0.006147883432199158, ,0.03517622657394747, ,0.0002845477531599351, ,1.9166666666666667, ,0.7081665367433553, ,0.41986898226566804, ,0.06285586008448807
56, ,PASS, ,0.04517281000000001, ,0.006112208214742176, ,0.035134518394318484, ,0.0002802000938159758, ,1.9166666666666667, ,0.7105001591692024, ,0.4169506744760311, ,0.06744760311014061
57, ,PASS, ,0.04512204, ,0.005951218224711429, ,0.03508590850676517, ,0.0002721132757590556, ,1.8333333333333333, ,0.7025469049395913, ,0.41946082733005446, ,0.0656109058998796
58, ,PASS, ,0.04534462, ,0.006067168445200003, ,0.035295006844554194, ,0.00027868346630726423, ,1.8333333333333333, ,0.7056105912759225, ,0.4214607865145609, ,0.06999857145772535
59, ,PASS, ,0.04508655000000001, ,0.005973340826499655, ,0.03525089521826085, ,0.00027301681294221485, ,1.8333333333333333, ,0.7013558390688597, ,0.42078733087079856, ,0.060855900899981635
60, ,PASS, ,0.04532301000000001, ,0.006116274522740561, ,0.03510206367319035, ,0.0002811330936396631, ,1.9166666666666667, ,0.707527144843414, ,0.4184608477378013, ,0.06654966225179078
61, ,PASS, ,0.045135400000000006, ,0.006002640566473996, ,0.035195963339115524, ,0.00027493220901186275, ,1.9166666666666667, ,0.7038266131907849, ,0.4171139364502765, ,0.06528438195138875
62, ,PASS, ,0.045253000000000015, ,0.006096845768550671, ,0.035254564177669846, ,0.00027969434862005414, ,1.9166666666666667, ,0.7074977164081859, ,0.41903226464766025, ,0.0680190200199996
63, ,PASS, ,0.0451017, ,0.005987392901526367, ,0.03507323525091324, ,0.0002738822986851929, ,1.8333333333333333, ,0.7024629162479168, ,0.4193179731025897, ,0.062161996693945024
64, ,PASS, ,0.04569724000000002, ,0.006132380309697805, ,0.035329540292443014, ,0.0002840521811286476, ,1.8333333333333333, ,0.7080341779899789, ,0.422787290055305, ,0.06557009040631824
65, ,PASS, ,0.04528316999999999, ,0.005984437937976092, ,0.035186570328360645, ,0.0002751639252189852, ,1.9166666666666667, ,0.7028307500573647, ,0.41680782024856633, ,0.061815064998673494
66, ,PASS, ,0.04550697000000001, ,0.006065247351741566, ,0.03510026958878391, ,0.00027983101779388504, ,1.9166666666666667, ,0.7035204755770497, ,0.41978735127854533, ,0.06271300585702333
67, ,PASS, ,0.04515728000000001, ,0.005980827778187663, ,0.03538199985816616, ,0.0002736092069053557, ,1.8333333333333333, ,0.7029165375589221, ,0.4205016224158691, ,0.06712107916164976
68, ,PASS, ,0.04540686000000001, ,0.0060987585250443085, ,0.0350811076551499, ,0.0002809056117003774, ,1.9166666666666667, ,0.7080371653045734, ,0.41819554702965245, ,0.06793738903287688
69, ,PASS, ,0.04518063000000001, ,0.005956997375627546, ,0.03519232980612641, ,0.00027266659728195954, ,1.8333333333333333, ,0.7012814836016975, ,0.4193587885961511, ,0.061304871329156546
70, ,PASS, ,0.04528425999999999, ,0.006073879941381924, ,0.0350943042260362, ,0.00027890387860740845, ,1.9166666666666667, ,0.7068410515065651, ,0.41903226464766025, ,0.06746801085692129
71, ,PASS, ,0.04517485, ,0.0060085762731343145, ,0.03520468936756393, ,0.0002753288892280816, ,1.9166666666666667, ,0.7019830993544791, ,0.41860370196526603, ,0.0574682149343891
72, ,PASS, ,0.045263760000000014, ,0.006131823522403929, ,0.03520807540458358, ,0.0002811149590810596, ,1.8333333333333333, ,0.7097173050902124, ,0.4193791963429318, ,0.07187608416154773
73, ,PASS, ,0.04484716999999999, ,0.005965100531302417, ,0.03544113099222465, ,0.000271085123518147, ,1.8333333333333333, ,0.7012708750028168, ,0.4206240688965531, ,0.06361094671537315
74, ,PASS, ,0.044881189999999994, ,0.006020949397839558, ,0.03517518071161813, ,0.0002739465586070471, ,1.9166666666666667, ,0.7070302054430377, ,0.4193587885961511, ,0.0673659721230179
75, ,PASS, ,0.044649960000000016, ,0.005898148250300904, ,0.03524549822473011, ,0.0002673514421623739, ,1.9166666666666667, ,0.7008249780286243, ,0.41701189771637315, ,0.06197832697291892
76, ,PASS, ,0.044879569999999994, ,0.005992648520920447, ,0.03505521517560866, ,0.0002729323289241612, ,1.9166666666666667, ,0.7046663700711848, ,0.4176037223730128, ,0.06448847982694231
77, ,PASS, ,0.04437426999999999, ,0.005890849173038042, ,0.03520129289790005, ,0.0002650439022811761, ,1.8333333333333333, ,0.7027251041093473, ,0.4191547111283443, ,0.06705985592130773
78, ,PASS, ,0.04474613999999999, ,0.005973985123390652, ,0.03540284631497316, ,0.0002709702486753667, ,1.8333333333333333, ,0.7058833170262646, ,0.4195628660639579, ,0.06475378053509112
79, ,PASS, ,0.04410434, ,0.0058103448297621724, ,0.03512029425930083, ,0.000259924321572213, ,1.8333333333333333, ,0.7005922344201665, ,0.4189914491540989, ,0.06267219036346197
80, ,PASS, ,0.04490288, ,0.0059606235617679975, ,0.03523048812452807, ,0.0002714634928066844, ,1.8333333333333333, ,0.7050785345511452, ,0.41993020550601007, ,0.06969245525601518
81, ,PASS, ,0.04436997999999999, ,0.005803646194336923, ,0.03538399390216526, ,0.0002612018610418789, ,1.8333333333333333, ,0.6996377771281881, ,0.4195424583171772, ,0.06501908124323993
82, ,PASS, ,0.04442017, ,0.0058834578954910025, ,0.03524486663292586, ,0.0002651311736284545, ,1.8333333333333333, ,0.703122059909125, ,0.4187261484459501, ,0.06887614538478806
83, ,PASS, ,0.04440511000000001, ,0.005793567260366629, ,0.035086181917307814, ,0.00026104086033541736, ,1.8333333333333333, ,0.694468027049211, ,0.41737923715842534, ,0.06273341360380401
84, ,PASS, ,0.044922229999999994, ,0.005942183192429539, ,0.03512945989571641, ,0.00027076973653401175, ,1.8333333333333333, ,0.6991261405812119, ,0.41856288647170464, ,0.06512111997714333
85, ,PASS, ,0.044062670000000005, ,0.005800696365187606, ,0.035227098054325424, ,0.00025918246474426423, ,1.8333333333333333, ,0.7003543985876489, ,0.41911389563478296, ,0.06305993755229485
86, ,PASS, ,0.044838789999999996, ,0.005919289816008818, ,0.03521649870512847, ,0.0002690055408382601, ,1.8333333333333333, ,0.7030030768760256, ,0.4201546907205975, ,0.06440684883981959
87, ,PASS, ,0.04527069000000001, ,0.0059891965412594795, ,0.03524355103671354, ,0.00027497999682167236, ,1.8333333333333333, ,0.6993409070682982, ,0.4191955266219057, ,0.06803942776678026
88, ,PASS, ,0.06847142899999999, ,0.010327429280638166, ,0.03284102496247015, ,0.0007149261873706564, ,1.8333333333333333, ,0.7386032010182257, ,0.41907308014122163, ,0.06275382135058469
89, ,PASS, ,0.11000754999999998, ,0.016665635023484844, ,0.029923206106375378, ,0.0018519678235700175, ,1.8333333333333333, ,0.7311196460815289, ,0.41921593436868637, ,0.05481520785290096
90, ,PASS, ,0.05009364999999997, ,0.0068530396889357375, ,0.03482919238076774, ,0.0003474625092536132, ,1.9166666666666667, ,0.711858651324337, ,0.4204608069223077, ,0.06871288341054264
91, ,PASS, ,0.04791963999999997, ,0.006515646288102592, ,0.034979599858574316, ,0.00031630419412364386, ,1.9166666666666667, ,0.7087367507217763, ,0.41909348788800227, ,0.07065161935470704
92, ,PASS, ,0.04817078999999998, ,0.0065703596248927595, ,0.03481555762168119, ,0.00032067462164318426, ,1.9166666666666667, ,0.7107036839979031, ,0.41903226464766025, ,0.06757004959082467
93, ,PASS, ,0.047725799999999985, ,0.006436268184189423, ,0.03491107144670517, ,0.00031122415737948263, ,1.9166666666666667, ,0.7067390650855964, ,0.419746535784984, ,0.0666312932389135
94, ,PASS, ,0.04740825, ,0.0064774291809649226, ,0.0350116684512561, ,0.00031109378216726414, ,1.9166666666666667, ,0.7092471710633463, ,0.4188690026734148, ,0.06954960102855044
95, ,PASS, ,0.04711547999999998, ,0.006323137635354893, ,0.034778919659598784, ,0.0003021240003928955, ,1.8333333333333333, ,0.7044917060960607, ,0.4126854553988694, ,0.0656109058998796
96, ,PASS, ,0.047475630000000005, ,0.006480309449058426, ,0.03483511804759087, ,0.00031197327866811235, ,1.9166666666666667, ,0.7109142600508461, ,0.41858329421848534, ,0.06924348482684027
97, ,PASS, ,0.04728076, ,0.006383783430795628, ,0.03489483524887248, ,0.0003059129264494933, ,1.9166666666666667, ,0.7049377179474116, ,0.41907308014122163, ,0.06334564600722434
98, ,PASS, ,0.047071160000000015, ,0.006441937330430922, ,0.03495833847737801, ,0.0003071121699959302, ,1.9166666666666667, ,0.7100432800275879, ,0.42023632170772024, ,0.06881492214444603
99, ,PASS, ,0.04677158000000001, ,0.006330872079754142, ,0.035006523314014, ,0.00029999568591449117, ,1.9166666666666667, ,0.7044862267210915, ,0.41874655619273077, ,0.06334564600722434
100, ,PASS, ,0.04648665000000001, ,0.006325062960057426, ,0.03483994273300545, ,0.0002979612233922557, ,1.9166666666666667, ,0.7085265902569228, ,0.41568539417562905, ,0.06324360727332096
101, ,PASS, ,0.04644905000000002, ,0.006219166066731936, ,0.034932149527764744, ,0.00029268238129659705, ,1.9166666666666667, ,0.703792385655361, ,0.41990979775922943, ,0.0630191220587335
102, ,PASS, ,0.04666346000000003, ,0.00630451943977477, ,0.03488052145568458, ,0.00029802792155688763, ,1.9166666666666667, ,0.704789001236821, ,0.4201955062141589, ,0.0623660741617518
103, ,PASS, ,0.04662218000000001, ,0.006234507944481069, ,0.03498471620722027, ,0.000294635208427425, ,1.9166666666666667, ,0.7046075703686232, ,0.42025672945450093, ,0.06148854105018265
104, ,PASS, ,0.04692963, ,0.006378591903502097, ,0.03517907627517806, ,0.00030307176618964924, ,1.9166666666666667, ,0.7074415985716608, ,0.4201342829738169, ,0.06650884675822942
105, ,PASS, ,0.04755314999999998, ,0.0064411090761786645, ,0.03498789134629906, ,0.00031067748812562654, ,1.9166666666666667, ,0.7094187998656952, ,0.41774657660047754, ,0.06242729740209384
106, ,PASS, ,0.04769466999999998, ,0.006590104981526541, ,0.034822397999020434, ,0.00031844393888987585, ,1.9166666666666667, ,0.7131696929419854, ,0.41876696393951146, ,0.06703944817452705
107, ,PASS, ,0.047967309999999985, ,0.006646552964612592, ,0.03482859249852044, ,0.00032284833063920914, ,1.9166666666666667, ,0.7131409660132854, ,0.4230729985102345, ,0.0670802636680884
108, ,PASS, ,0.04821958999999997, ,0.006763853511272228, ,0.03475293760188568, ,0.0003304232907683554, ,1.8333333333333333, ,0.7186944476964391, ,0.418542478724924, ,0.0655088671659762
