Channel, ,Pass/Fail, ,Amplitude, ,Sorting Function Response, ,Mean, ,Variance, ,NPeaksRatio, ,PosIntegralRatio, ,ToT50, ,ToT99
0, ,PASS, ,0.06180036087999998, ,0.01012619518604532, ,0.025713741049985715, ,0.0006314329013798145, ,1.8333333333333333, ,0.7352089562541718, ,0.4415624170935287, ,0.1016918022081182
1, ,PASS, ,0.06063702017, ,0.009978899667137485, ,0.02593192862429746, ,0.0006103513605268747, ,1.8333333333333333, ,0.7371764997731711, ,0.44241954245831716, ,0.07769229199404094
2, ,PASS, ,0.06120399029, ,0.010006836042147853, ,0.025821419359289607, ,0.000617860159263122, ,1.8333333333333333, ,0.7362246370843035, ,0.4431542213424216, ,0.0844880716720067
3, ,PASS, ,0.06099736598, ,0.0099946172128929, ,0.026037352835528663, ,0.0006149626022636032, ,1.8333333333333333, ,0.7364915017822732, ,0.44241954245831716, ,0.08838595130711618
4, ,PASS, ,0.06062185176999999, ,0.00998057334050201, ,0.026132744028568803, ,0.0006099597524838008, ,1.8333333333333333, ,0.7390999711635189, ,0.4429501438746148, ,0.08969204710107957
5, ,PASS, ,0.06095221154999999, ,0.009978203144844398, ,0.025878004233642577, ,0.0006132396462784886, ,1.8333333333333333, ,0.7342781923111396, ,0.442684843166466, ,0.07969225117854738
6, ,PASS, ,0.060798155759999986, ,0.009985934320165868, ,0.025994468066640065, ,0.0006121321557588485, ,1.8333333333333333, ,0.7389599869688062, ,0.4431542213424216, ,0.09044713373196465
7, ,PASS, ,0.06093730310999999, ,0.009986671099548844, ,0.026090963107753107, ,0.0006137164502062144, ,1.8333333333333333, ,0.7361644090967382, ,0.4427664741535887, ,0.08283504418277178
8, ,PASS, ,0.06104310066, ,0.010049571595129366, ,0.02605362463819065, ,0.0006187389310386348, ,1.8333333333333333, ,0.7377329788209317, ,0.4423991347115365, ,0.08936552315258872
9, ,PASS, ,0.061233416219999996, ,0.010053070674094866, ,0.026131673467459236, ,0.000620998677295178, ,1.8333333333333333, ,0.735639188512276, ,0.4425011734454399, ,0.08603906042733822
10, ,PASS, ,0.06137555224999997, ,0.010093048432339675, ,0.025973988750675702, ,0.00062464210188892, ,1.8333333333333333, ,0.7363184965704795, ,0.442623619926124, ,0.0843860329381033
11, ,PASS, ,0.062334415269999985, ,0.010273645317887074, ,0.02583682926756413, ,0.0006459309608412878, ,1.8333333333333333, ,0.7351998074473838, ,0.4415624170935287, ,0.0927123936246199
12, ,PASS, ,0.061428973769999985, ,0.01005708281356534, ,0.0260096746966017, ,0.0006232429737033732, ,1.8333333333333333, ,0.73676508334354, ,0.44292973612783415, ,0.08483500336727821
13, ,PASS, ,0.06113602958999998, ,0.01002043043682919, ,0.026091117126241504, ,0.0006176550964036544, ,1.8333333333333333, ,0.7363948239736603, ,0.4435215607844738, ,0.08407991673639313
14, ,PASS, ,0.060928413869999996, ,0.010004925808394493, ,0.026024296917557806, ,0.0006146751520772183, ,1.8333333333333333, ,0.7376355470929916, ,0.4438684924797453, ,0.08826350482643211
15, ,PASS, ,0.06096800100999999, ,0.009981297332533489, ,0.026087234355527844, ,0.0006134941206164378, ,1.8333333333333333, ,0.7370062725291073, ,0.4442562396685782, ,0.07961062019142466
16, ,PASS, ,0.06107862935, ,0.010018321893883424, ,0.026077939043492378, ,0.0006167782741163457, ,1.8333333333333333, ,0.7383735927929982, ,0.4440521622007714, ,0.08361053856043754
17, ,PASS, ,0.060975574039999994, ,0.009975971158231435, ,0.026101226734666028, ,0.0006133668947703132, ,1.8333333333333333, ,0.7385896045635258, ,0.44421542417501686, ,0.080222852594845
18, ,PASS, ,0.061015662949999994, ,0.010002381079534417, ,0.02622395705534948, ,0.0006151876948801273, ,1.8333333333333333, ,0.7388080166173545, ,0.4446031713638497, ,0.08340646109263077
19, ,PASS, ,0.06170023659999998, ,0.010133689121180563, ,0.026191367502348725, ,0.000630581113236524, ,1.8333333333333333, ,0.7359576701309977, ,0.4432358523295443, ,0.08287585967633314
20, ,PASS, ,0.06089137627, ,0.009970453355866054, ,0.026265065843584415, ,0.0006119661744510681, ,1.75, ,0.7378036272940144, ,0.4450725495398053, ,0.08428399420419991
21, ,PASS, ,0.06059359693000001, ,0.009919454314839498, ,0.02626106172402216, ,0.0006060638154209366, ,1.75, ,0.7393422708764714, ,0.4451949960204894, ,0.07881471806697822
22, ,PASS, ,0.06052591687999999, ,0.00990697370282384, ,0.026334698679107163, ,0.0006040570724788904, ,1.75, ,0.7440488039526754, ,0.4464602763208914, ,0.08552886675782127
23, ,PASS, ,0.06051976306999999, ,0.009916706462951012, ,0.026340982419761638, ,0.0006047354446517862, ,1.75, ,0.7419007620054252, ,0.4461949756127426, ,0.08820228158609009
24, ,PASS, ,0.06077115093, ,0.00997603932427803, ,0.026493239569022265, ,0.0006109410303654503, ,1.75, ,0.7407476718128146, ,0.4459092671578131, ,0.08173302585661517
25, ,PASS, ,0.06106747917999998, ,0.010004546526939294, ,0.026268963350808555, ,0.0006155728964936043, ,1.75, ,0.7398892446567884, ,0.44580722842390974, ,0.07789636946184772
26, ,PASS, ,0.06101645883999999, ,0.009983011357744955, ,0.026355473147739637, ,0.0006138804208351775, ,1.75, ,0.7415639732189809, ,0.44641946082733003, ,0.08283504418277178
27, ,PASS, ,0.06112127645999999, ,0.010014742760894839, ,0.026177266111947917, ,0.0006167444162248472, ,1.75, ,0.7405759899806404, ,0.44574600518356766, ,0.08222281177935144
28, ,PASS, ,0.06113160438, ,0.010002015438622282, ,0.026158579322683416, ,0.0006161023800188707, ,1.75, ,0.739913983840255, ,0.4461133446256199, ,0.08275341319564906
29, ,PASS, ,0.061246830719999985, ,0.010054336776012066, ,0.026331591821517928, ,0.0006204569538128587, ,1.75, ,0.7405195933894706, ,0.44539907348829616, ,0.07965143568498602
30, ,PASS, ,0.06255464253, ,0.010254319492042883, ,0.02595438565999102, ,0.0006463552701554961, ,1.75, ,0.7385675445453165, ,0.4451133650333667, ,0.08289626742311382
31, ,PASS, ,0.10605745000000001, ,0.015265364382960299, ,0.021305625506622315, ,0.001643227983391705, ,1.8333333333333333, ,0.6602627994813736, ,0.42362400767331276, ,0.08014122160772229
32, ,PASS, ,0.11974360999999997, ,0.017366705408809965, ,0.020313164150323464, ,0.0021100184609032665, ,1.8333333333333333, ,0.6629254907923975, ,0.4237260464072162, ,0.08393706250892839
33, ,PASS, ,0.06941496499999998, ,0.011311042890747657, ,0.025900126194159302, ,0.000790852239368423, ,1.75, ,0.7399936503964322, ,0.44570518969000633, ,0.08052896879655518
34, ,PASS, ,0.068591092, ,0.01115369287232589, ,0.02584465187847187, ,0.0007702881590805806, ,1.75, ,0.7410026655772739, ,0.44650109181445274, ,0.07891675680088162
35, ,PASS, ,0.068549639, ,0.011153887047970908, ,0.026034755564376236, ,0.0007700607118101771, ,1.75, ,0.7397884695890763, ,0.4460929368788392, ,0.07834533989102263
36, ,PASS, ,0.06896159000000002, ,0.011197264982232799, ,0.025878747930144285, ,0.0007779233548031008, ,1.75, ,0.7382868182625449, ,0.4454398889818575, ,0.07422297504132569
37, ,PASS, ,0.06880075300000003, ,0.011169932253073367, ,0.025961248683149325, ,0.0007742628959228515, ,1.75, ,0.7378477332878608, ,0.4450725495398053, ,0.07473316871084264
38, ,PASS, ,0.068396864, ,0.011139928673437726, ,0.026012499222770963, ,0.0007675562453441127, ,1.75, ,0.7396977209753957, ,0.4451745882737087, ,0.07903920328156568
39, ,PASS, ,0.06822489500000001, ,0.011115557826734696, ,0.02596027589483888, ,0.0007640709757389232, ,1.75, ,0.7383875549653797, ,0.4452562192608314, ,0.07922287300259179
40, ,PASS, ,0.068338982, ,0.011138056689770984, ,0.025745504662884434, ,0.0007665112647808768, ,1.75, ,0.740093389757728, ,0.44568478194322564, ,0.07997795963347687
41, ,PASS, ,0.068281753, ,0.011094010756314535, ,0.02564260010818147, ,0.0007628585302834863, ,1.75, ,0.7404364392190591, ,0.4456235587028836, ,0.07871267933307484
42, ,PASS, ,0.06810644699999999, ,0.011079019474687344, ,0.025608028535254387, ,0.0007601018482501549, ,1.75, ,0.7382535545501335, ,0.4451133650333667, ,0.07495765392543009
43, ,PASS, ,0.06777660500000005, ,0.011070554545779057, ,0.025696811288014536, ,0.0007556990873849826, ,1.75, ,0.74067059702836, ,0.44576641293034835, ,0.08007999836738025
44, ,PASS, ,0.008269890000000002, ,0.00030201923650335997, ,0.029870562145262347, ,2.6707379053421165e-06, ,0.75, ,0.29735808191468943, ,0.5653966245586824, ,0.01302014244607253
45, ,PASS, ,0.06738306000000002, ,0.010975021598915119, ,0.025805249070263877, ,0.0007447447728798102, ,1.75, ,0.7393837363161663, ,0.4452766270076121, ,0.07820248566355789
46, ,PASS, ,0.067285115, ,0.010891541721723257, ,0.025812523068814923, ,0.0007378799248091832, ,1.75, ,0.740421778067979, ,0.44650109181445274, ,0.07910042652190771
47, ,PASS, ,0.06723697200000002, ,0.010893876937883755, ,0.025582623532927905, ,0.0007377718580641245, ,1.75, ,0.7389362093708687, ,0.4455623354625416, ,0.07779433072794432
48, ,PASS, ,0.00950051, ,0.0003467207677827576, ,0.02996888385890084, ,3.5854922672164726e-06, ,0.75, ,0.2926226009342523, ,0.6000693863390543, ,0.012367094549090836
49, ,PASS, ,0.06732008400000002, ,0.010947075434010745, ,0.025448679494949087, ,0.0007421945495364704, ,1.75, ,0.7382655251991264, ,0.4450725495398053, ,0.07685557437603315
50, ,PASS, ,0.06743478600000002, ,0.010920495152653014, ,0.025662315969898576, ,0.0007416795226706065, ,1.75, ,0.7393767915449386, ,0.4458888594110324, ,0.07879431032019754
51, ,PASS, ,0.06724478600000003, ,0.01091436614455393, ,0.02584843598877574, ,0.0007392131893240864, ,1.75, ,0.7374071942697635, ,0.44486847207199853, ,0.07693720536315585
52, ,PASS, ,0.06749392800000001, ,0.01090873664331918, ,0.02573544868182282, ,0.0007416152962378118, ,1.75, ,0.7384335615591193, ,0.44584804391747107, ,0.07405971306708026
53, ,PASS, ,0.06756318100000003, ,0.010912787003895672, ,0.025716292096447012, ,0.0007423754116677814, ,1.75, ,0.7377420107291596, ,0.4456439664496643, ,0.07863104834595212
54, ,PASS, ,0.06694893100000004, ,0.010878321184658873, ,0.025479662047550054, ,0.0007336289577114629, ,1.75, ,0.7377423321987402, ,0.4449909185526826, ,0.07063121160792638
55, ,PASS, ,0.06732960800000004, ,0.0109030162649693, ,0.02566806362115059, ,0.0007395774385252469, ,1.75, ,0.7377333849577895, ,0.4454398889818575, ,0.07805963143609314
56, ,PASS, ,0.06717981600000002, ,0.01089646494286551, ,0.025776349562090572, ,0.0007371947706239142, ,1.75, ,0.7398979684939561, ,0.4454807044754189, ,0.07761066100691823
57, ,PASS, ,0.06730626400000002, ,0.010982212040242086, ,0.025778027902002003, ,0.0007448167989760986, ,1.8333333333333333, ,0.7366226231594732, ,0.44368482275871923, ,0.0764270116936389
58, ,PASS, ,0.06782451400000002, ,0.011023655282803012, ,0.025565961393808293, ,0.0007534625812562467, ,1.75, ,0.7362655981067622, ,0.44411338544111345, ,0.07979428991245077
59, ,PASS, ,0.06834654200000001, ,0.011171874772306446, ,0.025457499918613912, ,0.0007694510875429848, ,1.8333333333333333, ,0.7359891960052086, ,0.44325626007632496, ,0.07987592089957347
60, ,PASS, ,0.067394041, ,0.01097464404707962, ,0.02568902482857493, ,0.0007451714487831132, ,1.75, ,0.7366975204870537, ,0.4446031713638497, ,0.07597804126446399
61, ,PASS, ,0.06765514200000002, ,0.01093199468644991, ,0.02561748664484399, ,0.0007450712614524496, ,1.75, ,0.7330985292409068, ,0.4444399093896043, ,0.06705985592130773
62, ,PASS, ,0.06717511699999999, ,0.010936916758852434, ,0.025767391001244876, ,0.0007401754043928847, ,1.75, ,0.7373520191701793, ,0.44448072488316565, ,0.07756984551335687
63, ,PASS, ,0.06721705500000003, ,0.01094892775533813, ,0.025558600267361894, ,0.0007413651506087793, ,1.75, ,0.7360115441522841, ,0.44413379318789414, ,0.07891675680088162
64, ,PASS, ,0.06697812800000001, ,0.010893319154592566, ,0.02565461680877942, ,0.0007350379359070038, ,1.75, ,0.7350228430146517, ,0.4444195016428236, ,0.07232505459072264
65, ,PASS, ,0.06692144900000004, ,0.010885325621196342, ,0.025515984079814702, ,0.0007339132402588513, ,1.75, ,0.7359908504416433, ,0.44450113262994634, ,0.0798555131527928
66, ,PASS, ,0.06702865200000005, ,0.010894090510721018, ,0.02562173871572009, ,0.0007356887301089729, ,1.75, ,0.7359321626452288, ,0.44466439460419177, ,0.0788351258137589
67, ,PASS, ,0.06756603500000002, ,0.010976302415232935, ,0.02538934992904227, ,0.0007472002821746618, ,1.75, ,0.7353082173197029, ,0.44450113262994634, ,0.0753249933674823
68, ,PASS, ,0.06666627200000004, ,0.010847354270258692, ,0.025507564915593563, ,0.0007287089965557184, ,1.75, ,0.7366086186844492, ,0.44448072488316565, ,0.07316177220873044
69, ,PASS, ,0.06646412300000003, ,0.010819710595011864, ,0.025640976072365873, ,0.0007242959276272546, ,1.75, ,0.7370603547117781, ,0.44490928756555986, ,0.07803922368931246
70, ,PASS, ,0.06647732800000003, ,0.010791139814342583, ,0.02571492689967552, ,0.0007226938931833586, ,1.75, ,0.7375886672678186, ,0.4454398889818575, ,0.07681475888247179
71, ,PASS, ,0.06644286300000003, ,0.010768716767354016, ,0.025745608330013676, ,0.0007207017097277136, ,1.75, ,0.7347991554929416, ,0.4447460255913145, ,0.07469235321728128
72, ,PASS, ,0.06667288300000002, ,0.010762397325282948, ,0.02557215128576968, ,0.0007229080671719064, ,1.75, ,0.7324211788190056, ,0.4448072488316565, ,0.06142731780984061
73, ,PASS, ,0.06668338400000004, ,0.010829774869758866, ,0.025451317432623827, ,0.0007277737620578958, ,1.75, ,0.7347182219255249, ,0.44450113262994634, ,0.07536580886104365
74, ,PASS, ,0.06649485400000003, ,0.01079591941731713, ,0.02564657121203649, ,0.0007231381564077422, ,1.75, ,0.7364013358819855, ,0.4452562192608314, ,0.07552907083528908
75, ,PASS, ,0.06620618000000003, ,0.01075565931167121, ,0.025687873725005615, ,0.0007175365642512228, ,1.75, ,0.7357028762856709, ,0.4449909185526826, ,0.07350870390400197
76, ,PASS, ,0.06575145900000004, ,0.010678879887111649, ,0.025809295804350933, ,0.0007073051390072019, ,1.75, ,0.7375726940209014, ,0.4458276361706904, ,0.07750862227301483
77, ,PASS, ,0.06582201600000004, ,0.010660986127595059, ,0.02594164193787882, ,0.0007066183732360555, ,1.75, ,0.7369567658113076, ,0.4463786453337687, ,0.06914144609293688
78, ,PASS, ,0.06578482400000005, ,0.010653537620056065, ,0.025814828343870534, ,0.0007059442636914734, ,1.75, ,0.7382933544425285, ,0.4463990530805494, ,0.07401889757351891
79, ,PASS, ,0.06548874800000004, ,0.010638493743670648, ,0.025867173177118837, ,0.0007015676871407763, ,1.75, ,0.7376552084728807, ,0.4460113058917165, ,0.07579437154343789
80, ,PASS, ,0.06617852000000005, ,0.01076300406732341, ,0.02583275690167548, ,0.000717232730206187, ,1.75, ,0.7369521900339772, ,0.44578682067712905, ,0.07563110956919246
81, ,PASS, ,0.06632535200000005, ,0.010771549029976943, ,0.02565592122905655, ,0.0007195686418870037, ,1.75, ,0.7369447886308702, ,0.445725597436787, ,0.07808003918287382
82, ,PASS, ,0.06629397400000002, ,0.010763419055338093, ,0.025782346231832006, ,0.0007188622830743671, ,1.75, ,0.734932195886437, ,0.4451949960204894, ,0.07187608416154773
83, ,PASS, ,0.06658732700000002, ,0.010834754605366285, ,0.025794716014285426, ,0.0007268872416710769, ,1.75, ,0.7356077244637291, ,0.44521540376727003, ,0.07456990673659722
84, ,PASS, ,0.06668179900000004, ,0.010829001839573913, ,0.025590822563682378, ,0.0007277113199457972, ,1.75, ,0.7366741685950414, ,0.4454807044754189, ,0.07354951939756331
85, ,PASS, ,0.06679721600000003, ,0.010877901639885713, ,0.02579513208171262, ,0.0007320969539860583, ,1.75, ,0.7364322744490951, ,0.4452562192608314, ,0.07754943776657619
86, ,PASS, ,0.06659940700000004, ,0.010867830534998145, ,0.025769338053407073, ,0.0007291419471413195, ,1.75, ,0.7380523605713434, ,0.4456235587028836, ,0.07759025326013755
87, ,PASS, ,0.06698490000000001, ,0.010897445118454885, ,0.025660241132119756, ,0.0007356538706523385, ,1.75, ,0.7351117422820349, ,0.44497051080590194, ,0.0731005489683884
88, ,PASS, ,0.06726021700000002, ,0.010946935383144535, ,0.02568223885908451, ,0.0007418555771585237, ,1.75, ,0.7337664555657759, ,0.4455215199689802, ,0.07259035529887145
89, ,PASS, ,0.06701964700000006, ,0.01090964492021305, ,0.02549322027295362, ,0.0007365073518256384, ,1.75, ,0.7368363083990612, ,0.4458888594110324, ,0.07630456521295484
90, ,PASS, ,0.06695096400000004, ,0.010900492385968637, ,0.02576157677445359, ,0.0007353699254708085, ,1.75, ,0.7355033068553102, ,0.4456439664496643, ,0.07675353564212975
91, ,PASS, ,0.06733966700000002, ,0.010950692049678603, ,0.025717165508438604, ,0.0007428934160211677, ,1.75, ,0.7352208558780442, ,0.44566437419644495, ,0.07095773555641721
92, ,PASS, ,0.06730404500000006, ,0.010987043115356497, ,0.02563805416191507, ,0.000744903170718806, ,1.75, ,0.7380894727291748, ,0.4463786453337687, ,0.07920246525581111
93, ,PASS, ,0.07275124899999998, ,0.01179419886157316, ,0.025453338531070797, ,0.0008642005108660813, ,1.75, ,0.7339133011983064, ,0.44529703475439275, ,0.08061059978367788
94, ,PASS, ,0.19679620000000014, ,0.03008175811142997, ,0.015559303853390709, ,0.0059982364824852155, ,1.8333333333333333, ,0.6730633213735945, ,0.4151139772657701, ,0.09769188383910532
95, ,PASS, ,0.07012444699999999, ,0.011536701056851022, ,0.025496098840574685, ,0.0008154609926369914, ,1.75, ,0.7414036012974142, ,0.44652149956123344, ,0.08218199628579008
96, ,PASS, ,0.063310921, ,0.010394229825669407, ,0.026219497708383502, ,0.0006629257358828501, ,1.75, ,0.7470274164836376, ,0.44907246790881816, ,0.07287606375380094
97, ,PASS, ,0.06308518850000001, ,0.010356451628085442, ,0.0264487000665966, ,0.0006581228717225391, ,1.75, ,0.747622922820962, ,0.4492969531234056, ,0.07779433072794432
98, ,PASS, ,0.0629348522, ,0.010347265337882822, ,0.02613130092273219, ,0.0006557425929626177, ,1.75, ,0.7468680082404493, ,0.44903165241525683, ,0.07316177220873044
99, ,PASS, ,0.06292284369999998, ,0.010312774502918065, ,0.026170472077002512, ,0.0006536313522109238, ,1.75, ,0.7488846771367329, ,0.4493173608701863, ,0.07548825534172772
100, ,PASS, ,0.06237061359999999, ,0.010238702620066953, ,0.02619024072865737, ,0.0006431850896376695, ,1.75, ,0.7482774701760339, ,0.4490520601620375, ,0.07442705250913247
101, ,PASS, ,0.06243258832999998, ,0.01027005657808915, ,0.026289976642506277, ,0.0006457694936222266, ,1.75, ,0.7481420577491568, ,0.4488683904410114, ,0.07685557437603315
102, ,PASS, ,0.06274685156000001, ,0.01026118967111972, ,0.02640328830041591, ,0.0006483159123065712, ,1.75, ,0.7451399504069942, ,0.4488683904410114, ,0.06901899961225282
103, ,PASS, ,0.06242964329999999, ,0.010259307822658789, ,0.02620950279862533, ,0.0006452834571607986, ,1.75, ,0.7461462563968779, ,0.44862349747964325, ,0.07377400461215078
104, ,PASS, ,0.06277712003, ,0.010327432486372095, ,0.026300787669563883, ,0.0006529115910966939, ,1.75, ,0.7469655360568856, ,0.4485010509989592, ,0.07305973347482704
105, ,PASS, ,0.06300502453000001, ,0.010346253860310245, ,0.026423206265115, ,0.0006563379132538929, ,1.75, ,0.748160048136063, ,0.4494398073508704, ,0.07771269974082162
106, ,PASS, ,0.0631111242, ,0.010358269223503698, ,0.026304391411450172, ,0.0006583449088140727, ,1.75, ,0.7455463373111216, ,0.4488479826942307, ,0.07271280177955552
107, ,PASS, ,0.06288799073, ,0.010368607822186212, ,0.026200695149753064, ,0.0006566543547221144, ,1.75, ,0.7479602823483078, ,0.44854186649252054, ,0.07754943776657619
108, ,PASS, ,0.06301083219999999, ,0.010374103494954524, ,0.026082025615995593, ,0.0006580196524397462, ,1.75, ,0.7486348897831062, ,0.4492357298830636, ,0.06622313830329993
109, ,PASS, ,0.06319143399999999, ,0.010379585591148294, ,0.02595604401602008, ,0.000660582490747419, ,1.75, ,0.7467170437497427, ,0.4485214587457399, ,0.0732025877022918
110, ,PASS, ,0.06294481569999998, ,0.010383283397548956, ,0.026057812385526825, ,0.0006580631202096774, ,1.75, ,0.7490342721775952, ,0.44903165241525683, ,0.08085549274504603
111, ,PASS, ,0.06292433180000001, ,0.010365519759050798, ,0.026301045232103425, ,0.0006568132885196807, ,1.75, ,0.7475795620832386, ,0.44872553621354666, ,0.07567192506275382
112, ,PASS, ,0.06317190179999999, ,0.010371207299280665, ,0.026226303448433706, ,0.0006598431833287899, ,1.75, ,0.7470959826992409, ,0.4488479826942307, ,0.07583518703699925
113, ,PASS, ,0.06315527890000001, ,0.010369882327851668, ,0.026270812794317668, ,0.000659595659730848, ,1.75, ,0.7455197796224334, ,0.44823575029081036, ,0.07701883635027856
114, ,PASS, ,0.06258332539999997, ,0.010291775838096534, ,0.02625796227005571, ,0.0006485474184651095, ,1.75, ,0.7469136700071499, ,0.4488071672006694, ,0.07746780677945347
115, ,PASS, ,0.06263557789999999, ,0.010266769171360969, ,0.02624217637123426, ,0.000647681855170139, ,1.75, ,0.7466652792153196, ,0.4489500214281341, ,0.08067182302401991
116, ,PASS, ,0.06250652291999999, ,0.010205495836510235, ,0.026324399674509905, ,0.0006421072658066446, ,1.75, ,0.744309028704299, ,0.4480520805697843, ,0.06408032489132875
117, ,PASS, ,0.062466890029999986, ,0.010234831366627126, ,0.026356052085786414, ,0.000643643052569399, ,1.75, ,0.7460826531882361, ,0.4489704291749148, ,0.07256994755209077
118, ,PASS, ,0.062329538449999985, ,0.010229901739454761, ,0.0263115162225075, ,0.0006419262940284628, ,1.75, ,0.7480523395933295, ,0.4491540988959409, ,0.07165159894696027
119, ,PASS, ,0.062190489559999985, ,0.01021420703439394, ,0.026264676332509538, ,0.0006395253128628021, ,1.75, ,0.7488038678200628, ,0.44950103059121244, ,0.07263117079243281
120, ,PASS, ,0.06251669462999998, ,0.010247565464254793, ,0.026224783384889698, ,0.000645150750105987, ,1.75, ,0.7467759182383092, ,0.44862349747964325, ,0.07342707291687925
121, ,PASS, ,0.06337927170000002, ,0.010413603619781029, ,0.026392833546650066, ,0.0006646502656726723, ,1.75, ,0.7472004075881508, ,0.44872553621354666, ,0.07367196587824738
122, ,PASS, ,0.06257970655999999, ,0.010231776470147967, ,0.026369187749892452, ,0.0006449000439582575, ,1.75, ,0.7462402456420574, ,0.44901124466847614, ,0.07438623701557111
123, ,PASS, ,0.06247635913, ,0.010216240168467325, ,0.026417454459020835, ,0.0006426255035117184, ,1.75, ,0.7476508276492584, ,0.4492561376298443, ,0.07571274055631518
124, ,PASS, ,0.061964682169999986, ,0.010162762020410061, ,0.026315501081283648, ,0.0006341124990463365, ,1.75, ,0.7460765777448226, ,0.44866431297320464, ,0.07379441235893144
125, ,PASS, ,0.06240671239999999, ,0.010204571011506623, ,0.02611607889958368, ,0.0006409987153411454, ,1.75, ,0.7475727133911003, ,0.4492561376298443, ,0.07636578845329688
126, ,PASS, ,0.0626600213, ,0.010260387210985183, ,0.02609358124341258, ,0.0006473097543040476, ,1.75, ,0.7481018542141422, ,0.44917450664272157, ,0.07730454480520806
127, ,PASS, ,0.06240866953, ,0.010236130282072823, ,0.026226302903537887, ,0.0006430070093416582, ,1.75, ,0.7463878919893607, ,0.4487867594538887, ,0.06842717495561315
128, ,PASS, ,0.06203656325999999, ,0.010170715569730107, ,0.02643183754703904, ,0.0006350754232531166, ,1.75, ,0.7492953076970402, ,0.4496234770718965, ,0.07501887716577213
129, ,PASS, ,0.06352071310000003, ,0.010440339577700157, ,0.026294187321166916, ,0.0006682631148380462, ,1.75, ,0.7481152023996895, ,0.4487867594538887, ,0.0803248913287484
130, ,PASS, ,0.06339231226000003, ,0.010442578473868624, ,0.026515764879073898, ,0.000666475459517329, ,1.75, ,0.7483072022295504, ,0.4489296136813534, ,0.07469235321728128
131, ,PASS, ,0.06324243516000003, ,0.01038973846147047, ,0.026556654738307178, ,0.0006614980994324913, ,1.75, ,0.7482188258662881, ,0.44909287565559886, ,0.07344748066365993
132, ,PASS, ,0.06374359630000001, ,0.010468081837541299, ,0.026327494598036773, ,0.0006719404051117972, ,1.75, ,0.7453605660517495, ,0.44864390522642394, ,0.06991694047060264
133, ,PASS, ,0.06389462203000003, ,0.010471289051608488, ,0.026330011749898984, ,0.0006737250427030042, ,1.75, ,0.7463047892170392, ,0.4491540988959409, ,0.0721822003632579
134, ,PASS, ,0.06385309590000002, ,0.010474466494023872, ,0.026334293438572683, ,0.000673447857770009, ,1.75, ,0.7470876695614402, ,0.4489500214281341, ,0.07416175180098365
135, ,PASS, ,0.06369246100000002, ,0.010463585614973231, ,0.026489226332297302, ,0.000671343387920597, ,1.75, ,0.7477479877938541, ,0.4489500214281341, ,0.0760596722515867
136, ,PASS, ,0.06376025840000002, ,0.010457174862240083, ,0.026437654882206486, ,0.0006714004437518558, ,1.75, ,0.7489999063505002, ,0.44997040876716804, ,0.07454949898981654
137, ,PASS, ,0.06389439110000003, ,0.010482160180484434, ,0.02661153342405665, ,0.0006741714626033997, ,1.75, ,0.7509597710919438, ,0.45074590314483376, ,0.07356992714434399
138, ,PASS, ,0.06401446300000002, ,0.010484623969515276, ,0.026359580197779637, ,0.0006758322838877557, ,1.75, ,0.7480841135197607, ,0.4497663312993612, ,0.0737535968653701
139, ,PASS, ,0.06403086610000004, ,0.010517144309786704, ,0.026550952224236243, ,0.0006781302860550537, ,1.75, ,0.7480279629283112, ,0.44958266157833515, ,0.06983530948347993
140, ,PASS, ,0.06416959690000004, ,0.01051121622247795, ,0.026497169073904616, ,0.0006793515190476504, ,1.75, ,0.7479864896813004, ,0.44946021509765105, ,0.07232505459072264
141, ,PASS, ,0.06414981720000003, ,0.01052654196440986, ,0.0264847317664415, ,0.0006799544792207843, ,1.75, ,0.7490664178390186, ,0.44986837003326463, ,0.07265157853921349
142, ,PASS, ,0.06412270920000003, ,0.010555531798975212, ,0.02641919488624722, ,0.0006818967078721795, ,1.75, ,0.7486697403294661, ,0.44946021509765105, ,0.07348829615722129
143, ,PASS, ,0.06420094670000004, ,0.010538210433056397, ,0.026583675877871884, ,0.0006813847876251017, ,1.75, ,0.7478205294209784, ,0.44982755453970324, ,0.06940674680108569
144, ,PASS, ,0.06444628380000003, ,0.010581937566711368, ,0.02631890999077162, ,0.0006868653808325643, ,1.75, ,0.7479072836593658, ,0.449398991857309, ,0.07716169057774332
145, ,PASS, ,0.06418400780000004, ,0.01057344270746052, ,0.026441591312471178, ,0.0006834711034605915, ,1.75, ,0.7499402655430105, ,0.45003163200751006, ,0.07487602293830738
146, ,PASS, ,0.06408717100000003, ,0.010522146098972803, ,0.026323231683477888, ,0.0006789576582191279, ,1.75, ,0.7493680868091052, ,0.45029693271565885, ,0.07381482010571212
147, ,PASS, ,0.06397733870000004, ,0.010471562152154645, ,0.02659778718709006, ,0.0006747348626803819, ,1.75, ,0.7474718052569209, ,0.4500724475010714, ,0.07146792922593416
148, ,PASS, ,0.06342687640000003, ,0.010395090764089017, ,0.02654037798822473, ,0.0006637455244719934, ,1.75, ,0.7492547277541902, ,0.45076631089161445, ,0.07234546233750332
149, ,PASS, ,0.06369587140000002, ,0.010418668248784168, ,0.026526702219488992, ,0.0006680155195652769, ,1.75, ,0.750032578324797, ,0.45086834962551786, ,0.06961082426889247
150, ,PASS, ,0.06351078220000003, ,0.010431684204664064, ,0.02645583457871064, ,0.0006666659491199413, ,1.75, ,0.7519668731278845, ,0.45170506724352566, ,0.07228423909716128
151, ,PASS, ,0.06366601560000001, ,0.010428310269165452, ,0.026536554811495687, ,0.0006683057367684771, ,1.75, ,0.7474531850887558, ,0.4509703883594212, ,0.06646803126466806
152, ,PASS, ,0.06425637730000003, ,0.010476330218604423, ,0.026471443269584297, ,0.0006780517721172846, ,1.75, ,0.7477156589931878, ,0.4509907961062019, ,0.07308014122160772
153, ,PASS, ,0.06411348910000005, ,0.010471954816503166, ,0.026757474943554217, ,0.0006758759276346699, ,1.75, ,0.7482496972087032, ,0.4512969123079121, ,0.07144752147915348
154, ,PASS, ,0.06434999880000004, ,0.01049971131217738, ,0.026488059835987024, ,0.0006802174398131553, ,1.75, ,0.7481782526633214, ,0.45125609681435075, ,0.06693740944062367
155, ,PASS, ,0.06535422500000004, ,0.010671398396483858, ,0.026480581742462404, ,0.0007021794062290204, ,1.75, ,0.7472938693609747, ,0.4509703883594212, ,0.06763127283116671
156, ,PASS, ,0.12628449000000003, ,0.01848890659618398, ,0.019974680989571645, ,0.0023672614744445664, ,1.9166666666666667, ,0.6668752804265506, ,0.4271341401195894, ,0.09061039570621007
157, ,PASS, ,0.10380019999999998, ,0.015916958818617672, ,0.022195262201587723, ,0.001673248667129482, ,1.9166666666666667, ,0.6864332020583015, ,0.4310932429950409, ,0.10614069100630599
158, ,PASS, ,0.06490524100000006, ,0.010566138942513919, ,0.026306410790343057, ,0.0006906588506940343, ,1.75, ,0.7409753948304278, ,0.44954184608477377, ,0.07065161935470704
159, ,PASS, ,0.06376378610000004, ,0.010418464285492875, ,0.026271092781965065, ,0.0006688527647784658, ,1.75, ,0.7454950645992275, ,0.45003163200751006, ,0.07044754188690026
160, ,PASS, ,0.06334159530000001, ,0.010387247138663304, ,0.026310315184200322, ,0.0006626127747055534, ,1.75, ,0.7453214184782616, ,0.4491540988959409, ,0.07456990673659722
161, ,PASS, ,0.06370340660000003, ,0.010394851358533921, ,0.026485015559706945, ,0.0006668048930601001, ,1.75, ,0.7405445397897912, ,0.44909287565559886, ,0.06336605375400502
162, ,PASS, ,0.06354083080000003, ,0.010402391432758238, ,0.026385997605597844, ,0.000665641647461524, ,1.75, ,0.7427599793351445, ,0.44854186649252054, ,0.07305973347482704
163, ,PASS, ,0.06331357223000002, ,0.010371533560843514, ,0.026449627046940677, ,0.0006610646735220324, ,1.75, ,0.7435524739600596, ,0.4489500214281341, ,0.072365870084284
164, ,PASS, ,0.0633509339, ,0.010397195824263168, ,0.026360211573369933, ,0.0006633754661649395, ,1.75, ,0.7445456425061805, ,0.44874594396032735, ,0.07761066100691823
165, ,PASS, ,0.0632774611, ,0.010436534899028089, ,0.026206562238431867, ,0.0006649542955047757, ,1.75, ,0.7462560006152357, ,0.4483990122650558, ,0.07842697087814535
166, ,PASS, ,0.06316609843000003, ,0.010375253983606067, ,0.026346039638280035, ,0.0006598909390567467, ,1.75, ,0.7429454462456472, ,0.44786841084875817, ,0.06699863268096569
167, ,PASS, ,0.06306141120000001, ,0.010344094049156751, ,0.026266164034844188, ,0.0006568163750415939, ,1.75, ,0.7442308967028622, ,0.4484194200118365, ,0.07424338278810637
168, ,PASS, ,0.06282647003000001, ,0.01025756857629584, ,0.026311253721209772, ,0.0006491365223106363, ,1.75, ,0.7428686773625053, ,0.4480520805697843, ,0.06824350523458705
169, ,PASS, ,0.06305335220000001, ,0.010301999208971568, ,0.02629322614721291, ,0.0006542415808828432, ,1.75, ,0.7408376572891803, ,0.4480928960633456, ,0.069957755964164
170, ,PASS, ,0.06254021779999999, ,0.010262869980317524, ,0.02617991206823493, ,0.0006464274981125629, ,1.75, ,0.7426905842751746, ,0.44799085732944227, ,0.07556988632885044
171, ,PASS, ,0.06264808445000002, ,0.010269790767695464, ,0.02651966664861921, ,0.0006478660806776984, ,1.75, ,0.7441925537695958, ,0.44854186649252054, ,0.07301891798126568
172, ,PASS, ,0.0627175276, ,0.010247470081966002, ,0.026477589669692048, ,0.0006471228743165575, ,1.75, ,0.7423479047405993, ,0.44825615803759106, ,0.0756107018224118
173, ,PASS, ,0.062287692159999984, ,0.010206658753144469, ,0.026454908214280932, ,0.000640181207779838, ,1.75, ,0.745090695971693, ,0.4489092059345728, ,0.07808003918287382
174, ,PASS, ,0.06199286390999997, ,0.010111340876810865, ,0.026410608226595987, ,0.0006312155716213117, ,1.75, ,0.7459761295434424, ,0.4492969531234056, ,0.07481479969796535
175, ,PASS, ,0.062027767699999986, ,0.010129781167724883, ,0.026451233360859167, ,0.000632557118881545, ,1.75, ,0.7425246221096914, ,0.44854186649252054, ,0.07091692006285585
176, ,PASS, ,0.06215251211999999, ,0.010165080884244119, ,0.026667040102670556, ,0.0006361416574487907, ,1.75, ,0.7436243248896022, ,0.4486030897328626, ,0.07214138486969654
177, ,PASS, ,0.06226571973999999, ,0.010185866714017796, ,0.026446992479243283, ,0.0006383550519088048, ,1.75, ,0.7435794124317938, ,0.4486030897328626, ,0.0732842186894145
178, ,PASS, ,0.062394379720000004, ,0.010196516475781835, ,0.026490629799956734, ,0.0006403256304723719, ,1.75, ,0.7432820025026592, ,0.4480520805697843, ,0.07385563559927348
179, ,PASS, ,0.06241108759999999, ,0.010228493483390349, ,0.02619807993008469, ,0.000642831157104388, ,1.75, ,0.7439561678109892, ,0.44788881859553886, ,0.07895757229444297
180, ,PASS, ,0.06238796039000002, ,0.010207540989508622, ,0.02674938150646109, ,0.0006412735367615165, ,1.75, ,0.7432159604182796, ,0.4481133038101263, ,0.07381482010571212
181, ,PASS, ,0.06242622244999999, ,0.010199173293920206, ,0.026384458838122488, ,0.0006410432760048252, ,1.75, ,0.7418546105022632, ,0.44784800310197753, ,0.07142711373237282
182, ,PASS, ,0.06241638248, ,0.010164366690992233, ,0.02651297011651905, ,0.0006387609976984456, ,1.75, ,0.7410542171194434, ,0.4483173812779331, ,0.07348829615722129
183, ,PASS, ,0.06260846233, ,0.010231964966949846, ,0.02635906118747046, ,0.0006449245229533129, ,1.75, ,0.7417887771400297, ,0.44786841084875817, ,0.07416175180098365
184, ,PASS, ,0.062718809, ,0.010273039527244811, ,0.02626196166130283, ,0.0006490691471554004, ,1.75, ,0.7423536553809686, ,0.4472357706985572, ,0.07505969265933349
185, ,PASS, ,0.06247734468999999, ,0.010196440616648943, ,0.02639051594820963, ,0.0006413327071126046, ,1.75, ,0.7410346998363727, ,0.44772555662129343, ,0.07256994755209077
186, ,PASS, ,0.06245073875, ,0.010212893587835352, ,0.026477153858745328, ,0.0006423349170818591, ,1.75, ,0.74397465699221, ,0.447501071406706, ,0.07873308707985552
187, ,PASS, ,0.06298094363000001, ,0.0101775586789241, ,0.026429972272332198, ,0.0006454546982502523, ,1.75, ,0.7432497194743096, ,0.4489908369216955, ,0.08356972306687618
188, ,PASS, ,0.06255840775000002, ,0.010165333027772058, ,0.026378240519542663, ,0.0006403508701594697, ,1.75, ,0.7391313072077824, ,0.44746025591314464, ,0.06850880594273587
189, ,PASS, ,0.06241494295, ,0.010236956600910039, ,0.02646820222396522, ,0.0006432870712339325, ,1.75, ,0.7440508703454264, ,0.4476643333809514, ,0.075406624354605
190, ,PASS, ,0.06254928385999999, ,0.010211070110583236, ,0.026237505955255605, ,0.0006431999664115305, ,1.75, ,0.7429160572856213, ,0.4473990326728026, ,0.07673312789534907
191, ,PASS, ,0.06294055990000001, ,0.010255553662027654, ,0.026339788165429274, ,0.0006499848387226501, ,1.75, ,0.7402302714320355, ,0.4473174016856799, ,0.07493724617864941
192, ,PASS, ,0.0633108009, ,0.010379152430106876, ,0.025915508944913367, ,0.0006620904814706556, ,1.75, ,0.7409699329451443, ,0.44625619885308465, ,0.07793718495540908
193, ,PASS, ,0.06279045853000002, ,0.010271520185113386, ,0.026492667941718742, ,0.000649596787841312, ,1.75, ,0.739809810033112, ,0.4467255770290402, ,0.07628415746617416
194, ,PASS, ,0.062419712529999984, ,0.0101843345975756, ,0.026178515515310297, ,0.0006403219676801477, ,1.75, ,0.7401325897345521, ,0.4471133242178731, ,0.06881492214444603
195, ,PASS, ,0.06247634438, ,0.010184251904678603, ,0.02638913998039244, ,0.0006409222493958508, ,1.75, ,0.7392197537708902, ,0.44654190730801413, ,0.07275361727311687
196, ,PASS, ,0.06262271173, ,0.010248080275097325, ,0.02631688776941899, ,0.0006461785890577936, ,1.75, ,0.7415506000721324, ,0.4471133242178731, ,0.07644741944041958
197, ,PASS, ,0.06253623173999999, ,0.01025798741017284, ,0.026351662385651314, ,0.0006460295623382944, ,1.75, ,0.7424362951493573, ,0.44703169323075037, ,0.07473316871084264
198, ,PASS, ,0.06271229206000001, ,0.010230948377088567, ,0.026431499869030425, ,0.0006460798647980407, ,1.75, ,0.741258938799076, ,0.4472765861921185, ,0.07238627783106467
199, ,PASS, ,0.06239405257, ,0.010169024531712288, ,0.026393791797130056, ,0.0006389911191507292, ,1.75, ,0.7406442751211066, ,0.4473174016856799, ,0.06971286300279586
200, ,PASS, ,0.062422605560000004, ,0.010153190935409038, ,0.026317314057605352, ,0.0006382427323007087, ,1.75, ,0.7414826224648857, ,0.4476847411277321, ,0.0738352278524928
201, ,PASS, ,0.06252801200000002, ,0.010196360222504638, ,0.026421674165436622, ,0.0006420936216531968, ,1.75, ,0.7379465242770596, ,0.4463990530805494, ,0.06605987632905451
202, ,PASS, ,0.06256306309000001, ,0.01022113310477273, ,0.026361679927705557, ,0.0006438299290640061, ,1.75, ,0.741933669540926, ,0.44786841084875817, ,0.08079426950470399
203, ,PASS, ,0.06253199101000001, ,0.010231136253358997, ,0.026411911440368155, ,0.0006439816361187389, ,1.75, ,0.741637739643216, ,0.4472765861921185, ,0.07742699128589213
204, ,PASS, ,0.06240345719999998, ,0.010249511620837731, ,0.0262583197995747, ,0.0006438332946928456, ,1.75, ,0.7428937256020522, ,0.4476439256341707, ,0.06757004959082467
205, ,PASS, ,0.062760256, ,0.010207012930244298, ,0.026433712161325278, ,0.0006449613191563548, ,1.75, ,0.7406740179962074, ,0.4476031101406094, ,0.07308014122160772
206, ,PASS, ,0.06249861574, ,0.01021240366943176, ,0.026398255463384625, ,0.0006426634788648344, ,1.75, ,0.7408453095357938, ,0.44735821717924124, ,0.07261076304565213
207, ,PASS, ,0.06251751326, ,0.01019946028510081, ,0.02643175555177425, ,0.0006420273757455805, ,1.75, ,0.7399058837599868, ,0.44741944041958326, ,0.07636578845329688
208, ,PASS, ,0.06254775676, ,0.010193014526983173, ,0.026488332609632455, ,0.0006420681952732458, ,1.75, ,0.7425133337562226, ,0.4481133038101263, ,0.07232505459072264
209, ,PASS, ,0.06241226851999999, ,0.010222541031766123, ,0.026393439488965123, ,0.0006424681831171844, ,1.75, ,0.7419503260938045, ,0.4472561784453378, ,0.07618211873227076
210, ,PASS, ,0.06243436101999998, ,0.010205455037595637, ,0.026293047435210506, ,0.0006418044231443821, ,1.75, ,0.7410004296061856, ,0.44741944041958326, ,0.07677394338891043
211, ,PASS, ,0.06255158992999998, ,0.010191318204121657, ,0.02634929879235485, ,0.0006417298623428479, ,1.75, ,0.7410088261326297, ,0.4476847411277321, ,0.07752903001979551
212, ,PASS, ,0.06243287427, ,0.010201414621558937, ,0.026433972306835574, ,0.0006411096251535222, ,1.75, ,0.739893369788829, ,0.4472765861921185, ,0.0746719454705006
213, ,PASS, ,0.06218819341999999, ,0.010157552392379162, ,0.026356800398593092, ,0.0006360136363939191, ,1.75, ,0.7408874182842355, ,0.4474806636599253, ,0.07191689965510908
214, ,PASS, ,0.062376442109999986, ,0.010147031103172282, ,0.02635081901004061, ,0.0006370625845178401, ,1.75, ,0.7407420783657611, ,0.4485214587457399, ,0.07536580886104365
215, ,PASS, ,0.06200497085999998, ,0.010114962952581633, ,0.02631387668621375, ,0.0006314436834857094, ,1.75, ,0.7417282731880273, ,0.4483173812779331, ,0.07693720536315585
216, ,PASS, ,0.06287554940000001, ,0.010242135806153258, ,0.02656061137357605, ,0.0006481710448288828, ,1.75, ,0.7416383463150014, ,0.44907246790881816, ,0.0705087651272423
217, ,PASS, ,0.06287306959999998, ,0.010254490192245719, ,0.026307056543133815, ,0.0006487805859004835, ,1.75, ,0.7426243099730127, ,0.44854186649252054, ,0.07234546233750332
218, ,PASS, ,0.07156680399999998, ,0.011658901337915714, ,0.025559536370849574, ,0.0008410636602082824, ,1.75, ,0.7334255968476181, ,0.44497051080590194, ,0.08507989632864635
219, ,PASS, ,0.16382430999999997, ,0.023768220982342412, ,0.016893359315524173, ,0.003948758183594745, ,1.8333333333333333, ,0.6610943608312502, ,0.42356278443297074, ,0.08954919287361482
220, ,PASS, ,0.06814916700000002, ,0.010608444844387402, ,0.024905437516152738, ,0.0007308485588841599, ,1.8333333333333333, ,0.6954236366525005, ,0.4346645986816596, ,0.09412052815248668
221, ,PASS, ,0.06597011600000004, ,0.010231936552485534, ,0.025096308276855578, ,0.0006824266698854562, ,1.8333333333333333, ,0.695087288233315, ,0.43533805432542194, ,0.09565110916103753
222, ,PASS, ,0.06592935800000004, ,0.010273105205393209, ,0.02494087126947389, ,0.0006846923124627754, ,1.8333333333333333, ,0.6965446157521928, ,0.43448092896063345, ,0.09142670557743719
223, ,PASS, ,0.06579886600000003, ,0.010167840238519008, ,0.024951716651153245, ,0.0006762091865848545, ,1.8333333333333333, ,0.6917654020367993, ,0.43413399726536195, ,0.08154935613558907
224, ,PASS, ,0.06608219800000004, ,0.01027419395586299, ,0.024941320801130592, ,0.0006865097716187254, ,1.8333333333333333, ,0.693717499979118, ,0.43368502683618704, ,0.09642660353870329
225, ,PASS, ,0.06611300500000003, ,0.010242683560072243, ,0.02498114445002776, ,0.0006848079697491168, ,1.8333333333333333, ,0.6929684698880187, ,0.4337054345829677, ,0.09414093589926736
226, ,PASS, ,0.06629006400000001, ,0.010230487153937788, ,0.02501971348472134, ,0.0006857404989839666, ,1.8333333333333333, ,0.6926857536264623, ,0.4334809493683802, ,0.09103895838860432
227, ,PASS, ,0.06655461200000001, ,0.01027441504221043, ,0.02512140267628437, ,0.0006914411473212983, ,1.8333333333333333, ,0.6919077989779747, ,0.4334605416215996, ,0.09546743944001143
228, ,PASS, ,0.06609200300000004, ,0.010266186295307093, ,0.02484895510321382, ,0.0006858752376859106, ,1.8333333333333333, ,0.694737915121553, ,0.4335217648619416, ,0.09552866268035347
229, ,PASS, ,0.06625217500000004, ,0.010278047913359512, ,0.0248211757724222, ,0.0006884926603167857, ,1.8333333333333333, ,0.6936325408601075, ,0.43321564866023143, ,0.091692006285586
230, ,PASS, ,0.06608684000000004, ,0.010267758482261217, ,0.024889115312354444, ,0.000685918935174969, ,1.8333333333333333, ,0.69365581669741, ,0.43325646415379276, ,0.09205934572763821
231, ,PASS, ,0.06624457900000003, ,0.010296078342432617, ,0.02488038674493215, ,0.0006896294269813282, ,1.8333333333333333, ,0.6942704890622741, ,0.4333380951409155, ,0.09620211832411583
232, ,PASS, ,0.06645031600000001, ,0.010312879563647242, ,0.02498848854938798, ,0.0006929224149726177, ,1.8333333333333333, ,0.6955531378976475, ,0.4338686965572131, ,0.10405910083467684
233, ,PASS, ,0.06647123600000002, ,0.010307632511302608, ,0.024843636252059147, ,0.0006929162975714005, ,1.8333333333333333, ,0.6954321151429481, ,0.4334605416215996, ,0.09730413665027245
234, ,PASS, ,0.06655529800000003, ,0.010284500361542116, ,0.02496386942525051, ,0.0006919766614632366, ,1.8333333333333333, ,0.6939072432856181, ,0.4330319789392053, ,0.09703883594212363
235, ,PASS, ,0.06665725400000001, ,0.010329079894570495, ,0.024930281905321736, ,0.0006959379211730992, ,1.8333333333333333, ,0.6928758291011652, ,0.43292994020530196, ,0.08279422868921042
236, ,PASS, ,0.06715194200000002, ,0.010418266748665379, ,0.024630035087465568, ,0.0007072554557553065, ,1.8333333333333333, ,0.6954174685208074, ,0.4331544254198894, ,0.08871247525560703
237, ,PASS, ,0.06736997600000003, ,0.010504868978121092, ,0.02481208572040979, ,0.0007152782851728976, ,1.8333333333333333, ,0.6955338699277038, ,0.4330727944327667, ,0.09646741903226465
238, ,PASS, ,0.06759172100000001, ,0.010486984517773936, ,0.024727104028083105, ,0.0007166193296251423, ,1.8333333333333333, ,0.6945895291854808, ,0.4325217852696884, ,0.08987571682210567
239, ,PASS, ,0.06783221399999999, ,0.010547732133131106, ,0.02479912131824249, ,0.0007231551303964592, ,1.8333333333333333, ,0.69490826614161, ,0.4325626007632497, ,0.09458990632844227
240, ,PASS, ,0.068169048, ,0.010625038065980707, ,0.024721621881116713, ,0.0007319943808656788, ,1.8333333333333333, ,0.6956193333325742, ,0.43278708597783716, ,0.09091651190792024
241, ,PASS, ,0.06900563, ,0.01068078038343445, ,0.024659051503034636, ,0.0007451776903233133, ,1.8333333333333333, ,0.6931143674957825, ,0.43280749372461785, ,0.08893696047019449
242, ,PASS, ,0.069157997, ,0.010745850130784888, ,0.024686390857860046, ,0.0007511808810530451, ,1.8333333333333333, ,0.694609330915542, ,0.4327054549907145, ,0.0928144323585233
243, ,PASS, ,0.06957626499999998, ,0.010797811511941717, ,0.02466192898624518, ,0.0007593276372375285, ,1.8333333333333333, ,0.6936676110485444, ,0.4319299606130487, ,0.09067161894655211
244, ,PASS, ,0.070240955, ,0.01086557353199672, ,0.024617355705148877, ,0.0007712624352153596, ,1.8333333333333333, ,0.6936947955553632, ,0.43233811554866225, ,0.09146752107099855
245, ,PASS, ,0.07060787199999997, ,0.010911233063229385, ,0.024541353078610644, ,0.0007787518292290261, ,1.8333333333333333, ,0.6946870180426759, ,0.43248096977612704, ,0.09765106834554396
246, ,PASS, ,0.071820093, ,0.01112121223649711, ,0.024272039000326526, ,0.0008072415006145577, ,1.9166666666666667, ,0.6922552761857425, ,0.4309299810207955, ,0.0893859308993694
247, ,PASS, ,0.071789416, ,0.011060909627487877, ,0.024595752183996244, ,0.0008029605619121778, ,1.8333333333333333, ,0.6925123002192141, ,0.4321136303340748, ,0.08577375971918941
248, ,PASS, ,0.07159670899999997, ,0.011120396978067054, ,0.024506137930287136, ,0.000804592103806915, ,1.8333333333333333, ,0.6943183157251259, ,0.4314809901838738, ,0.08489622660762025
249, ,PASS, ,0.071865117, ,0.011146154753591748, ,0.02444436312165058, ,0.0008094871182882474, ,1.8333333333333333, ,0.6949988775970847, ,0.4322156690679782, ,0.08867165976204568
250, ,PASS, ,0.07228690199999999, ,0.01120393992273625, ,0.02459371995291933, ,0.0008180083369150218, ,1.8333333333333333, ,0.696298164677156, ,0.43292994020530196, ,0.08850839778780024
251, ,PASS, ,0.07242789899999996, ,0.011237371049592302, ,0.024638066870635293, ,0.0008224344085186748, ,1.8333333333333333, ,0.6957539759334519, ,0.4321340380808555, ,0.08818187383930941
252, ,PASS, ,0.071865504, ,0.011126381179468675, ,0.024528462554396852, ,0.0008078062692994005, ,1.8333333333333333, ,0.6955963301312826, ,0.4322768923083202, ,0.08059019203689721
253, ,PASS, ,0.072149654, ,0.0112246857364689, ,0.02447963463094631, ,0.0008177519876053675, ,1.8333333333333333, ,0.698413418170935, ,0.4335217648619416, ,0.08934511540580804
254, ,PASS, ,0.07381815199999996, ,0.011468923536187782, ,0.02444662151398951, ,0.0008550312037352517, ,1.8333333333333333, ,0.6970423352922432, ,0.43292994020530196, ,0.08103916246607212
255, ,PASS, ,0.07364800199999996, ,0.011457828119911563, ,0.024581228301259157, ,0.0008520958120534233, ,1.8333333333333333, ,0.6962548448408814, ,0.4325013775229077, ,0.08193710332442194
