Channel, ,Pass/Fail, ,Amplitude, ,Sorting Function Response, ,Mean, ,Variance, ,NPeaksRatio, ,PosIntegralRatio, ,ToT50, ,ToT99
0, ,PASS, ,0.06685759200000001, ,0.01053046395214372, ,0.04492582480928961, ,0.0007176291486098421, ,1.8333333333333333, ,0.8018490362134152, ,0.6171710781412624, ,0.159813065039489
1, ,PASS, ,0.06628939600000001, ,0.010412645494289023, ,0.044971452296279676, ,0.0007035621419781796, ,1.8333333333333333, ,0.801115498955145, ,0.6168445541927716, ,0.139915511928328
2, ,PASS, ,0.06624289199999997, ,0.010461085161505882, ,0.04476657611681395, ,0.0007064460957501187, ,1.9166666666666667, ,0.8054240275701211, ,0.6171914858880431, ,0.15546621497520458
3, ,PASS, ,0.06598947000000002, ,0.010413453794289273, ,0.044852096050692854, ,0.00070109936514682, ,1.9166666666666667, ,0.8070235555209779, ,0.6171914858880431, ,0.15779269810820187
4, ,PASS, ,0.06569925000000003, ,0.010347904199592396, ,0.04473327723883187, ,0.0006929182104159617, ,1.8333333333333333, ,0.8038508124358439, ,0.6173343401155078, ,0.1488949205118263
5, ,PASS, ,0.06559687400000003, ,0.010316852396284664, ,0.04469957463806862, ,0.0006897578715012072, ,1.8333333333333333, ,0.8020526062415855, ,0.6171914858880431, ,0.14791534866635375
6, ,PASS, ,0.065393282, ,0.010331665383932459, ,0.04489144005999878, ,0.0006886051781915441, ,1.8333333333333333, ,0.8057721560346729, ,0.6169261851798943, ,0.15579273892369544
7, ,PASS, ,0.06494060800000002, ,0.010262199328785953, ,0.04490070454256036, ,0.0006793950247772946, ,1.8333333333333333, ,0.8048609150590877, ,0.6169874084202364, ,0.15764984388073713
8, ,PASS, ,0.06491327400000003, ,0.0102012347594086, ,0.044707993945021535, ,0.0006749425764243675, ,1.8333333333333333, ,0.8000342760653418, ,0.6171506703944818, ,0.1593640946103141
9, ,PASS, ,0.06497438000000001, ,0.010240954445718552, ,0.044980946410073275, ,0.0006781936066455343, ,1.8333333333333333, ,0.8021997434063597, ,0.6171098549009204, ,0.15228260647741884
10, ,PASS, ,0.06491788200000002, ,0.010197468539007895, ,0.04501229128283097, ,0.0006746322412565136, ,1.8333333333333333, ,0.7995047770418793, ,0.6170486316605783, ,0.15195608252892798
11, ,PASS, ,0.06478635300000002, ,0.010193979325249933, ,0.04460906091773638, ,0.0006734065932750939, ,1.8333333333333333, ,0.8015786002783061, ,0.617069039407359, ,0.1506499867349646
12, ,PASS, ,0.06450172500000002, ,0.010128113901577439, ,0.044689707410461015, ,0.0006659570369241374, ,1.8333333333333333, ,0.7984130717246158, ,0.6172935246219465, ,0.15862941572620967
13, ,PASS, ,0.06452745200000001, ,0.010136271196134208, ,0.04468335132589132, ,0.000666339685589064, ,1.8333333333333333, ,0.7996279419655798, ,0.613334421746495, ,0.16001714250729576
14, ,PASS, ,0.06441952900000002, ,0.010109826500586646, ,0.04479084736270689, ,0.0006637273411767101, ,1.8333333333333333, ,0.7986868465443739, ,0.6171302626477011, ,0.14789494091957306
15, ,PASS, ,0.06446568800000002, ,0.010063178632801968, ,0.0445179152015265, ,0.0006611957765266921, ,1.8333333333333333, ,0.7943239819422848, ,0.6172731168751658, ,0.15407848819411848
16, ,PASS, ,0.064442792, ,0.010027837942430975, ,0.04463067439297158, ,0.0006584676401400428, ,1.8333333333333333, ,0.7911474851976764, ,0.6172118936348238, ,0.14669088385951307
17, ,PASS, ,0.06428245100000003, ,0.010094081022264991, ,0.04460658880369789, ,0.0006614538622456699, ,1.8333333333333333, ,0.7977231001302733, ,0.6173955633558499, ,0.1564661945674578
18, ,PASS, ,0.06439622600000003, ,0.010069452052337773, ,0.044454643457072306, ,0.0006609424246729168, ,1.8333333333333333, ,0.794340942534088, ,0.6145588865533357, ,0.15032346278647374
19, ,PASS, ,0.065394434, ,0.010155799268414386, ,0.04473516608885534, ,0.0006766892241276686, ,1.8333333333333333, ,0.7892284235422812, ,0.6168241464459909, ,0.13718087385971714
20, ,PASS, ,0.06386753300000002, ,0.010054863724138368, ,0.04440285692802188, ,0.0006541330826577265, ,1.8333333333333333, ,0.798982043171104, ,0.6142731780984062, ,0.1608130446317422
21, ,PASS, ,0.063536822, ,0.010006698866466006, ,0.04439784483622784, ,0.0006480444654113281, ,1.8333333333333333, ,0.8018769476759251, ,0.617007816167017, ,0.15160915083365645
22, ,PASS, ,0.06340060900000001, ,0.00993428882377273, ,0.04444104928858595, ,0.0006420641317987749, ,1.8333333333333333, ,0.7950068287245387, ,0.616946592926675, ,0.15213975224995407
23, ,PASS, ,0.06329494000000002, ,0.009970211781057456, ,0.044388699600416325, ,0.000642934350870041, ,1.8333333333333333, ,0.7977550449798454, ,0.6131303442786882, ,0.14328279014713985
24, ,PASS, ,0.063163454, ,0.00988529586866582, ,0.04446603236933941, ,0.0006363409382462383, ,1.8333333333333333, ,0.7956076838160091, ,0.6168853696863329, ,0.14585416624150527
25, ,PASS, ,0.062819763, ,0.00986663335113617, ,0.04434936888226772, ,0.000631701310912645, ,1.8333333333333333, ,0.8011297045551422, ,0.6172731168751658, ,0.14760923246464358
26, ,PASS, ,0.06236638100000003, ,0.009768071262840308, ,0.044459592042611386, ,0.0006210514252131541, ,1.8333333333333333, ,0.7965369367203681, ,0.6183343197077611, ,0.15679271851594864
27, ,PASS, ,0.06348036100000003, ,0.009944315698078885, ,0.044537302118936355, ,0.0006432846380286724, ,1.8333333333333333, ,0.7947968283845684, ,0.6164976224975001, ,0.14920103671353646
28, ,PASS, ,0.06232888400000002, ,0.009840959989967061, ,0.04417991966919043, ,0.0006248320385985136, ,1.9166666666666667, ,0.7994769306580422, ,0.6096610273259729, ,0.1532417705761107
29, ,PASS, ,0.06157777700000003, ,0.009723997270417794, ,0.0442495928711659, ,0.0006099972749682743, ,1.8333333333333333, ,0.8005948484311071, ,0.6135384992143017, ,0.13785432950347953
30, ,PASS, ,0.061262000000000025, ,0.009640404368991868, ,0.044299407517805756, ,0.0006017989106548105, ,1.8333333333333333, ,0.8021953193892902, ,0.6171506703944818, ,0.15522132201383645
31, ,PASS, ,0.061096672000000005, ,0.009556212078228767, ,0.044600974687659445, ,0.0005951201735571784, ,1.8333333333333333, ,0.8018375680815767, ,0.6210689577763719, ,0.142323626048448
32, ,PASS, ,0.060734089, ,0.00952147195457915, ,0.044141573297279656, ,0.0005896868325450124, ,1.9166666666666667, ,0.7978619857053604, ,0.6163547682700353, ,0.16028244321544458
33, ,PASS, ,0.06068248000000003, ,0.009522983831608458, ,0.04418261449745924, ,0.0005889126235553772, ,1.8333333333333333, ,0.7990172264365992, ,0.616375176016816, ,0.14956837615558866
34, ,PASS, ,0.06043569300000001, ,0.009437266344508442, ,0.04440487551927512, ,0.0005813601540590242, ,1.8333333333333333, ,0.7979691924954806, ,0.6189669598579621, ,0.15752739740005306
35, ,PASS, ,0.060317707, ,0.009513367161648594, ,0.0439687194412359, ,0.0005848845846882418, ,1.9166666666666667, ,0.7971941106591688, ,0.6077835146221505, ,0.1579355523356666
36, ,PASS, ,0.060383058999999975, ,0.009496762081354533, ,0.044461254867247606, ,0.0005842181424892965, ,1.8333333333333333, ,0.806538381660858, ,0.6207832493214425, ,0.15093569518989408
37, ,PASS, ,0.06025315600000004, ,0.009537943402314088, ,0.04439657987734944, ,0.0005853989005481107, ,1.8333333333333333, ,0.8060524164475384, ,0.6168241464459909, ,0.16346605171323034
38, ,PASS, ,0.06039659200000003, ,0.009505008845789824, ,0.044592348469827146, ,0.0005854744847369769, ,1.9166666666666667, ,0.8064391880544437, ,0.6168853696863329, ,0.1422419950613253
39, ,PASS, ,0.060127165, ,0.00947342499975804, ,0.044315569011448744, ,0.0005807936713856324, ,1.9166666666666667, ,0.8052969933731953, ,0.6167833309524295, ,0.1475071937307402
40, ,PASS, ,0.06024647700000002, ,0.009541502524940284, ,0.044253337886777815, ,0.0005867219716556125, ,1.9166666666666667, ,0.8101803946914938, ,0.6171506703944818, ,0.1503642782800351
41, ,PASS, ,0.06078846500000003, ,0.009617505012586368, ,0.043502883456256, ,0.0005955319677297753, ,1.8333333333333333, ,0.7956079151680955, ,0.6082733005448868, ,0.1569355727434134
42, ,PASS, ,0.060697627, ,0.009543212547316552, ,0.04404827163792576, ,0.0005901927835426875, ,1.8333333333333333, ,0.7982218597016425, ,0.616946592926675, ,0.15246627619844494
43, ,PASS, ,0.06077589100000002, ,0.00953432307842598, ,0.04404516575661721, ,0.0005904334175461604, ,1.8333333333333333, ,0.7992088339772487, ,0.6174976020897532, ,0.16213954817248627
44, ,PASS, ,0.06075393700000002, ,0.009527291319172574, ,0.044030178617375154, ,0.0005897135916457882, ,1.8333333333333333, ,0.7968754370487994, ,0.6156609048794922, ,0.14693577682088121
45, ,PASS, ,0.060871287000000024, ,0.009536966364975438, ,0.0441574940603253, ,0.0005913083129858467, ,1.8333333333333333, ,0.7972819185373541, ,0.6164159915103773, ,0.1412216077222914
46, ,PASS, ,0.060811250000000025, ,0.009525194450971176, ,0.04416174639823677, ,0.0005901441649715349, ,1.8333333333333333, ,0.797894900477423, ,0.6171506703944818, ,0.1610987530866717
47, ,PASS, ,0.06104268900000002, ,0.009568583806178263, ,0.044255769496744965, ,0.0005949505983638163, ,1.8333333333333333, ,0.7985103359495681, ,0.6167629232056488, ,0.13295647027611682
48, ,PASS, ,0.060912354, ,0.009548782750198626, ,0.044026851663027285, ,0.0005926159584741144, ,1.8333333333333333, ,0.7987493680662002, ,0.6170282239137976, ,0.1480582028938185
49, ,PASS, ,0.06085296200000001, ,0.009548834485531277, ,0.04417340151670375, ,0.000592009855850887, ,1.8333333333333333, ,0.8004813813217053, ,0.6175588253300953, ,0.15330299381645274
50, ,PASS, ,0.06061403900000002, ,0.009550377923131305, ,0.04403909413971144, ,0.0005894424474605333, ,1.8333333333333333, ,0.8020269065145673, ,0.6167629232056488, ,0.15177241280790188
51, ,PASS, ,0.060422295000000015, ,0.009490650515317691, ,0.04407284014020122, ,0.0005845318727828374, ,1.8333333333333333, ,0.8009718123028458, ,0.6170486316605783, ,0.15107854941735882
52, ,PASS, ,0.06023274400000002, ,0.009438408382577528, ,0.043978020275708664, ,0.0005796240820971433, ,1.9166666666666667, ,0.8002010578313389, ,0.6165996612314034, ,0.1262219138384931
53, ,PASS, ,0.05981822600000002, ,0.00944102705580883, ,0.04399699834085019, ,0.0005756022100166263, ,1.8333333333333333, ,0.8032588761090392, ,0.6169874084202364, ,0.151384665619069
54, ,PASS, ,0.05971825799999999, ,0.009379181922962755, ,0.04438588627905553, ,0.0005704511333537096, ,1.8333333333333333, ,0.8016319320503652, ,0.6191710373257688, ,0.1391604252974429
55, ,PASS, ,0.059683131000000014, ,0.009379585253740292, ,0.04402622847105161, ,0.0005705053644917596, ,1.8333333333333333, ,0.7995432581168143, ,0.6171098549009204, ,0.15058876349462255
56, ,PASS, ,0.05956225300000001, ,0.009458787948566711, ,0.04402816999142875, ,0.0005735270925118456, ,1.8333333333333333, ,0.8061036774923597, ,0.6123548499010224, ,0.124834187057407
57, ,PASS, ,0.05952659000000002, ,0.009355437381988596, ,0.043966197186383955, ,0.0005673867679989716, ,1.8333333333333333, ,0.7997261546343849, ,0.6167629232056488, ,0.1405685598253097
58, ,PASS, ,0.059351161000000006, ,0.009294345708788614, ,0.04386007974653578, ,0.0005619684397264907, ,1.8333333333333333, ,0.7966908669405023, ,0.6169261851798943, ,0.14252770351625477
59, ,PASS, ,0.059743572000000016, ,0.00931847311672201, ,0.044148925340707336, ,0.0005675420888938867, ,1.8333333333333333, ,0.7978896565758162, ,0.6199669394502153, ,0.1352013224219914
60, ,PASS, ,0.07750567372, ,0.011879433579217363, ,0.04498790728781045, ,0.000937083774066134, ,1.8333333333333333, ,0.7704124051505089, ,0.6095998040856309, ,0.12748719413889512
61, ,PASS, ,0.1400800599999999, ,0.021340321767109937, ,0.04821241045652127, ,0.0030478765388076683, ,1.75, ,0.8045378844535012, ,0.6329870818962878, ,0.32715658864104813
62, ,PASS, ,0.06112512200000001, ,0.009735463371756863, ,0.04439944503867268, ,0.0006062642658074006, ,1.9166666666666667, ,0.818879433328265, ,0.6195791922613825, ,0.138078814718067
63, ,PASS, ,0.0584925, ,0.00935459411119778, ,0.044071382909532456, ,0.0005576905179461742, ,2.0, ,0.8160675039686774, ,0.617007816167017, ,0.1486092120568968
64, ,PASS, ,0.058393242, ,0.009327617683358458, ,0.0441298391151201, ,0.0005551915912518568, ,2.0, ,0.8144797693068407, ,0.6169261851798943, ,0.15105814167057816
65, ,PASS, ,0.058607331000000006, ,0.009278539232132567, ,0.044022769658782476, ,0.0005544728823305213, ,1.9166666666666667, ,0.8107642169939071, ,0.6204975408665129, ,0.1420583253402992
66, ,PASS, ,0.058523636000000004, ,0.00930503967722678, ,0.04404743638803289, ,0.0005552575552122289, ,1.9166666666666667, ,0.811247507436191, ,0.6191302218322076, ,0.15256831493234832
67, ,PASS, ,0.058808966000000004, ,0.009374210903500648, ,0.04424821360319177, ,0.0005623974725833868, ,1.9166666666666667, ,0.814635186821161, ,0.6167629232056488, ,0.14293585845186832
68, ,PASS, ,0.05883649099999998, ,0.009295703811742977, ,0.04400028217015979, ,0.0005576069098712345, ,1.8333333333333333, ,0.8065931657976049, ,0.618150649986735, ,0.13956858023305646
69, ,PASS, ,0.05891162200000002, ,0.009476800980610099, ,0.043716208540642024, ,0.0005689121052905156, ,2.0, ,0.8088781753790221, ,0.6084161547723516, ,0.15569070018979206
70, ,PASS, ,0.059073302999999994, ,0.009389188017917107, ,0.04376271180792228, ,0.0005652935793915825, ,1.8333333333333333, ,0.8083193953579064, ,0.6167425154588682, ,0.15091528744311342
71, ,PASS, ,0.059019437000000015, ,0.009375954495963438, ,0.0439654714473174, ,0.0005639958778170983, ,1.8333333333333333, ,0.807360206812756, ,0.6170894471541397, ,0.1505683557478419
72, ,PASS, ,0.059044369, ,0.009314482787381867, ,0.04413544711903839, ,0.0005609539517680713, ,1.9166666666666667, ,0.8094077523978402, ,0.6215587436991081, ,0.15540499173486255
73, ,PASS, ,0.059018867, ,0.009313467856602305, ,0.04445299534968673, ,0.0005607157875946094, ,1.9166666666666667, ,0.8093388626121601, ,0.6247015367033326, ,0.14734393175649477
74, ,PASS, ,0.05890460100000001, ,0.009308809071771423, ,0.0439331503659109, ,0.0005587928966263335, ,1.8333333333333333, ,0.8052277500392658, ,0.616946592926675, ,0.1378747372502602
75, ,PASS, ,0.05840521500000001, ,0.009284473683938525, ,0.04395623055060101, ,0.0005527456991157734, ,1.8333333333333333, ,0.8075469347543411, ,0.6169057774331136, ,0.14354809085528866
76, ,PASS, ,0.05816056899999998, ,0.009231010982609878, ,0.044065069783269725, ,0.0005473143952549546, ,1.8333333333333333, ,0.8114213677547688, ,0.6189261443644007, ,0.15985388053305036
77, ,PASS, ,0.058143612999999976, ,0.009217719859486962, ,0.043986395854574395, ,0.0005462717555367276, ,1.9166666666666667, ,0.8090989861828081, ,0.6172118936348238, ,0.14842554233587069
78, ,PASS, ,0.057634397999999996, ,0.00922043469416855, ,0.04410315343156261, ,0.000541804080118695, ,1.9166666666666667, ,0.8151931173425061, ,0.6165384379910614, ,0.14450725495398054
79, ,PASS, ,0.057557423999999975, ,0.008989422064046943, ,0.044202953585232956, ,0.0005282306919616553, ,1.9166666666666667, ,0.8114871210099047, ,0.6267014958878391, ,0.14567049652047917
80, ,PASS, ,0.05745600499999996, ,0.009162034538488078, ,0.04376030436338034, ,0.0005367011357532105, ,1.8333333333333333, ,0.8093059558067093, ,0.6156200893859309, ,0.16432317707801883
81, ,PASS, ,0.058776308000000006, ,0.009323066914890637, ,0.04398680744923573, ,0.0005585199928802273, ,1.8333333333333333, ,0.8081770199193348, ,0.617456786596192, ,0.1585273769923063
82, ,PASS, ,0.057997898, ,0.009192498151497313, ,0.043814996590681825, ,0.0005436063088696156, ,1.8333333333333333, ,0.8070434089494881, ,0.6171914858880431, ,0.15052754025428053
83, ,PASS, ,0.05768342099999998, ,0.009205630184683006, ,0.043902460295504174, ,0.0005413688674207006, ,1.9166666666666667, ,0.8152871508504397, ,0.6170894471541397, ,0.1589559396747005
84, ,PASS, ,0.05765092199999998, ,0.009191228293941353, ,0.04377282646354155, ,0.0005402215763512472, ,1.9166666666666667, ,0.8129117455576315, ,0.6167629232056488, ,0.1439766535376829
85, ,PASS, ,0.05762712699999996, ,0.009191414465725002, ,0.04362215707475357, ,0.0005398671500364436, ,2.0, ,0.8140374541020834, ,0.6172118936348238, ,0.15899675516826187
86, ,PASS, ,0.057616195999999995, ,0.009185155213522323, ,0.0439543601077529, ,0.0005395441359726256, ,2.0, ,0.8114949060740294, ,0.6169261851798943, ,0.14695618456766188
87, ,PASS, ,0.05793369799999999, ,0.00917193292203726, ,0.04386209923572988, ,0.0005416828001740012, ,1.8333333333333333, ,0.8053743603098086, ,0.6171710781412624, ,0.14187465561927307
88, ,PASS, ,0.05827684, ,0.009166749155142519, ,0.043591521155078465, ,0.0005451096145974524, ,1.9166666666666667, ,0.800281140480165, ,0.6154976429052468, ,0.11695679680006531
89, ,PASS, ,0.059324510000000025, ,0.009398073089463388, ,0.04409373504397869, ,0.0005683008537036157, ,1.8333333333333333, ,0.8061040169164323, ,0.6168037386992102, ,0.14373176057631476
90, ,PASS, ,0.059029939999999996, ,0.00928469690992429, ,0.04424410299871431, ,0.0005591732271101666, ,1.9166666666666667, ,0.8067261204738351, ,0.6225995387849228, ,0.1449970408767168
91, ,PASS, ,0.058236508000000006, ,0.009249425182072203, ,0.04382590634517662, ,0.0005490643134786095, ,2.0, ,0.8085324831255045, ,0.6163955837635967, ,0.1383237076794351
92, ,PASS, ,0.057917266999999974, ,0.009188590455124076, ,0.04359720435378869, ,0.0005424125789742348, ,1.8333333333333333, ,0.8077355011008555, ,0.6171914858880431, ,0.15993551152017305
93, ,PASS, ,0.05775343599999998, ,0.009173117532283979, ,0.04370354766290484, ,0.0005400082702210718, ,1.8333333333333333, ,0.8073853805029265, ,0.6168037386992102, ,0.14279300422440358
94, ,PASS, ,0.057650047999999995, ,0.009195776156062934, ,0.0438499624934185, ,0.0005403326502791143, ,2.0, ,0.8115512733392025, ,0.6166812922185262, ,0.14544601130589171
95, ,PASS, ,0.05780996799999999, ,0.009190716053141038, ,0.04372603257545764, ,0.0005416824549451617, ,2.0, ,0.8102769744345137, ,0.6165996612314034, ,0.1503846860268158
96, ,PASS, ,0.05771934699999998, ,0.009162453451496766, ,0.043679171137527804, ,0.0005389878253350727, ,1.8333333333333333, ,0.8064849563865907, ,0.6170282239137976, ,0.1553845839880819
97, ,PASS, ,0.05756910899999999, ,0.00913984638404303, ,0.043847265159282466, ,0.0005368103539987776, ,1.9166666666666667, ,0.8084261034167534, ,0.616946592926675, ,0.14989490010407952
98, ,PASS, ,0.057265757999999965, ,0.009112193804508836, ,0.043670975115609884, ,0.0005319535296527808, ,2.0, ,0.8096737827145767, ,0.6165792534846227, ,0.15381318748596967
99, ,PASS, ,0.05718476399999998, ,0.009040636289138572, ,0.04379089688720638, ,0.0005270638518606912, ,1.8333333333333333, ,0.8025529855068816, ,0.6168853696863329, ,0.14809901838737985
100, ,PASS, ,0.056994695, ,0.00902639660600372, ,0.04359201812085468, ,0.0005243729471922484, ,1.8333333333333333, ,0.8049924565672285, ,0.6169057774331136, ,0.14801738740025713
101, ,PASS, ,0.056907781999999976, ,0.009055194846076793, ,0.04369594874655619, ,0.0005251001984000627, ,1.8333333333333333, ,0.8102028857975963, ,0.6169874084202364, ,0.15360911001816288
102, ,PASS, ,0.056591511999999976, ,0.008984820377831642, ,0.043681909051447934, ,0.0005181099634418224, ,1.8333333333333333, ,0.8092927642807032, ,0.616946592926675, ,0.15111936491092018
103, ,PASS, ,0.056609924000000006, ,0.008985850103938244, ,0.043541147523928084, ,0.0005185319771223777, ,1.8333333333333333, ,0.8053385964417208, ,0.6162935450296932, ,0.14099712250770394
104, ,PASS, ,0.056686250999999986, ,0.008950200216456327, ,0.043635771310381426, ,0.0005172985244060986, ,1.8333333333333333, ,0.8031851961355172, ,0.6167629232056488, ,0.13275239280831003
105, ,PASS, ,0.056406369, ,0.00903787160757436, ,0.043725478267994534, ,0.0005192904567084934, ,1.8333333333333333, ,0.8152537901041932, ,0.6167425154588682, ,0.15448664312973204
106, ,PASS, ,0.05647264200000002, ,0.008963757447140851, ,0.04317202710373258, ,0.0005159361888546296, ,1.9166666666666667, ,0.8061824218415571, ,0.6110895696006204, ,0.1521193445031734
107, ,PASS, ,0.056257367, ,0.008934404065257936, ,0.04348766937940042, ,0.0005126966230415819, ,1.9166666666666667, ,0.8071617941308956, ,0.6170282239137976, ,0.14669088385951307
108, ,PASS, ,0.05584081499999999, ,0.008852260693981337, ,0.043475892819534304, ,0.0005038713973506, ,1.8333333333333333, ,0.8073805260540072, ,0.6169874084202364, ,0.15301728536152323
109, ,PASS, ,0.051083069999999994, ,0.007961281610955592, ,0.0431442951907104, ,0.0004148809530460121, ,1.9166666666666667, ,0.8122088881445478, ,0.6169057774331136, ,0.11675271933225853
