Channel, ,Pass/Fail, ,Amplitude, ,Sorting Function Response, ,Mean, ,Variance, ,NPeaksRatio, ,PosIntegralRatio, ,ToT50, ,ToT99
53, ,PASS, ,0.015474149999999996, ,0.0019634167993540083, ,0.028120474218485337, ,3.08411901264876e-05, ,2.0, ,0.6495513138098752, ,0.46233750331625884, ,0.04850921409767148
54, ,PASS, ,0.020151780000000008, ,0.002435190024790191, ,0.028049617647190873, ,4.985010594203738e-05, ,1.9166666666666667, ,0.6228684797230034, ,0.4618477173935226, ,0.0508969204710108
55, ,PASS, ,0.014983550000000002, ,0.0018710476296444432, ,0.02828546156262117, ,2.8422978753418665e-05, ,1.9166666666666667, ,0.6490962910860623, ,0.46327625966817004, ,0.04067263933389115
56, ,PASS, ,0.01739985, ,0.002668556716852867, ,0.028403991089365522, ,4.704790755223103e-05, ,1.75, ,0.7501199946484728, ,0.4707250872431175, ,0.059651843839921635
57, ,PASS, ,0.024420439999999995, ,0.0036653441663124986, ,0.028263435647639844, ,9.057060474553454e-05, ,1.75, ,0.7357093004461799, ,0.47196995979673884, ,0.058876349462255874
58, ,PASS, ,0.01638001, ,0.0025627265453021667, ,0.02820646296585784, ,4.250431962926233e-05, ,1.75, ,0.7545784026121882, ,0.46911287524744394, ,0.05457031489153283
59, ,PASS, ,0.01701641, ,0.0025670637459904284, ,0.028404769693271565, ,4.4253227708902195e-05, ,1.8333333333333333, ,0.7491257524478278, ,0.4689496132731985, ,0.0450603048917369
60, ,PASS, ,0.024800439999999997, ,0.0036789511159810344, ,0.028328902001387726, ,9.243521718751689e-05, ,1.75, ,0.7311740912031924, ,0.46948021468949613, ,0.057651884655415195
61, ,PASS, ,0.016669339999999994, ,0.0026114134168992763, ,0.028621504150119388, ,4.414061412157088e-05, ,1.8333333333333333, ,0.7592516754709692, ,0.46913328299422463, ,0.06832513622170976
62, ,PASS, ,0.017527809999999987, ,0.0028800128541164845, ,0.028489690513050756, ,5.1038318378771394e-05, ,1.75, ,0.7801400818838407, ,0.47178629007571277, ,0.08020244484806432
63, ,PASS, ,0.02689044000000001, ,0.004266493796039926, ,0.02827044042958307, ,0.00011611944168856306, ,1.75, ,0.761245884920283, ,0.4739291034876839, ,0.06128446358237587
64, ,PASS, ,0.019236259999999995, ,0.003173297473474702, ,0.02861492348421461, ,6.17312703814988e-05, ,1.75, ,0.7810512392908814, ,0.4735209485520704, ,0.06128446358237587
65, ,PASS, ,0.01986988000000002, ,0.0032095882058986195, ,0.028549263194220527, ,6.454160033603317e-05, ,1.75, ,0.7710356744715208, ,0.4708883492173629, ,0.06744760311014061
66, ,PASS, ,0.029443450000000003, ,0.0046247169266950645, ,0.028337719301238753, ,0.00013767189969250866, ,1.75, ,0.7550986256263853, ,0.4744392971572009, ,0.06630476929042264
67, ,PASS, ,0.02147113, ,0.0034992948527343675, ,0.02851623689455317, ,7.600505994122999e-05, ,1.75, ,0.7794016473813598, ,0.47415358870227137, ,0.08575335197240873
68, ,PASS, ,0.02197526999999999, ,0.0038552884734404497, ,0.02862672996244975, ,8.563256903135195e-05, ,1.75, ,0.8154364082976473, ,0.4822146486806392, ,0.12230362645660292
69, ,PASS, ,0.032356939999999994, ,0.00553868526220086, ,0.0285570204093794, ,0.00018119477290449317, ,1.75, ,0.8028113464688214, ,0.48231668741454253, ,0.10695700087753311
70, ,PASS, ,0.023992050000000008, ,0.004156997233080658, ,0.028677018575131122, ,0.00010082133289324524, ,1.75, ,0.8097781719404282, ,0.48170445501112225, ,0.10632436072733209
