Channel, ,Pass/Fail, ,Amplitude, ,Sorting Function Response, ,Mean, ,Variance, ,NPeaksRatio, ,PosIntegralRatio, ,ToT50, ,ToT99
54, ,PASS, ,0.028125210000000008, ,0.004273733892750783, ,0.04312480347482704, ,0.0001208401547523013, ,2.0, ,0.7545963992055569, ,0.5420909777351482, ,0.04838676761698741
55, ,PASS, ,0.04964372000000001, ,0.006654975819601527, ,0.044193403584416646, ,0.0003313221246681296, ,2.0, ,0.6884067604123087, ,0.5422950552029551, ,0.04767249647966368
56, ,PASS, ,0.061544619999999994, ,0.008136065393075273, ,0.04441240290973653, ,0.0005019872215615951, ,2.0, ,0.6833290553093533, ,0.5448460235505398, ,0.04481541193036877
57, ,PASS, ,0.058642479999999976, ,0.007383495620829663, ,0.04409985552070366, ,0.00043348263808199334, ,2.0, ,0.6558885141300816, ,0.5425807636578845, ,0.046509254913165037
58, ,PASS, ,0.04554928000000001, ,0.0063340820292024005, ,0.043807294686026815, ,0.00028935129678587856, ,2.0, ,0.7099654836104258, ,0.5443358298810228, ,0.052754025428052485
59, ,PASS, ,0.021953980000000026, ,0.0033668568797960174, ,0.04397454269076141, ,7.438860564414324e-05, ,2.0, ,0.7672805727577294, ,0.5449684700312238, ,0.054713169118997575
60, ,PASS, ,0.023952649999999985, ,0.0028099228766885606, ,0.04208564786330891, ,6.746524851404133e-05, ,1.75, ,0.6073992465353103, ,0.5349686741086916, ,0.03810126323952572
61, ,PASS, ,0.046993939999999984, ,0.005893008643907662, ,0.042670747276790266, ,0.00027734373341706074, ,2.0, ,0.6468615096695266, ,0.5396828636150283, ,0.04659088590028775
62, ,PASS, ,0.057633850000000014, ,0.0072611588487344345, ,0.04374895165608865, ,0.00041895589338281064, ,2.0, ,0.6577218236084171, ,0.5431317728209628, ,0.04991734862553825
63, ,PASS, ,0.05596441999999999, ,0.0071971634722535725, ,0.04287793234811534, ,0.0004035143656926122, ,2.0, ,0.6695731164540928, ,0.5447848003101977, ,0.0450603048917369
64, ,PASS, ,0.04096672, ,0.005461650454322929, ,0.042625224068080246, ,0.00022421376652057424, ,2.0, ,0.6861893869351913, ,0.5429685108467174, ,0.05038672680149385
65, ,PASS, ,0.017882110000000007, ,0.002321821811830367, ,0.041771362907695765, ,4.16405641734367e-05, ,1.9166666666666667, ,0.6660220111006049, ,0.5373971959755923, ,0.042550152037713514
66, ,PASS, ,0.023173750000000007, ,0.0033148468743563588, ,0.041447084558070245, ,7.720138591351823e-05, ,2.0, ,0.7248886706771976, ,0.5402950960184486, ,0.05324381135078876
67, ,PASS, ,0.04669387000000001, ,0.006242551087258445, ,0.04332975698924511, ,0.0002923282734849662, ,2.0, ,0.6871008181622987, ,0.5420909777351482, ,0.04889696128650436
68, ,PASS, ,0.05729516999999999, ,0.007389007901678878, ,0.04315099442909328, ,0.00042393521208794504, ,2.0, ,0.6689976706999724, ,0.5439888981857514, ,0.048937776780065716
69, ,PASS, ,0.055392569999999995, ,0.007175041564565622, ,0.04297769188628803, ,0.0003980321413867272, ,2.0, ,0.6729512935063457, ,0.5447848003101977, ,0.0462643619517969
70, ,PASS, ,0.040547659999999985, ,0.005363083050918954, ,0.04212645186424767, ,0.00021794820784880466, ,2.0, ,0.682323453500651, ,0.5431317728209628, ,0.049447970449582664
71, ,PASS, ,0.01916949999999997, ,0.002483763410773777, ,0.042493353341972614, ,4.7758806622335426e-05, ,2.0, ,0.668115365001548, ,0.5389277769841432, ,0.043182792187914536
72, ,PASS, ,0.02156941000000001, ,0.002878347404865696, ,0.041625008101059166, ,6.230782432302547e-05, ,2.0, ,0.6794714255387271, ,0.5373359727352504, ,0.05169282259545724
73, ,PASS, ,0.044576090000000006, ,0.006136534770605459, ,0.042206090919368985, ,0.0002742155225345808, ,2.0, ,0.7008510005329774, ,0.5431521805677435, ,0.05303973388298198
74, ,PASS, ,0.05605332000000003, ,0.007785178536091587, ,0.04243302639640008, ,0.0004377470059191666, ,1.9166666666666667, ,0.7114841471390536, ,0.548315340503255, ,0.04955000918348605
75, ,PASS, ,0.05521251, ,0.007461801833698445, ,0.04379632727168833, ,0.0004130277574927669, ,1.9166666666666667, ,0.6987827593138091, ,0.5477235158466154, ,0.048692883818697574
76, ,PASS, ,0.04036134000000001, ,0.005443007315240146, ,0.042510984836840064, ,0.00022016077919994153, ,2.0, ,0.6931430515647691, ,0.544070529172874, ,0.05120303667272096
77, ,PASS, ,0.018118470000000032, ,0.0024238009319984322, ,0.04165036228627988, ,4.3968487739344826e-05, ,2.0, ,0.6809561746960422, ,0.5394991938940021, ,0.041631803432583006
78, ,PASS, ,0.01948184000000002, ,0.002524406934146937, ,0.04082613890634885, ,4.93799604297329e-05, ,1.9166666666666667, ,0.6645513626084354, ,0.5365604783575846, ,0.04379502459133487
79, ,PASS, ,0.043531949999999986, ,0.005744677401882659, ,0.042906257445970486, ,0.00025062976958369613, ,2.0, ,0.6764728020008625, ,0.5412134446235791, ,0.045264382359543685
80, ,PASS, ,0.05638941999999998, ,0.007613970761815568, ,0.043925343794616434, ,0.0004303703625239286, ,1.9166666666666667, ,0.6986635295669038, ,0.547111283443195, ,0.04955000918348605
81, ,PASS, ,0.05570411999999999, ,0.007562040819338364, ,0.04416360139588988, ,0.0004223779111037742, ,1.9166666666666667, ,0.7020757740829149, ,0.5484173792371584, ,0.05171323034223791
82, ,PASS, ,0.03929202999999998, ,0.005492059996229035, ,0.04368361060427338, ,0.00021629866991979156, ,1.9166666666666667, ,0.7115226938413124, ,0.5449480622844431, ,0.04828472888308402
83, ,PASS, ,0.01623325000000002, ,0.0022621057747114377, ,0.04190743337319646, ,3.678479720336008e-05, ,2.0, ,0.7014318969491428, ,0.5395808248811249, ,0.04393787881879962
84, ,PASS, ,0.027025270000000004, ,0.004011661353656284, ,0.04317250278259627, ,0.00010882495647449817, ,2.0, ,0.7403756830264073, ,0.5413767065978246, ,0.05691720577131079
85, ,PASS, ,0.052641400000000005, ,0.007920927410667496, ,0.044639600432236075, ,0.0004188441476888337, ,1.8333333333333333, ,0.756138112526979, ,0.5500091834860513, ,0.06038652272402604
86, ,PASS, ,0.06212954999999999, ,0.009017547995734985, ,0.045644055687843105, ,0.0005626687179078802, ,1.8333333333333333, ,0.7410992286109813, ,0.5529274912756883, ,0.058386563539519605
87, ,PASS, ,0.05942361000000002, ,0.008653765765910088, ,0.044611468387992084, ,0.0005165792037975674, ,1.8333333333333333, ,0.7411704189347138, ,0.5536213546662313, ,0.06001918328197384
88, ,PASS, ,0.04488529000000002, ,0.006559568646341363, ,0.044412139073692375, ,0.00029564487950720965, ,1.8333333333333333, ,0.7407504773790464, ,0.5491316503744822, ,0.0642231791187935
89, ,PASS, ,0.02146277, ,0.0032137560467297337, ,0.04341638155180507, ,6.928650713588705e-05, ,1.9166666666666667, ,0.7549501612532488, ,0.5477643313401768, ,0.057202914226240284
90, ,PASS, ,0.02362866999999999, ,0.00343825395636836, ,0.042728282039142064, ,8.153837214763063e-05, ,2.0, ,0.7278618329279265, ,0.5408052896879656, ,0.057162098732678926
91, ,PASS, ,0.05032765999999998, ,0.007265656272679475, ,0.04491342896614355, ,0.0003670625042771729, ,1.9166666666666667, ,0.733267155509803, ,0.547682700353054, ,0.055998857166180284
92, ,PASS, ,0.06367446600000004, ,0.009530750426010452, ,0.04585572560274281, ,0.0006104986037920523, ,1.75, ,0.7585150742466568, ,0.5569274096447011, ,0.0597742903206057
93, ,PASS, ,0.06046846, ,0.009023705898649764, ,0.04542407642190976, ,0.0005489859335449029, ,1.75, ,0.7581956278980936, ,0.5575600497949021, ,0.06287626783126875
94, ,PASS, ,0.04468102000000001, ,0.006709821480614539, ,0.04398947858227383, ,0.00030151594071396194, ,1.8333333333333333, ,0.7563377986977478, ,0.5533764617048632, ,0.06324360727332096
95, ,PASS, ,0.019966889999999966, ,0.0029699895766809384, ,0.04365071703904003, ,5.9543202228297634e-05, ,1.9166666666666667, ,0.7480355530639795, ,0.5471520989367564, ,0.0582028938184935
96, ,PASS, ,0.02235192999999998, ,0.0033591624562183953, ,0.04309185263708904, ,7.550962563016539e-05, ,2.0, ,0.7509144220319358, ,0.5428868798595947, ,0.058366155792738926
97, ,PASS, ,0.05009643000000001, ,0.007744862788118196, ,0.04464028348319422, ,0.00039018873121531234, ,1.8333333333333333, ,0.7705254077515925, ,0.5508050856104978, ,0.06148854105018265
98, ,PASS, ,0.063272149, ,0.009751289360960903, ,0.04522668536703332, ,0.0006211172882878933, ,1.75, ,0.7733805607899795, ,0.5587436991081814, ,0.06559049815309892
99, ,PASS, ,0.05997858, ,0.009001940760266072, ,0.04617862165629273, ,0.0005434159003019069, ,1.75, ,0.7596210550246494, ,0.5574580110609988, ,0.063937470663864
100, ,PASS, ,0.04520383000000002, ,0.007035185403089933, ,0.04460480056345789, ,0.00032023505557549764, ,1.75, ,0.7788243483842068, ,0.5570294483786045, ,0.0718964919083284
101, ,PASS, ,0.020966979999999996, ,0.003339481602529153, ,0.043238743753188716, ,7.046632258266539e-05, ,1.8333333333333333, ,0.7928591886615336, ,0.5540499173486255, ,0.09591640986918634
102, ,PASS, ,0.020296649999999986, ,0.003090667036875958, ,0.04224750793269526, ,6.309467615194192e-05, ,2.0, ,0.7588754212348889, ,0.5437031897308218, ,0.0538560437542091
103, ,PASS, ,0.04569581999999997, ,0.00710575385169586, ,0.0446564236835983, ,0.0003262596221982222, ,1.8333333333333333, ,0.770787530018582, ,0.5505397849023489, ,0.049835717638415544
104, ,PASS, ,0.058457080000000015, ,0.009045422308321716, ,0.04658057385665598, ,0.0005324317078587097, ,1.75, ,0.7766073825274703, ,0.5589069610824269, ,0.0753249933674823
105, ,PASS, ,0.05784598000000002, ,0.008956263795604857, ,0.04635827981020795, ,0.0005224807193128386, ,1.75, ,0.7772651641568784, ,0.5627844329707556, ,0.0728148405134589
106, ,PASS, ,0.04328076000000003, ,0.006759226228323046, ,0.04578762493581763, ,0.00029502340262888493, ,1.75, ,0.7801794001059019, ,0.5600906103957062, ,0.07334544192975653
107, ,PASS, ,0.02085892999999999, ,0.0032563070653062586, ,0.04382057362910961, ,6.845028372125998e-05, ,1.75, ,0.777818783083982, ,0.5577029040223669, ,0.06654966225179078
108, ,PASS, ,0.01866358999999998, ,0.002910507915341085, ,0.04301858081590172, ,5.454387877666332e-05, ,2.0, ,0.7675235760759378, ,0.543560335503357, ,0.053958082488112485
109, ,PASS, ,0.04436915000000004, ,0.006966536911658415, ,0.044743400218566966, ,0.000311020426934727, ,1.8333333333333333, ,0.7792374959088829, ,0.5526009673271974, ,0.06234566641497112
110, ,PASS, ,0.05711231, ,0.008822584500208262, ,0.04616940598416359, ,0.0005073404611454076, ,1.75, ,0.7757582604897053, ,0.5603355033570744, ,0.06648843901144874
111, ,PASS, ,0.056713420000000014, ,0.008742812245283314, ,0.046642075779065734, ,0.0004996538561624188, ,1.75, ,0.7762574188123025, ,0.5636211505887635, ,0.08681455480500398
112, ,PASS, ,0.042140709999999984, ,0.006635753839934886, ,0.04521262362788514, ,0.0002818459414325304, ,1.75, ,0.7858986998385528, ,0.5617232301381605, ,0.09061039570621007
113, ,PASS, ,0.01955717, ,0.003021195829324812, ,0.04427185136956389, ,5.9551133011708506e-05, ,1.75, ,0.770629791640247, ,0.5560090610395706, ,0.057243729719801635
114, ,PASS, ,0.016868710000000016, ,0.002058436585087835, ,0.04334778292585866, ,3.4795407096615466e-05, ,1.9166666666666667, ,0.6286939706986346, ,0.5360298769412869, ,0.04142772596477623
115, ,PASS, ,0.039855030000000014, ,0.0051523299987389, ,0.04428994253974409, ,0.00020589741573934174, ,2.0, ,0.6661972016998339, ,0.542356278443297, ,0.04883573804616232
116, ,PASS, ,0.05034885, ,0.0066013203093427545, ,0.04406697176180078, ,0.0003330240449650096, ,1.9166666666666667, ,0.6832927183143401, ,0.5475806616191506, ,0.04669292463419114
117, ,PASS, ,0.04929752999999999, ,0.006977743326145003, ,0.04527443280524887, ,0.00034533924757285345, ,1.75, ,0.7265275284632287, ,0.5542948103099937, ,0.05777433113609926
118, ,PASS, ,0.03581224, ,0.005183697886543723, ,0.04453756490643048, ,0.0001864043845537446, ,1.8333333333333333, ,0.7407531688003365, ,0.5533764617048632, ,0.055998857166180284
119, ,PASS, ,0.014881580000000012, ,0.002023407562951249, ,0.04400101096549051, ,3.0241492734448167e-05, ,1.8333333333333333, ,0.7074407300215829, ,0.5486418644517459, ,0.04220322034244199
198, ,FAIL, ,0.026469219999999988, ,0.0024116803407089843, ,0.041141207830860595, ,6.415686648294568e-05, ,1.4166666666666667, ,0.4705012767455456, ,0.5272545458255954, ,0.0284075835187037
199, ,PASS, ,0.02342143, ,0.0029318137624888413, ,0.04306435405706006, ,7.432623903221484e-05, ,1.8333333333333333, ,0.7669859184795927, ,0.5293565437440052, ,0.0017958817166996593
200, ,PASS, ,0.02427172999999996, ,0.0034798526609338297, ,0.042619049751637716, ,8.957527985442992e-05, ,1.9166666666666667, ,0.7916262248752084, ,0.531397318422073, ,0.024877043325646414
201, ,PASS, ,0.038048729999999996, ,0.006072366024693269, ,0.042942612610763056, ,0.00023973893286417341, ,2.0, ,0.8335729472829998, ,0.5358053917266995, ,0.028815738454317258
202, ,PASS, ,0.04055621999999999, ,0.0060526267892343725, ,0.04337031423052592, ,0.00025415741521691453, ,2.0, ,0.8124656961239304, ,0.5364788473704618, ,0.029448378604518276
203, ,PASS, ,0.05412418, ,0.008639100035858712, ,0.042644281417522086, ,0.0004796667715518214, ,2.0, ,0.8371379197825585, ,0.5394991938940021, ,0.03148915328258607
204, ,PASS, ,0.09888050999999999, ,0.017758413518233963, ,0.045909584568070046, ,0.0017865316751650255, ,2.0, ,0.8466603148747855, ,0.5442133834003388, ,0.03883594212363013
205, ,PASS, ,0.099901, ,0.020704822128610603, ,0.047762121270790395, ,0.0021064535633568172, ,2.0, ,0.9315581603130747, ,0.5452949939797147, ,0.2433623803595845
206, ,PASS, ,0.099901, ,0.019189717611706753, ,0.04767130956204977, ,0.001950041187562385, ,2.0, ,0.8948096005810852, ,0.5458051876492317, ,0.13477275973959715
207, ,PASS, ,0.099901, ,0.022402547884912256, ,0.047860522620354694, ,0.0022859056255064114, ,2.0, ,0.9589961920469526, ,0.5514785412542601, ,0.49711230383053406
208, ,PASS, ,0.09225391, ,0.014635582771107979, ,0.04431992292606273, ,0.001374117352834268, ,1.9166666666666667, ,0.8366714880260442, ,0.5447439848166364, ,0.030509581437113527
209, ,PASS, ,0.09043699999999995, ,0.01396565929790473, ,0.04393353079306545, ,0.0012869935857298608, ,1.9166666666666667, ,0.8408600354563426, ,0.5446623538295137, ,0.03387685965592539
210, ,PASS, ,0.080546837, ,0.011214178229240715, ,0.04355815503459195, ,0.0009248781282867602, ,1.9166666666666667, ,0.8336730354309864, ,0.5446011305891717, ,0.032203424419909796
211, ,PASS, ,0.09589305000000002, ,0.0161144718037727, ,0.04462276716638436, ,0.00157669843287966, ,2.0, ,0.8313526726456616, ,0.5416828227995347, ,0.03157078426970878
212, ,PASS, ,0.09983894000000003, ,0.017327502585294686, ,0.04617822862594641, ,0.0017645810285892706, ,2.0, ,0.8326839294416835, ,0.541601191812412, ,0.03728495336829861
213, ,PASS, ,0.099901, ,0.0206971818720711, ,0.048142329517764954, ,0.002110789513174645, ,2.0, ,0.942810925884229, ,0.5436827819840412, ,0.3104426440276729
214, ,PASS, ,0.099901, ,0.01993952025802026, ,0.048270789440419584, ,0.0020309305987107514, ,2.0, ,0.9263744709865164, ,0.5444990918552682, ,0.20726107630456522
215, ,PASS, ,0.099901, ,0.022597751095610172, ,0.047937537119650625, ,0.0023052524276879227, ,2.0, ,0.9610325495692527, ,0.5539886941082836, ,0.5015816003755026
216, ,PASS, ,0.099901, ,0.021108987723431723, ,0.04883755712985449, ,0.0021536731035855998, ,2.0, ,0.9605520758579286, ,0.5463357890655293, ,0.49611232423828083
217, ,PASS, ,0.099901, ,0.0219341022644112, ,0.04795361179241239, ,0.0022405790600464608, ,2.0, ,0.9616343984461037, ,0.5465194587865554, ,0.4971735270708761
218, ,PASS, ,0.099901, ,0.022379700074915725, ,0.047740824553376464, ,0.002286618360090331, ,2.0, ,0.9613793933864448, ,0.5495398053100957, ,0.49888777780045307
219, ,PASS, ,0.099901, ,0.021260600222675296, ,0.04862444321585274, ,0.002171074655767073, ,2.0, ,0.9614302410112259, ,0.5457235566621089, ,0.4968674108691659
220, ,PASS, ,0.0720643011, ,0.00978712718501129, ,0.04317374810181425, ,0.0007295940869466379, ,1.8333333333333333, ,0.8314496172178832, ,0.5415195608252893, ,0.02650966306810065
221, ,PASS, ,0.084129517, ,0.011729566490704701, ,0.04327095630919369, ,0.0010148684194223967, ,1.9166666666666667, ,0.8396291186785365, ,0.5435399277565764, ,0.027142303218301668
222, ,PASS, ,0.06981160900000002, ,0.009581204364060797, ,0.04354890971747515, ,0.0006940119299035262, ,1.8333333333333333, ,0.8316311773275283, ,0.5401522417909839, ,0.025264790514479295
223, ,PASS, ,0.09243074000000001, ,0.015285628102201864, ,0.04394146434440114, ,0.0014432776487632957, ,2.0, ,0.8503924943783983, ,0.5424583171772005, ,0.032999326544356236
224, ,PASS, ,0.07656816545999999, ,0.01175838405061533, ,0.043931023478194324, ,0.0009251014764182142, ,2.0, ,0.8433073779612609, ,0.5413562988510439, ,0.028958592681782004
225, ,PASS, ,0.05176216, ,0.00738449234933581, ,0.04337931622048529, ,0.0003994673321925921, ,1.9166666666666667, ,0.8199751187937687, ,0.5362339544090937, ,0.023958694720515906
226, ,PASS, ,0.05088853, ,0.007303108969176449, ,0.043788712984020726, ,0.00038966462817063797, ,1.9166666666666667, ,0.8273741814779942, ,0.5356217220056734, ,0.02432603416256811
227, ,PASS, ,0.04137943999999999, ,0.0056500934245241816, ,0.04270761486479869, ,0.00024823490276103374, ,1.8333333333333333, ,0.8024632127615536, ,0.5328666761902818, ,0.021489357360053876
228, ,PASS, ,0.03302647, ,0.0036946110944027044, ,0.04324412983041162, ,0.00013372314227579697, ,1.75, ,0.7794841027807928, ,0.529560621211812, ,0.0012856880471827105
229, ,FAIL, ,0.02357177000000001, ,0.0009200084314621502, ,0.042014920802636684, ,2.3814012420169422e-05, ,0.75, ,0.18350554582948328, ,0.6224158690638967, ,0.010836513540539989
