Channel, ,Pass/Fail, ,Amplitude, ,Sorting Function Response, ,Mean, ,Variance, ,NPeaksRatio, ,PosIntegralRatio, ,ToT50, ,ToT99
0, ,PASS, ,0.048328188999999994, ,0.007270163146618273, ,0.03966651746066406, ,0.00035803973931842754, ,1.75, ,0.7881019999637716, ,0.5973959715107855, ,0.14346645986816595
1, ,PASS, ,0.047645296, ,0.007252963896721, ,0.03922262590171629, ,0.00035160719339103527, ,1.75, ,0.7870773938099809, ,0.5879471847513316, ,0.1433236056407012
2, ,PASS, ,0.047463524999999986, ,0.007120233657556263, ,0.03956930591028754, ,0.0003443295868667949, ,1.8333333333333333, ,0.7856229941216827, ,0.6032734025836207, ,0.14809901838737985
3, ,PASS, ,0.04746509899999998, ,0.007225756363174342, ,0.03957125819575111, ,0.00034913699531617534, ,1.75, ,0.7896834031598915, ,0.5935389073692373, ,0.13997673516867
4, ,PASS, ,0.047295958, ,0.007179310112755263, ,0.039538591944858266, ,0.0003455693220264935, ,1.75, ,0.7930821089869756, ,0.5955184588069631, ,0.13887471684251343
5, ,PASS, ,0.04727380599999999, ,0.007220053285035048, ,0.039471281238750225, ,0.000347042047574296, ,1.75, ,0.7953025251781867, ,0.5933960531417726, ,0.10461010999775515
6, ,PASS, ,0.04706868199999999, ,0.007203596962526033, ,0.03925098833513601, ,0.00034489772124040755, ,1.75, ,0.7936477877793814, ,0.591661394665415, ,0.12901777514744597
7, ,PASS, ,0.046964238000000005, ,0.007098822636621406, ,0.03938663948470439, ,0.0003395552227892871, ,1.75, ,0.7794232717156031, ,0.5929062672190364, ,0.13105854982551376
8, ,PASS, ,0.04712195199999998, ,0.007216343286629075, ,0.0391088400497949, ,0.0003458127998212346, ,1.75, ,0.7903163957012652, ,0.5865186424766842, ,0.13905838656353953
9, ,PASS, ,0.046861228999999976, ,0.006858229266718881, ,0.03918520128854513, ,0.00032821427298147115, ,1.6666666666666667, ,0.7580270078595561, ,0.6009265117038428, ,0.09946735780902431
10, ,PASS, ,0.04707789199999999, ,0.007202755595664383, ,0.039247406703128505, ,0.00034516671453279035, ,1.75, ,0.7919149234564142, ,0.5926409665108875, ,0.12801779555519274
11, ,PASS, ,0.04822639100000001, ,0.0073541839131019, ,0.03941267158241668, ,0.0003609625972550484, ,1.75, ,0.7921165542997222, ,0.592294034815616, ,0.14922144446031713
12, ,PASS, ,0.04706119199999999, ,0.007154040348212868, ,0.0392868757847799, ,0.00034274828190142194, ,1.75, ,0.7903611442907937, ,0.5957021285279892, ,0.138078814718067
13, ,PASS, ,0.04698648299999999, ,0.007205610240027292, ,0.03941113422909736, ,0.00034458989697247206, ,1.75, ,0.7954164721516583, ,0.5933348299014306, ,0.14381339156343748
14, ,PASS, ,0.046936758, ,0.007190861747515396, ,0.03945861158670231, ,0.000343526336003915, ,1.75, ,0.7943667457563368, ,0.592355258055958, ,0.13220138364523173
15, ,PASS, ,0.04719036799999998, ,0.007216083596185016, ,0.039056802433215645, ,0.0003464782401244159, ,1.75, ,0.794138682451198, ,0.5922736270688354, ,0.1325074998469419
16, ,PASS, ,0.047092824999999984, ,0.0072872440215394785, ,0.039209900042856266, ,0.00034849550866165754, ,1.75, ,0.7986201856933479, ,0.5915593559315117, ,0.1291606293749107
17, ,PASS, ,0.047127265000000015, ,0.007204205238946949, ,0.039332589867349645, ,0.0003454566758906297, ,1.75, ,0.7939136305806935, ,0.5939674700516316, ,0.13744617456786595
18, ,PASS, ,0.04690598599999999, ,0.007202635471631529, ,0.039291845978041265, ,0.000343832765240942, ,1.75, ,0.7975096861868346, ,0.5909879390216526, ,0.14422154649905103
19, ,PASS, ,0.047607106999999996, ,0.007291093580649327, ,0.03955859334564601, ,0.00035316667975609194, ,1.75, ,0.7946048133493442, ,0.5929062672190364, ,0.13840533866655783
20, ,PASS, ,0.04682475799999998, ,0.007210613021166478, ,0.03927520666027224, ,0.00034339381227409553, ,1.75, ,0.7953041080448119, ,0.5905593763392584, ,0.12118120038366564
21, ,PASS, ,0.04684955599999999, ,0.007270851557944171, ,0.03916700937817595, ,0.0003461899553724222, ,1.75, ,0.800288399018544, ,0.5902124446439868, ,0.13752780555498867
22, ,PASS, ,0.04685543899999998, ,0.007221014068401314, ,0.03934130097936776, ,0.0003441805397895845, ,1.75, ,0.7973461154711483, ,0.5924164812963001, ,0.12791575682128936
23, ,PASS, ,0.04670511299999999, ,0.007163514760621782, ,0.03955701761290586, ,0.0003404746944097857, ,1.75, ,0.7972133677569833, ,0.5952327503520336, ,0.1253851962204853
24, ,PASS, ,0.04681105999999999, ,0.007235449788222652, ,0.039235289308483495, ,0.0003444262400737664, ,1.75, ,0.7949815678237465, ,0.5900083671761801, ,0.11636497214342564
25, ,PASS, ,0.046767657, ,0.007269056680688999, ,0.03930176176200485, ,0.00034562522173992336, ,1.75, ,0.8001449827826551, ,0.5903757066182322, ,0.14442562396685782
26, ,PASS, ,0.046967196999999974, ,0.007187397810797309, ,0.039350204303789715, ,0.0003435781864491784, ,1.75, ,0.7945132000537862, ,0.5944164404808066, ,0.12856880471827106
27, ,PASS, ,0.046894931, ,0.007291437171337023, ,0.039345818602885656, ,0.00034748396270920515, ,1.75, ,0.8003678953468497, ,0.588743086875778, ,0.14050733658496764
28, ,PASS, ,0.04694127799999999, ,0.007244254774897428, ,0.03921466983714618, ,0.00034575851148918146, ,1.75, ,0.7974402293743647, ,0.5914981326911696, ,0.13007897798004123
29, ,PASS, ,0.046996732999999985, ,0.007304284593006806, ,0.039159996342931776, ,0.00034883204584305704, ,1.75, ,0.8038776309488649, ,0.5919879186139059, ,0.14211954858064121
30, ,PASS, ,0.04811507199999998, ,0.007390695597794558, ,0.03928566023550539, ,0.00036155500988326007, ,1.75, ,0.7974913334553789, ,0.5920695496010285, ,0.13173200546927613
31, ,PASS, ,0.08258980599999997, ,0.01081627396872419, ,0.04264290364592559, ,0.0009126284480817639, ,1.6666666666666667, ,0.722273960370694, ,0.6063957878410645, ,0.12222199546948022
32, ,PASS, ,0.09781073000000003, ,0.012420110696046193, ,0.04438801487270444, ,0.0012424289525818063, ,1.75, ,0.7102306188103883, ,0.6097426583130956, ,0.13014020122038325
33, ,PASS, ,0.04990644900000002, ,0.00788299610162261, ,0.0393646908954307, ,0.0003997008207610037, ,1.75, ,0.8049605391496805, ,0.5862941572620967, ,0.1287116589457358
34, ,PASS, ,0.048827348, ,0.0076562781797908, ,0.03934531328585131, ,0.00038028396644158315, ,1.75, ,0.800507413149452, ,0.5894777657598824, ,0.12187506377420869
35, ,PASS, ,0.048628061999999986, ,0.0076870399362108915, ,0.03922307787790045, ,0.00037959107696089255, ,1.75, ,0.8022450368707656, ,0.5855186628844309, ,0.07338625742331789
36, ,PASS, ,0.048953326000000005, ,0.007759236178551203, ,0.039161759007285565, ,0.00038580784292465103, ,1.75, ,0.8091369196244278, ,0.5865186424766842, ,0.1372216893532785
37, ,PASS, ,0.04897679900000001, ,0.007742020982449494, ,0.039219102115018056, ,0.00038520812929553424, ,1.75, ,0.80481840352786, ,0.5871512826268852, ,0.11240586926797412
38, ,PASS, ,0.048952914, ,0.007547588555144174, ,0.03990845480888145, ,0.00037643764223739475, ,1.8333333333333333, ,0.8001869290197537, ,0.6017020060815086, ,0.1310177343319524
39, ,PASS, ,0.048597159, ,0.007621470313528104, ,0.03947528037921675, ,0.00037656871901492326, ,1.75, ,0.8023557941724491, ,0.5937633925838248, ,0.13318095549070427
40, ,PASS, ,0.04884615000000001, ,0.007672598215761579, ,0.03944005918560845, ,0.00038107816874117286, ,1.75, ,0.8032937320870801, ,0.5930695291932818, ,0.13118099630619784
41, ,PASS, ,0.049029176, ,0.007762233231632971, ,0.03918715112546683, ,0.0003866920834928978, ,1.75, ,0.8053044080769429, ,0.586212526274974, ,0.12885451317320054
42, ,PASS, ,0.049024764000000005, ,0.00774918590642917, ,0.03922771381200384, ,0.0003858808894710931, ,1.75, ,0.8057414591523736, ,0.5872125058672272, ,0.12644639905308055
43, ,PASS, ,0.04871310400000001, ,0.007690668132775596, ,0.03933437597120467, ,0.00038071741288852446, ,1.75, ,0.8055710832741418, ,0.5882737086998224, ,0.12420154690720597
44, ,PASS, ,0.048725535999999986, ,0.0077175445909105425, ,0.03919182495920491, ,0.00038198510230599966, ,1.75, ,0.8091593935165556, ,0.5893349115324177, ,0.1310381420787331
45, ,PASS, ,0.048580761, ,0.007705573158975457, ,0.039087297128670845, ,0.0003804495225067562, ,1.75, ,0.8085437529435722, ,0.5888859411032428, ,0.13662986469663885
46, ,PASS, ,0.048486075000000003, ,0.007675370073352172, ,0.03933765873229118, ,0.00037842944091362544, ,1.75, ,0.8064557338628661, ,0.5885594171547519, ,0.13116058855941715
47, ,PASS, ,0.048552226000000004, ,0.007776007903426639, ,0.038979197349074506, ,0.00038243686365406883, ,1.75, ,0.8073419508972931, ,0.5821309769188384, ,0.12411991592008326
48, ,PASS, ,0.048352841999999986, ,0.007639945970420124, ,0.03930006599108181, ,0.0003753917366409022, ,1.75, ,0.8080917056521872, ,0.5904369298585743, ,0.12746678639211445
49, ,PASS, ,0.048645263, ,0.007639069878203978, ,0.0392760761735883, ,0.0003776548677516383, ,1.75, ,0.8057945426984544, ,0.5889267565968042, ,0.12522193424623987
50, ,PASS, ,0.048356464, ,0.0076423112930238835, ,0.03897850059900818, ,0.00037557287700511687, ,1.75, ,0.8085725446053886, ,0.5892328727985143, ,0.13497683720740394
51, ,PASS, ,0.048530961000000004, ,0.007688299105270773, ,0.038997572818003715, ,0.00037905960099364553, ,1.75, ,0.8057868714680531, ,0.5872533213607886, ,0.12244648068406767
52, ,PASS, ,0.048477817000000006, ,0.007654853106482081, ,0.03915643673143405, ,0.0003769860100183395, ,1.75, ,0.8087003896041776, ,0.5886614558886554, ,0.13616048652068324
53, ,PASS, ,0.048234006999999995, ,0.007622914940977709, ,0.03920257664729291, ,0.00037377366460608543, ,1.75, ,0.8022059623176356, ,0.5890900185710496, ,0.10148772474031142
54, ,PASS, ,0.04843705200000001, ,0.00766349892845193, ,0.03913404182579947, ,0.0003774549876822926, ,1.75, ,0.805480544068904, ,0.5872533213607886, ,0.13699720413869104
55, ,PASS, ,0.04867197600000001, ,0.007688116175841845, ,0.03901349109610008, ,0.0003801224820181755, ,1.75, ,0.8054298845602228, ,0.5863757882492194, ,0.12958919205730496
56, ,PASS, ,0.048509023000000005, ,0.0076902910035332945, ,0.039335732331278954, ,0.0003789489787220822, ,1.75, ,0.8072581678194136, ,0.5883961551805065, ,0.1345482745250097
57, ,PASS, ,0.048539505, ,0.007668551591988417, ,0.03928986958809003, ,0.0003781375020894737, ,1.75, ,0.8047858806610926, ,0.5881512622191384, ,0.1101202016285382
58, ,PASS, ,0.04881687999999999, ,0.007748614206246797, ,0.039565327678129016, ,0.0003839437843905347, ,1.75, ,0.8128299603671537, ,0.5912532397298015, ,0.1455684577865758
59, ,PASS, ,0.049385634000000005, ,0.007779007941681619, ,0.039268001740474685, ,0.00039054545688858454, ,1.75, ,0.804556864556397, ,0.5887839023693394, ,0.1393645027652497
60, ,PASS, ,0.048780139000000014, ,0.00778486735977484, ,0.039776722447970446, ,0.0003869297225194269, ,1.8333333333333333, ,0.8197971312337774, ,0.5915797636782922, ,0.12948715332340158
61, ,PASS, ,0.048847602000000004, ,0.007660270825546284, ,0.03914516240242036, ,0.0003804839532102755, ,1.75, ,0.8019352490704577, ,0.5889471643435849, ,0.1285279892247097
62, ,PASS, ,0.04877619999999999, ,0.007675076067738361, ,0.03927592250688761, ,0.0003807849255277139, ,1.75, ,0.8043506683721326, ,0.589824697455154, ,0.139344095018469
63, ,PASS, ,0.049157444999999994, ,0.007701865388638954, ,0.039187886330238154, ,0.00038466008473055514, ,1.75, ,0.8009813605058873, ,0.5864982347299035, ,0.1131609558988592
64, ,PASS, ,0.048893486, ,0.007715439364972371, ,0.03915907888551254, ,0.00038326696528346633, ,1.75, ,0.806263461296232, ,0.5875594375624987, ,0.13238505336625783
65, ,PASS, ,0.04885271399999999, ,0.007712841680147361, ,0.0394564424351952, ,0.0003827318276415829, ,1.75, ,0.8082748856132068, ,0.5953551968327176, ,0.1301810167139446
66, ,PASS, ,0.04881104099999999, ,0.007707181995159867, ,0.039022287342299136, ,0.00038217883307057666, ,1.75, ,0.807699961347878, ,0.5882124854594805, ,0.1382420766923124
67, ,PASS, ,0.04949593500000002, ,0.007761596157186364, ,0.03916284158541662, ,0.0003909315021315871, ,1.75, ,0.8008650001555733, ,0.5889267565968042, ,0.13405848860227343
68, ,PASS, ,0.04896969000000002, ,0.007733384707820973, ,0.03948659533311565, ,0.00038454870215157074, ,1.75, ,0.806169807939317, ,0.5866614967041489, ,0.1287116589457358
69, ,PASS, ,0.048864902, ,0.007588314622064889, ,0.03944202472908716, ,0.00037710624299270033, ,1.75, ,0.8033246608328128, ,0.5870900593865431, ,0.12126283137078835
70, ,PASS, ,0.048955736, ,0.007729711106389281, ,0.03952256557443726, ,0.00038403805685058317, ,1.75, ,0.8009505185181137, ,0.593436868635334, ,0.10471214873165854
71, ,PASS, ,0.04869040000000001, ,0.007696330044423852, ,0.039257192222015874, ,0.0003807614040932861, ,1.75, ,0.8051038994518436, ,0.587539029815718, ,0.12711985469684292
72, ,PASS, ,0.04869491699999999, ,0.007708689586385198, ,0.03924279543839922, ,0.0003811830351328939, ,1.75, ,0.8055343433099131, ,0.5877839227770861, ,0.12842595049080632
73, ,PASS, ,0.04874854499999999, ,0.007731541793486199, ,0.03902040327887186, ,0.0003828807606057246, ,1.75, ,0.8066741923166899, ,0.5856002938715537, ,0.13967061896695987
74, ,PASS, ,0.04873915999999998, ,0.007692534677764938, ,0.039158486499663275, ,0.000380934394959087, ,1.75, ,0.8056563088621613, ,0.5887022713822166, ,0.13099732658517174
75, ,PASS, ,0.048670787, ,0.0076589405561555855, ,0.03934326463590539, ,0.00037890539962687084, ,1.75, ,0.8048023092512762, ,0.590457337605355, ,0.1345482745250097
76, ,PASS, ,0.048755988, ,0.007653098110036666, ,0.039063551140037955, ,0.00037918712155129113, ,1.75, ,0.8028620635431054, ,0.5884981939144099, ,0.113365033366666
77, ,PASS, ,0.04856890600000001, ,0.007735617258969508, ,0.03917208976394359, ,0.00038157468804199667, ,1.75, ,0.8080942232061061, ,0.5865186424766842, ,0.13881349360217138
78, ,PASS, ,0.048748234, ,0.007696727513950202, ,0.03928821180226934, ,0.00038103855150234747, ,1.75, ,0.8065265082042433, ,0.5870696516397624, ,0.13318095549070427
79, ,PASS, ,0.048410920999999996, ,0.007800024719087863, ,0.03896093964235423, ,0.00038359237136488517, ,1.75, ,0.8153053917175147, ,0.5823758698802065, ,0.14062978306565171
80, ,PASS, ,0.048604732, ,0.007687437313927932, ,0.039123520735780896, ,0.00037959580012694076, ,1.75, ,0.8076664059726577, ,0.588049223485235, ,0.1370584273790331
81, ,PASS, ,0.048873392999999994, ,0.007699461844546378, ,0.03913997706246811, ,0.0003824080930513761, ,1.75, ,0.8059770886367448, ,0.5894165425195405, ,0.1275076018856758
82, ,PASS, ,0.048750903, ,0.007723532538914192, ,0.039243215418542476, ,0.00038234209748766907, ,1.75, ,0.806849014535706, ,0.5871104671333238, ,0.1358339625721924
83, ,PASS, ,0.048845587999999995, ,0.007692195781707789, ,0.03918245620013877, ,0.00038170978093905245, ,1.75, ,0.8056216348362729, ,0.5895185812534438, ,0.12975245403155036
84, ,PASS, ,0.049093684, ,0.007728891898066594, ,0.03921922019615926, ,0.00038542110922350464, ,1.75, ,0.8074586110501124, ,0.5909063080345299, ,0.13295647027611682
85, ,PASS, ,0.049432769000000015, ,0.007713667657053487, ,0.03940233010677333, ,0.00038765655511071125, ,1.75, ,0.799891371695709, ,0.5909267157813106, ,0.07856982510561009
86, ,PASS, ,0.049183064, ,0.007726121647035548, ,0.03906962860072243, ,0.00038617319520128777, ,1.75, ,0.8038572363221902, ,0.5893553192791984, ,0.12663006877410665
87, ,PASS, ,0.049386371, ,0.007653274281345538, ,0.039745130837738, ,0.0003843085561512271, ,1.75, ,0.7988353595959083, ,0.5956204975408665, ,0.11771188343095039
88, ,PASS, ,0.04959409000000001, ,0.007842002531513004, ,0.03905341284683986, ,0.0003950139979374745, ,1.75, ,0.8057031368669534, ,0.5856819248586763, ,0.12654843778698394
89, ,PASS, ,0.049253146000000005, ,0.007644406269516204, ,0.039311737551600986, ,0.00038247059370585704, ,1.75, ,0.7955094212532391, ,0.5957429440215506, ,0.12414032366686394
90, ,PASS, ,0.04953699000000001, ,0.007767706084501537, ,0.039195220721230176, ,0.00039111727634419526, ,1.75, ,0.800213099179495, ,0.5897430664680313, ,0.10577335156425378
91, ,PASS, ,0.049684615, ,0.007643003360327751, ,0.03959286021613845, ,0.0003866159251166683, ,1.75, ,0.7970204059585241, ,0.6018040448154119, ,0.12460970184281954
92, ,PASS, ,0.049933476000000004, ,0.007870857249515712, ,0.03914515405938654, ,0.00039931466415365997, ,1.75, ,0.8051104433322374, ,0.5878451460174282, ,0.13183404420317954
93, ,PASS, ,0.05387662000000001, ,0.008412288358930025, ,0.03968684791206303, ,0.00046090070020289527, ,1.75, ,0.8037031766962811, ,0.5913144629701435, ,0.13109936531907512
94, ,PASS, ,0.17056622000000005, ,0.023120733079499165, ,0.05032003423868901, ,0.004029670340032245, ,1.75, ,0.7345368385267288, ,0.6078651456092733, ,0.1659966123140344
95, ,PASS, ,0.055731818000000016, ,0.008724010947321706, ,0.039883864608967166, ,0.0004945810183759097, ,1.75, ,0.8029795255716796, ,0.590518560845697, ,0.13924205628456562
96, ,PASS, ,0.04721967799999999, ,0.007600695645931976, ,0.03888066885496214, ,0.00036427736465383933, ,1.75, ,0.813553038478427, ,0.5842125670904675, ,0.12975245403155036
97, ,PASS, ,0.047000388, ,0.007563521351589969, ,0.03883706428546356, ,0.0003605892986024877, ,1.75, ,0.8109959032528441, ,0.5830085100304075, ,0.10663047692904226
98, ,PASS, ,0.04707393700000001, ,0.007521555735762659, ,0.0387053375845595, ,0.00035960961469897027, ,1.75, ,0.8095352894066941, ,0.5857431480990184, ,0.12173220954674395
99, ,PASS, ,0.046837874999999994, ,0.007530722813882358, ,0.038701995672823, ,0.00035801045224388397, ,1.75, ,0.8128078134367028, ,0.5843962368114937, ,0.13105854982551376
100, ,PASS, ,0.04662825399999998, ,0.007382963534317445, ,0.038827753914001756, ,0.00034993890210853316, ,1.75, ,0.8059365388915608, ,0.587028836146201, ,0.10342646068447582
101, ,PASS, ,0.04677735499999999, ,0.007340561688236783, ,0.03914046607334544, ,0.0003492024711614244, ,1.75, ,0.8044722826030063, ,0.5948450031632008, ,0.11716087426787208
102, ,PASS, ,0.04660902899999999, ,0.007480884989241834, ,0.038962771859635516, ,0.0003539292345259562, ,1.75, ,0.8138364473760052, ,0.5850288769616947, ,0.13069121038346157
103, ,PASS, ,0.04674255599999998, ,0.007491734093166828, ,0.038542584884186035, ,0.00035526240192267663, ,1.75, ,0.8106864698568437, ,0.5830697332707496, ,0.1181608538601253
104, ,PASS, ,0.046924594999999986, ,0.00749946459221085, ,0.038716688231056506, ,0.00035741146861592403, ,1.75, ,0.8111653298331795, ,0.5866410889573682, ,0.12414032366686394
105, ,PASS, ,0.04696279399999999, ,0.007473293697432473, ,0.038960289973469925, ,0.00035658414125977944, ,1.75, ,0.8120523301567893, ,0.5895798044937859, ,0.13069121038346157
106, ,PASS, ,0.04692213099999999, ,0.007533724291474346, ,0.03865571494302157, ,0.00035888209317741526, ,1.75, ,0.8113593593038028, ,0.585008469214914, ,0.12420154690720597
107, ,PASS, ,0.04723064099999999, ,0.007498636033743085, ,0.03888045177343319, ,0.000359942870313692, ,1.75, ,0.8096398132356719, ,0.5880084079916736, ,0.12554845819473073
108, ,PASS, ,0.04727026799999999, ,0.007570625454174566, ,0.03860101656994755, ,0.00036351430895862263, ,1.75, ,0.8100049602756496, ,0.5816411909961021, ,0.1146507214138487
109, ,PASS, ,0.04724306199999999, ,0.0075167091014828715, ,0.038983399700985695, ,0.0003605282706987554, ,1.75, ,0.8062608066320399, ,0.5871104671333238, ,0.08236566600681619
110, ,PASS, ,0.04712692999999999, ,0.0075481377669918415, ,0.0387811153854003, ,0.0003611713373306426, ,1.75, ,0.8108564222035707, ,0.5853145854166242, ,0.12493622579131038
111, ,PASS, ,0.04708256899999998, ,0.007553904434405659, ,0.038717793095651105, ,0.00036127231110358554, ,1.75, ,0.8124278812299494, ,0.5858655945797024, ,0.1314054815207853
112, ,PASS, ,0.04735096999999999, ,0.00753188217981913, ,0.039133582872390354, ,0.00036221687163976937, ,1.75, ,0.8101264577119753, ,0.5868043509316136, ,0.11869145527642293
113, ,PASS, ,0.04738246999999998, ,0.007552003574287889, ,0.038792495108263096, ,0.0003630853731216372, ,1.75, ,0.8076545064824686, ,0.5853554009101855, ,0.0921613844615416
114, ,PASS, ,0.047127625999999985, ,0.007530532843313371, ,0.038912098191751184, ,0.0003603421462721767, ,1.75, ,0.8106948182450645, ,0.5858043713393605, ,0.11854860104895819
115, ,PASS, ,0.04686787999999998, ,0.007498279399593586, ,0.038794850314850714, ,0.00035693476988111236, ,1.75, ,0.8099267742464934, ,0.5856615171118956, ,0.12846676598436765
116, ,PASS, ,0.047130247999999986, ,0.00752248532270582, ,0.038915132574845405, ,0.00036014458523185263, ,1.75, ,0.8117143529422182, ,0.5864370114895614, ,0.13046672516887411
117, ,PASS, ,0.04705824099999999, ,0.007531000222566599, ,0.03871795984592151, ,0.0003600937120281462, ,1.75, ,0.8059664363195164, ,0.5803759106957, ,0.06697822493418501
118, ,PASS, ,0.047051498999999976, ,0.007514941105949945, ,0.03884472504357054, ,0.0003589621848130347, ,1.75, ,0.8100540450805827, ,0.5861513030346319, ,0.12201791800167344
119, ,PASS, ,0.047089773, ,0.007481288049425308, ,0.038607162700148974, ,0.0003576193277730594, ,1.75, ,0.8068107902350836, ,0.5830901410175302, ,0.11873227076998429
120, ,PASS, ,0.04690454799999999, ,0.00736762841092849, ,0.038990029796330684, ,0.0003515141416940085, ,1.75, ,0.7998615547839202, ,0.5902328523907675, ,0.11185486010489581
121, ,PASS, ,0.047561848999999976, ,0.0076617372139062695, ,0.03895689496744964, ,0.0003698997672551056, ,1.75, ,0.8153776152890195, ,0.5864166037427807, ,0.13599722454643784
122, ,PASS, ,0.04703007499999998, ,0.007459786879206221, ,0.038913128475949466, ,0.00035573990627469216, ,1.75, ,0.8071755445750851, ,0.5842941980775902, ,0.09536540070610804
123, ,PASS, ,0.04700550399999999, ,0.007478355490300237, ,0.038981742932797284, ,0.0003568749058864407, ,1.75, ,0.8103289533018689, ,0.5889471643435849, ,0.12393624619905716
124, ,PASS, ,0.04634342999999999, ,0.007387399237664446, ,0.03879969423379114, ,0.0003475536163621879, ,1.75, ,0.8094292165678996, ,0.5852125466827207, ,0.1250178567784331
125, ,PASS, ,0.04647650399999999, ,0.00740369662403334, ,0.038797063426256606, ,0.0003495913464083138, ,1.75, ,0.8081307958333557, ,0.5822942388930838, ,0.12040570600599988
126, ,PASS, ,0.04669717899999998, ,0.007519108385626853, ,0.038754900727740245, ,0.0003566125773016834, ,1.75, ,0.8123875369747801, ,0.5829268790432849, ,0.13469112875247444
127, ,PASS, ,0.04676556199999997, ,0.007517230166145279, ,0.03871948078153507, ,0.00035670327409346607, ,1.75, ,0.8118230026343899, ,0.5836207424338279, ,0.1251811187526785
128, ,PASS, ,0.046534068999999983, ,0.007466707723602087, ,0.03895065812228322, ,0.00035269974840356134, ,1.75, ,0.8090813205399134, ,0.5849064304810105, ,0.1106712107916165
129, ,PASS, ,0.047206684999999984, ,0.007566714987624619, ,0.038814603773800534, ,0.00036269522488393337, ,1.75, ,0.8076873866436357, ,0.5836003346870472, ,0.1129772861778331
130, ,PASS, ,0.04735154399999997, ,0.007612344010497486, ,0.0390490021754658, ,0.00036570488095575567, ,1.75, ,0.8175958102370962, ,0.5883757474337259, ,0.14887451276504562
131, ,PASS, ,0.047233613999999986, ,0.007535054958938366, ,0.038983495760902834, ,0.0003614904492675186, ,1.75, ,0.8101453773346272, ,0.5861104875410705, ,0.12028325952531581
132, ,PASS, ,0.04752155399999997, ,0.007541674257424485, ,0.0392406073661762, ,0.0003640398402069331, ,1.75, ,0.8079006530906384, ,0.5877635150303056, ,0.11301810167139446
133, ,PASS, ,0.04717493199999999, ,0.007576357033190612, ,0.03891737244321544, ,0.000362739420772461, ,1.75, ,0.8101236849489689, ,0.5842329748372482, ,0.12407910042652191
134, ,PASS, ,0.04734723999999999, ,0.007557053421368004, ,0.038956686201097934, ,0.00036333294847239715, ,1.75, ,0.8092510602072345, ,0.5854166241505275, ,0.11442623619926123
135, ,PASS, ,0.047418422999999994, ,0.007529192518557601, ,0.0389594880545295, ,0.0003627467430104262, ,1.75, ,0.8052860679496137, ,0.5864370114895614, ,0.10714067059855921
136, ,PASS, ,0.047232374999999986, ,0.007556332280299154, ,0.039019522654027465, ,0.00036243759988257906, ,1.75, ,0.809492019061201, ,0.5855594783779923, ,0.1223240342033836
137, ,PASS, ,0.047478753, ,0.00760989411247052, ,0.03892940630313667, ,0.00036665575864616213, ,1.75, ,0.8127190255670435, ,0.5846819452664231, ,0.12869125119895514
138, ,PASS, ,0.047243540999999986, ,0.0075335826523201255, ,0.039170753002999936, ,0.0003616622270358803, ,1.75, ,0.8112222717190636, ,0.5887634946225587, ,0.13744617456786595
139, ,PASS, ,0.04723022699999997, ,0.007548321208785801, ,0.03910303978388196, ,0.00036206662811807646, ,1.75, ,0.809828059872212, ,0.5853554009101855, ,0.1222424032162609
140, ,PASS, ,0.04699409099999999, ,0.007442978637846836, ,0.0391700757494745, ,0.0003554095290920316, ,1.75, ,0.8076838106078063, ,0.5917022101589764, ,0.13273198506152936
141, ,PASS, ,0.04723143299999999, ,0.007574627647830379, ,0.038990059331646294, ,0.0003628258712973837, ,1.75, ,0.8122406006113057, ,0.5840288973694414, ,0.1282422807697802
142, ,PASS, ,0.04720744599999999, ,0.007549892902189019, ,0.038973885007040666, ,0.00036157632944399304, ,1.75, ,0.8131807309967551, ,0.5850492847084754, ,0.1289157364135426
143, ,PASS, ,0.04735453999999997, ,0.007513718683526255, ,0.0388977468100651, ,0.00036136845783242143, ,1.75, ,0.8063661175316839, ,0.5873757678414726, ,0.10995693965429278
144, ,PASS, ,0.04733268999999998, ,0.007514078203306162, ,0.0390633810197751, ,0.00036126917505878116, ,1.75, ,0.8099293551516868, ,0.5884981939144099, ,0.11944654190730801
145, ,PASS, ,0.047393148999999996, ,0.007531977224985934, ,0.03910612868676149, ,0.00036276114176477507, ,1.75, ,0.810928850544751, ,0.5879063692577703, ,0.13456868227179036
146, ,PASS, ,0.047399784999999986, ,0.007539195310066713, ,0.039029300407338624, ,0.00036310949357554515, ,1.75, ,0.8094393807242619, ,0.5871920981204465, ,0.12554845819473073
147, ,PASS, ,0.04716479799999998, ,0.007577532095886488, ,0.03900250701516295, ,0.00036268212214217183, ,1.75, ,0.813306731334417, ,0.5856207016183343, ,0.12803820330197344
148, ,PASS, ,0.04730178499999998, ,0.007478633344551548, ,0.039123450569580207, ,0.0003593540114541841, ,1.75, ,0.8091827615954598, ,0.5888451256096814, ,0.12930348360237545
149, ,PASS, ,0.04715290599999998, ,0.007547264751029855, ,0.03901097655047856, ,0.00036129980023757004, ,1.75, ,0.8126083595481702, ,0.5870696516397624, ,0.13175241321605682
150, ,PASS, ,0.047174155999999995, ,0.007497399461218495, ,0.03918182341523642, ,0.00035936069440915943, ,1.75, ,0.8101593782452089, ,0.5889063488500235, ,0.1264872145466419
151, ,PASS, ,0.04696080099999999, ,0.0075169301849116864, ,0.03894007603048917, ,0.0003584309164807053, ,1.75, ,0.8105568488413908, ,0.5863553805024387, ,0.12040570600599988
152, ,PASS, ,0.047003220999999984, ,0.007535303285587058, ,0.03910653951858125, ,0.00035966718085311665, ,1.75, ,0.8115658040259166, ,0.5863145650088774, ,0.12160976306605988
153, ,PASS, ,0.047189309999999984, ,0.007555581794608505, ,0.03874049609803881, ,0.00036178338780025053, ,1.75, ,0.8109775342741338, ,0.5835187036999245, ,0.12058937572702598
154, ,PASS, ,0.04738894699999998, ,0.007525673130733765, ,0.03880801655762127, ,0.00036226692531184004, ,1.75, ,0.8082543119160771, ,0.585579886124773, ,0.10846717413930328
155, ,PASS, ,0.04814775599999997, ,0.0076514958912836115, ,0.0389317259278382, ,0.0003738973888203281, ,1.75, ,0.8077227190200993, ,0.5855594783779923, ,0.10185506418236362
156, ,PASS, ,0.08943676500000003, ,0.01147463349714728, ,0.04407175988475746, ,0.0010531698827396338, ,1.75, ,0.7169983964039884, ,0.6236199261239567, ,0.11805881512622192
157, ,PASS, ,0.08027260399999997, ,0.010609877244521117, ,0.04239309307552907, ,0.0008703286687329684, ,1.5833333333333333, ,0.7281438453303759, ,0.6051509152874431, ,0.12683414624191344
158, ,PASS, ,0.04426873999999999, ,0.007115692932114328, ,0.038622349082059554, ,0.0003199311775549992, ,1.75, ,0.8136723146988156, ,0.5837227811677312, ,0.12799738780841208
159, ,PASS, ,0.04363228, ,0.00692319129610366, ,0.038530240042244035, ,0.0003073732049235995, ,1.75, ,0.80562137734908, ,0.5841513438501255, ,0.12181384053386665
160, ,PASS, ,0.043117769999999986, ,0.006839174111622567, ,0.039104837086998225, ,0.0002999837562638714, ,1.75, ,0.8109624042804834, ,0.591538948184731, ,0.12585457439644088
161, ,PASS, ,0.043377219999999994, ,0.006951956484725914, ,0.03866208694536846, ,0.00030632368245369886, ,1.75, ,0.8124756624045584, ,0.5857227403522377, ,0.1262219138384931
162, ,PASS, ,0.043452519999999994, ,0.006996695483191782, ,0.03852064197383727, ,0.00030853724151874083, ,1.8333333333333333, ,0.8131042893100227, ,0.5800697944939899, ,0.12036489051243852
163, ,PASS, ,0.04335643999999998, ,0.007021731445792197, ,0.0384802575745393, ,0.00030891167048824835, ,1.75, ,0.8071846761733437, ,0.5758249831636089, ,0.06971286300279586
164, ,PASS, ,0.043215310000000014, ,0.006842703483783235, ,0.03884978194036857, ,0.00030038414752016275, ,1.75, ,0.809950848700502, ,0.5912736474765821, ,0.12995653149935715
165, ,PASS, ,0.043283260000000004, ,0.006931444992208989, ,0.03871101068753699, ,0.000304879026666374, ,1.75, ,0.8124777222691894, ,0.58729413685435, ,0.11873227076998429
166, ,PASS, ,0.04315041, ,0.006710900992224469, ,0.03903989296361299, ,0.0002951159613045069, ,1.75, ,0.7998064504341068, ,0.5972735250301014, ,0.12526274973980123
167, ,PASS, ,0.04353594, ,0.0069152056765173185, ,0.038838414177669846, ,0.0003055822866842861, ,1.75, ,0.8130330977741287, ,0.5894981735066631, ,0.12003836656394767
168, ,PASS, ,0.04313750999999998, ,0.006856657164948292, ,0.038839767065366015, ,0.0003010694480785197, ,1.75, ,0.8138439805239245, ,0.5862329340217547, ,0.1308340646109263
169, ,PASS, ,0.04322566, ,0.006959255021532936, ,0.038750402113018105, ,0.00030547089179984124, ,1.75, ,0.814748654937984, ,0.5845594987857391, ,0.12811983428909615
170, ,PASS, ,0.04294178, ,0.00689026488569816, ,0.03895817919511847, ,0.0003001478817897971, ,1.75, ,0.8181244724602723, ,0.5921715883349319, ,0.13783392175669884
171, ,PASS, ,0.043327630000000006, ,0.0068429399610816085, ,0.03836645901410176, ,0.0003012322797347066, ,1.75, ,0.8029103054059016, ,0.5838452276484153, ,0.0582028938184935
172, ,PASS, ,0.043053869999999994, ,0.006824782704600533, ,0.03890463700516316, ,0.00029852735327268724, ,1.75, ,0.8102932146048245, ,0.5886410481418747, ,0.1149364298687782
173, ,PASS, ,0.04297641000000001, ,0.00683234796333839, ,0.038720175894777664, ,0.0002984054299724899, ,1.75, ,0.8094855451401685, ,0.5862329340217547, ,0.11897716373135242
174, ,PASS, ,0.04286403000000001, ,0.0068118390889249075, ,0.03868784015183364, ,0.0002967339451097871, ,1.75, ,0.810792571068161, ,0.586783943184833, ,0.12924226036203343
175, ,PASS, ,0.04297441, ,0.006702262571204795, ,0.039011322477296384, ,0.00029260647089046426, ,1.75, ,0.8045540701961601, ,0.5969470010816106, ,0.10018162894634804
176, ,PASS, ,0.04316715, ,0.0068756125632067336, ,0.03914117107895758, ,0.0003014701170956542, ,1.75, ,0.8164566055807275, ,0.5944980714679292, ,0.12095671516907819
177, ,PASS, ,0.04290735, ,0.0068219853517224914, ,0.03874525146058244, ,0.0002972846829385599, ,1.75, ,0.8077331344241281, ,0.5854982551376503, ,0.11281402420358769
178, ,PASS, ,0.04284881, ,0.006873087745466446, ,0.038546480359992655, ,0.00029846329084238095, ,1.75, ,0.8067735403380744, ,0.5789473684210527, ,0.09065121119977143
179, ,PASS, ,0.042753719999999995, ,0.00682256707714869, ,0.03879077799432665, ,0.0002961530483511374, ,1.75, ,0.8072893402683565, ,0.5846207220260811, ,0.10397746984755413
180, ,PASS, ,0.04261543, ,0.006760501615091025, ,0.03873389551172425, ,0.0002927704074937113, ,1.75, ,0.8083167445139128, ,0.5878247382706475, ,0.12105875390298157
181, ,PASS, ,0.04262856000000001, ,0.00677144837686747, ,0.03883188552600968, ,0.0002930941716612894, ,1.75, ,0.8056634017850975, ,0.5840901206097835, ,0.09765106834554396
182, ,PASS, ,0.042463730000000005, ,0.00662341532820298, ,0.0389794166317014, ,0.0002859078685690755, ,1.8333333333333333, ,0.8010682034596984, ,0.5972327095365401, ,0.11763025244382767
183, ,PASS, ,0.042741760000000004, ,0.006806636896630732, ,0.03858906325687231, ,0.00029547471169002137, ,1.75, ,0.8089400227969913, ,0.5868859819187363, ,0.12681373849513275
184, ,PASS, ,0.04318939, ,0.006913548368590938, ,0.038681562431583036, ,0.0003032053448114837, ,1.75, ,0.8129900816347598, ,0.5840084896226607, ,0.13689516540478766
185, ,PASS, ,0.04265273000000001, ,0.006774209535744126, ,0.038773481137119654, ,0.00029325109865236326, ,1.75, ,0.8035211011525081, ,0.5850288769616947, ,0.08444725617844534
186, ,PASS, ,0.04243626000000001, ,0.006831777543407795, ,0.0385282007599845, ,0.00029407739226441736, ,1.75, ,0.8130933906730151, ,0.5815391522621988, ,0.12534438072692394
187, ,PASS, ,0.04264364, ,0.006748578814683929, ,0.03869026774004612, ,0.00029253673991959974, ,1.75, ,0.8069934490481661, ,0.5879471847513316, ,0.11856900879573887
188, ,PASS, ,0.042975160000000005, ,0.006840568261796379, ,0.03851805319299607, ,0.0002981967199279273, ,1.75, ,0.8086792172063979, ,0.5832738107385563, ,0.09940613456868228
189, ,PASS, ,0.04266305, ,0.006803317422808752, ,0.03882879414318076, ,0.00029445403438651787, ,1.75, ,0.8127081452199809, ,0.5889675720903655, ,0.12344646027632089
190, ,PASS, ,0.042676510000000015, ,0.006641475707536509, ,0.03863967332544234, ,0.0002886559015441162, ,1.75, ,0.7911573792856286, ,0.5851105079488174, ,0.11436501295891921
191, ,PASS, ,0.0429718, ,0.006890223476812311, ,0.038590441850982635, ,0.0003000043372757559, ,1.9166666666666667, ,0.8092232861479773, ,0.5782535050305095, ,0.10924266851696904
192, ,PASS, ,0.04320435999999999, ,0.006853487801135583, ,0.03941645924654599, ,0.0003006293268177621, ,1.8333333333333333, ,0.8106729267652084, ,0.6030081018754719, ,0.10763045652129548
193, ,PASS, ,0.04259854000000001, ,0.006776467360100648, ,0.038598361913838496, ,0.00029324202489489396, ,1.75, ,0.8087979219205588, ,0.5864166037427807, ,0.12407910042652191
194, ,PASS, ,0.04268476, ,0.006793193441074483, ,0.038548874688679825, ,0.0002942955213527043, ,1.75, ,0.8083980980535806, ,0.5815595600089795, ,0.12407910042652191
195, ,PASS, ,0.04250894000000001, ,0.0067321944182687915, ,0.03897372252443828, ,0.0002906903043299999, ,1.75, ,0.8091810813343563, ,0.5908246770474072, ,0.11314054815207852
196, ,PASS, ,0.04271594, ,0.006751660119671053, ,0.03867322106405992, ,0.0002932491382836005, ,1.75, ,0.8057300197624359, ,0.5872125058672272, ,0.11852819330217751
197, ,PASS, ,0.04263832000000001, ,0.006801389377747735, ,0.03860336312911982, ,0.0002947733881004304, ,1.75, ,0.8134066273765208, ,0.5888859411032428, ,0.1385277851472419
198, ,PASS, ,0.04262919, ,0.006842617507875354, ,0.038842872021591396, ,0.000295842058058957, ,1.75, ,0.8169847295808276, ,0.5881512622191384, ,0.14595620497540868
199, ,PASS, ,0.04262557000000002, ,0.006745903992898922, ,0.03867101595293974, ,0.0002921980988024199, ,1.75, ,0.8068191385815936, ,0.5871104671333238, ,0.11685475806616191
200, ,PASS, ,0.042690759999999994, ,0.0067891460903875015, ,0.03874197898634722, ,0.0002943442447123552, ,1.75, ,0.8078980900992103, ,0.5866614967041489, ,0.12434440113467073
201, ,PASS, ,0.042855190000000015, ,0.006772951680409247, ,0.03849919003387686, ,0.0002949989688928101, ,1.75, ,0.8055432908702089, ,0.5866002734638068, ,0.1243648088814514
202, ,PASS, ,0.042538030000000004, ,0.006777445958251107, ,0.03876633793473603, ,0.0002927765155381955, ,1.75, ,0.8081481503244845, ,0.5867431276912716, ,0.13191567519030223
203, ,PASS, ,0.04274983, ,0.006768628470769901, ,0.038645884510316114, ,0.00029415478453835337, ,1.75, ,0.8100497412173177, ,0.5884369706740679, ,0.13636456398849003
204, ,PASS, ,0.042848510000000006, ,0.006748401605648457, ,0.03880245351339769, ,0.0002937605814466384, ,1.75, ,0.8027169916115898, ,0.587028836146201, ,0.09638578804514193
205, ,PASS, ,0.04269477000000002, ,0.006775766567875261, ,0.03869103057039652, ,0.00029385916638619887, ,1.75, ,0.8099343535840146, ,0.5885798249015326, ,0.13095651109161038
206, ,PASS, ,0.04242046000000002, ,0.006748816889779703, ,0.03875460080814678, ,0.0002908023227135728, ,1.75, ,0.8088081486373085, ,0.5880288157384543, ,0.13048713291565478
207, ,PASS, ,0.0428049, ,0.006752325461108901, ,0.03882515024162773, ,0.0002936024432043042, ,1.75, ,0.805147658719289, ,0.5861104875410705, ,0.1096508234525826
208, ,PASS, ,0.042688070000000015, ,0.006720030136381666, ,0.038780508789616544, ,0.00029143605816257573, ,1.75, ,0.8038620477875302, ,0.5877226995367442, ,0.10346727617803718
209, ,PASS, ,0.04266820000000001, ,0.006798832986352266, ,0.03861390235382952, ,0.0002945044320654328, ,1.75, ,0.8107113481529805, ,0.5860696720475093, ,0.13062998714311952
210, ,PASS, ,0.04259342000000001, ,0.006837726096498426, ,0.038700016437623726, ,0.0002951899052202705, ,1.75, ,0.8128477744711036, ,0.5852329544295014, ,0.13299728576967818
211, ,PASS, ,0.04262395000000002, ,0.0067185705484474525, ,0.03867775049101039, ,0.00029108911245150364, ,1.75, ,0.8060224034249064, ,0.5872533213607886, ,0.11077324952551988
212, ,PASS, ,0.04282229, ,0.006771712100234104, ,0.03860003773616865, ,0.000294410375712523, ,1.75, ,0.8070321873767653, ,0.5860288565539479, ,0.11683435031938123
213, ,PASS, ,0.04253162000000002, ,0.0067864019288251245, ,0.038478511270382244, ,0.00029304196647612246, ,1.75, ,0.809951888498106, ,0.5859268178200445, ,0.12865043570539378
214, ,PASS, ,0.04269631000000001, ,0.006770191753057749, ,0.03852956434889084, ,0.00029345224450138776, ,1.75, ,0.8077342732353175, ,0.5852533621762821, ,0.11740576722924022
215, ,PASS, ,0.042431420000000004, ,0.0067538050141083905, ,0.0388132292510357, ,0.0002911731754767992, ,1.75, ,0.8097017886751838, ,0.5868655741719557, ,0.1277933103406053
216, ,PASS, ,0.04347144, ,0.006831581325954549, ,0.038474102836064575, ,0.00030205053356142193, ,1.75, ,0.8014958633456954, ,0.588049223485235, ,0.11644660313054836
217, ,PASS, ,0.04325733999999999, ,0.006900355445670132, ,0.0386684511846697, ,0.0003028649236095043, ,1.75, ,0.811276273317785, ,0.5851921389359401, ,0.13411971184261545
218, ,PASS, ,0.05148859400000001, ,0.007801232220015452, ,0.03971757736654354, ,0.00040933562796994214, ,1.75, ,0.7873179146095003, ,0.5949062264035427, ,0.12773208710026326
219, ,PASS, ,0.13638064, ,0.01714306244402046, ,0.048047053182690154, ,0.002390660692800105, ,1.8333333333333333, ,0.7044012763943237, ,0.613967061896696, ,0.12565049692863411
220, ,PASS, ,0.04912361099999999, ,0.0072457348888182995, ,0.03942464530438154, ,0.0003625828225165697, ,1.75, ,0.7762942938647833, ,0.5943348094936838, ,0.13097691883839105
221, ,PASS, ,0.047531159999999975, ,0.006985013532917405, ,0.039770091002428516, ,0.00033823964060912786, ,1.75, ,0.7822183066376557, ,0.6001102018326157, ,0.11052835656415175
222, ,PASS, ,0.04746761099999998, ,0.007016115786358753, ,0.03930898631456501, ,0.00033896034664096666, ,1.75, ,0.776658098926863, ,0.5944572559743678, ,0.11863023203608089
223, ,PASS, ,0.047392813999999985, ,0.007003969974669632, ,0.039372128284116646, ,0.0003380437650219947, ,1.75, ,0.7779209608132616, ,0.5950082651374462, ,0.12818105752943817
224, ,PASS, ,0.047613717999999985, ,0.006936839890396724, ,0.03978352557539642, ,0.0003369211867525622, ,1.75, ,0.7761159045280582, ,0.6040693047080672, ,0.12873206669251647
225, ,PASS, ,0.047515872999999986, ,0.006967446493361193, ,0.03919543324034203, ,0.0003373482254090925, ,1.75, ,0.7748770116183529, ,0.5978245341931797, ,0.11912001795881717
226, ,PASS, ,0.047393092999999976, ,0.006949264265020974, ,0.03930753193220546, ,0.0003358111133925619, ,1.75, ,0.7701773842292134, ,0.5953756045794983, ,0.13858900838758392
227, ,PASS, ,0.047241380999999985, ,0.006925620663983814, ,0.039355602054243786, ,0.0003336963602887526, ,1.75, ,0.7736091348702054, ,0.5966408848799004, ,0.13911960980388155
228, ,PASS, ,0.04777454999999999, ,0.006938593361921836, ,0.039322222567702694, ,0.00033783225839725437, ,1.75, ,0.7679951595751788, ,0.5958041672618927, ,0.08116160894675618
229, ,PASS, ,0.047578490999999994, ,0.0068112106477959565, ,0.039561679878777976, ,0.0003311947882229453, ,1.75, ,0.7778427152683732, ,0.5987632905450909, ,0.1305483561559968
230, ,PASS, ,0.04747003599999998, ,0.0070000084901955095, ,0.03942451569070019, ,0.00033852103203708197, ,1.75, ,0.7781931352472728, ,0.5961715067039448, ,0.14005836615579273
231, ,PASS, ,0.04761225799999999, ,0.0069521733756443375, ,0.03952260615211934, ,0.00033735732358934097, ,1.75, ,0.7742794814182113, ,0.5989673680128977, ,0.14077263729311645
232, ,PASS, ,0.047614337999999985, ,0.006900498574441988, ,0.03973482731597314, ,0.00033489631096063425, ,1.75, ,0.7709363967607404, ,0.6022530152445869, ,0.12409950817330259
233, ,PASS, ,0.047623807, ,0.00693916511729202, ,0.0392069453545846, ,0.00033636353097851165, ,1.8333333333333333, ,0.7668907933409128, ,0.5973551560172241, ,0.1269565927225975
234, ,PASS, ,0.04740738699999998, ,0.006967314347970151, ,0.03935400067427195, ,0.00033648051213983163, ,1.75, ,0.7749042796208614, ,0.5957021285279892, ,0.12258933491153241
235, ,PASS, ,0.047712834999999995, ,0.007026364773772577, ,0.03938010198159221, ,0.0003413611847799871, ,1.75, ,0.7756447931839081, ,0.5952531580988143, ,0.11156915164996632
236, ,PASS, ,0.04782936099999998, ,0.00699644363582911, ,0.03909087508887574, ,0.0003409867670681214, ,1.75, ,0.7743571099567639, ,0.5973347482704434, ,0.11997714332360564
237, ,PASS, ,0.04796478399999999, ,0.0069995068445951655, ,0.039442952655660085, ,0.000342184044920313, ,1.75, ,0.7725407444171902, ,0.5982939123691353, ,0.1349156139670619
238, ,PASS, ,0.04788224899999998, ,0.006947551184532926, ,0.03949988957572294, ,0.00033938543334882524, ,1.75, ,0.7721350968570799, ,0.6019060835493153, ,0.12689536948225547
239, ,PASS, ,0.04789378499999998, ,0.007017600650834888, ,0.03939491206199873, ,0.0003423958937068192, ,1.75, ,0.773012655084077, ,0.5968449623477072, ,0.11867104752964225
240, ,PASS, ,0.04818183899999999, ,0.007069489894392755, ,0.039516951841595066, ,0.0003471837256967203, ,1.75, ,0.776435790656397, ,0.5982735046223546, ,0.13803799922450563
241, ,PASS, ,0.048280604, ,0.007018575679017703, ,0.03952658404114201, ,0.00034572293308324985, ,1.75, ,0.7700613127626372, ,0.6019060835493153, ,0.11503846860268158
242, ,PASS, ,0.048324634000000005, ,0.007052064610440291, ,0.03949640562559947, ,0.00034725673614911096, ,1.75, ,0.769243316213774, ,0.5969674088283913, ,0.1140997122507704
243, ,PASS, ,0.04830101399999999, ,0.007071847365620459, ,0.03945048935736005, ,0.00034811799805362906, ,1.75, ,0.7735663360427889, ,0.5972327095365401, ,0.13726250484683986
244, ,PASS, ,0.04869881899999998, ,0.007064190448297746, ,0.03917649550049999, ,0.0003505953065148605, ,1.8333333333333333, ,0.7689881340451267, ,0.6015183363604825, ,0.12930348360237545
245, ,PASS, ,0.048854152, ,0.007148987375416328, ,0.03981457131650375, ,0.0003559335563478468, ,1.75, ,0.7745615758217145, ,0.5982530968755739, ,0.1341605273361768
246, ,PASS, ,0.050024096000000004, ,0.0073281718257505925, ,0.03975321816718026, ,0.00037341167033941856, ,1.75, ,0.7728341599707158, ,0.5965592538927778, ,0.1307524336238036
247, ,PASS, ,0.049042818999999994, ,0.0072379323471829255, ,0.03949837274198485, ,0.0003614176265869557, ,1.75, ,0.7793613496989307, ,0.5970694475622946, ,0.12846676598436765
248, ,PASS, ,0.04934553900000001, ,0.007208398232522693, ,0.03946275353625436, ,0.00036253837801148667, ,1.75, ,0.7719631863535091, ,0.5979469806738638, ,0.10922226077018836
249, ,PASS, ,0.04970228799999999, ,0.007366926653920169, ,0.03928695384175833, ,0.00037260165468673247, ,1.75, ,0.772968727662711, ,0.5887839023693394, ,0.11883430950388768
250, ,PASS, ,0.049653481, ,0.007289388730743814, ,0.03964663273586253, ,0.000368648572030829, ,1.75, ,0.7755819869204836, ,0.5979061651803025, ,0.13465031325891308
251, ,PASS, ,0.04962950400000002, ,0.007355012413747675, ,0.039578276871900575, ,0.00037109019378204935, ,1.75, ,0.777340700876794, ,0.5919062876267831, ,0.11548743903185649
252, ,PASS, ,0.049120682000000006, ,0.007188069847969208, ,0.039647348225546414, ,0.00035977185875077426, ,1.75, ,0.7714913795514969, ,0.5986204363176262, ,0.13375237240056326
253, ,PASS, ,0.049561589, ,0.007262674224008108, ,0.039573463099528576, ,0.00036664016779493116, ,1.75, ,0.773939455146705, ,0.5984775820901614, ,0.12089549192873615
254, ,PASS, ,0.05061607600000002, ,0.007148600592027905, ,0.04000935782167711, ,0.00036931455364154627, ,1.8333333333333333, ,0.7516202607967117, ,0.6155180506520275, ,0.11944654190730801
255, ,PASS, ,0.05047581000000001, ,0.007346856947916971, ,0.03952582865002755, ,0.00037788459022127955, ,1.75, ,0.775298553746601, ,0.6008856962102814, ,0.13367074141344054
