Channel, ,Pass/Fail, ,Amplitude, ,Sorting Function Response, ,Mean, ,Variance, ,NPeaksRatio, ,PosIntegralRatio, ,ToT50, ,ToT99
0, ,PASS, ,0.04791379800000001, ,0.007824957510669972, ,0.03538792101059163, ,0.00037666685418360466, ,1.8333333333333333, ,0.7856916338269441, ,0.5118671047529643, ,0.1310381420787331
1, ,PASS, ,0.04767190699999999, ,0.0077688742112071215, ,0.0350887228348401, ,0.000372166617771031, ,1.8333333333333333, ,0.7871557611467342, ,0.5122752596885778, ,0.13099732658517174
2, ,PASS, ,0.04793605400000002, ,0.0077986205190771, ,0.035095812056488644, ,0.0003755949572552913, ,1.8333333333333333, ,0.783334123193606, ,0.5116630272851574, ,0.10630395298055141
3, ,PASS, ,0.047943949000000013, ,0.0077953492968989525, ,0.035134949703679516, ,0.00037551121710478665, ,1.8333333333333333, ,0.7859742424973981, ,0.5120915899675517, ,0.12016081304463175
4, ,PASS, ,0.04754659199999999, ,0.007757566330639153, ,0.03513039496010286, ,0.00037051611009364876, ,1.8333333333333333, ,0.7860939215566766, ,0.512009958980429, ,0.11997714332360564
5, ,PASS, ,0.04785843400000002, ,0.007790057855589207, ,0.03523319819799596, ,0.00037482585097411655, ,1.8333333333333333, ,0.7858233244639866, ,0.5114589498173506, ,0.11671190383869717
6, ,PASS, ,0.04821190600000002, ,0.007806850768044393, ,0.03536689696026612, ,0.0003782139264717515, ,1.8333333333333333, ,0.781777838891513, ,0.5110916103752985, ,0.10236525785188057
7, ,PASS, ,0.047919298, ,0.007802568814079503, ,0.03526089096304157, ,0.00037568093631961676, ,1.8333333333333333, ,0.7836649946271691, ,0.5112548723495439, ,0.10381420787330871
8, ,PASS, ,0.047915279, ,0.00781408374805866, ,0.034977493365706824, ,0.0003760886873381971, ,1.8333333333333333, ,0.7865765282625335, ,0.5121732209546744, ,0.13062998714311952
9, ,PASS, ,0.04809658299999999, ,0.007802600797666547, ,0.035083399408787574, ,0.00037717226398156154, ,1.8333333333333333, ,0.7838726819771673, ,0.5118058815126222, ,0.1100181628946348
10, ,PASS, ,0.048001964999999994, ,0.00782380395058209, ,0.03519046902389747, ,0.0003772732608386893, ,1.8333333333333333, ,0.7862479149819515, ,0.5116018040448154, ,0.12201791800167344
11, ,PASS, ,0.047913014999999996, ,0.00781954019513184, ,0.03524517955776413, ,0.00037642838643926887, ,1.8333333333333333, ,0.7866217700654994, ,0.5116630272851574, ,0.12256892716475173
12, ,PASS, ,0.047975443000000006, ,0.007816354978584617, ,0.03514706733127895, ,0.0003768207357820457, ,1.8333333333333333, ,0.7863260495675616, ,0.5120507744739903, ,0.12009958980428971
13, ,PASS, ,0.048207201000000005, ,0.00785158860647122, ,0.03492774289708373, ,0.0003804034319576739, ,1.8333333333333333, ,0.7863166771951178, ,0.5121119977143324, ,0.12136487010469174
14, ,PASS, ,0.048831216000000024, ,0.007950205055813356, ,0.03535393115079285, ,0.00039002863461584945, ,1.8333333333333333, ,0.7864379318276714, ,0.5130303463194629, ,0.13762984428889205
15, ,PASS, ,0.047695902, ,0.007777025772492574, ,0.035003645000714276, ,0.00037262107736495896, ,1.8333333333333333, ,0.7842443356235622, ,0.5109691638946144, ,0.1122426072937287
16, ,PASS, ,0.047771236999999994, ,0.007786092072457001, ,0.03508172842370564, ,0.0003736155648598445, ,1.8333333333333333, ,0.7835993865220771, ,0.5101324462766066, ,0.10703863186465583
17, ,PASS, ,0.04789837099999999, ,0.007788292451275072, ,0.034919462941368544, ,0.00037494994313489084, ,1.8333333333333333, ,0.7850420216551725, ,0.5115813962980348, ,0.11540580804473378
18, ,PASS, ,0.04793105799999999, ,0.007819745337327638, ,0.035047221176302525, ,0.0003765833271363247, ,1.8333333333333333, ,0.7858995012760743, ,0.5115405808044734, ,0.11209975306626395
19, ,PASS, ,0.047864426999999994, ,0.007804341896287116, ,0.03518782352666272, ,0.0003754033079389523, ,1.8333333333333333, ,0.7850569871899724, ,0.5111528336156405, ,0.10312034448276566
20, ,PASS, ,0.047843799, ,0.00780675374469494, ,0.03515366583845228, ,0.00037533417256768183, ,1.8333333333333333, ,0.7846622197597443, ,0.5106222321993429, ,0.10163057896777616
21, ,PASS, ,0.04789647700000001, ,0.007807448420453022, ,0.034955445857635555, ,0.0003756133916457114, ,1.8333333333333333, ,0.7849731856168598, ,0.5111528336156405, ,0.10773249525519887
22, ,PASS, ,0.048741596000000026, ,0.00791506178093357, ,0.03513995203710128, ,0.0003877549623511114, ,1.8333333333333333, ,0.7850993574260001, ,0.5120915899675517, ,0.11250790800187752
23, ,PASS, ,0.04734631699999999, ,0.007763463224214662, ,0.03497326258872268, ,0.0003691915880160675, ,1.8333333333333333, ,0.7869413762985279, ,0.5106630476929043, ,0.11038550233668701
24, ,PASS, ,0.047708995000000004, ,0.007753378225027383, ,0.03504892166098651, ,0.00037165468309265613, ,1.8333333333333333, ,0.7836095410408493, ,0.5099895920491418, ,0.09730413665027245
25, ,PASS, ,0.04785627600000001, ,0.007808716863246815, ,0.03506286761923226, ,0.00037536779170432795, ,1.8333333333333333, ,0.7850272615071745, ,0.5105201934654395, ,0.0975286218648599
26, ,PASS, ,0.04793025600000001, ,0.007802852041695266, ,0.035011175363768084, ,0.00037574267596742953, ,1.8333333333333333, ,0.7855590303982831, ,0.5106426399461236, ,0.10112038529825922
27, ,PASS, ,0.048249248999999994, ,0.007863540158479915, ,0.034832639723189326, ,0.0003811018484293595, ,1.8333333333333333, ,0.7844083384763383, ,0.5091324666843534, ,0.10436521703638701
28, ,PASS, ,0.048498158000000006, ,0.00788975295464579, ,0.03490011124099508, ,0.0003844002668376827, ,1.8333333333333333, ,0.7853741278071251, ,0.5099079610620192, ,0.09922246484765616
29, ,PASS, ,0.04849730700000001, ,0.00791438783832571, ,0.03490083634313586, ,0.000385776927430379, ,1.8333333333333333, ,0.7856503643276134, ,0.5093569518989408, ,0.09699802044856227
30, ,PASS, ,0.048398261000000026, ,0.007945976666730463, ,0.03496515535887022, ,0.0003863110264804892, ,1.8333333333333333, ,0.7859523768890729, ,0.5087447194955205, ,0.10048774514805821
31, ,PASS, ,0.04880031500000002, ,0.007967047890410996, ,0.03500325386557417, ,0.0003906100815699201, ,1.8333333333333333, ,0.785125455301172, ,0.5093365441521601, ,0.09067161894655211
32, ,PASS, ,0.049080558000000024, ,0.008034475741363439, ,0.03490258277308626, ,0.0003961656191477571, ,1.8333333333333333, ,0.7860954570392972, ,0.5096222526070896, ,0.09846737821677108
33, ,PASS, ,0.04900014600000003, ,0.008044564934855999, ,0.03502311526362728, ,0.0003959897806110195, ,1.8333333333333333, ,0.7861740964324464, ,0.5095814371135283, ,0.10003877471888328
34, ,PASS, ,0.049461921000000006, ,0.00803220280884587, ,0.03497961549635722, ,0.0003990638216462694, ,1.8333333333333333, ,0.7830651593658592, ,0.5093161364053794, ,0.08916144568478195
35, ,PASS, ,0.04908647800000003, ,0.008043155143959405, ,0.034960357138242075, ,0.0003964337390794282, ,1.8333333333333333, ,0.7871922737120239, ,0.5098875533152385, ,0.11673231158547785
36, ,PASS, ,0.05063888200000001, ,0.008259467074226796, ,0.035145215401644864, ,0.0004202089436527125, ,1.8333333333333333, ,0.7858138814078214, ,0.510867125160711, ,0.11856900879573887
37, ,PASS, ,0.09864707, ,0.014166175246874685, ,0.037626679226982714, ,0.0014095615660294153, ,1.75, ,0.7660724215269735, ,0.5567845554172364, ,0.27350462235464584
38, ,PASS, ,0.07292548000000003, ,0.010690845917387334, ,0.03699369183608498, ,0.0007847597968285833, ,1.6666666666666667, ,0.7490204852065555, ,0.5276627007612089, ,0.1671190383869717
39, ,PASS, ,0.04839896900000002, ,0.007880878155965377, ,0.03507248570274076, ,0.00038317315389035673, ,1.8333333333333333, ,0.7846142969562084, ,0.5104793779718781, ,0.11230383053407074
40, ,PASS, ,0.04755120199999999, ,0.0077921473606596, ,0.034737924487459444, ,0.0003720284016269224, ,1.8333333333333333, ,0.7863524015558844, ,0.5100508152894839, ,0.11165078263708904
41, ,PASS, ,0.047758929, ,0.00774999505088189, ,0.03468633807085569, ,0.0003719677073179793, ,1.8333333333333333, ,0.782863431214069, ,0.5092957286585988, ,0.09038591049162262
42, ,PASS, ,0.04727340100000001, ,0.007729959863795169, ,0.03468563749535724, ,0.0003670643166430703, ,1.8333333333333333, ,0.7855447395145929, ,0.5100712230362646, ,0.0998346972510765
43, ,PASS, ,0.04732782900000003, ,0.0077226702969111155, ,0.034539604890512436, ,0.00036721560094512895, ,1.8333333333333333, ,0.785077853564066, ,0.5094793983796249, ,0.10418154731536092
44, ,PASS, ,0.047224320000000014, ,0.007711032500862983, ,0.03458830020595498, ,0.0003658100595270161, ,1.8333333333333333, ,0.7831378911772274, ,0.5092753209118182, ,0.10201832615660905
45, ,PASS, ,0.047103614000000016, ,0.007718990276377866, ,0.034528988935123774, ,0.00036523657136344366, ,1.8333333333333333, ,0.7874432249092432, ,0.5103365237444134, ,0.10999775514785412
46, ,PASS, ,0.04690452200000002, ,0.007653730950465652, ,0.03461584772371992, ,0.0003606748058505064, ,1.8333333333333333, ,0.7839104137218441, ,0.5095202138731862, ,0.09436542111385482
47, ,PASS, ,0.046733897000000024, ,0.0076193963871417575, ,0.034681995746617414, ,0.00035768974678625876, ,1.8333333333333333, ,0.7840850257118923, ,0.5091732821779147, ,0.0935491112426277
48, ,PASS, ,0.04648600900000002, ,0.007597948656787473, ,0.034599302504846836, ,0.0003547912377005256, ,1.8333333333333333, ,0.7826010286959176, ,0.5080712638517582, ,0.0876308646762311
49, ,PASS, ,0.04663151700000003, ,0.0075778420553031245, ,0.034688448367380255, ,0.0003550138650310299, ,1.8333333333333333, ,0.7824977053864124, ,0.5087243117487398, ,0.08638599212260974
50, ,PASS, ,0.04665367700000001, ,0.007626353936929335, ,0.03462823485622742, ,0.00035736209573812225, ,1.8333333333333333, ,0.7837217180027296, ,0.5086426807616171, ,0.09467153731556499
51, ,PASS, ,0.04677233900000001, ,0.007626817276031208, ,0.03462622464766025, ,0.00035834714969275544, ,1.8333333333333333, ,0.783134262199209, ,0.5095202138731862, ,0.08348809207975347
52, ,PASS, ,0.04692275100000001, ,0.0076861623430114125, ,0.03471302274749495, ,0.00036213260023284437, ,1.8333333333333333, ,0.7860483710741712, ,0.5096426603538703, ,0.11079365727230056
53, ,PASS, ,0.04721531000000001, ,0.007713842136989942, ,0.03476902206169262, ,0.00036584935369946567, ,1.8333333333333333, ,0.785343935739736, ,0.5100712230362646, ,0.10626313748699007
54, ,PASS, ,0.047264260000000016, ,0.007728745762118818, ,0.03458713642782801, ,0.00036695953181945537, ,1.8333333333333333, ,0.7869648106788694, ,0.510173261770168, ,0.1217730250403053
55, ,PASS, ,0.04729272600000003, ,0.0077056574309084, ,0.03453456698475541, ,0.0003660348680617486, ,1.8333333333333333, ,0.7846830821196569, ,0.5107446786800269, ,0.1044672557702904
56, ,PASS, ,0.04717654699999999, ,0.007690012051337215, ,0.03482438691971593, ,0.0003643279820634328, ,1.8333333333333333, ,0.7846609699216643, ,0.5101324462766066, ,0.10054896838840023
57, ,PASS, ,0.04737534100000002, ,0.007699137944542795, ,0.034630806241709354, ,0.0003665121749817763, ,1.8333333333333333, ,0.7847547232203116, ,0.5100916307830452, ,0.09999795922532194
58, ,PASS, ,0.04730664200000002, ,0.007737585174765257, ,0.03458495515524173, ,0.00036766353137506597, ,1.8333333333333333, ,0.7831432092783436, ,0.5098875533152385, ,0.09867145568457787
59, ,PASS, ,0.04761806100000002, ,0.007737809823997895, ,0.03474648102487705, ,0.0003702209487626937, ,1.8333333333333333, ,0.7824210149684506, ,0.5101528540233873, ,0.08407991673639313
60, ,PASS, ,0.04817277500000001, ,0.007785031351776962, ,0.03456157843329728, ,0.0003768996154102863, ,1.8333333333333333, ,0.7818396293710271, ,0.5108467174139303, ,0.095304177465766
61, ,PASS, ,0.048016419000000005, ,0.007814546745931385, ,0.03442289786377829, ,0.0003769384282853844, ,1.8333333333333333, ,0.7832792871951497, ,0.5100304075427032, ,0.09822248525540295
62, ,PASS, ,0.04769853500000001, ,0.007785505889321451, ,0.03466830880818759, ,0.0003730329426097422, ,1.8333333333333333, ,0.7865946186381048, ,0.510989571641395, ,0.11605885594171547
63, ,PASS, ,0.047553324999999994, ,0.007768775439949143, ,0.03460632147888819, ,0.0003710326842011978, ,1.8333333333333333, ,0.7843650240135092, ,0.5099079610620192, ,0.10040611416093549
64, ,PASS, ,0.04789083500000002, ,0.007761204746587514, ,0.03456792910622232, ,0.00037324217342644435, ,1.8333333333333333, ,0.780510660262404, ,0.5099283688087998, ,0.08736556396808229
65, ,PASS, ,0.04804467499999999, ,0.007775493452792155, ,0.034645831483030964, ,0.00037525824314113814, ,1.8333333333333333, ,0.7832689643656804, ,0.5106018244525622, ,0.10034489092059345
66, ,PASS, ,0.047583929000000004, ,0.007779527703788662, ,0.0348090365455807, ,0.000371950263196318, ,1.8333333333333333, ,0.7854463221053216, ,0.510805901920369, ,0.10981408542682802
67, ,PASS, ,0.047455489000000003, ,0.007751854626271918, ,0.03473570296402115, ,0.0003694976128303665, ,1.8333333333333333, ,0.7845229186238335, ,0.5105814167057815, ,0.09807963102793821
68, ,PASS, ,0.04744053700000001, ,0.00770383726765055, ,0.034653816359666134, ,0.0003672127935269832, ,1.8333333333333333, ,0.7811682629952368, ,0.5095406216199669, ,0.07959021244464398
69, ,PASS, ,0.047038226000000016, ,0.0077129205541373955, ,0.034624588020652644, ,0.000364348152005017, ,1.8333333333333333, ,0.7858955094983624, ,0.5099079610620192, ,0.1099365319075121
70, ,PASS, ,0.047242940000000004, ,0.007698365001825808, ,0.03476761427011693, ,0.0003652785649186747, ,1.8333333333333333, ,0.7803870446586872, ,0.509091651190792, ,0.07895757229444297
71, ,PASS, ,0.04836254099999999, ,0.00785439676626606, ,0.03464814066351707, ,0.0003817421617736158, ,1.8333333333333333, ,0.7829806270598689, ,0.5106834554396849, ,0.09385522744433787
72, ,PASS, ,0.04689305400000001, ,0.007655403276122391, ,0.034677479179812655, ,0.0003606300301580462, ,1.8333333333333333, ,0.7828751127854138, ,0.5093773596457215, ,0.09081447317401686
73, ,PASS, ,0.04696143700000002, ,0.0076672398965108, ,0.03453659554886635, ,0.00036170516966824406, ,1.8333333333333333, ,0.7848453274821385, ,0.509663068100651, ,0.09636538029836125
74, ,PASS, ,0.04690421900000001, ,0.007666705857409975, ,0.034491222840350194, ,0.0003612421151815628, ,1.8333333333333333, ,0.7845935711622889, ,0.5091936899246954, ,0.09914083386053346
75, ,PASS, ,0.04705795100000001, ,0.007648263310538422, ,0.03498278130752434, ,0.0003616715709242185, ,1.8333333333333333, ,0.7802408980330001, ,0.5085610497744943, ,0.07738617579233077
76, ,PASS, ,0.047223208, ,0.007663595985829113, ,0.034813079718781254, ,0.00036363962221613844, ,1.8333333333333333, ,0.7808127951888478, ,0.5087243117487398, ,0.06889655313156874
77, ,PASS, ,0.04750689399999999, ,0.007689840672390502, ,0.03472790077610661, ,0.00036701757434665663, ,1.8333333333333333, ,0.7785813472955796, ,0.5081120793453194, ,0.07059039611436502
78, ,PASS, ,0.04735780699999999, ,0.007709122659344705, ,0.034634080439174715, ,0.0003666675422937275, ,1.8333333333333333, ,0.7833843934514044, ,0.5095202138731862, ,0.09363074222975042
79, ,PASS, ,0.048314974999999996, ,0.007881189695772606, ,0.0345699549997347, ,0.0003825217561914054, ,1.8333333333333333, ,0.7842478530897237, ,0.5103977469847554, ,0.10575294381747312
80, ,PASS, ,0.04766817799999999, ,0.007764502724905022, ,0.034809192974020936, ,0.0003719654005299777, ,1.8333333333333333, ,0.7836326150302233, ,0.5098467378216771, ,0.09705924368890431
81, ,PASS, ,0.047740044, ,0.007744088274108424, ,0.03459284547948001, ,0.00037144930821919684, ,1.8333333333333333, ,0.7830026587397494, ,0.5104181547315361, ,0.09546743944001143
82, ,PASS, ,0.04763747400000001, ,0.007786151373022479, ,0.0346794593487888, ,0.0003726186788238122, ,1.8333333333333333, ,0.7849380505473027, ,0.5101528540233873, ,0.10469174098487787
83, ,PASS, ,0.04794432400000001, ,0.0077948533694100096, ,0.03466629787779841, ,0.0003756168491143313, ,1.8333333333333333, ,0.784094434566362, ,0.5109487561478337, ,0.09610007959021244
84, ,PASS, ,0.048462364000000015, ,0.007859671631481728, ,0.03461061306463133, ,0.0003827078261284129, ,1.8333333333333333, ,0.782414698916944, ,0.5090712434440113, ,0.0876308646762311
85, ,PASS, ,0.048193322, ,0.007869697212891515, ,0.03475612216995572, ,0.0003809291463961683, ,1.8333333333333333, ,0.7830891598233277, ,0.5090712434440113, ,0.09701842819534295
86, ,PASS, ,0.04831839300000001, ,0.007861229222819408, ,0.034726553352707086, ,0.00038164781576524066, ,1.8333333333333333, ,0.7828531394773035, ,0.5097038835942124, ,0.09434501336707414
87, ,PASS, ,0.048153883, ,0.0078500398963572, ,0.03474277215711924, ,0.0003795563573196327, ,1.8333333333333333, ,0.7839618320818476, ,0.5100508152894839, ,0.10083467684332972
88, ,PASS, ,0.04839559200000001, ,0.007865249255118245, ,0.034674184811452825, ,0.00038232321372909275, ,1.8333333333333333, ,0.7822319921574802, ,0.5101324462766066, ,0.0921613844615416
89, ,PASS, ,0.048398232000000006, ,0.007883305281151528, ,0.0345639117808208, ,0.0003833093959240901, ,1.8333333333333333, ,0.7841654205614, ,0.5100712230362646, ,0.09916124160731414
90, ,PASS, ,0.048594515000000026, ,0.007877490903581707, ,0.03467499898059223, ,0.0003846689380829351, ,1.8333333333333333, ,0.7814418748187385, ,0.5096834758474317, ,0.08240648150037755
91, ,PASS, ,0.048629348, ,0.007887951991385186, ,0.034483505455011124, ,0.00038537447454987445, ,1.8333333333333333, ,0.7845389067761911, ,0.5114181343237894, ,0.09812044652149957
92, ,PASS, ,0.04866989799999999, ,0.007895561411596877, ,0.03451521771212832, ,0.0003860510822719763, ,1.8333333333333333, ,0.7829736706617456, ,0.5100508152894839, ,0.10109997755147854
93, ,PASS, ,0.04850595099999999, ,0.007901189226208239, ,0.03475630061653844, ,0.0003849526170451923, ,1.8333333333333333, ,0.7844993958438151, ,0.510173261770168, ,0.10814065019081243
94, ,PASS, ,0.04835660199999999, ,0.007891658392798123, ,0.034758623954490725, ,0.00038325149476177894, ,1.8333333333333333, ,0.7849366951976872, ,0.5099283688087998, ,0.10436521703638701
95, ,PASS, ,0.04823501399999999, ,0.00784948439209878, ,0.034567207033162586, ,0.00038033468975561576, ,1.8333333333333333, ,0.7836639814786449, ,0.5096834758474317, ,0.09320217954735617
96, ,PASS, ,0.048095507, ,0.007829447157797468, ,0.034622965714250734, ,0.00037829778551206765, ,1.8333333333333333, ,0.78345547622728, ,0.5094793983796249, ,0.08950837738005347
97, ,PASS, ,0.048224367000000004, ,0.00784361259878631, ,0.034460045039366546, ,0.0003799967835156915, ,1.8333333333333333, ,0.7820909663498998, ,0.5088467582294239, ,0.0867941470582233
98, ,PASS, ,0.048036357, ,0.007825316076620984, ,0.0345207386277627, ,0.00037744336724498386, ,1.8333333333333333, ,0.7835719119176695, ,0.5088671659762045, ,0.09777351482622804
99, ,PASS, ,0.048035249, ,0.007786565324601752, ,0.03464001251668333, ,0.0003758005381314296, ,1.8333333333333333, ,0.780901598750332, ,0.5086018652680557, ,0.07773310748760229
100, ,PASS, ,0.047860132, ,0.007797371384194981, ,0.0345173026361911, ,0.0003748425028882711, ,1.8333333333333333, ,0.7823532620885761, ,0.5086018652680557, ,0.0851207118222077
101, ,PASS, ,0.04791765500000002, ,0.007814248602560499, ,0.03439667107883512, ,0.0003761638875778225, ,1.8333333333333333, ,0.7852707280447143, ,0.5087855349890819, ,0.09934491132834024
102, ,PASS, ,0.04794483399999999, ,0.007775733210061218, ,0.03459808110667129, ,0.00037451142342598466, ,1.8333333333333333, ,0.7815502661447196, ,0.5087651272423012, ,0.0818962878308606
103, ,PASS, ,0.048100982999999986, ,0.0078399659560464, ,0.034728281102834636, ,0.00037863826306720305, ,1.8333333333333333, ,0.7836557842404241, ,0.5083569723066876, ,0.09556947817391481
104, ,PASS, ,0.04846413000000001, ,0.007877821160416893, ,0.034753398465153774, ,0.00038345735291653754, ,1.8333333333333333, ,0.7824349093074161, ,0.5082549335727843, ,0.08548805126425991
105, ,PASS, ,0.048255423, ,0.007907049179513207, ,0.03477906722017918, ,0.000383243851963118, ,1.8333333333333333, ,0.7853445300627875, ,0.5082753413195649, ,0.09967143527683109
106, ,PASS, ,0.04877566200000002, ,0.007929391902258184, ,0.034496898679680005, ,0.0003886589557443842, ,1.8333333333333333, ,0.7839566462983845, ,0.5086426807616171, ,0.0907736576804555
107, ,PASS, ,0.048762237, ,0.00794560023923788, ,0.034552318508336566, ,0.0003890897622132258, ,1.8333333333333333, ,0.7832322538929044, ,0.5081733025856615, ,0.09083488092079753
108, ,PASS, ,0.049155407000000026, ,0.007981923755802086, ,0.03481147645778658, ,0.00039419412812926273, ,1.8333333333333333, ,0.7817302915745802, ,0.5086018652680557, ,0.08110038570641416
109, ,PASS, ,0.04928961000000003, ,0.008027728858134417, ,0.03454909998753087, ,0.00039740859814361496, ,1.8333333333333333, ,0.7820168353803328, ,0.5081937103324422, ,0.08224321952613212
110, ,PASS, ,0.04967555000000001, ,0.008078581838595061, ,0.03480784637833922, ,0.0004031012709593632, ,1.8333333333333333, ,0.7814439082449972, ,0.5081120793453194, ,0.0764270116936389
111, ,PASS, ,0.051155894, ,0.0083334658063642, ,0.03493806648864309, ,0.0004282022769521484, ,1.8333333333333333, ,0.7855521055941104, ,0.5100916307830452, ,0.11038550233668701
112, ,PASS, ,0.09899963, ,0.014191346062071992, ,0.037346528277571886, ,0.0014169722688504405, ,1.75, ,0.7646464496877958, ,0.5551723434215629, ,0.27091283851349973
113, ,PASS, ,0.072901899, ,0.010843021462640453, ,0.036480548523009734, ,0.0007952351664367662, ,1.75, ,0.7541564258324603, ,0.5243974612763005, ,0.16385379890206322
114, ,PASS, ,0.04756497699999999, ,0.007791591266858809, ,0.03456435796357217, ,0.00037235039043436856, ,1.8333333333333333, ,0.7842222276288477, ,0.5063570131221812, ,0.07436582926879043
115, ,PASS, ,0.04656906700000001, ,0.0076781449874368, ,0.03442300768698598, ,0.00035921880195554555, ,1.8333333333333333, ,0.7874822033780777, ,0.5060100814269096, ,0.07961062019142466
116, ,PASS, ,0.046675198000000015, ,0.00766809641485626, ,0.03444069365931308, ,0.00035954444108991475, ,1.8333333333333333, ,0.7868091728508333, ,0.506561090589988, ,0.08807983510540601
117, ,PASS, ,0.04666809600000002, ,0.00765279891566501, ,0.034629154851125485, ,0.0003589766851011798, ,1.8333333333333333, ,0.7839521792738419, ,0.5057243729719801, ,0.07505969265933349
118, ,PASS, ,0.046542138000000025, ,0.007634353633235219, ,0.03458473781820779, ,0.0003569976772188986, ,1.8333333333333333, ,0.7861767669336424, ,0.5065814983367687, ,0.0813452786677823
119, ,PASS, ,0.04620780700000002, ,0.007628549562118467, ,0.03451024786330891, ,0.0003542113071863261, ,1.8333333333333333, ,0.7874092214695215, ,0.5064182363625233, ,0.08359013081365686
120, ,PASS, ,0.04635250300000001, ,0.007608449103845977, ,0.03449911848064325, ,0.0003543978934123584, ,1.8333333333333333, ,0.7856497881766883, ,0.5064182363625233, ,0.0795698046978633
121, ,PASS, ,0.04601468000000004, ,0.007532783213001913, ,0.03471731588559417, ,0.0003484215417013673, ,1.8333333333333333, ,0.7812239946478715, ,0.5056631497316382, ,0.0682843207281484
122, ,PASS, ,0.04588760499999998, ,0.00754854294808434, ,0.034358086533948284, ,0.00034794634065705765, ,1.8333333333333333, ,0.7852324725310286, ,0.5058672271994449, ,0.07673312789534907
123, ,PASS, ,0.04559562, ,0.0075111116834506945, ,0.03448271150180608, ,0.0003439482593686395, ,1.8333333333333333, ,0.7866089735359759, ,0.505479480010612, ,0.07699842860349788
124, ,PASS, ,0.04546261999999999, ,0.007449708753594002, ,0.034464463408297785, ,0.0003403542750291538, ,1.8333333333333333, ,0.7842283396023109, ,0.5058468194526642, ,0.07552907083528908
125, ,PASS, ,0.045451479999999995, ,0.0074899344956270725, ,0.034695260968959814, ,0.0003419462828769395, ,1.8333333333333333, ,0.7833689975349466, ,0.5050305095814371, ,0.06932511581396299
126, ,PASS, ,0.04579941299999998, ,0.0075339053119554585, ,0.03432017155996816, ,0.00034666505632308824, ,1.8333333333333333, ,0.786457628381981, ,0.506173343401155, ,0.0813452786677823
127, ,PASS, ,0.04598672000000002, ,0.0075346537287797844, ,0.034627440694475625, ,0.0003482115172944377, ,1.8333333333333333, ,0.7829781960495236, ,0.5057243729719801, ,0.0764270116936389
128, ,PASS, ,0.04570291, ,0.007484851369859571, ,0.03462384845554172, ,0.00034391373893077887, ,1.8333333333333333, ,0.783064140471472, ,0.505357033529928, ,0.0760596722515867
129, ,PASS, ,0.04583913000000003, ,0.007545545877578869, ,0.034785651832411585, ,0.00034747451330960995, ,1.8333333333333333, ,0.7857396961867369, ,0.5056835574784188, ,0.0810595702128528
130, ,PASS, ,0.04622228000000002, ,0.007585328564704948, ,0.03481963887206384, ,0.00035223860357674544, ,1.8333333333333333, ,0.7848741959748815, ,0.5058264117058836, ,0.07740658353911145
131, ,PASS, ,0.046154800000000024, ,0.007578666159966929, ,0.034704336254974384, ,0.0003514403164863605, ,1.8333333333333333, ,0.7827919126139755, ,0.505357033529928, ,0.07144752147915348
132, ,PASS, ,0.04638252000000002, ,0.007636580400525877, ,0.03471720739352258, ,0.00035578024591575064, ,1.8333333333333333, ,0.7837170984991736, ,0.5056631497316382, ,0.08065141527723924
133, ,PASS, ,0.04649018400000002, ,0.007589213141658978, ,0.03468145959817147, ,0.0003546155540293139, ,1.8333333333333333, ,0.7805127757909527, ,0.5053978490234893, ,0.06524356645782739
134, ,PASS, ,0.04642705100000002, ,0.007612917247644275, ,0.03467322066304769, ,0.0003551556857333863, ,1.8333333333333333, ,0.7837836279890962, ,0.5057447807187608, ,0.07432501377522907
135, ,PASS, ,0.04656858600000001, ,0.007630809090896338, ,0.034842613653802985, ,0.0003571678510227121, ,1.8333333333333333, ,0.783871976104451, ,0.5062345666414971, ,0.07636578845329688
136, ,PASS, ,0.04671360400000001, ,0.007647150449409386, ,0.03477528713985429, ,0.00035906069774890333, ,1.8333333333333333, ,0.7844671340932556, ,0.5062753821350585, ,0.08212077304544806
137, ,PASS, ,0.046451017000000025, ,0.007670440270029, ,0.03464223460153874, ,0.00035793353093524326, ,1.8333333333333333, ,0.7879108312722268, ,0.5059080426930063, ,0.08569212873206669
138, ,PASS, ,0.04673168400000001, ,0.00764952072646006, ,0.0347299078480031, ,0.0003591684730584438, ,1.8333333333333333, ,0.7835308747200893, ,0.5060917124140324, ,0.07481479969796535
139, ,PASS, ,0.04656119800000003, ,0.007682657404240484, ,0.034642995331523846, ,0.00035930322374912296, ,1.8333333333333333, ,0.7881975717593095, ,0.5066427215771107, ,0.09028387175771924
140, ,PASS, ,0.04666764100000001, ,0.007654475774436038, ,0.0348160607544744, ,0.00035893079701978663, ,1.8333333333333333, ,0.783027966396437, ,0.5061325279075938, ,0.07552907083528908
141, ,PASS, ,0.04630051000000002, ,0.007622163081072087, ,0.03491663088712475, ,0.00035457205800571345, ,1.8333333333333333, ,0.7848742906167738, ,0.505357033529928, ,0.08246770474071957
142, ,PASS, ,0.046046480000000035, ,0.0075498409125478476, ,0.03469591124752556, ,0.00034935603403610607, ,1.8333333333333333, ,0.7827820890296241, ,0.5050713250749985, ,0.07728413705842738
143, ,PASS, ,0.045878320000000014, ,0.007535010330132395, ,0.034543642974837245, ,0.0003472338397264414, ,1.8333333333333333, ,0.7823189552078763, ,0.5052549947960245, ,0.07128425950490806
144, ,PASS, ,0.045904192000000024, ,0.007535272909418155, ,0.03456260391685884, ,0.0003473947396104983, ,1.8333333333333333, ,0.783934692285052, ,0.504336646190894, ,0.07414134405420297
145, ,PASS, ,0.046123350000000035, ,0.007522688574794453, ,0.03466553430603457, ,0.00034874924188663293, ,1.8333333333333333, ,0.7802868649492798, ,0.5050509173282178, ,0.07416175180098365
146, ,PASS, ,0.04653576400000002, ,0.007629747210403326, ,0.034513968267382296, ,0.00035677139792641147, ,1.8333333333333333, ,0.7830944650834422, ,0.50541825677027, ,0.07173322993408297
147, ,PASS, ,0.046034941000000024, ,0.007478113958063623, ,0.034484808085141115, ,0.000345903852128496, ,1.8333333333333333, ,0.7777268993124564, ,0.5040305299891839, ,0.0582028938184935
148, ,PASS, ,0.045967430000000004, ,0.007444693109713404, ,0.03464175701720373, ,0.0003440253569097877, ,1.8333333333333333, ,0.7781159389316565, ,0.504846839860411, ,0.0707944735821718
149, ,PASS, ,0.04603853000000003, ,0.0074733943320670765, ,0.03467019662659945, ,0.0003459138309593228, ,1.8333333333333333, ,0.7809144285336553, ,0.5051733638089019, ,0.07559029407563111
150, ,PASS, ,0.04626881100000002, ,0.007545264490032184, ,0.034620596776800475, ,0.000350817857952519, ,1.8333333333333333, ,0.780407125889083, ,0.5041937919634293, ,0.07244750107140671
151, ,PASS, ,0.04607221000000004, ,0.007558274748359203, ,0.034640722044448076, ,0.0003499289770525676, ,1.8333333333333333, ,0.7813382402784284, ,0.5045611314054815, ,0.07797800044897044
152, ,PASS, ,0.04613343600000002, ,0.007581592959018607, ,0.03462561093420542, ,0.00035121303687693414, ,1.8333333333333333, ,0.7850192470384579, ,0.5051529560621212, ,0.07371278137180874
153, ,PASS, ,0.04656313400000002, ,0.007634318913726139, ,0.03468559986102324, ,0.00035724603654744885, ,1.8333333333333333, ,0.7822260005791818, ,0.5049692863410951, ,0.07622293422583212
154, ,PASS, ,0.047674787999999996, ,0.007816041508461538, ,0.03476959495949062, ,0.00037442205217034125, ,1.8333333333333333, ,0.7863481448512332, ,0.5066427215771107, ,0.08116160894675618
155, ,PASS, ,0.04653165700000001, ,0.007636585451555298, ,0.034589025467235364, ,0.00035707795405026725, ,1.8333333333333333, ,0.7836110917388603, ,0.5054998877573927, ,0.0752229546335789
156, ,PASS, ,0.04663376400000002, ,0.0077032756068642376, ,0.03462371391461399, ,0.0003608554924303542, ,1.8333333333333333, ,0.7875581414614508, ,0.5051121405685598, ,0.08710026325993347
157, ,PASS, ,0.047226821999999995, ,0.007701116489310807, ,0.03461967046448032, ,0.00036563130726065913, ,1.8333333333333333, ,0.7811852123921416, ,0.5052754025428052, ,0.07048835738046162
158, ,PASS, ,0.047225613999999985, ,0.007737184786365749, ,0.03478949917675149, ,0.00036736043451189376, ,1.8333333333333333, ,0.7820944398424606, ,0.5049692863410951, ,0.07840656313136467
159, ,PASS, ,0.047332416, ,0.007755039511508788, ,0.034646072547274545, ,0.0003688977160524043, ,1.8333333333333333, ,0.7847161375335628, ,0.50541825677027, ,0.07493724617864941
160, ,PASS, ,0.04754860799999998, ,0.007747893215489117, ,0.03469090840227751, ,0.00037035900246317784, ,1.8333333333333333, ,0.7814334913470244, ,0.5057447807187608, ,0.07299851023448502
161, ,PASS, ,0.04734069799999999, ,0.007765840659991795, ,0.034656913635027854, ,0.0003694958033194982, ,1.8333333333333333, ,0.7831594318558526, ,0.5050713250749985, ,0.07087610456929451
162, ,PASS, ,0.047531253, ,0.00775618184490744, ,0.03485056399930614, ,0.00037056580138569104, ,1.8333333333333333, ,0.7827379728496366, ,0.5057651884655415, ,0.07920246525581111
163, ,PASS, ,0.04729808899999998, ,0.00780836541515425, ,0.034659525098059224, ,0.0003711951753599225, ,1.8333333333333333, ,0.7875241993716949, ,0.5056835574784188, ,0.08581457521275077
164, ,PASS, ,0.04747689599999999, ,0.007792029935242847, ,0.03468983057488623, ,0.00037187068004016925, ,1.8333333333333333, ,0.7849067073087271, ,0.5060304891736903, ,0.07459031448337788
165, ,PASS, ,0.04772926799999999, ,0.007823934749520796, ,0.0348095654415216, ,0.00037542875474219135, ,1.8333333333333333, ,0.7861478278584774, ,0.5059896736801289, ,0.07620252647905144
166, ,PASS, ,0.04766253600000001, ,0.00784942412406244, ,0.034823212740495095, ,0.00037585966340485935, ,1.8333333333333333, ,0.7841421558003595, ,0.50541825677027, ,0.0731005489683884
167, ,PASS, ,0.04749991499999999, ,0.007833969858753738, ,0.03480896611130385, ,0.00037403938535990994, ,1.8333333333333333, ,0.7872189033016679, ,0.5058672271994449, ,0.08030448358196772
168, ,PASS, ,0.047703436, ,0.00786565045085519, ,0.034672092786779865, ,0.00037702964592706625, ,1.8333333333333333, ,0.7889843979868276, ,0.506050896920471, ,0.09144711332421787
169, ,PASS, ,0.04762246799999999, ,0.007850719114939671, ,0.03466997860382441, ,0.00037558283984736744, ,1.8333333333333333, ,0.7864992765599338, ,0.5057243729719801, ,0.0784677863717067
170, ,PASS, ,0.047588009, ,0.007791664392149393, ,0.03484547659190629, ,0.00037273229963539855, ,1.8333333333333333, ,0.7836444315081276, ,0.5053774412767086, ,0.07544743984816636
171, ,PASS, ,0.047768294, ,0.007812344024769497, ,0.034767385597008225, ,0.000374968023848263, ,1.8333333333333333, ,0.7848986078022246, ,0.5054590722638314, ,0.08056978429011653
172, ,PASS, ,0.047449909, ,0.007789122680548952, ,0.03461919971612824, ,0.0003712369194526343, ,1.8333333333333333, ,0.7855292756544724, ,0.5054590722638314, ,0.08161057937593111
173, ,PASS, ,0.04725688599999999, ,0.007750883907974726, ,0.034779630232729945, ,0.00036802188964591586, ,1.8333333333333333, ,0.7831447241070588, ,0.5045203159119201, ,0.07701883635027856
174, ,PASS, ,0.04668875900000001, ,0.007705617638389922, ,0.034573061732883, ,0.00036162987419216324, ,1.8333333333333333, ,0.786081190653731, ,0.5045203159119201, ,0.07683516662925247
175, ,PASS, ,0.046635388, ,0.0076703731769170655, ,0.03441641835758454, ,0.0003593984332106009, ,1.8333333333333333, ,0.7836328301334179, ,0.5039693067488419, ,0.0727332095263362
176, ,PASS, ,0.046619961000000015, ,0.0076895772463571495, ,0.034419694092977696, ,0.00036014339882050597, ,1.8333333333333333, ,0.7842678799883506, ,0.5037448215342544, ,0.07924328074937247
177, ,PASS, ,0.047012573000000016, ,0.0076140535818644455, ,0.03437676738005346, ,0.0003598240991467523, ,1.8333333333333333, ,0.7770842558827005, ,0.50421419971021, ,0.060141629762657904
178, ,PASS, ,0.04698181, ,0.00763845751015705, ,0.0344577595761311, ,0.0003606039496193243, ,1.8333333333333333, ,0.779316117243532, ,0.5040509377359645, ,0.07122303626456603
179, ,PASS, ,0.046232542000000015, ,0.007606687519785174, ,0.03452767290267546, ,0.00035344188183658484, ,1.8333333333333333, ,0.782792158639151, ,0.5032346278647375, ,0.07589641027734127
180, ,PASS, ,0.046759422999999994, ,0.007674620906414404, ,0.034669394784596234, ,0.0003606127973494631, ,1.8333333333333333, ,0.7816396666573784, ,0.5033570743454215, ,0.0748556151915267
181, ,PASS, ,0.04678392300000002, ,0.007699179085338673, ,0.0345700598034734, ,0.0003618458426353405, ,1.8333333333333333, ,0.7852282595513419, ,0.5039693067488419, ,0.07020264892553213
182, ,PASS, ,0.047133464, ,0.007721046922028914, ,0.0345676184683782, ,0.00036567359004440267, ,1.8333333333333333, ,0.7805865308976423, ,0.5038264525213771, ,0.0690394073590335
183, ,PASS, ,0.047325291000000005, ,0.0077470605102241625, ,0.034426327784739086, ,0.00036847745975147065, ,1.8333333333333333, ,0.7849419044135242, ,0.5039488990020612, ,0.074773984204404
184, ,PASS, ,0.04786274899999999, ,0.00781236242631534, ,0.03455810233705435, ,0.00037572224781214124, ,1.8333333333333333, ,0.779690325793108, ,0.503520336319667, ,0.06789657353931552
185, ,PASS, ,0.047763728000000005, ,0.007837066529706475, ,0.03467068091232832, ,0.0003760165620052092, ,1.8333333333333333, ,0.7805480563295127, ,0.5028264729291239, ,0.07344748066365993
186, ,PASS, ,0.04899319000000002, ,0.008023849077496663, ,0.03462547945799065, ,0.0003948904543076422, ,1.8333333333333333, ,0.783465132942725, ,0.5046019468990429, ,0.07330462643619517
187, ,PASS, ,0.09559731, ,0.0139506555829634, ,0.03768241993744291, ,0.0013438403065961079, ,1.8333333333333333, ,0.7644930600308318, ,0.542805248872472, ,0.2566070080202445
188, ,PASS, ,0.06818011967, ,0.01003537604603444, ,0.03672744169672047, ,0.0006886252688905084, ,1.75, ,0.7515700979387863, ,0.5244790922634232, ,0.16244566437419644
189, ,PASS, ,0.04403153, ,0.007271113341166673, ,0.03484630569621028, ,0.00032172607136298127, ,1.8333333333333333, ,0.7888025742079321, ,0.5057447807187608, ,0.09232464643578703
190, ,PASS, ,0.04341970000000002, ,0.007177353431185978, ,0.03490973052100978, ,0.0003131499311341393, ,1.8333333333333333, ,0.7922718073851711, ,0.5062141588947164, ,0.10754882553417278
191, ,PASS, ,0.043593320000000005, ,0.007167933895777298, ,0.03463222687088018, ,0.00031412902253177285, ,1.8333333333333333, ,0.789991754612047, ,0.5065202750964266, ,0.08244729699393889
192, ,PASS, ,0.04342137000000001, ,0.007159528785524277, ,0.03476651580906512, ,0.0003124713456484133, ,1.8333333333333333, ,0.7901402860843528, ,0.5062957898818391, ,0.09487561478337177
193, ,PASS, ,0.043201779999999995, ,0.00715768559728866, ,0.034744923120956714, ,0.0003106325883920506, ,1.8333333333333333, ,0.79158312707085, ,0.5053162180363666, ,0.09926328034121752
194, ,PASS, ,0.043298909999999996, ,0.007088836775461781, ,0.034729741365278254, ,0.000308588108369827, ,1.8333333333333333, ,0.7867342833556518, ,0.5068263912981368, ,0.08669210832431991
195, ,PASS, ,0.04300617, ,0.007131749318843132, ,0.0347369668825126, ,0.00030831188247939167, ,1.8333333333333333, ,0.7906798121072995, ,0.5064386441093038, ,0.09626334156445787
196, ,PASS, ,0.04307752999999999, ,0.0071441938222223745, ,0.03466755049019408, ,0.00030913651327377196, ,1.8333333333333333, ,0.7905796696351042, ,0.5052141793024633, ,0.09681435072753618
197, ,PASS, ,0.04304414, ,0.007116109299090163, ,0.034658245618864915, ,0.0003078308103553276, ,1.8333333333333333, ,0.7884069571714637, ,0.5056835574784188, ,0.08897777596375585
198, ,PASS, ,0.04296654, ,0.0070660266600055845, ,0.034811640947939836, ,0.0003051088033183304, ,1.8333333333333333, ,0.7873161996209042, ,0.5058060039591029, ,0.07940654272361788
199, ,PASS, ,0.04262998999999999, ,0.007041136146061926, ,0.034784622649537765, ,0.0003016221051543808, ,1.8333333333333333, ,0.7879963631588522, ,0.5050713250749985, ,0.08759004918266974
200, ,PASS, ,0.04231158999999998, ,0.0070035236813709816, ,0.03475172990918552, ,0.0002977373618255674, ,1.8333333333333333, ,0.7913953142514659, ,0.5060100814269096, ,0.10642639946123549
201, ,PASS, ,0.04208851999999999, ,0.0069653455542671395, ,0.03478170307320259, ,0.0002944910170772253, ,1.8333333333333333, ,0.7888460569455162, ,0.5052549947960245, ,0.08228403501969347
202, ,PASS, ,0.041936159999999986, ,0.006925885072485073, ,0.03461809460459991, ,0.00029189910372173533, ,1.8333333333333333, ,0.7876211596091205, ,0.5048672476071917, ,0.07950858145752128
203, ,PASS, ,0.04208565999999997, ,0.006926031606745881, ,0.03466437783861554, ,0.0002929405796860338, ,1.8333333333333333, ,0.7866715513432205, ,0.5049896940878758, ,0.0727332095263362
204, ,PASS, ,0.04247404, ,0.006939477901004735, ,0.03463329826330074, ,0.00029628374102563543, ,1.8333333333333333, ,0.7809390757191188, ,0.5043162384441134, ,0.07142711373237282
205, ,PASS, ,0.04217807999999998, ,0.0069595613954085405, ,0.03457072255729475, ,0.0002949797166964903, ,1.8333333333333333, ,0.7866534668146252, ,0.5051937715556826, ,0.07542703210138568
206, ,PASS, ,0.04230263999999998, ,0.006978026419347953, ,0.034724250280810595, ,0.0002964833950732396, ,1.8333333333333333, ,0.7890336768849422, ,0.505540703250954, ,0.08959000836717618
207, ,PASS, ,0.04233615999999999, ,0.006965424641135832, ,0.03474580947082712, ,0.00029640226166228795, ,1.8333333333333333, ,0.7857456241010189, ,0.5054590722638314, ,0.07669231240178771
208, ,PASS, ,0.042443249999999974, ,0.006986219520219663, ,0.03464353318646558, ,0.000298002058809047, ,1.8333333333333333, ,0.7868966583918388, ,0.5060100814269096, ,0.08497785759474297
209, ,PASS, ,0.04245780999999997, ,0.00697427836943185, ,0.034564961962613, ,0.0002976486018448006, ,1.8333333333333333, ,0.7865267569404728, ,0.5062753821350585, ,0.08254933572784229
210, ,PASS, ,0.04213549999999999, ,0.006949578570095276, ,0.03461173086243138, ,0.00029429175973892153, ,1.8333333333333333, ,0.7870838207558433, ,0.5054590722638314, ,0.08183506459051856
211, ,PASS, ,0.04225697999999998, ,0.006961561942203144, ,0.0347207167168017, ,0.0002956902339437019, ,1.8333333333333333, ,0.7882059447531561, ,0.5060100814269096, ,0.08834513581355483
212, ,PASS, ,0.04221534999999997, ,0.006980302442349765, ,0.03468180365114997, ,0.0002960390921628958, ,1.8333333333333333, ,0.788748226039113, ,0.5056223342380768, ,0.10350809167159854
213, ,PASS, ,0.04215740999999998, ,0.006989605807231808, ,0.034492268172486275, ,0.00029589951209968955, ,1.8333333333333333, ,0.7899339593771774, ,0.5061121201608131, ,0.09520213873186262
214, ,PASS, ,0.04235676999999999, ,0.006971424204730248, ,0.0346867990743046, ,0.0002965558234947899, ,1.8333333333333333, ,0.7870140867858981, ,0.5059080426930063, ,0.08461051815269076
215, ,PASS, ,0.042357059999999995, ,0.007001757396534536, ,0.03462047562600763, ,0.0002979648609590173, ,1.8333333333333333, ,0.789264163217219, ,0.5060100814269096, ,0.09954898879614701
216, ,PASS, ,0.04273932, ,0.007038562994758009, ,0.0347303452784637, ,0.00030232422451652806, ,1.8333333333333333, ,0.7886488461215831, ,0.5068672067916982, ,0.08965123160751821
217, ,PASS, ,0.04294391999999999, ,0.007087335873459206, ,0.03477518655864165, ,0.00030577802553045637, ,1.8333333333333333, ,0.7891671235445606, ,0.5071529152466276, ,0.09916124160731414
218, ,PASS, ,0.043087260000000016, ,0.0071032323860454605, ,0.034885448402889735, ,0.00030752665488809386, ,1.8333333333333333, ,0.7872298145285664, ,0.5065814983367687, ,0.0817942490969572
219, ,PASS, ,0.04304053, ,0.007106215170313378, ,0.03485538498785739, ,0.00030718489489518265, ,1.8333333333333333, ,0.79058063150357, ,0.5072345462337503, ,0.1053039733882982
220, ,PASS, ,0.04336624000000002, ,0.007150182818216112, ,0.03485933096140895, ,0.0003114606901088573, ,1.8333333333333333, ,0.7888829896955077, ,0.5074998469418991, ,0.10007959021244464
221, ,PASS, ,0.04403969000000001, ,0.00723186927904777, ,0.03467648016836391, ,0.00031999859441934246, ,1.8333333333333333, ,0.7892316383473943, ,0.5085610497744943, ,0.10673251566294566
222, ,PASS, ,0.04298941000000002, ,0.007074291293305207, ,0.03495676894083794, ,0.00030552499646296666, ,1.8333333333333333, ,0.7863273731014532, ,0.5067039448174527, ,0.08914103793800127
223, ,PASS, ,0.04305249000000001, ,0.007054217219197071, ,0.03476287090243056, ,0.000305152998087394, ,1.8333333333333333, ,0.7857570167307242, ,0.5069488377788208, ,0.08759004918266974
224, ,PASS, ,0.04307885, ,0.007056172127802583, ,0.034895271136711495, ,0.0003054928577090272, ,1.8333333333333333, ,0.7851227399423371, ,0.5073161772208731, ,0.07552907083528908
225, ,PASS, ,0.043043899999999996, ,0.007067939595984401, ,0.034733858522070976, ,0.0003057708610653999, ,1.8333333333333333, ,0.7860837083550272, ,0.5071529152466276, ,0.0905899879594294
226, ,PASS, ,0.042867329999999995, ,0.007061845102989894, ,0.03486748306565172, ,0.0003042718861326197, ,1.8333333333333333, ,0.7882486357877965, ,0.5068059835513561, ,0.09310014081345279
227, ,PASS, ,0.042994419999999985, ,0.00704992223988286, ,0.03462549956368237, ,0.0003045643888767239, ,1.8333333333333333, ,0.7850184125649019, ,0.5067039448174527, ,0.0851207118222077
228, ,PASS, ,0.043079130000000014, ,0.007095348462953152, ,0.03484181449705108, ,0.0003071882365650002, ,1.8333333333333333, ,0.7873479738380856, ,0.5070712842595049, ,0.09765106834554396
229, ,PASS, ,0.04424635999999998, ,0.007258968415202186, ,0.035063626605375396, ,0.0003229264713995589, ,1.8333333333333333, ,0.7883588651879558, ,0.5092345054182568, ,0.09889594089916533
230, ,PASS, ,0.043198020000000004, ,0.007114179617723215, ,0.03480155922368931, ,0.0003088191547273572, ,1.8333333333333333, ,0.7869936718782766, ,0.5070712842595049, ,0.09536540070610804
231, ,PASS, ,0.04314387, ,0.007107236859964131, ,0.03473430127997387, ,0.0003081445685299478, ,1.8333333333333333, ,0.7891222624654783, ,0.5073978082079957, ,0.10707944735821717
232, ,PASS, ,0.04286882000000002, ,0.007073123678226667, ,0.034870114765004796, ,0.0003045125623018907, ,1.8333333333333333, ,0.785786956609121, ,0.5066427215771107, ,0.08797779637150262
233, ,PASS, ,0.043003120000000006, ,0.007068419790176861, ,0.03486127349115324, ,0.000305398995686117, ,1.8333333333333333, ,0.7868869575862388, ,0.5069488377788208, ,0.09534499295932736
234, ,PASS, ,0.042769769999999985, ,0.007037852926663237, ,0.03471927985530907, ,0.00030240953902615705, ,1.8333333333333333, ,0.7863229132013548, ,0.5068059835513561, ,0.08469214913981347
235, ,PASS, ,0.04313067999999999, ,0.007072305446274418, ,0.034732767202914225, ,0.00030639866092619755, ,1.8333333333333333, ,0.7853639065785847, ,0.5069488377788208, ,0.08195751107120262
236, ,PASS, ,0.043182640000000015, ,0.007107824679266681, ,0.034678593730740184, ,0.0003082932990020759, ,1.8333333333333333, ,0.7866352600914533, ,0.5068263912981368, ,0.0903042795044999
237, ,PASS, ,0.04328070999999998, ,0.007158437633000882, ,0.0345394681088141, ,0.0003111709815924863, ,1.8333333333333333, ,0.7887358966259808, ,0.50662231383033, ,0.09932450358155956
238, ,PASS, ,0.043528950000000025, ,0.007087999563242904, ,0.03478806216750678, ,0.0003100640848821959, ,1.8333333333333333, ,0.7833693747942665, ,0.5070304687659436, ,0.07312095671516908
239, ,PASS, ,0.04309711000000002, ,0.00708702335545788, ,0.03495491189506336, ,0.00030685921046537254, ,1.8333333333333333, ,0.7857809082434808, ,0.50662231383033, ,0.08087590049182669
240, ,PASS, ,0.043299370000000025, ,0.00710602294984774, ,0.034630915937838, ,0.00030910525421513294, ,1.8333333333333333, ,0.7834793693034252, ,0.5064998673496459, ,0.08028407583518704
241, ,PASS, ,0.04321516, ,0.007094215385378719, ,0.03468944717801677, ,0.00030797630732025963, ,1.8333333333333333, ,0.7841625355885488, ,0.506050896920471, ,0.07752903001979551
242, ,PASS, ,0.04286432999999999, ,0.00707758657470832, ,0.03453188645252137, ,0.0003047241714538657, ,1.8333333333333333, ,0.7867506453811898, ,0.5059692659333483, ,0.0945694985816616
243, ,PASS, ,0.043302910000000014, ,0.007098931002465317, ,0.03452116742535866, ,0.0003088470892090892, ,1.8333333333333333, ,0.7839087230518352, ,0.5062345666414971, ,0.07465153772371992
244, ,PASS, ,0.04368682000000002, ,0.007128301026175615, ,0.03468222218750638, ,0.00031303330187388423, ,1.8333333333333333, ,0.7816291076251027, ,0.5056223342380768, ,0.07599844901124467
245, ,PASS, ,0.043771610000000016, ,0.007195561415576504, ,0.034764851301402014, ,0.00031649892821531165, ,1.8333333333333333, ,0.7850185142391423, ,0.5062957898818391, ,0.08216158853900941
246, ,PASS, ,0.043661770000000016, ,0.007160715538713372, ,0.034631657691067526, ,0.00031407615866685883, ,1.8333333333333333, ,0.7848414383238643, ,0.50662231383033, ,0.08293708291667518
247, ,PASS, ,0.043852700000000015, ,0.00717967718367451, ,0.034771924280728964, ,0.0003162673249612432, ,1.8333333333333333, ,0.784022548577709, ,0.5067039448174527, ,0.08144731740168568
248, ,PASS, ,0.04387523000000002, ,0.007232975620976782, ,0.034745836978837166, ,0.00031884302543254325, ,1.8333333333333333, ,0.7865405991461119, ,0.5060100814269096, ,0.09210016122119957
249, ,PASS, ,0.04397413000000001, ,0.007257724432458117, ,0.034652819048999, ,0.00032049758916586376, ,1.8333333333333333, ,0.7875914302748676, ,0.5062753821350585, ,0.10303871349564295
250, ,PASS, ,0.043798610000000016, ,0.007197673818399493, ,0.03478937152384645, ,0.00031667831754492843, ,1.8333333333333333, ,0.7871728895228867, ,0.5067651680577947, ,0.09303891757311075
251, ,PASS, ,0.04395419000000001, ,0.007258403520429744, ,0.03473542375829065, ,0.0003203946481099185, ,1.8333333333333333, ,0.7880596315795542, ,0.5069284300320401, ,0.09620211832411583
252, ,PASS, ,0.04394543000000001, ,0.0072152978741277865, ,0.034882748242893, ,0.00031850782457489154, ,1.8333333333333333, ,0.784242421515999, ,0.5062753821350585, ,0.0855900899981633
253, ,PASS, ,0.04414229000000003, ,0.0072549058751012535, ,0.03455417739597151, ,0.0003216116858304201, ,1.8333333333333333, ,0.7857806194600608, ,0.5066631293238913, ,0.09291647109242669
254, ,PASS, ,0.04443252999999999, ,0.007314055771268274, ,0.034762071690373667, ,0.00032648733252006956, ,1.8333333333333333, ,0.7865645953734938, ,0.506744760311014, ,0.091059366135385
255, ,PASS, ,0.04498431, ,0.007278305201052386, ,0.034866035668251666, ,0.0003290838312703159, ,1.8333333333333333, ,0.7785726861559044, ,0.5061325279075938, ,0.07228423909716128
