Channel, ,Pass/Fail, ,Amplitude, ,Sorting Function Response, ,Mean, ,Variance
24, ,PASS, ,0.046493589480212, ,0.030169911461426804, ,0.003437567147808745, ,0.0003017467105744369
25, ,PASS, ,0.08833780277531299, ,0.04678851721448569, ,0.0073046531142084235, ,0.0008729245137659186
26, ,PASS, ,0.053866056776870994, ,0.038863847957331395, ,0.0036943165340791078, ,0.0004536503449468436
27, ,PASS, ,0.050930316344730005, ,0.030857026852534736, ,0.0037120738309273814, ,0.0003371124609106085
28, ,PASS, ,0.09085692649624699, ,0.04666270007871603, ,0.007493976488930326, ,0.0008946120697818205
29, ,PASS, ,0.05800168709356801, ,0.038971358451014994, ,0.004080411043739782, ,0.0004885301118167665
30, ,PASS, ,0.05385148767714, ,0.032089852146021676, ,0.0041088041474868576, ,0.00037064232262680615
31, ,PASS, ,0.094832827519124, ,0.048523304886865494, ,0.007830914559489319, ,0.0009705609972282679
32, ,PASS, ,0.058913330627266995, ,0.03785869242244982, ,0.0041363839526467015, ,0.00048155051504496005
33, ,PASS, ,0.05263158703113899, ,0.03165286632022884, ,0.004003250649209462, ,0.0003570157491815413
34, ,PASS, ,0.09352788930335298, ,0.0482140707934069, ,0.007735162106781014, ,0.0009509770144754373
35, ,PASS, ,0.057359175730913, ,0.036924814592238495, ,0.004068560967281183, ,0.0004567071786378411
36, ,PASS, ,0.055713058709215, ,0.03267677608580149, ,0.004219581427973625, ,0.0003895646279415134
37, ,PASS, ,0.09518670211711701, ,0.04886388758531316, ,0.00787815842185215, ,0.000980889573904689
38, ,PASS, ,0.06005534444782, ,0.03800680476957379, ,0.0042880946368962095, ,0.0004917325038887278
39, ,PASS, ,0.051933991010780015, ,0.03153352064995206, ,0.003911277936890844, ,0.0003511681017763208
40, ,PASS, ,0.09174618436064502, ,0.04805565680809823, ,0.007622681838100551, ,0.0009304240573588822
41, ,PASS, ,0.053952041942087, ,0.03556006939640235, ,0.0037946874756319498, ,0.00041426933608784873
42, ,PASS, ,0.053005014687594, ,0.03183824417142004, ,0.004059771254260323, ,0.0003614759171334356
43, ,PASS, ,0.09175384583462098, ,0.04806391032839775, ,0.007578970245361618, ,0.0009306412720129043
44, ,PASS, ,0.054675525910521, ,0.03536340946200569, ,0.0038883860571514816, ,0.00041685519047512384
45, ,PASS, ,0.05532857534447601, ,0.0331843269464958, ,0.004263406374375154, ,0.00039360885209296253
46, ,PASS, ,0.09442919486927101, ,0.04931506216106711, ,0.00782755854635396, ,0.0009829941115851463
47, ,PASS, ,0.054781947064658, ,0.03571211430887642, ,0.003916698724123629, ,0.000422657206579238
48, ,PASS, ,0.053151862758333016, ,0.03242402113164918, ,0.004068810426016142, ,0.00036945697098798267
49, ,PASS, ,0.092086464621082, ,0.04861087899507269, ,0.0076526996314731505, ,0.000945148184766795
50, ,PASS, ,0.052639869579598, ,0.035014290400426196, ,0.0037113209809504577, ,0.0003982628267618135
51, ,PASS, ,0.05479508701061302, ,0.03307643232367657, ,0.004109446113723022, ,0.0003883523780267074
52, ,PASS, ,0.093824188284105, ,0.04926578562169065, ,0.007791739190421704, ,0.0009760883391237974
53, ,PASS, ,0.055113184324616, ,0.035785649346293615, ,0.0038840474890440933, ,0.0004259623438633087
54, ,PASS, ,0.049293199136834, ,0.031377646540415666, ,0.00370883386084759, ,0.00033252302284459355
55, ,PASS, ,0.08919496511898502, ,0.04800032489624309, ,0.007403654992177186, ,0.000904809068793061
56, ,PASS, ,0.047693078124176995, ,0.03327842328879322, ,0.0033048383404598357, ,0.00034396970515692315
57, ,PASS, ,0.04944237220209599, ,0.03101381342896272, ,0.003717743825173615, ,0.0003294156935738835
58, ,PASS, ,0.08957922479286201, ,0.04813151327676957, ,0.007465507062079108, ,0.0009110331057298526
59, ,PASS, ,0.048018312266181, ,0.032781543194088235, ,0.0033460814828476107, ,0.00034058009537892936
60, ,PASS, ,0.055681224817766994, ,0.03558817143036774, ,0.004089647180610713, ,0.00042571527521811063
61, ,PASS, ,0.094823669429437, ,0.051598266234453, ,0.007898937950399575, ,0.001034859967192498
62, ,PASS, ,0.051971683751813, ,0.03579983087114066, ,0.0036420920731850444, ,0.00040283403508855036
198, ,PASS, ,0.08608452083934101, ,0.06553480052505903, ,0.00014072235073220264, ,0.0013061930170774152
199, ,PASS, ,0.065331643015701, ,0.049648867705272305, ,0.00015752624037004126, ,0.0007568935177203405
200, ,PASS, ,0.047494425541648004, ,0.03237292004436715, ,-0.00013772297032620836, ,0.00036172716577690745
201, ,PASS, ,0.04073722389049, ,0.028433658219906215, ,-9.749571319242637e-05, ,0.0002728770468689023
202, ,PASS, ,0.049613980910663005, ,0.03307483865319788, ,-0.000206115095382194, ,0.000386953523979865
203, ,PASS, ,0.045769794936388, ,0.03144106219393716, ,-6.69678384567936e-05, ,0.000338901992643643
204, ,PASS, ,0.06757846216267602, ,0.04609842785115179, ,-0.0002312571036834054, ,0.0007300665731058536
205, ,PASS, ,0.07091142616002599, ,0.049654573508521545, ,-0.00015310686308501795, ,0.0008216866002776723
206, ,PASS, ,0.059087955962235, ,0.03981824620890532, ,-0.0002897363083058269, ,0.0005522438215827825
207, ,PASS, ,0.072797512170445, ,0.050783679250759835, ,-0.00013974551545592622, ,0.000867031889337338
208, ,PASS, ,0.052992688209832994, ,0.035234638882448155, ,-0.00019324703952401342, ,0.00044041192672052967
209, ,PASS, ,0.047151120845012995, ,0.03198849616928342, ,-0.00013194471022284047, ,0.00035553119922486677
210, ,PASS, ,0.04948534889792801, ,0.032804834447407734, ,-0.0001657218128717935, ,0.0003831341370555029
211, ,PASS, ,0.055826488620720996, ,0.039201693366134736, ,-0.0001059398566419952, ,0.0005154781859932444
212, ,PASS, ,0.07207072834984199, ,0.0500408657257697, ,-0.00019287989347155455, ,0.0008445376750152873
213, ,PASS, ,0.054313409254821005, ,0.03973227853387389, ,0.00033871498708046966, ,0.0005017844026101734
214, ,PASS, ,0.05421482376406699, ,0.037191207839208255, ,-0.00012443346864708614, ,0.0004755463628185411
215, ,PASS, ,0.06185468791207, ,0.044409582996206405, ,7.321369100813868e-05, ,0.0006461071755918239
216, ,PASS, ,0.050882072146168994, ,0.03453186881104873, ,-3.896090700908881e-05, ,0.00041607914061819295
217, ,FAIL, ,7.670690426614746e-05, ,1.224964531613869e-05, ,5.311734802814509e-05, ,2.831827288163156e-10
218, ,PASS, ,0.051476004879979, ,0.03492137784474919, ,-0.00014056979865064565, ,0.0004258610981685557
219, ,PASS, ,0.055224772190301995, ,0.0376512256771446, ,-0.00014558089419198968, ,0.0004934405033855468
220, ,PASS, ,0.04932354663606299, ,0.031543549201739796, ,-0.00023783503020430462, ,0.000370807364288184
221, ,PASS, ,0.042008856785585996, ,0.027074441897529184, ,-0.00014998823665772937, ,0.0002711056998219207
222, ,PASS, ,0.045221474942465, ,0.02855687470017597, ,-0.00016749816360282893, ,0.00030829708047569807
223, ,PASS, ,0.044028790111027005, ,0.028101932830621148, ,-0.00011708806494779528, ,0.00029571462269289246
224, ,PASS, ,0.07893622366915701, ,0.051552850642851686, ,-0.00037732318018279424, ,0.000960656735627796
225, ,PASS, ,0.061407655899012, ,0.0392901524041873, ,-0.00030225574074062116, ,0.0005746571625920352
226, ,PASS, ,0.061744309738358996, ,0.03883296490650972, ,-0.0003135674415274284, ,0.0005720523979149332
227, ,PASS, ,0.061678138650412, ,0.039319550162652254, ,-0.0002884778638184251, ,0.0005774931394664544
228, ,PASS, ,0.048044627583507, ,0.030173407324777086, ,-0.00018801971368336373, ,0.00034545319460539025
229, ,PASS, ,0.041986748039283, ,0.026358012011473603, ,-0.00014539882817322366, ,0.0002637954730281671
230, ,PASS, ,0.04083209395801301, ,0.025122757130995342, ,-0.00010841884605870835, ,0.00024468550496727125
231, ,PASS, ,0.045111400655050996, ,0.028144514777139622, ,-0.00014367584160403566, ,0.0003022857310334239
232, ,PASS, ,0.054474143218078, ,0.03332804161537646, ,-0.0002415704967127974, ,0.0004331830573396666
233, ,PASS, ,0.058392803585987, ,0.034871374616133204, ,-0.00033665753294984845, ,0.0004866120934497258
234, ,PASS, ,0.07403508816638701, ,0.04393107577589435, ,-0.0005021018764094711, ,0.0007774610763196581
235, ,PASS, ,0.09206116411574403, ,0.06756241191748652, ,4.002410409509145e-06, ,0.0014628452470829868
