Channel, ,Pass/Fail, ,Amplitude, ,Sorting Function Response, ,Mean, ,Variance
53, ,PASS, ,0.0045392735759056009, ,0.0028720911430285072, ,0.00035352802171290798, ,3.0598105682236617e-06
54, ,PASS, ,0.0059660447775155999, ,0.003798347271934276, ,0.00056096050463618201, ,5.3059981304257707e-06
55, ,PASS, ,0.0045751041698751001, ,0.0028400560816373307, ,0.0006754944489460906, ,3.0342721791132139e-06
56, ,PASS, ,0.006089313465798999, ,0.0034718573308661379, ,0.0006128369264137664, ,4.9872500514954235e-06
57, ,PASS, ,0.0079619259386089995, ,0.005110515241460542, ,0.00073083612265044525, ,9.5390468360967072e-06
58, ,PASS, ,0.0054545935411695022, ,0.0036965734653912016, ,0.00049328813633067693, ,4.7430083357775555e-06
59, ,PASS, ,0.0056610398948652987, ,0.0038912071267971616, ,0.00046363067787108037, ,5.1882115337818232e-06
60, ,PASS, ,0.0082118013495832004, ,0.0054482760689594035, ,0.00082636838949724561, ,1.0506605419654863e-05
61, ,PASS, ,0.0055722343952396992, ,0.0036397779301050193, ,0.00039457608515722263, ,4.7771816177542052e-06
62, ,PASS, ,0.0082392217429798006, ,0.00518070117807425, ,0.00061827290464338245, ,1.0083921112881524e-05
63, ,PASS, ,0.011259668226422501, ,0.0074519181489235186, ,0.00055217151715324542, ,1.9816595329661753e-05
64, ,PASS, ,0.0083867436570587983, ,0.0050507216446461483, ,0.00054069105286747813, ,1.0010177810751075e-05
65, ,PASS, ,0.0087249319504488013, ,0.0057799067247721742, ,0.00048560788506625026, ,1.1883172047202714e-05
66, ,PASS, ,0.012989019458831, ,0.0082060316916738301, ,0.00053896013421128857, ,2.5133835943373664e-05
67, ,PASS, ,0.0086227464600924005, ,0.0057372324934581876, ,0.00051269246578883613, ,1.1653018692152081e-05
68, ,PASS, ,0.010623921140468399, ,0.0060354476385833279, ,0.00038980183960916887, ,1.5191664799568593e-05
69, ,PASS, ,0.014629355823830799, ,0.0090111568210550254, ,0.0005294745868854074, ,3.1206267900927488e-05
70, ,PASS, ,0.01028324476534, ,0.005784524056062083, ,0.00039351049996525861, ,1.4077110772999579e-05
