Channel, ,Pass/Fail, ,Amplitude, ,Sorting Function Response, ,Mean, ,Variance
42, ,PASS, ,0.005705085, ,0.002754046568825736, ,4.3273190312442655e-05, ,3.3542558622326545e-06
43, ,PASS, ,0.005689090000000001, ,0.002349582408301861, ,-3.449601065039488e-05, ,2.8675278467359256e-06
44, ,PASS, ,0.005392269, ,0.002310177895799413, ,6.933835482092203e-05, ,2.6656682029055233e-06
45, ,PASS, ,0.005669417999999999, ,0.0024113153372741663, ,5.431212476602519e-05, ,2.9224616964401183e-06
46, ,PASS, ,0.005509088, ,0.0022873529234255555, ,5.266377639762452e-05, ,2.7015130506585787e-06
47, ,PASS, ,0.005315212000000001, ,0.0020538737791546686, ,1.0372750409583471e-05, ,2.3607090580412545e-06
48, ,PASS, ,0.005457787, ,0.0022797250321401202, ,1.8478315892736866e-05, ,2.6548948077917036e-06
49, ,PASS, ,0.0054110038, ,0.002108002452311933, ,-7.01338325732128e-05, ,2.459079567951116e-06
50, ,PASS, ,0.005564174999999999, ,0.0022552506115314837, ,9.858595642986877e-05, ,2.6884910545773424e-06
51, ,PASS, ,0.005675765, ,0.002163335962715682, ,6.561256911165077e-05, ,2.6351030925629904e-06
52, ,PASS, ,0.005611386, ,0.002396068558917116, ,7.668003798616356e-05, ,2.8728947325297217e-06
53, ,PASS, ,0.005263509, ,0.002310733015183848, ,6.334088451745886e-05, ,2.6195687659570553e-06
54, ,PASS, ,0.0056643348, ,0.002457933771844984, ,3.6053435319687404e-05, ,2.9789513923111326e-06
55, ,PASS, ,0.005816362999999999, ,0.002492234271907187, ,0.00013270065579151446, ,3.095864446616881e-06
56, ,PASS, ,0.005949659999999999, ,0.0024218568295057527, ,0.0001621175168653701, ,3.0732463009254478e-06
57, ,PASS, ,0.0056779868, ,0.002363150725394605, ,3.808922666272119e-05, ,2.8739686209718357e-06
58, ,PASS, ,0.0059185368000000006, ,0.0025333323780762458, ,2.054005939103288e-05, ,3.198192827691354e-06
59, ,PASS, ,0.005934042999999998, ,0.0024592458646847948, ,-0.00010009379715107852, ,3.1243761068972527e-06
60, ,PASS, ,0.005902342999999999, ,0.0024270894853085445, ,3.258600378890227e-05, ,3.068607855971955e-06
61, ,PASS, ,0.005923289, ,0.0024221879020048537, ,-4.986564192363417e-05, ,3.0787352833201387e-06
62, ,PASS, ,0.0059537923999999996, ,0.0023870279574788873, ,3.9010990682639135e-05, ,3.0511770470381702e-06
63, ,PASS, ,0.0059492059999999986, ,0.0025891626679705906, ,1.709284347258232e-06, ,3.2920312105966914e-06
64, ,PASS, ,0.006049676, ,0.00243409488559116, ,-5.546770783453392e-06, ,3.1689618983313886e-06
65, ,PASS, ,0.006193707, ,0.0025208136883567546, ,-8.479006315830285e-05, ,3.341398554187955e-06
66, ,PASS, ,0.005997941999999999, ,0.002463702136222514, ,0.00010216063624783167, ,3.1670012248091283e-06
67, ,PASS, ,0.006110951000000001, ,0.0027953622932827345, ,-0.00011547845260382435, ,3.644485157067514e-06
68, ,PASS, ,0.006067483099999998, ,0.0025866767891642765, ,0.00011560191321850576, ,3.377085378717163e-06
69, ,PASS, ,0.006236204999999999, ,0.002508790131537736, ,6.680707520173058e-05, ,3.346425673827921e-06
70, ,PASS, ,0.006282092999999999, ,0.002469170946537616, ,0.00010374725791963428, ,3.325126090129705e-06
71, ,PASS, ,0.005916032999999999, ,0.0025040541362025483, ,1.4300516210689563e-05, ,3.1804985815911173e-06
72, ,PASS, ,0.006924078, ,0.0029210075842527328, ,-3.785700100161226e-05, ,4.30751489366346e-06
73, ,PASS, ,0.006148300999999998, ,0.0026369846533256442, ,2.805750882594235e-05, ,3.4758538160316187e-06
74, ,PASS, ,0.006354855, ,0.0028300008529524297, ,-0.00012935832657660042, ,3.8370872505448685e-06
75, ,PASS, ,0.006502900000000001, ,0.002745805712072976, ,-7.902393456460072e-06, ,3.8263193229364564e-06
76, ,PASS, ,0.006199075999999998, ,0.0030831820368844827, ,0.00012358245357523326, ,4.108145803901227e-06
77, ,PASS, ,0.006358735999999999, ,0.0025533382760227746, ,1.1699603266055787e-05, ,3.4953609634663217e-06
78, ,PASS, ,0.006182658999999999, ,0.0025468796272582, ,9.33765432525867e-05, ,3.404830005615962e-06
79, ,PASS, ,0.006175198, ,0.002640142806648928, ,0.00016062670425052547, ,3.5078042089394727e-06
112, ,PASS, ,0.006419290000000001, ,0.002605814108552436, ,5.343293908205957e-05, ,3.5865825663000514e-06
113, ,PASS, ,0.006196241, ,0.0026056895645574975, ,-9.854935328503497e-05, ,3.4776664819554244e-06
114, ,PASS, ,0.006315077999999998, ,0.002601601882815585, ,5.9693811022224035e-05, ,3.5326012874135655e-06
115, ,PASS, ,0.006404246999999998, ,0.002725943631618615, ,0.00012983660884022775, ,3.7348992574578617e-06
116, ,PASS, ,0.0065848239999999995, ,0.0026250223820962265, ,1.6798084423583207e-05, ,3.7249160229175446e-06
117, ,PASS, ,0.0066518509999999986, ,0.0027526791325837444, ,0.00013502161515152752, ,3.91753179554957e-06
118, ,PASS, ,0.006215841999999999, ,0.002546629563344683, ,0.00020362335154507048, ,3.4089975957342947e-06
119, ,PASS, ,0.006415075999999999, ,0.0027733681165785723, ,8.021150953613194e-05, ,3.822778630366138e-06
120, ,PASS, ,0.006454112999999999, ,0.0027555941269196056, ,3.657890036203345e-05, ,3.820063509339103e-06
121, ,PASS, ,0.00661699, ,0.0025952071423872222, ,6.709527958898793e-05, ,3.7186735221907353e-06
122, ,PASS, ,0.006504919, ,0.002690511524289115, ,7.946984671292423e-05, ,3.773147616903191e-06
123, ,PASS, ,0.006387161999999998, ,0.00272588894251373, ,1.4688835637231888e-05, ,3.755940990427833e-06
124, ,PASS, ,0.006430912999999999, ,0.0027429996223777785, ,0.00011614512201383646, ,3.7918769644062077e-06
125, ,PASS, ,0.006270561000000001, ,0.002665374683582075, ,6.809176736393169e-06, ,3.607827251722258e-06
126, ,PASS, ,0.006484021, ,0.0027437139603166258, ,-6.23612933307483e-05, ,3.832200045947494e-06
127, ,PASS, ,0.006637367999999999, ,0.002868359264675834, ,-5.4434470030815716e-05, ,4.082404040895028e-06
128, ,PASS, ,0.006549841999999999, ,0.0027356744707217905, ,1.914467340421619e-05, ,3.854683952914558e-06
129, ,PASS, ,0.006338224999999999, ,0.0025717577449234507, ,8.278444462806883e-05, ,3.5317964847783337e-06
130, ,PASS, ,0.006657973, ,0.002857029011051277, ,0.0001795568482708516, ,4.0929307357697e-06
131, ,PASS, ,0.006776857, ,0.00295882851981436, ,9.591652357870248e-05, ,4.312509049479258e-06
132, ,PASS, ,0.006635576999999998, ,0.0028070365997660603, ,2.5913060582028893e-05, ,4.013803639430953e-06
133, ,PASS, ,0.006991613000000001, ,0.0029643222101111426, ,8.153982360482436e-05, ,4.4481782139562465e-06
134, ,PASS, ,0.007647110000000006, ,0.0034672291884546955, ,0.00014428022696720482, ,5.684528750078484e-06
135, ,PASS, ,0.028299530000000003, ,0.024537932395306845, ,0.0022718450663047683, ,0.00014563829352404116
136, ,PASS, ,0.008271400000000002, ,0.004985188053869628, ,0.0003392696261966082, ,8.762483767067738e-06
137, ,PASS, ,0.007245175000000003, ,0.0029951696852803587, ,0.00038078376987367625, ,4.6703316079405615e-06
138, ,PASS, ,0.006911757000000001, ,0.003071518285783627, ,0.00020766636028530036, ,4.55882038723392e-06
139, ,PASS, ,0.006870246000000002, ,0.0030633328985726575, ,0.0002550329774041347, ,4.531947343327717e-06
140, ,PASS, ,0.006858053000000001, ,0.003155866438857247, ,5.872826830840187e-05, ,4.623121767317373e-06
141, ,PASS, ,0.006815573, ,0.003147777643901627, ,0.00022907539214424202, ,4.6077444219998115e-06
142, ,PASS, ,0.006567701999999998, ,0.0030607655012817652, ,0.00012092917862084448, ,4.331981085375229e-06
143, ,PASS, ,0.006894969000000001, ,0.0030943280022992146, ,0.00014572737898573506, ,4.585112813167848e-06
176, ,PASS, ,0.0071617730000000015, ,0.0032266043166022853, ,0.0001347458173800535, ,4.9482651158855165e-06
177, ,PASS, ,0.007185386000000002, ,0.003026135450004779, ,0.00021895825970286327, ,4.678266529675284e-06
178, ,PASS, ,0.006932298000000001, ,0.003044028349338931, ,0.00012633645005693766, ,4.535747147342126e-06
179, ,PASS, ,0.0075065090000000015, ,0.003167146048792349, ,0.00015540403781147324, ,5.0620799372270325e-06
180, ,PASS, ,0.007060537, ,0.003246560669266212, ,0.0002618173493557275, ,4.911499409064388e-06
181, ,PASS, ,0.00683227, ,0.0031139009693199656, ,0.00015872256240199184, ,4.579038088838307e-06
182, ,PASS, ,0.0067719500000000005, ,0.0030327496205979423, ,0.00016271034095630702, ,4.435766535492407e-06
183, ,PASS, ,0.006877065999999999, ,0.003165603534587368, ,0.0002788788880112652, ,4.681632051678651e-06
184, ,PASS, ,0.007166884000000002, ,0.0033362926330824244, ,0.00010800137696781697, ,5.102727832399511e-06
185, ,PASS, ,0.007317625000000001, ,0.0031678779779764667, ,0.00010930372646966389, ,4.9570283309560234e-06
186, ,PASS, ,0.007041038000000001, ,0.003219793221451153, ,0.00018855803190751213, ,4.876035758596145e-06
187, ,PASS, ,0.0071644820000000015, ,0.003070101502351847, ,0.0001977899142511378, ,4.7262713592587134e-06
188, ,PASS, ,0.0070605600000000004, ,0.0031814960054332526, ,0.00012865229117773106, ,4.818255642434521e-06
189, ,PASS, ,0.006845155, ,0.003204798966491512, ,0.00027447668537009456, ,4.724247504596521e-06
190, ,PASS, ,0.0070468399999999995, ,0.003245086015843824, ,2.820759955592742e-05, ,4.910999015358159e-06
191, ,PASS, ,0.0073462640000000025, ,0.003365408318176674, ,6.791440029223895e-05, ,5.300479988365217e-06
192, ,PASS, ,0.007288587000000003, ,0.0032940560343178342, ,0.00026444004982265675, ,5.139623624067481e-06
193, ,PASS, ,0.007463344000000004, ,0.003293816053564144, ,0.00025862765923430147, ,5.27581117613735e-06
194, ,PASS, ,0.007131100000000001, ,0.003108089212571867, ,0.00016122614215628256, ,4.785219498370396e-06
195, ,PASS, ,0.00687073, ,0.0032351545759847222, ,0.0002546728146666395, ,4.806787291846337e-06
196, ,PASS, ,0.007235122000000001, ,0.0032374539960270247, ,9.427357014509908e-05, ,5.048403010635125e-06
197, ,PASS, ,0.007683897000000004, ,0.0033443845354747693, ,0.00022930897730617753, ,5.513971931414211e-06
198, ,PASS, ,0.007256355000000002, ,0.003193232708784525, ,0.0001906182250109182, ,4.998292876880796e-06
199, ,PASS, ,0.007587521, ,0.003478685100239861, ,-7.312411218179228e-05, ,5.632654245791804e-06
200, ,PASS, ,0.007692022000000005, ,0.0036110426300839746, ,8.552934068080253e-05, ,5.9160184751902165e-06
201, ,PASS, ,0.007679464000000006, ,0.0034834955992203995, ,0.0001415770887234955, ,5.723143416215426e-06
202, ,PASS, ,0.007539803000000003, ,0.0033942567178357665, ,0.00021388614001591812, ,5.499053941908601e-06
203, ,PASS, ,0.007481932000000002, ,0.0038095223167941, ,0.00015348258427991268, ,6.13670857157299e-06
204, ,PASS, ,0.007501058000000002, ,0.0033080108676077453, ,0.00020548247940327757, ,5.350990834122565e-06
205, ,PASS, ,0.007343614000000002, ,0.003303433121764053, ,0.00019314241717515975, ,5.230095342081539e-06
206, ,PASS, ,0.007487052000000002, ,0.003384541922600616, ,1.5995864506438613e-05, ,5.454625049836943e-06
207, ,PASS, ,0.007618343000000002, ,0.0034773496666508133, ,0.00010944336727740248, ,5.685138175938101e-06
208, ,PASS, ,0.007543721000000005, ,0.0034855203672366723, ,0.00014833242451827518, ,5.6522903548333445e-06
209, ,PASS, ,0.007578088000000004, ,0.0033650455244883136, ,0.00012130939403359118, ,5.496587252953895e-06
210, ,PASS, ,0.008212173, ,0.0035388068049292906, ,0.0003168634701463236, ,6.210963713926639e-06
211, ,PASS, ,0.007386589000000002, ,0.0032816868647668066, ,0.00012117655388012492, ,5.2430519690955084e-06
212, ,PASS, ,0.007928368000000002, ,0.003521660347647661, ,0.00018717711201526508, ,5.98057263407113e-06
213, ,PASS, ,0.007539845000000003, ,0.0033656265088505325, ,0.00022957778201138765, ,5.486487211550796e-06
214, ,PASS, ,0.007681882000000003, ,0.0034618165316299444, ,0.00016032411682047315, ,5.711541411181619e-06
215, ,PASS, ,0.007606858000000003, ,0.003368914458022506, ,0.00020579521712046705, ,5.515236843566194e-06
216, ,PASS, ,0.007611525000000003, ,0.003595547861573744, ,0.00010949538368400649, ,5.89049812247447e-06
217, ,PASS, ,0.007745367000000005, ,0.003488953145908979, ,0.00020308624554396857, ,5.82017947740778e-06
218, ,PASS, ,0.007874241000000004, ,0.0034764965918088497, ,0.00019173506558600858, ,5.8836015417114326e-06
219, ,PASS, ,0.007845417000000004, ,0.0035979701146307145, ,0.00022558120773453612, ,6.047661900268873e-06
220, ,PASS, ,0.0075030250000000034, ,0.003224543561683354, ,0.00022458741123732183, ,5.246746866803583e-06
221, ,PASS, ,0.007835681000000002, ,0.0035437064209787993, ,0.0002645515217787394, ,5.950565725824133e-06
222, ,PASS, ,0.007533054000000003, ,0.0033186621959742538, ,0.0001784714237635967, ,5.397238644459418e-06
223, ,PASS, ,0.007909115000000005, ,0.0036971834567749683, ,0.00023533403879798386, ,6.2675487593577444e-06
224, ,PASS, ,0.0077839180000000025, ,0.0034699681163029915, ,0.00012346959293483816, ,5.8344161656520016e-06
225, ,PASS, ,0.007747467000000003, ,0.0035789782608908055, ,2.3875018566151726e-05, ,5.984002525604246e-06
226, ,PASS, ,0.007832392000000004, ,0.0033874426771245093, ,0.0001911465035884983, ,5.720800830273429e-06
227, ,PASS, ,0.008037465000000004, ,0.0034927856379504277, ,0.0003220923112867086, ,6.051735928160352e-06
228, ,PASS, ,0.007851805000000003, ,0.0035221855873734534, ,0.00020389329899634715, ,5.977323618035115e-06
229, ,PASS, ,0.007943513000000003, ,0.003604369777330998, ,0.0001472561656684558, ,6.16316954753577e-06
230, ,PASS, ,0.008087971000000003, ,0.003785505905118937, ,0.00021961475766045602, ,6.5780462914124126e-06
231, ,PASS, ,0.016783991000000005, ,0.014103933022582081, ,0.0012158041499153083, ,4.9893099787927885e-05
232, ,PASS, ,0.012770180999999997, ,0.0107389712007588, ,0.0009530932241586905, ,2.882813100116127e-05
