Channel, ,Pass/Fail, ,Amplitude, ,Sorting Function Response, ,Mean, ,Variance, ,NPeaksRatio, ,PosIntegralRatio, ,ToT50, ,ToT99
23, ,PASS, ,0.13215327, ,0.014374496886957903, ,0.033897469129140226, ,0.001916420639333354, ,1.5833333333333333, ,0.605704164679523, ,0.543560335503357, ,0.04667251688741046
24, ,PASS, ,0.13251151, ,0.015083522523592538, ,0.03325783667278628, ,0.0020154958460354803, ,1.5833333333333333, ,0.6246220670549256, ,0.533682986061509, ,0.05273361768127181
25, ,PASS, ,0.06573661200000001, ,0.01049295411298885, ,0.029224723982918716, ,0.0006961342596535006, ,1.8333333333333333, ,0.7684032445779382, ,0.4868880226934144, ,0.1770984265627232
26, ,PASS, ,0.13372649999999997, ,0.014481170085703116, ,0.03405308953862166, ,0.0019538542268129526, ,1.5833333333333333, ,0.6037180113800263, ,0.5447848003101977, ,0.04630517744535826
27, ,PASS, ,0.13147912, ,0.015002117059062426, ,0.033402182502555056, ,0.0019891725894220684, ,1.5833333333333333, ,0.6249834930045541, ,0.5333564621130181, ,0.052611171200587746
28, ,PASS, ,0.06642739400000003, ,0.01056722543763086, ,0.02924833873692782, ,0.0007082405807430981, ,1.8333333333333333, ,0.7661467599950924, ,0.4881124875002551, ,0.17964939491030796
29, ,PASS, ,0.13803211, ,0.014702034462700917, ,0.03444706292298117, ,0.002047848550339976, ,1.5833333333333333, ,0.5972400050720729, ,0.5494785820697536, ,0.043652170363870126
30, ,PASS, ,0.12966579, ,0.014787562428797096, ,0.033392541877798415, ,0.001933720690986309, ,1.5833333333333333, ,0.6253905124798604, ,0.5341319564906839, ,0.05452949939797147
31, ,PASS, ,0.06408948400000002, ,0.010234469302579607, ,0.02929493425732128, ,0.0006617930374428197, ,1.8333333333333333, ,0.7671962395751322, ,0.48799004101957105, ,0.18217995551111202
32, ,PASS, ,0.13829839000000002, ,0.014769765555372464, ,0.03441432477512704, ,0.002061173559217752, ,1.5833333333333333, ,0.5987764953113598, ,0.5496622517907798, ,0.04597865349686741
33, ,PASS, ,0.13000602, ,0.014837886876595024, ,0.033219717345654175, ,0.0019455880713731301, ,1.5833333333333333, ,0.6257524190595114, ,0.5339891022632192, ,0.05185608456970266
34, ,PASS, ,0.06855554299999998, ,0.010914949211364948, ,0.02938044264342156, ,0.0007549308741807101, ,1.8333333333333333, ,0.7649756418723386, ,0.4888675741311402, ,0.18017999632660558
35, ,PASS, ,0.13887273, ,0.014731148580446827, ,0.03449101745058264, ,0.0020642857448033365, ,1.5, ,0.5952158891440665, ,0.5492540968551662, ,0.04177465766004775
36, ,PASS, ,0.13154735, ,0.015202434387180474, ,0.03323701093722414, ,0.002016556878141648, ,1.5833333333333333, ,0.6305161412365899, ,0.5316626191302218, ,0.05550907124344401
37, ,PASS, ,0.06994719999999997, ,0.01130883878049431, ,0.02926429507412012, ,0.0007981586422079969, ,1.8333333333333333, ,0.7725875005562559, ,0.48696965368053713, ,0.1933021775065815
38, ,PASS, ,0.13807174, ,0.014670732847725278, ,0.03445603202287709, ,0.0020440106103527607, ,1.5, ,0.5960904800771134, ,0.5505806003959103, ,0.0443256260076325
39, ,PASS, ,0.12726950000000006, ,0.015017584766720219, ,0.032989605864080326, ,0.0019271612449306226, ,1.6666666666666667, ,0.6387431391398976, ,0.5290300197955143, ,0.06020285300299994
40, ,PASS, ,0.06533119700000001, ,0.010661379930757981, ,0.029057284231197324, ,0.000702967554853993, ,1.75, ,0.7752936820547245, ,0.4856227423930124, ,0.16028244321544458
41, ,PASS, ,0.13886466000000003, ,0.014777815507497169, ,0.03436598389679803, ,0.002070507874989129, ,1.5833333333333333, ,0.5965598498895723, ,0.5486622721985266, ,0.044039917552703006
42, ,PASS, ,0.1289559, ,0.015196892400080842, ,0.03271954017970287, ,0.001975919944166525, ,1.6666666666666667, ,0.6370916161077628, ,0.5283769718985327, ,0.06026407624334197
43, ,PASS, ,0.06675772800000002, ,0.010726152710528713, ,0.029064083440815496, ,0.0007224049169656823, ,1.8333333333333333, ,0.7683758147280022, ,0.48713291565478256, ,0.17120058774310729
44, ,PASS, ,0.13050113000000005, ,0.014515716307254633, ,0.0335655316809657, ,0.0019109706753160866, ,1.5833333333333333, ,0.6136187269560356, ,0.542356278443297, ,0.052713209934491134
45, ,PASS, ,0.11606838000000001, ,0.014510340786341829, ,0.031921619386210076, ,0.001697974748306976, ,1.75, ,0.6608170014503493, ,0.5219281239158384, ,0.07159037570661823
46, ,PASS, ,0.05532811089999998, ,0.009135989049477695, ,0.028640918064529293, ,0.0005104917704745852, ,1.75, ,0.7821655800535633, ,0.47917389441031816, ,0.10452847901063243
47, ,PASS, ,0.12996100000000005, ,0.01449647736690204, ,0.0335125748896145, ,0.0019004683650057804, ,1.5833333333333333, ,0.6142377111951065, ,0.5416215995591926, ,0.05342748107181486
48, ,PASS, ,0.11662382000000002, ,0.014560051163265208, ,0.031920153722046485, ,0.0017118880315907356, ,1.75, ,0.6600845806001172, ,0.5218056774351544, ,0.0707944735821718
49, ,PASS, ,0.05644842801999997, ,0.009306173987104665, ,0.028471473728311658, ,0.0005303264095764645, ,1.75, ,0.7816138413232597, ,0.48084732964633375, ,0.11693638905328463
50, ,PASS, ,0.12732513000000006, ,0.014403311369801566, ,0.03318905993085856, ,0.0018496577578511661, ,1.5833333333333333, ,0.6193761155317777, ,0.538050243872574, ,0.0557947796983735
51, ,PASS, ,0.11500932999999999, ,0.01464828419303419, ,0.0316636897595396, ,0.0016981551920744922, ,1.75, ,0.6679647661254722, ,0.5184792147099039, ,0.07305973347482704
52, ,PASS, ,0.055471093479999976, ,0.009065806292308133, ,0.028447485929001443, ,0.0005077017033184144, ,1.75, ,0.7777185550925769, ,0.479500418358809, ,0.09352870349584702
53, ,PASS, ,0.12137535000000002, ,0.014183369079420121, ,0.03286924330338157, ,0.0017362186393193927, ,1.5833333333333333, ,0.6309102675510978, ,0.5345197036795167, ,0.06475378053509112
54, ,PASS, ,0.10833877999999997, ,0.014418110020611186, ,0.03129853311343442, ,0.001574251171400615, ,1.75, ,0.6838807981132596, ,0.5150098977571886, ,0.08846758229423889
55, ,PASS, ,0.05243035919999997, ,0.00844921246045233, ,0.028365007910899777, ,0.00044729757184717306, ,1.75, ,0.7720206508048776, ,0.47760249790820597, ,0.08112079345319484
56, ,PASS, ,0.12275361000000001, ,0.01441682314634451, ,0.03290577394426645, ,0.0017848859817248329, ,1.5833333333333333, ,0.6327303171495515, ,0.5351115283361564, ,0.06395787841064468
57, ,PASS, ,0.10880205, ,0.014480899314044737, ,0.03130896576307749, ,0.0015880851568382877, ,1.75, ,0.684423256719946, ,0.5163772167914941, ,0.09277361686496194
58, ,PASS, ,0.054307821299999996, ,0.008758939613315904, ,0.028384045784371745, ,0.00048010646535535516, ,1.75, ,0.7738609711828542, ,0.4783779922858717, ,0.08426358645741924
59, ,PASS, ,0.12736272000000004, ,0.014911132356403373, ,0.033108681884532976, ,0.0019152388388339672, ,1.5833333333333333, ,0.632183763465257, ,0.5341523642374646, ,0.0637538009428379
60, ,PASS, ,0.11608976000000004, ,0.015105556379815097, ,0.03162985274980062, ,0.0017677096103076832, ,1.75, ,0.6753110273570332, ,0.5178465745597028, ,0.08332483010550805
61, ,PASS, ,0.00515206000000001, ,0.0002465993983103153, ,0.028571790326932103, ,1.377963302855939e-06, ,1.0, ,0.2833282208760118, ,0.4496847003122385, ,0.009305932531989143
198, ,PASS, ,0.14550880000000005, ,0.02314275349619201, ,0.02137010844207261, ,0.0034455914096545187, ,1.9166666666666667, ,0.8625756889117989, ,0.46958225342339954, ,0.050672435256423336
199, ,PASS, ,0.09108105999999999, ,0.014611270611473836, ,0.024162272700353055, ,0.0013800051341723684, ,1.9166666666666667, ,0.855589085557729, ,0.4607048835738046, ,0.04416236403338707
200, ,PASS, ,0.09396834000000001, ,0.013554831216562369, ,0.023837017844941945, ,0.0013196568529570613, ,1.9166666666666667, ,0.8386010701443701, ,0.4656435582947287, ,0.038591049162262
201, ,PASS, ,0.08242939999999994, ,0.0122571015964302, ,0.024517530219322053, ,0.0010477441653030904, ,1.9166666666666667, ,0.8365755661596344, ,0.46297014346645987, ,0.03722373012795657
202, ,PASS, ,0.08341791999999998, ,0.011970545081004107, ,0.02437337740182853, ,0.0010379705177383646, ,1.9166666666666667, ,0.8290339730080534, ,0.46270484275831103, ,0.03522377094345013
203, ,PASS, ,0.07719912, ,0.011385737157857227, ,0.024842336586212526, ,0.0009149132391501808, ,1.9166666666666667, ,0.8359281519634422, ,0.46125589273688294, ,0.03867268014938471
204, ,PASS, ,0.07224301000000002, ,0.010179297203063658, ,0.025060845825201527, ,0.0007685009461595274, ,1.9166666666666667, ,0.8254354600127662, ,0.4609293687883921, ,0.031223852574437258
205, ,PASS, ,0.06926022200000001, ,0.009960991159666904, ,0.025276758974092775, ,0.0007209101811938562, ,1.9166666666666667, ,0.8278304056502312, ,0.46041917511887515, ,0.03187690047141895
206, ,PASS, ,0.06994992, ,0.009812507081045396, ,0.025224887538052285, ,0.0007190310985801843, ,1.9166666666666667, ,0.821606999863078, ,0.4591538948184731, ,0.03089732862594641
207, ,PASS, ,0.06825478400000001, ,0.009787707959608738, ,0.02532961890705006, ,0.0006993089958838835, ,1.9166666666666667, ,0.8291479877864003, ,0.45937838003306053, ,0.032203424419909796
208, ,PASS, ,0.06288646499999997, ,0.008765158530988715, ,0.02563452286396604, ,0.0005794161369528313, ,1.9166666666666667, ,0.8203475706605938, ,0.4577253525438256, ,0.029754494806228445
209, ,PASS, ,0.06076029699999999, ,0.008733502190283373, ,0.02582165397480051, ,0.0005577976235024333, ,1.9166666666666667, ,0.8243299822172339, ,0.45658251872410766, ,0.032570763861962
210, ,PASS, ,0.06311151299999997, ,0.008720925633848887, ,0.025636881245723556, ,0.0005787554934374592, ,1.9166666666666667, ,0.8188042718665584, ,0.4578477990245097, ,0.028958592681782004
211, ,PASS, ,0.06413091799999995, ,0.009184518916335331, ,0.025621074595643355, ,0.0006176797138629088, ,1.9166666666666667, ,0.8303823189275448, ,0.4585008469214914, ,0.03561151813228301
212, ,PASS, ,0.10550426999999993, ,0.01517839619624487, ,0.0231821495308259, ,0.0016532814454226533, ,1.9166666666666667, ,0.8387038927428063, ,0.46823534213587475, ,0.037509438582886065
213, ,PASS, ,0.07663811000000001, ,0.010831084415012108, ,0.024835974198281666, ,0.0008675590165485733, ,1.9166666666666667, ,0.8326192273189417, ,0.46150078569825104, ,0.03412175261729353
214, ,PASS, ,0.07479476000000003, ,0.010384084669922508, ,0.02482447864978266, ,0.0008136416757362637, ,1.9166666666666667, ,0.8284861248352989, ,0.4606436603334626, ,0.03250954062161997
215, ,PASS, ,0.09170062000000004, ,0.013139150385980463, ,0.023980244738882883, ,0.0012518800555074915, ,1.9166666666666667, ,0.8387150547371829, ,0.4642966470072039, ,0.03593804208077386
216, ,PASS, ,0.09205993000000005, ,0.013033618826242491, ,0.023866953997265364, ,0.0012488738111357547, ,1.9166666666666667, ,0.8350913913632023, ,0.4635211526295382, ,0.03699924491336912
217, ,PASS, ,0.08054636999999998, ,0.011356102258867197, ,0.024560719379420826, ,0.0009555895589913341, ,1.9166666666666667, ,0.8368585652351888, ,0.4622558723291361, ,0.035427848411256915
218, ,PASS, ,0.10056492, ,0.014181822796378475, ,0.023464097108222285, ,0.001479692215302485, ,1.9166666666666667, ,0.8374974422832259, ,0.4660721209771229, ,0.035101324462766065
219, ,PASS, ,0.08691673999999998, ,0.01229681270269628, ,0.024143398624660722, ,0.0011139906783056593, ,1.9166666666666667, ,0.8383983131639976, ,0.4634191138956348, ,0.03652986673741352
220, ,PASS, ,0.09064733000000001, ,0.012573432860057005, ,0.024020056002306077, ,0.0011904111280873118, ,1.9166666666666667, ,0.8325995721122056, ,0.46270484275831103, ,0.03316258851860166
221, ,PASS, ,0.09508851000000001, ,0.013487149985518561, ,0.023788686566804766, ,0.0013344515298441665, ,1.9166666666666667, ,0.8391208153241011, ,0.4642354237668619, ,0.03487683924817861
222, ,PASS, ,0.069355194, ,0.009509194040988472, ,0.02528158082214404, ,0.0006939860178121262, ,1.9166666666666667, ,0.8271012346443481, ,0.45864370114895614, ,0.03330544274606641
223, ,PASS, ,0.08457329999999996, ,0.011779634534188333, ,0.02432438201220383, ,0.001043189105261983, ,1.9166666666666667, ,0.8346626993745843, ,0.46113344625619884, ,0.03269321034264607
224, ,PASS, ,0.08451739, ,0.011566163070966492, ,0.024383494085692122, ,0.0010257224876567513, ,1.9166666666666667, ,0.8283148795, ,0.4607048835738046, ,0.030468765943552172
225, ,PASS, ,0.06992564699999998, ,0.009355392710928842, ,0.025245426030826308, ,0.0006899010249746399, ,1.9166666666666667, ,0.8287702136379088, ,0.4588477786167629, ,0.030734066651700986
226, ,PASS, ,0.07282658000000002, ,0.009736669955603789, ,0.025070353333147895, ,0.0007473777095265672, ,1.9166666666666667, ,0.8266460062618192, ,0.4592559335523765, ,0.03318299626538234
227, ,PASS, ,0.10368621999999997, ,0.014551306648565005, ,0.02328229214444603, ,0.0015737076932337462, ,1.9166666666666667, ,0.8365031381445042, ,0.4631334054407053, ,0.033856451909144714
228, ,PASS, ,0.1998000000000001, ,0.038935367064004786, ,0.02620043236668641, ,0.007925179732960072, ,2.0, ,0.8823883744151951, ,0.4721944450113263, ,0.13214016040488968
229, ,PASS, ,0.18864129999999998, ,0.03249828067379418, ,0.022509105682741174, ,0.006255300574912069, ,1.9166666666666667, ,0.8431102273230238, ,0.47045978653496867, ,0.041652211179363685
230, ,PASS, ,0.1998000000000001, ,0.038649349009470466, ,0.025590618650639798, ,0.007869836718770649, ,2.0, ,0.8763578206254766, ,0.47076590273667884, ,0.11063039529805514
231, ,PASS, ,0.1998000000000001, ,0.04405377012457586, ,0.02668715024305632, ,0.008949611996933279, ,1.9166666666666667, ,0.9347404842770961, ,0.4793167486377829, ,0.40827738209424297
232, ,PASS, ,0.12263826999999995, ,0.016818826454587547, ,0.022054573944817454, ,0.002151235979038705, ,1.9166666666666667, ,0.8404224331274273, ,0.4647660251831595, ,0.030448358196771493
233, ,PASS, ,0.11958430000000003, ,0.01587494822433923, ,0.022241754669700627, ,0.0019977885045242253, ,1.9166666666666667, ,0.8428922568260971, ,0.46158241668537375, ,0.03059121242423624
234, ,PASS, ,0.15509918, ,0.021430459703815668, ,0.020227348697781675, ,0.003458420281839361, ,1.9166666666666667, ,0.8575558104842754, ,0.4685414583375849, ,0.03804003999918369
235, ,PASS, ,0.1998000000000001, ,0.04202534622391585, ,0.026636662242811426, ,0.008742447995608662, ,1.9166666666666667, ,0.9533583585518756, ,0.465561927307606, ,0.4176649456133548
