Channel, ,Pass/Fail, ,Amplitude, ,Sorting Function Response, ,Mean, ,Variance, ,NPeaksRatio, ,PosIntegralRatio, ,ToT50, ,ToT99
54, ,PASS, ,0.03267699, ,0.004914267126109341, ,0.03771777186914553, ,0.00016187028407400715, ,1.8333333333333333, ,0.7258179135537578, ,0.4985408461051815, ,0.044856227423930126
55, ,PASS, ,0.06190247899999999, ,0.009212946044566751, ,0.03794766663437481, ,0.0005725746166387538, ,1.9166666666666667, ,0.723969623235017, ,0.506173343401155, ,0.04636640068570029
56, ,PASS, ,0.07832145035999998, ,0.011359707521394669, ,0.03824501354571458, ,0.0008907629794247906, ,1.8333333333333333, ,0.7164732169227486, ,0.5107854941735883, ,0.04093794004203996
57, ,PASS, ,0.08166389299999997, ,0.011783884350904694, ,0.03854847648723904, ,0.0009630756040320271, ,1.8333333333333333, ,0.7225776025873668, ,0.5155200914267056, ,0.05344788881859554
58, ,PASS, ,0.07123938599999996, ,0.00937668750093944, ,0.038453807212097714, ,0.0006686089241822649, ,1.8333333333333333, ,0.6758040501276571, ,0.5134180935082957, ,0.02793820534274811
59, ,PASS, ,0.03992203000000001, ,0.005317683354919195, ,0.03834487215179282, ,0.00021250787183912576, ,1.8333333333333333, ,0.68250235061616, ,0.5116630272851574, ,0.025101528540233873
60, ,PASS, ,0.02653658999999996, ,0.003789110604227989, ,0.03776422830044285, ,0.00010146374859832359, ,1.8333333333333333, ,0.699393364298027, ,0.499459194710312, ,0.043754209097773514
61, ,PASS, ,0.05701182099999999, ,0.008480186850176779, ,0.037922133593579724, ,0.00048520937942592233, ,1.9166666666666667, ,0.722921847590634, ,0.5070508765127242, ,0.04636640068570029
62, ,PASS, ,0.07443436051999999, ,0.010812475290456681, ,0.03804028961353238, ,0.0008069349478166646, ,1.9166666666666667, ,0.7139434644764779, ,0.505928450439787, ,0.04314197669435318
63, ,PASS, ,0.07804646403999999, ,0.010779843567673775, ,0.03849949874694435, ,0.0008420244154390459, ,1.8333333333333333, ,0.6944213555648455, ,0.5146221505683557, ,0.03506050896920471
64, ,PASS, ,0.06503567, ,0.008514487294985402, ,0.03793815218773086, ,0.0005544267013926696, ,1.8333333333333333, ,0.6699331936852185, ,0.5109691638946144, ,0.029754494806228445
65, ,PASS, ,0.03136575000000002, ,0.003966129562969022, ,0.03783307112426277, ,0.00012450852418719203, ,1.8333333333333333, ,0.6519771966037234, ,0.5074794391951185, ,0.030529989183894206
66, ,PASS, ,0.026959229999999997, ,0.003983403672854118, ,0.037712505300912226, ,0.00010812321096820872, ,1.8333333333333333, ,0.716623756174636, ,0.49915307850860186, ,0.04346850064284402
67, ,PASS, ,0.05752372800000002, ,0.008633986415840348, ,0.038282687365053775, ,0.000498699838795071, ,1.8333333333333333, ,0.7308014566987605, ,0.5116426195383768, ,0.044529703475439275
68, ,PASS, ,0.07344627919999996, ,0.010788237750152696, ,0.03894003499018796, ,0.000793128250305102, ,1.8333333333333333, ,0.7239438405307683, ,0.5153160139588988, ,0.044121548539825715
69, ,PASS, ,0.07690649067999998, ,0.010766189627958162, ,0.03833634423183772, ,0.0008297120936990854, ,1.8333333333333333, ,0.7017676738747428, ,0.5104385624783168, ,0.036284973776045386
70, ,PASS, ,0.06410848700000002, ,0.008510468337939867, ,0.038516216757515154, ,0.0005456856299647731, ,1.8333333333333333, ,0.679666901592767, ,0.5159282463623192, ,0.02887696169465929
71, ,PASS, ,0.03164900000000001, ,0.004104720280389805, ,0.038211904050121426, ,0.0001298283186183438, ,1.8333333333333333, ,0.6669444555999379, ,0.510989571641395, ,0.029264708883492172
72, ,PASS, ,0.02756990000000002, ,0.004194299733574036, ,0.03803505825697435, ,0.00011623883267838785, ,1.9166666666666667, ,0.7338935646284268, ,0.5034182975857635, ,0.04826432113630334
73, ,PASS, ,0.05885960600000001, ,0.009019831693162077, ,0.03839769182377911, ,0.0005322997641257188, ,1.8333333333333333, ,0.7431656812170067, ,0.5095610293667476, ,0.04430521826085182
74, ,PASS, ,0.07338164733999997, ,0.011014200736320284, ,0.03898047047741924, ,0.0008089525897154588, ,1.8333333333333333, ,0.7368118182339747, ,0.5171731189159405, ,0.04465214995612334
75, ,PASS, ,0.0758356842, ,0.010868815649698198, ,0.03918876356132936, ,0.000824338489645304, ,1.75, ,0.7177651898098444, ,0.5215403767270056, ,0.036774759698781655
76, ,PASS, ,0.0632751, ,0.008638910363050843, ,0.03887003734289096, ,0.0005469616017014046, ,1.8333333333333333, ,0.6946602629018535, ,0.5150303055039693, ,0.03161159976327014
77, ,PASS, ,0.030089090000000006, ,0.0040049335898166135, ,0.0380470622968919, ,0.00012062476973213913, ,1.8333333333333333, ,0.6792142590954646, ,0.5046427623926042, ,0.029530009591640986
78, ,PASS, ,0.025695689999999983, ,0.003924654996748926, ,0.03789892217750658, ,0.00010147346789894669, ,1.9166666666666667, ,0.7372726760353354, ,0.5003979510622232, ,0.04838676761698741
79, ,PASS, ,0.057887006000000046, ,0.008890286301065765, ,0.03854552765084387, ,0.0005163206571876001, ,1.8333333333333333, ,0.743688100220019, ,0.5100712230362646, ,0.04340727740250199
80, ,PASS, ,0.07411862544, ,0.011100349717996918, ,0.03886796670201424, ,0.0008235023426317764, ,1.8333333333333333, ,0.7351379601932571, ,0.5144588885941104, ,0.0415501724454603
81, ,PASS, ,0.0762742716, ,0.011016640617039036, ,0.03902988190365952, ,0.0008404494966464541, ,1.8333333333333333, ,0.7200826769430371, ,0.5182343217485358, ,0.0377543315442542
82, ,PASS, ,0.06293599700000002, ,0.008618949515778117, ,0.03850449390165507, ,0.0005428999597656684, ,1.8333333333333333, ,0.6937193450702455, ,0.5136629864696639, ,0.02930552437705353
83, ,PASS, ,0.02770173000000001, ,0.0037031448703000146, ,0.03821933007020265, ,0.00010260314874160034, ,1.8333333333333333, ,0.6814914385439914, ,0.5062141588947164, ,0.03010142650149997
84, ,PASS, ,0.027333529999999998, ,0.00428186334402689, ,0.03786621456337625, ,0.00011773881049627454, ,1.9166666666666667, ,0.7523945543302191, ,0.5019489398175547, ,0.049896940878757574
85, ,PASS, ,0.060853508, ,0.009536318573053067, ,0.03893307498065346, ,0.0005821133645676985, ,1.8333333333333333, ,0.7591296753842297, ,0.513336462521173, ,0.04669292463419114
86, ,PASS, ,0.07639987737999998, ,0.011790920658901045, ,0.039212208001337116, ,0.0009016247029892106, ,1.8333333333333333, ,0.7509565458163713, ,0.5158874308687578, ,0.043182792187914536
87, ,PASS, ,0.07920436919999997, ,0.011854723343026986, ,0.03991979739713271, ,0.0009388907727901259, ,1.8333333333333333, ,0.7384313317689468, ,0.5241525683149324, ,0.04401950980592233
88, ,PASS, ,0.06720600199999999, ,0.009697805387304345, ,0.03934066944707251, ,0.00065106335008155, ,1.75, ,0.7233072924546764, ,0.5202342809330421, ,0.03171363849717353
89, ,PASS, ,0.031297870000000005, ,0.0044251159906835555, ,0.03865560541764454, ,0.00013828428250106594, ,1.8333333333333333, ,0.7120133103417746, ,0.5152956062121181, ,0.03416256811085488
90, ,PASS, ,0.026059339999999986, ,0.0040661966037027495, ,0.03815780479643272, ,0.00010677138501134423, ,1.8333333333333333, ,0.7537419127000214, ,0.4997040876716802, ,0.047835758453909104
91, ,PASS, ,0.05889478400000002, ,0.009406288456063111, ,0.03854531999291852, ,0.0005555451323208978, ,1.8333333333333333, ,0.7657277258008734, ,0.5082141180792229, ,0.04875410705903961
92, ,PASS, ,0.07685149380000002, ,0.011963857479769142, ,0.039698116263443196, ,0.0009200451361350783, ,1.8333333333333333, ,0.757176694986378, ,0.5186220689373686, ,0.04591743025652538
93, ,PASS, ,0.07998097689999999, ,0.012055832390579111, ,0.040015251645986814, ,0.0009641614426271021, ,1.8333333333333333, ,0.7434620663525537, ,0.524805616211914, ,0.04769290422644436
94, ,PASS, ,0.06697088600000001, ,0.009614185369132134, ,0.03949779583873799, ,0.0006433896859448316, ,1.75, ,0.7218133613398567, ,0.5204587661476296, ,0.03204016244566438
95, ,PASS, ,0.0306043, ,0.004354465970975387, ,0.03830867775229077, ,0.00013324278446425286, ,1.8333333333333333, ,0.7143071467558827, ,0.5124589294096039, ,0.035836003346870475
96, ,PASS, ,0.02638542999999997, ,0.004249467191874717, ,0.038196074726026, ,0.00011261639766716616, ,1.9166666666666667, ,0.7716600583287937, ,0.5072753617273117, ,0.04897859227362707
97, ,PASS, ,0.05843144300000003, ,0.009404617461617266, ,0.039116924335033984, ,0.0005518319550902579, ,1.8333333333333333, ,0.7761368291204941, ,0.518030244280729, ,0.04971327115773148
98, ,PASS, ,0.07577726922000003, ,0.012054641523842004, ,0.03988013116027387, ,0.0009144556131441167, ,1.8333333333333333, ,0.7693609058836163, ,0.5223158711046714, ,0.05097855145813351
99, ,PASS, ,0.07898554389999995, ,0.012459102996131224, ,0.040578254066476194, ,0.0009847814757463632, ,1.8333333333333333, ,0.7682307494959515, ,0.5299891838942062, ,0.05863145650088774
100, ,PASS, ,0.06552626500000001, ,0.009901538398288832, ,0.04005329812360973, ,0.0006485614547928798, ,1.8333333333333333, ,0.7470517130927037, ,0.5279280014693578, ,0.03634619701638742
101, ,PASS, ,0.029456320000000005, ,0.004496506840969035, ,0.03912277050672435, ,0.00013230467557333282, ,1.8333333333333333, ,0.7524176973311651, ,0.5257647803106059, ,0.046917409848778596
102, ,PASS, ,0.02579698, ,0.004214538642543494, ,0.038390586203750944, ,0.00010908801710267565, ,1.9166666666666667, ,0.7801806109320364, ,0.5069488377788208, ,0.05418256770269995
103, ,PASS, ,0.05798215700000001, ,0.00949161597721639, ,0.0395384452191792, ,0.0005519870910154268, ,1.8333333333333333, ,0.7837631469681001, ,0.5185200302034653, ,0.05091732821779148
104, ,PASS, ,0.07332114649999999, ,0.011752002512904699, ,0.04028855431785678, ,0.00086317042939537, ,1.8333333333333333, ,0.7748192107733498, ,0.5288463500744883, ,0.06324360727332096
105, ,PASS, ,0.07428185220000003, ,0.011916345073972075, ,0.040432522809379395, ,0.0008865171721123626, ,1.8333333333333333, ,0.7761326163726586, ,0.526009673271974, ,0.06432521785269689
106, ,PASS, ,0.060489557000000034, ,0.009293984801872638, ,0.03966106732293219, ,0.0005625620603293665, ,1.8333333333333333, ,0.7549530583373115, ,0.5219689394093998, ,0.04171343441970572
107, ,PASS, ,0.027695180000000038, ,0.004195607267397421, ,0.03878933657925348, ,0.00011602514430633918, ,1.75, ,0.7497778400523879, ,0.5228872880145303, ,0.04399910205914165
108, ,PASS, ,0.022834190000000004, ,0.003727378908359051, ,0.038304807848819414, ,8.55103384789492e-05, ,1.9166666666666667, ,0.7785452379100375, ,0.5049692863410951, ,0.054305014183384015
109, ,PASS, ,0.056324390999999974, ,0.009245716324693471, ,0.03911314414362972, ,0.0005223426382445646, ,1.8333333333333333, ,0.7842498239849992, ,0.5157649843880737, ,0.05208056978429012
110, ,PASS, ,0.07252512019999997, ,0.011739809602902317, ,0.039835347975673965, ,0.0008527494004733709, ,1.8333333333333333, ,0.7771317275897792, ,0.5197649027570866, ,0.06589661435480909
111, ,PASS, ,0.07377357879999998, ,0.011774779779911758, ,0.04059234543689517, ,0.0008693736021467379, ,1.9166666666666667, ,0.7719859086125952, ,0.5311524254607048, ,0.06932511581396299
112, ,PASS, ,0.058629336000000004, ,0.009002173540251337, ,0.03981924369867962, ,0.0005280673845846579, ,1.8333333333333333, ,0.7522267085121319, ,0.5263566049672456, ,0.04314197669435318
113, ,PASS, ,0.02514691999999999, ,0.0037942191560823187, ,0.038979972603416256, ,9.524054605638327e-05, ,1.8333333333333333, ,0.7491930398742755, ,0.5281728944307259, ,0.0434889083896247
114, ,PASS, ,0.019899420000000004, ,0.002916365144239187, ,0.03794554736229873, ,5.843083622056159e-05, ,1.8333333333333333, ,0.7101669470071652, ,0.4981735066631293, ,0.052386685986000284
115, ,PASS, ,0.05131442000000004, ,0.007768849667979799, ,0.038485078663700746, ,0.00039949996451037043, ,1.8333333333333333, ,0.7382507235150415, ,0.5111120181220792, ,0.04499908165139487
116, ,PASS, ,0.06531853199999998, ,0.009782955066672778, ,0.03911702936297219, ,0.0006389005486160111, ,1.8333333333333333, ,0.7351233961465459, ,0.5178873900532642, ,0.04169302667292504
117, ,PASS, ,0.06561470299999997, ,0.009680639456357663, ,0.03923643520709782, ,0.0006346423597918951, ,1.75, ,0.7302682683245357, ,0.5222546478643293, ,0.04410114079304504
118, ,PASS, ,0.05003895, ,0.007134049542693087, ,0.03884816816493541, ,0.00035634868197045633, ,1.75, ,0.7177817177079924, ,0.5225403563192588, ,0.032999326544356236
119, ,PASS, ,0.018979220000000012, ,0.0026729565275329667, ,0.03846960383257485, ,5.062206782578611e-05, ,1.8333333333333333, ,0.7093151124147892, ,0.5166221097528622, ,0.03577478010652844
198, ,FAIL, ,0.02883160000000002, ,0.004478516096047098, ,0.038267401801595886, ,0.00012981843468519636, ,1.9166666666666667, ,0.7437707383321026, ,0.5013162996673537, ,0.049733678904512156
199, ,PASS, ,0.020078980000000007, ,0.0022990954065555463, ,0.0380509690345095, ,5.0769720922322823e-05, ,1.9166666666666667, ,0.7510099795761428, ,0.48382686067631275, ,0.0008571253647884737
200, ,PASS, ,0.0040883599999999715, ,0.00016946009248217084, ,0.038316419068182284, ,7.689216280030607e-07, ,1.4166666666666667, ,0.36564295052233625, ,0.4948266361910981, ,0.006183547274545418
201, ,FAIL, ,0.009549270000000006, ,0.0008388511749414962, ,0.038094822433419724, ,8.353360843463668e-06, ,1.8333333333333333, ,0.4726394983717865, ,0.4832146282728924, ,0.02414236444154201
202, ,FAIL, ,0.006875209999999986, ,0.0002921952045507781, ,0.03815477080406522, ,2.217347193162733e-06, ,1.0833333333333333, ,0.3193037784569306, ,0.481847309238587, ,0.008591661394665415
203, ,PASS, ,0.004423429999999985, ,0.0006107403577463503, ,0.03833342842003225, ,2.7567131539854982e-06, ,1.9166666666666667, ,0.7617613509584622, ,0.4960919164915002, ,0.008652884635007449
204, ,PASS, ,0.0044471300000000075, ,0.00012505396214569162, ,0.03817767253198914, ,6.542753761829164e-07, ,0.75, ,0.2634820643299096, ,0.3065447643925634, ,0.004244811330381013
205, ,PASS, ,0.00305275, ,0.0005167682291598852, ,0.038252116600477545, ,1.5877253215304018e-06, ,1.9166666666666667, ,0.8006862046202283, ,0.4976429052468317, ,0.0050815289483888085
206, ,PASS, ,0.005914779999999981, ,0.0001535071902266558, ,0.038208140036938024, ,1.0781892232016882e-06, ,0.75, ,0.19895339405229231, ,0.43856247831676903, ,0.006938633905430501
207, ,PASS, ,0.005163219999999996, ,0.0006945883490281458, ,0.03851891343258301, ,3.615307466210778e-06, ,1.9166666666666667, ,0.7488010221815087, ,0.4993571559764086, ,0.014489500214281342
208, ,FAIL, ,0.027112419999999984, ,0.0012016245362785694, ,0.037225549428379016, ,3.4955990671745985e-05, ,0.9166666666666666, ,0.25799554724223084, ,0.42331789147160265, ,0.011897716373135242
209, ,FAIL, ,0.028360120000000027, ,0.003650448645238047, ,0.03733315749494909, ,0.00010454983051713848, ,1.8333333333333333, ,0.6185476401132713, ,0.49292871574049507, ,0.04999897961266097
210, ,FAIL, ,0.041200560000000004, ,0.0022561136975626293, ,0.03621873522846472, ,9.655266137603606e-05, ,1.0, ,0.23625050251468138, ,0.5356217220056734, ,0.015142548111263036
211, ,FAIL, ,0.060409124000000036, ,0.00512516227682014, ,0.03511702981551397, ,0.0003171513008331893, ,1.25, ,0.3999527613720262, ,0.4864390522642395, ,0.028346360278361665
212, ,PASS, ,0.08613035999999999, ,0.012659269464095676, ,0.03594660691647109, ,0.0011209516811561929, ,1.8333333333333333, ,0.846715417460515, ,0.5047039856329463, ,0.033856451909144714
213, ,PASS, ,0.09989999999999993, ,0.01658123664258402, ,0.03513990047620783, ,0.0017005578384655894, ,1.8333333333333333, ,0.9136519918008376, ,0.5086426807616171, ,0.1516499663272178
214, ,PASS, ,0.09937008999999997, ,0.015488787546750482, ,0.035425980922107705, ,0.0015774035849317404, ,1.8333333333333333, ,0.894818443812335, ,0.5075610701822412, ,0.10730393257280464
215, ,PASS, ,0.09989999999999993, ,0.019256084951520248, ,0.034234082748923485, ,0.0019740700349468623, ,1.8333333333333333, ,0.9543005335324178, ,0.5125201526499459, ,0.4600926511703843
216, ,PASS, ,0.09989999999999993, ,0.015213927907047916, ,0.03541676965491316, ,0.0015698496603462138, ,1.8333333333333333, ,0.8889566632985604, ,0.5082753413195649, ,0.09599804085630906
217, ,PASS, ,0.09989999999999993, ,0.018378146279458173, ,0.03499874029360625, ,0.001890920933044765, ,1.8333333333333333, ,0.9519158459845802, ,0.5092957286585988, ,0.45605191730781003
218, ,PASS, ,0.09989999999999993, ,0.018532775799727307, ,0.03493638031870778, ,0.0018916620730554826, ,1.8333333333333333, ,0.9552707628780946, ,0.5090712434440113, ,0.4585620701618334
219, ,PASS, ,0.09989999999999993, ,0.01858468234617405, ,0.034799742842799124, ,0.0019078660664395733, ,1.8333333333333333, ,0.9546191593589283, ,0.5086222730148364, ,0.4577253525438256
220, ,PASS, ,0.062915133, ,0.008683172748109742, ,0.03685805078957573, ,0.0005713225672899126, ,1.8333333333333333, ,0.8292540161622773, ,0.4981122834227873, ,0.023570947531683026
221, ,PASS, ,0.07560653, ,0.010616746322930165, ,0.0362123702947899, ,0.0008325411212900112, ,1.8333333333333333, ,0.8391189015549201, ,0.5006224362768107, ,0.029938164527254545
222, ,PASS, ,0.061913043999999993, ,0.008743981318441153, ,0.036987106358645744, ,0.0005534951813529304, ,1.9166666666666667, ,0.8285087582644053, ,0.5007040672639334, ,0.021509765106834555
223, ,PASS, ,0.078382539, ,0.011367760151819482, ,0.03616537040944062, ,0.0009350692122423314, ,1.8333333333333333, ,0.8475559525445214, ,0.497622497500051, ,0.029325932123834206
224, ,PASS, ,0.05992572300000001, ,0.009093389145965835, ,0.03706250622436277, ,0.0005623865275229732, ,1.9166666666666667, ,0.8331770793806574, ,0.497561274259709, ,0.022856676394359298
225, ,PASS, ,0.0429872, ,0.0062514181971481475, ,0.03738758904308075, ,0.0002768794901475837, ,1.9166666666666667, ,0.807090518920151, ,0.49584702353013205, ,0.023713801759147772
226, ,PASS, ,0.04586777000000001, ,0.006602027706765302, ,0.03733666844288892, ,0.0003223106903641634, ,1.9166666666666667, ,0.8161737389926873, ,0.4905206016203751, ,0.019346543948082693
227, ,PASS, ,0.035246090000000015, ,0.004581489313328925, ,0.03759714578763699, ,0.00016800808419480288, ,1.8333333333333333, ,0.7612600237635766, ,0.49284708475337236, ,0.0023672986265586417
228, ,FAIL, ,0.02807730999999999, ,0.0028547131189234506, ,0.038051876751290785, ,8.65832444947587e-05, ,1.9166666666666667, ,0.7415084157155203, ,0.4885818656762107, ,0.000755086630885084
229, ,FAIL, ,0.045558060000000025, ,0.00352855036833483, ,0.03620390105446828, ,0.0001657717137418457, ,1.4166666666666667, ,0.4054942470935869, ,0.48501050998959205, ,0.021264872145466417
