Channel, ,Pass/Fail, ,Amplitude, ,Sorting Function Response, ,Mean, ,Variance
0, ,PASS, ,0.05012940999999998, ,0.041772690386882576, ,0.0043684720724066865, ,0.000433559730557072
1, ,PASS, ,0.049618249999999975, ,0.04090966191641721, ,0.004327187945756209, ,0.0004202436015165335
2, ,PASS, ,0.04959495999999998, ,0.04103963413932617, ,0.004348934714597662, ,0.00042143469019119786
3, ,PASS, ,0.04920937999999999, ,0.04046662744121943, ,0.004170697005775393, ,0.0004124631651560683
4, ,PASS, ,0.049144419999999994, ,0.040168354217281925, ,0.004371616121915879, ,0.0004090849798207519
5, ,PASS, ,0.049199499999999986, ,0.040536810771746846, ,0.004281253826860677, ,0.0004132972519165272
6, ,PASS, ,0.04976958999999998, ,0.04093288554609161, ,0.004174678624109713, ,0.00042220540481286843
7, ,PASS, ,0.04987308999999998, ,0.04087770998643236, ,0.004428471160384482, ,0.0004225320861698364
8, ,PASS, ,0.04981926999999997, ,0.0410589467407113, ,0.004305133187894126, ,0.00042411584006796585
9, ,PASS, ,0.04994389999999997, ,0.0411058425677721, ,0.004290109799187772, ,0.00042551152501526287
10, ,PASS, ,0.04999807999999997, ,0.04111739938249505, ,0.00420741273218914, ,0.0004263847713107572
11, ,PASS, ,0.04990395999999997, ,0.04129135324213226, ,0.0043105528862676275, ,0.0004274265410180137
12, ,PASS, ,0.049890029999999974, ,0.04117360933364919, ,0.004235416853941757, ,0.0004259282386608647
13, ,PASS, ,0.05109084, ,0.041511727997283226, ,0.004353488560233464, ,0.0004400434395885876
14, ,PASS, ,0.06476236999999999, ,0.05327129358440448, ,0.00563569861390584, ,0.0007156712365258402
15, ,PASS, ,0.05898355000000001, ,0.04825355686788816, ,0.005068988241056306, ,0.0005887833414200818
16, ,PASS, ,0.05841545, ,0.04786726857760768, ,0.005238883287688008, ,0.0005783780496123061
17, ,PASS, ,0.058730580000000004, ,0.04771103369987795, ,0.005107058612069143, ,0.0005795614905457137
18, ,PASS, ,0.05853575, ,0.04772367728272258, ,0.005102541239566541, ,0.0005778356757291173
19, ,PASS, ,0.058525060000000004, ,0.047620655191088275, ,0.004939917049039817, ,0.0005765879921130433
20, ,PASS, ,0.058268650000000005, ,0.04739202490287583, ,0.004929921491602214, ,0.0005714350043055058
21, ,PASS, ,0.05819497, ,0.04718337262857005, ,0.005067687716781291, ,0.0005682008818417002
22, ,PASS, ,0.05841996000000001, ,0.04722134606367399, ,0.004981633220750598, ,0.000570941698078632
23, ,PASS, ,0.05798189000000001, ,0.04709345905272094, ,0.005088937137609438, ,0.0005651489384443294
24, ,PASS, ,0.058097109999999993, ,0.046924896005308026, ,0.004737386222730149, ,0.0005643038551114245
25, ,PASS, ,0.058255060000000004, ,0.046781454203990575, ,0.004896290632640151, ,0.0005640707588744474
26, ,PASS, ,0.058119660000000004, ,0.04684625380248444, ,0.004737977942695048, ,0.0005633673620043362
27, ,PASS, ,0.05790784, ,0.046526199344555326, ,0.004768630951613233, ,0.0005577158027134456
28, ,PASS, ,0.0580533, ,0.04669952015102709, ,0.004717268090447134, ,0.0005610109064269818
29, ,PASS, ,0.05791415, ,0.0466788237341945, ,0.004781502551172425, ,0.0005594369087224239
30, ,PASS, ,0.05812049000000001, ,0.046662215428551264, ,0.00490512413052795, ,0.0005611913775901129
31, ,PASS, ,0.057845530000000006, ,0.04646990435201449, ,0.004702166127630049, ,0.000556339132198916
32, ,PASS, ,0.05830388, ,0.046673228198335595, ,0.004867899528172895, ,0.000563108154364528
33, ,PASS, ,0.05807219000000001, ,0.04676765997102661, ,0.004755067202097917, ,0.0005619378112243339
34, ,PASS, ,0.058196790000000005, ,0.04688180402334368, ,0.005058759313687477, ,0.0005644088171063947
35, ,PASS, ,0.058162370000000005, ,0.046918651753701815, ,0.004833422967898616, ,0.0005646555403596435
36, ,PASS, ,0.05815998, ,0.04718981390701817, ,0.004978645039897147, ,0.0005678405154783411
37, ,PASS, ,0.05846448000000001, ,0.04720325152951246, ,0.0050513681969755735, ,0.0005709607281644512
38, ,PASS, ,0.05839275999999999, ,0.04694149359251999, ,0.005043607335564582, ,0.0005668577820012417
39, ,PASS, ,0.058140090000000005, ,0.04694919022193933, ,0.004992701401399973, ,0.0005644079210606829
40, ,PASS, ,0.05876010000000001, ,0.04717701494440758, ,0.004865060886920677, ,0.000573213826934735
41, ,PASS, ,0.05951266000000001, ,0.048419586011811684, ,0.00511388866063958, ,0.0005958016188487935
42, ,PASS, ,0.058937310000000014, ,0.047424547880744586, ,0.004883018994510317, ,0.0005775774377925149
43, ,PASS, ,0.05901565000000002, ,0.047556459411598924, ,0.0049198115211934465, ,0.0005800419124635574
44, ,PASS, ,0.059059210000000015, ,0.04717350025878858, ,0.00490400456888635, ,0.000575762269555132
45, ,PASS, ,0.058820700000000004, ,0.04739750519129956, ,0.005023748873696456, ,0.0005757266841323222
46, ,PASS, ,0.0589218, ,0.047544778171989, ,0.004957266501704048, ,0.0005785512660539185
47, ,PASS, ,0.05905882000000001, ,0.04746429474414983, ,0.005015933795432748, ,0.0005789495981721413
48, ,PASS, ,0.05894129000000001, ,0.047919022212737084, ,0.004890395424379096, ,0.0005830989547341225
49, ,PASS, ,0.05997653000000002, ,0.04896418499953107, ,0.004747749035733964, ,0.0006063543200220785
50, ,PASS, ,0.05911560000000002, ,0.04777717643685655, ,0.0051074956929450435, ,0.0005829391880584304
51, ,PASS, ,0.059574900000000014, ,0.04781394635423693, ,0.0051061360380400414, ,0.0005879301038439473
52, ,PASS, ,0.05949254000000002, ,0.04823936357202831, ,0.005002107981877922, ,0.000592196212325557
53, ,PASS, ,0.05947522000000001, ,0.04823131403613341, ,0.005086550277545358, ,0.0005918721052151225
54, ,PASS, ,0.059394000000000016, ,0.04845378280066233, ,0.005173946799248996, ,0.0005938344899742448
55, ,PASS, ,0.059518170000000016, ,0.04803100546376542, ,0.005219733773596458, ,0.0005898909807672092
56, ,PASS, ,0.05945835000000003, ,0.04851104830701117, ,0.0051310303010142656, ,0.0005952598601395675
57, ,PASS, ,0.059997330000000015, ,0.04854563298773464, ,0.005075200023264831, ,0.0006008171855591205
58, ,PASS, ,0.05966512000000001, ,0.04853907045722708, ,0.005294995320503665, ,0.0005975364416858266
59, ,PASS, ,0.05963117000000001, ,0.04850002671601465, ,0.005270239054509093, ,0.0005965972636697904
60, ,PASS, ,0.060395690000000016, ,0.049068087562084466, ,0.005185671430174895, ,0.000611383628446355
61, ,PASS, ,0.06008664000000002, ,0.04902471311864066, ,0.005210103136466603, ,0.000607721761569407
62, ,PASS, ,0.05986858000000002, ,0.04892003154488291, ,0.005337042516275179, ,0.0006040127022409891
63, ,PASS, ,0.06044851000000002, ,0.04903912960325313, ,0.005154262198526561, ,0.0006113016871603949
64, ,PASS, ,0.06024869000000002, ,0.04901837079211176, ,0.005202338379012674, ,0.0006090991984401856
65, ,PASS, ,0.06013200000000002, ,0.049059871518694, ,0.005195171400787739, ,0.0006084710878599657
66, ,PASS, ,0.060160010000000014, ,0.04922574642278506, ,0.005258880979775923, ,0.0006111327356084879
67, ,PASS, ,0.06023170000000001, ,0.04931925989046457, ,0.005277426113956858, ,0.0006127915847464277
68, ,PASS, ,0.06066118000000002, ,0.04921323013656894, ,0.005288396233342178, ,0.0006157795944436799
69, ,PASS, ,0.06047604000000002, ,0.04909913525108795, ,0.0053954803934613575, ,0.0006126768732565828
70, ,PASS, ,0.060546870000000017, ,0.04926605495420564, ,0.005232640918960837, ,0.0006154070642598198
71, ,PASS, ,0.060500180000000015, ,0.04938459259128266, ,0.005490762581375892, ,0.0006164616076516087
72, ,PASS, ,0.060813340000000014, ,0.0495708706149009, ,0.005333414152772393, ,0.0006219330623077862
73, ,PASS, ,0.06071703000000002, ,0.04960838310909103, ,0.005243974673986245, ,0.000621343480733824
74, ,PASS, ,0.06068763000000002, ,0.04965078624242079, ,0.005444061881186099, ,0.0006215397146772709
75, ,PASS, ,0.06105495000000001, ,0.0499333607875427, ,0.005314895171323035, ,0.0006289215175179604
76, ,PASS, ,0.07827665, ,0.06619218108647017, ,0.007078787490255302, ,0.0010708651937674655
77, ,PASS, ,0.07024425000000001, ,0.058560403579217046, ,0.0062229192453215265, ,0.0008490254960837891
78, ,PASS, ,0.06364075, ,0.051788627958062716, ,0.005546219099610214, ,0.0006797379278600859
79, ,PASS, ,0.06348586, ,0.051640642380165594, ,0.005465391564253792, ,0.0006760129585442699
80, ,PASS, ,0.06360122, ,0.05138735113869996, ,0.005274333577478012, ,0.0006738795017973461
81, ,PASS, ,0.06362301, ,0.05145228201063166, ,0.005506715249688782, ,0.0006749512105996941
82, ,PASS, ,0.06388223000000001, ,0.051629383049300426, ,0.005486093324421952, ,0.0006798753769835895
83, ,PASS, ,0.06353058999999998, ,0.051735832031081806, ,0.005571464356441706, ,0.0006776464883345914
84, ,PASS, ,0.06356770000000002, ,0.05151998321266754, ,0.00549740480500398, ,0.0006748709955599154
85, ,PASS, ,0.06391954000000002, ,0.05192772223946404, ,0.00550900873002592, ,0.0006840644501963516
86, ,PASS, ,0.06388298, ,0.05168612995330917, ,0.005385154379298383, ,0.0006803869226834895
87, ,PASS, ,0.06376841999999999, ,0.05177513028270753, ,0.005404266737821678, ,0.0006801901433556158
88, ,PASS, ,0.06355237999999998, ,0.05157110276301594, ,0.005580766989041042, ,0.0006753508259945514
89, ,PASS, ,0.06389276, ,0.05193883528959533, ,0.005601882817085367, ,0.0006833942113744204
90, ,PASS, ,0.06391698, ,0.052002207841521264, ,0.005671528736556399, ,0.0006844004765041261
91, ,PASS, ,0.06396373, ,0.05186103947308075, ,0.005468770107548826, ,0.000682958407345155
92, ,PASS, ,0.06398745, ,0.05212644977761383, ,0.005644823492377707, ,0.0006867817222578657
93, ,PASS, ,0.06371298, ,0.05185928495815834, ,0.005503222674027062, ,0.0006803233796774604
94, ,PASS, ,0.06393773, ,0.051945430089212784, ,0.0057007530223873, ,0.0006837657777160508
95, ,PASS, ,0.06383348999999999, ,0.052072476042897775, ,0.005472508655537644, ,0.0006842850263107286
96, ,PASS, ,0.06362457, ,0.051986706762393704, ,0.005546077517193528, ,0.0006807991700852732
97, ,PASS, ,0.06355158, ,0.05200099181453786, ,0.005642471560580397, ,0.0006802173322758785
98, ,PASS, ,0.06382357, ,0.05208033783597692, ,0.005669358275341321, ,0.0006842267747766987
99, ,PASS, ,0.06380574, ,0.05210321328755651, ,0.0056245331691189985, ,0.0006840216454957197
100, ,PASS, ,0.06308046, ,0.05185456430969568, ,0.005711291005081529, ,0.0006733372095044498
101, ,PASS, ,0.06341327000000001, ,0.05196380269842668, ,0.005654592021795475, ,0.0006783392680969021
102, ,PASS, ,0.06349458000000001, ,0.0518149845801566, ,0.0055728752096896, ,0.0006771995180671956
103, ,PASS, ,0.06386396999999999, ,0.05223756859788396, ,0.0054813383257484565, ,0.0006866778759198117
104, ,PASS, ,0.06419032, ,0.0523378853242429, ,0.005673238141262425, ,0.0006914268653878203
105, ,PASS, ,0.06402272, ,0.05203540636907665, ,0.005574552008326363, ,0.0006855764065661784
106, ,PASS, ,0.06404607000000001, ,0.05206665465023928, ,0.005567857659843678, ,0.0006861670388404069
107, ,PASS, ,0.06414679000000001, ,0.052236187029709204, ,0.005553212289953268, ,0.0006895474193864965
108, ,PASS, ,0.06403784000000001, ,0.0523320807250638, ,0.0055698674902553025, ,0.0006896115872118599
109, ,PASS, ,0.06420778999999999, ,0.05209003121288046, ,0.005490213972367913, ,0.0006881826048073089
110, ,PASS, ,0.06416114, ,0.052092433081707926, ,0.00553751019917961, ,0.0006877045258842369
111, ,PASS, ,0.06446331999999999, ,0.05307661013728692, ,0.005801995120303669, ,0.0007040960209572963
112, ,PASS, ,0.0647509, ,0.05342527208926255, ,0.005811868545335811, ,0.0007120058832216428
113, ,PASS, ,0.06472077000000001, ,0.052718844029029946, ,0.0057443254805004005, ,0.0007020344593842975
114, ,PASS, ,0.06479428999999998, ,0.052582817043022034, ,0.005812273275647437, ,0.0007009307580465198
115, ,PASS, ,0.06469011999999999, ,0.05288284003555825, ,0.005725125388665539, ,0.0007039191244360151
116, ,PASS, ,0.06457599000000001, ,0.05287335316408419, ,0.005807625179282057, ,0.0007025740811179421
117, ,PASS, ,0.06477754, ,0.052813265224395514, ,0.005603469566947615, ,0.0007038749592342832
118, ,PASS, ,0.06462285999999999, ,0.052954329147989185, ,0.0057582005352952, ,0.0007040434441353577
119, ,PASS, ,0.06445534, ,0.05258774099002645, ,0.005745298336768639, ,0.0006974293157459224
120, ,PASS, ,0.06432499, ,0.0528668163854102, ,0.0057341879792249155, ,0.0006995880002651534
121, ,PASS, ,0.06434132000000001, ,0.05271064583884154, ,0.005842313265851718, ,0.0006979023773050885
122, ,PASS, ,0.06461976, ,0.052919921189101646, ,0.005449265362951779, ,0.0007033324091287367
123, ,PASS, ,0.06451458999999998, ,0.052905667748593045, ,0.005679098724107673, ,0.0007023535133282581
124, ,PASS, ,0.06395459999999997, ,0.05249911096447576, ,0.005682242839737966, ,0.0006909515797559067
125, ,PASS, ,0.06443067999999999, ,0.052891938208860116, ,0.005595337728821863, ,0.0007011385986641908
126, ,PASS, ,0.06512546, ,0.05336137124794375, ,0.00580373381543234, ,0.0007151956890943401
127, ,PASS, ,0.06502757, ,0.05309802189317998, ,0.005686971258953901, ,0.0007103376952219344
128, ,PASS, ,0.06422502, ,0.05232421335446134, ,0.005827372227301486, ,0.0006914413005342039
129, ,PASS, ,0.06476601000000001, ,0.05278157582949719, ,0.005619295809881433, ,0.0007031862359436017
130, ,PASS, ,0.06526547, ,0.05322281371609899, ,0.005700643023407687, ,0.000714587975243268
131, ,PASS, ,0.06505199999999998, ,0.05334602492058481, ,0.0057689207099855125, ,0.0007137667839301541
132, ,PASS, ,0.06571289000000001, ,0.05362210869745599, ,0.005893456504969288, ,0.0007249668030174551
133, ,PASS, ,0.06596460000000001, ,0.05367056735513943, ,0.0057022316511907934, ,0.0007282478185057894
134, ,PASS, ,0.06561106000000001, ,0.053783754328816775, ,0.005865450369176141, ,0.0007259993054724131
135, ,PASS, ,0.06592302000000003, ,0.0541628490599186, ,0.0057204341305279495, ,0.0007345292212732227
136, ,PASS, ,0.06613212000000002, ,0.05444315506458438, ,0.0058657533870737355, ,0.0007406776545565865
137, ,PASS, ,0.06625492000000002, ,0.054622823443657965, ,0.0057843602134650335, ,0.0007446875310152932
138, ,PASS, ,0.06946141, ,0.05766576870258277, ,0.006356172866268038, ,0.0008241384864700256
139, ,PASS, ,0.08945890000000002, ,0.07625197987080307, ,0.008270167706577417, ,0.0014058432183606869
140, ,PASS, ,0.06809570000000004, ,0.055511300762760174, ,0.005901634977653519, ,0.0007771558810814404
141, ,PASS, ,0.06766002, ,0.05531662053097335, ,0.0058501664315014, ,0.0007693814331736873
142, ,PASS, ,0.06744547000000001, ,0.055219960733671775, ,0.005995821879349403, ,0.0007655305265147961
143, ,PASS, ,0.06784387000000001, ,0.05535269270043332, ,0.005961508588396157, ,0.0007720807340977665
144, ,PASS, ,0.06788085000000002, ,0.055441370565435924, ,0.005936140207138632, ,0.0007736056415999063
145, ,PASS, ,0.06803381000000001, ,0.05551586104730666, ,0.006049449951837719, ,0.0007762641565369325
146, ,PASS, ,0.06764645999999999, ,0.055474288617836195, ,0.0060426293649109225, ,0.0007715323377304451
147, ,PASS, ,0.06766141, ,0.055450163295412525, ,0.005951331638742069, ,0.0007711844346724417
148, ,PASS, ,0.06741700000000003, ,0.05545164226422041, ,0.006033746966592521, ,0.0007683346383893788
149, ,PASS, ,0.06773276, ,0.055556404076995934, ,0.005920889613681356, ,0.0007734525956380654
150, ,PASS, ,0.06759691, ,0.05529856651058911, ,0.006110202702597908, ,0.0007682162344356357
151, ,PASS, ,0.06744728, ,0.055303984129306386, ,0.006132336546192937, ,0.0007664965718948182
152, ,PASS, ,0.06742813, ,0.05508758627058419, ,0.005997192352809128, ,0.0007633918374045046
153, ,PASS, ,0.06719244, ,0.054977750716766284, ,0.005992512170772027, ,0.0007590314950063062
154, ,PASS, ,0.06718594, ,0.05493802861510634, ,0.005919332557090674, ,0.0007583687371648725
155, ,PASS, ,0.06673873, ,0.054853990117668554, ,0.005919918117589439, ,0.0007523668466053027
156, ,PASS, ,0.06709364, ,0.055220209737584625, ,0.005904365526825985, ,0.0007611036281940909
157, ,PASS, ,0.06711817, ,0.0550117467644188, ,0.006067028982673825, ,0.0007585563179109431
158, ,PASS, ,0.06718164000000001, ,0.05517442897216467, ,0.0059690807544744, ,0.0007613993791791373
159, ,PASS, ,0.06736338, ,0.05514093969282101, ,0.005967144239301241, ,0.0007631155810212014
160, ,PASS, ,0.06782000000000002, ,0.05552713974415922, ,0.005970726924552562, ,0.0007735362405320107
161, ,PASS, ,0.06736755999999999, ,0.05541947704471778, ,0.006070215930083061, ,0.0007668850336513378
162, ,PASS, ,0.06764263000000001, ,0.05558285413945096, ,0.005940047118222078, ,0.0007722809290719102
163, ,PASS, ,0.06761, ,0.05566606931626324, ,0.005922077246994962, ,0.0007731344305260002
164, ,PASS, ,0.06733449, ,0.055422481333113144, ,0.0061231068470031244, ,0.0007666745804800671
165, ,PASS, ,0.06771581000000002, ,0.055876978194818946, ,0.005975716806595786, ,0.0007773217906809197
166, ,PASS, ,0.06818957, ,0.056576687828818854, ,0.005994440764474196, ,0.0007925455665317514
167, ,PASS, ,0.06781892, ,0.05571917301446259, ,0.005996013259117163, ,0.0007762301057908649
168, ,PASS, ,0.06783707, ,0.05594421879553176, ,0.006219827361074267, ,0.0007793913560490875
169, ,PASS, ,0.06793419, ,0.05608728051263478, ,0.006181755953960125, ,0.000782755993517589
170, ,PASS, ,0.06775530000000002, ,0.056156161197021326, ,0.006296845396420483, ,0.0007816214356236974
171, ,PASS, ,0.06789596, ,0.05608186752955179, ,0.00609252793779719, ,0.0007821297823005267
172, ,PASS, ,0.06787481999999997, ,0.056178513357591345, ,0.006077902138731865, ,0.0007831528354425857
173, ,PASS, ,0.06782509, ,0.056190103952453586, ,0.006251973695434789, ,0.0007828216056981721
174, ,PASS, ,0.06817569999999999, ,0.05652190561741555, ,0.006266787073529114, ,0.0007916817329764197
175, ,PASS, ,0.06781107, ,0.05608141886206456, ,0.005945992462806883, ,0.0007811018848099371
176, ,PASS, ,0.06825096000000003, ,0.05626124490372413, ,0.006135576265994574, ,0.0007888162847304819
177, ,PASS, ,0.06797921000000001, ,0.056025614385640826, ,0.00596920392828718, ,0.0007823065317811379
178, ,PASS, ,0.06784867999999998, ,0.055687426161587776, ,0.006010504691740986, ,0.0007761080606724872
179, ,PASS, ,0.06789679, ,0.05602353214148079, ,0.006025515909879393, ,0.0007810948503890223
180, ,PASS, ,0.06783898000000001, ,0.05580806843628804, ,0.0061825157343727705, ,0.000777491382744426
181, ,PASS, ,0.0680676, ,0.05567490157014525, ,0.0059408125323973, ,0.0007782852511140266
182, ,PASS, ,0.06804874000000002, ,0.05582547869326547, ,0.005989993209934493, ,0.0007802678824289572
183, ,PASS, ,0.06790128000000001, ,0.055764244630790535, ,0.006229464167057818, ,0.000777782450359094
184, ,PASS, ,0.06781045000000002, ,0.05572611403786076, ,0.005967435212342606, ,0.0007760546183232616
185, ,PASS, ,0.06795419000000003, ,0.05594751608567278, ,0.005995338908389627, ,0.0007807155681562622
186, ,PASS, ,0.06776960999999998, ,0.0557337189400371, ,0.006133639809595724, ,0.0007757366853719688
187, ,PASS, ,0.06808994, ,0.05583620017990705, ,0.0061318723250545935, ,0.0007807559876613422
188, ,PASS, ,0.06832199, ,0.05633808010464403, ,0.006105481725270915, ,0.0007905335983714964
189, ,PASS, ,0.06835700000000001, ,0.05615101413264329, ,0.00615758657251893, ,0.0007881357395788477
190, ,PASS, ,0.0684163, ,0.056258124806616155, ,0.006140227402910146, ,0.0007904949896920701
191, ,PASS, ,0.06800648000000001, ,0.05625393877634112, ,0.006245461451398953, ,0.0007858726895544123
192, ,PASS, ,0.06796633000000002, ,0.055989540552687796, ,0.006135132096895985, ,0.0007815224720061821
193, ,PASS, ,0.06774086000000001, ,0.05600580109741574, ,0.006083427085365607, ,0.0007793343450093718
194, ,FAIL, ,0.010101527000000003, ,0.0015051053206919446, ,1.9643122212199834e-05, ,3.7806798425844595e-06
195, ,PASS, ,0.06819797000000001, ,0.05643464594654143, ,0.006277341131201406, ,0.0007904984727560893
196, ,PASS, ,0.06853252000000001, ,0.05657859599535073, ,0.006293518124936229, ,0.0007964693752383535
197, ,PASS, ,0.06870690000000002, ,0.05682194463036034, ,0.0063112145290912455, ,0.0008019188218268335
198, ,PASS, ,0.06870209, ,0.056731460861465216, ,0.006131664033182999, ,0.0008007160908933699
199, ,PASS, ,0.06820152000000002, ,0.0562753942487151, ,0.006376155573355648, ,0.0007884861996177427
200, ,PASS, ,0.07059614, ,0.05808064987351484, ,0.006438967983306464, ,0.0008420821662085844
201, ,PASS, ,0.12392819999999996, ,0.10649613024958302, ,0.012190190717740456, ,0.0027180428472423747
202, ,PASS, ,0.07683511000000001, ,0.06469913256698441, ,0.0072920906183547305, ,0.0010209012107144522
203, ,PASS, ,0.071381, ,0.059715193952920735, ,0.006691802549539806, ,0.0008752225985962185
204, ,PASS, ,0.07106889, ,0.05933256080455134, ,0.006638110071427115, ,0.0008655103162982371
205, ,PASS, ,0.07143129, ,0.059265085327458514, ,0.006559400169792454, ,0.0008690827913094006
206, ,PASS, ,0.07105057000000001, ,0.05932453225789348, ,0.006664941229566745, ,0.0008650515527799459
207, ,PASS, ,0.07099704, ,0.05933615280209171, ,0.006660668586355383, ,0.0008648419452398846
208, ,PASS, ,0.07092267, ,0.05931391495541881, ,0.006482587706169263, ,0.0008634164936006437
209, ,PASS, ,0.07081772, ,0.059315494776213076, ,0.00659603093345034, ,0.0008622623514502635
210, ,PASS, ,0.07082053999999999, ,0.059184741527783614, ,0.006627634671741395, ,0.000860169572646418
211, ,PASS, ,0.07039742000000002, ,0.058943504056437473, ,0.006529128311054878, ,0.0008515545452550768
212, ,PASS, ,0.07078303, ,0.05895991451663361, ,0.0065850193951143875, ,0.000856322608800133
213, ,PASS, ,0.07062271, ,0.059062672562761445, ,0.006708223682577908, ,0.0008562020667396925
214, ,PASS, ,0.07035222, ,0.059161462460173536, ,0.006621808733291159, ,0.0008542866874948162
215, ,PASS, ,0.07032224000000001, ,0.058769952591297255, ,0.0064974456649864315, ,0.0008480003211985613
216, ,PASS, ,0.07100391, ,0.059141989555509, ,0.006673567120875086, ,0.0008616587826844837
217, ,PASS, ,0.07077137, ,0.0592901530694528, ,0.006620042951368341, ,0.0008611308591931545
218, ,PASS, ,0.07077701000000002, ,0.05948354885340366, ,0.006552636523948493, ,0.0008639043220370693
219, ,PASS, ,0.07054054, ,0.059188006838771345, ,0.006663215110712027, ,0.000856950537369415
220, ,PASS, ,0.07076167, ,0.05925442522045963, ,0.006692000502846883, ,0.0008604176558604626
221, ,PASS, ,0.07107153000000001, ,0.05878435438921546, ,0.00651114755739679, ,0.0008570192981389906
222, ,PASS, ,0.07068964999999999, ,0.05911149911906008, ,0.006640841853431564, ,0.0008572305083000358
223, ,PASS, ,0.07067316000000001, ,0.05911857616511336, ,0.006632283880737129, ,0.0008572662913106046
224, ,PASS, ,0.07057337999999999, ,0.05912997408812591, ,0.006633158177384137, ,0.0008560405903489585
225, ,PASS, ,0.07075037, ,0.05953294060673143, ,0.006739223959715109, ,0.0008641252115358947
226, ,PASS, ,0.07139070000000002, ,0.05932674903786433, ,0.00674306598008204, ,0.0008691335544105179
227, ,PASS, ,0.07102529, ,0.059413304764223185, ,0.006681432931164672, ,0.0008659376624586941
228, ,PASS, ,0.07149857999999999, ,0.06014728281926714, ,0.006930516481908533, ,0.0008825579002109688
229, ,PASS, ,0.07167878999999999, ,0.05976881765422385, ,0.006666390198567378, ,0.0008791887715809605
230, ,PASS, ,0.07112131999999999, ,0.05959445400462136, ,0.006551713124221956, ,0.0008694590348647608
231, ,PASS, ,0.07131411, ,0.05935264568305051, ,0.006750175329074918, ,0.000868445494577238
232, ,PASS, ,0.07121807999999999, ,0.059777302389919684, ,0.006715643280137141, ,0.0008736770637587598
233, ,PASS, ,0.07137254000000001, ,0.05985447007880917, ,0.006690677748209222, ,0.0008764780986098712
234, ,PASS, ,0.07149942000000001, ,0.059849503359459065, ,0.006687487055366218, ,0.0008777989003639762
235, ,PASS, ,0.07162971000000001, ,0.059859676618184164, ,0.006699483178506562, ,0.0008795579570886115
236, ,PASS, ,0.07271554, ,0.06117705620594824, ,0.007053357219240425, ,0.0009125881339650279
237, ,PASS, ,0.07338152999999997, ,0.06149503974685333, ,0.006928908750841822, ,0.0009258196600797642
238, ,PASS, ,0.07245947000000001, ,0.06029188891684394, ,0.006748586270484278, ,0.0008960505871964914
239, ,PASS, ,0.07212284000000001, ,0.06031336694548341, ,0.006820025144384811, ,0.0008923045995334081
240, ,PASS, ,0.07271698000000001, ,0.06050414140818177, ,0.006752455049488787, ,0.0009023363996863025
241, ,PASS, ,0.07252873999999998, ,0.06093863059082492, ,0.006712349020428157, ,0.0009067077244690944
242, ,PASS, ,0.07245029000000001, ,0.060553801504808095, ,0.006848255177241283, ,0.0008999342679930207
243, ,PASS, ,0.07241992000000001, ,0.06087253167890165, ,0.006856247259035532, ,0.0009044132778303428
244, ,PASS, ,0.07303180000000004, ,0.061182447619922774, ,0.006923363166874148, ,0.0009165336309138704
245, ,PASS, ,0.07290627000000001, ,0.061244126561617464, ,0.006844688978796353, ,0.0009161115028678865
246, ,PASS, ,0.07291849000000002, ,0.06110770453582294, ,0.006928409146343954, ,0.0009142204478145849
247, ,PASS, ,0.07313205, ,0.06142983585464281, ,0.006915244481949351, ,0.0009216778387913457
248, ,PASS, ,0.07321866000000002, ,0.06123754617445009, ,0.0067956593502173455, ,0.00091971063076804
249, ,PASS, ,0.07330464000000002, ,0.06135732308317441, ,0.0068893489453276495, ,0.0009225340449168839
250, ,PASS, ,0.07326603999999998, ,0.06120816127721528, ,0.006926512485867638, ,0.000919817060673312
251, ,PASS, ,0.07311838999999999, ,0.06135090294383172, ,0.006891516651700988, ,0.0009202704124121729
252, ,PASS, ,0.07290538000000002, ,0.06093490685618725, ,0.006759798817575153, ,0.0009111546295188762
253, ,PASS, ,0.07329368, ,0.061270294516710073, ,0.006913585979469809, ,0.0009211399928288058
254, ,PASS, ,0.07359276000000001, ,0.06155849601235666, ,0.007090524877451484, ,0.0009290289744705739
255, ,PASS, ,0.07359217000000001, ,0.06160924483331809, ,0.00676613965286423, ,0.0009302058351932195
