Channel, ,Pass/Fail, ,Amplitude, ,Sorting Function Response, ,Mean, ,Variance, ,NPeaksRatio, ,PosIntegralRatio, ,ToT50, ,ToT99
19, ,PASS, ,0.012643019999999998, ,0.002010176633443638, ,0.036910011869553686, ,2.5764484780534152e-05, ,1.9166666666666667, ,0.7600422755303555, ,0.4501744862349748, ,0.05401930572845452
20, ,PASS, ,0.023229000000000007, ,0.0036351935293668643, ,0.03632288641252219, ,8.541011205624059e-05, ,1.9166666666666667, ,0.7468654706369733, ,0.44735821717924124, ,0.059284504397869434
21, ,PASS, ,0.026388980000000013, ,0.004142308403192559, ,0.0364187405026428, ,0.00011033157603893644, ,2.0, ,0.7396237693340123, ,0.4572967898614314, ,0.05416215995591927
22, ,PASS, ,0.025165920000000005, ,0.0039116762917282165, ,0.03652085679047366, ,9.954629166894416e-05, ,1.9166666666666667, ,0.7346230694945743, ,0.4517866982306484, ,0.05254994796024571
23, ,PASS, ,0.018981620000000032, ,0.002998626507572825, ,0.03650714765596621, ,5.7538617072648876e-05, ,2.0, ,0.7466916314933167, ,0.4539295116426195, ,0.06818228199424502
24, ,PASS, ,0.00896294999999997, ,0.0013523137354585003, ,0.03715965799697965, ,1.2314144748802531e-05, ,1.8333333333333333, ,0.7237207675973379, ,0.44117466990469584, ,0.04410114079304504
25, ,PASS, ,0.013536100000000002, ,0.0023072547058930336, ,0.03693437922777087, ,3.157583013290304e-05, ,2.0, ,0.7953098190182348, ,0.4563580335095202, ,0.07677394338891043
26, ,PASS, ,0.026082029999999996, ,0.004429389936060175, ,0.03644473842186894, ,0.00011654797053773824, ,1.9166666666666667, ,0.7829736747395893, ,0.4576845370502643, ,0.07673312789534907
27, ,PASS, ,0.03045948999999999, ,0.005117145595840975, ,0.036577861125283155, ,0.0001569684469370952, ,1.8333333333333333, ,0.7794382461980741, ,0.46421501602008125, ,0.06734556437623722
28, ,PASS, ,0.02913967000000001, ,0.004851301027596866, ,0.03661662833411562, ,0.00014265605265280595, ,1.8333333333333333, ,0.7743301273185484, ,0.462643619517969, ,0.0691210383461562
29, ,PASS, ,0.021497990000000005, ,0.0035786733945361313, ,0.03675968632762597, ,7.775380587284162e-05, ,2.0, ,0.7766685780199286, ,0.4606436603334626, ,0.05218260851819351
30, ,PASS, ,0.008821139999999977, ,0.0014706516244150881, ,0.03705746452929532, ,1.3157005929180977e-05, ,1.9166666666666667, ,0.7894690367819371, ,0.446868431256505, ,0.06546805167241485
31, ,PASS, ,0.013308489999999965, ,0.0022775972445451586, ,0.036790758667986374, ,3.079338044569508e-05, ,1.9166666666666667, ,0.7955850567861201, ,0.4475827023938287, ,0.045366421093447074
32, ,PASS, ,0.027130940000000017, ,0.004522330949713665, ,0.0365564863137487, ,0.00012402056060253802, ,2.0, ,0.7726137268508657, ,0.45448052080569784, ,0.04750923450541826
33, ,PASS, ,0.03207681999999999, ,0.0053628103961163385, ,0.03641663149813269, ,0.00017357836288504964, ,1.9166666666666667, ,0.7743215064985767, ,0.45754168282279956, ,0.06138650231627926
34, ,PASS, ,0.030156449999999994, ,0.005111219803166137, ,0.03629556885288055, ,0.0001554287300390731, ,1.9166666666666667, ,0.7842698269172416, ,0.4602763208914104, ,0.06889655313156874
35, ,PASS, ,0.02180327000000001, ,0.0037148758251999087, ,0.03652789693557274, ,8.197445054854823e-05, ,2.0, ,0.7881737244336771, ,0.45327646374563785, ,0.058366155792738926
36, ,PASS, ,0.008685369999999998, ,0.0014408887345109358, ,0.03690169036366605, ,1.2759840301903436e-05, ,1.8333333333333333, ,0.7878285952730384, ,0.4421338340033877, ,0.05367237403318299
37, ,PASS, ,0.01838621000000002, ,0.0030693022323349897, ,0.037041482354033595, ,5.7004973804958646e-05, ,1.8333333333333333, ,0.7898565548488748, ,0.4613987469643477, ,0.11448745943960327
38, ,PASS, ,0.03416589000000002, ,0.005770704422862894, ,0.036685659687965555, ,0.00019884381831249153, ,1.8333333333333333, ,0.7851756955877557, ,0.46421501602008125, ,0.10526315789473684
39, ,PASS, ,0.03965868, ,0.006676336015652607, ,0.036655489424093385, ,0.0002662265269952534, ,1.75, ,0.7804561183668499, ,0.4687863512989531, ,0.12497704128487173
40, ,PASS, ,0.03772547999999998, ,0.0063525190678308625, ,0.036719671153037696, ,0.0002409312964934186, ,1.75, ,0.7844549960951055, ,0.4709903879512663, ,0.14003795840901206
41, ,PASS, ,0.027578000000000005, ,0.004689679579765034, ,0.03666264483520744, ,0.00013029356513090637, ,1.8333333333333333, ,0.7913085904284626, ,0.4621130181016714, ,0.10871206710067141
42, ,PASS, ,0.01108006000000001, ,0.0019241041018054142, ,0.03696534867900655, ,2.1593804045738747e-05, ,2.0, ,0.8096033441038767, ,0.45068467990449174, ,0.10283463602783617
43, ,PASS, ,0.019877110000000017, ,0.0033753608476714838, ,0.03671972534315627, ,6.77375456348112e-05, ,1.9166666666666667, ,0.7948549389724371, ,0.4580926919858778, ,0.12236484969694496
44, ,PASS, ,0.03936395999999999, ,0.006560793015167859, ,0.03642003117181282, ,0.00025986182358261916, ,1.75, ,0.7767108594351262, ,0.4684190118569009, ,0.12875247443929716
45, ,PASS, ,0.04588756999999998, ,0.007533594929341438, ,0.03650414197220464, ,0.00034714850485862065, ,1.75, ,0.7702584886876167, ,0.47399032672802593, ,0.127874941327728
46, ,PASS, ,0.04337562999999997, ,0.007117393626386519, ,0.0367183805832534, ,0.00030981286148708433, ,1.75, ,0.7691366364394503, ,0.4752147915348666, ,0.10414073182179956
47, ,PASS, ,0.031201749999999993, ,0.005240092001765686, ,0.0367322859170221, ,0.00016489291747165055, ,1.8333333333333333, ,0.786162827696466, ,0.4675822942388931, ,0.12607905961102836
48, ,PASS, ,0.011924990000000007, ,0.0020232164025194145, ,0.03674029475724985, ,2.4460252664868445e-05, ,2.0, ,0.8014388078550192, ,0.451113242586886, ,0.06365176220893451
49, ,PASS, ,0.031688249999999994, ,0.0039033388404195873, ,0.03732720893104222, ,0.0001246323385577346, ,1.75, ,0.6733506167506456, ,0.4805003979510622, ,0.04544805208056978
50, ,PASS, ,0.04681360000000001, ,0.0071218820020585065, ,0.03695996727495357, ,0.0003349627104158058, ,1.75, ,0.7463170292354138, ,0.4768065957837595, ,0.1328952470357748
51, ,PASS, ,0.05368127200000002, ,0.008131805954984748, ,0.03715033282675864, ,0.0004381964344163037, ,1.75, ,0.7432661580689489, ,0.48078610640599173, ,0.1243648088814514
52, ,PASS, ,0.05094084000000002, ,0.007591758039500057, ,0.037102597765147655, ,0.00038821050937558826, ,1.75, ,0.7351414164779011, ,0.47696985775800493, ,0.07418215954776433
53, ,PASS, ,0.03997718999999998, ,0.005613617960624221, ,0.03737703239423685, ,0.000225577274755619, ,1.75, ,0.7204695574195488, ,0.47952082610558966, ,0.07267198628599417
54, ,PASS, ,0.01917692000000002, ,0.0022550428271115655, ,0.03733963585906411, ,4.3581265119952225e-05, ,1.75, ,0.6569758454793584, ,0.47584743168506766, ,0.023468908797779638
