Channel, ,Pass/Fail, ,Amplitude, ,Sorting Function Response, ,Mean, ,Variance, ,NPeaksRatio, ,PosIntegralRatio, ,ToT50, ,ToT99
0, ,PASS, ,0.07413518800000002, ,0.010915223146217026, ,0.03700912747596988, ,0.0008270286915397471, ,1.8333333333333333, ,0.7857583286497626, ,0.6373135242137915, ,0.11179363686455379
1, ,PASS, ,0.07397170600000001, ,0.010977353576061647, ,0.036788361178139224, ,0.0008302843720485058, ,1.8333333333333333, ,0.7919253177969149, ,0.6377829023897471, ,0.12699740821615885
2, ,PASS, ,0.073935546, ,0.0107840427805522, ,0.036796598754923374, ,0.0008158741635976168, ,1.75, ,0.7729051263457485, ,0.6392114446643946, ,0.12856880471827106
3, ,PASS, ,0.07341088900000001, ,0.0110828725566621, ,0.037982365316626195, ,0.0008299212341012686, ,1.8333333333333333, ,0.8175763742858121, ,0.6445174588273709, ,0.11838533907471276
4, ,PASS, ,0.073090386, ,0.010738739969090012, ,0.03657237174384196, ,0.0008029940853854167, ,1.75, ,0.7794357395276104, ,0.6376196404155017, ,0.12254851941797106
5, ,PASS, ,0.07259760300000002, ,0.010754598401910957, ,0.037012498309830416, ,0.0008001656884655295, ,1.8333333333333333, ,0.792875560839042, ,0.6391502214240525, ,0.1249158180445297
6, ,PASS, ,0.072619571, ,0.01068204020647353, ,0.034944453106773334, ,0.0007883906671251332, ,1.75, ,0.7733693835544957, ,0.5989673680128977, ,0.12350768351666293
7, ,PASS, ,0.07225243400000002, ,0.01054323126313597, ,0.036535437596579665, ,0.0007831062398939295, ,1.75, ,0.7802303639583709, ,0.6398644925613763, ,0.12995653149935715
8, ,PASS, ,0.07244004099999998, ,0.01077190089374789, ,0.03782639803657068, ,0.0008037679533176345, ,1.8333333333333333, ,0.8076237225514452, ,0.654456031509561, ,0.12324238280851411
9, ,PASS, ,0.072382067, ,0.010483975776902027, ,0.036210317564539504, ,0.0007816755251557096, ,1.8333333333333333, ,0.7830293650918337, ,0.6248239831840167, ,0.10232444235831922
10, ,PASS, ,0.07239951200000001, ,0.010703572816055709, ,0.036747264793779724, ,0.0007979392970960666, ,1.8333333333333333, ,0.7948842509109101, ,0.6379053488704313, ,0.12197710250811208
11, ,PASS, ,0.07222067500000001, ,0.010648727874501161, ,0.03662776512989531, ,0.0007909116646047828, ,1.8333333333333333, ,0.7874041023839321, ,0.6381910573253607, ,0.1197322503622375
12, ,PASS, ,0.07223665599999998, ,0.010316768948537062, ,0.035732849100426525, ,0.0007703078990200511, ,1.75, ,0.7591547540911299, ,0.6376196404155017, ,0.12179343278708597
13, ,PASS, ,0.072537891, ,0.010095322237976687, ,0.03806694383400339, ,0.0007543729135055237, ,1.6666666666666667, ,0.7817443461594951, ,0.6612926266810881, ,0.12552805044795004
14, ,PASS, ,0.07260320000000002, ,0.010752346892030858, ,0.03674052236138038, ,0.0007986625927147844, ,1.8333333333333333, ,0.789886535668569, ,0.6374767861880369, ,0.12236484969694496
15, ,PASS, ,0.07251271699999998, ,0.010681689643842132, ,0.03666566464439502, ,0.0007928940414489178, ,1.8333333333333333, ,0.7842832718828741, ,0.6376196404155017, ,0.12016081304463175
16, ,PASS, ,0.07304661300000001, ,0.010794150323694723, ,0.03683568069141446, ,0.0008068686163319041, ,1.8333333333333333, ,0.7860742050015112, ,0.6374563784412564, ,0.1219566947613314
17, ,PASS, ,0.07375956600000001, ,0.010937017284293311, ,0.037092237826166816, ,0.0008269977860072678, ,1.75, ,0.7923317033417604, ,0.6378849411236506, ,0.12163017081284055
18, ,PASS, ,0.12009052999999997, ,0.01690824624796082, ,0.04199762898246974, ,0.0020756780420728986, ,1.8333333333333333, ,0.7614562252895978, ,0.6367829227974939, ,0.1808126364768066
19, ,PASS, ,0.10998535000000001, ,0.016081624865807213, ,0.041453389174506645, ,0.0018021122921375128, ,1.8333333333333333, ,0.7861344415415331, ,0.6367216995571519, ,0.16477214750719374
20, ,PASS, ,0.07601724100000003, ,0.011900753633475864, ,0.0380735970945491, ,0.0009208731188276329, ,1.8333333333333333, ,0.8315124969181491, ,0.6374359706944757, ,0.16191506295789881
21, ,PASS, ,0.07534067600000004, ,0.011168710547132915, ,0.036965026944960316, ,0.0008615940625519156, ,1.75, ,0.7866923381141334, ,0.6389461439562458, ,0.12665047652088732
22, ,PASS, ,0.07514787700000003, ,0.011141133256757559, ,0.03631618294667456, ,0.0008562372891316002, ,1.8333333333333333, ,0.7810485451186701, ,0.6229260627334136, ,0.122426072937287
23, ,PASS, ,0.07533764000000004, ,0.01118879075630744, ,0.036571465692332814, ,0.0008642662417792285, ,1.75, ,0.7800441379898408, ,0.6371706699863268, ,0.11607926368849615
24, ,PASS, ,0.07505953000000001, ,0.011121595587173837, ,0.036784476517622094, ,0.0008547681671424768, ,1.75, ,0.7875558704558675, ,0.6380277953511153, ,0.126038244117467
25, ,PASS, ,0.07519491600000003, ,0.011253209714424265, ,0.03741438892532806, ,0.0008702408014630887, ,1.9166666666666667, ,0.8033968341927763, ,0.6380073876043346, ,0.1272218934307463
26, ,PASS, ,0.07504681800000003, ,0.011124314589146549, ,0.036760392498928596, ,0.0008546875153839708, ,1.8333333333333333, ,0.788038227140821, ,0.6377420868961858, ,0.12440562437501275
27, ,PASS, ,0.07511022900000001, ,0.011738630976248034, ,0.03781579177547398, ,0.0008945535100619405, ,1.8333333333333333, ,0.8242770127053627, ,0.6386604355013163, ,0.1766494561335483
28, ,PASS, ,0.07512466500000001, ,0.010977194258701183, ,0.03646301453909104, ,0.0008439215538092226, ,1.8333333333333333, ,0.7667974634944429, ,0.6382114650721414, ,0.10497744943980736
29, ,PASS, ,0.07511718400000002, ,0.011489697915455316, ,0.03749916184486032, ,0.0008818170400589782, ,1.8333333333333333, ,0.8169370270239653, ,0.6380686108446766, ,0.12585457439644088
30, ,PASS, ,0.074792849, ,0.010883000333994957, ,0.037685640358360036, ,0.0008348732064968481, ,1.75, ,0.789913834381509, ,0.6478643292994021, ,0.12781371808738598
31, ,PASS, ,0.07500688400000001, ,0.0113576464536154, ,0.037332324998469425, ,0.0008706822824589686, ,1.8333333333333333, ,0.8090020588682624, ,0.6377624946429664, ,0.126038244117467
32, ,PASS, ,0.07444431800000001, ,0.011077692435042162, ,0.03691099661272219, ,0.0008444786308385956, ,1.8333333333333333, ,0.7950826229878464, ,0.6380073876043346, ,0.12073222995449072
33, ,PASS, ,0.07472987500000003, ,0.011046782645531557, ,0.035168200668598604, ,0.0008404500416612957, ,1.8333333333333333, ,0.7796826031772998, ,0.6047835758453909, ,0.12718107793718494
34, ,PASS, ,0.07459943200000001, ,0.011112272819992462, ,0.0367132570555703, ,0.0008488027211375091, ,1.8333333333333333, ,0.7956963319654662, ,0.6382114650721414, ,0.12058937572702598
35, ,PASS, ,0.07470408400000003, ,0.011096950778800962, ,0.03697837266035387, ,0.0008489325587854477, ,1.8333333333333333, ,0.78842938231455, ,0.6374767861880369, ,0.12597702087712495
36, ,PASS, ,0.07493806800000002, ,0.011231908567161438, ,0.03684778763861963, ,0.0008614204361140578, ,1.8333333333333333, ,0.7924237885338494, ,0.6333748290851207, ,0.11709965102753005
37, ,PASS, ,0.07493674900000002, ,0.011243529691889301, ,0.0372762503179527, ,0.0008628254775261369, ,1.75, ,0.7989700123740718, ,0.6376808636558438, ,0.12771167935348257
38, ,PASS, ,0.07476294000000003, ,0.010931565168409664, ,0.03764636714556846, ,0.0008389751190565146, ,1.8333333333333333, ,0.7936959006484121, ,0.6471296504152977, ,0.12234444195016428
39, ,PASS, ,0.07468956100000004, ,0.011129330959909037, ,0.037062104312565056, ,0.0008510017309152643, ,1.8333333333333333, ,0.7932047918202852, ,0.6379869798575539, ,0.127242301177527
40, ,PASS, ,0.07479695700000001, ,0.011181362354206288, ,0.03676074615232342, ,0.0008561094807168997, ,1.8333333333333333, ,0.7964424466942669, ,0.6378849411236506, ,0.12589538989000224
41, ,PASS, ,0.07510099300000005, ,0.011122221832255396, ,0.03683640962000776, ,0.0008565300318270481, ,1.8333333333333333, ,0.7883341392897569, ,0.6375788249219404, ,0.11793636864553785
42, ,PASS, ,0.074837653, ,0.011457384861770864, ,0.036578640539376754, ,0.0008758125248868122, ,1.8333333333333333, ,0.8052923272418988, ,0.6285994163384421, ,0.12607905961102836
43, ,PASS, ,0.07504098100000002, ,0.011167844270431018, ,0.036692844070325095, ,0.0008580781834333821, ,1.8333333333333333, ,0.7899646808778485, ,0.6374971939348176, ,0.12632395257239648
44, ,PASS, ,0.07483045299999999, ,0.011160696474761336, ,0.03665236508663089, ,0.0008545141533925466, ,1.9166666666666667, ,0.7936597679947834, ,0.6379869798575539, ,0.12811983428909615
45, ,PASS, ,0.07503533100000001, ,0.011133071463342897, ,0.03659440984408482, ,0.0008557424763915806, ,1.75, ,0.7865853754603591, ,0.6374563784412564, ,0.120017958817167
46, ,PASS, ,0.07492346600000001, ,0.011113032065249884, ,0.03673424464337463, ,0.000852785182161732, ,1.8333333333333333, ,0.7874956359914426, ,0.6376604559090631, ,0.11885471725066836
47, ,PASS, ,0.07514205100000002, ,0.011131897195863298, ,0.03668788553458093, ,0.0008562414703162186, ,1.75, ,0.7864997202259396, ,0.6375176016815983, ,0.12493622579131038
48, ,PASS, ,0.07540415800000003, ,0.011209105013274146, ,0.03724191657333524, ,0.000864842914690624, ,1.8333333333333333, ,0.7989084825697224, ,0.6444562355870288, ,0.09738576763739515
49, ,PASS, ,0.07557766200000005, ,0.011119878205131392, ,0.03663096860553867, ,0.0008619869217220425, ,1.75, ,0.7813638669405464, ,0.6369870002653008, ,0.1148343911348748
50, ,PASS, ,0.07642838300000004, ,0.01141420529435833, ,0.036954039161445684, ,0.0008928357265519899, ,1.8333333333333333, ,0.7962774186655412, ,0.6372523009734495, ,0.12252811167119039
51, ,PASS, ,0.075708616, ,0.011278818485334794, ,0.035935203133201365, ,0.0008727281896470008, ,1.8333333333333333, ,0.7793714244738463, ,0.62131385073774, ,0.10279382053427481
52, ,PASS, ,0.07548286500000002, ,0.011280411837244, ,0.03661048284994184, ,0.0008710866503002741, ,1.8333333333333333, ,0.7929033992655735, ,0.6343952164241546, ,0.10830391216505786
53, ,PASS, ,0.07546095600000004, ,0.011213703268138336, ,0.03666581219811841, ,0.0008663605848911213, ,1.8333333333333333, ,0.7915744651967415, ,0.6375992326687211, ,0.12197710250811208
54, ,PASS, ,0.07512544700000001, ,0.011149298153217429, ,0.03654396109467154, ,0.0008574969213451693, ,1.8333333333333333, ,0.7869530662485794, ,0.6373951552009143, ,0.12430358564110937
55, ,PASS, ,0.07536209500000003, ,0.01150456984346317, ,0.037132438115956824, ,0.0008856616512876601, ,1.8333333333333333, ,0.8125935059653923, ,0.6365176220893451, ,0.12299748984714598
56, ,PASS, ,0.07527073900000002, ,0.01114860328003543, ,0.03684706613069121, ,0.0008591710652040278, ,1.75, ,0.7870896117119708, ,0.6380073876043346, ,0.11971184261545682
57, ,PASS, ,0.07583685800000003, ,0.011258035807009037, ,0.03660787540315504, ,0.0008740521203696994, ,1.8333333333333333, ,0.7880604758877892, ,0.6374359706944757, ,0.11791596089875717
58, ,PASS, ,0.076878342, ,0.011448928377052024, ,0.03711533129548377, ,0.0009011115150031586, ,1.8333333333333333, ,0.788749171667685, ,0.637415562947695, ,0.12171180179996327
59, ,PASS, ,0.07552979400000001, ,0.011224035808567465, ,0.036692957096181714, ,0.0008679548755627582, ,1.8333333333333333, ,0.7902296441603273, ,0.6374971939348176, ,0.1239974694393992
60, ,PASS, ,0.07568081100000006, ,0.011247965943097191, ,0.036681280595089905, ,0.0008718187695113563, ,1.8333333333333333, ,0.7914600316415465, ,0.6373135242137915, ,0.121222015877227
61, ,PASS, ,0.07617491000000001, ,0.011346413888555017, ,0.036317304330319794, ,0.0008847706800887435, ,1.75, ,0.7812936807206388, ,0.6307218220036326, ,0.10873247484745209
62, ,PASS, ,0.07589701900000001, ,0.011264230252022688, ,0.036656863873390344, ,0.0008758686742230203, ,1.8333333333333333, ,0.7903144730473904, ,0.636905369278178, ,0.10830391216505786
63, ,PASS, ,0.07596925900000003, ,0.011280562031713093, ,0.03659027324299504, ,0.0008776936094270357, ,1.8333333333333333, ,0.7885320594660397, ,0.6373747474541336, ,0.1264055835595192
64, ,PASS, ,0.07606182700000003, ,0.011376274621111512, ,0.036787656408848804, ,0.0008870883169695039, ,1.8333333333333333, ,0.8016948197179612, ,0.6372727087202302, ,0.11422215873145446
65, ,PASS, ,0.07627061100000002, ,0.011347533191595571, ,0.036769039670823046, ,0.0008860735009871266, ,1.8333333333333333, ,0.7908314883461152, ,0.6370482235056427, ,0.11748739821636293
66, ,PASS, ,0.07594124200000003, ,0.011267129360779239, ,0.03579421089406339, ,0.000874114973976265, ,1.75, ,0.7817566517621137, ,0.6161506908022285, ,0.12136487010469174
67, ,PASS, ,0.07633220600000001, ,0.011355038050856992, ,0.03877370655088672, ,0.0008888975466134942, ,1.8333333333333333, ,0.8206299756305577, ,0.6567008836554356, ,0.12126283137078835
68, ,PASS, ,0.07605521900000002, ,0.011370753056761634, ,0.03691467490112447, ,0.0008901598416902221, ,1.8333333333333333, ,0.8002070598687464, ,0.6373543397073529, ,0.11754862145670497
69, ,PASS, ,0.07618453100000001, ,0.011239922451653284, ,0.03881419607008021, ,0.0008769637796132212, ,1.8333333333333333, ,0.8167106910109413, ,0.655598865329279, ,0.11844656231505479
70, ,PASS, ,0.076181629, ,0.011592117899561582, ,0.035818696690067556, ,0.0009031251105649775, ,1.8333333333333333, ,0.7846454945162892, ,0.6233138099222465, ,0.13016060896716394
71, ,PASS, ,0.07639433500000001, ,0.011435830184557226, ,0.03710606367155773, ,0.0008943724587098678, ,1.75, ,0.7996079950323474, ,0.6373135242137915, ,0.12105875390298157
72, ,PASS, ,0.07617204300000002, ,0.011474747382257847, ,0.03718318224097468, ,0.0008960856060057793, ,1.8333333333333333, ,0.8036442237109456, ,0.6371910777331075, ,0.1206710067141487
73, ,PASS, ,0.07661257200000005, ,0.011535903920131176, ,0.03701483601457113, ,0.0009056158250053554, ,1.8333333333333333, ,0.8034257989494692, ,0.6371298544927655, ,0.1204669292463419
74, ,PASS, ,0.07639827600000001, ,0.011404323370763325, ,0.03689319135895186, ,0.0008921333496780592, ,1.8333333333333333, ,0.7904450486671375, ,0.6372931164670109, ,0.11914042570559784
75, ,PASS, ,0.076797609, ,0.011434201354986493, ,0.0369972871986286, ,0.0008991841842736965, ,1.8333333333333333, ,0.7910305821228768, ,0.6374767861880369, ,0.12226281096304158
76, ,PASS, ,0.076677544, ,0.011502741062305233, ,0.0364759409528377, ,0.0009024737271293266, ,1.8333333333333333, ,0.7923966627632121, ,0.6317218015958858, ,0.11754862145670497
77, ,PASS, ,0.076549181, ,0.011445870783488679, ,0.03701938582396278, ,0.0008975754455756985, ,1.8333333333333333, ,0.7924210884056888, ,0.637538009428379, ,0.12367094549090835
78, ,PASS, ,0.07673845700000001, ,0.011613582732667277, ,0.036694658574110736, ,0.0009120546022027077, ,1.8333333333333333, ,0.7986730587271751, ,0.6326401502010163, ,0.12118120038366564
79, ,PASS, ,0.07649454800000002, ,0.011546361352307362, ,0.03708183742046081, ,0.0009039581794783148, ,1.75, ,0.8027192085273963, ,0.6372523009734495, ,0.1285279892247097
80, ,PASS, ,0.07690048399999999, ,0.011557343132976667, ,0.037092887021897517, ,0.0009101787620766259, ,1.8333333333333333, ,0.7969664485423461, ,0.6373543397073529, ,0.11485479888165548
81, ,PASS, ,0.07738811699999999, ,0.011524809844588724, ,0.03583377932266689, ,0.0009122420938098326, ,1.8333333333333333, ,0.7826338358894785, ,0.6179465725189281, ,0.10046733740127753
82, ,PASS, ,0.07689666700000003, ,0.011539931088671643, ,0.03677504271872003, ,0.0009088888313006697, ,1.8333333333333333, ,0.796752155417821, ,0.637538009428379, ,0.12432399338789005
83, ,PASS, ,0.07684534900000001, ,0.011581562627185788, ,0.03703110352707088, ,0.0009112836680201076, ,1.8333333333333333, ,0.8014458416240505, ,0.6375788249219404, ,0.1253851962204853
84, ,PASS, ,0.07693343700000004, ,0.011534812658891884, ,0.03691346539111447, ,0.0009086922796676297, ,1.8333333333333333, ,0.794982961188258, ,0.6372931164670109, ,0.12358931450378564
85, ,PASS, ,0.07708761100000003, ,0.011724241346481635, ,0.03818773256076407, ,0.0009243501822232284, ,1.75, ,0.823077763206831, ,0.6449460215097651, ,0.11836493132793208
86, ,PASS, ,0.07706911800000002, ,0.01161228327851647, ,0.03702377702965246, ,0.0009163880086300408, ,1.8333333333333333, ,0.8021228568561846, ,0.6372931164670109, ,0.11352829534091141
87, ,PASS, ,0.07749753800000002, ,0.011609063871168333, ,0.0368811956253954, ,0.0009215496562684254, ,1.8333333333333333, ,0.7961598810349162, ,0.6372727087202302, ,0.11912001795881717
88, ,PASS, ,0.07854318999999996, ,0.011835878050048022, ,0.03719907579029, ,0.0009518875852365902, ,1.8333333333333333, ,0.8042778185162073, ,0.6373135242137915, ,0.12299748984714598
89, ,PASS, ,0.13680143, ,0.018631928378101223, ,0.04267067111038551, ,0.0025954629884781437, ,1.6666666666666667, ,0.7209293968600902, ,0.6439052264239505, ,0.18028203506050897
90, ,PASS, ,0.10850939, ,0.015509483939629117, ,0.039760906080488156, ,0.001716964456422613, ,1.75, ,0.7506900805934545, ,0.6374971939348176, ,0.1595273565845595
91, ,PASS, ,0.08074677999999999, ,0.011957388593733952, ,0.037211742099753066, ,0.0009881488988705415, ,1.8333333333333333, ,0.7812735541836824, ,0.6371298544927655, ,0.11207934531948327
92, ,PASS, ,0.08012647999999996, ,0.011941347064032317, ,0.03724488010856921, ,0.0009794627629986794, ,1.8333333333333333, ,0.7921714013627809, ,0.6372931164670109, ,0.12260974265831309
93, ,PASS, ,0.08011655999999998, ,0.011889821854258797, ,0.036989901650782635, ,0.0009725170119566586, ,1.8333333333333333, ,0.7838990537497698, ,0.6378237178833085, ,0.11912001795881717
94, ,PASS, ,0.07967462999999997, ,0.01195620384384686, ,0.037614794189710414, ,0.0009746971828582867, ,1.8333333333333333, ,0.7990975065718331, ,0.6375584171751597, ,0.12446684761535479
95, ,PASS, ,0.07963055999999999, ,0.011848062776095878, ,0.037142505631721806, ,0.000965847603974713, ,1.8333333333333333, ,0.7913299225438639, ,0.6375584171751597, ,0.1206710067141487
96, ,PASS, ,0.07920980999999999, ,0.011757707663727402, ,0.03721446679047367, ,0.0009533440782114334, ,1.8333333333333333, ,0.7867535480702151, ,0.6372727087202302, ,0.118813901757107
97, ,PASS, ,0.07950925999999996, ,0.011864347274050778, ,0.037197216373951555, ,0.0009651821784777099, ,1.8333333333333333, ,0.7928186040511561, ,0.6376196404155017, ,0.11491602212199752
98, ,PASS, ,0.07906235999999998, ,0.011736528645122223, ,0.037018998239015534, ,0.0009497017261373399, ,1.8333333333333333, ,0.7876341035537989, ,0.6373951552009143, ,0.12373216873125038
99, ,PASS, ,0.07893460999999999, ,0.01173678586860879, ,0.03694837658598804, ,0.0009482255885143212, ,1.8333333333333333, ,0.7868674937687694, ,0.6373747474541336, ,0.12365053774412767
100, ,PASS, ,0.07855530000000002, ,0.011644777113933056, ,0.036642923333605436, ,0.0009363894396702116, ,1.75, ,0.7840123742473952, ,0.6375176016815983, ,0.11977306585579886
101, ,PASS, ,0.07870129999999999, ,0.011685794117403865, ,0.03668920540886921, ,0.0009412318668885941, ,1.9166666666666667, ,0.7869417780877914, ,0.6374359706944757, ,0.11942613416052733
102, ,PASS, ,0.07853154999999999, ,0.01169993460188687, ,0.037021533161568136, ,0.0009406663740471634, ,1.8333333333333333, ,0.791620220716256, ,0.6373543397073529, ,0.12152813207893716
103, ,PASS, ,0.07860507599999997, ,0.011685721972202657, ,0.037163595295606214, ,0.0009402282080209086, ,1.8333333333333333, ,0.7898403944579859, ,0.6377420868961858, ,0.12773208710026326
104, ,PASS, ,0.07870567999999999, ,0.011696894682362645, ,0.03684343908226363, ,0.0009421714857080586, ,1.8333333333333333, ,0.7894269835369273, ,0.6374563784412564, ,0.12842595049080632
105, ,PASS, ,0.07861009999999996, ,0.011637001827794698, ,0.036910177754535624, ,0.0009365169435971408, ,1.75, ,0.785271499888876, ,0.6384767657802902, ,0.12563008918185342
106, ,PASS, ,0.07866568999999998, ,0.011669843983869242, ,0.0369147812979327, ,0.0009397257809835569, ,1.8333333333333333, ,0.7864033203844274, ,0.6377829023897471, ,0.12134446235791106
107, ,PASS, ,0.07907559999999998, ,0.01169132260539505, ,0.03715793566294565, ,0.0009465355321485256, ,1.8333333333333333, ,0.7872506549781019, ,0.6388032897287811, ,0.1249158180445297
108, ,PASS, ,0.07860537599999999, ,0.011653773858554468, ,0.03700285268402686, ,0.0009376475046350186, ,1.75, ,0.7851945234291234, ,0.6375584171751597, ,0.11914042570559784
109, ,PASS, ,0.07893677999999998, ,0.01175616472372409, ,0.03721804433276872, ,0.0009505030720001754, ,1.75, ,0.7963066990948314, ,0.6372318932266688, ,0.11179363686455379
110, ,PASS, ,0.07879457799999995, ,0.011645444918057772, ,0.03702538421787311, ,0.000939128916843627, ,1.75, ,0.7812262622424534, ,0.6362727291279769, ,0.12650762229342258
111, ,PASS, ,0.07897276999999997, ,0.011654440372032641, ,0.03659577333585029, ,0.0009420692797112683, ,1.75, ,0.7811871258698159, ,0.6368849615313973, ,0.11946694965408869
112, ,PASS, ,0.07892847199999997, ,0.011887490076059768, ,0.03891378691638946, ,0.000962841429200555, ,1.75, ,0.8151693026915275, ,0.6565172139344095, ,0.11197730658557989
113, ,PASS, ,0.07899992, ,0.011696740102935187, ,0.036791090594069514, ,0.0009454383030441583, ,1.8333333333333333, ,0.7850164020292808, ,0.6371298544927655, ,0.11099773474010735
114, ,PASS, ,0.07880127999999999, ,0.012067358470158681, ,0.03596543085018673, ,0.000970868279022297, ,1.8333333333333333, ,0.7909295725025961, ,0.6213546662313014, ,0.10936511499765311
115, ,PASS, ,0.07878388, ,0.011647903507954294, ,0.036679241257525357, ,0.0009392980726758895, ,1.75, ,0.7830364307605724, ,0.6371298544927655, ,0.11995673557682496
116, ,PASS, ,0.07876543999999998, ,0.011647264884959178, ,0.03694859904287668, ,0.0009387911631361897, ,1.75, ,0.7820899311889993, ,0.6358033509520213, ,0.10854880512642599
117, ,PASS, ,0.07869387999999998, ,0.011672945854457554, ,0.03708315264851738, ,0.0009401797144310033, ,1.75, ,0.7834794381127723, ,0.6368645537846166, ,0.12054856023346462
118, ,PASS, ,0.07883064999999997, ,0.011631300581901712, ,0.037641552799738784, ,0.0009381457669399787, ,1.8333333333333333, ,0.7925358454033143, ,0.6438031876900472, ,0.10146731699353075
119, ,PASS, ,0.07850970999999997, ,0.011763630532967721, ,0.03752187719801637, ,0.000948769205002865, ,1.8333333333333333, ,0.8021095754671755, ,0.6374563784412564, ,0.13001775473969918
120, ,PASS, ,0.07885148999999998, ,0.011843436382346941, ,0.036306578940021636, ,0.0009546784865717177, ,1.8333333333333333, ,0.7852727370555412, ,0.6302116283341156, ,0.12305871308748802
121, ,PASS, ,0.07989590999999995, ,0.011217606148482002, ,0.034454166585783964, ,0.0009171119607894867, ,1.8333333333333333, ,0.7495546204715826, ,0.5855390706312116, ,0.09363074222975042
122, ,PASS, ,0.07823321, ,0.011561323098581345, ,0.03694818899573478, ,0.0009259273435493143, ,1.75, ,0.7837153121414131, ,0.6391502214240525, ,0.12154853982571784
123, ,PASS, ,0.07858901999999998, ,0.011640716007623243, ,0.03731631018469011, ,0.0009361006744091884, ,1.8333333333333333, ,0.7952038224536624, ,0.6409461031407522, ,0.11979347360257954
124, ,PASS, ,0.07797382900000002, ,0.011490240146329682, ,0.036477026767821066, ,0.0009166823080944936, ,1.75, ,0.7766792481827187, ,0.6339054305014183, ,0.10942633823799515
125, ,PASS, ,0.07816958000000002, ,0.011578557706152065, ,0.03684059794779698, ,0.0009262171607288065, ,1.75, ,0.7843660376729347, ,0.6376400481622824, ,0.12867084345217444
126, ,PASS, ,0.078401896, ,0.011690274200528846, ,0.037324394283177895, ,0.0009397091631166137, ,1.8333333333333333, ,0.797966344307141, ,0.6374767861880369, ,0.12173220954674395
127, ,PASS, ,0.07838151999999997, ,0.011703535527766255, ,0.03699447472459746, ,0.0009385274154653353, ,1.8333333333333333, ,0.7931607276346488, ,0.6374767861880369, ,0.1270382237097202
128, ,PASS, ,0.07836965, ,0.011627792579567748, ,0.03722356335238056, ,0.0009325826083712974, ,1.8333333333333333, ,0.7858747715948898, ,0.6371298544927655, ,0.12271178139221649
129, ,PASS, ,0.08022917999999996, ,0.011978677846796213, ,0.0374789513358911, ,0.000983020987020968, ,1.8333333333333333, ,0.7914625331005261, ,0.6373747474541336, ,0.12783412583416665
130, ,PASS, ,0.07902364, ,0.012058823004873702, ,0.036318742324850516, ,0.0009727343989514659, ,1.8333333333333333, ,0.7949568699448587, ,0.6224566845574581, ,0.12587498214322157
131, ,PASS, ,0.08179042999999998, ,0.01189599511120909, ,0.037138550818554716, ,0.000993788138187656, ,1.8333333333333333, ,0.7666553794893465, ,0.6375788249219404, ,0.15150711209975307
132, ,PASS, ,0.009385049999999985, ,0.0004393799933308333, ,0.028280242767698617, ,4.229383529285763e-06, ,0.9166666666666666, ,0.33798416011358134, ,0.5619273076059672, ,0.00914267055774372
133, ,PASS, ,0.07899898599999998, ,0.011926131092313677, ,0.037625951603028514, ,0.0009628149359026142, ,1.8333333333333333, ,0.8040163672125427, ,0.6370686312524234, ,0.12030366727209649
134, ,PASS, ,0.07881588999999999, ,0.01171390637977277, ,0.03725282575478051, ,0.000944913030713392, ,1.8333333333333333, ,0.788609380302934, ,0.6375788249219404, ,0.1203852982592192
135, ,PASS, ,0.07926537599999997, ,0.011855115060395533, ,0.03671441264055836, ,0.0009609722089216642, ,1.8333333333333333, ,0.782715235607231, ,0.6288239015530296, ,0.11283443195036837
136, ,PASS, ,0.07885206999999998, ,0.011714243231483781, ,0.037155833370135304, ,0.0009453410305818238, ,1.8333333333333333, ,0.7901024963621572, ,0.637415562947695, ,0.11552825452541785
137, ,PASS, ,0.07876428999999997, ,0.012049746653655859, ,0.037678471947715356, ,0.000969181774862273, ,1.9166666666666667, ,0.8130720712181495, ,0.6372318932266688, ,0.1257729434093182
138, ,PASS, ,0.07824524999999996, ,0.011329694512649981, ,0.03757454580620804, ,0.0009188495846384726, ,1.75, ,0.7840489293102277, ,0.6465174180118773, ,0.11758943695026632
139, ,PASS, ,0.07839783600000001, ,0.011651262848038784, ,0.0325009400449297, ,0.000919387883203783, ,1.75, ,0.7616366237551223, ,0.552498928593294, ,0.1126099467357809
140, ,PASS, ,0.07857469999999998, ,0.011725223613926066, ,0.0371660930476929, ,0.000942889094606086, ,1.8333333333333333, ,0.7908967609762078, ,0.6368645537846166, ,0.13091569559804903
141, ,PASS, ,0.07892144999999999, ,0.011739368463352494, ,0.037298428366155795, ,0.0009478534546583326, ,1.8333333333333333, ,0.7908400033511318, ,0.637027815758862, ,0.11814044611334462
142, ,PASS, ,0.07861519999999998, ,0.011769830315830693, ,0.037128003566865984, ,0.000946739828482029, ,1.8333333333333333, ,0.7941317619383121, ,0.6370482235056427, ,0.1213036468643497
143, ,PASS, ,0.07895006999999998, ,0.01178615839060789, ,0.037100073642986876, ,0.0009573209367881605, ,1.8333333333333333, ,0.7958349709663254, ,0.6371298544927655, ,0.12728311667108835
144, ,PASS, ,0.07872104599999998, ,0.01167766778427485, ,0.03703149841513439, ,0.0009406718981356844, ,1.8333333333333333, ,0.783840671619706, ,0.6370074080120813, ,0.1219566947613314
145, ,PASS, ,0.07896773999999998, ,0.011820052110052943, ,0.03726820079059611, ,0.0009553857140512409, ,1.75, ,0.7970884123827457, ,0.6371706699863268, ,0.12656884553376463
146, ,PASS, ,0.07882676999999998, ,0.011793038129032981, ,0.037623288644313385, ,0.0009547872197110272, ,1.8333333333333333, ,0.8024571776247176, ,0.6366808840635906, ,0.12230362645660292
147, ,PASS, ,0.07906502999999997, ,0.011742311899447503, ,0.03698943801330585, ,0.0009499294885259217, ,1.75, ,0.7840226018265555, ,0.6365788453296871, ,0.1247321483235036
148, ,PASS, ,0.07863800999999997, ,0.01221052052693671, ,0.038119323805636623, ,0.000980541151247362, ,1.9166666666666667, ,0.8272933514130091, ,0.6368645537846166, ,0.16003755025407645
149, ,PASS, ,0.07892489999999998, ,0.012090564375189504, ,0.035613885061733436, ,0.000980048076839019, ,1.8333333333333333, ,0.7902846409471344, ,0.6124977041284871, ,0.11138548192894022
150, ,PASS, ,0.07848201999999996, ,0.01176144283437773, ,0.037340730772025064, ,0.000944421450914199, ,1.8333333333333333, ,0.7954526543873979, ,0.6371298544927655, ,0.1251811187526785
151, ,PASS, ,0.07870599799999997, ,0.011683264222749738, ,0.03733005310585498, ,0.0009409396839147897, ,1.8333333333333333, ,0.784782314051962, ,0.6372727087202302, ,0.12356890675700496
152, ,PASS, ,0.07887535, ,0.011628030143670889, ,0.03757002320585294, ,0.0009388980572821785, ,1.8333333333333333, ,0.7903495145431332, ,0.6435991102222404, ,0.1273239321646497
153, ,PASS, ,0.07924444999999997, ,0.011448590333116994, ,0.035924016257627395, ,0.0009248087362218414, ,1.75, ,0.7472534357309253, ,0.6258647782698312, ,0.09361033448296974
154, ,PASS, ,0.07920459, ,0.011894379294495248, ,0.037816170051427525, ,0.0009663392897545929, ,1.8333333333333333, ,0.8078803303975766, ,0.6396195996000081, ,0.12091589967551683
155, ,PASS, ,0.07935559199999997, ,0.011851125081129753, ,0.03776225353788698, ,0.0009622157915753814, ,1.8333333333333333, ,0.7930026832846768, ,0.6368849615313973, ,0.11044672557702905
156, ,PASS, ,0.07930640999999997, ,0.011839930402544337, ,0.0373927524952552, ,0.0009609820586294806, ,1.8333333333333333, ,0.7934071768357929, ,0.6371910777331075, ,0.1180792228730026
157, ,PASS, ,0.07940440999999998, ,0.011898455260511122, ,0.03737360629823881, ,0.0009682117510607343, ,1.8333333333333333, ,0.7997627448746316, ,0.6374359706944757, ,0.12136487010469174
158, ,PASS, ,0.07927989999999996, ,0.011225757291184007, ,0.035925277663517066, ,0.0009179611115360334, ,1.75, ,0.7452885956283728, ,0.631456500887737, ,0.09369196547009245
159, ,PASS, ,0.08051288999999996, ,0.012051068996511713, ,0.03786348056611089, ,0.0009950799151594249, ,1.8333333333333333, ,0.800861195454446, ,0.6369870002653008, ,0.11877308626354564
160, ,PASS, ,0.15427560000000007, ,0.0210584020921439, ,0.0440763856435583, ,0.003304974189557385, ,1.6666666666666667, ,0.709416678335951, ,0.6327013734413584, ,0.15954776433134019
161, ,PASS, ,0.09977981999999999, ,0.014484891389595368, ,0.0399596086730883, ,0.0014891053000473018, ,1.9166666666666667, ,0.7838515162407852, ,0.6372727087202302, ,0.1660986510479378
162, ,PASS, ,0.07905264599999998, ,0.011710496382387253, ,0.03696469287912491, ,0.0009468099800805024, ,1.8333333333333333, ,0.7794845949677325, ,0.6368237382910553, ,0.133323809718169
163, ,PASS, ,0.07884566, ,0.011742191589280755, ,0.03738337754107059, ,0.0009531286253954207, ,1.9166666666666667, ,0.7983175024922184, ,0.6370074080120813, ,0.11558947776575988
164, ,PASS, ,0.07824951999999999, ,0.011539105740043232, ,0.036913885481112636, ,0.0009264302898300866, ,1.8333333333333333, ,0.7858983895827989, ,0.6371502622395462, ,0.10705903961143651
165, ,PASS, ,0.07832869599999998, ,0.011518762659919241, ,0.036981938306361095, ,0.0009228164463106784, ,1.8333333333333333, ,0.7756084743393313, ,0.6375176016815983, ,0.127242301177527
166, ,PASS, ,0.077760424, ,0.011580910877467165, ,0.03721121426236199, ,0.0009212065828750234, ,1.8333333333333333, ,0.7882725444242129, ,0.6372318932266688, ,0.13087488010448767
167, ,PASS, ,0.07790325300000002, ,0.011571499063291054, ,0.03740061465745598, ,0.0009284758444293808, ,1.9166666666666667, ,0.7982686446791106, ,0.6377829023897471, ,0.1280790187955348
168, ,PASS, ,0.077859879, ,0.01218371581677335, ,0.03266059400175507, ,0.000969847743616307, ,1.8333333333333333, ,0.7657892638956628, ,0.5800493867472093, ,0.09134507459031449
169, ,PASS, ,0.07755940299999997, ,0.011470260693973526, ,0.03654923966021102, ,0.00091077617819118, ,1.8333333333333333, ,0.7788154391659621, ,0.6252321381196302, ,0.12256892716475173
170, ,PASS, ,0.07715517800000002, ,0.011145097957137709, ,0.03794697140650191, ,0.0008816144307352161, ,1.75, ,0.7879933446711597, ,0.6512111997714333, ,0.13330340197138835
171, ,PASS, ,0.07724170500000001, ,0.011750859189610387, ,0.03783196753413196, ,0.0009268218661190725, ,1.8333333333333333, ,0.8099322897022828, ,0.6370482235056427, ,0.12693618497581682
172, ,PASS, ,0.07721576600000002, ,0.011375161032222181, ,0.03686372550621416, ,0.0008983047856204549, ,1.75, ,0.7769476492418066, ,0.6365380298361258, ,0.1131609558988592
173, ,PASS, ,0.077161273, ,0.011400684096723346, ,0.03694938995285811, ,0.0008998606397630739, ,1.75, ,0.7816347934208228, ,0.6371706699863268, ,0.13187485969674087
174, ,PASS, ,0.07697064400000002, ,0.01135861908851744, ,0.03693530310095713, ,0.0008943296704809051, ,1.75, ,0.7814228332929974, ,0.6373543397073529, ,0.12893614416032326
175, ,PASS, ,0.077237281, ,0.010488182221873518, ,0.03889969598722476, ,0.00083547415761916, ,1.75, ,0.7768506419528587, ,0.6685373767882288, ,0.1082630966714965
176, ,PASS, ,0.07675582200000002, ,0.011360344313921092, ,0.03674640214362973, ,0.0008917789614138434, ,1.75, ,0.7814980953106535, ,0.6368237382910553, ,0.13487479847350053
177, ,PASS, ,0.07693267900000003, ,0.011402184645458, ,0.037011179613681354, ,0.0008969401454436812, ,1.8333333333333333, ,0.7862962651627803, ,0.6372114854798882, ,0.13209934491132835
178, ,PASS, ,0.07650691700000004, ,0.011400450309682529, ,0.03725138356686599, ,0.0008963573247499022, ,1.8333333333333333, ,0.7987557706235227, ,0.6377012714026244, ,0.13338503295851106
179, ,PASS, ,0.07658807900000002, ,0.011303382784082397, ,0.03699474004571336, ,0.0008856147264154402, ,1.8333333333333333, ,0.7822580085163384, ,0.6373135242137915, ,0.11734454398889818
180, ,PASS, ,0.07637052600000004, ,0.011281919117046983, ,0.03648256646394972, ,0.0008812965922544664, ,1.75, ,0.7801454117655314, ,0.6372523009734495, ,0.1270586314565009
181, ,PASS, ,0.07671866200000002, ,0.011259134382274074, ,0.03667414993714414, ,0.0008836077067441168, ,1.75, ,0.7737462243087211, ,0.6369665925185201, ,0.11609967143527683
182, ,PASS, ,0.07618007200000003, ,0.011314867889902224, ,0.037060622801983634, ,0.0008875896503218197, ,1.8333333333333333, ,0.7967984700023825, ,0.6371910777331075, ,0.12591579763678293
183, ,PASS, ,0.07636261300000005, ,0.011315225706564501, ,0.03709498857206996, ,0.0008879589476289745, ,1.8333333333333333, ,0.7888057167458673, ,0.6372727087202302, ,0.12587498214322157
184, ,PASS, ,0.07623824500000002, ,0.011309361872115956, ,0.03685123467337401, ,0.0008817254830390671, ,1.8333333333333333, ,0.7864163294510297, ,0.6371910777331075, ,0.13060957939633885
185, ,PASS, ,0.07643509300000002, ,0.011251767686873585, ,0.03673463345870493, ,0.0008793196762224818, ,1.8333333333333333, ,0.7759702374191937, ,0.6368849615313973, ,0.13256872308728393
186, ,PASS, ,0.07636884900000004, ,0.011244421373360123, ,0.036501170657129454, ,0.0008781735308389636, ,1.75, ,0.7769402848849523, ,0.6372727087202302, ,0.12838513499724497
187, ,PASS, ,0.076611764, ,0.010788379769875156, ,0.03578037256300892, ,0.0008532535530385238, ,1.6666666666666667, ,0.7402674255617488, ,0.6368849615313973, ,0.11328340237954328
188, ,PASS, ,0.07627728000000002, ,0.0113246341796234, ,0.03694711282463624, ,0.0008831299986649267, ,1.8333333333333333, ,0.7868738187078497, ,0.6364972143425645, ,0.12730352441786902
189, ,PASS, ,0.07681834400000002, ,0.011148283469272578, ,0.03705828113385442, ,0.0008761936468734748, ,1.8333333333333333, ,0.778458201504806, ,0.6446603130548356, ,0.11812003836656394
190, ,PASS, ,0.07617042800000001, ,0.01128142120176043, ,0.03691940263198711, ,0.0008783428423377485, ,1.9166666666666667, ,0.7841090918214422, ,0.6373543397073529, ,0.12663006877410665
191, ,PASS, ,0.07680179800000005, ,0.01131229972535483, ,0.03656708787228832, ,0.0008883348644824775, ,1.8333333333333333, ,0.7749974972518959, ,0.6370074080120813, ,0.13628293300136732
192, ,PASS, ,0.07720154900000001, ,0.011402787587737129, ,0.03648225568172078, ,0.0009021321387211934, ,1.8333333333333333, ,0.7775484746806025, ,0.6304157058019224, ,0.13487479847350053
193, ,PASS, ,0.07659945800000002, ,0.011282632579321748, ,0.03660796940531826, ,0.0008834937451529843, ,1.8333333333333333, ,0.7768521829850051, ,0.6369257770249587, ,0.131487112507908
194, ,PASS, ,0.07647761700000004, ,0.011056846634635454, ,0.03788827217158834, ,0.0008690078913133036, ,1.75, ,0.7887492031112798, ,0.6543131772820963, ,0.11838533907471276
195, ,PASS, ,0.07661689399999999, ,0.011275701691232421, ,0.03697369302585662, ,0.0008840823087068616, ,1.75, ,0.7793589535592493, ,0.6374971939348176, ,0.1387930858553907
196, ,PASS, ,0.07651893500000002, ,0.011236985850006148, ,0.03642384613518092, ,0.0008792667143868567, ,1.8333333333333333, ,0.7749892756659902, ,0.6368033305442746, ,0.12707903920328156
197, ,PASS, ,0.07668299800000002, ,0.011353455124482072, ,0.0370812892818514, ,0.000890166349969995, ,1.8333333333333333, ,0.7854428035429312, ,0.6372523009734495, ,0.12728311667108835
198, ,PASS, ,0.07659472700000002, ,0.010992574068538766, ,0.03809214302912186, ,0.0008656336523448678, ,1.6666666666666667, ,0.7855059388416938, ,0.6547009244709292, ,0.11838533907471276
199, ,PASS, ,0.07706660300000001, ,0.011426094129542286, ,0.03692086627619845, ,0.0009004370377561306, ,1.8333333333333333, ,0.7880879842880288, ,0.6371502622395462, ,0.12895655190710395
200, ,PASS, ,0.07821354, ,0.011585213893562006, ,0.0366279145005204, ,0.0009263288545897379, ,1.9166666666666667, ,0.7818485040777648, ,0.6341707312095671, ,0.11850778555539683
201, ,PASS, ,0.07701549100000002, ,0.011223775556667455, ,0.03669250572886268, ,0.0008861617012633868, ,1.6666666666666667, ,0.7687864492606749, ,0.6382930960592641, ,0.12467092508316156
202, ,PASS, ,0.076682142, ,0.01129053725643897, ,0.03689586922307708, ,0.0008856715182144541, ,1.8333333333333333, ,0.7765888526222167, ,0.6366400685700292, ,0.12077304544805208
203, ,PASS, ,0.076890079, ,0.011301193361944703, ,0.03673841388339014, ,0.0008881225087100712, ,1.8333333333333333, ,0.7750304276100404, ,0.6360686516601702, ,0.12426277014754801
204, ,PASS, ,0.07661305800000004, ,0.011417473907000352, ,0.03689478158445746, ,0.000897340887482362, ,1.75, ,0.7967007789024572, ,0.6369665925185201, ,0.13183404420317954
205, ,PASS, ,0.07684991000000002, ,0.011326164882244385, ,0.036821679745923555, ,0.0008902391452271708, ,1.75, ,0.7808491051115187, ,0.6372318932266688, ,0.13062998714311952
206, ,PASS, ,0.07668812400000001, ,0.011244028733679759, ,0.03655359836574764, ,0.000881404048388368, ,1.8333333333333333, ,0.7705823214334028, ,0.637027815758862, ,0.12595661313034429
207, ,PASS, ,0.076899753, ,0.01101480105169092, ,0.03636512888573703, ,0.0008750752280332199, ,1.75, ,0.7618964550356098, ,0.6368237382910553, ,0.11283443195036837
208, ,PASS, ,0.076942558, ,0.011294493398047663, ,0.036741376579661644, ,0.0008886763707640533, ,1.75, ,0.7746206597422712, ,0.6368237382910553, ,0.12360972225056631
209, ,PASS, ,0.07720145900000001, ,0.011347460430580134, ,0.03655409046060285, ,0.0008956294795882783, ,1.8333333333333333, ,0.7744477304198155, ,0.636905369278178, ,0.12922185261525276
210, ,PASS, ,0.07711100100000004, ,0.011978106622278748, ,0.03793620010305913, ,0.0009405459228537869, ,1.9166666666666667, ,0.8259590916624246, ,0.6367829227974939, ,0.16948633701353033
211, ,PASS, ,0.07703386300000002, ,0.0114409607000169, ,0.037051964893573604, ,0.000901104646419013, ,1.8333333333333333, ,0.7873954217761223, ,0.6369870002653008, ,0.12175261729352463
212, ,PASS, ,0.076958, ,0.01131996093694094, ,0.03688063477480052, ,0.0008905999079498539, ,1.8333333333333333, ,0.7749760304798051, ,0.6370482235056427, ,0.12867084345217444
213, ,PASS, ,0.077180663, ,0.011463699170044325, ,0.03716478490908349, ,0.0009044187887528422, ,1.8333333333333333, ,0.7898230296980178, ,0.6370686312524234, ,0.12730352441786902
214, ,PASS, ,0.07709830200000001, ,0.011552032305963167, ,0.036911535182343226, ,0.0009101331275389054, ,1.8333333333333333, ,0.7910920781297556, ,0.6330891206301912, ,0.131487112507908
215, ,PASS, ,0.077108048, ,0.01146376708604469, ,0.03722002683659518, ,0.000903893059746743, ,1.8333333333333333, ,0.7880321434422592, ,0.6371298544927655, ,0.12877288218607782
216, ,PASS, ,0.07738214200000001, ,0.011434813879279446, ,0.036859503557274347, ,0.0009048034625139879, ,1.75, ,0.7815685890099239, ,0.6371706699863268, ,0.13365033366665988
217, ,PASS, ,0.077552771, ,0.011416674429013474, ,0.03674686641129773, ,0.000905166422111961, ,1.8333333333333333, ,0.77281465980648, ,0.6367012918103712, ,0.1318544519499602
218, ,PASS, ,0.07759011599999999, ,0.01144498471411011, ,0.03634378321217935, ,0.0009072153289146746, ,1.75, ,0.7705460642819217, ,0.6274361747719435, ,0.10452847901063243
219, ,PASS, ,0.07750155299999999, ,0.011449879459026322, ,0.03683118322809739, ,0.0009072445550422774, ,1.8333333333333333, ,0.7768820958688333, ,0.6370482235056427, ,0.1372216893532785
220, ,PASS, ,0.07751156399999998, ,0.011424609895482126, ,0.03672747965286423, ,0.0009054424762592453, ,1.8333333333333333, ,0.7751916785499557, ,0.6366808840635906, ,0.13207893716454766
221, ,PASS, ,0.07805462599999997, ,0.011609741610787141, ,0.035333097488622685, ,0.000924945852160949, ,1.8333333333333333, ,0.7799905559368937, ,0.6057223321973021, ,0.11628334115630293
222, ,PASS, ,0.077662128, ,0.01143023130239041, ,0.03683033675782127, ,0.0009079025799791375, ,1.8333333333333333, ,0.7747465659523532, ,0.6371910777331075, ,0.1288953286667619
223, ,PASS, ,0.078107628, ,0.011595602359069479, ,0.03660585601171405, ,0.0009258002076442569, ,1.75, ,0.7783389817783815, ,0.6315993551152017, ,0.11783432991163445
224, ,PASS, ,0.07761481499999999, ,0.011494593802507645, ,0.03708833691312423, ,0.0009129536114030507, ,1.8333333333333333, ,0.7814452719040461, ,0.6369665925185201, ,0.12799738780841208
225, ,PASS, ,0.07805424800000002, ,0.01149331723448952, ,0.03703740435317647, ,0.000917775337955371, ,1.75, ,0.7761420704728059, ,0.637415562947695, ,0.12948715332340158
226, ,PASS, ,0.07780627900000002, ,0.01151902780471374, ,0.036979573207689645, ,0.0009163146366862406, ,1.8333333333333333, ,0.7816135310751201, ,0.6373747474541336, ,0.12773208710026326
227, ,PASS, ,0.078155382, ,0.011499639901033991, ,0.03694062018550642, ,0.0009191394439716588, ,1.8333333333333333, ,0.7765919380736038, ,0.636905369278178, ,0.12024244403175445
228, ,PASS, ,0.077919435, ,0.011511753327578183, ,0.03712865664659905, ,0.0009176639360013583, ,1.75, ,0.7833136909016355, ,0.6374563784412564, ,0.1292830758555948
229, ,PASS, ,0.07827176999999999, ,0.011787812316071731, ,0.037460312178118814, ,0.0009428213771966375, ,1.8333333333333333, ,0.8015662346294928, ,0.6370074080120813, ,0.12709944695006226
230, ,PASS, ,0.07873373699999994, ,0.011626158793529538, ,0.03715234541948124, ,0.0009361941426892603, ,1.8333333333333333, ,0.7782702853010556, ,0.6374971939348176, ,0.1235280912634436
231, ,PASS, ,0.15078881000000005, ,0.0195922437300171, ,0.042551216864349706, ,0.0030014867066982796, ,1.75, ,0.693381038695561, ,0.6313748699006143, ,0.13109936531907512
232, ,PASS, ,0.11092383000000001, ,0.01346537269124389, ,0.03797565842023633, ,0.001514319662798203, ,1.6666666666666667, ,0.6668482428709149, ,0.6225383155445807, ,0.08969204710107957
233, ,PASS, ,0.08929929, ,0.011216286638817168, ,0.03679126894655211, ,0.0010172989874043107, ,1.6666666666666667, ,0.6816150297200108, ,0.6335176833125855, ,0.11752821370992429
234, ,PASS, ,0.08841990999999999, ,0.01111636505234267, ,0.036431032699128583, ,0.0009981433544102994, ,1.5833333333333333, ,0.682306330123104, ,0.6298442888920635, ,0.11975265810901818
235, ,PASS, ,0.08877919999999997, ,0.011228803044860229, ,0.036925753290136934, ,0.0010130174075962768, ,1.6666666666666667, ,0.6876270230414605, ,0.6374359706944757, ,0.11469153690741005
236, ,PASS, ,0.08909207999999999, ,0.011258725326140341, ,0.036594299766331294, ,0.001018166641069273, ,1.6666666666666667, ,0.6901104501949453, ,0.6274769902655047, ,0.11558947776575988
237, ,PASS, ,0.08962804999999999, ,0.011199331957660768, ,0.03642850439970613, ,0.0010191147810105666, ,1.5833333333333333, ,0.6794337827222315, ,0.6305585600293871, ,0.11281402420358769
238, ,PASS, ,0.08936911999999998, ,0.011204562598461434, ,0.03620454971245485, ,0.001016362937969986, ,1.5833333333333333, ,0.6794855794117947, ,0.6290279790208363, ,0.11163037489030836
239, ,PASS, ,0.08978309000000001, ,0.011164761765008429, ,0.0365282590055305, ,0.0010171893492444191, ,1.6666666666666667, ,0.6772166450793348, ,0.6262729332054447, ,0.10897736780882022
240, ,PASS, ,0.08966862999999997, ,0.011322696504997965, ,0.03645729063610947, ,0.001030521134878424, ,1.5833333333333333, ,0.6852901859312707, ,0.626762719128181, ,0.11695679680006531
241, ,PASS, ,0.09047051, ,0.011504970297011266, ,0.03769076399440827, ,0.001066674476856962, ,1.75, ,0.7098388158969944, ,0.6367421073039325, ,0.12109956939654293
242, ,PASS, ,0.09001938000000001, ,0.01124712299244806, ,0.03682019265300708, ,0.0010281435598752304, ,1.5833333333333333, ,0.6818186447005653, ,0.6333748290851207, ,0.11824248484724802
243, ,PASS, ,0.09094666000000004, ,0.01123113264106295, ,0.03613350909675313, ,0.0010358033203134744, ,1.6666666666666667, ,0.6738231092700783, ,0.6231505479480011, ,0.10301830574886227
244, ,PASS, ,0.09082629000000002, ,0.011393269019768445, ,0.03644585231566703, ,0.0010506978783721456, ,1.5833333333333333, ,0.6806894739300478, ,0.6313748699006143, ,0.11693638905328463
245, ,PASS, ,0.09171436000000002, ,0.011394408623564039, ,0.03650154216628232, ,0.0010606852055232746, ,1.5833333333333333, ,0.6767944090139841, ,0.6279259606946797, ,0.11018142486888023
246, ,PASS, ,0.09132617000000001, ,0.011380211839464024, ,0.036362491504459096, ,0.0010542483931364414, ,1.6666666666666667, ,0.6778006731341992, ,0.6242117507805963, ,0.1092834840105304
247, ,PASS, ,0.09222, ,0.011339591586974614, ,0.03765824079182058, ,0.0010633194327339883, ,1.5833333333333333, ,0.6856917676464158, ,0.6383951347931675, ,0.12552805044795004
248, ,PASS, ,0.09216852, ,0.011761439999146635, ,0.03743776382502398, ,0.0011067502655762555, ,1.5833333333333333, ,0.7032471874886791, ,0.636905369278178, ,0.12605865186424767
249, ,PASS, ,0.09313661999999999, ,0.011769461108883984, ,0.0373346208205955, ,0.001113720247905398, ,1.6666666666666667, ,0.6864479867271744, ,0.6367421073039325, ,0.1217730250403053
250, ,PASS, ,0.09322246000000002, ,0.0117888755814003, ,0.03723603576253546, ,0.0011251191053748026, ,1.6666666666666667, ,0.6930244099879544, ,0.6318646558233505, ,0.12356890675700496
251, ,PASS, ,0.09422931999999995, ,0.01171775597593132, ,0.037311432242811374, ,0.0011221609901928727, ,1.75, ,0.684191101183107, ,0.6371502622395462, ,0.10473255647843921
252, ,PASS, ,0.09390973, ,0.011963426168265675, ,0.036776582357706984, ,0.001140068297006503, ,1.6666666666666667, ,0.6942867629533302, ,0.6177629027979021, ,0.12846676598436765
253, ,PASS, ,0.09498688999999998, ,0.011990110882577445, ,0.037984237312299746, ,0.0011581552488002897, ,1.75, ,0.704264317536144, ,0.6371298544927655, ,0.10858962061998735
254, ,PASS, ,0.09526031999999998, ,0.011773643091674864, ,0.03677989949633681, ,0.0011379375176729326, ,1.6666666666666667, ,0.6716296714579875, ,0.6271096508234526, ,0.1033652374441338
255, ,PASS, ,0.09629964000000002, ,0.012001217659914475, ,0.036014332471174054, ,0.0011711163037115752, ,1.6666666666666667, ,0.677613485530573, ,0.6077222913818086, ,0.10563049733678904
