Channel, ,Pass/Fail, ,Amplitude, ,Sorting Function Response, ,Mean, ,Variance, ,NPeaksRatio, ,PosIntegralRatio, ,ToT50, ,ToT99
0, ,PASS, ,0.07603304500000001, ,0.011138990145782042, ,0.03279989531306136, ,0.0008551648907074635, ,1.75, ,0.7528893592994349, ,0.5976000489785923, ,0.12897695965388462
1, ,PASS, ,0.075405844, ,0.011013400573799471, ,0.03247648469132956, ,0.0008388614058305809, ,1.75, ,0.7533552399114729, ,0.5993142997081692, ,0.12863002795861309
2, ,PASS, ,0.07553560999999999, ,0.01105482933361865, ,0.03246870161451235, ,0.0008418139160693278, ,1.75, ,0.7482448874150269, ,0.5933144221546499, ,0.10248770433256464
3, ,PASS, ,0.075406638, ,0.011018841582986239, ,0.03234168440334952, ,0.0008375047883654606, ,1.75, ,0.7481794178244031, ,0.5949266341503234, ,0.10444684802350973
4, ,PASS, ,0.07497992199999998, ,0.0109307158365236, ,0.032439584293585844, ,0.0008272766301351411, ,1.75, ,0.7511743569658479, ,0.5979061651803025, ,0.12293626660680394
5, ,PASS, ,0.074768628, ,0.0108926337348488, ,0.03269027771713924, ,0.0008219679137806295, ,1.75, ,0.7474912919973865, ,0.5969674088283913, ,0.11087528825942328
6, ,PASS, ,0.07441708399999997, ,0.01086824034153666, ,0.032366951004025625, ,0.0008167025536063143, ,1.75, ,0.7517968857117963, ,0.5984775820901614, ,0.1323238301259158
7, ,PASS, ,0.07405863099999999, ,0.010878607049329546, ,0.03242567522768025, ,0.0008134771208849179, ,1.75, ,0.7533347120958664, ,0.5980286116609865, ,0.13354829493275647
8, ,PASS, ,0.07392848499999997, ,0.010809420425752165, ,0.03236689452229301, ,0.0008069884532618714, ,1.75, ,0.7514095290494344, ,0.5980286116609865, ,0.12169139405318259
9, ,PASS, ,0.07390424899999999, ,0.010735001817630426, ,0.03223523288965776, ,0.0008007743633621857, ,1.75, ,0.7468031604855564, ,0.597110263055856, ,0.10209995714373175
10, ,PASS, ,0.07372157099999996, ,0.010695319654295942, ,0.03256015109600233, ,0.0007961389303858095, ,1.75, ,0.7503813085145601, ,0.5981714658884513, ,0.11489561437521684
11, ,PASS, ,0.07327124699999998, ,0.010702090718322413, ,0.0323527739902851, ,0.0007917180824105588, ,1.75, ,0.7511240108608789, ,0.5977633109528377, ,0.12150772433215648
12, ,PASS, ,0.07292162899999999, ,0.01072329567119414, ,0.0322978890608461, ,0.0007881296966119717, ,1.75, ,0.7499178235700058, ,0.5908450847941878, ,0.1165078263708904
13, ,PASS, ,0.072568952, ,0.010643791181334336, ,0.03244227012652721, ,0.0007797393563708093, ,1.75, ,0.7513337133684124, ,0.597110263055856, ,0.12781371808738598
14, ,PASS, ,0.07224735, ,0.010565573255822231, ,0.03241103167244525, ,0.0007704281520066967, ,1.75, ,0.751070853045905, ,0.5972327095365401, ,0.12773208710026326
15, ,PASS, ,0.072108756, ,0.010567134298562394, ,0.03258737307514867, ,0.0007691826135350694, ,1.75, ,0.7516464404434525, ,0.5973755637640048, ,0.12793616456807003
16, ,PASS, ,0.072163635, ,0.010526122787874329, ,0.032428631958438196, ,0.0007666442819005647, ,1.75, ,0.7497257241085361, ,0.5974980102446888, ,0.12138527785147242
17, ,PASS, ,0.07221155000000001, ,0.010537293324336179, ,0.03236599872137976, ,0.0007682294204783495, ,1.75, ,0.749912331357869, ,0.5966408848799004, ,0.11691598130650395
18, ,PASS, ,0.07222689700000001, ,0.010500469324808326, ,0.03241442134797575, ,0.0007662804503330526, ,1.75, ,0.7504011603392751, ,0.6002938715536418, ,0.11993632783004428
19, ,PASS, ,0.073560511, ,0.010591698337032704, ,0.03251000103081549, ,0.0007863042131573843, ,1.75, ,0.7391227138571883, ,0.5973959715107855, ,0.09503887675761719
20, ,PASS, ,0.07158131200000001, ,0.010468319442193376, ,0.03214369052581233, ,0.0007562911292556439, ,1.75, ,0.7489738980305507, ,0.5962327299442869, ,0.11977306585579886
21, ,PASS, ,0.07133901000000001, ,0.010439107400229668, ,0.03230892978326891, ,0.0007511905589855405, ,1.75, ,0.7497486177741174, ,0.595396012326279, ,0.12293626660680394
22, ,PASS, ,0.071522889, ,0.0104000432324049, ,0.032541133994512764, ,0.0007508848129462738, ,1.75, ,0.747702416017007, ,0.597171486296198, ,0.11534458480439175
23, ,PASS, ,0.07140640299999998, ,0.010399761957170538, ,0.032274244414793776, ,0.0007489753206950319, ,1.75, ,0.7486777368915324, ,0.5964163996653129, ,0.12097712291585885
24, ,PASS, ,0.07118767300000002, ,0.010462667610559142, ,0.03194683000387951, ,0.0007503662391201274, ,1.75, ,0.7503630815399799, ,0.5873145446011306, ,0.12060978347380666
25, ,PASS, ,0.07088110700000001, ,0.0102969921135997, ,0.03256127825152793, ,0.0007365459173395547, ,1.75, ,0.7467598947905755, ,0.5992734842146079, ,0.1131609558988592
26, ,PASS, ,0.07146723599999999, ,0.010305966288953658, ,0.03203309065692598, ,0.00074320668454912, ,1.75, ,0.7428657834540049, ,0.5962939531846289, ,0.0871614865002755
27, ,PASS, ,0.07276121, ,0.010545114779110054, ,0.03213628553962531, ,0.0007740137544437259, ,1.75, ,0.7460278106633383, ,0.5963755841717516, ,0.11544662353829514
28, ,PASS, ,0.07132365000000002, ,0.010432832442309846, ,0.032158087871412624, ,0.0007506352096871917, ,1.75, ,0.7473825542802989, ,0.5957429440215506, ,0.11677312707903921
29, ,PASS, ,0.070844878, ,0.010272098663137205, ,0.0317156346279429, ,0.0007343560359491261, ,1.75, ,0.745544047815437, ,0.5969265933348299, ,0.08736556396808229
30, ,PASS, ,0.070504881, ,0.01023913452227492, ,0.03207543519371849, ,0.0007285093601369089, ,1.75, ,0.7478864419365664, ,0.5978653496867411, ,0.10930389175731108
31, ,PASS, ,0.070325362, ,0.010157073941525726, ,0.03214541696651701, ,0.0007209096669654022, ,1.75, ,0.7453020055380142, ,0.5987632905450909, ,0.10589579804493786
32, ,PASS, ,0.069404303, ,0.010238475001563862, ,0.03220121960880431, ,0.0007174057656978837, ,1.75, ,0.7545839411891506, ,0.5980082039142058, ,0.133323809718169
33, ,PASS, ,0.069500964, ,0.010182532300458487, ,0.03216286963224444, ,0.0007145977942909337, ,1.75, ,0.7491750717595902, ,0.5981714658884513, ,0.11048754107059039
34, ,PASS, ,0.069189542, ,0.01013806778893903, ,0.03231742390171731, ,0.0007084388477549968, ,1.75, ,0.7535949080555076, ,0.598946960266117, ,0.12763004836635988
35, ,PASS, ,0.06922754, ,0.01018644190188813, ,0.03190269217533989, ,0.000710658543989559, ,1.75, ,0.751829968426365, ,0.5908042693006266, ,0.11467112916062938
36, ,PASS, ,0.06913980000000002, ,0.0101655068054149, ,0.03217997816269198, ,0.0007081058188236237, ,1.75, ,0.7498929818461537, ,0.5941307320258771, ,0.12071182220771004
37, ,PASS, ,0.069410307, ,0.01003658569222299, ,0.032382084840739775, ,0.0007032855395604226, ,1.75, ,0.7449846593556751, ,0.5998244933776862, ,0.10389583886043142
38, ,PASS, ,0.069067375, ,0.010119085907960535, ,0.032251213439987755, ,0.0007045262930134112, ,1.75, ,0.7532830209834677, ,0.5945592947082713, ,0.12660966102732596
39, ,PASS, ,0.06878611100000002, ,0.009985223775773069, ,0.032074432401125896, ,0.0006935016693259007, ,1.75, ,0.7499297366313724, ,0.5986204363176262, ,0.11848737780861615
40, ,PASS, ,0.069176736, ,0.010151413801022692, ,0.03186459410536846, ,0.000707643769148673, ,1.75, ,0.7516638031516233, ,0.5917430256525377, ,0.11434460521213853
41, ,PASS, ,0.06929100299999999, ,0.010201622761232246, ,0.03151867147256464, ,0.0007125214371301852, ,1.75, ,0.7531138353141597, ,0.5911307932491173, ,0.12071182220771004
42, ,PASS, ,0.06887986, ,0.010109137080884938, ,0.031877331710311214, ,0.0007029276427343141, ,1.75, ,0.7540008840849958, ,0.598885737025775, ,0.1362217097610253
43, ,PASS, ,0.068858328, ,0.0100990015275119, ,0.03211316109578539, ,0.0007019702571692822, ,1.75, ,0.7528296165505753, ,0.598824513785433, ,0.1233444215424175
44, ,PASS, ,0.068783272, ,0.010119507762291244, ,0.03227519076395196, ,0.0007017484469628883, ,1.75, ,0.7525413680923169, ,0.5943348094936838, ,0.12144650109181446
45, ,PASS, ,0.06914361599999999, ,0.010072449198277817, ,0.03206331408682312, ,0.00070306059306581, ,1.75, ,0.7479928612570241, ,0.5983959511030387, ,0.11156915164996632
46, ,PASS, ,0.06868348800000001, ,0.010177431811612724, ,0.031745339959619596, ,0.0007044285193599833, ,1.75, ,0.753628730685539, ,0.5918858798800024, ,0.11722209750821412
47, ,PASS, ,0.06915235400000001, ,0.010091327028969326, ,0.0321326335282433, ,0.0007044970249130408, ,1.75, ,0.750484792996224, ,0.5977020877124957, ,0.10981408542682802
48, ,PASS, ,0.068932644, ,0.010069702548216661, ,0.031768374145362537, ,0.0007006430654555773, ,1.75, ,0.751205433002222, ,0.5986204363176262, ,0.11846697006183547
49, ,PASS, ,0.068757851, ,0.010075521450331157, ,0.0319424325522026, ,0.0006988942534081806, ,1.75, ,0.7514768206214201, ,0.5976612722189343, ,0.11977306585579886
50, ,PASS, ,0.068591745, ,0.010109445085857625, ,0.031792748084745616, ,0.0006990098546872723, ,1.75, ,0.7537277671453936, ,0.5951715271116916, ,0.1239974694393992
51, ,PASS, ,0.06893365900000001, ,0.01009421068531812, ,0.03217441764561396, ,0.0007022701784754254, ,1.75, ,0.7513005498182179, ,0.5975184179914695, ,0.11079365727230056
52, ,PASS, ,0.06861421900000002, ,0.010081002602944514, ,0.03192478308510908, ,0.0006977528011004785, ,1.75, ,0.7530716886250656, ,0.5984163588498194, ,0.1262219138384931
53, ,PASS, ,0.06840233999999999, ,0.010017726179294853, ,0.03193877589216607, ,0.0006906209058384736, ,1.75, ,0.7513922253189019, ,0.5951715271116916, ,0.11985469684292158
54, ,PASS, ,0.06841792699999999, ,0.010043994574466676, ,0.031866614368264524, ,0.0006939445295088127, ,1.75, ,0.7535467577481865, ,0.5988653292789943, ,0.12289545111324258
55, ,PASS, ,0.06863870300000001, ,0.010011289139762231, ,0.0321186505110563, ,0.0006936185136210754, ,1.75, ,0.7494419875357455, ,0.599395930695292, ,0.11393645027652496
56, ,PASS, ,0.06861146200000003, ,0.010030581137976093, ,0.031963336077322706, ,0.0006944163984663899, ,1.75, ,0.7493806847126442, ,0.5967429236138038, ,0.10361013040550193
57, ,PASS, ,0.06838662000000001, ,0.010013630843672563, ,0.03160000079082345, ,0.0006901517655211358, ,1.75, ,0.7515358728124888, ,0.5951511193649109, ,0.11769147568416971
58, ,PASS, ,0.068346583, ,0.010012148807750617, ,0.031911940018585945, ,0.0006897350168982668, ,1.75, ,0.7495131738119919, ,0.5948245954164201, ,0.10681414665006837
59, ,PASS, ,0.068830039, ,0.010055264673288907, ,0.03181312233118732, ,0.0006984183437885225, ,1.75, ,0.7495334196504815, ,0.5981102426481092, ,0.11356911083447277
60, ,PASS, ,0.08949227000000004, ,0.012745188265319087, ,0.03281607897735721, ,0.0011471719954441713, ,1.75, ,0.728192762425727, ,0.5900695904165221, ,0.09944695006224363
61, ,PASS, ,0.18123965999999997, ,0.024871016681748084, ,0.037470616932919726, ,0.00451151279232718, ,1.8333333333333333, ,0.7001208294581034, ,0.5763351768331259, ,0.08877369849594906
62, ,PASS, ,0.07393468599999997, ,0.010933611684886803, ,0.03234889754722128, ,0.0008165021979952787, ,1.75, ,0.7603652341054471, ,0.5987632905450909, ,0.13591559355931512
63, ,PASS, ,0.07100218000000001, ,0.010486052866196256, ,0.03217272596485479, ,0.0007527359831142598, ,1.75, ,0.7598783774629985, ,0.6014979286137018, ,0.1197322503622375
64, ,PASS, ,0.07066808200000001, ,0.010462740503674225, ,0.032291347292208936, ,0.000746497289677702, ,1.75, ,0.760667808392723, ,0.5979673884206445, ,0.12624232158527376
65, ,PASS, ,0.070425875, ,0.010448087675928861, ,0.03230407908280075, ,0.0007439691220542638, ,1.8333333333333333, ,0.7589625567760456, ,0.6009469194506235, ,0.11748739821636293
66, ,PASS, ,0.07038988700000001, ,0.010427606717672662, ,0.03217914183371074, ,0.0007421526754355247, ,1.75, ,0.7607234258751643, ,0.6011305891716495, ,0.13144629701434665
67, ,PASS, ,0.07031372500000001, ,0.010476358951018398, ,0.03178009962453113, ,0.0007432387488929908, ,1.75, ,0.7629518314232555, ,0.5945184792147099, ,0.13438501255076427
68, ,PASS, ,0.07029493799999999, ,0.010370724895176557, ,0.03242072519371461, ,0.0007370623824263314, ,1.75, ,0.7575017613032544, ,0.6005387645150099, ,0.11152833615640498
69, ,PASS, ,0.070382023, ,0.010457463010942, ,0.03243928502600926, ,0.0007427078343190534, ,1.75, ,0.7615700518382653, ,0.5950694883777882, ,0.12946674557662088
70, ,PASS, ,0.069813523, ,0.010313838440330196, ,0.032372937780742427, ,0.0007278408193070607, ,1.75, ,0.7601492899273815, ,0.603130548356156, ,0.13781351400991818
71, ,PASS, ,0.069906354, ,0.010269593277564113, ,0.032183723634598684, ,0.0007257144272284351, ,1.75, ,0.7576889406200248, ,0.6031917715964981, ,0.12040570600599988
72, ,PASS, ,0.07002746100000001, ,0.010325843746554049, ,0.03211641165503663, ,0.0007305507719650879, ,1.75, ,0.7593731593027685, ,0.6002530560600804, ,0.1285279892247097
73, ,PASS, ,0.069909361, ,0.010352770022756997, ,0.032256639782619126, ,0.0007312542986836102, ,1.75, ,0.7602934128195573, ,0.6004775412746679, ,0.13401767310871207
74, ,PASS, ,0.06962120200000001, ,0.010390058981183574, ,0.032340873702789937, ,0.0007298020834473326, ,1.75, ,0.763302757099101, ,0.5939878777984122, ,0.13354829493275647
75, ,PASS, ,0.069556857, ,0.010332561410293038, ,0.03220158406659864, ,0.0007260947801136879, ,1.75, ,0.7570918636053362, ,0.597742903206057, ,0.11581396298034734
76, ,PASS, ,0.06930763100000001, ,0.010296441731445383, ,0.031900969833759105, ,0.0007201499603592548, ,1.75, ,0.7590232901773148, ,0.5936817615967022, ,0.11573233199322462
77, ,PASS, ,0.06930660500000001, ,0.010235293861878493, ,0.032496617154423375, ,0.0007172832053990181, ,1.75, ,0.7573143789116366, ,0.6000489785922736, ,0.10922226077018836
78, ,PASS, ,0.069102464, ,0.01020188407686107, ,0.0321214692894996, ,0.0007126528734617128, ,1.75, ,0.7568626429384484, ,0.6002530560600804, ,0.11830370808759005
79, ,PASS, ,0.06889462700000001, ,0.010253114231590024, ,0.03222874393447521, ,0.0007140781638440894, ,1.75, ,0.7611366068580674, ,0.5994775616824146, ,0.13636456398849003
80, ,PASS, ,0.06959963400000001, ,0.010283698149394652, ,0.03203115115581866, ,0.000722037314061449, ,1.75, ,0.7588322935549504, ,0.5961306912103834, ,0.12644639905308055
81, ,PASS, ,0.07065145500000002, ,0.010486567605899194, ,0.03188338911246056, ,0.000746899392521421, ,1.75, ,0.7554894874003488, ,0.5912328319830208, ,0.11340584886022734
82, ,PASS, ,0.07021106600000002, ,0.010307186766033814, ,0.03212362217496745, ,0.0007311458264927806, ,1.75, ,0.7511690413636953, ,0.5985183975837228, ,0.08342686883941144
83, ,PASS, ,0.06933496500000001, ,0.010218796958515028, ,0.03206124632545968, ,0.0007161074340953118, ,1.75, ,0.7569269088224867, ,0.5997224546437828, ,0.11930368767984327
84, ,PASS, ,0.06955275700000002, ,0.010193837695517554, ,0.0322413887815016, ,0.0007163791419776187, ,1.75, ,0.7537089174442954, ,0.5997836778841248, ,0.11885471725066836
85, ,PASS, ,0.069299851, ,0.010225816209802735, ,0.03209956990840779, ,0.000716337251275804, ,1.75, ,0.7572952192857492, ,0.5999469398583702, ,0.11805881512622192
86, ,PASS, ,0.069057645, ,0.010258305760071218, ,0.03185067398223179, ,0.0007145340157518524, ,1.75, ,0.757128009395754, ,0.5957429440215506, ,0.12938511458949817
87, ,PASS, ,0.069256793, ,0.01023916508878873, ,0.03183255468984102, ,0.0007163569300232686, ,1.75, ,0.7577753974027217, ,0.5992734842146079, ,0.12481377931062632
88, ,PASS, ,0.06929382700000002, ,0.010245010862322886, ,0.03209945460511275, ,0.0007170164487103683, ,1.75, ,0.7583722748008886, ,0.5987836982918716, ,0.13283402379543274
89, ,PASS, ,0.070482486, ,0.010388888070036427, ,0.03195587190004632, ,0.0007396379970313644, ,1.75, ,0.7549117437870327, ,0.598824513785433, ,0.1222424032162609
90, ,PASS, ,0.070300839, ,0.010364678861043657, ,0.0320093795437038, ,0.0007359767168703237, ,1.75, ,0.7542824121758227, ,0.5982939123691353, ,0.11775269892451175
91, ,PASS, ,0.069232309, ,0.010221480515341804, ,0.03195441131302606, ,0.0007141586622907901, ,1.75, ,0.753611403433249, ,0.595396012326279, ,0.11552825452541785
92, ,PASS, ,0.069429695, ,0.010216827297081314, ,0.031826195016718836, ,0.0007160815133471735, ,1.75, ,0.7550255859287669, ,0.5968245546009265, ,0.1158547784739087
93, ,PASS, ,0.06937702800000001, ,0.010183896565310456, ,0.0320383079318518, ,0.0007134726849211972, ,1.75, ,0.7520367237728882, ,0.5982122813820127, ,0.11060998755127446
94, ,PASS, ,0.06901767, ,0.010200412468201988, ,0.03197564452930103, ,0.00070979186784034, ,1.75, ,0.7548445373690176, ,0.5945592947082713, ,0.11599763270137343
95, ,PASS, ,0.06902248500000002, ,0.010071406994248617, ,0.03224146353160527, ,0.0007018838017275372, ,1.75, ,0.7510312958031209, ,0.6005387645150099, ,0.10861002836676803
96, ,PASS, ,0.06898713899999999, ,0.010202731041311783, ,0.031487546847853515, ,0.0007098160374653458, ,1.75, ,0.7556122623657743, ,0.5921715883349319, ,0.1180792228730026
97, ,PASS, ,0.068756705, ,0.010151265681345441, ,0.03221930001839411, ,0.0007050596686770039, ,1.75, ,0.7558856725060913, ,0.5986612518111876, ,0.1260178363706863
98, ,PASS, ,0.068662111, ,0.010078897366415157, ,0.03159865064926634, ,0.0006974502767837146, ,1.75, ,0.7501693695734317, ,0.5922124038284933, ,0.10979367768004734
99, ,PASS, ,0.06779770500000001, ,0.009975775018622608, ,0.032120277166231094, ,0.0006833898111974727, ,1.75, ,0.7553460797669017, ,0.6028040244076651, ,0.12265055815187445
100, ,PASS, ,0.06750554400000001, ,0.009940880082632187, ,0.03160646423971755, ,0.000677673471049118, ,1.75, ,0.7565235792026133, ,0.5980286116609865, ,0.11860982428930023
101, ,PASS, ,0.066999798, ,0.009934446945823822, ,0.03182060928683333, ,0.0006716724590361526, ,1.75, ,0.7585497122029378, ,0.595273565845595, ,0.12201791800167344
102, ,PASS, ,0.06685909599999999, ,0.009894062413632427, ,0.031647442805016836, ,0.0006687311831728176, ,1.75, ,0.7598990826013423, ,0.6000081630987123, ,0.12244648068406767
103, ,PASS, ,0.066656003, ,0.00979477940188804, ,0.03172310377550744, ,0.0006598608574886973, ,1.75, ,0.7580813229966198, ,0.6004163180343258, ,0.12365053774412767
104, ,PASS, ,0.06653502800000001, ,0.00989521322305698, ,0.03163775891883798, ,0.0006650884465361369, ,1.75, ,0.7590765801991908, ,0.5984775820901614, ,0.12377298422481174
105, ,PASS, ,0.06651354300000001, ,0.009918040670248849, ,0.03185072089345584, ,0.0006657115180668909, ,1.75, ,0.760664685262741, ,0.5964980306524357, ,0.12560968143507276
106, ,PASS, ,0.067148051, ,0.009918144276013499, ,0.031946521562818714, ,0.0006728712500794124, ,1.75, ,0.7581217674749736, ,0.6002530560600804, ,0.12558927368829206
107, ,PASS, ,0.067232211, ,0.009904554252253533, ,0.031675456374194604, ,0.0006710424152257849, ,1.75, ,0.752676884289279, ,0.5956409052876472, ,0.10718148609212057
108, ,PASS, ,0.06798036100000002, ,0.010134515855918383, ,0.031698427767188626, ,0.0006946037199060071, ,1.75, ,0.7601761657875081, ,0.5911103855023366, ,0.12881369767963918
109, ,PASS, ,0.06339981387999999, ,0.00942119046190763, ,0.03207542734791126, ,0.0006055257919440455, ,1.8333333333333333, ,0.7719500792170653, ,0.6047427603518295, ,0.12499744903165241
