Channel, ,Pass/Fail, ,Amplitude, ,Sorting Function Response, ,Mean, ,Variance, ,NPeaksRatio, ,PosIntegralRatio, ,ToT50, ,ToT99
38, ,PASS, ,0.06992058052, ,0.010449976518320995, ,0.042114889433480955, ,0.0007448873956850201, ,1.8333333333333333, ,0.7746228052132134, ,0.6191506295789881, ,0.08789616538437992
39, ,PASS, ,0.10687033999999998, ,0.01356955419647058, ,0.04405250894369503, ,0.0014754146216466853, ,1.75, ,0.67926541720061, ,0.6216403746862309, ,0.048631660578355544
40, ,PASS, ,0.09318310600000002, ,0.013075336119026944, ,0.043685888100038775, ,0.0012407454415999794, ,1.75, ,0.7319669664150967, ,0.6213342584845207, ,0.13281361604865208
41, ,PASS, ,0.04169873, ,0.0067636546357145305, ,0.03946811008346768, ,0.000286688156913665, ,1.8333333333333333, ,0.816628183492509, ,0.6172118936348238, ,0.18983286055386625
42, ,PASS, ,0.06917246108000001, ,0.010317333828312148, ,0.041793575171118966, ,0.0007251152902688896, ,1.8333333333333333, ,0.7755886412077708, ,0.6155792738923695, ,0.09393685843146059
43, ,PASS, ,0.10409708000000004, ,0.012578845058199013, ,0.04372864262096692, ,0.0013318341596591145, ,1.75, ,0.6731704410340871, ,0.6208444725617844, ,0.033509520213873184
44, ,PASS, ,0.09454962000000001, ,0.012333806134916171, ,0.04370220469725108, ,0.0011860670658905526, ,1.75, ,0.689766741938168, ,0.6363951756086611, ,0.07501887716577213
45, ,PASS, ,0.046374820000000025, ,0.007118832426311986, ,0.03959190210914063, ,0.00033731207306871854, ,1.9166666666666667, ,0.7841491224279719, ,0.621252627497398, ,0.16854758066161915
46, ,PASS, ,0.07013687049999999, ,0.01088854005275952, ,0.04104420492765454, ,0.0007768468737363102, ,1.8333333333333333, ,0.7785206590397223, ,0.6038652272402604, ,0.13524213791555276
47, ,PASS, ,0.10507814000000001, ,0.01299582226356634, ,0.04305291340707333, ,0.001387050024535083, ,1.75, ,0.673852706455257, ,0.6096814350727536, ,0.03393808289626742
48, ,PASS, ,0.09455534000000002, ,0.01232055000217974, ,0.04355644219771025, ,0.0011852203913811606, ,1.75, ,0.6919934467453821, ,0.6285177853513194, ,0.0805085610497745
49, ,PASS, ,0.04629613100000002, ,0.007444435655222191, ,0.03990587619048591, ,0.0003506273767091924, ,1.8333333333333333, ,0.8115763666644781, ,0.6182935042141997, ,0.15642537907389645
50, ,PASS, ,0.07877246399999999, ,0.011737768543953392, ,0.04270824318952674, ,0.0009396492718500732, ,1.8333333333333333, ,0.776744610961319, ,0.616558845737842, ,0.07120262851778535
51, ,PASS, ,0.11099135999999997, ,0.013285004298765002, ,0.04398005283198302, ,0.0014961684743348969, ,1.75, ,0.6655221504533357, ,0.6159670210812024, ,0.030325911716087426
52, ,PASS, ,0.10085313, ,0.012583942640542918, ,0.04338597658353911, ,0.001290029263227323, ,1.75, ,0.6719506410938009, ,0.6216199669394502, ,0.05093773596457215
53, ,PASS, ,0.05059978100000001, ,0.007916227617159126, ,0.04003988503357075, ,0.00040887788668628856, ,1.8333333333333333, ,0.7946850691557285, ,0.6155588661455889, ,0.18473092385869677
54, ,PASS, ,0.083754467, ,0.011573692737612216, ,0.04268208338503296, ,0.000984666434109996, ,1.8333333333333333, ,0.7362576417646268, ,0.6160690598151058, ,0.04363176261708945
55, ,PASS, ,0.11280910999999995, ,0.012884834312820316, ,0.04391351317605763, ,0.0014746767712172757, ,1.75, ,0.6451498144028708, ,0.6181710577335157, ,0.023897471480173873
56, ,PASS, ,0.10477336000000002, ,0.012666463849364207, ,0.043487776583947264, ,0.001346812489281406, ,1.75, ,0.6669435570007372, ,0.6166200689781841, ,0.031774861737515564
57, ,PASS, ,0.052505305999999995, ,0.007935059749339357, ,0.040225122023632175, ,0.00042500015345166265, ,1.8333333333333333, ,0.7813463786101343, ,0.6188853288708394, ,0.16622109752862185
58, ,PASS, ,0.08474492600000003, ,0.012125988590771039, ,0.043325794851941796, ,0.0010486786224291771, ,1.75, ,0.757455127049671, ,0.620619987347197, ,0.05622334238076774
59, ,PASS, ,0.11521778999999996, ,0.013358536118896855, ,0.04417892971429155, ,0.0015610038029761643, ,1.75, ,0.6527093382764285, ,0.6152731576906594, ,0.025897430664680313
60, ,PASS, ,0.10596596000000003, ,0.012892614637202655, ,0.043412865485194185, ,0.001387022900137183, ,1.75, ,0.6678378587629288, ,0.615171118956756, ,0.035489071651598945
61, ,PASS, ,0.04976577600000001, ,0.007599648080730055, ,0.039957415363155856, ,0.00038650657196082837, ,1.9166666666666667, ,0.7801987561967467, ,0.6209465112956879, ,0.18169016958837575
62, ,PASS, ,0.089501295, ,0.012101481627535434, ,0.04355217533417686, ,0.0011044436708666737, ,1.75, ,0.7362577285644033, ,0.6207424338278811, ,0.031346299055121325
63, ,FAIL, ,0.007780569999999987, ,0.0003021793666190441, ,0.03504035073406665, ,2.3852503804735205e-06, ,0.75, ,0.2508315241526786, ,0.5542948103099937, ,0.01181608538601253
64, ,PASS, ,0.11195973999999995, ,0.012967874424155661, ,0.04281782104099917, ,0.0014737770110077114, ,1.6666666666666667, ,0.646127592545825, ,0.6016815983347279, ,0.02891777718822065
65, ,PASS, ,0.05542416499999998, ,0.008229908196941658, ,0.04023420187608416, ,0.00046364704666814784, ,1.8333333333333333, ,0.7673799761963318, ,0.6186200281626906, ,0.14028285137038018
66, ,PASS, ,0.08553315, ,0.011560838185135928, ,0.042766090267953714, ,0.001005949332259704, ,1.75, ,0.730031141331592, ,0.6165180302442808, ,0.032591171608742676
67, ,PASS, ,0.11810243000000001, ,0.013338443045589522, ,0.04254447396298034, ,0.0015987318320871346, ,1.6666666666666667, ,0.6251413960386942, ,0.6008244729699393, ,0.022693414420113876
68, ,PASS, ,0.11010216999999997, ,0.012901754717491968, ,0.04357727678720842, ,0.0014409913620615175, ,1.75, ,0.6532591894089685, ,0.6152935654374401, ,0.029672863819105732
69, ,PASS, ,0.05286158100000001, ,0.007941419398243789, ,0.039861082351788736, ,0.0004273196166956276, ,1.75, ,0.7729455764004957, ,0.6113344625619885, ,0.15320095508254933
70, ,PASS, ,0.08421892600000001, ,0.0115148658734128, ,0.042912946161098746, ,0.00098892460461286, ,1.8333333333333333, ,0.7369127793511999, ,0.6213750739780821, ,0.04548886757413114
71, ,PASS, ,0.11699514, ,0.013068983286781908, ,0.04447776330462643, ,0.0015504824842757412, ,1.75, ,0.6407017574168372, ,0.6199465317034346, ,0.022264851737719638
72, ,PASS, ,0.10935137999999997, ,0.012814454628751113, ,0.04258823798146976, ,0.0014205936387532868, ,1.75, ,0.636286371951738, ,0.610416113956858, ,0.030529989183894206
73, ,PASS, ,0.04867371500000002, ,0.007358390912493814, ,0.039729316112732393, ,0.00036598960054408093, ,1.9166666666666667, ,0.7739144950243596, ,0.6209873267892492, ,0.16118038407379442
74, ,PASS, ,0.08590951900000003, ,0.011161277426757604, ,0.04275590839840004, ,0.0009771163356875811, ,1.8333333333333333, ,0.7147608530781565, ,0.6175180098365339, ,0.029019815922124038
75, ,PASS, ,0.12036676, ,0.012922179337513074, ,0.04376055297871472, ,0.001579756912745086, ,1.6666666666666667, ,0.6194546990569965, ,0.6126813738495133, ,0.02193832778922879
76, ,PASS, ,0.11500830999999995, ,0.012609320517358049, ,0.0431616834027877, ,0.0014713112448860456, ,1.5, ,0.6152128469128635, ,0.6135589069610824, ,0.024999489806330485
77, ,PASS, ,0.056715265999999986, ,0.008043102961645579, ,0.04015500164812963, ,0.00046323655860548225, ,1.8333333333333333, ,0.7491899209111537, ,0.6162935450296932, ,0.09432460562029346
78, ,PASS, ,0.07878284199999999, ,0.010386322633788933, ,0.04183871097242913, ,0.0008341540418644408, ,1.75, ,0.7147545835784594, ,0.6186812514030325, ,0.030632027917797598
79, ,PASS, ,0.11741288999999999, ,0.013003081629796581, ,0.04298652624191343, ,0.0015466759601759764, ,1.6666666666666667, ,0.6191837930153522, ,0.6085386012530356, ,0.02344850105099896
80, ,PASS, ,0.11178823999999996, ,0.012734852778211608, ,0.04393198830697333, ,0.0014438680977884068, ,1.75, ,0.6433431008099673, ,0.6203750943858288, ,0.02612191587926777
81, ,PASS, ,0.05282360599999999, ,0.0072867356680269574, ,0.040873043208097794, ,0.0003923751679674377, ,1.8333333333333333, ,0.7532943260446507, ,0.6351707108018204, ,0.1003040754270321
82, ,PASS, ,0.0770087193, ,0.010300878883413842, ,0.04223075862451787, ,0.0008088872631599761, ,1.8333333333333333, ,0.7274788482942518, ,0.62131385073774, ,0.03097895961306912
83, ,PASS, ,0.11657295, ,0.012820062282760843, ,0.04398301102916267, ,0.0015151784294669673, ,1.75, ,0.627682335491731, ,0.619864900716312, ,0.021591396093957268
84, ,PASS, ,0.11209229999999995, ,0.012861269926368223, ,0.043705893597069445, ,0.0014617803503657225, ,1.75, ,0.6451284252888604, ,0.6154568274116855, ,0.02653007081488133
85, ,PASS, ,0.049843837000000016, ,0.0074702960385786745, ,0.03990495166180282, ,0.0003801146598624473, ,1.8333333333333333, ,0.7755054981571528, ,0.6211709965102753, ,0.1239974694393992
86, ,PASS, ,0.08055154800000001, ,0.010502546611487387, ,0.04219829740127752, ,0.0008591994864248467, ,1.75, ,0.717556075331618, ,0.6144160323258709, ,0.027999428583090142
87, ,PASS, ,0.11763403999999997, ,0.013315513824257056, ,0.044034985715189476, ,0.001588701779182667, ,1.75, ,0.6443167127246234, ,0.6158241668537376, ,0.024366849656129466
88, ,PASS, ,0.11206006999999996, ,0.013147085242199734, ,0.043354148550845906, ,0.0014949040189528512, ,1.75, ,0.6535908708327693, ,0.6124977041284871, ,0.02848921450582641
89, ,PASS, ,0.052760827999999996, ,0.007707587528100268, ,0.04007325694475623, ,0.0004130643474968529, ,1.8333333333333333, ,0.7624591305083069, ,0.616946592926675, ,0.10538560437542091
90, ,PASS, ,0.07273197102, ,0.010172881798433585, ,0.041815957507397805, ,0.0007512793889520095, ,1.8333333333333333, ,0.7487086723467247, ,0.6163955837635967, ,0.041611395685802334
91, ,PASS, ,0.11128785999999997, ,0.013111658086702411, ,0.04391670324258689, ,0.001480589148514121, ,1.75, ,0.6592304753989883, ,0.6162935450296932, ,0.026183139119609802
92, ,PASS, ,0.10386884, ,0.012911578865301164, ,0.043738694104201954, ,0.0013610869713832731, ,1.75, ,0.6814690097460229, ,0.6164772147507194, ,0.03842778718801657
93, ,PASS, ,0.04351642999999998, ,0.007009755120600295, ,0.03954485768494521, ,0.0003100127847658651, ,1.8333333333333333, ,0.8116139381993177, ,0.6171098549009204, ,0.20040407338625743
198, ,PASS, ,0.19979999999999998, ,0.0387001134332744, ,0.043414101346503045, ,0.00792041882027606, ,2.0, ,0.9766841508066496, ,0.6360686516601702, ,0.6034570723046468
199, ,PASS, ,0.11065758000000002, ,0.01355114179854407, ,0.044112501003040754, ,0.001555277142477595, ,1.9166666666666667, ,0.8875278296592887, ,0.6240893042999123, ,0.03332585049284709
200, ,PASS, ,0.11227715, ,0.012296579550362374, ,0.04370500378563702, ,0.001417045266408635, ,1.9166666666666667, ,0.8693281616600546, ,0.6256198853084631, ,0.030529989183894206
201, ,PASS, ,0.10318623, ,0.011037102057560297, ,0.042670611744454204, ,0.0011657905675936647, ,2.0, ,0.8689022179755246, ,0.6216811901797923, ,0.02887696169465929
202, ,PASS, ,0.10827475000000003, ,0.01175291170402063, ,0.04355328552417298, ,0.0012891937955407673, ,1.9166666666666667, ,0.8607243159554548, ,0.6293749107161078, ,0.023713801759147772
203, ,PASS, ,0.09153621999999999, ,0.010286430556659171, ,0.04212967422685251, ,0.0009612743483718136, ,1.9166666666666667, ,0.8536206917641406, ,0.6246199057162098, ,0.02414236444154201
204, ,PASS, ,0.08904043, ,0.010550625427126023, ,0.04201158574376033, ,0.0009513220733138799, ,1.9166666666666667, ,0.8572356365173956, ,0.6250688761453848, ,0.030223872982184038
205, ,PASS, ,0.09133186000000001, ,0.01153989213397283, ,0.042583305042142, ,0.00106987123666802, ,1.9166666666666667, ,0.857642922234293, ,0.6252117303728495, ,0.03477480051427522
206, ,PASS, ,0.09094218, ,0.010628168387134044, ,0.04279880074590315, ,0.0010229803225711561, ,1.9166666666666667, ,0.8490612637762232, ,0.6306197832697292, ,0.028836146201097937
207, ,PASS, ,0.10056427, ,0.011991536677394325, ,0.04373087149690823, ,0.0012408547005356792, ,2.0, ,0.8622148199201903, ,0.6313136466602722, ,0.032529948368400646
208, ,PASS, ,0.06964119900000003, ,0.008491424679685004, ,0.04098179385481929, ,0.000623798581290951, ,1.9166666666666667, ,0.8491823143426048, ,0.6271708740637946, ,0.0297953102997898
209, ,PASS, ,0.07681466300000003, ,0.00957770892347438, ,0.04189479673169935, ,0.0007783958959314902, ,1.9166666666666667, ,0.851786206940007, ,0.6287626783126875, ,0.03020346523540336
210, ,PASS, ,0.07210286599999999, ,0.008934163151568197, ,0.04091121665394584, ,0.000657084449301983, ,1.9166666666666667, ,0.8397323505722424, ,0.6238240035917635, ,0.02504030529989184
211, ,PASS, ,0.07822631600000002, ,0.009773574295488273, ,0.04198818496683741, ,0.0008038453886672928, ,2.0, ,0.8522379514152619, ,0.6280892226689251, ,0.03048917369033285
212, ,PASS, ,0.08396802, ,0.010777974530468339, ,0.04226040450174486, ,0.0009157084241070905, ,1.9166666666666667, ,0.8501482935974742, ,0.626517826166813, ,0.03357074345421522
213, ,PASS, ,0.0973853, ,0.012499831719831211, ,0.043252744264198686, ,0.001234264415481447, ,2.0, ,0.8613098459231207, ,0.627211689557356, ,0.034652354033591154
214, ,PASS, ,0.09995124, ,0.012653767118508193, ,0.04387611533438094, ,0.0013026571224810772, ,2.0, ,0.8650003258312641, ,0.6313748699006143, ,0.042386890063468095
215, ,PASS, ,0.11946005000000004, ,0.01513576245293099, ,0.04555290605783556, ,0.0018845778899920494, ,1.9166666666666667, ,0.8775342095198386, ,0.6358849819391441, ,0.04140731821799555
216, ,PASS, ,0.09896101000000002, ,0.01248408781684327, ,0.04326704575559683, ,0.0012545906755495628, ,2.0, ,0.8657680568278905, ,0.628354523377074, ,0.03734617660864064
217, ,PASS, ,0.10665234999999997, ,0.013617531912987294, ,0.04462461926348441, ,0.0015158026032602505, ,1.9166666666666667, ,0.8767151578691114, ,0.6342115467031285, ,0.04050937735964572
218, ,PASS, ,0.10521097999999998, ,0.01320036102792599, ,0.04382900531234057, ,0.0014053803589512868, ,2.0, ,0.8658252717339167, ,0.6311707924328075, ,0.03722373012795657
219, ,PASS, ,0.10552813999999999, ,0.013508038524059886, ,0.04428176400930593, ,0.001483008432294096, ,2.0, ,0.8732543706583384, ,0.6335789065529275, ,0.039182873818901655
220, ,PASS, ,0.06213801277999999, ,0.008149568578230602, ,0.04036637349645926, ,0.000512382883152134, ,1.9166666666666667, ,0.848462624677408, ,0.6253749923470949, ,0.035509479398379624
221, ,PASS, ,0.067623947, ,0.009195066616592577, ,0.040938595288055345, ,0.0006267905240714155, ,2.0, ,0.8608770615399775, ,0.6260484479908573, ,0.0407134548274525
222, ,PASS, ,0.06353654375999997, ,0.007881013347149426, ,0.04053173527091284, ,0.0005269475458993704, ,2.0, ,0.8461560594416542, ,0.6283953388706353, ,0.032999326544356236
223, ,PASS, ,0.081295307, ,0.010782676285710759, ,0.04189136211709965, ,0.0008806235089484362, ,2.0, ,0.8604929600212059, ,0.6259872247505153, ,0.037570661823228095
224, ,PASS, ,0.12377345, ,0.016287054979495504, ,0.045337634039713484, ,0.0020552182987639343, ,1.9166666666666667, ,0.8744439029705835, ,0.630252443827677, ,0.04512152813207894
225, ,PASS, ,0.10451055, ,0.013608901074727252, ,0.045003947318422076, ,0.0014661522690179358, ,2.0, ,0.8665481597325048, ,0.6447215362951777, ,0.04101957102916267
226, ,PASS, ,0.10502223999999999, ,0.013295782071302433, ,0.04381351632476888, ,0.0014209298335627078, ,2.0, ,0.8685251017485567, ,0.6317218015958858, ,0.04146854145833759
227, ,PASS, ,0.15248986, ,0.02220612584603762, ,0.047744913240546104, ,0.0034304832260324274, ,2.0, ,0.8815613431868705, ,0.6298646966388441, ,0.04748882675863758
228, ,PASS, ,0.11354955, ,0.014689161898343635, ,0.04591541627252505, ,0.0017180399319731484, ,2.0, ,0.87540441671854, ,0.648945939878778, ,0.04840717536376809
229, ,PASS, ,0.11091710000000003, ,0.01476885684193071, ,0.04501843717475154, ,0.0017043175261052875, ,1.9166666666666667, ,0.8725832466730902, ,0.632599334707455, ,0.0419175118875125
230, ,PASS, ,0.08283056999999999, ,0.010475429463560696, ,0.04232999472378115, ,0.0009070799864663936, ,2.0, ,0.8655076097758491, ,0.6323544417460868, ,0.04048896961286504
231, ,PASS, ,0.14519284, ,0.02096751304826198, ,0.04791060304687658, ,0.0030863447804664367, ,2.0, ,0.8818929888566928, ,0.6338442072610763, ,0.04977449439807351
232, ,PASS, ,0.10376463999999998, ,0.0135860574302679, ,0.045478631813024216, ,0.001452517387565123, ,2.0, ,0.8730457386579451, ,0.6474153588702272, ,0.047386788024734186
233, ,PASS, ,0.09381605999999999, ,0.012961948444098361, ,0.043256516504152985, ,0.0012384926307060092, ,1.9166666666666667, ,0.8735286065321962, ,0.6290687945143977, ,0.04555009081447317
234, ,PASS, ,0.1028858, ,0.013740207291754352, ,0.043772619123487275, ,0.0014473601599802944, ,1.9166666666666667, ,0.8708577910030145, ,0.6290279790208363, ,0.04471337319646538
235, ,PASS, ,0.10206088999999999, ,0.014086788636255464, ,0.043826623036876795, ,0.0014598842746205761, ,1.9166666666666667, ,0.8717840913968506, ,0.6275382135058468, ,0.04583579926940266
236, ,PASS, ,0.08680155999999997, ,0.01178067281198995, ,0.042502281586498235, ,0.0010307585988552645, ,2.0, ,0.866836046007665, ,0.626762719128181, ,0.043182792187914536
237, ,PASS, ,0.10592135, ,0.014742537665058893, ,0.04423421978490235, ,0.0015850581282852464, ,2.0, ,0.8735871738129802, ,0.6280688149221444, ,0.040856309054917245
238, ,PASS, ,0.10557132999999999, ,0.01453138804015495, ,0.04452428713658904, ,0.0015526495131720152, ,2.0, ,0.8712761426293252, ,0.630762637497194, ,0.048243913389522664
239, ,PASS, ,0.10777836000000002, ,0.014871427947925698, ,0.04499428259811024, ,0.0016632771121848917, ,1.9166666666666667, ,0.8787971555338628, ,0.6339666537417604, ,0.04232566682312606
240, ,PASS, ,0.08569841, ,0.011393586030541239, ,0.042575530770392445, ,0.000993152689732173, ,2.0, ,0.8683609145542887, ,0.6311503846860268, ,0.04361135487030877
241, ,PASS, ,0.13999086, ,0.019632932845641184, ,0.047086459388583905, ,0.0028010151969155065, ,2.0, ,0.8815563841957098, ,0.632783004428481, ,0.048590845084794186
242, ,PASS, ,0.12885187000000003, ,0.01699815528144628, ,0.04476231176690273, ,0.0022380601638681973, ,2.0, ,0.8808351195080009, ,0.6190485908450848, ,0.05136629864696639
243, ,PASS, ,0.19979999999999998, ,0.032866574989999, ,0.04932616565376209, ,0.006770157760571827, ,1.8333333333333333, ,0.9619210615686006, ,0.6479867757800861, ,0.596477622905655
244, ,PASS, ,0.18574477, ,0.0247187345591385, ,0.05106081991143038, ,0.004679761096424247, ,2.0, ,0.8850391985468417, ,0.6431705475398461, ,0.06110079386134977
245, ,PASS, ,0.14826029000000002, ,0.02065022772115601, ,0.04856762659537559, ,0.0031678699888789304, ,2.0, ,0.8953401174221695, ,0.6382726883124834, ,0.05528458602885655
246, ,PASS, ,0.19393231999999988, ,0.030261916255115696, ,0.052502631741392976, ,0.006047232739898445, ,1.8333333333333333, ,0.9602831354480905, ,0.6462929327972898, ,0.5526825983143201
