Channel, ,Pass/Fail, ,Amplitude, ,Sorting Function Response, ,Mean, ,Variance, ,NPeaksRatio, ,PosIntegralRatio, ,ToT50, ,ToT99
22, ,PASS, ,0.08914088541000002, ,0.01268603976784139, ,0.042366293460384286, ,0.001138666185430577, ,1.75, ,0.7298693734722785, ,0.5320503663190547, ,0.12495663353809106
23, ,PASS, ,0.11652892999999995, ,0.015130995891349688, ,0.04214239723386175, ,0.001773150417855286, ,1.75, ,0.6897069947090556, ,0.5197240872635253, ,0.04881533029938165
24, ,PASS, ,0.06291703240999999, ,0.010802149885854201, ,0.039565846889410415, ,0.0006841942712926358, ,1.8333333333333333, ,0.8093289405516441, ,0.514418073100549, ,0.15228260647741884
25, ,PASS, ,0.10024309099999998, ,0.013051435507183, ,0.04361692577449542, ,0.0013208423192162242, ,1.75, ,0.6991782737756105, ,0.5403155037652293, ,0.07246790881818739
26, ,PASS, ,0.12714501000000006, ,0.015317332104179678, ,0.04531445352873308, ,0.0019671451749341327, ,1.75, ,0.6755522946610726, ,0.5469684292157303, ,0.051182628925940284
27, ,PASS, ,0.06099868299999996, ,0.009935724062895019, ,0.03861726572123017, ,0.0006108394783991398, ,1.8333333333333333, ,0.7823492862350904, ,0.49325523968898594, ,0.1407522295463358
28, ,PASS, ,0.09754226800000003, ,0.012769406233628178, ,0.042294230462240366, ,0.001254848596626691, ,1.6666666666666667, ,0.6961632729680822, ,0.5290300197955143, ,0.060896716393542986
29, ,PASS, ,0.12224377000000003, ,0.014783889408687018, ,0.045316331297311475, ,0.0018243755351493665, ,1.75, ,0.6815153579920306, ,0.5496214362972184, ,0.054753984612558926
30, ,PASS, ,0.056360414, ,0.009372955379453412, ,0.03994487643825636, ,0.0005329932793699672, ,1.9166666666666667, ,0.8000987536964159, ,0.5191730781004469, ,0.23944409297769434
31, ,PASS, ,0.099918778, ,0.012905511346746324, ,0.043541487469879805, ,0.0013021814889972133, ,1.75, ,0.6975087737870106, ,0.5444582763617068, ,0.07379441235893144
32, ,PASS, ,0.12609863000000004, ,0.015241656872782497, ,0.045034840319271234, ,0.001940176116430627, ,1.75, ,0.676089680788653, ,0.5450296932715659, ,0.047407195771514865
33, ,PASS, ,0.05650959599999997, ,0.009189324846368085, ,0.03975085766704761, ,0.0005223644837605998, ,1.8333333333333333, ,0.7869084342043047, ,0.5117854737658415, ,0.20197546988836962
34, ,PASS, ,0.09645768900000001, ,0.01261488174214201, ,0.04318219390234791, ,0.0012278261722345597, ,1.75, ,0.6983549728653143, ,0.5399073488296158, ,0.05914165017040469
35, ,PASS, ,0.11949679999999994, ,0.014817379029115096, ,0.04419529943833125, ,0.0017868666240347048, ,1.75, ,0.6831437363059811, ,0.5432746270484275, ,0.05338666557825351
36, ,PASS, ,0.04764130000000001, ,0.008029951669993117, ,0.03971546175588254, ,0.0003853287781482635, ,1.8333333333333333, ,0.8048491212646923, ,0.5128466765984367, ,0.21117936368645537
37, ,PASS, ,0.098093256, ,0.012921701038454667, ,0.043815234353486054, ,0.0012792457195701541, ,1.75, ,0.704288815136798, ,0.5420501622415869, ,0.07750862227301483
38, ,PASS, ,0.11942071000000001, ,0.014905474980686699, ,0.045084448910821806, ,0.0017973033148595597, ,1.75, ,0.686970026118272, ,0.5457031489153282, ,0.05769270014897655
39, ,PASS, ,0.04868037200000002, ,0.008059384431957566, ,0.03956773060100815, ,0.00039506982215594576, ,1.8333333333333333, ,0.7955271229270798, ,0.5162751780575907, ,0.2508316156813126
40, ,PASS, ,0.10481853599999999, ,0.013357364647583516, ,0.044150891755275604, ,0.0014106592448644014, ,1.75, ,0.6928762170634392, ,0.5451113242586886, ,0.0942837901267321
41, ,PASS, ,0.12423984000000005, ,0.015141267435131256, ,0.045596326319032675, ,0.0018998456817236112, ,1.75, ,0.6831603939747165, ,0.551294871533234, ,0.04916226199465317
42, ,PASS, ,0.050867699000000016, ,0.008279407403690747, ,0.03930152225583152, ,0.0004240401862369914, ,1.8333333333333333, ,0.7847105962838876, ,0.5143364421134262, ,0.19707761066100693
43, ,PASS, ,0.10644645199999998, ,0.013448191342501517, ,0.04346237735926553, ,0.0014436062950715796, ,1.75, ,0.6866841828584895, ,0.5403155037652293, ,0.05416215995591927
44, ,PASS, ,0.11961440999999998, ,0.015019128109697032, ,0.04442295081269035, ,0.0018125994246074527, ,1.75, ,0.6874410534368415, ,0.5424991326707618, ,0.053162180363666045
45, ,PASS, ,0.04871418600000001, ,0.00815112358781967, ,0.03910600266704762, ,0.0003997695070738116, ,1.75, ,0.793050608476631, ,0.5151323442378727, ,0.21348543907267198
46, ,PASS, ,0.11265593999999994, ,0.014139820790851904, ,0.04390351774221383, ,0.0016059213116786817, ,1.75, ,0.6840376892119192, ,0.5397236791085896, ,0.05620293463398706
47, ,PASS, ,0.12206338, ,0.015191983517607498, ,0.04556333379905349, ,0.0018722811885857407, ,1.75, ,0.6916935497155328, ,0.5521315891512418, ,0.06344768474112773
48, ,PASS, ,0.053966803, ,0.008796358015009716, ,0.03983061666717006, ,0.0004781122617755547, ,1.8333333333333333, ,0.7892154427769916, ,0.5197036795167446, ,0.2294647048019428
49, ,PASS, ,0.11964390999999999, ,0.013591446566043592, ,0.045899489525953345, ,0.0016475809592859157, ,1.6666666666666667, ,0.6535658705467561, ,0.5593151160180404, ,0.037978816758841655
50, ,PASS, ,0.11356625999999993, ,0.014470835568081514, ,0.043694098236736596, ,0.0016576503920865062, ,1.75, ,0.6940427882805924, ,0.5355604987653313, ,0.05989673680128977
51, ,PASS, ,0.04462327000000002, ,0.007453650489339797, ,0.03849208766065999, ,0.00033447659231057895, ,1.75, ,0.7928353124635893, ,0.5037040060406931, ,0.15511928327993307
52, ,PASS, ,0.11827060999999994, ,0.013351807446019291, ,0.04449024150673149, ,0.0015968639995085471, ,1.6666666666666667, ,0.6470053891279187, ,0.5496418440439991, ,0.03610130405501929
53, ,PASS, ,0.11385718999999993, ,0.014498071660937884, ,0.042961667318876344, ,0.0016623740691523831, ,1.6666666666666667, ,0.6881453212874318, ,0.5302136691087938, ,0.049733678904512156
54, ,PASS, ,0.04673953600000001, ,0.007689290725937411, ,0.03838258256639661, ,0.00036149886488424465, ,1.8333333333333333, ,0.7872685779377674, ,0.49964286443133815, ,0.17289443072590355
55, ,PASS, ,0.10516769299999999, ,0.012945786120197113, ,0.04419848135455154, ,0.0013743650474851716, ,1.75, ,0.682008377071237, ,0.5484581947307198, ,0.07756984551335687
56, ,PASS, ,0.11491291999999993, ,0.014840764732671395, ,0.044037256343796245, ,0.0017209511998550642, ,1.75, ,0.6996577839270987, ,0.5439684904389707, ,0.06587620660802841
57, ,PASS, ,0.04785413900000002, ,0.007953544511563292, ,0.03934083523172997, ,0.00038277765070663766, ,1.8333333333333333, ,0.7940278921440228, ,0.513336462521173, ,0.1699965306830473
58, ,PASS, ,0.08156178093000001, ,0.011883581364351203, ,0.04185429092870758, ,0.0009762644576262292, ,1.75, ,0.73855135839896, ,0.5316218036366605, ,0.12971163853798903
59, ,PASS, ,0.10824935999999999, ,0.014826175585208407, ,0.0429768733050401, ,0.0016139999656679465, ,1.75, ,0.7165605076336536, ,0.5354584600314279, ,0.09536540070610804
60, ,PASS, ,0.04400093000000003, ,0.0073846771443784355, ,0.038615077036795176, ,0.0003262467886283935, ,1.8333333333333333, ,0.7939847270119835, ,0.5090508356972306, ,0.1364870104691741
61, ,PASS, ,0.07991585522999997, ,0.012034853382852241, ,0.04147546708262362, ,0.0009674302380412718, ,1.6666666666666667, ,0.7525698124862356, ,0.5297238831860575, ,0.17552703006061102
62, ,PASS, ,0.10545456899999998, ,0.015175284917553437, ,0.04340664279888614, ,0.0016123430535909455, ,1.75, ,0.7371415201410197, ,0.5382339135936002, ,0.13099732658517174
63, ,PASS, ,0.045619391000000016, ,0.007356734852987129, ,0.03867672562743618, ,0.0003373646171636675, ,1.8333333333333333, ,0.7730423391360731, ,0.5090712434440113, ,0.05995796004163181
198, ,PASS, ,0.19855182999999987, ,0.033627377440953024, ,0.03154050284483989, ,0.006815411540112282, ,2.0, ,0.8793536752013706, ,0.49378584110528356, ,0.05467235362543622
199, ,PASS, ,0.08300308899999997, ,0.013586796760451283, ,0.0357616802846499, ,0.0011448057429929, ,2.0, ,0.8721524540758533, ,0.4916226199465317, ,0.0343258300851003
200, ,PASS, ,0.07199131213999999, ,0.010768386870509888, ,0.03562912751905063, ,0.0007988949722032206, ,2.0, ,0.8550686806925804, ,0.4861737515560907, ,0.029978980020815903
201, ,PASS, ,0.07229894880999999, ,0.010562821039223094, ,0.03551736516936389, ,0.0007877488124984446, ,2.0, ,0.8445441814840159, ,0.48743903185649273, ,0.02642803208097794
202, ,PASS, ,0.08157996, ,0.011575577148569691, ,0.03514431944550111, ,0.000963458492856358, ,1.9166666666666667, ,0.8353778908959608, ,0.4910920185302341, ,0.027795351115283362
203, ,PASS, ,0.07475607574999997, ,0.011158051898438047, ,0.035780583681577924, ,0.0008529415309562643, ,2.0, ,0.8488368419006456, ,0.49170425093365444, ,0.025346421501602007
204, ,PASS, ,0.08976770500000002, ,0.012866444877809548, ,0.033976294461257724, ,0.0011991656877563285, ,1.9166666666666667, ,0.8432139060447646, ,0.4750923450541826, ,0.029264708883492172
205, ,PASS, ,0.09611616000000002, ,0.01410820269138697, ,0.03472036070961551, ,0.0013950431169340556, ,2.0, ,0.8465360877523028, ,0.4910103875431114, ,0.02950960184486031
206, ,PASS, ,0.08869700300000001, ,0.012891806975006652, ,0.034994099767414126, ,0.0011824929965954585, ,1.9166666666666667, ,0.8432194583242019, ,0.4924593375645395, ,0.03279524907654946
207, ,PASS, ,0.10463383000000002, ,0.015734938294616606, ,0.03442911820246791, ,0.0016825484863289678, ,2.0, ,0.8539670685513441, ,0.4961531397318422, ,0.03699924491336912
208, ,PASS, ,0.16649579999999986, ,0.016087254378586237, ,0.02837833866431297, ,0.002736196383816934, ,1.5833333333333333, ,0.4504188477311028, ,0.47613314013999714, ,0.032958511050794885
209, ,PASS, ,0.06978634336999998, ,0.010504058162157949, ,0.03579872750596927, ,0.0007570186710672486, ,1.9166666666666667, ,0.8502937476075267, ,0.4898879614701741, ,0.035489071651598945
210, ,PASS, ,0.06580288113999998, ,0.010067036227348308, ,0.03563656809705925, ,0.0006786647545472815, ,2.0, ,0.8528005318875127, ,0.4855002959123283, ,0.04055019285320708
211, ,PASS, ,0.07273859817, ,0.010992894686417719, ,0.03606544157213118, ,0.0008311149327531028, ,1.9166666666666667, ,0.847655434542066, ,0.49331646292932796, ,0.030734066651700986
212, ,PASS, ,0.13609558000000008, ,0.012179629280072723, ,0.03054254406107039, ,0.0017080464672733304, ,1.5833333333333333, ,0.41129019717620846, ,0.527030060611008, ,0.03040754270321014
213, ,PASS, ,0.4349671999999999, ,0.07320053664490428, ,0.043549918867370016, ,0.03216958722296769, ,1.9166666666666667, ,0.829453004601978, ,0.5368257790657334, ,0.063937470663864
214, ,PASS, ,0.5035515, ,0.08337785436216719, ,0.04434371250627538, ,0.04240739024117981, ,1.9166666666666667, ,0.8221281265704606, ,0.5385400297953103, ,0.0671823024019918
215, ,PASS, ,0.5252722000000001, ,0.08723777979495094, ,0.045880521173037266, ,0.046332776953181345, ,2.0, ,0.8222796623184051, ,0.5363768086365585, ,0.06518234321748535
216, ,PASS, ,0.4927057999999999, ,0.08211657905395803, ,0.04568916141527722, ,0.04089202500857838, ,1.9166666666666667, ,0.82485373928976, ,0.5387645150098977, ,0.06436603334625823
217, ,PASS, ,0.5342863999999998, ,0.08824051650852563, ,0.04799638421644453, ,0.04766705648412405, ,1.9166666666666667, ,0.8225059690081368, ,0.5433562580355503, ,0.06526397420460807
218, ,PASS, ,0.5330563999999999, ,0.08892744995696995, ,0.037587124708883465, ,0.04795756732451003, ,1.75, ,0.8179721247213593, ,0.5214995612334442, ,0.0683863594620518
219, ,PASS, ,0.5145048999999998, ,0.08625821193422437, ,0.03480602004020326, ,0.04484793118401023, ,1.75, ,0.8180302939274703, ,0.515744576641293, ,0.06675373971959755
220, ,PASS, ,0.37050590000000017, ,0.06216127351886462, ,0.04223317018081267, ,0.023382804492467484, ,1.9166666666666667, ,0.834000274542553, ,0.538499214301749, ,0.05999877553519316
221, ,PASS, ,0.4149786999999999, ,0.0694538519616249, ,0.043048806030081016, ,0.02912754659689921, ,1.9166666666666667, ,0.8286483169242437, ,0.5390298157180465, ,0.06150894879696333
222, ,PASS, ,0.3734270000000001, ,0.0623744956462951, ,0.04060009148894923, ,0.02365205296461724, ,1.8333333333333333, ,0.8289989048419917, ,0.535070712842595, ,0.058835533968694516
223, ,PASS, ,0.44143600000000005, ,0.07311167332347163, ,0.045145900266933284, ,0.032620598182923254, ,1.9166666666666667, ,0.8243194886513239, ,0.5423154629497358, ,0.06520275096426603
224, ,PASS, ,0.5324848999999999, ,0.08686751635209648, ,0.04658150617273114, ,0.04674558231442005, ,1.9166666666666667, ,0.8164599538594851, ,0.5397236791085896, ,0.06871288341054264
225, ,PASS, ,0.4965135999999999, ,0.08078385994337613, ,0.047400072070365895, ,0.040559188495847866, ,1.9166666666666667, ,0.8179473751484121, ,0.5448052080569784, ,0.06752923409726332
226, ,PASS, ,0.4983236999999999, ,0.08267509825879411, ,0.027423323859717137, ,0.04159159174783988, ,1.8333333333333333, ,0.8068412181194818, ,0.5008673292381788, ,0.06499867349645926
227, ,PASS, ,0.5453021, ,0.08641753680787083, ,0.051629971617722065, ,0.04760209230954661, ,1.75, ,0.8093062704522896, ,0.5492336891083855, ,0.07244750107140671
228, ,PASS, ,0.5010941999999998, ,0.08001248251081372, ,0.0486875275445399, ,0.04054424269520112, ,1.9166666666666667, ,0.8123505165315775, ,0.5485602334646231, ,0.06891696087834942
229, ,FAIL, ,0.0007392500000000038, ,3.2579869673025835e-05, ,0.03952675626374971, ,2.693537218445696e-08, ,1.25, ,0.4096966506425363, ,0.5794779698373502, ,0.000734678884104406
230, ,PASS, ,0.4857362999999998, ,0.07784681519467476, ,0.0446512621528132, ,0.0381977420299105, ,1.8333333333333333, ,0.8107830833082923, ,0.5396012326279056, ,0.07136589049203078
231, ,PASS, ,0.5322858999999999, ,0.08277954137827097, ,0.05359828695802124, ,0.044521196968400234, ,1.8333333333333333, ,0.8055007434860488, ,0.5551315279280015, ,0.0729168792473623
232, ,PASS, ,0.5034899999999998, ,0.08146321494416847, ,0.047518109384706436, ,0.041469485347123004, ,1.9166666666666667, ,0.8144037888132655, ,0.5450501010183466, ,0.06614150731617723
233, ,PASS, ,0.5651653000000001, ,0.09159253629230066, ,0.05046721408522275, ,0.05234613037839078, ,1.9166666666666667, ,0.8163483442373464, ,0.5473969918981245, ,0.0680190200199996
234, ,PASS, ,0.6458735000000004, ,0.1045249352386521, ,0.05050286658700844, ,0.06825510656787333, ,1.9166666666666667, ,0.8165816591794823, ,0.5459684496234771, ,0.07254953980531009
