Channel, ,Pass/Fail, ,Amplitude, ,Sorting Function Response, ,Mean, ,Variance, ,NPeaksRatio, ,PosIntegralRatio, ,ToT50, ,ToT99
68, ,PASS, ,0.009158859999999991, ,0.0013231247046729664, ,0.02865525437093121, ,1.2239579802440623e-05, ,1.75, ,0.6739846999847982, ,0.46945980694271544, ,0.05218260851819351
69, ,PASS, ,0.020603700000000003, ,0.0032044394460522614, ,0.0279317811058958, ,6.670932923993336e-05, ,1.8333333333333333, ,0.6995625164748717, ,0.46568437378829003, ,0.08805942735862533
70, ,PASS, ,0.024536840000000008, ,0.0038507270176984945, ,0.027919520111222222, ,9.539165302172973e-05, ,1.8333333333333333, ,0.7046486782195338, ,0.46529662659945714, ,0.09220219995510295
71, ,PASS, ,0.014929130000000002, ,0.002107075286937821, ,0.028230762180363664, ,3.1841625970351395e-05, ,1.75, ,0.6607699340492114, ,0.46382726883124836, ,0.038305340707332505
72, ,PASS, ,0.007961630000000011, ,0.001244416355106324, ,0.028909446513336465, ,9.998740028511836e-06, ,1.9166666666666667, ,0.7751858648812282, ,0.48872471990367544, ,0.07769229199404094
73, ,PASS, ,0.01991672, ,0.003373891907777169, ,0.028462020440399177, ,6.769565089952378e-05, ,1.9166666666666667, ,0.7717320062174076, ,0.4797657190669578, ,0.08628395338870636
74, ,PASS, ,0.023465000000000007, ,0.003900319241287951, ,0.028446665667231284, ,9.211073802258986e-05, ,1.9166666666666667, ,0.7609813319267844, ,0.4778473908695741, ,0.0649578580028979
75, ,PASS, ,0.01374928000000001, ,0.0022598976824939913, ,0.028725765363155853, ,3.128215990729571e-05, ,1.9166666666666667, ,0.7558145017845733, ,0.4793167486377829, ,0.009203893798085753
76, ,PASS, ,0.009172839999999991, ,0.0015366422187058062, ,0.028903209480010617, ,1.4226758863658285e-05, ,1.9166666666666667, ,0.7741958145744953, ,0.48466357829432055, ,0.07426379053488705
77, ,PASS, ,0.020148260000000008, ,0.003430120546506327, ,0.02832613702842799, ,6.971253034219891e-05, ,1.9166666666666667, ,0.7582642302215331, ,0.47541886900267344, ,0.06457011081406502
78, ,PASS, ,0.02286859000000001, ,0.00394056736576014, ,0.02844988593314422, ,9.076600731649733e-05, ,1.9166666666666667, ,0.7628708958685181, ,0.4750923450541826, ,0.09246750066325177
79, ,PASS, ,0.013761850000000003, ,0.0023453095148791296, ,0.028554932210567128, ,3.2557026702520505e-05, ,1.9166666666666667, ,0.7613586199498714, ,0.47694945001122424, ,0.10858962061998735
80, ,PASS, ,0.006781909999999992, ,0.0010209374063016412, ,0.029084405217444542, ,7.0235278026935705e-06, ,1.8333333333333333, ,0.7695017697712011, ,0.49611232423828083, ,0.041244056243750125
81, ,PASS, ,0.01435291, ,0.0023231343095189557, ,0.028944462896063346, ,3.37175126961956e-05, ,1.9166666666666667, ,0.7869077660294557, ,0.49056141711393647, ,0.07469235321728128
82, ,PASS, ,0.016460519999999996, ,0.002657623972937363, ,0.028951985358257996, ,4.421545937430414e-05, ,1.8333333333333333, ,0.7882751362458272, ,0.49003081569763884, ,0.0901206097834738
83, ,PASS, ,0.009162689999999994, ,0.0014709516458072062, ,0.02904165901777515, ,1.3643482067654825e-05, ,1.9166666666666667, ,0.7769897543665472, ,0.49201036713536456, ,0.028836146201097937
84, ,PASS, ,0.006557670000000012, ,0.0010087268608516221, ,0.028990162627701474, ,6.7045313664298535e-06, ,1.8333333333333333, ,0.7842441014019674, ,0.4965204791738944, ,0.08028407583518704
85, ,PASS, ,0.013651050000000005, ,0.0022296431138280645, ,0.02909480574457664, ,3.079048343398218e-05, ,1.9166666666666667, ,0.7927568007148865, ,0.4906430481010592, ,0.10465092549131651
86, ,PASS, ,0.016183770000000007, ,0.0026245098976830916, ,0.029038954654802964, ,4.289308524172053e-05, ,1.9166666666666667, ,0.7799648875554158, ,0.4885818656762107, ,0.048856145792943
87, ,PASS, ,0.008790840000000012, ,0.0014233140059916765, ,0.028923843659925313, ,1.2644721687410083e-05, ,1.9166666666666667, ,0.7817867857910286, ,0.4920919981224873, ,0.045325605599885715
88, ,PASS, ,0.006608180000000002, ,0.0009531408600376145, ,0.029001549956531498, ,6.37680841660976e-06, ,1.8333333333333333, ,0.751423186072618, ,0.4955817228219832, ,0.0389583886043142
89, ,PASS, ,0.013330489999999976, ,0.002164841509926092, ,0.029002588476969855, ,2.9128223267849263e-05, ,1.9166666666666667, ,0.7805627680112779, ,0.48880635089079816, ,0.06826391298136773
90, ,PASS, ,0.015166809999999989, ,0.0024125206926398444, ,0.028929892007510047, ,3.697000955785007e-05, ,1.8333333333333333, ,0.7790570128924388, ,0.4890512438521663, ,0.07728413705842738
91, ,PASS, ,0.008285880000000002, ,0.00131493016129274, ,0.028909205692128737, ,1.1032221567775563e-05, ,1.9166666666666667, ,0.7773357197349555, ,0.4913369114916022, ,0.06077426991285892
92, ,PASS, ,0.005880509999999995, ,0.0007287446134059975, ,0.029202062638313504, ,4.357343274115348e-06, ,1.8333333333333333, ,0.7034793897961062, ,0.4972755658047795, ,0.028366768025142344
93, ,PASS, ,0.012434400000000012, ,0.0018397066055005572, ,0.02919252782841167, ,2.311050368736044e-05, ,1.8333333333333333, ,0.7674866266427971, ,0.49343890941001206, ,0.10489581845268464
94, ,PASS, ,0.013835930000000017, ,0.0019744646561816754, ,0.02909065362074243, ,2.7570533864937072e-05, ,1.8333333333333333, ,0.7385571454677891, ,0.49074508683496254, ,0.036182935042142
95, ,PASS, ,0.007821640000000015, ,0.001101451941217575, ,0.02921112152037714, ,8.69410836364915e-06, ,1.8333333333333333, ,0.735606205166161, ,0.4952551988734924, ,0.03326462725250505
