Channel, ,Pass/Fail, ,Amplitude, ,Sorting Function Response, ,Mean, ,Variance, ,NPeaksRatio, ,IntegralRatio, ,ToT50, ,ToT99
0, ,PASS, ,0.06715852000000003, ,0.05498746681224092, ,-0.001893863366053752, ,0.000764532057955414, ,1.0, ,0.3804154790955594, ,0.47499030632027917, ,0.09779392257300872
1, ,PASS, ,0.06687540000000002, ,0.05482188400153963, ,-0.0019023844188894084, ,0.0007588856566998895, ,1.0, ,0.3803420757763031, ,0.475194383788086, ,0.09816126201506092
2, ,PASS, ,0.06780503000000002, ,0.05571943504659902, ,-0.0019048225003571327, ,0.0007820502590721327, ,1.0, ,0.38159134286834306, ,0.47466378237178836, ,0.10589579804493786
3, ,PASS, ,0.067776, ,0.05565085902861267, ,-0.002014820776106608, ,0.0007806804766403773, ,1.0, ,0.38004804819990995, ,0.4742148119426134, ,0.09761025285198262
4, ,PASS, ,0.06771080000000002, ,0.05563236563977272, ,-0.0019798339742046057, ,0.0007800435521840102, ,1.0, ,0.37971323304724786, ,0.47539846125589275, ,0.10538560437542091
5, ,PASS, ,0.06902808999999999, ,0.056761519999573726, ,-0.0019685486812514004, ,0.0008106407168924048, ,1.0, ,0.38126511254597173, ,0.47454133589110425, ,0.10626313748699007
6, ,PASS, ,0.09989999999999996, ,0.09003380779811436, ,0.004319439388583902, ,0.0018609129525634317, ,1.0, ,0.505180698090476, ,0.43905226423950533, ,0.21075080100406113
7, ,PASS, ,0.07677677999999999, ,0.06467323157769252, ,-0.002393516059876327, ,0.0010309328567302022, ,1.0, ,0.3838682347769107, ,0.474051549968368, ,0.13273198506152936
8, ,PASS, ,0.04251837999999998, ,0.03375782231765045, ,-0.0011509901791800171, ,0.0002971248373213069, ,1.0, ,0.3830880512306572, ,0.4750719373074019, ,0.07556988632885044
9, ,PASS, ,0.04153853000000001, ,0.03300305590479908, ,-0.0013467511420175101, ,0.00028375283337802096, ,1.0, ,0.3787234687143843, ,0.47417399644905206, ,0.07122303626456603
10, ,PASS, ,0.04178894, ,0.03319777262602332, ,-0.0011705282981979961, ,0.0002871129000065576, ,1.0, ,0.3819604445697546, ,0.47541886900267344, ,0.07838615538458399
11, ,PASS, ,0.041639510000000005, ,0.0327919882546397, ,-0.0012140867790453257, ,0.0002825791436266135, ,1.0, ,0.3796246521289714, ,0.47464337462500766, ,0.07499846941899145
12, ,PASS, ,0.041361850000000006, ,0.032436616011434535, ,-0.0011626359913062998, ,0.0002776641008665524, ,1.0, ,0.3800072376105236, ,0.47448011265076223, ,0.05491724658680435
13, ,PASS, ,0.04114548, ,0.032426605933970225, ,-0.001247415951103039, ,0.00027603729799408663, ,1.0, ,0.3788901270880518, ,0.4743780739168588, ,0.07232505459072264
14, ,PASS, ,0.04125663000000001, ,0.032273702236997555, ,-0.0012995223319932248, ,0.00027549570180993976, ,1.0, ,0.3754891783709698, ,0.47501071406705986, ,0.07901879553478501
15, ,PASS, ,0.041343190000000016, ,0.03205953979055624, ,-0.0011302410177343317, ,0.0002741936252993058, ,1.0, ,0.37802750111425476, ,0.474684190118569, ,0.07434542152200975
16, ,PASS, ,0.040892279999999996, ,0.0319590455884623, ,-0.0011702233331972814, ,0.0002704195785780184, ,1.0, ,0.3784423931349155, ,0.47490867533315645, ,0.07534540111426298
17, ,PASS, ,0.04098189000000001, ,0.03204791317634764, ,-0.0010827350039795103, ,0.0002717139499255065, ,1.0, ,0.3811460695579676, ,0.4743984816636395, ,0.06554968265953756
18, ,PASS, ,0.04097548000000001, ,0.031901436572667814, ,-0.0012252954680516722, ,0.0002704572222125519, ,1.0, ,0.376325279258988, ,0.4748066365992531, ,0.06779453480541213
19, ,PASS, ,0.040967189999999994, ,0.03208744321309312, ,-0.0010618649454092772, ,0.0002720835897376939, ,1.0, ,0.3812817248783943, ,0.47535764576233136, ,0.06859043692985857
20, ,PASS, ,0.040861459999999995, ,0.0319858603631433, ,-0.0011510030991204257, ,0.0002703974925800403, ,1.0, ,0.3786282213168662, ,0.4756025387236995, ,0.07644741944041958
21, ,PASS, ,0.041003300000000006, ,0.0318929710981763, ,-0.0011987929230015712, ,0.0002704295421207508, ,1.0, ,0.37635597323521797, ,0.4750719373074019, ,0.07175363768086365
22, ,PASS, ,0.04086335999999999, ,0.03196893745763234, ,-0.001104841075692332, ,0.00027025298694206726, ,1.0, ,0.3806070589394467, ,0.4743168506765168, ,0.0704067263933389
23, ,PASS, ,0.04094279, ,0.03197007747985187, ,-0.001093468460235505, ,0.0002707077473815719, ,1.0, ,0.38021961699159484, ,0.47454133589110425, ,0.07475357645762332
24, ,PASS, ,0.04086471999999999, ,0.03198047423357508, ,-0.0011225626960674267, ,0.00027043264358629675, ,1.0, ,0.3796370371388137, ,0.4751331605477439, ,0.07193730740188976
25, ,PASS, ,0.041286279999999995, ,0.032138379587741434, ,-0.0011581221177118834, ,0.0002744395724873487, ,1.0, ,0.3779758254880011, ,0.474745413358911, ,0.07122303626456603
26, ,PASS, ,0.041116040000000006, ,0.032172631187595196, ,-0.0010965401161200793, ,0.0002736335632907325, ,1.0, ,0.3800654932703572, ,0.47548009224301546, ,0.07336584967653721
27, ,PASS, ,0.04119185, ,0.032061542270921416, ,-0.0010825161566090484, ,0.0002731888457811328, ,1.0, ,0.37935695486336285, ,0.47529642252198934, ,0.06944756229464705
28, ,PASS, ,0.04100506, ,0.032285365159692096, ,-0.001065119982653415, ,0.00027394189148233146, ,1.0, ,0.3821314829376369, ,0.47535764576233136, ,0.07673312789534907
29, ,PASS, ,0.041282160000000005, ,0.032290912183790536, ,-0.001175114892757291, ,0.0002757341386481219, ,1.0, ,0.37863251329041725, ,0.47482704434603373, ,0.06724352564233382
30, ,PASS, ,0.04140105, ,0.03239378995975615, ,-0.0012276191924654601, ,0.000277416232444536, ,1.0, ,0.3768955368043905, ,0.47539846125589275, ,0.08269218995530704
31, ,PASS, ,0.04147164000000001, ,0.03241563467305365, ,-0.0011291423270953654, ,0.00027809126307643087, ,1.0, ,0.3794980013036001, ,0.47499030632027917, ,0.07626374971939348
32, ,PASS, ,0.04116049, ,0.03235025603619414, ,-0.0012197078716760883, ,0.00027566490178302044, ,1.0, ,0.37860481166867227, ,0.4748066365992531, ,0.0680190200199996
33, ,PASS, ,0.041461920000000006, ,0.032729779628113846, ,-0.0011156161823228097, ,0.0002807924791351308, ,1.0, ,0.3818510384338049, ,0.47527601477520864, ,0.07826370890389991
34, ,PASS, ,0.04155051, ,0.03276756622110704, ,-0.0012211541486908432, ,0.0002817303630906248, ,1.0, ,0.3790091910177015, ,0.475255607028428, ,0.074773984204404
35, ,PASS, ,0.04154278, ,0.03267733668433216, ,-0.0012018693157282508, ,0.00028094959724771207, ,1.0, ,0.3787310629508736, ,0.4755821309769188, ,0.0696720475092345
36, ,PASS, ,0.04144739, ,0.03279107183397088, ,-0.0012892144707250875, ,0.00028114868553430185, ,1.0, ,0.37815416778539707, ,0.47494949082671784, ,0.07567192506275382
37, ,PASS, ,0.04142181, ,0.03257931694385969, ,-0.0011508233744209305, ,0.00027914363747056194, ,1.0, ,0.3797466268723436, ,0.4756433542172609, ,0.07277402501989755
38, ,PASS, ,0.04134539, ,0.032279468033097135, ,-0.001222364588885941, ,0.00027604369082247357, ,1.0, ,0.37674963814577084, ,0.4750719373074019, ,0.06677414746637823
39, ,PASS, ,0.04143543, ,0.03267573201224957, ,-0.001264209225934165, ,0.0002802172484927033, ,1.0, ,0.37707858439268127, ,0.47611273239321644, ,0.0748556151915267
40, ,PASS, ,0.04174737, ,0.03341443975057727, ,-0.0011341822885247244, ,0.00028876006261755014, ,1.0, ,0.38422723797369795, ,0.4755821309769188, ,0.07675353564212975
41, ,PASS, ,0.04124204000000001, ,0.03232604537709738, ,-0.001230011439970613, ,0.00027579717771358673, ,1.0, ,0.37707805631884717, ,0.47545968449623477, ,0.07330462643619517
42, ,PASS, ,0.04129326000000001, ,0.03215645168942687, ,-0.0012963602314238485, ,0.0002746361771913389, ,1.0, ,0.3739469047070918, ,0.4755209077365768, ,0.07154956021305688
43, ,PASS, ,0.04106112, ,0.032227829779753005, ,-0.0011150133117691472, ,0.0002737197217639751, ,1.0, ,0.38007806029172564, ,0.47539846125589275, ,0.06701904042774637
44, ,PASS, ,0.040952, ,0.0319144173101778, ,-0.0012657351423440337, ,0.00027018381050884294, ,1.0, ,0.3747168491819691, ,0.47541886900267344, ,0.06179465725189282
45, ,PASS, ,0.04069097000000001, ,0.03167028673465707, ,-0.001200545436623742, ,0.0002665328668836288, ,1.0, ,0.3764359891168465, ,0.4748678598395951, ,0.0697740862431379
46, ,PASS, ,0.04087288, ,0.03188626060738158, ,-0.001135125970082243, ,0.00026945490800423606, ,1.0, ,0.3781238986643762, ,0.4752351992816473, ,0.07056998836758434
47, ,PASS, ,0.04110015, ,0.03200418859669744, ,-0.0011250480306524355, ,0.00027185726850116344, ,1.0, ,0.3784865863710355, ,0.474745413358911, ,0.06712107916164976
48, ,PASS, ,0.04165012, ,0.03321566573692766, ,-0.0012102745054182573, ,0.00028626214187763027, ,1.0, ,0.3816107069699077, ,0.4753372380155507, ,0.07528417787392094
49, ,PASS, ,0.04074494, ,0.031747794840528545, ,-0.0012016807636578838, ,0.0002674671582097517, ,1.0, ,0.3764143919056056, ,0.47494949082671784, ,0.067549641844044
50, ,PASS, ,0.04030899999999999, ,0.031613754941439885, ,-0.0011119794616436393, ,0.0002636688139215953, ,1.0, ,0.37902028728849657, ,0.47615354788677783, ,0.07563110956919246
51, ,PASS, ,0.040821949999999996, ,0.03187072363113074, ,-0.0011735285818656757, ,0.00026908307886606454, ,1.0, ,0.37732112603769136, ,0.47541886900267344, ,0.07148833697271484
52, ,PASS, ,0.040791690000000005, ,0.03198504381350349, ,-0.0012695334468684311, ,0.00026986818152727665, ,1.0, ,0.3761170049839818, ,0.47499030632027917, ,0.07677394338891043
53, ,PASS, ,0.04047969, ,0.031930092212517455, ,-0.0010987158804922344, ,0.0002673273413546405, ,1.0, ,0.38175667439496747, ,0.4747045978653497, ,0.07348829615722129
54, ,PASS, ,0.04114373, ,0.032075100085317096, ,-0.0010475108052896873, ,0.00027305612501317563, ,1.0, ,0.3800323375519554, ,0.47566376196404153, ,0.0671823024019918
55, ,PASS, ,0.040967439999999994, ,0.03229357937433058, ,-0.001192633155445807, ,0.00027377217643759287, ,1.0, ,0.37873221569479953, ,0.47574539295116425, ,0.07454949898981654
56, ,PASS, ,0.041278529999999994, ,0.03242375117558446, ,-0.0012014191736903327, ,0.0002769871778929157, ,1.0, ,0.37869317147413895, ,0.47492908307993714, ,0.07138629823881146
57, ,PASS, ,0.04125512, ,0.03264782000802729, ,-0.0011215931627925964, ,0.00027873607837405526, ,1.0, ,0.3811637360504658, ,0.4760923246464358, ,0.07014142568519009
58, ,PASS, ,0.04127632, ,0.03270919404451727, ,-0.001390411880573866, ,0.00027928638120392954, ,1.0, ,0.37529627954088973, ,0.4755413154833575, ,0.07769229199404094
59, ,PASS, ,0.0413603, ,0.03254624384565261, ,-0.0011780001169363892, ,0.00027835964934005346, ,1.0, ,0.3796601479342431, ,0.4747045978653497, ,0.06857002918307789
60, ,PASS, ,0.0416209, ,0.03251863874051256, ,-0.0011933995720495502, ,0.0002799365677399036, ,1.0, ,0.37751855470577533, ,0.47529642252198934, ,0.072365870084284
61, ,PASS, ,0.04156729000000001, ,0.032707602338205785, ,-0.001219685273157691, ,0.0002810350907988006, ,1.0, ,0.37835233105513616, ,0.47511275280096327, ,0.07597804126446399
62, ,PASS, ,0.04145064, ,0.03243512731293516, ,-0.0011264400361217118, ,0.0002781114370020546, ,1.0, ,0.3790149222781347, ,0.4755821309769188, ,0.0800391828738189
63, ,PASS, ,0.040902560000000004, ,0.032165115452701405, ,-0.0011916632783004427, ,0.00027198242234722716, ,1.0, ,0.3779159211493512, ,0.4757045774576029, ,0.07344748066365993
64, ,PASS, ,0.04103749, ,0.03210202276382597, ,-0.0010679980839166546, ,0.00027245006555413014, ,1.0, ,0.38019440650223435, ,0.4756229464704802, ,0.06799861227321892
65, ,PASS, ,0.04138768000000001, ,0.03218680925351527, ,-0.001123466483541152, ,0.000275541368931691, ,1.0, ,0.3773498703836674, ,0.4760719168996551, ,0.07597804126446399
66, ,PASS, ,0.04100767, ,0.031968775814564365, ,-0.0012072029789187975, ,0.000271111514187679, ,1.0, ,0.37583710723199615, ,0.4760311014060937, ,0.06722311789555316
67, ,PASS, ,0.04099497, ,0.032213583868339404, ,-0.0011444529503479518, ,0.00027303021914944637, ,1.0, ,0.3799537549444598, ,0.47466378237178836, ,0.0748556151915267
68, ,PASS, ,0.040905989999999996, ,0.03206110075545395, ,-0.0012795257241688944, ,0.00027127569054402254, ,1.0, ,0.37569289089795144, ,0.4753372380155507, ,0.07552907083528908
69, ,PASS, ,0.04151080000000001, ,0.03266244816939268, ,-0.001082595172955654, ,0.0002803030880929234, ,1.0, ,0.38116566278733255, ,0.4756433542172609, ,0.08046774555621314
70, ,PASS, ,0.04118192000000001, ,0.03233344759589875, ,-0.0012089337523724006, ,0.00027549531356396825, ,1.0, ,0.3775607143516461, ,0.47580661619150627, ,0.07640660394685823
71, ,PASS, ,0.04133827999999999, ,0.03245205153084426, ,-0.0012954799710209997, ,0.0002774797387247627, ,1.0, ,0.3758978574662431, ,0.4751739760413053, ,0.07465153772371992
72, ,PASS, ,0.04104476, ,0.03228895391534115, ,-0.0011068609854900915, ,0.000274094893448392, ,1.0, ,0.3806811556645194, ,0.4753372380155507, ,0.06744760311014061
73, ,PASS, ,0.041334220000000005, ,0.032515822473518065, ,-0.0011973355639680824, ,0.00027788805546079726, ,1.0, ,0.379191727231522, ,0.47452092814432356, ,0.07489643068508806
74, ,PASS, ,0.04160564, ,0.03264488722146729, ,-0.0009308365245607233, ,0.0002808739944806768, ,1.0, ,0.3848021437735043, ,0.47501071406705986, ,0.06932511581396299
75, ,PASS, ,0.04168634, ,0.03281826870688433, ,-0.001168860234893166, ,0.0002827617765193352, ,1.0, ,0.38019244636517563, ,0.47452092814432356, ,0.06522315871104671
76, ,PASS, ,0.04194194, ,0.033127174024491744, ,-0.0012007647943919513, ,0.00028722675010872824, ,1.0, ,0.3800227178293132, ,0.474684190118569, ,0.07644741944041958
77, ,PASS, ,0.04184475, ,0.03299999415886174, ,-0.0012408612605865192, ,0.00028536971969192454, ,1.0, ,0.3792031866343595, ,0.47427603518295547, ,0.07246790881818739
78, ,PASS, ,0.041931220000000005, ,0.03305327887256142, ,-0.0010780435870696523, ,0.0002864992386737485, ,1.0, ,0.38264154491541064, ,0.4747250056121304, ,0.06932511581396299
79, ,PASS, ,0.04198943999999999, ,0.03292935895862057, ,-0.0012450141554253998, ,0.00028574983115081676, ,1.0, ,0.37862903300267153, ,0.4733985020713863, ,0.062141588947164345
80, ,PASS, ,0.044009330000000006, ,0.03485175673896786, ,-0.001250085918042489, ,0.0003169509724331884, ,1.0, ,0.3807697259358765, ,0.4745005203975429, ,0.0704067263933389
81, ,PASS, ,0.09155606999999999, ,0.07922320005263979, ,0.0013190639925715819, ,0.0014997877558703754, ,1.0, ,0.4567563969962352, ,0.44872553621354666, ,0.12644639905308055
82, ,PASS, ,0.06581508999999999, ,0.05501136879032726, ,-0.0018934888998183694, ,0.0007509652974392858, ,1.0, ,0.38491386728693583, ,0.47417399644905206, ,0.12332401379563683
83, ,PASS, ,0.03765382999999999, ,0.029572193766579078, ,-0.0011229374322973009, ,0.00023021982852614378, ,1.0, ,0.3777782190341625, ,0.4747045978653497, ,0.07083528907573315
84, ,PASS, ,0.03652461, ,0.02868752084716861, ,-0.0011378647676578031, ,0.00021668839271256753, ,1.0, ,0.3767466528806762, ,0.47464337462500766, ,0.07434542152200975
85, ,PASS, ,0.03644645, ,0.028410572054786254, ,-0.0011790034901328543, ,0.00021389957877025813, ,1.0, ,0.37358486924377676, ,0.4748066365992531, ,0.06608028407583519
86, ,PASS, ,0.03628594, ,0.02830719703571784, ,-0.0010340368945531723, ,0.00021235445921245698, ,1.0, ,0.37829512030139945, ,0.47417399644905206, ,0.06622313830329993
87, ,PASS, ,0.036064, ,0.02827491600878619, ,-0.0010484907171282216, ,0.0002108440494217288, ,1.0, ,0.3789182073047941, ,0.47417399644905206, ,0.07459031448337788
88, ,PASS, ,0.03649038, ,0.028194940055466265, ,-0.0011473392716475175, ,0.0002126389825871392, ,1.0, ,0.3731042302095378, ,0.47427603518295547, ,0.06293749107161078
89, ,PASS, ,0.03619274, ,0.028279093655053877, ,-0.0010118014550723454, ,0.0002115079895678884, ,1.0, ,0.3787209736403177, ,0.4745005203975429, ,0.08393706250892839
90, ,PASS, ,0.036254060000000005, ,0.028360320035271787, ,-0.0011064297608212078, ,0.00021248264931095865, ,1.0, ,0.37612952779014397, ,0.47490867533315645, ,0.07740658353911145
91, ,PASS, ,0.036596619999999996, ,0.0288268949762587, ,-0.0012259309363074223, ,0.00021794594463592554, ,1.0, ,0.37544863023315517, ,0.47380665700699987, ,0.07424338278810637
92, ,PASS, ,0.03665813999999999, ,0.02908939243800854, ,-0.0011604900187751274, ,0.00022042003177129385, ,1.0, ,0.37891906535218245, ,0.4738882879941226, ,0.06416195587845146
93, ,PASS, ,0.03623235999999999, ,0.028265947164336405, ,-0.0010515240850186732, ,0.00021154722655763179, ,1.0, ,0.377131011442337, ,0.47456174363788495, ,0.07083528907573315
94, ,PASS, ,0.036116010000000004, ,0.027932329343748234, ,-0.001039265384175833, ,0.00020840038515099462, ,1.0, ,0.3757377262213439, ,0.4743576661700782, ,0.07530458562070162
95, ,PASS, ,0.03577956, ,0.027772143166817868, ,-0.0010526849352054035, ,0.00020528058078279302, ,1.0, ,0.37651326807114277, ,0.4736638027795351, ,0.06675373971959755
96, ,PASS, ,0.03607215, ,0.02763478773125218, ,-0.0011239317395563351, ,0.00020592346345457843, ,1.0, ,0.37152949107822153, ,0.4738882879941226, ,0.06538642068529214
97, ,PASS, ,0.0361191, ,0.028042812250143604, ,-0.0011019732695251117, ,0.00020924857050830326, ,1.0, ,0.3746042443528651, ,0.47464337462500766, ,0.07442705250913247
98, ,PASS, ,0.036005140000000005, ,0.027940779958358503, ,-0.0009833717446582717, ,0.00020783577018285656, ,1.0, ,0.3775058829917787, ,0.47482704434603373, ,0.07146792922593416
99, ,PASS, ,0.036220310000000006, ,0.028175709813909933, ,-0.0011578073953592781, ,0.00021094306464593848, ,1.0, ,0.37407245604916345, ,0.47415358870227137, ,0.06683537070672027
100, ,PASS, ,0.036409470000000006, ,0.02894555786241655, ,-0.001122141162833412, ,0.00021787068866645405, ,1.0, ,0.3800353228918306, ,0.4739495112344646, ,0.06183547274545417
101, ,PASS, ,0.035782610000000006, ,0.02764694712430861, ,-0.0011028154317258825, ,0.00020435700501903443, ,1.0, ,0.37332103211110934, ,0.47448011265076223, ,0.06642721577110672
102, ,PASS, ,0.03539699, ,0.027422567230089, ,-0.0010060913691557311, ,0.00020058700547555134, ,1.0, ,0.37695441018485315, ,0.4740311422215873, ,0.06667210873247485
103, ,PASS, ,0.03569965000000001, ,0.027420202776676617, ,-0.0010755901499969384, ,0.00020221643174368054, ,1.0, ,0.3729319472836818, ,0.47452092814432356, ,0.07271280177955552
104, ,PASS, ,0.03588997000000001, ,0.027508530472366913, ,-0.0010150720354686637, ,0.0002039053422765622, ,1.0, ,0.3743175894459445, ,0.4744188894104202, ,0.06730474888267586
105, ,PASS, ,0.03594465000000001, ,0.027414279989370818, ,-0.0011597859433480945, ,0.0002035163089901611, ,1.0, ,0.3692889854479081, ,0.4742964429297361, ,0.0597742903206057
106, ,PASS, ,0.03602673000000001, ,0.027618083307149783, ,-0.0010814559827350457, ,0.00020548174143828716, ,1.0, ,0.37239726115992267, ,0.47454133589110425, ,0.07959021244464398
107, ,PASS, ,0.036125660000000004, ,0.027726567704843018, ,-0.0009404867608824308, ,0.00020683738338780924, ,1.0, ,0.37699099115987594, ,0.47415358870227137, ,0.06942715454786637
108, ,PASS, ,0.03594849, ,0.027577448788083738, ,-0.0012178264766025178, ,0.00020465919002184775, ,1.0, ,0.36901427144578636, ,0.4740311422215873, ,0.06395787841064468
109, ,PASS, ,0.032151950000000006, ,0.0206680467540505, ,-0.0008731192196689857, ,0.00013714157460882135, ,1.0, ,0.3367723938566907, ,0.47372502601987715, ,0.04750923450541826
