Channel, ,Pass/Fail, ,Amplitude, ,Sorting Function Response, ,Mean, ,Variance, ,NPeaksRatio, ,PosIntegralRatio, ,ToT50, ,ToT99
0, ,PASS, ,0.03779276999999998, ,0.006059441178075073, ,0.032277571302014245, ,0.00023184352143554654, ,1.8333333333333333, ,0.7521526557406868, ,0.4154813167078223, ,0.06742719536335993
1, ,PASS, ,0.037219079999999995, ,0.005976621465502933, ,0.03196420552886676, ,0.0002251409730366693, ,1.75, ,0.7562832069022413, ,0.403399930613661, ,0.08107997795963348
2, ,PASS, ,0.037631099999999966, ,0.006178268932576119, ,0.03216499764453787, ,0.00023530599488121726, ,1.8333333333333333, ,0.7621218026268006, ,0.4183588090038979, ,0.07901879553478501
3, ,PASS, ,0.03739285999999997, ,0.005975454087987054, ,0.032099194149507154, ,0.00022600047904214573, ,1.75, ,0.7508003344528894, ,0.40607334544192975, ,0.07795759270218976
4, ,PASS, ,0.037338549999999984, ,0.006050515373112102, ,0.032287761187934944, ,0.00022857512515295081, ,1.75, ,0.7638566647017477, ,0.41074671945470503, ,0.07816167016999653
5, ,PASS, ,0.03733542999999999, ,0.00605215845635222, ,0.032069267616987404, ,0.0002288662901117882, ,1.8333333333333333, ,0.7574380319029745, ,0.4091753229525928, ,0.07395767433317688
6, ,PASS, ,0.03740805999999997, ,0.006026666108093908, ,0.031911763784208486, ,0.00022813045469361113, ,1.75, ,0.7548673244432643, ,0.40366523132180976, ,0.08016162935450297
7, ,PASS, ,0.037515299999999974, ,0.006031285236745927, ,0.03198061523336258, ,0.0002289374744627231, ,1.75, ,0.7548294343818622, ,0.402950960184486, ,0.07950858145752128
8, ,PASS, ,0.037286539999999986, ,0.006003973973722709, ,0.03194249065835391, ,0.00022640937608939534, ,1.75, ,0.7556578569923165, ,0.40360400808146774, ,0.07459031448337788
9, ,PASS, ,0.03742427999999999, ,0.006075338030447097, ,0.03223966511479357, ,0.0002299498533961393, ,1.9166666666666667, ,0.759128995622798, ,0.41413440542029756, ,0.07583518703699925
10, ,PASS, ,0.037641879999999975, ,0.006044562670057833, ,0.032765829071039365, ,0.00022998474990378097, ,1.9166666666666667, ,0.7562772644042173, ,0.4150935695189894, ,0.0677333115650701
11, ,PASS, ,0.03758139999999997, ,0.005983504524313865, ,0.03233596173833187, ,0.0002274815900313031, ,1.75, ,0.7508668843523529, ,0.4088283912573213, ,0.0768963898695945
12, ,PASS, ,0.03734567999999998, ,0.006022259778690168, ,0.032263173634823776, ,0.00022761555448638158, ,1.8333333333333333, ,0.7560347174399165, ,0.40952225464786435, ,0.07616171098549009
13, ,PASS, ,0.03758894999999998, ,0.0060889702654528975, ,0.03225990398134732, ,0.00023147506646767197, ,1.9166666666666667, ,0.758067339600262, ,0.41460378359625316, ,0.07669231240178771
14, ,PASS, ,0.03706814999999998, ,0.006040681246566872, ,0.032264977774535214, ,0.00022659336767309556, ,1.8333333333333333, ,0.7619499016439778, ,0.41109365114997654, ,0.08297789841023652
15, ,PASS, ,0.03737752999999998, ,0.005998488693779268, ,0.032257225851309156, ,0.0002268154055847566, ,1.75, ,0.7538836956092099, ,0.40529785106426397, ,0.07342707291687925
16, ,PASS, ,0.037019409999999975, ,0.006060870663910191, ,0.032181033281157526, ,0.00022722285537964395, ,1.8333333333333333, ,0.7631166921908396, ,0.413787473725026, ,0.08616150690802228
17, ,PASS, ,0.03717398999999998, ,0.006006344051707701, ,0.032275107348625535, ,0.0002259083303662135, ,1.8333333333333333, ,0.7561777082141182, ,0.40976714760923244, ,0.0737535968653701
18, ,PASS, ,0.03725461999999999, ,0.005945449698007808, ,0.03205508992857289, ,0.00022415460707717524, ,1.8333333333333333, ,0.7539082283330586, ,0.4066855778453501, ,0.07787596171506704
19, ,PASS, ,0.03745476999999998, ,0.005890416602340425, ,0.03218327137568621, ,0.00022281184960726557, ,1.8333333333333333, ,0.7530943156325506, ,0.4024407665149691, ,0.07691679761637518
20, ,PASS, ,0.03715869999999999, ,0.006004911899586479, ,0.03234309045488867, ,0.000225562855705339, ,1.9166666666666667, ,0.753808842208897, ,0.4145629681026918, ,0.06401910165098672
21, ,PASS, ,0.03691590999999998, ,0.005951766148000962, ,0.03201479519989388, ,0.00022220330055492527, ,1.8333333333333333, ,0.7558575974371892, ,0.4070529172874023, ,0.07759025326013755
22, ,PASS, ,0.03704588999999997, ,0.0060103413750135296, ,0.03212798773678088, ,0.00022531769990605916, ,1.8333333333333333, ,0.7576480044140559, ,0.41311401808126363, ,0.08097793922573009
23, ,PASS, ,0.03703290999999999, ,0.005960802968937763, ,0.032269507751882615, ,0.0002234589158105407, ,1.8333333333333333, ,0.7556493902994987, ,0.4090936919654701, ,0.0770800595906206
24, ,PASS, ,0.03720469999999998, ,0.006015899447625787, ,0.0325131974939287, ,0.00022615964262119218, ,1.9166666666666667, ,0.7565951880720164, ,0.41544050121426096, ,0.0776310687536989
25, ,PASS, ,0.03712243999999998, ,0.005993136555438338, ,0.03245169662598722, ,0.00022495668229342156, ,1.9166666666666667, ,0.7566029569249039, ,0.4153996857206996, ,0.0776310687536989
26, ,PASS, ,0.03691602999999999, ,0.005878090069193384, ,0.03209939632660558, ,0.0002195504505011042, ,1.8333333333333333, ,0.7548727697432158, ,0.4060121222015877, ,0.07556988632885044
27, ,PASS, ,0.03675538999999997, ,0.005956688230763186, ,0.03251394589008388, ,0.00022142448929460078, ,1.9166666666666667, ,0.7571148054977923, ,0.4151752005061121, ,0.07979428991245077
28, ,PASS, ,0.03667295999999999, ,0.005918983802694828, ,0.03242684261137528, ,0.00021949746156599203, ,1.9166666666666667, ,0.7559646668756876, ,0.41395073569927143, ,0.06779453480541213
29, ,PASS, ,0.03668606999999999, ,0.005917801289636205, ,0.03219213064570111, ,0.0002195170399252238, ,1.75, ,0.754301845954565, ,0.4058488602273423, ,0.07065161935470704
30, ,PASS, ,0.03750821999999998, ,0.006122170386597341, ,0.032274461697924535, ,0.00023178583381280822, ,1.8333333333333333, ,0.7603245524821329, ,0.4165833350339789, ,0.0796718434317667
31, ,PASS, ,0.03665117, ,0.005908403122751973, ,0.03239333013836452, ,0.00021883432183995443, ,1.9166666666666667, ,0.7550124465454122, ,0.415501724454603, ,0.07442705250913247
32, ,PASS, ,0.03657701999999998, ,0.005873331007791864, ,0.03250754575049489, ,0.00021708616722580987, ,1.9166666666666667, ,0.7551737444963803, ,0.4142568519009816, ,0.06716189465521112
33, ,PASS, ,0.036571539999999986, ,0.005853272412369258, ,0.03236680909512051, ,0.00021640991225909138, ,1.8333333333333333, ,0.757648037223414, ,0.4147058223301565, ,0.08026366808840636
34, ,PASS, ,0.03660350999999999, ,0.00585766183303032, ,0.032128404367870046, ,0.00021681251126220207, ,1.75, ,0.7523873608143387, ,0.4055223362788514, ,0.0769780208567172
35, ,PASS, ,0.03638430999999999, ,0.005860709639828334, ,0.032335674489908366, ,0.0002158830362545944, ,1.75, ,0.7534084206053305, ,0.40860390604273383, ,0.07446786800269382
36, ,PASS, ,0.03643428999999999, ,0.005845632652792335, ,0.03214534409971225, ,0.00021533004253579388, ,1.75, ,0.7534656505043678, ,0.4051345890900186, ,0.07083528907573315
37, ,PASS, ,0.03646431999999998, ,0.005893687714255067, ,0.0324994751543846, ,0.00021715010164836493, ,1.9166666666666667, ,0.7574797244447331, ,0.4155221322013836, ,0.07401889757351891
38, ,PASS, ,0.03765416999999999, ,0.006053105041403272, ,0.032190606601906084, ,0.00023017906459570645, ,1.9166666666666667, ,0.7551026258606706, ,0.407134548274525, ,0.07530458562070162
39, ,PASS, ,0.0364399, ,0.005891276753034255, ,0.03225063895818453, ,0.0002169264648393533, ,1.9166666666666667, ,0.7548792732309485, ,0.4097467398624518, ,0.07271280177955552
40, ,PASS, ,0.03641299999999997, ,0.005900638608409358, ,0.032377219717556784, ,0.00021715967623560871, ,1.9166666666666667, ,0.7575896183071237, ,0.4163996653129528, ,0.06895777637191078
41, ,PASS, ,0.03659746, ,0.005876530190266253, ,0.032085172008938595, ,0.00021747685016673752, ,1.75, ,0.7531519470052487, ,0.40615497642905246, ,0.07599844901124467
42, ,PASS, ,0.036452539999999985, ,0.00589498141839966, ,0.03246311882900349, ,0.0002171796253062687, ,1.9166666666666667, ,0.7547035416471872, ,0.41442011387522704, ,0.07330462643619517
43, ,PASS, ,0.03640928999999998, ,0.005878045809383321, ,0.031969887504336644, ,0.00021632671391150882, ,1.75, ,0.75436536148849, ,0.405869267974123, ,0.07534540111426298
44, ,PASS, ,0.036687539999999984, ,0.005859916285328875, ,0.032026121833431974, ,0.000217337136487462, ,1.75, ,0.7521860352772181, ,0.4058896757209037, ,0.07542703210138568
45, ,PASS, ,0.03667850000000001, ,0.0058821664784086646, ,0.032075105922532196, ,0.00021832305604891638, ,1.8333333333333333, ,0.7541489566824878, ,0.411950776514765, ,0.07416175180098365
46, ,PASS, ,0.036437609999999974, ,0.006017666845641772, ,0.03243113115936409, ,0.00022186011790899628, ,1.8333333333333333, ,0.7601618915711101, ,0.422215873145446, ,0.08169221036305381
47, ,PASS, ,0.03649512, ,0.005905774170710446, ,0.032055065039080836, ,0.0002179897307895142, ,1.8333333333333333, ,0.7566916304131116, ,0.41356298851043855, ,0.07873308707985552
48, ,PASS, ,0.036450599999999986, ,0.005866916444164039, ,0.03189003089712455, ,0.00021641418741874912, ,1.8333333333333333, ,0.7610676038945717, ,0.4017877186179874, ,0.07838615538458399
49, ,PASS, ,0.03642561999999998, ,0.005873925817273403, ,0.03221024156751903, ,0.0002165716266663826, ,1.8333333333333333, ,0.7556471328279271, ,0.40915491520581215, ,0.07987592089957347
50, ,PASS, ,0.036609479999999986, ,0.005935230114543055, ,0.03221434050529581, ,0.00021981512306982147, ,1.8333333333333333, ,0.7577333749582025, ,0.41652211179363685, ,0.07685557437603315
51, ,PASS, ,0.036598779999999984, ,0.005885150588675033, ,0.03211733570825085, ,0.00021796491302506833, ,1.8333333333333333, ,0.7541496818506154, ,0.4093794004203996, ,0.07622293422583212
52, ,PASS, ,0.03639596, ,0.0058890063040745125, ,0.032345340636109464, ,0.00021675353261547205, ,1.8333333333333333, ,0.7550217364881717, ,0.4150935695189894, ,0.06910063059937552
53, ,PASS, ,0.03630520999999999, ,0.005902847143228783, ,0.03230055642946063, ,0.00021643834573054142, ,1.9166666666666667, ,0.7585298244864659, ,0.41644048080651414, ,0.07534540111426298
54, ,PASS, ,0.036574999999999996, ,0.005908351781630613, ,0.0323552432460562, ,0.00021825738322119455, ,1.9166666666666667, ,0.7596785799993547, ,0.4179506540682843, ,0.0829983061570172
55, ,PASS, ,0.03637879999999999, ,0.005903432926342741, ,0.032226727452705044, ,0.00021738056079178444, ,1.8333333333333333, ,0.7584602682584697, ,0.4151547927593314, ,0.08020244484806432
56, ,PASS, ,0.03651430999999998, ,0.005854397526439439, ,0.03181859235423767, ,0.00021616115166102996, ,1.75, ,0.7512576320315979, ,0.40525703557070264, ,0.0704067263933389
57, ,PASS, ,0.03651816999999999, ,0.005863846781127467, ,0.031895199894900104, ,0.00021639853752052684, ,1.75, ,0.754382448643574, ,0.4075222954633579, ,0.07063121160792638
58, ,PASS, ,0.03645848999999998, ,0.0059309437763781945, ,0.032038806105385606, ,0.0002182577276450588, ,1.9166666666666667, ,0.7560678139526881, ,0.41533846248035755, ,0.07626374971939348
59, ,PASS, ,0.03621115, ,0.005888775007282416, ,0.03219040261035489, ,0.00021567337527756035, ,1.8333333333333333, ,0.7579352343478811, ,0.41164466031305486, ,0.08599824493377686
60, ,PASS, ,0.03682951999999999, ,0.006009964063849394, ,0.03233516995285811, ,0.00022403872235550232, ,1.8333333333333333, ,0.7554267680682981, ,0.42156282524846433, ,0.0691210383461562
61, ,PASS, ,0.036835509999999974, ,0.005891977221029201, ,0.0316937083235036, ,0.000219408992973798, ,1.75, ,0.7516460209632451, ,0.40529785106426397, ,0.06869247566376196
62, ,PASS, ,0.036647199999999984, ,0.005915259414115937, ,0.032008865434582964, ,0.00021923536485812055, ,1.8333333333333333, ,0.7566070904022645, ,0.4141752209138589, ,0.07263117079243281
63, ,PASS, ,0.03715218999999998, ,0.005874054392681089, ,0.031870944826023956, ,0.0002208024291538014, ,1.8333333333333333, ,0.7461575535990828, ,0.40542029754494807, ,0.06969245525601518
64, ,PASS, ,0.03683253999999999, ,0.0060014830550297665, ,0.03209983223750536, ,0.00022365503019910752, ,1.8333333333333333, ,0.7593889067140861, ,0.41654251954041754, ,0.07350870390400197
65, ,PASS, ,0.036896839999999986, ,0.005978478080898894, ,0.03222760667068019, ,0.00022295520860254599, ,1.9166666666666667, ,0.7581343730211498, ,0.4158486561498745, ,0.0753249933674823
66, ,PASS, ,0.03681474, ,0.006001599932144157, ,0.03208661896308239, ,0.00022315362718205607, ,1.9166666666666667, ,0.7589578647566103, ,0.4150731617722087, ,0.0812432399338789
67, ,PASS, ,0.03702280999999997, ,0.006086247700506646, ,0.032088238767168015, ,0.00022804955238481185, ,1.8333333333333333, ,0.7589527825428841, ,0.41895063366053753, ,0.08273300544886839
68, ,PASS, ,0.03717663999999998, ,0.005906044449219377, ,0.03184123013285443, ,0.0002218179994638754, ,1.9166666666666667, ,0.7549986558192678, ,0.4038080855492745, ,0.07312095671516908
69, ,PASS, ,0.03690602999999999, ,0.005986352353089141, ,0.0321129426003551, ,0.00022327659574773902, ,1.9166666666666667, ,0.7587865623957175, ,0.4158486561498745, ,0.07638619620007756
70, ,PASS, ,0.03773388999999999, ,0.005946351977289344, ,0.03145707840921614, ,0.00022674231346481936, ,1.9166666666666667, ,0.7497717951540804, ,0.3998285749270423, ,0.07022305667231281
71, ,PASS, ,0.06048030900000001, ,0.008969957145148987, ,0.03195250737495153, ,0.0005436288158537454, ,1.75, ,0.7148731430102685, ,0.43280749372461785, ,0.08710026325993347
72, ,PASS, ,0.09354272000000002, ,0.012988049275183985, ,0.030392605397849024, ,0.0012129551807335294, ,1.6666666666666667, ,0.6756433368268283, ,0.4362768106773331, ,0.07877390257341686
73, ,PASS, ,0.033780519999999994, ,0.005459083554952361, ,0.03215569454868268, ,0.00018647417596549096, ,1.8333333333333333, ,0.7558220542777738, ,0.4126038244117467, ,0.06969245525601518
74, ,PASS, ,0.03201150000000001, ,0.00515621615109016, ,0.032406613789922656, ,0.00016695140123376326, ,1.8333333333333333, ,0.7582887203713142, ,0.41411399767351686, ,0.07175363768086365
75, ,PASS, ,0.03179427000000001, ,0.005035300371346309, ,0.032520449569600623, ,0.00016199830470269613, ,1.75, ,0.7515532016888999, ,0.4122364849696945, ,0.060468153711148755
76, ,PASS, ,0.03153574000000001, ,0.005061453591118764, ,0.032337419188996144, ,0.00016164208916260705, ,1.75, ,0.753446250448789, ,0.4072569947552091, ,0.0682026897410257
77, ,PASS, ,0.031387800000000014, ,0.00511479621662022, ,0.032490373104834595, ,0.00016267109181259168, ,1.8333333333333333, ,0.7606141181614942, ,0.41360380400399993, ,0.08361053856043754
78, ,PASS, ,0.031670040000000024, ,0.005124099894272275, ,0.03254633545172548, ,0.0001642909742131263, ,1.9166666666666667, ,0.7578890020250767, ,0.4105018264933369, ,0.07503928491255281
79, ,PASS, ,0.031594950000000024, ,0.005223786190324887, ,0.03277408563274219, ,0.0001672056899401333, ,1.8333333333333333, ,0.7642007534418838, ,0.4242362400767331, ,0.08618191465480296
80, ,PASS, ,0.03153082000000002, ,0.005054849944953335, ,0.032378142803616256, ,0.00016162210575749124, ,1.8333333333333333, ,0.7590620460646179, ,0.4071141405277443, ,0.07442705250913247
81, ,PASS, ,0.03177727000000001, ,0.0051227463358742825, ,0.03256330546682721, ,0.00016462171178926926, ,1.9166666666666667, ,0.7588251032259365, ,0.412522193424624, ,0.0779167772086284
82, ,PASS, ,0.031632880000000016, ,0.005107812239050962, ,0.03223231385543152, ,0.00016365168566709722, ,1.75, ,0.7579914742527741, ,0.40619579192261385, ,0.0781004469296545
83, ,PASS, ,0.03180626000000002, ,0.005160214180082333, ,0.03229596367380258, ,0.0001660052461116052, ,1.9166666666666667, ,0.7618003371567664, ,0.4138486969653681, ,0.07614130323870942
84, ,PASS, ,0.03189126000000002, ,0.005177646334144915, ,0.03242128928368809, ,0.0001670897943885945, ,1.9166666666666667, ,0.7604203471313014, ,0.41364461949756126, ,0.08442684843166466
85, ,PASS, ,0.032052040000000025, ,0.005210323769943452, ,0.032445661272218936, ,0.00016890317787987417, ,1.8333333333333333, ,0.7594371297595746, ,0.4134201342829738, ,0.07003938695128671
86, ,PASS, ,0.03197207000000002, ,0.005113893128330434, ,0.03236061092079753, ,0.000165367075626361, ,1.8333333333333333, ,0.7571197443183998, ,0.4039917552703006, ,0.07936572723005653
87, ,PASS, ,0.0326398, ,0.005292145465159826, ,0.03259411559172262, ,0.00017461320600560968, ,1.9166666666666667, ,0.7589200737446548, ,0.41523642374645414, ,0.07812085467643518
88, ,PASS, ,0.031848310000000005, ,0.0051364526319646175, ,0.032341970742229754, ,0.00016555785874099453, ,1.8333333333333333, ,0.7569100624662497, ,0.4124201546907206, ,0.0689373686251301
89, ,PASS, ,0.03187325000000002, ,0.005145670429456087, ,0.032399018941042024, ,0.00016599747648512423, ,1.9166666666666667, ,0.7569851320368117, ,0.41395073569927143, ,0.06408032489132875
90, ,PASS, ,0.03149256000000001, ,0.0050897705741625955, ,0.03226297632844228, ,0.0001623959473009887, ,1.8333333333333333, ,0.7576225280566157, ,0.4106446807208016, ,0.07520254688679823
91, ,PASS, ,0.031458750000000014, ,0.00506981676594679, ,0.03230976545070509, ,0.00016157974407535888, ,1.8333333333333333, ,0.7569564242934732, ,0.40952225464786435, ,0.07518213914001755
92, ,PASS, ,0.03142519000000001, ,0.005090914984826126, ,0.03245918140731822, ,0.000161860686127261, ,1.8333333333333333, ,0.7557079153218988, ,0.41450174486234975, ,0.07463112997693924
93, ,PASS, ,0.031466740000000014, ,0.005095572014060524, ,0.032454058730229995, ,0.00016253480112645528, ,1.8333333333333333, ,0.758693963706235, ,0.4162159955919267, ,0.06952919328176976
94, ,PASS, ,0.03145645, ,0.005015506288281439, ,0.03246509394604192, ,0.00015983126551839474, ,1.8333333333333333, ,0.7575869346494549, ,0.410114079304504, ,0.07752903001979551
95, ,PASS, ,0.03217057000000001, ,0.0052332687908248614, ,0.032484606621701606, ,0.00017023090081300115, ,1.9166666666666667, ,0.7592464816258778, ,0.41493030754474397, ,0.0779167772086284
96, ,PASS, ,0.03116662000000002, ,0.005057528412123796, ,0.03250500838860432, ,0.00015942358904518801, ,1.9166666666666667, ,0.7604349655410603, ,0.4130527948409216, ,0.07871267933307484
97, ,PASS, ,0.030978250000000016, ,0.004983479862866869, ,0.032263379740821614, ,0.0001563992752236244, ,1.75, ,0.755766852442751, ,0.40627742290973656, ,0.06179465725189282
98, ,PASS, ,0.03048293000000002, ,0.004981826970240927, ,0.03243999217240465, ,0.00015374772800247875, ,1.8333333333333333, ,0.7628995590449402, ,0.4126650476520887, ,0.07748821452623415
99, ,PASS, ,0.030700330000000012, ,0.004946227918534039, ,0.03244913668190445, ,0.0001539092626431239, ,1.8333333333333333, ,0.757314481793105, ,0.4100732638109426, ,0.0721822003632579
100, ,PASS, ,0.03084591000000001, ,0.004951210979027567, ,0.03255919126058652, ,0.0001545566034509956, ,1.8333333333333333, ,0.7537072128361394, ,0.4123181159568172, ,0.07177404542764433
101, ,PASS, ,0.030736150000000025, ,0.0049616767595905735, ,0.032218777186383954, ,0.00015457130053891482, ,1.8333333333333333, ,0.7579076069426788, ,0.40942021591396094, ,0.07622293422583212
102, ,PASS, ,0.03085753, ,0.004982688583832167, ,0.03244501811167119, ,0.0001556480976554285, ,1.9166666666666667, ,0.7541714417560939, ,0.410114079304504, ,0.06724352564233382
103, ,PASS, ,0.031076759999999995, ,0.00495021684018548, ,0.03223146488010449, ,0.0001557123142661179, ,1.75, ,0.7545833396972015, ,0.3996244974592355, ,0.07648823493398094
104, ,PASS, ,0.03156279000000001, ,0.005165613201770167, ,0.03249599936001306, ,0.00016516884949653227, ,1.8333333333333333, ,0.7589193488918382, ,0.4193791963429318, ,0.06871288341054264
105, ,PASS, ,0.031935330000000005, ,0.005132673597242213, ,0.03248519718352687, ,0.0001659958457863592, ,1.8333333333333333, ,0.758515351922517, ,0.4130732025877023, ,0.07101895879675925
106, ,PASS, ,0.032525910000000005, ,0.005267709077781472, ,0.03248774797371482, ,0.0001732247796063541, ,1.9166666666666667, ,0.7602291879672786, ,0.413154833574825, ,0.07805963143609314
107, ,PASS, ,0.03290341000000001, ,0.0053154614333183765, ,0.032214148578600436, ,0.00017699898242587905, ,1.8333333333333333, ,0.7583011048874547, ,0.41031815677231076, ,0.07765147650047959
108, ,PASS, ,0.033530649999999995, ,0.005419931685688719, ,0.03265355877043326, ,0.00018357228564974023, ,1.9166666666666667, ,0.7575174632834126, ,0.4139711434460521, ,0.07503928491255281
109, ,PASS, ,0.03489845999999999, ,0.005642200739897109, ,0.032575407121487314, ,0.00019851896805611223, ,1.8333333333333333, ,0.7573150256351675, ,0.4197261280382033, ,0.08603906042733822
