Channel, ,Pass/Fail, ,Amplitude, ,Sorting Function Response, ,Mean, ,Variance, ,NPeaksRatio, ,PosIntegralRatio, ,ToT50, ,ToT99
60, ,PASS, ,0.028723960000000024, ,0.004216849781463513, ,0.036129188369216955, ,0.00012298910650153822, ,1.9166666666666667, ,0.7663276810683339, ,0.5439276749454093, ,0.047019448582681984
61, ,PASS, ,0.052353321, ,0.007943227322284257, ,0.036747024590926713, ,0.0004205545311161788, ,1.9166666666666667, ,0.7730362437057944, ,0.5387645150098977, ,0.0756107018224118
62, ,PASS, ,0.04879990099999999, ,0.007213236266598733, ,0.03687501251321401, ,0.00035631211441226993, ,1.9166666666666667, ,0.7677333742252911, ,0.5400706108038611, ,0.07589641027734127
63, ,PASS, ,0.025554380000000022, ,0.003422278227225353, ,0.0359985107626375, ,8.890231751333357e-05, ,1.9166666666666667, ,0.7465516767307426, ,0.54635619681231, ,0.0789371645476623
64, ,PASS, ,0.030308160000000008, ,0.004391067420077295, ,0.03623087349686741, ,0.00013540079660141015, ,2.0, ,0.772611387155381, ,0.5458051876492317, ,0.06824350523458705
65, ,PASS, ,0.055229853999999974, ,0.008086663266847533, ,0.037191722713822165, ,0.00045282996823326534, ,1.9166666666666667, ,0.7683359302613805, ,0.5417644537866574, ,0.07440664476235179
66, ,PASS, ,0.050962139999999996, ,0.007281707780476244, ,0.03726029618048611, ,0.000376733931527772, ,1.9166666666666667, ,0.7635731355859523, ,0.5440909369196547, ,0.07385563559927348
67, ,PASS, ,0.02515511000000002, ,0.0031993683717388005, ,0.03628121575090304, ,8.217929105568221e-05, ,1.8333333333333333, ,0.731425826669422, ,0.548886757413114, ,0.04777453521356707
68, ,PASS, ,0.03319182999999999, ,0.005136145202963735, ,0.036316725540499174, ,0.0001733227502214696, ,2.0, ,0.790381668334256, ,0.5445194996020489, ,0.06738637986979858
69, ,PASS, ,0.060289138000000006, ,0.009253936948080497, ,0.037114062948837775, ,0.0005638512964130144, ,1.9166666666666667, ,0.7763651262231287, ,0.5377237199240832, ,0.06475378053509112
70, ,PASS, ,0.055991165999999974, ,0.008375466992370881, ,0.037072224543172584, ,0.0004749699858944115, ,1.9166666666666667, ,0.7724929405265418, ,0.5414379298381665, ,0.07183526866798637
71, ,PASS, ,0.030322219999999983, ,0.004211420295353451, ,0.036381741131201406, ,0.00013010510122034763, ,1.8333333333333333, ,0.7587302777126579, ,0.54635619681231, ,0.07530458562070162
72, ,PASS, ,0.03292462, ,0.005042772609253942, ,0.03631866793881758, ,0.00016843817673570027, ,2.0, ,0.7828915379810859, ,0.5448460235505398, ,0.051407114140527746
73, ,PASS, ,0.06089785100000001, ,0.009498252858989926, ,0.03725612911260995, ,0.0005848766861211458, ,1.9166666666666667, ,0.7817082683678921, ,0.5391726699455113, ,0.08097793922573009
74, ,PASS, ,0.05712483099999999, ,0.0085368639159359, ,0.03712420617803718, ,0.0004938716421284717, ,1.9166666666666667, ,0.772802923093421, ,0.5401318340442032, ,0.07759025326013755
75, ,PASS, ,0.029160790000000006, ,0.003944553781644297, ,0.03652884995775597, ,0.00011724934466891989, ,1.8333333333333333, ,0.753832251141653, ,0.5487439031856493, ,0.08840635905389686
76, ,PASS, ,0.03314645, ,0.005062762717316048, ,0.03633139707414135, ,0.00017068732155525395, ,2.0, ,0.7897381225195328, ,0.5465194587865554, ,0.07908001877512703
77, ,PASS, ,0.061847474999999985, ,0.00958411769346105, ,0.03717217975753556, ,0.0005993511940029579, ,1.9166666666666667, ,0.7799653751539402, ,0.5385400297953103, ,0.07771269974082162
78, ,PASS, ,0.05755021600000001, ,0.008547451170507824, ,0.03720868543499112, ,0.0004979777905139976, ,1.9166666666666667, ,0.7698744654586898, ,0.5392134854390727, ,0.07546784759494704
79, ,PASS, ,0.028771890000000015, ,0.0037842359970969458, ,0.036464132581171815, ,0.00011125912929934914, ,1.8333333333333333, ,0.743711799651636, ,0.5517846574559703, ,0.07277402501989755
80, ,PASS, ,0.039795789999999984, ,0.0068342142513122765, ,0.03632048514438481, ,0.00027498931368819636, ,1.9166666666666667, ,0.8084865748338986, ,0.5394175629068795, ,0.08454929491234872
81, ,PASS, ,0.07277009540000004, ,0.012550515762444956, ,0.03698551213213608, ,0.0009201144901312939, ,1.9166666666666667, ,0.799540291616208, ,0.5328666761902818, ,0.11448745943960327
82, ,PASS, ,0.0707587572, ,0.011377771475724033, ,0.03700714065274178, ,0.0008122938531833349, ,1.9166666666666667, ,0.7818751983305096, ,0.5333972776065795, ,0.07852900961204873
83, ,PASS, ,0.043630540000000016, ,0.006453004183899862, ,0.03672853734923777, ,0.00028508975310404005, ,1.9166666666666667, ,0.7684619502703689, ,0.5412950756107018, ,0.07710046733740128
84, ,PASS, ,0.040011429999999994, ,0.006755586108827471, ,0.036245306615783346, ,0.0002733868420565025, ,1.9166666666666667, ,0.8048420245690958, ,0.5384175833146262, ,0.08407991673639313
85, ,PASS, ,0.07274733129999998, ,0.012395723207866716, ,0.03691359563947878, ,0.0009088486395339792, ,1.9166666666666667, ,0.797446103245907, ,0.5329483071774045, ,0.10907940654272362
86, ,PASS, ,0.06974153789999998, ,0.01111634411091954, ,0.03708509280361625, ,0.0007821803013636023, ,1.9166666666666667, ,0.7822172397976705, ,0.533866655782535, ,0.08644721536295177
87, ,PASS, ,0.04257407999999999, ,0.006181381618114667, ,0.03678084999510214, ,0.0002666877950647907, ,1.9166666666666667, ,0.7651493649888748, ,0.5437440052243832, ,0.08159017162915043
88, ,PASS, ,0.039159019999999975, ,0.006769222685821965, ,0.0361725522389339, ,0.00026781943655223537, ,1.9166666666666667, ,0.8088042275076758, ,0.5379686128854513, ,0.08122283218709822
89, ,PASS, ,0.07277040969999998, ,0.012633408438909586, ,0.03677269774986633, ,0.0009261429993176882, ,1.8333333333333333, ,0.8004455541636593, ,0.5296830676924961, ,0.1146507214138487
90, ,PASS, ,0.069843624, ,0.011380198316502553, ,0.03701587723352584, ,0.000801601349375433, ,1.9166666666666667, ,0.7863983453151071, ,0.5336421705679476, ,0.08934511540580804
91, ,PASS, ,0.04105223, ,0.006034746052629252, ,0.03661144546948022, ,0.0002508702873320823, ,1.9166666666666667, ,0.7680629956756135, ,0.542172608722271, ,0.07854941735882941
92, ,PASS, ,0.036132670000000006, ,0.006198791414291652, ,0.03622077347686782, ,0.00022649942648539487, ,1.9166666666666667, ,0.8076774960267379, ,0.5393563396665374, ,0.08722270974061754
93, ,PASS, ,0.06846337589999997, ,0.011830084511167462, ,0.03676288441272627, ,0.0008159164686427262, ,1.8333333333333333, ,0.8001308442826613, ,0.5319279198383706, ,0.11138548192894022
94, ,PASS, ,0.0665419846, ,0.010888355497630698, ,0.03697967690651211, ,0.0007308158058050277, ,1.9166666666666667, ,0.787659886078044, ,0.5346625579069815, ,0.09134507459031449
95, ,PASS, ,0.037161329999999985, ,0.005481142377123767, ,0.03650260158364115, ,0.0002063438366142096, ,1.9166666666666667, ,0.7647644620380989, ,0.5424175016836391, ,0.06136609456949858
96, ,PASS, ,0.03506215000000003, ,0.0060181396349139, ,0.036100247126385175, ,0.00021333220206140387, ,1.9166666666666667, ,0.8081742533095729, ,0.5397236791085896, ,0.09165119079202465
97, ,PASS, ,0.06804138209999998, ,0.011817229453818984, ,0.03664752162394645, ,0.000809706640365946, ,1.8333333333333333, ,0.7988793520080492, ,0.5305606008040652, ,0.12128323911756902
98, ,PASS, ,0.06538072699999999, ,0.010711740026583162, ,0.036928425574845415, ,0.0007059391422489106, ,1.9166666666666667, ,0.7853237084459114, ,0.5337646170486317, ,0.0834676843329728
99, ,PASS, ,0.03616383000000001, ,0.005402006331206398, ,0.0364219378680027, ,0.00019773875232213635, ,1.9166666666666667, ,0.7723489731669346, ,0.5417236382930961, ,0.08565131323850533
100, ,PASS, ,0.03346710999999998, ,0.005770507953762055, ,0.03591369665394584, ,0.00019510086091433879, ,1.9166666666666667, ,0.8110736277616672, ,0.5383971755678456, ,0.11256913124221955
101, ,PASS, ,0.06834663249999998, ,0.011898601764936989, ,0.03640550334513581, ,0.0008181958238125319, ,1.75, ,0.7990232871791655, ,0.5284994183792168, ,0.12507908001877513
102, ,PASS, ,0.064825503, ,0.010602794048521448, ,0.03672128605422338, ,0.000693017890415235, ,1.9166666666666667, ,0.7867727335469323, ,0.532091181812616, ,0.09393685843146059
103, ,PASS, ,0.0325777, ,0.004820939625063747, ,0.036226060074692354, ,0.0001588742437986485, ,1.9166666666666667, ,0.7682711839675552, ,0.5400706108038611, ,0.07887594130732026
198, ,PASS, ,0.028151996999999974, ,0.0025712021657300923, ,0.036112661576702516, ,8.154106857914215e-05, ,1.8333333333333333, ,0.7523977348290058, ,0.5656415175200507, ,0.0013265035407440664
199, ,FAIL, ,0.021500240000000007, ,0.0018198452008991962, ,0.035786856543744, ,4.418607964305197e-05, ,1.8333333333333333, ,0.7078793595399403, ,0.5632742188934919, ,0.0014081345278667782
200, ,PASS, ,0.03581885000000001, ,0.004358511733869404, ,0.03687713915511929, ,0.00017295300256024482, ,1.9166666666666667, ,0.8141930797149494, ,0.5638864512969123, ,0.022203628497377604
201, ,PASS, ,0.07231019699999999, ,0.009640764624755375, ,0.038960017211730376, ,0.0007477830688152015, ,1.8333333333333333, ,0.8799139907688782, ,0.5668047590865493, ,0.0538560437542091
202, ,PASS, ,0.08677867, ,0.010915830996607128, ,0.03976466640637946, ,0.001016125266941671, ,1.8333333333333333, ,0.8773361505647475, ,0.5692128732066692, ,0.053488704312156896
203, ,PASS, ,0.07781662500000001, ,0.010288335271274297, ,0.03932055409499806, ,0.0008610689215251825, ,1.8333333333333333, ,0.8833077812534289, ,0.5679271851594866, ,0.060468153711148755
204, ,PASS, ,0.09295588999999999, ,0.01094268382929361, ,0.040141632591947106, ,0.001089351706042721, ,1.8333333333333333, ,0.8756487087140276, ,0.5712536478847371, ,0.0561621191404257
205, ,PASS, ,0.09917855000000002, ,0.012285029418625786, ,0.04043926182457501, ,0.0012918503012623733, ,1.8333333333333333, ,0.8807029057352023, ,0.569478173914818, ,0.059243688904308076
206, ,PASS, ,0.10535619999999994, ,0.012053472072949349, ,0.04083964920068978, ,0.001354041475673116, ,1.8333333333333333, ,0.8778886170436301, ,0.5738250239791025, ,0.05995796004163181
207, ,PASS, ,0.11012712000000002, ,0.013211011674263336, ,0.04111527547852085, ,0.0015409795289231506, ,1.8333333333333333, ,0.8818249287284405, ,0.5720495500091834, ,0.060468153711148755
208, ,PASS, ,0.08407487000000001, ,0.010228024914894896, ,0.039673479544111344, ,0.0009217209145123449, ,1.8333333333333333, ,0.8720648054325041, ,0.569355727434134, ,0.051917307810044694
209, ,PASS, ,0.07736731, ,0.00983194503127925, ,0.03929417788918593, ,0.0008150392700770457, ,1.8333333333333333, ,0.8748862552091705, ,0.5681924858676354, ,0.0538560437542091
210, ,PASS, ,0.07337170299999998, ,0.00930697289572664, ,0.03911858077692292, ,0.0007361028634808458, ,1.8333333333333333, ,0.8692270675953292, ,0.5680904471337319, ,0.04985612538519622
211, ,PASS, ,0.08338951, ,0.010965561072514689, ,0.03966294573065856, ,0.000981061131657691, ,1.8333333333333333, ,0.8717210017645228, ,0.5677026999448991, ,0.05259076345380707
212, ,PASS, ,0.08135406899999999, ,0.01145416945566428, ,0.03960475087808412, ,0.000993873516533321, ,1.8333333333333333, ,0.8839148532488409, ,0.5668047590865493, ,0.0616313952776474
213, ,PASS, ,0.09352784999999995, ,0.013664252531827884, ,0.04029125661235485, ,0.0013575707659117726, ,1.8333333333333333, ,0.8870987514703017, ,0.565866002734638, ,0.06879451439766536
214, ,PASS, ,0.04636851600000001, ,0.006024852066008245, ,0.03754749880206527, ,0.0003047057273977446, ,1.9166666666666667, ,0.8317400377280119, ,0.5658455949878574, ,0.03289728781045285
215, ,PASS, ,0.028296580000000026, ,0.0028474639313599407, ,0.036324764113793595, ,9.034391908548324e-05, ,1.9166666666666667, ,0.7524875179239612, ,0.5652741780779984, ,0.0035101324462766064
216, ,PASS, ,0.02935506599999999, ,0.0026928078972961495, ,0.036194506022734226, ,8.895700897542692e-05, ,1.9166666666666667, ,0.758686071344402, ,0.5652537703312177, ,0.001122426072937287
