Channel, ,Pass/Fail, ,Amplitude, ,Sorting Function Response, ,Mean, ,Variance, ,NPeaksRatio, ,PosIntegralRatio, ,ToT50, ,ToT99
0, ,PASS, ,0.03799644000000003, ,0.006488310997599264, ,0.03955542613048713, ,0.000248623600661669, ,1.9166666666666667, ,0.8005670132670956, ,0.5123977061692618, ,0.07505969265933349
1, ,PASS, ,0.035932699999999984, ,0.005827555985293625, ,0.039080619914899695, ,0.00021122755055125167, ,1.9166666666666667, ,0.7730404638084537, ,0.5092957286585988, ,0.05995796004163181
2, ,PASS, ,0.03604879999999999, ,0.0058981389389917375, ,0.03910672500234689, ,0.0002143493835022212, ,1.9166666666666667, ,0.7762006826222863, ,0.5097242913409931, ,0.0585702332605457
3, ,PASS, ,0.03590259999999999, ,0.005879877277854836, ,0.039018010690189994, ,0.00021288961312503676, ,1.9166666666666667, ,0.7768898660913909, ,0.5101324462766066, ,0.06034570723046469
4, ,PASS, ,0.03584896999999998, ,0.005863348413368237, ,0.039273736369665926, ,0.0002119066652845432, ,1.9166666666666667, ,0.7812172924860598, ,0.5112548723495439, ,0.06542723617885349
5, ,PASS, ,0.03604502, ,0.005911980096792384, ,0.03901972793596049, ,0.0002148553819056232, ,1.9166666666666667, ,0.777516570841599, ,0.5103161159976327, ,0.060529376951490785
6, ,PASS, ,0.03606292, ,0.005894536268010199, ,0.03918760080182037, ,0.00021421458424572085, ,1.9166666666666667, ,0.7790185812644216, ,0.5107650864268076, ,0.06193751147935756
7, ,PASS, ,0.03593046000000001, ,0.005907133555236968, ,0.038957044892349135, ,0.0002139303074346258, ,1.9166666666666667, ,0.7802170113212602, ,0.5103773392379747, ,0.0656109058998796
8, ,PASS, ,0.03570208, ,0.005904419161894239, ,0.03942752335666619, ,0.00021248565479275975, ,1.9166666666666667, ,0.7839302166149812, ,0.511377318830228, ,0.06371298544927655
9, ,PASS, ,0.035855139999999994, ,0.005855692207401371, ,0.039345626719250626, ,0.00021156688768571758, ,1.9166666666666667, ,0.7807488155796537, ,0.5111120181220792, ,0.06461092630762638
10, ,PASS, ,0.03570291000000001, ,0.00590039773386265, ,0.03919390111712006, ,0.00021227583677519305, ,1.9166666666666667, ,0.7852956062819798, ,0.5114589498173506, ,0.06436603334625823
11, ,PASS, ,0.03565544999999999, ,0.005865801467102065, ,0.03921746642048121, ,0.00021066952030212574, ,1.9166666666666667, ,0.7846031020924477, ,0.5118058815126222, ,0.06195791922613824
12, ,PASS, ,0.03580314999999999, ,0.005850287788163268, ,0.039257176385788045, ,0.00021091683936074558, ,1.9166666666666667, ,0.7828926091274965, ,0.5123160751821392, ,0.06261096712311993
13, ,PASS, ,0.03585763999999997, ,0.0058733182316240825, ,0.039359098232280974, ,0.00021231654305490475, ,1.9166666666666667, ,0.7794686176812117, ,0.5119487357400869, ,0.06330483051366298
14, ,PASS, ,0.03587064999999999, ,0.005870587447855078, ,0.0391532542903206, ,0.00021218135001199444, ,1.9166666666666667, ,0.776219425513077, ,0.5114385420705699, ,0.05052958102895859
15, ,PASS, ,0.03593151, ,0.0058480980783323965, ,0.03930719881145282, ,0.00021166583195288832, ,1.9166666666666667, ,0.7786846655753447, ,0.5124997449031652, ,0.056407012101793844
16, ,PASS, ,0.035289389999999976, ,0.005828162357787384, ,0.039419084439501234, ,0.00020721101434159457, ,1.9166666666666667, ,0.7846284399351792, ,0.5128874920919981, ,0.07071284259504908
17, ,PASS, ,0.03535465999999998, ,0.00578749461815167, ,0.03931953385155405, ,0.00020625646086796823, ,1.9166666666666667, ,0.7787703573606533, ,0.5124997449031652, ,0.06112120160813045
18, ,PASS, ,0.035273729999999996, ,0.005803324205573675, ,0.0391401138311463, ,0.00020634111318166537, ,1.9166666666666667, ,0.7818882081762566, ,0.5122956674353585, ,0.059345727638211464
19, ,PASS, ,0.03488572000000001, ,0.005736595099701508, ,0.03912372443460338, ,0.00020153059711138934, ,1.9166666666666667, ,0.7819055539445613, ,0.5124181139160425, ,0.06542723617885349
20, ,PASS, ,0.035010280000000005, ,0.005702713094313903, ,0.03922343248627579, ,0.0002012594627001131, ,1.9166666666666667, ,0.7758261337957975, ,0.5116222117915961, ,0.05906001918328197
21, ,PASS, ,0.034859660000000015, ,0.00571246283029319, ,0.03920190020530193, ,0.00020055104387553709, ,1.9166666666666667, ,0.7810570074743838, ,0.5129283075855595, ,0.06552927491275688
22, ,PASS, ,0.03489445, ,0.0057205444995107385, ,0.03923037253402992, ,0.00020105665662769213, ,1.9166666666666667, ,0.7785638949523193, ,0.5117854737658415, ,0.05703965225199486
23, ,PASS, ,0.03506689, ,0.005713441067252988, ,0.03911659711577315, ,0.00020196386350916016, ,1.9166666666666667, ,0.7768491998054871, ,0.5128058611048754, ,0.05789677761678333
24, ,PASS, ,0.034689290000000025, ,0.005733997860380823, ,0.03927342381686088, ,0.00020038714589435484, ,1.9166666666666667, ,0.7841261617310205, ,0.5126834146241913, ,0.060447745964368076
25, ,PASS, ,0.034997980000000026, ,0.005730405681636633, ,0.03919834929103488, ,0.00020191063298118884, ,1.9166666666666667, ,0.7818893539161569, ,0.5131527928001469, ,0.06195791922613824
26, ,PASS, ,0.03506917000000001, ,0.005723185975981354, ,0.03921149273769923, ,0.000202310184741907, ,1.9166666666666667, ,0.7776692173072789, ,0.5128670843452174, ,0.06193751147935756
27, ,PASS, ,0.03475607000000002, ,0.005688068879258627, ,0.03926159599171445, ,0.0001990299973718341, ,1.9166666666666667, ,0.782128921970011, ,0.5134180935082957, ,0.05573355645803147
28, ,PASS, ,0.03481360000000003, ,0.005712726169168979, ,0.039075433632783006, ,0.00020033880422710027, ,1.9166666666666667, ,0.779658866657315, ,0.5128874920919981, ,0.060835493153200956
29, ,PASS, ,0.034522080000000004, ,0.005703037600471164, ,0.039189032643211365, ,0.0001983506473467194, ,1.9166666666666667, ,0.7829702904765192, ,0.5126630068774106, ,0.06834554396849044
30, ,PASS, ,0.03443574000000002, ,0.005644662469798747, ,0.03931134378114732, ,0.00019586005174023044, ,1.9166666666666667, ,0.7799363506996063, ,0.5124997449031652, ,0.06105997836778841
31, ,PASS, ,0.03435981000000001, ,0.005605193542146499, ,0.03919803432521785, ,0.00019397543408777862, ,1.9166666666666667, ,0.7763038764375, ,0.51264259913063, ,0.056366196608232486
32, ,PASS, ,0.03512770999999999, ,0.005651804509118942, ,0.03944655400624477, ,0.00019983153470193033, ,1.9166666666666667, ,0.7750251125188173, ,0.5134997244954185, ,0.0595906205995796
33, ,PASS, ,0.03484097000000001, ,0.005786661633591833, ,0.039387918929205526, ,0.00020295118221027358, ,1.9166666666666667, ,0.7879350683139947, ,0.5136629864696639, ,0.061753841758331464
34, ,PASS, ,0.034444000000000016, ,0.0056459356120508435, ,0.03929819922185261, ,0.00019581271558080573, ,1.9166666666666667, ,0.7829343594692386, ,0.5136221709761025, ,0.06710067141486908
35, ,PASS, ,0.03451189000000002, ,0.005650194804406961, ,0.039345619077978, ,0.00019631527811305756, ,1.9166666666666667, ,0.7750259835444607, ,0.5118262892594029, ,0.056753943797065366
36, ,PASS, ,0.03458841000000001, ,0.005613686513805296, ,0.039361889740209384, ,0.0001955405571622981, ,1.9166666666666667, ,0.7749039694721989, ,0.5129283075855595, ,0.05634578886145181
37, ,PASS, ,0.03439963000000001, ,0.00566185157972505, ,0.039225878020040406, ,0.00019622279049537157, ,1.9166666666666667, ,0.7815694460914547, ,0.5129078998387788, ,0.06916185383971755
38, ,PASS, ,0.03472387000000003, ,0.005636350216989855, ,0.03928551865472133, ,0.0001971342236360487, ,1.9166666666666667, ,0.7774587861617321, ,0.5131527928001469, ,0.057202914226240284
39, ,PASS, ,0.03450924000000001, ,0.0056447919637875165, ,0.03941242624844391, ,0.00019620506331465432, ,1.9166666666666667, ,0.7815961468786001, ,0.5131527928001469, ,0.06020285300299994
40, ,PASS, ,0.03470687000000001, ,0.005757418788582477, ,0.0390820569278178, ,0.00020119576635001046, ,1.9166666666666667, ,0.7872099061904094, ,0.5134385012550764, ,0.06177424950511214
41, ,PASS, ,0.03521754999999999, ,0.005846943886731377, ,0.03942697453378502, ,0.00020737562729057258, ,1.9166666666666667, ,0.7902676282720718, ,0.514540519581233, ,0.06697822493418501
42, ,PASS, ,0.034819020000000006, ,0.005744067273311851, ,0.03898115879124916, ,0.00020155425197514445, ,1.9166666666666667, ,0.7839981738100503, ,0.5131527928001469, ,0.07077406583539111
43, ,PASS, ,0.03472458000000001, ,0.005758671087790248, ,0.03917985779780004, ,0.00020133944806411194, ,1.9166666666666667, ,0.7870352066605293, ,0.5131323850533662, ,0.06844758270239383
44, ,PASS, ,0.034879690000000005, ,0.005739104673369873, ,0.039020789697965345, ,0.00020168317109826406, ,1.9166666666666667, ,0.7815111335241893, ,0.513214016040489, ,0.06648843901144874
45, ,PASS, ,0.03475156000000001, ,0.00571046706968391, ,0.03911398244790922, ,0.00019986329598013831, ,1.9166666666666667, ,0.7844958814846565, ,0.5138874716842513, ,0.06424358686557417
46, ,PASS, ,0.03438475999999997, ,0.00567439987983593, ,0.038907717935960484, ,0.00019658834768120512, ,1.9166666666666667, ,0.7845373014235556, ,0.5129691230791208, ,0.06589661435480909
47, ,PASS, ,0.03435977999999998, ,0.0056432370494557465, ,0.038922382999734696, ,0.0001950802018690653, ,1.9166666666666667, ,0.7849636561029749, ,0.5128670843452174, ,0.06240688965531316
48, ,PASS, ,0.03407036000000001, ,0.005555397156188974, ,0.03912108266953736, ,0.00019071119321566212, ,1.9166666666666667, ,0.7757315082649601, ,0.5118466970061836, ,0.05532540152241791
49, ,PASS, ,0.03399481999999997, ,0.00556521796142028, ,0.03883691228730026, ,0.0001906437171218383, ,1.9166666666666667, ,0.7804601679855945, ,0.5121732209546744, ,0.05948858186567621
50, ,PASS, ,0.03390643, ,0.005522191269106125, ,0.0390586120342442, ,0.0001885331951382854, ,1.9166666666666667, ,0.7747436477130205, ,0.5115201730576927, ,0.05908042693006265
51, ,PASS, ,0.03384869999999999, ,0.005486094410371529, ,0.03904296378441256, ,0.0001869427531888683, ,1.9166666666666667, ,0.7770813808688788, ,0.512193628701455, ,0.05706005999877554
52, ,PASS, ,0.03387366, ,0.005533285780707868, ,0.039090239101855065, ,0.00018880093406006823, ,1.9166666666666667, ,0.7785710601100542, ,0.511377318830228, ,0.06348850023468909
53, ,PASS, ,0.03397744, ,0.005536864028660222, ,0.03893462078263709, ,0.00018949255430695982, ,1.9166666666666667, ,0.777967090187301, ,0.5117242505254995, ,0.06469255729474908
54, ,PASS, ,0.03392908999999998, ,0.00552406241571744, ,0.03912793759331442, ,0.00018864753815867698, ,1.9166666666666667, ,0.7783590311466172, ,0.5128874920919981, ,0.05571314871125079
55, ,PASS, ,0.03387506999999998, ,0.005545834264120013, ,0.03905728087079855, ,0.00018920706826985404, ,1.9166666666666667, ,0.7791326721101862, ,0.5122548519417971, ,0.05995796004163181
56, ,PASS, ,0.034115279999999984, ,0.00556325615409771, ,0.03908334832003428, ,0.00019112942841846274, ,1.9166666666666667, ,0.7785563537039477, ,0.5124385216628232, ,0.06279463684414603
57, ,PASS, ,0.034031549999999994, ,0.005538848675958021, ,0.039047555204383584, ,0.00018984360947885929, ,1.9166666666666667, ,0.7783793929608901, ,0.5124997449031652, ,0.06138650231627926
58, ,PASS, ,0.033822370000000004, ,0.005593447816187509, ,0.03917123845350095, ,0.00019053271560716197, ,1.9166666666666667, ,0.7846064399644143, ,0.5120303667272097, ,0.060039591028754516
59, ,PASS, ,0.03370817999999998, ,0.005615274892220978, ,0.039093692931164666, ,0.00019053473065352143, ,1.9166666666666667, ,0.7883094871388089, ,0.5123772984224811, ,0.06805983551356094
60, ,PASS, ,0.034302820000000026, ,0.005591156033682709, ,0.03916878878390237, ,0.0001931527800008913, ,1.9166666666666667, ,0.779037660220942, ,0.5120507744739903, ,0.0594069508785535
61, ,PASS, ,0.03426701, ,0.005602407780795581, ,0.03908969817350666, ,0.000193308110641374, ,1.9166666666666667, ,0.7787930956849926, ,0.512132405461113, ,0.05826411705883553
62, ,PASS, ,0.03391047, ,0.005614020559670635, ,0.03898904702720352, ,0.00019176171181984776, ,1.9166666666666667, ,0.7859606297107153, ,0.5130303463194629, ,0.07140670598559214
63, ,PASS, ,0.03393753999999998, ,0.0055519468559307, ,0.03910194521826085, ,0.0001898146621556744, ,1.9166666666666667, ,0.7793733032828216, ,0.5125201526499459, ,0.055100916307830455
64, ,PASS, ,0.033671909999999985, ,0.005543355404342512, ,0.03918039124650517, ,0.00018794667967839544, ,1.9166666666666667, ,0.7821384860036843, ,0.5136425787228832, ,0.05775392338931858
65, ,PASS, ,0.03386509999999999, ,0.005501529819770046, ,0.03904158139262464, ,0.00018766037851281764, ,1.9166666666666667, ,0.7734566275820379, ,0.512193628701455, ,0.05473357686577825
66, ,PASS, ,0.033801549999999986, ,0.005504081463903142, ,0.038882567376992305, ,0.0001873995311690718, ,1.9166666666666667, ,0.7772367079518759, ,0.5121732209546744, ,0.06257015162955858
67, ,PASS, ,0.033628329999999984, ,0.005506767924482854, ,0.03885690975673965, ,0.00018657354236566748, ,1.9166666666666667, ,0.7805270873608153, ,0.5119079202465255, ,0.06465174180118773
68, ,PASS, ,0.034134819999999996, ,0.0055526307884205435, ,0.03913273227505561, ,0.00019097978465085346, ,1.9166666666666667, ,0.774825318013695, ,0.5114793575641313, ,0.0604273382175874
69, ,PASS, ,0.03404384999999997, ,0.005509189804656743, ,0.0389623989728781, ,0.0001889232000023204, ,1.9166666666666667, ,0.7720812321439041, ,0.5114385420705699, ,0.05701924450521418
70, ,PASS, ,0.03397354999999999, ,0.005554008963800786, ,0.03894376244199098, ,0.00018997979629317775, ,1.9166666666666667, ,0.7823371771270337, ,0.5122344441950164, ,0.06665170098569417
71, ,PASS, ,0.03402606999999999, ,0.005554317319904282, ,0.038943017235566625, ,0.00019048596558264602, ,1.9166666666666667, ,0.778456101681663, ,0.512071182220771, ,0.05754984592151181
72, ,PASS, ,0.034602759999999996, ,0.005599031338157579, ,0.03906599238219628, ,0.00019519116292226378, ,1.9166666666666667, ,0.7745197030618096, ,0.5118262892594029, ,0.06573335238056366
73, ,PASS, ,0.03625860999999998, ,0.0059169365527876805, ,0.039033923872778105, ,0.00021592900574327875, ,1.9166666666666667, ,0.777982192058177, ,0.5123160751821392, ,0.05206016203750944
74, ,PASS, ,0.09212563700000002, ,0.015004836570958427, ,0.04270983318882097, ,0.0013923458534652114, ,1.8333333333333333, ,0.7961790985984795, ,0.5303973388298198, ,0.19760821207730456
75, ,PASS, ,0.04177924, ,0.006946801025206381, ,0.039694545415399685, ,0.0002922710024504676, ,1.9166666666666667, ,0.7946722781743892, ,0.5183975837227812, ,0.07965143568498602
76, ,PASS, ,0.03292859999999999, ,0.005528812387127374, ,0.039199597171894446, ,0.0001832871066892943, ,1.9166666666666667, ,0.7942528394592, ,0.5137446174567866, ,0.06950878553498908
77, ,PASS, ,0.03274523999999999, ,0.005428027429331544, ,0.03903337573069937, ,0.00017897502725164712, ,1.9166666666666667, ,0.7935937640046741, ,0.5144384808473297, ,0.06936593130752433
78, ,PASS, ,0.03260125999999998, ,0.005381973165478009, ,0.03929037086896186, ,0.00017670212069875634, ,1.9166666666666667, ,0.7852696948392988, ,0.5136221709761025, ,0.0642231791187935
79, ,PASS, ,0.032209679999999984, ,0.005355287376114979, ,0.03919334483296259, ,0.00017368182348260483, ,1.9166666666666667, ,0.7894820671922251, ,0.5142752188730842, ,0.07154956021305688
80, ,PASS, ,0.032614239999999975, ,0.005368177434752627, ,0.03902594348584723, ,0.0001763730284256947, ,1.9166666666666667, ,0.7825861013018636, ,0.5136425787228832, ,0.06240688965531316
81, ,PASS, ,0.03222396999999999, ,0.0053560434792532426, ,0.039094554596028654, ,0.00017377182469577486, ,1.9166666666666667, ,0.7883433151417472, ,0.51384665619069, ,0.07140670598559214
82, ,PASS, ,0.03219422999999998, ,0.005343830147298541, ,0.03905902008999816, ,0.00017326182374654907, ,1.9166666666666667, ,0.7886943288882295, ,0.5140507336584967, ,0.06365176220893451
83, ,PASS, ,0.03238632999999999, ,0.005370712592646253, ,0.03901056920838351, ,0.00017505452485869723, ,1.9166666666666667, ,0.7890957897326383, ,0.5144997040876716, ,0.07185567641476705
84, ,PASS, ,0.032515029999999986, ,0.005399842876820079, ,0.03909755699618375, ,0.0001767574897342252, ,1.9166666666666667, ,0.7872444859572761, ,0.5143976653537683, ,0.0688353298912267
85, ,PASS, ,0.03264667999999999, ,0.005444917245601691, ,0.039024363671149566, ,0.0001788227600891498, ,1.9166666666666667, ,0.7893670501677384, ,0.5135609477357604, ,0.06983530948347993
86, ,PASS, ,0.032662, ,0.005405224488152097, ,0.039138656855778456, ,0.00017760719681270178, ,1.9166666666666667, ,0.7911350459118269, ,0.5160302850962225, ,0.07203934613579314
87, ,PASS, ,0.03254904999999999, ,0.005452482960182665, ,0.039099533574416846, ,0.00017860161778308114, ,1.9166666666666667, ,0.790457610229493, ,0.5148874512765046, ,0.05618252688720638
88, ,PASS, ,0.032607489999999996, ,0.005428360199622552, ,0.03920614723005653, ,0.00017811356716654168, ,1.9166666666666667, ,0.7901762249041089, ,0.5157649843880737, ,0.06840676720883247
89, ,PASS, ,0.03288808999999998, ,0.00543650764550921, ,0.03919099517173119, ,0.00017981459563592723, ,1.9166666666666667, ,0.7881176055817415, ,0.515744576641293, ,0.060876308646762314
90, ,PASS, ,0.03264779000000001, ,0.0054930697082817385, ,0.039002450866717005, ,0.0001804233157688194, ,1.9166666666666667, ,0.7939380049905891, ,0.515234382971776, ,0.07628415746617416
91, ,PASS, ,0.03281144999999999, ,0.005471545961871929, ,0.03927162749311239, ,0.00018057202822488458, ,1.9166666666666667, ,0.79180578670421, ,0.51625477031081, ,0.06361094671537315
92, ,PASS, ,0.033041390000000004, ,0.005532506405524599, ,0.03919126699312259, ,0.00018395104085286643, ,1.9166666666666667, ,0.7923344581558419, ,0.5155200914267056, ,0.07593722577090263
93, ,PASS, ,0.03295678, ,0.005468911665499601, ,0.03927332629150425, ,0.0001813291661617866, ,1.9166666666666667, ,0.7934674204168668, ,0.516826187220669, ,0.06679455521315891
94, ,PASS, ,0.03286917, ,0.005469482770903572, ,0.03934782000306116, ,0.00018097771294722014, ,1.9166666666666667, ,0.7915165730580157, ,0.5166017020060815, ,0.07187608416154773
95, ,PASS, ,0.032385029999999974, ,0.005419638230091587, ,0.03905035847513316, ,0.00017665176989237614, ,1.9166666666666667, ,0.7953427517014933, ,0.5164180322850555, ,0.07910042652190771
96, ,PASS, ,0.032650570000000004, ,0.005411406369757789, ,0.03920886513867064, ,0.00017780712274591398, ,1.9166666666666667, ,0.789586890065364, ,0.5158466153751964, ,0.06508030448358197
97, ,PASS, ,0.03235892999999998, ,0.005348369131262501, ,0.039284766160078366, ,0.0001742520106511458, ,1.9166666666666667, ,0.7854169879533401, ,0.5156425379073897, ,0.07175363768086365
98, ,PASS, ,0.03228807999999998, ,0.005322658135276159, ,0.03904526236872717, ,0.00017272586819535403, ,1.9166666666666667, ,0.7926847466173814, ,0.5169078182077916, ,0.0781004469296545
99, ,PASS, ,0.03233603, ,0.005369137957907795, ,0.03903744321095488, ,0.0001746259114026507, ,1.9166666666666667, ,0.7892652225441846, ,0.5153364217056795, ,0.0649578580028979
100, ,PASS, ,0.032264589999999996, ,0.005328011945414165, ,0.03908598424583172, ,0.0001730173299623691, ,1.9166666666666667, ,0.7870098641823924, ,0.5155200914267056, ,0.05671312830350401
101, ,PASS, ,0.032566540000000005, ,0.00540595924722691, ,0.03923220748474521, ,0.00017717323410536658, ,1.9166666666666667, ,0.7881710845812657, ,0.5153364217056795, ,0.06601906083549315
102, ,PASS, ,0.032614279999999995, ,0.005382301460612503, ,0.03909838199220424, ,0.00017652853025994944, ,1.9166666666666667, ,0.7872635644976828, ,0.5154384604395829, ,0.06952919328176976
103, ,PASS, ,0.03287497, ,0.005434982702708664, ,0.03910674757494745, ,0.00017987097806329506, ,1.9166666666666667, ,0.7870093628702384, ,0.5155609069202669, ,0.07203934613579314
104, ,PASS, ,0.03344879999999998, ,0.005439890660636981, ,0.039200014798881654, ,0.00018299424867660192, ,1.9166666666666667, ,0.7845552406921399, ,0.5158262076284158, ,0.06759045733760535
105, ,PASS, ,0.03389406999999999, ,0.0055688292132550065, ,0.03913330075998449, ,0.00018998667072355038, ,1.9166666666666667, ,0.784485025439864, ,0.5160302850962225, ,0.06059060019183282
106, ,PASS, ,0.03427917, ,0.005667290584298149, ,0.03930687492398114, ,0.0001955704346745044, ,1.9166666666666667, ,0.7862151555107996, ,0.5155609069202669, ,0.06516193547070467
107, ,PASS, ,0.034501180000000006, ,0.005727827728612205, ,0.03921618797861268, ,0.0001989017496375611, ,1.9166666666666667, ,0.7924469622559612, ,0.5169078182077916, ,0.0706108038611457
108, ,PASS, ,0.03464125000000001, ,0.005824814502466852, ,0.03935179764412971, ,0.00020293398368803202, ,1.9166666666666667, ,0.7988118627380831, ,0.5169690414481337, ,0.08916144568478195
