Channel, ,Pass/Fail, ,Amplitude, ,Sorting Function Response, ,Mean, ,Variance, ,NPeaksRatio, ,PosIntegralRatio, ,ToT50, ,ToT99
38, ,PASS, ,0.05587150599999999, ,0.008723639943358452, ,0.03664276703975429, ,0.0004885341871440566, ,1.75, ,0.7293870780339442, ,0.5485602334646231, ,0.12942593008305953
39, ,PASS, ,0.09162172700000003, ,0.01186898054807003, ,0.036233227376420894, ,0.001084007913917676, ,1.6666666666666667, ,0.6389258094961402, ,0.5320299585722741, ,0.04342768514928267
40, ,PASS, ,0.08322954399999999, ,0.011395587617218539, ,0.03562607655270301, ,0.0009469206840504223, ,1.75, ,0.6574298397677073, ,0.5295402134650313, ,0.06818228199424502
41, ,PASS, ,0.039574879999999986, ,0.0063081515083467585, ,0.0363430221111814, ,0.00025031166183773335, ,1.75, ,0.7494428993325952, ,0.5551927511683435, ,0.12765045611314055
42, ,PASS, ,0.06061195299999998, ,0.008608387042440524, ,0.03623343124607661, ,0.0005220632676241631, ,1.75, ,0.6849502268766247, ,0.5436827819840412, ,0.051264259913063
43, ,PASS, ,0.09960530000000001, ,0.012148355474517354, ,0.035548117520254684, ,0.0012058298271096753, ,1.5833333333333333, ,0.6133304758241942, ,0.5269076141303238, ,0.03161159976327014
44, ,PASS, ,0.09124636300000002, ,0.011518688231135707, ,0.03561827845054183, ,0.0010478264756274413, ,1.5833333333333333, ,0.6260543506150383, ,0.5280912634436032, ,0.03893798085753352
45, ,PASS, ,0.04353018000000003, ,0.006336079601474984, ,0.03616970589314504, ,0.00027619080806181873, ,1.75, ,0.7017727820014428, ,0.5464990510397747, ,0.08507989632864635
46, ,PASS, ,0.05982281200000002, ,0.008539905016510058, ,0.036136327115120104, ,0.0005113348612851401, ,1.75, ,0.6859473651244536, ,0.5434174812758923, ,0.056386604355013165
47, ,PASS, ,0.09924142000000002, ,0.011795403799768197, ,0.03536971851288749, ,0.0011663425300127365, ,1.5833333333333333, ,0.6012359578724489, ,0.5246627619844493, ,0.026938225750494888
48, ,PASS, ,0.09233389900000002, ,0.01120957032587355, ,0.03537029068978184, ,0.0010314649360593493, ,1.5833333333333333, ,0.6099438325378912, ,0.5253566253749924, ,0.03048917369033285
49, ,PASS, ,0.04354649000000003, ,0.006307727090529638, ,0.03583893627966776, ,0.00027470593617028293, ,1.75, ,0.6895305518009209, ,0.5448052080569784, ,0.0794881737107406
50, ,PASS, ,0.059382274000000033, ,0.008799219994390843, ,0.03633882642797086, ,0.0005234480696019388, ,1.75, ,0.7053237228690014, ,0.5472541376706598, ,0.06679455521315891
51, ,PASS, ,0.10032866000000004, ,0.011906511022264085, ,0.03477390585865594, ,0.0011916435498360053, ,1.6666666666666667, ,0.5970402211994044, ,0.51866288443093, ,0.026468847574539295
52, ,PASS, ,0.09272258500000002, ,0.01139802418766164, ,0.035094382576927, ,0.0010539599263925145, ,1.6666666666666667, ,0.6138107609934695, ,0.5213567070059795, ,0.031734046243954206
53, ,PASS, ,0.041075799999999996, ,0.006109182203176668, ,0.03590583721454664, ,0.00025126016814776985, ,1.75, ,0.7050133240468234, ,0.548192894022571, ,0.08381461602824432
54, ,PASS, ,0.06771254864, ,0.00934697540722874, ,0.03605199539294096, ,0.0006337495459281894, ,1.75, ,0.6723672873104307, ,0.5416828227995347, ,0.03873390338972674
55, ,PASS, ,0.10658917000000001, ,0.012367463391371392, ,0.03478668579559601, ,0.0013139237282100823, ,1.6666666666666667, ,0.5869627946487336, ,0.5207036591089977, ,0.022877084141139977
56, ,PASS, ,0.09945032000000002, ,0.011613816723415448, ,0.03453921977061693, ,0.0011522077854202854, ,1.6666666666666667, ,0.5900944055403236, ,0.5167037407399849, ,0.02653007081488133
57, ,PASS, ,0.047316104000000025, ,0.006467718632877145, ,0.03603135613130345, ,0.0003057228837363856, ,1.75, ,0.6664342297834681, ,0.5467439440011428, ,0.050611212016081306
58, ,PASS, ,0.06719728003000001, ,0.009301719963842965, ,0.036497933780305095, ,0.0006248957476839595, ,1.75, ,0.6741171334964321, ,0.5490908348809208, ,0.04359094712352809
59, ,PASS, ,0.10548014000000003, ,0.012045269915497972, ,0.035042515144588886, ,0.001267618463525547, ,1.5833333333333333, ,0.583934044724126, ,0.5190302238729821, ,0.02375461725270913
60, ,PASS, ,0.09888649000000001, ,0.011432138549796057, ,0.034456593617273115, ,0.0011277643977065433, ,1.6666666666666667, ,0.5853083541728177, ,0.5145609273280137, ,0.024897451072427093
61, ,PASS, ,0.046213770000000015, ,0.006381499095419308, ,0.036032073579926945, ,0.00029497254114651297, ,1.75, ,0.6727130400495185, ,0.5470092447092917, ,0.06869247566376196
62, ,PASS, ,0.06627295896999998, ,0.009397638643079291, ,0.03621485846915777, ,0.0006236949335132481, ,1.75, ,0.684474080281289, ,0.5424991326707618, ,0.04030529989183894
63, ,PASS, ,0.10606856000000003, ,0.012155503042938496, ,0.034399902226281094, ,0.0012861010735911978, ,1.6666666666666667, ,0.5815740329715487, ,0.5153160139588988, ,0.022203628497377604
64, ,PASS, ,0.09939111, ,0.011647125173928461, ,0.034806595523560746, ,0.0011546637254137221, ,1.5833333333333333, ,0.5911992681246605, ,0.5193363400746923, ,0.024081141201199977
65, ,PASS, ,0.043905550000000015, ,0.006344919087971084, ,0.0358117256027428, ,0.0002787912146816541, ,1.75, ,0.6891122927915356, ,0.5460704883573805, ,0.07369237362502806
66, ,PASS, ,0.07503478100000001, ,0.009717342093533334, ,0.03589973056179813, ,0.0007292692984695551, ,1.75, ,0.6436276712409161, ,0.5394787861472214, ,0.025101528540233873
67, ,PASS, ,0.11293796, ,0.012456446856805341, ,0.03409301232974837, ,0.0014034067913700973, ,1.5833333333333333, ,0.5678405540085716, ,0.5122752596885778, ,0.019999591845064387
68, ,PASS, ,0.10522154000000003, ,0.01161006514131401, ,0.034152832317503726, ,0.0012184735573924023, ,1.5833333333333333, ,0.5694980809384425, ,0.5102548927572906, ,0.021856696802106078
69, ,PASS, ,0.052468071, ,0.006935463873086411, ,0.035677828720842436, ,0.00036370817107818235, ,1.75, ,0.6482031922099895, ,0.5390706312116079, ,0.04179506540682843
70, ,PASS, ,0.07147120959, ,0.009232739192607578, ,0.03671026775824004, ,0.0006588294064999065, ,1.75, ,0.6537818787329243, ,0.5477031080998347, ,0.027448419420011836
71, ,PASS, ,0.11030300999999998, ,0.012200021895255812, ,0.03406528948899002, ,0.0013425802074166823, ,1.5833333333333333, ,0.5678789081387792, ,0.5120303667272097, ,0.021019979184098283
72, ,PASS, ,0.10254469000000005, ,0.011491188056865007, ,0.033745486174567865, ,0.00117579344134045, ,1.6666666666666667, ,0.5720649756924735, ,0.5092957286585988, ,0.02257096793942981
73, ,PASS, ,0.04880908299999999, ,0.006625896052822855, ,0.035929031601926495, ,0.00032336631224006844, ,1.75, ,0.6644877881898129, ,0.5426419868982265, ,0.05136629864696639
74, ,PASS, ,0.06950022435, ,0.00926218747125796, ,0.03613366944696741, ,0.0006441881488214537, ,1.75, ,0.6580648886601003, ,0.5435399277565764, ,0.030632027917797598
75, ,FAIL, ,0.00787189, ,0.0004016367804226797, ,0.03522373115630292, ,3.4090709242772086e-06, ,1.4166666666666667, ,0.40136664531526856, ,0.5972939327768821, ,0.019734291136915574
76, ,PASS, ,0.10184628000000004, ,0.011458021124536812, ,0.0342055830468766, ,0.001164087203187123, ,1.5833333333333333, ,0.574212884939108, ,0.5120915899675517, ,0.021509765106834555
77, ,PASS, ,0.04614043800000003, ,0.00658471732957161, ,0.03591350821024061, ,0.0003041181174034578, ,1.75, ,0.6840782920562521, ,0.549396951082631, ,0.06103957062100773
78, ,PASS, ,0.08295458200000001, ,0.010574191731592948, ,0.036144432791636906, ,0.0008773820753381139, ,1.75, ,0.6376084256908979, ,0.5409481439154303, ,0.024101548947980653
79, ,PASS, ,0.11790119999999998, ,0.012843591965826092, ,0.03402831311258954, ,0.0015105969974223386, ,1.6666666666666667, ,0.5652343096594461, ,0.5112140568559825, ,0.019734291136915574
80, ,PASS, ,0.11066883999999999, ,0.012229358907508698, ,0.03383906486785984, ,0.0013499467153158088, ,1.6666666666666667, ,0.5665875764758337, ,0.5094998061264056, ,0.021264872145466417
81, ,PASS, ,0.05589792599999999, ,0.007475035521376777, ,0.03540677897514336, ,0.0004182182026869981, ,1.75, ,0.6485338364328819, ,0.5381522826064774, ,0.039570621007734536
82, ,PASS, ,0.077875017, ,0.010244369284234492, ,0.036213877501904045, ,0.0007986095500808795, ,1.75, ,0.6520242631425283, ,0.5429685108467174, ,0.02873410746719455
83, ,PASS, ,0.11429696000000002, ,0.012651553857479424, ,0.03459288755209078, ,0.0014413316772189549, ,1.6666666666666667, ,0.5704759610061786, ,0.5165404787657395, ,0.019795514377257607
84, ,PASS, ,0.10790525000000004, ,0.01201602227196366, ,0.03452773395726618, ,0.0012935471508621016, ,1.6666666666666667, ,0.5721071728612331, ,0.5142956266198649, ,0.022979122875043365
85, ,PASS, ,0.05015997399999999, ,0.006949657932347243, ,0.036203218915001736, ,0.00034843304511591794, ,1.75, ,0.6771734259280305, ,0.5517030264688476, ,0.04410114079304504
86, ,PASS, ,0.07950745000000001, ,0.010352544343652867, ,0.03641426875214792, ,0.0008238845867339672, ,1.75, ,0.6478525055741226, ,0.5443562376278035, ,0.024795412338523705
87, ,PASS, ,0.11757084999999996, ,0.012906321024552303, ,0.03392070705720292, ,0.0015143290103300912, ,1.6666666666666667, ,0.5642713495420866, ,0.5110507948817371, ,0.019815922124038286
88, ,PASS, ,0.10984392000000003, ,0.012196766810910836, ,0.03386223654456032, ,0.0013367355846467257, ,1.6666666666666667, ,0.5697258299946282, ,0.5104181547315361, ,0.022040366523132182
89, ,PASS, ,0.051608634, ,0.0070549038196729, ,0.03591754274406645, ,0.0003644208826604832, ,1.75, ,0.6678275085376385, ,0.5464378277994326, ,0.039978775943348095
90, ,PASS, ,0.07006837315, ,0.009498353043180158, ,0.03654210891226403, ,0.0006664105781260589, ,1.75, ,0.668695319368233, ,0.5489887961470175, ,0.030836105385604374
91, ,PASS, ,0.10841901000000001, ,0.012172981063674043, ,0.03427813653802984, ,0.0013168269565927147, ,1.6666666666666667, ,0.5745275237646459, ,0.5141731801391808, ,0.02077508622273015
92, ,PASS, ,0.10214039000000005, ,0.011667196925827268, ,0.03430047781392217, ,0.0011885179245503632, ,1.6666666666666667, ,0.5802819665740371, ,0.5138874716842513, ,0.024183179935103365
93, ,PASS, ,0.048987617, ,0.007149503839098377, ,0.036265835469684295, ,0.0003507484026215741, ,1.75, ,0.7000512978508915, ,0.5506826391298136, ,0.06118242484847248
198, ,PASS, ,0.1997999999999999, ,0.0421165888774074, ,0.053263589935715526, ,0.008778409168547862, ,1.8333333333333333, ,0.960136735821287, ,0.6031713638497174, ,0.54756025387237
199, ,PASS, ,0.15250747, ,0.019238745856582442, ,0.04810434945774577, ,0.0030380826074510215, ,1.9166666666666667, ,0.8902346821803179, ,0.6285790085916614, ,0.11756902920348564
200, ,PASS, ,0.13100351000000002, ,0.01595865586666071, ,0.04586026166768026, ,0.00214941139277733, ,1.9166666666666667, ,0.8827134251863618, ,0.6208444725617844, ,0.09632456480479991
201, ,PASS, ,0.12505768000000003, ,0.015683491576773904, ,0.04552311101402012, ,0.002027157342878977, ,2.0, ,0.883049266032231, ,0.6207628415746618, ,0.10328360645701108
202, ,PASS, ,0.1128046, ,0.014291465439685873, ,0.04411226947519438, ,0.0016658731979028972, ,1.9166666666666667, ,0.8806010899789222, ,0.614599702046897, ,0.08612069141446092
203, ,PASS, ,0.09940381, ,0.012846487353945698, ,0.042996452184588065, ,0.0013215085452517, ,1.9166666666666667, ,0.8788504007446323, ,0.6095589885920696, ,0.091059366135385
204, ,PASS, ,0.09874911, ,0.013503440124459165, ,0.04339964748460236, ,0.0013822334855889825, ,1.9166666666666667, ,0.8818277022217675, ,0.6124364808881452, ,0.08579416746597009
205, ,PASS, ,0.13593926, ,0.019438022625503294, ,0.046272905127561485, ,0.0027252843285187987, ,1.9166666666666667, ,0.8881275816474822, ,0.6108038611456909, ,0.10583457480459582
206, ,PASS, ,0.09224432, ,0.012598161361126311, ,0.0424651769059407, ,0.0012092229718823273, ,1.9166666666666667, ,0.8828520104554533, ,0.607375359686537, ,0.08861043652170364
207, ,PASS, ,0.13943367999999998, ,0.022075289792741766, ,0.047145146433399315, ,0.0031808856029889843, ,2.0, ,0.9024862446402029, ,0.6135180914675211, ,0.13905838656353953
208, ,PASS, ,0.06977329099999999, ,0.00953493010043097, ,0.04056831957755964, ,0.0006884178872248576, ,1.9166666666666667, ,0.8749815744340804, ,0.6044366441501194, ,0.0707944735821718
209, ,PASS, ,0.12127565000000004, ,0.02220575728174468, ,0.04470155061243649, ,0.002772605158253336, ,1.8333333333333333, ,0.9278470430013062, ,0.6005387645150099, ,0.25389277769841434
210, ,PASS, ,0.06876797600000001, ,0.009610340368780841, ,0.04063471218975123, ,0.0006839349186270558, ,1.9166666666666667, ,0.875178332111029, ,0.6032121793432788, ,0.07524336238035959
211, ,PASS, ,0.1997999999999999, ,0.04013464675383439, ,0.056335708109630345, ,0.008303424136929884, ,1.75, ,0.9383722053385287, ,0.6202730556519255, ,0.531968735331932
212, ,PASS, ,0.081377711, ,0.011013512672012468, ,0.04149158376155588, ,0.0009265001048969068, ,1.9166666666666667, ,0.8781215536543275, ,0.6064366033346258, ,0.07997795963347687
213, ,PASS, ,0.1997999999999999, ,0.042966409295694875, ,0.04963075948531656, ,0.008818254757324328, ,2.0, ,0.9485832032268041, ,0.587477806575376, ,0.5139691026713741
214, ,PASS, ,0.09669248, ,0.013154701500205875, ,0.04288597594316442, ,0.0013142662003820058, ,1.9166666666666667, ,0.8839685804200821, ,0.6084161547723516, ,0.08546764351747924
215, ,PASS, ,0.1997999999999999, ,0.04268352378818416, ,0.049902504033591075, ,0.008754964454012006, ,2.0, ,0.945041318936256, ,0.5889879798371462, ,0.5106630476929043
216, ,PASS, ,0.09814070999999996, ,0.013604802792357333, ,0.04344168939062468, ,0.0013797837895325616, ,2.0, ,0.8853488280029468, ,0.6130691210383462, ,0.08867165976204568
217, ,PASS, ,0.1997999999999999, ,0.04109608940761152, ,0.0544532452235668, ,0.00834403465592253, ,1.9166666666666667, ,0.9436230730474345, ,0.6055794779698374, ,0.5233566661904859
218, ,PASS, ,0.10726440000000001, ,0.014878523657976692, ,0.04377798016867002, ,0.0016496668330531076, ,1.9166666666666667, ,0.8853859528821261, ,0.6079263688496153, ,0.08312075263770127
219, ,PASS, ,0.11611530999999997, ,0.014631556064814918, ,0.04474682921209771, ,0.0017577304265513271, ,2.0, ,0.8762728857529974, ,0.6199669394502153, ,0.08530438154323382
220, ,PASS, ,0.0589985765, ,0.00817242101353585, ,0.03971100788351259, ,0.0005009139763184719, ,1.8333333333333333, ,0.8687542017804017, ,0.6019060835493153, ,0.06146813330340197
221, ,PASS, ,0.076626753, ,0.009448111605559513, ,0.0409406156588641, ,0.0007500340233508287, ,1.8333333333333333, ,0.8666228064442876, ,0.6071916899655109, ,0.07336584967653721
222, ,PASS, ,0.06119276939999998, ,0.008453876540424132, ,0.039891910010612035, ,0.0005364034103855982, ,1.8333333333333333, ,0.8658655540792276, ,0.6014775208669211, ,0.059162057917185366
223, ,PASS, ,0.08632824000000001, ,0.010690488275687074, ,0.04180784626068856, ,0.0009556387578359166, ,1.8333333333333333, ,0.8728216027774153, ,0.6099263280341217, ,0.08334523785228873
224, ,PASS, ,0.10674912000000002, ,0.014404955428397747, ,0.04356224667061897, ,0.001590658637855662, ,1.9166666666666667, ,0.8855485675613045, ,0.6081508540642028, ,0.08963082386073754
225, ,PASS, ,0.11517181999999995, ,0.014880269897858279, ,0.044355990957592704, ,0.0017698190279618225, ,1.9166666666666667, ,0.8829624361296097, ,0.6132936062529336, ,0.10846717413930328
226, ,PASS, ,0.09281767000000002, ,0.012022263287903664, ,0.04246986665619069, ,0.0011534391144635498, ,1.9166666666666667, ,0.878850003130524, ,0.6087222709740617, ,0.07293728699414298
227, ,PASS, ,0.16420665999999998, ,0.022529450222664216, ,0.04861993462412766, ,0.003810738893489894, ,1.9166666666666667, ,0.8854685585081152, ,0.6183139119609804, ,0.10309993673598498
228, ,PASS, ,0.10511165, ,0.01372943029655875, ,0.043460692706944755, ,0.00149275075495795, ,1.9166666666666667, ,0.8839135172844875, ,0.6098446970469991, ,0.08463092589947144
229, ,PASS, ,0.11886166999999997, ,0.01460848026446761, ,0.04482372147731679, ,0.0017931942999357268, ,1.9166666666666667, ,0.879882318044145, ,0.6210077345360299, ,0.09497765351727516
230, ,PASS, ,0.07737665499999999, ,0.01004417870141943, ,0.04130709818534315, ,0.0008086844152551169, ,1.9166666666666667, ,0.8722303596763744, ,0.6101916287422706, ,0.06705985592130773
231, ,PASS, ,0.15175583999999998, ,0.01967996124799885, ,0.047825517090161425, ,0.003087594340533116, ,2.0, ,0.8827093520487405, ,0.6228036162527295, ,0.09895716413950735
232, ,PASS, ,0.09202179000000003, ,0.012153104909998961, ,0.04236645750345911, ,0.0011584415001853483, ,1.9166666666666667, ,0.8782993233426075, ,0.6065386420685293, ,0.07095773555641721
233, ,PASS, ,0.1997999999999999, ,0.042662916072718396, ,0.05122277722638306, ,0.008889076123010079, ,1.9166666666666667, ,0.9578019532057283, ,0.5951715271116916, ,0.533295238872676
234, ,PASS, ,0.08596205000000003, ,0.01109410500946429, ,0.04178532087814534, ,0.0009883721673762409, ,1.9166666666666667, ,0.8750114939412817, ,0.605599885716618, ,0.06483541152221384
235, ,PASS, ,0.11072133, ,0.013518560294917341, ,0.043783549737352295, ,0.0015546266933337098, ,1.9166666666666667, ,0.8741323263215689, ,0.6153956041713434, ,0.08234525826003551
236, ,PASS, ,0.1997999999999999, ,0.04306541775737231, ,0.05052290912675244, ,0.008904508499007176, ,1.9166666666666667, ,0.9570661015404619, ,0.5915185404379503, ,0.5291320585294178
237, ,PASS, ,0.10756439999999999, ,0.013351694031210953, ,0.04357162609044713, ,0.0014854684304898354, ,1.9166666666666667, ,0.8782426921509426, ,0.6109058998795943, ,0.07608007999836738
238, ,PASS, ,0.08544519000000003, ,0.010424225869427428, ,0.04182491744392971, ,0.0009272503064484688, ,1.9166666666666667, ,0.8689332645946728, ,0.6112936470684271, ,0.05936613538499214
239, ,PASS, ,0.10550636, ,0.013791730484559998, ,0.043375771747250054, ,0.0015078000314869464, ,1.9166666666666667, ,0.8753367305820625, ,0.6057835554376442, ,0.07369237362502806
240, ,PASS, ,0.08126247399999999, ,0.009974365846728802, ,0.041103433396665376, ,0.0008419371842523205, ,1.8333333333333333, ,0.8653720730124063, ,0.6042937899226546, ,0.04971327115773148
241, ,PASS, ,0.13693707, ,0.015589349118798432, ,0.045404767823758706, ,0.0022089034079198207, ,1.9166666666666667, ,0.8814431580156541, ,0.6162323217893513, ,0.07334544192975653
242, ,PASS, ,0.11915993000000002, ,0.01291022883143295, ,0.04367147600091835, ,0.0015961531492065149, ,1.8333333333333333, ,0.8762711213582142, ,0.6118650639782861, ,0.06081508540642028
243, ,PASS, ,0.1903733, ,0.028216955054651868, ,0.05410336719085324, ,0.005543358353114992, ,1.9166666666666667, ,0.8863404716377314, ,0.6072325054590723, ,0.07181486092120569
244, ,PASS, ,0.15029935000000003, ,0.015092170339329414, ,0.04587632616687415, ,0.0023597515759978638, ,1.9166666666666667, ,0.8837516868111602, ,0.6215587436991081, ,0.06016203750943858
245, ,PASS, ,0.15981545000000003, ,0.0160391605335361, ,0.04701100937697191, ,0.002647237223768853, ,1.9166666666666667, ,0.8895437746075794, ,0.6243341972612804, ,0.06585579886124773
246, ,PASS, ,0.18848739999999997, ,0.027140611876853987, ,0.05624886390025142, ,0.005243966561178921, ,2.0, ,0.8972371673210952, ,0.6158241668537376, ,0.08363094630721822
