Channel, ,Pass/Fail, ,Amplitude, ,Sorting Function Response, ,Mean, ,Variance, ,NPeaksRatio, ,PosIntegralRatio, ,ToT50, ,ToT99
24, ,PASS, ,0.019751679999999997, ,0.0021993306128484003, ,0.03657812476929042, ,4.4517709080309525e-05, ,1.75, ,0.6895478835321769, ,0.5539886941082836, ,0.05495806208036571
25, ,PASS, ,0.060779497, ,0.0082376026237807, ,0.03849675468867982, ,0.0005075920623394298, ,1.9166666666666667, ,0.7448982980003718, ,0.5436623742372605, ,0.07928409624293382
26, ,PASS, ,0.07160737450000002, ,0.009712236110295204, ,0.03893165617189445, ,0.0007053917642677268, ,1.8333333333333333, ,0.7450417562757681, ,0.544703169323075, ,0.0770800595906206
27, ,PASS, ,0.033792050000000004, ,0.004498322904124319, ,0.037283497964531336, ,0.00015489129031797047, ,1.8333333333333333, ,0.7479119810606567, ,0.549907144752148, ,0.07861064059917144
28, ,PASS, ,0.02258638, ,0.0030608379432474197, ,0.036585794178282074, ,7.034156595110301e-05, ,1.8333333333333333, ,0.7450331185598169, ,0.5476418848594926, ,0.06920266933327891
29, ,PASS, ,0.063096426, ,0.009497715242780232, ,0.03796895432987082, ,0.0006058996200041151, ,1.9166666666666667, ,0.7721208279480397, ,0.5389073692373625, ,0.08330442235872737
30, ,PASS, ,0.07274947359999999, ,0.011075142344818215, ,0.03806469318140446, ,0.0008145200732270326, ,1.9166666666666667, ,0.773648514200281, ,0.5373563804820309, ,0.07993714413991551
31, ,PASS, ,0.03386998000000002, ,0.00511300430507302, ,0.03702110381706496, ,0.00017618154821129174, ,2.0, ,0.7828868121964047, ,0.5483765637435971, ,0.07442705250913247
32, ,PASS, ,0.025568910000000007, ,0.0034389743892134133, ,0.03666962218260852, ,8.952969934331804e-05, ,1.8333333333333333, ,0.746624666617692, ,0.5480704475418869, ,0.07256994755209077
33, ,PASS, ,0.064543926, ,0.009653810428353265, ,0.03791518108899818, ,0.0006304004733617848, ,1.9166666666666667, ,0.7705373672140418, ,0.5403767270055713, ,0.07856982510561009
34, ,PASS, ,0.07377506229999999, ,0.011215193129695926, ,0.03839216212695659, ,0.0008366249562778509, ,1.9166666666666667, ,0.7735416962634698, ,0.5393767474133181, ,0.07991673639313483
35, ,PASS, ,0.03507621, ,0.005282380507478359, ,0.03704322370155712, ,0.000188482353729109, ,2.0, ,0.7802650919591846, ,0.548315340503255, ,0.07493724617864941
36, ,PASS, ,0.026611590000000004, ,0.003519063147104506, ,0.03680429276851493, ,9.552461933049702e-05, ,1.8333333333333333, ,0.7457468066839458, ,0.5515805799881635, ,0.07363115038468603
37, ,PASS, ,0.0669346228, ,0.00984752889981631, ,0.03833605788214526, ,0.000668021166659626, ,1.9166666666666667, ,0.7689958322660344, ,0.5435195200097958, ,0.07910042652190771
38, ,PASS, ,0.07781530500000003, ,0.011596982296797375, ,0.03857452349915308, ,0.0009133274744385903, ,1.9166666666666667, ,0.7680465447200117, ,0.5404991734862554, ,0.07544743984816636
39, ,PASS, ,0.03771374999999998, ,0.005726049740320292, ,0.0369116774259709, ,0.0002193911980096428, ,1.9166666666666667, ,0.7827469556025263, ,0.5450501010183466, ,0.07822289341033857
40, ,PASS, ,0.026322389999999994, ,0.003423816754599637, ,0.0367341980463664, ,9.183040572393876e-05, ,1.8333333333333333, ,0.737729582997614, ,0.5489275729066754, ,0.07075365808861044
41, ,PASS, ,0.0663930942, ,0.009457472950853016, ,0.03834436074035223, ,0.000636836217486674, ,1.9166666666666667, ,0.7604899717609181, ,0.5438868594518479, ,0.08312075263770127
42, ,PASS, ,0.07599029799999998, ,0.010918134556027278, ,0.038425708719536336, ,0.0008403326990328205, ,1.9166666666666667, ,0.7600756625527714, ,0.5423970939368584, ,0.07518213914001755
43, ,PASS, ,0.03881280999999996, ,0.005571400058841951, ,0.0372022691106304, ,0.00022030717634548088, ,1.8333333333333333, ,0.770373259530772, ,0.5492132813616049, ,0.07801881594253178
44, ,PASS, ,0.029604560000000005, ,0.0039549487802091835, ,0.036513674417052715, ,0.00011938705999524324, ,1.8333333333333333, ,0.7479958867117527, ,0.5499479602457092, ,0.0784677863717067
45, ,PASS, ,0.0662175847, ,0.009593403396623922, ,0.03809247940876717, ,0.0006433620145807471, ,1.9166666666666667, ,0.7643186129474092, ,0.5415603763188507, ,0.07991673639313483
46, ,PASS, ,0.0743654372, ,0.010790791717083878, ,0.03829947207387604, ,0.0008130308144860384, ,1.9166666666666667, ,0.7629033814009738, ,0.5413562988510439, ,0.0732842186894145
47, ,PASS, ,0.04117421, ,0.005928368928757968, ,0.03701882776841289, ,0.00024838041944741607, ,2.0, ,0.7650053015208281, ,0.546601089773678, ,0.061325279075937225
48, ,PASS, ,0.022438919999999994, ,0.002569618098398816, ,0.036556257138425745, ,5.9226620256485074e-05, ,1.8333333333333333, ,0.6986975692909245, ,0.554968265953756, ,0.05875390298157181
49, ,PASS, ,0.057661315000000005, ,0.007255277358864375, ,0.038316897776984146, ,0.00042643985826960933, ,1.8333333333333333, ,0.7256378183693343, ,0.5474173996449052, ,0.06499867349645926
50, ,PASS, ,0.06721740829999996, ,0.00836726274497889, ,0.038968724332156486, ,0.0005737595903525887, ,1.8333333333333333, ,0.7234152760916047, ,0.5493765433358503, ,0.07389645109283484
51, ,PASS, ,0.03844303999999998, ,0.004700364877686827, ,0.037414740015101734, ,0.0001852300521875943, ,1.8333333333333333, ,0.7202895841417978, ,0.5535601314258892, ,0.06128446358237587
52, ,PASS, ,0.023541950000000002, ,0.002718682541452258, ,0.036538975508459005, ,6.562582550544813e-05, ,1.8333333333333333, ,0.702021662302618, ,0.5540295096018448, ,0.06442725658660027
53, ,PASS, ,0.057275632000000014, ,0.0072832143153896585, ,0.03825064002550969, ,0.00042491558330613136, ,1.8333333333333333, ,0.7296060401205203, ,0.5472541376706598, ,0.07503928491255281
54, ,PASS, ,0.065947304, ,0.008294249084395734, ,0.03881755905430501, ,0.0005569864450084646, ,1.9166666666666667, ,0.7261334181567688, ,0.5469480214689496, ,0.07456990673659722
55, ,PASS, ,0.039481079999999974, ,0.004896741454147767, ,0.03758757195914369, ,0.00019791901081467732, ,1.8333333333333333, ,0.7269058150147946, ,0.5510499785718659, ,0.07042713414011958
56, ,PASS, ,0.025184410000000004, ,0.0032015865134471114, ,0.03664874751862207, ,8.243107303574573e-05, ,1.8333333333333333, ,0.7322379217068863, ,0.5504785616620069, ,0.05906001918328197
57, ,PASS, ,0.055837256, ,0.007363853688012519, ,0.038245640698353095, ,0.00041869071492188297, ,1.75, ,0.7408930544946764, ,0.5475398461255893, ,0.07740658353911145
58, ,PASS, ,0.064245696, ,0.008323298154504163, ,0.038613562073631154, ,0.0005446705230867834, ,1.75, ,0.7349731579893873, ,0.5469072059753882, ,0.07473316871084264
59, ,PASS, ,0.03929311999999997, ,0.005101676686056749, ,0.037208549681435076, ,0.00020514955287886713, ,1.8333333333333333, ,0.7391329536350734, ,0.5516213954817248, ,0.06797820452643824
60, ,PASS, ,0.02542512000000001, ,0.0028755713963423786, ,0.03664647402746883, ,7.520612935310796e-05, ,1.8333333333333333, ,0.6968193248113803, ,0.5571314871125079, ,0.0681006510071223
61, ,PASS, ,0.05393108199999999, ,0.006868327234859698, ,0.03805982234811535, ,0.00037759136130917657, ,1.8333333333333333, ,0.7299856665158783, ,0.5493153200955082, ,0.07271280177955552
62, ,PASS, ,0.062125554, ,0.007894306005144817, ,0.03853392196710271, ,0.0004999613329472646, ,1.8333333333333333, ,0.7288216660680277, ,0.5480908552886676, ,0.07450868349625518
63, ,PASS, ,0.03852786, ,0.004862043203360825, ,0.03725443503438705, ,0.0001916997676959338, ,1.8333333333333333, ,0.7288661838101176, ,0.5511928327993306, ,0.06371298544927655
64, ,PASS, ,0.023765659999999997, ,0.0027522221421686006, ,0.03661709792881778, ,6.703238607816508e-05, ,1.8333333333333333, ,0.7028690028153696, ,0.5538254321340381, ,0.06450888757372299
65, ,PASS, ,0.05274300700000001, ,0.006796815696578311, ,0.03804518015632334, ,0.0003647497217427873, ,1.9166666666666667, ,0.7352533633594818, ,0.5474990306320279, ,0.07912083426868839
66, ,PASS, ,0.061326793000000004, ,0.007826217759937408, ,0.03822228486745168, ,0.00048811038421320437, ,1.8333333333333333, ,0.727817879691479, ,0.5461725270912838, ,0.07073325034182976
67, ,PASS, ,0.037372929999999985, ,0.004758725180493544, ,0.037229027569845516, ,0.00018174171781118516, ,1.8333333333333333, ,0.730559057942551, ,0.5506826391298136, ,0.06546805167241485
198, ,PASS, ,0.033053450500000026, ,0.002794867546231463, ,0.03670055962613008, ,0.00010426946924166968, ,2.0, ,0.7548025086176351, ,0.5678659619191445, ,0.0012244648068406767
199, ,FAIL, ,0.02370942999999998, ,0.00213140193564164, ,0.03632657900716312, ,5.715292884508722e-05, ,2.0, ,0.7225735644276542, ,0.5678659619191445, ,0.0015713965021122017
200, ,PASS, ,0.03411920999999998, ,0.003936061703872682, ,0.037107041070998555, ,0.00014964172053551526, ,1.9166666666666667, ,0.8117158752589122, ,0.5670088365543561, ,0.02591783841146099
201, ,PASS, ,0.07381237099999999, ,0.009397708336825877, ,0.03940553449419399, ,0.0007515839782293348, ,1.9166666666666667, ,0.875652740969311, ,0.5697230668761862, ,0.05314177261688537
202, ,PASS, ,0.09060723, ,0.011009393544593201, ,0.04053268224779086, ,0.0010800016973596522, ,1.9166666666666667, ,0.8784444948746335, ,0.5735393155241729, ,0.0542233831962613
203, ,PASS, ,0.07995749600000002, ,0.009902999557997293, ,0.039749139007836574, ,0.0008581606428631383, ,1.8333333333333333, ,0.8782547298943917, ,0.5691108344727659, ,0.053590743046060284
204, ,PASS, ,0.09074616, ,0.010067859938613671, ,0.04041314957633517, ,0.0009842067299077734, ,1.9166666666666667, ,0.8758415323472973, ,0.5749882655456011, ,0.05799881635068672
205, ,PASS, ,0.10622443999999999, ,0.012325865288696773, ,0.04125798923530132, ,0.001402951189744243, ,1.8333333333333333, ,0.8785115682522029, ,0.5726413746658231, ,0.05775392338931858
206, ,PASS, ,0.10406230999999998, ,0.011814518991941194, ,0.0413213623767066, ,0.0013152324644176295, ,1.8333333333333333, ,0.8772716917201991, ,0.5758657986571702, ,0.05942735862533418
207, ,PASS, ,0.11800870999999996, ,0.013337024007256662, ,0.04214081482255464, ,0.0016860853185817395, ,1.9166666666666667, ,0.878692922393717, ,0.5786412522193425, ,0.0594069508785535
208, ,PASS, ,0.08425061, ,0.010102100150899282, ,0.04017412182853411, ,0.0009176362200777855, ,1.9166666666666667, ,0.8724720221233573, ,0.5719475112752801, ,0.054713169118997575
209, ,PASS, ,0.08206381, ,0.010070590851969388, ,0.04001507115887431, ,0.0008955520569629288, ,1.9166666666666667, ,0.8727640503435746, ,0.5722128119834289, ,0.056447827595355195
210, ,PASS, ,0.078037236, ,0.009366902589707722, ,0.03973784696536805, ,0.0007926141851784091, ,1.9166666666666667, ,0.8633623553017011, ,0.5705189690006326, ,0.04808065141527724
211, ,PASS, ,0.08402499, ,0.011233526587126676, ,0.040105708256953934, ,0.0010020163440573955, ,1.8333333333333333, ,0.8679786861826158, ,0.5678863696659252, ,0.05979469806738638
212, ,PASS, ,0.081588327, ,0.010954491730127568, ,0.039983216373461763, ,0.0009595044405424401, ,1.8333333333333333, ,0.883232707106808, ,0.569988367584335, ,0.0670802636680884
213, ,PASS, ,0.09440165, ,0.013113413505909943, ,0.04095325987377809, ,0.0013218736401044793, ,1.8333333333333333, ,0.8892298689106448, ,0.5713556866186404, ,0.07132507499846942
214, ,PASS, ,0.043468079999999985, ,0.00549247734440058, ,0.03776993576110692, ,0.00026128949589783717, ,1.9166666666666667, ,0.826430691317302, ,0.5661313034427868, ,0.036795167445562334
215, ,PASS, ,0.029836330000000025, ,0.003044905074831595, ,0.036943857814534395, ,0.00010189659070538524, ,2.0, ,0.750630570575735, ,0.5662129344299096, ,0.005918246566396604
216, ,FAIL, ,0.029231460099999988, ,0.0020449949503779977, ,0.03652584530683047, ,6.850933822288899e-05, ,1.9166666666666667, ,0.7081529869557888, ,0.5697842901165282, ,0.0012652803004020326
