Channel, ,Pass/Fail, ,Amplitude, ,Sorting Function Response, ,Mean, ,Variance, ,NPeaksRatio, ,PosIntegralRatio, ,ToT50, ,ToT99
42, ,PASS, ,0.06018299800000008, ,0.011184433055579476, ,0.03495152298744924, ,0.0006903874092621485, ,2.0, ,0.8545866848254235, ,0.399277565763964, ,0.13175241321605682
43, ,PASS, ,0.12088487999999999, ,0.020842141785761444, ,0.02934682583638579, ,0.002562792871167933, ,1.8333333333333333, ,0.7813737254310463, ,0.404726434154405, ,0.1204669292463419
44, ,PASS, ,0.06546526700000001, ,0.01220219818750682, ,0.03483255870633253, ,0.0008219725202655127, ,1.8333333333333333, ,0.8616353496564425, ,0.40484888063508906, ,0.10973245443970531
45, ,PASS, ,0.060704207000000066, ,0.011315517610927936, ,0.03518189794632763, ,0.0007015644332849779, ,2.0, ,0.8434512472820518, ,0.4058488602273423, ,0.127874941327728
46, ,PASS, ,0.1216011, ,0.020632627072384422, ,0.028881554485524378, ,0.0025637288537558936, ,1.8333333333333333, ,0.7771285368540326, ,0.3993796044978674, ,0.12514030325911715
47, ,PASS, ,0.06843643699999997, ,0.012739864240490744, ,0.03413174519499602, ,0.0008940846853175934, ,1.8333333333333333, ,0.8600714186873752, ,0.39858370237342094, ,0.12026285177853513
48, ,PASS, ,0.06392612699999999, ,0.01189520829931007, ,0.03472928870298566, ,0.0007779000503943974, ,2.0, ,0.8407004307431711, ,0.40439991020591415, ,0.12199751025489276
49, ,PASS, ,0.12766403999999998, ,0.021870371039994882, ,0.028579862049661023, ,0.0028465833411023727, ,1.8333333333333333, ,0.7798444492410731, ,0.4037876778024938, ,0.12395665394583784
50, ,PASS, ,0.074859162, ,0.014112986862714389, ,0.03397221324705618, ,0.0010843962156431345, ,2.0, ,0.8575265007223292, ,0.40476724964796634, ,0.11350788759413073
51, ,PASS, ,0.061027978000000024, ,0.011213748754650229, ,0.035126273351421405, ,0.0007016298219361678, ,2.0, ,0.8456525594424017, ,0.40478765739474704, ,0.12540560396726597
52, ,PASS, ,0.12304195999999998, ,0.021509620716928655, ,0.028982675995611516, ,0.002693326298124599, ,1.8333333333333333, ,0.7905633740405799, ,0.40403257076386195, ,0.11709965102753005
53, ,PASS, ,0.072447646, ,0.013598277207020433, ,0.03409263248143915, ,0.001008564588064283, ,2.0, ,0.8601591061324569, ,0.4055019285320708, ,0.12181384053386665
54, ,PASS, ,0.06320492999999999, ,0.011553258612987205, ,0.03455121645660293, ,0.0007473168983088441, ,2.0, ,0.8391646063853814, ,0.398073508703904, ,0.11354870308769209
55, ,PASS, ,0.12205716, ,0.021273924420397734, ,0.02945215038860023, ,0.0026475291914895946, ,1.9166666666666667, ,0.79104768105495, ,0.40662435460500806, ,0.11618130242239955
56, ,PASS, ,0.073645052, ,0.013707884717268227, ,0.03409324501299973, ,0.0010335823782483635, ,2.0, ,0.8527677278388966, ,0.40480806514152773, ,0.10538560437542091
57, ,PASS, ,0.06579447499999999, ,0.012282988809930418, ,0.03454922334870717, ,0.0008262363585891673, ,2.0, ,0.8466221597067964, ,0.40480806514152773, ,0.11734454398889818
58, ,PASS, ,0.12486333999999996, ,0.021585962923087072, ,0.02950759410342646, ,0.002761282587136318, ,1.9166666666666667, ,0.7958823443071532, ,0.4048284728883084, ,0.11234464602763208
59, ,PASS, ,0.073445277, ,0.013775400296893335, ,0.03404777672363829, ,0.001039631832585725, ,2.0, ,0.8612625783790335, ,0.40497132711577316, ,0.11916083345237852
60, ,PASS, ,0.06274072200000003, ,0.01144390573563586, ,0.03506518118644518, ,0.000736581037982273, ,2.0, ,0.8450381144709586, ,0.4042366482316687, ,0.12024244403175445
61, ,PASS, ,0.12018416999999998, ,0.02130570637351577, ,0.029512803373358914, ,0.0026076253311175567, ,1.9166666666666667, ,0.804172012514082, ,0.404726434154405, ,0.10809983469725108
62, ,PASS, ,0.07003895799999996, ,0.01288585740871775, ,0.03454635450603049, ,0.000924811451427624, ,2.0, ,0.855472110051693, ,0.4046856186608437, ,0.11603844819493479
63, ,PASS, ,0.06419650799999997, ,0.011776099011923079, ,0.0366638294088284, ,0.0007728613565908422, ,2.0, ,0.8394046231743031, ,0.4316646599048999, ,0.11509969184302361
64, ,PASS, ,0.11952898, ,0.021208089320383438, ,0.029490390228322685, ,0.0025792048607430037, ,1.8333333333333333, ,0.8032723532455085, ,0.4047060264076243, ,0.11058957980449378
65, ,PASS, ,0.07132802799999999, ,0.013291208556301662, ,0.0348073541456909, ,0.0009701384611152136, ,2.0, ,0.8583659359837972, ,0.4113589518581253, ,0.11720168976143344
66, ,PASS, ,0.06339053600000003, ,0.011702697044682036, ,0.03536528220991409, ,0.0007612054070576055, ,1.9166666666666667, ,0.847682198714159, ,0.4100120405706006, ,0.1231607518213914
67, ,PASS, ,0.12031192999999997, ,0.021496231793823765, ,0.02943513740201669, ,0.002634121609175756, ,1.9166666666666667, ,0.8077161348768416, ,0.4046856186608437, ,0.11116099671435277
68, ,PASS, ,0.074052798, ,0.013704477973680664, ,0.034258420776045385, ,0.0010441088419586493, ,1.8333333333333333, ,0.8612121298459591, ,0.4050325503561152, ,0.12042611375278056
69, ,PASS, ,0.05979506300000008, ,0.010794955077282972, ,0.03562646819558785, ,0.0006595482893683324, ,2.0, ,0.8381059478343079, ,0.4075427032101386, ,0.1114058896757209
70, ,PASS, ,0.11440963999999998, ,0.020305963017842283, ,0.03031533695315606, ,0.0023721761863417495, ,1.9166666666666667, ,0.8103237061462405, ,0.4045835799269403, ,0.10450807126385175
71, ,PASS, ,0.07009415899999995, ,0.012729611828824762, ,0.034908192386216605, ,0.0009126039644944648, ,2.0, ,0.8478995941151393, ,0.40746107222301586, ,0.11107936572723005
72, ,PASS, ,0.05946852900000004, ,0.010702338113252177, ,0.03545770281045285, ,0.0006508048172589446, ,2.0, ,0.8364029915222788, ,0.4045427644333789, ,0.11334462561988531
73, ,PASS, ,0.11262954, ,0.020095006418676623, ,0.030514453666507214, ,0.002302635254928283, ,1.9166666666666667, ,0.809177608918784, ,0.4060121222015877, ,0.10291626701495887
74, ,PASS, ,0.07014826099999998, ,0.012676990956104136, ,0.034704218315422135, ,0.0009095114903694647, ,2.0, ,0.8443138433596957, ,0.4046448031672823, ,0.10448766351707107
75, ,PASS, ,0.062008801000000044, ,0.010987210061483982, ,0.03595788532734026, ,0.0006993442661507259, ,1.9166666666666667, ,0.8362613182895418, ,0.41070590396114365, ,0.10450807126385175
76, ,PASS, ,0.11207897000000001, ,0.01984896321767253, ,0.029774481555268257, ,0.002271891790268603, ,1.9166666666666667, ,0.8121001322607367, ,0.3972367910858962, ,0.10683455439684904
77, ,PASS, ,0.064506711, ,0.01170593167068649, ,0.03581358095140916, ,0.0007777929926195793, ,1.8333333333333333, ,0.8577343864850048, ,0.41293034836023756, ,0.12228321870982224
78, ,PASS, ,0.06309192699999999, ,0.011050755850375536, ,0.03623843118526153, ,0.0007137247833692299, ,1.9166666666666667, ,0.8264682670701702, ,0.4166853737678823, ,0.09381441195077651
79, ,PASS, ,0.10762461000000002, ,0.019320228305773235, ,0.031655327216900474, ,0.0021155016499428466, ,1.9166666666666667, ,0.8195409539187559, ,0.4115018060855901, ,0.11342625660700802
80, ,PASS, ,0.05967128600000005, ,0.010438043203368063, ,0.035846481047733726, ,0.0006383643075364468, ,2.0, ,0.8388591988764172, ,0.4047060264076243, ,0.10758964102773413
81, ,PASS, ,0.06424928599999999, ,0.011121409399357044, ,0.03529503207828412, ,0.0007296508564169649, ,2.0, ,0.8228429095404981, ,0.4046856186608437, ,0.09430419787351278
82, ,PASS, ,0.10544210999999999, ,0.018606543588873297, ,0.030644014429899388, ,0.001999460418084434, ,1.9166666666666667, ,0.8136896293323986, ,0.3982775861717108, ,0.09907961062019142
83, ,PASS, ,0.059402478000000015, ,0.010349141608804655, ,0.03569700678026979, ,0.0006304495282312643, ,2.0, ,0.8372959256744192, ,0.4021346503132589, ,0.10677333115650701
84, ,PASS, ,0.06329231500000003, ,0.010670689359204847, ,0.035577496022203635, ,0.0006902006857238494, ,2.0, ,0.8172754954919804, ,0.40572641374665824, ,0.08295749066345585
85, ,PASS, ,0.10782791, ,0.01893932421090018, ,0.03131560598607865, ,0.0020851178223632743, ,1.9166666666666667, ,0.816898001509458, ,0.4049917348625538, ,0.10136527825962735
86, ,PASS, ,0.067002057, ,0.011412691269748296, ,0.03524151295455195, ,0.0007840937086736073, ,2.0, ,0.8295946554445123, ,0.4049305116222118, ,0.09812044652149957
198, ,PASS, ,0.1798967999999999, ,0.018260052651040908, ,0.03915384450102406, ,0.003412888726012795, ,1.5833333333333333, ,0.6611810161862564, ,0.5698455133568703, ,0.028427991265484377
199, ,PASS, ,0.07936584499999999, ,0.007537771421350676, ,0.03778582755025408, ,0.0006423057919015629, ,1.9166666666666667, ,0.809025498875487, ,0.42162404848880636, ,0.019591436909450827
200, ,PASS, ,0.080357265, ,0.007273643791392537, ,0.0378011179612661, ,0.0006066933781654788, ,1.9166666666666667, ,0.7863999565653045, ,0.42227709638578803, ,0.01965266014979286
201, ,PASS, ,0.079869089, ,0.0070329602868901935, ,0.037614424857451895, ,0.000606462636865494, ,1.9166666666666667, ,0.7826904935331844, ,0.42044039917552706, ,0.015897634742148118
202, ,PASS, ,0.07402522020000005, ,0.006601677131220903, ,0.037902409587151284, ,0.0005113208234956426, ,1.8333333333333333, ,0.7759649538216696, ,0.4171751596906186, ,0.022244443990938962
203, ,PASS, ,0.07069837068000001, ,0.006205775508732216, ,0.03800413668945532, ,0.0004743810536535048, ,1.9166666666666667, ,0.7809898448699253, ,0.41860370196526603, ,0.01530581008550846
204, ,PASS, ,0.07456591300000005, ,0.006473902831306651, ,0.03795830845390911, ,0.0005227651784153359, ,1.9166666666666667, ,0.7858204418632551, ,0.4204608069223077, ,0.016550682639129812
205, ,PASS, ,0.08615158199999996, ,0.0073644433598633, ,0.03776741519846534, ,0.0006881063284387129, ,1.8333333333333333, ,0.7876317238780961, ,0.42403216260892634, ,0.018428195342952185
206, ,PASS, ,0.08544790999999996, ,0.007426759715469457, ,0.03826477781555479, ,0.00067382415763254, ,1.9166666666666667, ,0.7824930537579146, ,0.4351135691108345, ,0.016754760106936592
207, ,PASS, ,0.09569542, ,0.0078069355254016025, ,0.038835193315238464, ,0.0008238133482020782, ,1.9166666666666667, ,0.8108209685029955, ,0.43705230505499887, ,0.033836044162364035
208, ,PASS, ,0.07656637599999999, ,0.00689374177997368, ,0.03784980684210527, ,0.0005664320641804285, ,1.9166666666666667, ,0.7736214484734748, ,0.42201179567763925, ,0.015326217832289137
209, ,PASS, ,0.07267230558000007, ,0.006382483854889913, ,0.03799687501581601, ,0.0004889612828878423, ,1.9166666666666667, ,0.7703634871868487, ,0.4205628456562111, ,0.014265014999693884
210, ,PASS, ,0.06848891518000001, ,0.006144510721069305, ,0.03815606629089202, ,0.0004564790086409865, ,1.9166666666666667, ,0.7742899388143881, ,0.4200730597334748, ,0.014346645986816595
211, ,PASS, ,0.06962353308000002, ,0.005980321397358128, ,0.038387491533846255, ,0.0004448403726367914, ,1.9166666666666667, ,0.7752798688876681, ,0.4280524887247199, ,0.014285422746474562
212, ,PASS, ,0.08108264299999998, ,0.006822363767278427, ,0.03795119105487643, ,0.0005965637498119321, ,1.9166666666666667, ,0.7793434535571812, ,0.4218689414501745, ,0.015224179098385747
213, ,PASS, ,0.09114619000000002, ,0.007371550133618189, ,0.03760543605232546, ,0.0007178439997055621, ,1.9166666666666667, ,0.7845136709866127, ,0.4250117344543989, ,0.016509867145568458
214, ,PASS, ,0.09131266999999998, ,0.007338041793724476, ,0.03769974211730373, ,0.000722792874179224, ,1.9166666666666667, ,0.7826597073023994, ,0.4259300830595294, ,0.015918042488928797
215, ,PASS, ,0.11160112000000003, ,0.008869009121010935, ,0.03743613896900064, ,0.0010730263749216574, ,1.9166666666666667, ,0.7832168052047518, ,0.4394196036815575, ,0.018917981265688454
216, ,PASS, ,0.08669204999999999, ,0.007060442199634055, ,0.037903511517315976, ,0.0006465762103551576, ,1.9166666666666667, ,0.7837850303704105, ,0.42905246831697313, ,0.01602008122283219
217, ,PASS, ,0.10608365000000003, ,0.00866802289266095, ,0.037350750025101534, ,0.0009872787394279864, ,1.9166666666666667, ,0.7899239076542048, ,0.42956266198649007, ,0.01699965306830473
218, ,PASS, ,0.10192232999999999, ,0.008442438076547324, ,0.037057971160588565, ,0.0008887325702295087, ,1.8333333333333333, ,0.7869165132369267, ,0.42164445623558705, ,0.016305789677761678
219, ,PASS, ,0.09759009000000002, ,0.007795299254398894, ,0.03761253838268607, ,0.0008180665980247697, ,1.9166666666666667, ,0.7894673654472526, ,0.4275218873084223, ,0.015754780514683375
220, ,PASS, ,0.06410759899999999, ,0.005712870818970326, ,0.038244595293565435, ,0.00037906429775441675, ,1.9166666666666667, ,0.7607241827141865, ,0.4181343237893104, ,0.012754841737923716
221, ,PASS, ,0.06982925670000001, ,0.006236068861638125, ,0.03807301267198629, ,0.00045699767458682873, ,1.9166666666666667, ,0.7675407303465481, ,0.4218689414501745, ,0.011754862145670496
222, ,PASS, ,0.057039707, ,0.005044508234649296, ,0.038614849045733764, ,0.0003028146166706456, ,1.9166666666666667, ,0.761930226835998, ,0.42331789147160265, ,0.011101814248688802
223, ,PASS, ,0.07702496800000004, ,0.006319704975477039, ,0.03795007687006388, ,0.0005234381925409603, ,1.9166666666666667, ,0.7787579273643545, ,0.4223179118793494, ,0.013448705128466767
224, ,PASS, ,0.1866552999999999, ,0.014448843722488005, ,0.04873270887104345, ,0.002777114911670114, ,1.25, ,0.45922534123294706, ,0.8072692394032774, ,0.019142466480275913
225, ,FAIL, ,0.032384140000000006, ,0.00037700006863031394, ,0.041352736720066945, ,1.4897399394563246e-05, ,0.25, ,0.09950570817844508, ,0.6110487541070591, ,0.003408093712373217
226, ,PASS, ,0.16994789999999987, ,0.013322875973310343, ,0.039322845127425975, ,0.00241909702201711, ,1.5, ,0.5561653793473056, ,0.6908022285259484, ,0.024938266565988448
