Channel, ,Pass/Fail, ,Amplitude, ,Sorting Function Response, ,Mean, ,Variance
57, ,PASS, ,0.0168810870148708, ,0.01068796661483784, ,0.001287883160036334, ,3.8186407070515164e-05
58, ,PASS, ,0.0209955149161917, ,0.01719642881647117, ,0.0016990049589176311, ,7.603325034829885e-05
59, ,PASS, ,0.0165549390668967, ,0.011080608461743961, ,0.0013544326659720894, ,3.8800465461240895e-05
60, ,PASS, ,0.0143170135116644, ,0.011435389587869075, ,0.0009469440141678482, ,3.439684566778768e-05
61, ,PASS, ,0.021596002427112, ,0.016514170277828966, ,0.0014272088903451437, ,7.47088210325303e-05
62, ,PASS, ,0.015869061993903304, ,0.012580913072672976, ,0.0011948999618513157, ,4.18957851884929e-05
63, ,PASS, ,0.0142455505827436, ,0.012387474382681809, ,0.00113880201232451, ,3.720603944916543e-05
64, ,PASS, ,0.0205010941547909, ,0.01710141369706512, ,0.00148592207118108, ,7.371467747891832e-05
65, ,PASS, ,0.0187049714371096, ,0.015857837508824982, ,0.0015069626139505112, ,6.241708412698997e-05
66, ,PASS, ,0.010138384400867197, ,0.007363921698028414, ,0.0007144350947425359, ,1.591122201826589e-05
67, ,PASS, ,0.015503623538697199, ,0.010558545945176839, ,0.0009535538323401321, ,3.4792731664632094e-05
68, ,PASS, ,0.015092159672965899, ,0.010838328548709591, ,0.0009015382833267734, ,3.4698143713170425e-05
69, ,PASS, ,0.0097657364496025, ,0.00695589044454662, ,0.0006815444355941967, ,1.4473636845069804e-05
70, ,PASS, ,0.0144694921213654, ,0.009732854565164433, ,0.0009908105949394343, ,2.9943034642382842e-05
71, ,PASS, ,0.011169397336756101, ,0.0079233719151222, ,0.0007980208680027372, ,1.880350878941333e-05
72, ,PASS, ,0.0093853683487967, ,0.0048848919184469545, ,0.00048245817294061605, ,9.788900139278472e-06
73, ,PASS, ,0.0122101072094406, ,0.005903083472110481, ,0.000541598087482095, ,1.5383072626859718e-05
74, ,PASS, ,0.0093208987582463, ,0.00479859079045757, ,0.00043030864973923514, ,9.541400279576114e-06
