Channel, ,Pass/Fail, ,Amplitude, ,Sorting Function Response, ,Mean, ,Variance, ,NPeaksRatio, ,PosIntegralRatio, ,ToT50, ,ToT99
0, ,PASS, ,0.077191987, ,0.0098897335731465, ,0.027657447436256404, ,0.0007777294796912497, ,1.9166666666666667, ,0.6828554358657426, ,0.48280647333727883, ,0.06469255729474908
1, ,PASS, ,0.076214763, ,0.009784890978327288, ,0.0274779793998898, ,0.000759882896567988, ,1.9166666666666667, ,0.6835491650011207, ,0.4832962592600151, ,0.0657945756209057
2, ,PASS, ,0.07641343300000002, ,0.009774372424750353, ,0.027464476533458505, ,0.0007610511746213562, ,1.9166666666666667, ,0.6821598949703237, ,0.48092896063345647, ,0.06265178261668129
3, ,PASS, ,0.076428606, ,0.009790998585610975, ,0.0273736976022122, ,0.000762596785291983, ,1.8333333333333333, ,0.683837026122527, ,0.4819289402257097, ,0.06599865308871247
4, ,PASS, ,0.075834647, ,0.00976275691499356, ,0.02746187747107202, ,0.0007548427662019027, ,1.8333333333333333, ,0.6853145872712411, ,0.4814187465561927, ,0.06703944817452705
5, ,PASS, ,0.07554012800000004, ,0.009719539346961206, ,0.027253777058998795, ,0.0007483689067596876, ,1.8333333333333333, ,0.6827342645386109, ,0.483173812779331, ,0.06571294463378298
6, ,PASS, ,0.074684058, ,0.009593319808346254, ,0.027273775935776817, ,0.0007297937936175827, ,1.9166666666666667, ,0.6826094400021171, ,0.48211260994673577, ,0.06669251647925553
7, ,PASS, ,0.07515980200000001, ,0.00964698618382195, ,0.027568390020244485, ,0.0007388307530723499, ,1.9166666666666667, ,0.682313332971012, ,0.4835207444746026, ,0.06499867349645926
8, ,PASS, ,0.074484116, ,0.009577120513910652, ,0.027083201039978775, ,0.0007269974196635231, ,1.9166666666666667, ,0.6856631964638452, ,0.4821738331870778, ,0.06344768474112773
9, ,PASS, ,0.074688811, ,0.009567250926298789, ,0.027319019223628088, ,0.0007279365528887574, ,1.9166666666666667, ,0.6839895709319698, ,0.4825615803759107, ,0.06703944817452705
10, ,PASS, ,0.074354889, ,0.009564883162738591, ,0.027263126492112405, ,0.0007247040372808516, ,1.9166666666666667, ,0.6835581925314206, ,0.48205138670639375, ,0.06240688965531316
11, ,PASS, ,0.07427364700000003, ,0.009555243873543564, ,0.027420952903573395, ,0.0007232837419833514, ,1.9166666666666667, ,0.6841403926029243, ,0.48194934797249034, ,0.06667210873247485
12, ,PASS, ,0.073833057, ,0.009458345280253341, ,0.027206005237260463, ,0.0007117260030772343, ,1.8333333333333333, ,0.6852270009871041, ,0.478867778208608, ,0.0646721495479684
13, ,PASS, ,0.08142080999999997, ,0.01054224014826055, ,0.027392884868798595, ,0.0008747179987495842, ,1.9166666666666667, ,0.6871186666083043, ,0.48343911348747987, ,0.06767208832472807
14, ,PASS, ,0.09582002999999997, ,0.012586598637219988, ,0.027226737864661947, ,0.0012305912130226684, ,1.9166666666666667, ,0.6986261411841256, ,0.4818677169853676, ,0.0736515581314667
15, ,PASS, ,0.05279411970000001, ,0.006041939005235208, ,0.02776751521703639, ,0.0003276550104807335, ,1.8333333333333333, ,0.636221526205854, ,0.4814391543029734, ,0.06103957062100773
16, ,PASS, ,0.05073181099999999, ,0.005842247464844224, ,0.02802830924572968, ,0.0003043659215284316, ,1.8333333333333333, ,0.6383608838977302, ,0.4834595212342605, ,0.06028448399012265
17, ,PASS, ,0.05020322900000001, ,0.005838139648831163, ,0.027526390910389588, ,0.00030110776420350734, ,1.8333333333333333, ,0.647055371727972, ,0.4821738331870778, ,0.060100814269096546
18, ,PASS, ,0.05068749489999999, ,0.005770200798530788, ,0.027427904221342423, ,0.00030042302805580493, ,1.8333333333333333, ,0.6415266901195508, ,0.4835003367278219, ,0.06057019244505214
19, ,PASS, ,0.05051427299999999, ,0.005857388634997028, ,0.027503726762106898, ,0.0003041108395821031, ,1.8333333333333333, ,0.64533651066725, ,0.48076569865921104, ,0.06030489173690333
20, ,PASS, ,0.05070668199999998, ,0.005876611396449519, ,0.02767424676822922, ,0.0003057077512700084, ,1.8333333333333333, ,0.6403093287694218, ,0.48443909307973304, ,0.06399869390420604
21, ,PASS, ,0.05075881399999997, ,0.005899424474597216, ,0.027733579028183096, ,0.000307507338552284, ,1.8333333333333333, ,0.6430906068032084, ,0.4819289402257097, ,0.06330483051366298
22, ,PASS, ,0.05086714499999998, ,0.0058947234945004095, ,0.02786852163037489, ,0.0003078493909828044, ,1.8333333333333333, ,0.6397913459365475, ,0.4832962592600151, ,0.06001918328197384
23, ,PASS, ,0.05061387699999999, ,0.005840393682719386, ,0.027801635281728944, ,0.00030352566856276555, ,1.8333333333333333, ,0.639766699953532, ,0.4818269014918063, ,0.06081508540642028
24, ,PASS, ,0.05072892599999998, ,0.005909187501112836, ,0.027770993330952426, ,0.00030793541086718247, ,1.8333333333333333, ,0.6420588592323351, ,0.4821738331870778, ,0.06544764392563417
25, ,PASS, ,0.050840730999999986, ,0.005860954194669826, ,0.027734607299442868, ,0.0003060105878356273, ,1.8333333333333333, ,0.638197863081407, ,0.4830105508050856, ,0.05961102834636028
26, ,PASS, ,0.05025643499999999, ,0.0057838614965375615, ,0.027524688257382503, ,0.00029869064615289383, ,1.8333333333333333, ,0.6387121840195173, ,0.480643252178527, ,0.057243729719801635
27, ,PASS, ,0.050223430999999985, ,0.005768335554139293, ,0.027647596924552563, ,0.0002977859009504007, ,1.8333333333333333, ,0.6371910312769041, ,0.48176567825146427, ,0.058447786779861635
28, ,PASS, ,0.05011084099999999, ,0.005729521820514782, ,0.027597306908226364, ,0.00029509470908592206, ,1.8333333333333333, ,0.637829202624617, ,0.4817860859982449, ,0.060039591028754516
29, ,PASS, ,0.05023746399999998, ,0.0057270081900600445, ,0.02783205381135079, ,0.0002953859655750888, ,1.8333333333333333, ,0.6310499532738016, ,0.4831942205261117, ,0.05371318952674435
30, ,PASS, ,0.050185154999999995, ,0.0057611369483551505, ,0.027651340468561866, ,0.00029698905328334594, ,1.8333333333333333, ,0.6372993941716996, ,0.4834187057406992, ,0.05632538111467113
31, ,PASS, ,0.04983241499999999, ,0.005732190904059833, ,0.027980266772514847, ,0.0002932874382519722, ,1.8333333333333333, ,0.6377077874372997, ,0.48335748250035715, ,0.055488663496663336
32, ,PASS, ,0.04992501099999999, ,0.005643762090441324, ,0.027649803942368528, ,0.00028930267520465674, ,1.8333333333333333, ,0.6278540086694243, ,0.4838472684230934, ,0.055182547294953165
33, ,PASS, ,0.049810733999999995, ,0.005641748525966084, ,0.027704999280014693, ,0.00028882919880938605, ,1.8333333333333333, ,0.6299517782254572, ,0.48121466908838595, ,0.05487643109324299
34, ,PASS, ,0.049913888, ,0.005687756745867826, ,0.0277533653482582, ,0.0002915312371290746, ,1.8333333333333333, ,0.6318179874391592, ,0.48368400644884796, ,0.05769270014897655
35, ,PASS, ,0.04990631399999998, ,0.005737561550487795, ,0.027943268252688724, ,0.0002938003930027336, ,1.8333333333333333, ,0.6367390682534361, ,0.48578600436725783, ,0.058039631844248075
36, ,PASS, ,0.050178322, ,0.005835455696917746, ,0.027733150654272364, ,0.00030044896004821826, ,1.8333333333333333, ,0.6428336041873424, ,0.4839084916634354, ,0.05948858186567621
37, ,PASS, ,0.050312422999999995, ,0.005880269123316786, ,0.027861836915573153, ,0.00030359298081196473, ,1.8333333333333333, ,0.6440067212488852, ,0.48343911348747987, ,0.061019162874227054
38, ,PASS, ,0.04999971699999999, ,0.005834622796305861, ,0.027699072250770392, ,0.00029958267747793064, ,1.9166666666666667, ,0.6443594861507326, ,0.4815003775433154, ,0.06048856145792943
39, ,PASS, ,0.05000439399999998, ,0.005809130185716399, ,0.027723871327115773, ,0.00029835809246837864, ,1.8333333333333333, ,0.6450138827845557, ,0.48203097895961305, ,0.06110079386134977
40, ,PASS, ,0.050156294, ,0.005837470366097043, ,0.027365462920960797, ,0.0003006301957125606, ,1.8333333333333333, ,0.6417231168409552, ,0.48194934797249034, ,0.058937572702597904
41, ,PASS, ,0.05012913099999999, ,0.0058075414348634806, ,0.027502466556600883, ,0.00029892551104318, ,1.8333333333333333, ,0.6416957587699671, ,0.4835411522213832, ,0.06099875512744638
42, ,PASS, ,0.050115734, ,0.005853965724359849, ,0.027687124386441095, ,0.0003009593252329674, ,1.8333333333333333, ,0.6430252545300453, ,0.4839288994102161, ,0.05950898961245689
43, ,PASS, ,0.05035861399999998, ,0.005877282000844769, ,0.02761839510234485, ,0.0003039162617868123, ,1.8333333333333333, ,0.6439888679730116, ,0.48290851207118224, ,0.05950898961245689
44, ,PASS, ,0.05031879199999999, ,0.0058606405356149685, ,0.02770574198730638, ,0.00030271353602014523, ,1.8333333333333333, ,0.6461314766371262, ,0.4830105508050856, ,0.06022326074978061
45, ,PASS, ,0.05074987829999999, ,0.005895885453073049, ,0.02748763574376033, ,0.00030701465616651943, ,1.8333333333333333, ,0.6417846846890817, ,0.4820105712128324, ,0.05738658394726638
46, ,PASS, ,0.050567990999999986, ,0.005933072042403012, ,0.027540619384502356, ,0.000308052577251312, ,1.8333333333333333, ,0.6479497282178505, ,0.48215342544029716, ,0.06314156853941756
47, ,PASS, ,0.05125788329999998, ,0.006098377446788314, ,0.027675313219730206, ,0.0003209838557551447, ,1.9166666666666667, ,0.6548963684763162, ,0.4814187465561927, ,0.06193751147935756
48, ,PASS, ,0.05047083499999999, ,0.005919882218852799, ,0.02748119972674027, ,0.00030667805611013266, ,1.8333333333333333, ,0.6455206305039823, ,0.4835819677149446, ,0.06544764392563417
49, ,PASS, ,0.05042971399999999, ,0.005860319176834653, ,0.027753906307422298, ,0.0003032508644561413, ,1.8333333333333333, ,0.6430835059857641, ,0.4839493071569968, ,0.05824370931205486
50, ,PASS, ,0.049936602999999996, ,0.005836192005091829, ,0.027427119637150263, ,0.00029926925445472754, ,1.8333333333333333, ,0.6436252009010784, ,0.48245954164200733, ,0.05914165017040469
51, ,PASS, ,0.05041997799999999, ,0.005908209049355889, ,0.027428030235097243, ,0.0003058890822191232, ,1.8333333333333333, ,0.6450996120810042, ,0.48286769657762085, ,0.060529376951490785
52, ,PASS, ,0.050316813999999994, ,0.005824278957696491, ,0.027550646635578865, ,0.0003004481630928356, ,1.8333333333333333, ,0.6412489832787827, ,0.4857043733801351, ,0.06279463684414603
53, ,PASS, ,0.04976104399999999, ,0.005798580505063949, ,0.027658833264831328, ,0.00029635965974442505, ,1.8333333333333333, ,0.6447661915701588, ,0.4805616211914043, ,0.06114160935491112
54, ,PASS, ,0.049922956, ,0.005816243525773921, ,0.027658634179506543, ,0.00029794379776467057, ,1.8333333333333333, ,0.6418992565004118, ,0.4839493071569968, ,0.06444766433338095
55, ,PASS, ,0.0506331256, ,0.006026612255285105, ,0.0274241802953001, ,0.00031312434622875765, ,1.9166666666666667, ,0.6531861539796345, ,0.4834799289810412, ,0.06585579886124773
56, ,PASS, ,0.05000534899999998, ,0.00591909737503851, ,0.027768453728699415, ,0.00030359459088659044, ,1.8333333333333333, ,0.6511585491739108, ,0.48411256913124223, ,0.06191710373257689
57, ,PASS, ,0.050344331999999985, ,0.005958600429966003, ,0.02758596982530969, ,0.00030761120359031025, ,1.8333333333333333, ,0.646599746290833, ,0.4842350156119263, ,0.06110079386134977
58, ,PASS, ,0.050166157, ,0.005883013588839515, ,0.02747607973204628, ,0.0003026794435947879, ,1.8333333333333333, ,0.6448391549818496, ,0.48443909307973304, ,0.0631007530458562
59, ,PASS, ,0.049590437999999994, ,0.00579815387195588, ,0.02781289082835044, ,0.00029501144249169267, ,1.8333333333333333, ,0.6450452252013585, ,0.4840105303973388, ,0.0616313952776474
60, ,PASS, ,0.05025013929999998, ,0.00584449277801258, ,0.027549763632578928, ,0.0003013544916027808, ,1.8333333333333333, ,0.6410232671167486, ,0.4846839860411012, ,0.06057019244505214
61, ,PASS, ,0.05015744199999998, ,0.005825854541614406, ,0.027594452843819516, ,0.0002999188116477383, ,1.8333333333333333, ,0.6411275023616846, ,0.4841329768780229, ,0.06063141568539417
62, ,PASS, ,0.050200088999999996, ,0.005825324971433096, ,0.02766425220260811, ,0.0003002840122845503, ,1.8333333333333333, ,0.6414467617040361, ,0.4821738331870778, ,0.05665190506316198
63, ,PASS, ,0.050175584999999995, ,0.005837617436799009, ,0.027470250182037102, ,0.0003003933519489504, ,1.8333333333333333, ,0.6384534792325264, ,0.486092120568968, ,0.06318238403297892
64, ,PASS, ,0.050053046999999996, ,0.00584906650956169, ,0.02753681147058223, ,0.0003008147120905293, ,1.8333333333333333, ,0.643555488404446, ,0.48164323177078017, ,0.06234566641497112
65, ,PASS, ,0.05007683299999998, ,0.005770996065503848, ,0.02762812969939389, ,0.00029650015223297904, ,1.8333333333333333, ,0.6380962869852678, ,0.4842350156119263, ,0.05701924450521418
66, ,PASS, ,0.049669512, ,0.0058089417394201984, ,0.027480347235566624, ,0.0002960237850331483, ,1.8333333333333333, ,0.6410048000471413, ,0.4827044346033754, ,0.05630497336789045
67, ,PASS, ,0.049332455000000004, ,0.005826900880469477, ,0.027396457805963146, ,0.0002947985532310747, ,1.8333333333333333, ,0.6448057767522736, ,0.48325544376645374, ,0.0585702332605457
68, ,PASS, ,0.049825824000000005, ,0.00580071504676648, ,0.02734338260811004, ,0.00029626102309168343, ,1.8333333333333333, ,0.6403193440114358, ,0.48786759453888695, ,0.06293749107161078
69, ,PASS, ,0.050569878999999984, ,0.0058985392585135955, ,0.027593863099120427, ,0.00030637070800658655, ,1.8333333333333333, ,0.6452060230862522, ,0.4810309993673598, ,0.06197832697291892
70, ,PASS, ,0.05064872199999999, ,0.005968176434995713, ,0.027573028420644477, ,0.00031004404191185885, ,1.8333333333333333, ,0.6492409177647629, ,0.4839084916634354, ,0.06283545233770739
71, ,PASS, ,0.05107869599999998, ,0.006063014474305201, ,0.02770591751413236, ,0.00031759297465252693, ,1.8333333333333333, ,0.6492345764611902, ,0.48370441419562865, ,0.06103957062100773
72, ,PASS, ,0.05091012199999998, ,0.006019151861172795, ,0.027644572572804636, ,0.0003138733356689079, ,1.8333333333333333, ,0.6451017453845301, ,0.4856839656333544, ,0.0629170833248301
73, ,PASS, ,0.050906702999999984, ,0.0060127440521471325, ,0.02764879112732393, ,0.00031409044768265846, ,1.8333333333333333, ,0.6479828373656588, ,0.48156160078365745, ,0.0578355543764413
74, ,PASS, ,0.05069054499999999, ,0.0060416861282456946, ,0.027607112653619315, ,0.0003141435849928825, ,1.8333333333333333, ,0.6483189072582409, ,0.4838676761698741, ,0.060039591028754516
75, ,PASS, ,0.050334109299999985, ,0.005926943934383957, ,0.027563367430052447, ,0.0003060411480305974, ,1.8333333333333333, ,0.6494050138849675, ,0.4842350156119263, ,0.06587620660802841
76, ,PASS, ,0.05014317999999999, ,0.00582748510257176, ,0.02781366710128365, ,0.0002998885553754832, ,1.8333333333333333, ,0.6403158061758781, ,0.4835411522213832, ,0.06287626783126875
77, ,PASS, ,0.05031285999999998, ,0.005847948602436796, ,0.027613641855676413, ,0.0003022717360288629, ,1.8333333333333333, ,0.6438891129368433, ,0.48194934797249034, ,0.05944776637211485
78, ,PASS, ,0.05000535199999999, ,0.005827038344765055, ,0.02764143705740699, ,0.00029901426052831047, ,1.8333333333333333, ,0.6400375577265661, ,0.48372482194240934, ,0.059651843839921635
79, ,PASS, ,0.04976988599999999, ,0.005767417220877589, ,0.02757910725168874, ,0.0002945456440651081, ,1.8333333333333333, ,0.6385180130442808, ,0.48456153956041714, ,0.05697842901165282
80, ,PASS, ,0.05010446499999999, ,0.005891770374771192, ,0.02743358131140181, ,0.00030302479050370524, ,1.8333333333333333, ,0.645605884372821, ,0.48211260994673577, ,0.060896716393542986
81, ,PASS, ,0.05022539669999998, ,0.005842860521921145, ,0.027679868454521337, ,0.0003008182412011009, ,1.8333333333333333, ,0.6426731294818486, ,0.4851941797106181, ,0.05946817411889553
82, ,PASS, ,0.050144680999999997, ,0.005824253954234682, ,0.027501433491969554, ,0.0002999187292814736, ,1.8333333333333333, ,0.641836327152445, ,0.48378604518275137, ,0.05630497336789045
83, ,PASS, ,0.050201069, ,0.0058627495906504, ,0.02746283830840187, ,0.00030246237276986704, ,1.8333333333333333, ,0.6448225591796656, ,0.48160241627721884, ,0.06105997836778841
84, ,PASS, ,0.050181877999999985, ,0.005843694487261282, ,0.027529052400359175, ,0.0003008898408439298, ,1.8333333333333333, ,0.6435277258153641, ,0.4826840268565948, ,0.05930491214465011
85, ,PASS, ,0.05011560699999998, ,0.005832269825469911, ,0.027704931186914555, ,0.00029997772638669015, ,1.8333333333333333, ,0.640803851760233, ,0.4832146282728924, ,0.06065182343217485
86, ,PASS, ,0.04995858499999999, ,0.0057735331723851166, ,0.0274626179304504, ,0.0002963190424431438, ,1.8333333333333333, ,0.6417382023206821, ,0.48170445501112225, ,0.05706005999877554
87, ,PASS, ,0.05059880229999998, ,0.005884698583443367, ,0.027460887786167627, ,0.0003057240185684774, ,1.8333333333333333, ,0.6406118179517198, ,0.4835819677149446, ,0.05863145650088774
88, ,PASS, ,0.07331245299999999, ,0.009615164684509183, ,0.027105431412073226, ,0.0007205631863158886, ,1.8333333333333333, ,0.6967205101600762, ,0.48250035713556866, ,0.08144731740168568
89, ,PASS, ,0.09075958, ,0.011773751565365729, ,0.02702905378822881, ,0.0010950224310221606, ,1.9166666666666667, ,0.6928635197063335, ,0.4813983388094121, ,0.07503928491255281
90, ,PASS, ,0.07386101900000001, ,0.009056776646774126, ,0.027484151125487234, ,0.0006874759396998597, ,1.8333333333333333, ,0.6679259323576169, ,0.4835207444746026, ,0.06585579886124773
91, ,PASS, ,0.07339481400000002, ,0.00895965857671331, ,0.0273619437850248, ,0.0006761932355479039, ,1.9166666666666667, ,0.6701197675398175, ,0.48194934797249034, ,0.06369257770249587
92, ,PASS, ,0.07321718099999999, ,0.009062641569097935, ,0.027383107762290564, ,0.0006814303775835982, ,1.8333333333333333, ,0.6712329885857238, ,0.4835411522213832, ,0.06463133405440705
93, ,PASS, ,0.073409167, ,0.009048962593549049, ,0.027482546354768267, ,0.0006816452697536445, ,1.8333333333333333, ,0.667056528487568, ,0.4855411114058897, ,0.06565172139344096
94, ,PASS, ,0.07296697800000002, ,0.008930176833428229, ,0.02742985563274219, ,0.0006683435974284854, ,1.8333333333333333, ,0.6646097047715783, ,0.48670435297238834, ,0.06512111997714333
95, ,PASS, ,0.07338352399999998, ,0.009000818285773355, ,0.027256796434766636, ,0.0006795509582451274, ,1.9166666666666667, ,0.6704105982483882, ,0.48131670782228936, ,0.06497826574967858
96, ,PASS, ,0.073139286, ,0.009166500751363152, ,0.027365481431603438, ,0.0006887542399311444, ,1.8333333333333333, ,0.6740257387128946, ,0.481847309238587, ,0.06318238403297892
97, ,PASS, ,0.073492744, ,0.009125877372650505, ,0.027389426068855735, ,0.0006894410831277391, ,1.8333333333333333, ,0.6766505394779915, ,0.48121466908838595, ,0.06748841860370197
98, ,PASS, ,0.07329708699999998, ,0.009102387133057435, ,0.027267156530683043, ,0.0006855894754835129, ,1.9166666666666667, ,0.674429252139268, ,0.4822758719209812, ,0.06650884675822942
99, ,PASS, ,0.07371471499999999, ,0.009191252845883612, ,0.02736707192200159, ,0.000696195006373318, ,1.9166666666666667, ,0.6778846376372201, ,0.48205138670639375, ,0.06852921368951655
100, ,PASS, ,0.07363127300000001, ,0.009098169645784348, ,0.02709291445807228, ,0.0006880960582185846, ,1.8333333333333333, ,0.6713974875120039, ,0.4817860859982449, ,0.06259055937633926
101, ,PASS, ,0.073349176, ,0.009109959603579196, ,0.02747843149241852, ,0.0006850694619024211, ,1.8333333333333333, ,0.6699536101780617, ,0.48547988816554766, ,0.06638640027754536
102, ,PASS, ,0.07386361000000001, ,0.00908542907923767, ,0.027228758281667723, ,0.0006902334393154233, ,1.9166666666666667, ,0.6684209603947522, ,0.4805003979510622, ,0.060447745964368076
103, ,PASS, ,0.073755451, ,0.00914641390146732, ,0.027366157562702803, ,0.0006930785135819275, ,1.9166666666666667, ,0.6731859911404368, ,0.4827248423501561, ,0.06257015162955858
104, ,PASS, ,0.07457234400000001, ,0.009270677560131379, ,0.027072209163690533, ,0.0007115623442684382, ,1.9166666666666667, ,0.6775191516714641, ,0.47964327258627376, ,0.06522315871104671
105, ,PASS, ,0.074896996, ,0.009299173009571855, ,0.027115178797983714, ,0.0007158689437497697, ,1.8333333333333333, ,0.6738289857606498, ,0.480704475418869, ,0.06587620660802841
106, ,PASS, ,0.07450863, ,0.009212345488885484, ,0.027251816785779884, ,0.000705663116910481, ,1.8333333333333333, ,0.6732116478700267, ,0.48039835921715884, ,0.0632027917797596
107, ,PASS, ,0.074405568, ,0.009224143195694624, ,0.027256813739107363, ,0.0007049275529604512, ,1.8333333333333333, ,0.6718689545548511, ,0.4827044346033754, ,0.06342727699434705
108, ,PASS, ,0.07399365800000003, ,0.009212072237773365, ,0.027208653625232136, ,0.0007003564826134033, ,1.8333333333333333, ,0.6766637483451455, ,0.4805616211914043, ,0.06257015162955858
