Channel, ,Pass/Fail, ,Amplitude, ,Sorting Function Response, ,Mean, ,Variance, ,NPeaksRatio, ,PosIntegralRatio, ,ToT50, ,ToT99
0, ,PASS, ,0.069849532, ,0.010168163190168443, ,0.028717884530391216, ,0.0007161273537964004, ,1.8333333333333333, ,0.7219425697066435, ,0.4930103467276178, ,0.07724332156486602
1, ,PASS, ,0.06958322600000003, ,0.010116396029390512, ,0.028999091958021264, ,0.0007097689811252843, ,1.8333333333333333, ,0.7221915403688998, ,0.4930919777147405, ,0.07705965184383992
2, ,PASS, ,0.06934106100000002, ,0.010145631243161252, ,0.028860297710671213, ,0.0007093865401747684, ,1.8333333333333333, ,0.7245734495716024, ,0.49252056080488155, ,0.08295749066345585
3, ,PASS, ,0.069273359, ,0.01013176129824079, ,0.02913317626742311, ,0.0007074226190874697, ,1.8333333333333333, ,0.725322758631314, ,0.49370421011816085, ,0.0812432399338789
4, ,PASS, ,0.06899064300000002, ,0.010087694558699576, ,0.028950952623032187, ,0.0007014021019165156, ,1.8333333333333333, ,0.7240535473081883, ,0.49211240586926797, ,0.07628415746617416
5, ,PASS, ,0.068923388, ,0.010083343675515886, ,0.02896570238078815, ,0.0007006699062886144, ,1.8333333333333333, ,0.725336208226888, ,0.49243892981775883, ,0.083835023775025
6, ,PASS, ,0.069070373, ,0.010068586546015706, ,0.028982504576016817, ,0.0007013014631173082, ,1.8333333333333333, ,0.7236355756416888, ,0.4931327932083019, ,0.08079426950470399
7, ,PASS, ,0.06889870000000003, ,0.010051977537000812, ,0.029047064106528436, ,0.0006982253914137775, ,1.8333333333333333, ,0.7244356837208002, ,0.4931940164486439, ,0.0829983061570172
8, ,PASS, ,0.068535415, ,0.010015924521745352, ,0.02887907741672619, ,0.0006919788200359108, ,1.8333333333333333, ,0.7241984344797475, ,0.4925613762984429, ,0.07989632864635415
9, ,PASS, ,0.06850154400000001, ,0.010007208710886107, ,0.028884765510944675, ,0.0006909022142409566, ,1.8333333333333333, ,0.7241563005232878, ,0.49288790024693374, ,0.08034529907552906
10, ,PASS, ,0.06849251499999999, ,0.009981722339427396, ,0.02893406524001551, ,0.0006893242360409168, ,1.8333333333333333, ,0.7236126746379574, ,0.4926430072855656, ,0.08128405542744026
11, ,PASS, ,0.068463789, ,0.00996706004249054, ,0.0290229963736536, ,0.0006881422617464004, ,1.8333333333333333, ,0.7230410428551607, ,0.49323483194220524, ,0.07983510540601212
12, ,PASS, ,0.06828107400000004, ,0.0099556436338906, ,0.029020597250280607, ,0.0006854968622071707, ,1.8333333333333333, ,0.723434919850604, ,0.4931532009550825, ,0.07977388216567009
13, ,PASS, ,0.06821475100000002, ,0.00995736165498696, ,0.028950895916822105, ,0.0006846340880857179, ,1.8333333333333333, ,0.7241557276189902, ,0.4935817636374768, ,0.08059019203689721
14, ,PASS, ,0.06788369000000002, ,0.009907842079178802, ,0.028801422029652458, ,0.0006781008170637929, ,1.8333333333333333, ,0.7237018804392669, ,0.49296953123405646, ,0.07963102793820534
15, ,PASS, ,0.06817730500000001, ,0.009929453612143087, ,0.029059381539642052, ,0.0006826820956412747, ,1.8333333333333333, ,0.722097483475007, ,0.4931123854615212, ,0.08071263851758127
16, ,PASS, ,0.06771964800000002, ,0.009890756490821592, ,0.02893774734474807, ,0.00067530835392783, ,1.8333333333333333, ,0.724596584123573, ,0.4936633946245995, ,0.08320238362482399
17, ,PASS, ,0.06923924900000003, ,0.010045962499904078, ,0.029174836849798984, ,0.0007014327542445862, ,1.8333333333333333, ,0.7212841098793955, ,0.4960306932511581, ,0.08061059978367788
18, ,PASS, ,0.06850060500000002, ,0.00993778753872943, ,0.02908843380592233, ,0.000686342680863536, ,1.75, ,0.7212920701624141, ,0.4939286953327483, ,0.07954939695108264
19, ,PASS, ,0.06760016000000003, ,0.009836603797478515, ,0.028920324411991594, ,0.0006702520990673103, ,1.8333333333333333, ,0.7232056377333934, ,0.4943368502683619, ,0.08173302585661517
20, ,PASS, ,0.06730160400000001, ,0.009797329222156714, ,0.028946052667353728, ,0.0006647393093577664, ,1.8333333333333333, ,0.7239000356431512, ,0.4935817636374768, ,0.08412073222995449
21, ,PASS, ,0.06749134000000002, ,0.009782322311611812, ,0.028835464990816514, ,0.0006656697600481969, ,1.8333333333333333, ,0.7217669204657905, ,0.49413277280055506, ,0.07601885675802535
22, ,PASS, ,0.06732157400000002, ,0.009783422486158447, ,0.02909598919509806, ,0.0006639422788730114, ,1.8333333333333333, ,0.7228726790738945, ,0.4935817636374768, ,0.07871267933307484
23, ,PASS, ,0.06732311400000003, ,0.00980151040174405, ,0.02907829833252383, ,0.0006652953277266591, ,1.8333333333333333, ,0.7227800219265115, ,0.4939286953327483, ,0.08136568641456297
24, ,PASS, ,0.06715697600000001, ,0.009788636453597907, ,0.029101153067080263, ,0.000662788297308697, ,1.8333333333333333, ,0.7222372336077137, ,0.49337768616967, ,0.07867186383951348
25, ,PASS, ,0.06815101999999999, ,0.009894877209905588, ,0.029205007697557194, ,0.0006798785996035379, ,1.75, ,0.7215715473722357, ,0.49376543335850287, ,0.07912083426868839
26, ,PASS, ,0.068158143, ,0.009891833523663126, ,0.02895963198224526, ,0.0006797875906619144, ,1.75, ,0.7212724128411672, ,0.4947041897104141, ,0.08191669557764127
27, ,PASS, ,0.06724591400000003, ,0.009770684144117707, ,0.029141502132507498, ,0.0006623705535115747, ,1.8333333333333333, ,0.7216757289084256, ,0.49454092773616865, ,0.07563110956919246
28, ,PASS, ,0.06748116100000004, ,0.009783264274402834, ,0.0289262388954103, ,0.0006657420900202829, ,1.8333333333333333, ,0.7211688926365767, ,0.4942348115344585, ,0.08014122160772229
29, ,PASS, ,0.06725900400000002, ,0.00978632598052347, ,0.02894474924956634, ,0.0006634611985122659, ,1.75, ,0.723591513564815, ,0.4944184812554846, ,0.08316156813126263
30, ,PASS, ,0.06691742100000003, ,0.009750061099986176, ,0.029247269662761984, ,0.0006575826415277689, ,1.8333333333333333, ,0.7241739349540172, ,0.49372461786494154, ,0.08244729699393889
31, ,PASS, ,0.06744875300000001, ,0.009750288885714876, ,0.029209636558804923, ,0.0006630217279941058, ,1.8333333333333333, ,0.7200431325737784, ,0.4941123650537744, ,0.07595763351768331
32, ,PASS, ,0.06661290300000003, ,0.009714257806171446, ,0.02887575030050407, ,0.0006525222717856357, ,1.8333333333333333, ,0.724137257501441, ,0.49341850166323137, ,0.08305952939735924
33, ,PASS, ,0.06679426500000003, ,0.00971070549216328, ,0.028978670640150205, ,0.0006539744979185546, ,1.8333333333333333, ,0.7236085298324905, ,0.4936633946245995, ,0.07991673639313483
34, ,PASS, ,0.06637582400000003, ,0.009688163990303193, ,0.028942053832309547, ,0.0006482876883484817, ,1.8333333333333333, ,0.7234370755680782, ,0.4927654537662497, ,0.07877390257341686
35, ,PASS, ,0.06661926300000004, ,0.009702586915860829, ,0.029038011554825414, ,0.0006516009229738561, ,1.8333333333333333, ,0.7233406181102198, ,0.49362257913103813, ,0.08018203710128365
36, ,PASS, ,0.06652095200000002, ,0.009705081441693596, ,0.029074197962062003, ,0.0006507336110114353, ,1.8333333333333333, ,0.7244049056846928, ,0.4932144241954246, ,0.08463092589947144
37, ,PASS, ,0.06717527200000002, ,0.009721862182808008, ,0.029146838914369096, ,0.0006585401239655845, ,1.8333333333333333, ,0.721025455634825, ,0.4942960347748005, ,0.07950858145752128
38, ,PASS, ,0.06666936000000004, ,0.009687569407279696, ,0.029035252415420095, ,0.0006510930962633094, ,1.8333333333333333, ,0.7220872503568995, ,0.4938674720924063, ,0.07914124201546907
39, ,PASS, ,0.06683812500000001, ,0.009704895682538947, ,0.02906876297134752, ,0.0006539043284416372, ,1.75, ,0.722014081283205, ,0.4947041897104141, ,0.07987592089957347
40, ,PASS, ,0.06686316100000003, ,0.009706800098257017, ,0.028619617487092103, ,0.0006542312798662314, ,1.8333333333333333, ,0.7213222167737433, ,0.49374502561172223, ,0.07840656313136467
41, ,PASS, ,0.06705076500000001, ,0.009730425188763306, ,0.02860592477049448, ,0.0006578726430139076, ,1.8333333333333333, ,0.7214164754634701, ,0.49419399604089714, ,0.08038611456909042
42, ,PASS, ,0.06679921500000002, ,0.009700518925262224, ,0.028723843249096957, ,0.0006534034540690748, ,1.8333333333333333, ,0.7231426490319924, ,0.49413277280055506, ,0.08240648150037755
43, ,PASS, ,0.06677577900000001, ,0.009709819465398898, ,0.028641155736638026, ,0.0006535880872772716, ,1.8333333333333333, ,0.7222748935324074, ,0.4938674720924063, ,0.07699842860349788
44, ,PASS, ,0.06644012100000002, ,0.00967273258369609, ,0.028662153209158995, ,0.0006477798301631074, ,1.8333333333333333, ,0.7235336535161936, ,0.49378584110528356, ,0.0828146364359911
45, ,PASS, ,0.06677549400000003, ,0.009693295692326912, ,0.028919358529601442, ,0.000652530334481426, ,1.8333333333333333, ,0.7223489080263701, ,0.4939286953327483, ,0.07952898920430196
46, ,PASS, ,0.06678662800000003, ,0.009693232212209687, ,0.028738540844166445, ,0.0006527242975166176, ,1.8333333333333333, ,0.7216967440204861, ,0.49337768616967, ,0.08010040611416093
47, ,PASS, ,0.06696534500000004, ,0.009703061444027404, ,0.028775545681435075, ,0.0006549882583578963, ,1.8333333333333333, ,0.7210293097820256, ,0.49374502561172223, ,0.0762433419726128
48, ,PASS, ,0.06672294900000003, ,0.009679357090793749, ,0.028675966163547683, ,0.0006511929182021018, ,1.8333333333333333, ,0.7214090532024017, ,0.49333687067610865, ,0.07950858145752128
49, ,PASS, ,0.06703141500000002, ,0.009713448587304697, ,0.02877340869902655, ,0.0006565354479156334, ,1.8333333333333333, ,0.7214245759019423, ,0.4944184812554846, ,0.07387604334605416
50, ,PASS, ,0.06666792800000002, ,0.009698434517136553, ,0.028617492345237854, ,0.0006519228900750953, ,1.8333333333333333, ,0.722953149532457, ,0.4941123650537744, ,0.08348809207975347
51, ,PASS, ,0.06678425200000003, ,0.009728790430233633, ,0.028740739694455217, ,0.0006550148744436039, ,1.8333333333333333, ,0.7233150693208548, ,0.4943368502683619, ,0.08185547233729924
52, ,PASS, ,0.06636886200000001, ,0.009674334418862078, ,0.02858088076361707, ,0.0006473224417376306, ,1.8333333333333333, ,0.7240109529684138, ,0.4930307544743985, ,0.08203914205832534
53, ,PASS, ,0.06633298800000002, ,0.009662922015392634, ,0.028815702539601234, ,0.0006462548038302099, ,1.8333333333333333, ,0.7237282768487855, ,0.492683822779127, ,0.07797800044897044
54, ,PASS, ,0.06639412700000002, ,0.009681979338263013, ,0.028767348717536376, ,0.0006482109232814069, ,1.8333333333333333, ,0.7232902136303293, ,0.4922144446031714, ,0.07975347441888941
55, ,PASS, ,0.06688703400000003, ,0.009741846550168512, ,0.028595121898100036, ,0.0006569701348111437, ,1.8333333333333333, ,0.723653186034325, ,0.49296953123405646, ,0.08191669557764127
56, ,PASS, ,0.072313926, ,0.0103951285203571, ,0.029054181163629313, ,0.0007577273990774583, ,1.8333333333333333, ,0.7175157317051668, ,0.49619395522540355, ,0.07761066100691823
57, ,PASS, ,0.19979233000000013, ,0.027361412255836475, ,0.032753334220117995, ,0.0055182432722023335, ,1.75, ,0.7023043535631447, ,0.5324993367482296, ,0.1869145527642293
58, ,PASS, ,0.06516723900000002, ,0.009645646174119142, ,0.02844553375951511, ,0.0006337910748551599, ,1.75, ,0.7308042015791327, ,0.49001040795085815, ,0.08652884635007449
59, ,PASS, ,0.06249267499999998, ,0.009313669657125661, ,0.02841169795977633, ,0.000586833926185226, ,1.75, ,0.7330618772267379, ,0.48915328258606966, ,0.08599824493377686
60, ,PASS, ,0.06254972299999999, ,0.009289367537871284, ,0.028419088250178567, ,0.0005860392497614513, ,1.75, ,0.7321128996789514, ,0.48786759453888695, ,0.08693700128568804
61, ,PASS, ,0.06265556699999998, ,0.009332364771352493, ,0.028465422337850245, ,0.0005895205035287778, ,1.75, ,0.7329761087495722, ,0.4888471663843595, ,0.08673292381788127
62, ,PASS, ,0.06242711799999998, ,0.009286994543563224, ,0.028532053866533333, ,0.000584658870379644, ,1.75, ,0.7324165260739526, ,0.48794922552600967, ,0.08434521744454195
63, ,PASS, ,0.06259665499999999, ,0.009316568558603414, ,0.028528974699148998, ,0.0005879157493621216, ,1.75, ,0.7331217434585511, ,0.48878594314401747, ,0.09110018162894634
64, ,PASS, ,0.062165387999999995, ,0.009260980556431729, ,0.02839850723856656, ,0.0005803023121693158, ,1.75, ,0.7333511046974311, ,0.4885818656762107, ,0.08499826534152365
65, ,PASS, ,0.06248403989999998, ,0.009299800115391107, ,0.02847769240395094, ,0.000585860556462656, ,1.75, ,0.7328469752614277, ,0.48882675863757885, ,0.08528397379645314
66, ,PASS, ,0.06207937199999998, ,0.009252943100666617, ,0.028559182075876002, ,0.0005791680050717786, ,1.75, ,0.7334904031780667, ,0.48754107059039614, ,0.08418195547029653
67, ,PASS, ,0.06228718899999999, ,0.009269788135335093, ,0.028312966328646355, ,0.0005823040871273727, ,1.75, ,0.7327976512227583, ,0.4885818656762107, ,0.08942674639293076
68, ,PASS, ,0.06221582699999998, ,0.009261546147089805, ,0.028586952148384727, ,0.0005810699779646789, ,1.75, ,0.7333693493333244, ,0.48872471990367544, ,0.0877124956633538
69, ,PASS, ,0.062474547999999984, ,0.009281272858501204, ,0.02874120229850411, ,0.0005847098186138359, ,1.75, ,0.7321672781048951, ,0.48909205934572764, ,0.08816146609252873
70, ,PASS, ,0.06199876399999999, ,0.009246301636610261, ,0.028524891460562026, ,0.0005779036347542967, ,1.75, ,0.7344739377662196, ,0.48872471990367544, ,0.08889614497663313
71, ,PASS, ,0.062069607000000006, ,0.009268619440676168, ,0.028302062204975408, ,0.0005797974424257986, ,1.75, ,0.733756465693317, ,0.4892961368135344, ,0.08914103793800127
72, ,PASS, ,0.06220969599999999, ,0.009242973022709136, ,0.02836776084332973, ,0.0005798860141631521, ,1.75, ,0.7326824787869767, ,0.48927572906675376, ,0.08981449358176363
73, ,PASS, ,0.064284731, ,0.009460493803101426, ,0.028452416149037773, ,0.0006132054837120616, ,1.8333333333333333, ,0.7286291962789126, ,0.49217362910961, ,0.08238607375359687
74, ,PASS, ,0.06256408999999999, ,0.00931670948136757, ,0.028517353066141504, ,0.0005877006523945395, ,1.75, ,0.7330249297806545, ,0.4898471459766127, ,0.09024305626415788
75, ,PASS, ,0.06226691699999999, ,0.009245576914563727, ,0.028552906887267606, ,0.0005803569425648836, ,1.75, ,0.7327208035555494, ,0.4897859227362707, ,0.08824309707965143
76, ,PASS, ,0.06229594100000001, ,0.009240337969195975, ,0.028293608906205994, ,0.0005805323134674553, ,1.75, ,0.7324598410073748, ,0.48960225301524457, ,0.08610028366768026
77, ,PASS, ,0.06216110699999999, ,0.009230766301634857, ,0.028507144375461722, ,0.0005786005167586383, ,1.75, ,0.7313643643389716, ,0.48878594314401747, ,0.0860594681741189
78, ,PASS, ,0.062075359999999996, ,0.00922234946279547, ,0.028430329872267915, ,0.000577152458969862, ,1.75, ,0.7307858708699926, ,0.4897451072427093, ,0.08091671598538805
79, ,PASS, ,0.061660144, ,0.009219822778162589, ,0.0283803392025877, ,0.0005731740483159526, ,1.75, ,0.7345805863874988, ,0.4889492051182629, ,0.09032468725128058
80, ,PASS, ,0.06209119899999999, ,0.009240161559045206, ,0.02864554058898798, ,0.0005786010199720906, ,1.75, ,0.7326623833781594, ,0.4889287973714822, ,0.08822268933287075
81, ,PASS, ,0.06335446599999998, ,0.009395735987556659, ,0.028571985136405378, ,0.0006002415850961617, ,1.8333333333333333, ,0.730899254728787, ,0.4914389502255056, ,0.08907981469765923
82, ,PASS, ,0.062544706, ,0.00927633251875977, ,0.028487439220424075, ,0.0005849214760878277, ,1.8333333333333333, ,0.7302396118954169, ,0.49043897063325237, ,0.08340646109263077
83, ,PASS, ,0.061665923, ,0.009208584327168035, ,0.028390219720046527, ,0.0005725234226459446, ,1.75, ,0.7343425350360226, ,0.48925532131997307, ,0.09132466684353381
84, ,PASS, ,0.06175954809999999, ,0.009221626994761953, ,0.02872158736299259, ,0.000574515079522132, ,1.75, ,0.7339118705574966, ,0.4894798065345605, ,0.09256953939715516
85, ,PASS, ,0.0616949, ,0.009196273515409994, ,0.028371568226791287, ,0.0005720304289175817, ,1.75, ,0.7325757493235999, ,0.4889083896247015, ,0.08301871390379788
86, ,PASS, ,0.06139302199999998, ,0.009160222936088399, ,0.02824712201683639, ,0.0005670527480710308, ,1.75, ,0.733103197221257, ,0.48925532131997307, ,0.08879410624272974
87, ,PASS, ,0.06142251259999999, ,0.009152694514226569, ,0.028474364509969183, ,0.0005666395832502253, ,1.75, ,0.7332143621240708, ,0.48874512765045613, ,0.08279422868921042
88, ,PASS, ,0.06147765299999999, ,0.009165800748519965, ,0.028296114662721167, ,0.0005681044604597152, ,1.75, ,0.7347363292496297, ,0.49011244668476156, ,0.09152874431134059
89, ,PASS, ,0.061874309, ,0.009218211392924398, ,0.02837470642380768, ,0.0005752528781903604, ,1.75, ,0.7319935302929977, ,0.4896838840023673, ,0.08769208791657312
90, ,PASS, ,0.061952713, ,0.009231745285361418, ,0.028380111479418785, ,0.0005767001790230724, ,1.8333333333333333, ,0.732467261997444, ,0.4900512234444195, ,0.08844717454745822
91, ,PASS, ,0.0622279, ,0.00925693838872283, ,0.0284514299950001, ,0.0005810139112147414, ,1.75, ,0.7313400172063214, ,0.48960225301524457, ,0.08648803085651313
92, ,PASS, ,0.062168155, ,0.009222701802119978, ,0.02866057386694149, ,0.0005781386081064561, ,1.75, ,0.731946759056725, ,0.489826738229832, ,0.09171241403236668
93, ,PASS, ,0.062699277, ,0.009317843517732252, ,0.02844678600912226, ,0.0005889234124040766, ,1.8333333333333333, ,0.7317936523548528, ,0.4907859023285239, ,0.08663088508397788
94, ,PASS, ,0.06322091599999997, ,0.009348322986379998, ,0.028581191150507133, ,0.0005957802960140664, ,1.8333333333333333, ,0.7304627615615634, ,0.491540988959409, ,0.08797779637150262
95, ,PASS, ,0.06350963, ,0.009384803994203359, ,0.028754295553417273, ,0.0006010708319444257, ,1.8333333333333333, ,0.7290661669042283, ,0.4914593579722863, ,0.0846717413930328
96, ,PASS, ,0.06321266899999997, ,0.00928583353479893, ,0.028854294472439333, ,0.0005918961854656802, ,1.8333333333333333, ,0.7272139931305189, ,0.493949103079529, ,0.08450847941878738
