Channel, ,Pass/Fail, ,Amplitude, ,Sorting Function Response, ,Mean, ,Variance, ,NPeaksRatio, ,PosIntegralRatio, ,ToT50, ,ToT99
0, ,PASS, ,0.0887048, ,0.01227765761841036, ,0.02910468858800841, ,0.0010937639237980276, ,1.6666666666666667, ,0.6983482365925721, ,0.4936633946245995, ,0.12989530825901513
1, ,PASS, ,0.087669, ,0.012170306080286514, ,0.028974054693210342, ,0.0010714475014238416, ,1.6666666666666667, ,0.6998368827590302, ,0.49294912348727576, ,0.13067080263668088
2, ,PASS, ,0.08858566000000001, ,0.01235916515228647, ,0.028963736268688395, ,0.00109960820055556, ,1.6666666666666667, ,0.7016079670674572, ,0.49260219179200426, ,0.13514009918164935
3, ,PASS, ,0.08847965000000002, ,0.012304134864910601, ,0.029130809030958552, ,0.0010932304544095416, ,1.6666666666666667, ,0.7007640157065976, ,0.4930919777147405, ,0.1313034427868819
4, ,PASS, ,0.08814695000000003, ,0.012298867406527315, ,0.029229568305030512, ,0.0010887288359799515, ,1.6666666666666667, ,0.7016078036542107, ,0.4926225995387849, ,0.1328748392889941
5, ,PASS, ,0.08958528000000002, ,0.01252406921442193, ,0.029021504073712782, ,0.0011265890438117844, ,1.75, ,0.7035370422731902, ,0.4939899185730903, ,0.13942572600559172
6, ,PASS, ,0.1644857, ,0.02178801422851807, ,0.030259598150649988, ,0.003598662869841766, ,1.75, ,0.6819106142469272, ,0.49962245668455746, ,0.10936511499765311
7, ,PASS, ,0.09217839, ,0.013263390337568928, ,0.028678220192832803, ,0.0012284545493126172, ,1.75, ,0.7175643387430086, ,0.48511254872349546, ,0.13595640905287648
8, ,PASS, ,0.05123473599999999, ,0.008343968746084214, ,0.027102153932552397, ,0.0004309907558563302, ,1.8333333333333333, ,0.7703718047139955, ,0.460174282157507, ,0.0811412011999755
9, ,PASS, ,0.05045093199999999, ,0.008157238615493643, ,0.02681721257786576, ,0.0004152417118418737, ,1.8333333333333333, ,0.7714429242344474, ,0.45958245750086735, ,0.08805942735862533
10, ,PASS, ,0.05082875699999998, ,0.008260137476943475, ,0.027005600598783697, ,0.0004234351627920726, ,1.8333333333333333, ,0.7698819041361022, ,0.45992938919613885, ,0.08236566600681619
11, ,PASS, ,0.05077667499999998, ,0.00820569799007723, ,0.02700298547466378, ,0.0004203785107729302, ,1.8333333333333333, ,0.7678666886656204, ,0.4599906124364809, ,0.08185547233729924
12, ,PASS, ,0.050855552999999984, ,0.008244821648201024, ,0.02702109341950164, ,0.0004229403026083282, ,1.8333333333333333, ,0.7684994159526403, ,0.45964368074120937, ,0.07724332156486602
13, ,PASS, ,0.05080251999999999, ,0.00828135457057652, ,0.026977929946899043, ,0.00042424956390909924, ,1.8333333333333333, ,0.7724839387487394, ,0.4605620293463399, ,0.08954919287361482
14, ,PASS, ,0.05107069299999998, ,0.008319617807541662, ,0.026952290733454416, ,0.0004285153338502853, ,1.8333333333333333, ,0.7710941257693362, ,0.46084773780126936, ,0.08740637946164365
15, ,PASS, ,0.051217923999999984, ,0.008307630351298646, ,0.02700503147043938, ,0.0004291376111934202, ,1.8333333333333333, ,0.7696583282310843, ,0.4598069427154548, ,0.08505948858186567
16, ,PASS, ,0.051102162, ,0.008314556971428595, ,0.027073766768270034, ,0.00042827113547914996, ,1.8333333333333333, ,0.769048435638265, ,0.46078651456092734, ,0.0829983061570172
17, ,PASS, ,0.051162801, ,0.008303891941206783, ,0.026925379028121876, ,0.0004283545317332518, ,1.8333333333333333, ,0.7693537673066864, ,0.4597457194751128, ,0.08185547233729924
18, ,PASS, ,0.05083974099999999, ,0.008267147525371481, ,0.02688432837307402, ,0.00042379090895698824, ,1.8333333333333333, ,0.771697331012539, ,0.4610314075222955, ,0.08636558437582907
19, ,PASS, ,0.05076345599999998, ,0.008236035177799026, ,0.026952636880777946, ,0.00042153971348706746, ,1.8333333333333333, ,0.7699848588595903, ,0.46119466949654087, ,0.08744719495520499
20, ,PASS, ,0.05037769899999997, ,0.00818884080624112, ,0.026923838462847696, ,0.00041587435996467016, ,1.8333333333333333, ,0.7697766088404058, ,0.4604395828656558, ,0.08230444276647415
21, ,PASS, ,0.05034976699999999, ,0.008114904007242713, ,0.027069364265912943, ,0.0004122694609034104, ,1.8333333333333333, ,0.7672664996602186, ,0.4597661272218934, ,0.08112079345319484
22, ,PASS, ,0.050083462999999974, ,0.008104529208914694, ,0.02687931482900349, ,0.0004094020255089434, ,1.8333333333333333, ,0.7678512811082494, ,0.4598069427154548, ,0.08120242444031754
23, ,PASS, ,0.04986828699999998, ,0.008083101051203022, ,0.02683501611614049, ,0.00040643908004572176, ,1.8333333333333333, ,0.766050904018083, ,0.4600722434236036, ,0.07942695047039856
24, ,PASS, ,0.050013772999999984, ,0.008095725101094057, ,0.02681761993010347, ,0.000408511572190485, ,1.8333333333333333, ,0.76687925384344, ,0.4589294096038856, ,0.08061059978367788
25, ,PASS, ,0.050329424999999976, ,0.008105142412663658, ,0.026785140844248077, ,0.00041158910362499917, ,1.8333333333333333, ,0.7672568548953317, ,0.4602559131446297, ,0.08246770474071957
26, ,PASS, ,0.050189313999999985, ,0.008131729230152304, ,0.02695614764412971, ,0.0004115477418724259, ,1.8333333333333333, ,0.767884539095161, ,0.4600926511703843, ,0.08371257729434094
27, ,PASS, ,0.05004623799999997, ,0.008098802744017666, ,0.02698938019617967, ,0.0004088158484189467, ,1.8333333333333333, ,0.7686795827456445, ,0.460174282157507, ,0.07879431032019754
28, ,PASS, ,0.05049026599999998, ,0.008099373942439972, ,0.026963743033815636, ,0.00041270179219119667, ,1.8333333333333333, ,0.7658450151393309, ,0.460174282157507, ,0.07812085467643518
29, ,PASS, ,0.05037217099999999, ,0.008143849289889602, ,0.02697752422460766, ,0.0004138508998220752, ,1.8333333333333333, ,0.7657975107277807, ,0.4597457194751128, ,0.07289647150058162
30, ,PASS, ,0.051170320999999984, ,0.008304359198658132, ,0.02708154581775882, ,0.0004283196891478145, ,1.9166666666666667, ,0.7693396096296732, ,0.4655823350543866, ,0.08891655272341381
31, ,PASS, ,0.05099103699999999, ,0.008313597941563089, ,0.02710900983920736, ,0.0004271604077188645, ,1.9166666666666667, ,0.7715626185381589, ,0.46456194771535275, ,0.09128385134997245
32, ,PASS, ,0.050349514999999984, ,0.008132892437985, ,0.026911123620232243, ,0.0004129897689901884, ,1.8333333333333333, ,0.7656011048808963, ,0.4597661272218934, ,0.08252892798106161
33, ,PASS, ,0.05022591499999998, ,0.008126866500820808, ,0.026945936044754187, ,0.0004117566208498982, ,1.8333333333333333, ,0.7656993468139103, ,0.4598885737025775, ,0.07818207791677721
34, ,PASS, ,0.050221627999999977, ,0.008075408300923759, ,0.02703465298930634, ,0.00040914522328721465, ,1.8333333333333333, ,0.7662814053582805, ,0.460235505397849, ,0.07908001877512703
35, ,PASS, ,0.05017760579999998, ,0.00808656497616312, ,0.026817010630619784, ,0.0004091678684784218, ,1.8333333333333333, ,0.7637757739586285, ,0.4598069427154548, ,0.07010061019162875
36, ,PASS, ,0.050201209999999996, ,0.008120383552248905, ,0.026687665363421154, ,0.000411016552699447, ,1.8333333333333333, ,0.7660537820554152, ,0.46048039835921717, ,0.0763453807065162
37, ,PASS, ,0.050159101999999976, ,0.008151421124085331, ,0.027290514147017407, ,0.0004122609527375289, ,1.8333333333333333, ,0.7674901898657693, ,0.4605620293463399, ,0.08599824493377686
38, ,PASS, ,0.049886920999999966, ,0.008003495040632792, ,0.026977160352380562, ,0.00040286163298048, ,1.8333333333333333, ,0.7635814569505647, ,0.4597457194751128, ,0.07469235321728128
39, ,PASS, ,0.05053624099999999, ,0.008148488494532374, ,0.027240269579437152, ,0.00041519866317157053, ,1.8333333333333333, ,0.7660472704833751, ,0.46074569906736595, ,0.08136568641456297
40, ,PASS, ,0.0513255578, ,0.008322818831519724, ,0.026831454802044855, ,0.00043056465603509065, ,1.8333333333333333, ,0.7692151728031725, ,0.46282728923899513, ,0.08316156813126263
41, ,PASS, ,0.05054191499999999, ,0.008161424376499988, ,0.02675937786202322, ,0.0004159636268743358, ,1.8333333333333333, ,0.765778020925542, ,0.46082733005448867, ,0.07767188424726026
42, ,PASS, ,0.05026111999999998, ,0.008110114354238803, ,0.02689135324760719, ,0.0004110296077033394, ,1.8333333333333333, ,0.7663749087044754, ,0.4605416215995592, ,0.08085549274504603
43, ,PASS, ,0.050519308999999964, ,0.008123020629837293, ,0.026855315900614275, ,0.0004140004714660918, ,1.8333333333333333, ,0.7655371231491236, ,0.4613987469643477, ,0.08359013081365686
44, ,PASS, ,0.05100918499999999, ,0.008270343064771634, ,0.027076245752209138, ,0.00042510852417873514, ,1.8333333333333333, ,0.769782358082325, ,0.4651537723719924, ,0.08693700128568804
45, ,PASS, ,0.05106600599999999, ,0.008278655553276193, ,0.02706359438944103, ,0.00042597705901602613, ,1.8333333333333333, ,0.7682039987689122, ,0.46501091814452766, ,0.0852227505561111
46, ,PASS, ,0.05042769709999998, ,0.00814173397733868, ,0.026770984042060367, ,0.0004139969988528534, ,1.8333333333333333, ,0.7657626472709955, ,0.4613579314707863, ,0.07795759270218976
47, ,PASS, ,0.050566250999999986, ,0.00817705000473603, ,0.026825812774249506, ,0.00041683668916513313, ,1.8333333333333333, ,0.7675877073313846, ,0.46243954205016224, ,0.08832472806677415
48, ,PASS, ,0.051467740499999984, ,0.008331648490102862, ,0.027029024607681473, ,0.0004321707702083831, ,1.8333333333333333, ,0.768316534419142, ,0.4635211526295382, ,0.08901859145731719
49, ,PASS, ,0.05010143199999998, ,0.008110327938002352, ,0.02694658006108039, ,0.0004097709559190426, ,1.8333333333333333, ,0.7661604156499542, ,0.4615620089385931, ,0.08287585967633314
50, ,PASS, ,0.04990060199999998, ,0.008065362455543415, ,0.026934066786024776, ,0.00040575160111573026, ,1.8333333333333333, ,0.7665419208261457, ,0.46170486316605786, ,0.08424317871063856
51, ,PASS, ,0.050053756999999977, ,0.008059895724816309, ,0.02678023287069652, ,0.00040672792777667066, ,1.8333333333333333, ,0.7648434128667113, ,0.46162323217893514, ,0.08077386175792331
52, ,PASS, ,0.050128520999999995, ,0.00805479533929576, ,0.026812063129038187, ,0.00040714308605832307, ,1.8333333333333333, ,0.765285780000848, ,0.46084773780126936, ,0.07834533989102263
53, ,PASS, ,0.050077227999999974, ,0.008082963818769268, ,0.026899562890165506, ,0.000408195435643302, ,1.8333333333333333, ,0.7641752153412148, ,0.4609089610416114, ,0.07746780677945347
54, ,PASS, ,0.04964930599999998, ,0.008036356112118847, ,0.02681904115867023, ,0.000402289439742218, ,1.8333333333333333, ,0.7659611693529478, ,0.4605416215995592, ,0.08052896879655518
55, ,PASS, ,0.04976950599999999, ,0.008015544039737683, ,0.026858219101202015, ,0.0004023626708293984, ,1.8333333333333333, ,0.7649347284129921, ,0.46080692230770803, ,0.08220240403257076
56, ,PASS, ,0.04936213399999998, ,0.007969666789488516, ,0.026848366852533622, ,0.0003965439904651311, ,1.8333333333333333, ,0.7649865988119813, ,0.4612967082304443, ,0.08152894838880839
57, ,PASS, ,0.049355785999999985, ,0.007960195793993034, ,0.026763452725617847, ,0.0003960418954309491, ,1.8333333333333333, ,0.7647099008021602, ,0.4609089610416114, ,0.08067182302401991
58, ,PASS, ,0.04948573999999997, ,0.007960152626626834, ,0.02688686944643987, ,0.0003973073886247554, ,1.8333333333333333, ,0.7644862217724935, ,0.46084773780126936, ,0.08034529907552906
59, ,PASS, ,0.04907497299999998, ,0.007926353042289395, ,0.026899866303606048, ,0.00039227079956660613, ,1.8333333333333333, ,0.7648115771530146, ,0.46119466949654087, ,0.07803922368931246
60, ,PASS, ,0.04955892599999997, ,0.00797479946160101, ,0.026765341558009022, ,0.00039848230753778335, ,1.8333333333333333, ,0.764500035752785, ,0.4621946490887941, ,0.07575355604987653
61, ,PASS, ,0.04960472799999998, ,0.007985346439570516, ,0.026915233593232793, ,0.0003994823522611932, ,1.8333333333333333, ,0.764115788512287, ,0.46152119344503173, ,0.08030448358196772
62, ,PASS, ,0.04928342699999998, ,0.007955456672443822, ,0.026969727575906616, ,0.0003953021370907664, ,1.8333333333333333, ,0.7633215673197218, ,0.45994979694291954, ,0.07805963143609314
63, ,PASS, ,0.04981020599999999, ,0.008017124354988466, ,0.026891635686475786, ,0.0004026406864244307, ,1.8333333333333333, ,0.7649099288566907, ,0.46150078569825104, ,0.07746780677945347
64, ,PASS, ,0.05051442999999998, ,0.00812713855868508, ,0.02699137215362952, ,0.00041394668301405384, ,1.8333333333333333, ,0.7647759238074523, ,0.4621742413420134, ,0.07940654272361788
65, ,PASS, ,0.05069986299999999, ,0.008192996205398668, ,0.027076482072284237, ,0.0004188004714981316, ,1.8333333333333333, ,0.7672922788260597, ,0.4624803575437236, ,0.08563090549172465
66, ,PASS, ,0.05065943499999999, ,0.008191126931882318, ,0.02708807431293239, ,0.00041828770386969917, ,1.8333333333333333, ,0.7657099598951186, ,0.4618477173935226, ,0.08301871390379788
67, ,PASS, ,0.05087247899999998, ,0.00823397395051022, ,0.026972430410726313, ,0.00042216469598308723, ,1.8333333333333333, ,0.76728064188459, ,0.46323544417460866, ,0.08159017162915043
68, ,PASS, ,0.050852621, ,0.008214971790507501, ,0.02700902067394543, ,0.00042109749320070055, ,1.8333333333333333, ,0.7666075789246807, ,0.4622762800759168, ,0.08410032448317381
69, ,PASS, ,0.050870521999999994, ,0.008232865163902108, ,0.026871405999857146, ,0.00042212481003901575, ,1.8333333333333333, ,0.7667089745263017, ,0.4621334258484521, ,0.08444725617844534
70, ,PASS, ,0.05057877799999998, ,0.008189273599009412, ,0.02674102666255791, ,0.00041742491166616433, ,1.8333333333333333, ,0.7659297636286274, ,0.4621742413420134, ,0.08244729699393889
71, ,PASS, ,0.05037492199999998, ,0.008178145581690378, ,0.026884749318279222, ,0.0004152978801755253, ,1.8333333333333333, ,0.7674862918395549, ,0.46186812514030323, ,0.08387583926858636
72, ,PASS, ,0.05049402699999997, ,0.008161669001573274, ,0.02679521473480133, ,0.00041565164099514646, ,1.8333333333333333, ,0.7671455594375515, ,0.4622354645823555, ,0.0840186934960511
73, ,PASS, ,0.050520419999999976, ,0.008171249877438688, ,0.026917204395379687, ,0.00041601102066904345, ,1.8333333333333333, ,0.7657863576827331, ,0.4621334258484521, ,0.0851207118222077
74, ,PASS, ,0.05032320699999999, ,0.008153500727053562, ,0.027004168707495765, ,0.00041353491933034846, ,1.8333333333333333, ,0.7655871630519097, ,0.46082733005448867, ,0.08130446317422094
75, ,PASS, ,0.050316611999999976, ,0.008108639644206021, ,0.02691601204755005, ,0.0004112921283677556, ,1.8333333333333333, ,0.7651682067129892, ,0.46168445541927716, ,0.07234546233750332
76, ,PASS, ,0.05004903349999998, ,0.008049056088525679, ,0.026764552980204488, ,0.000406288336017167, ,1.8333333333333333, ,0.763697121618971, ,0.4605212138527785, ,0.08185547233729924
77, ,PASS, ,0.04984820999999999, ,0.008032692552977389, ,0.026707287637925757, ,0.00040367982568148504, ,1.8333333333333333, ,0.7649569838169143, ,0.46131711597722497, ,0.08214118079222874
78, ,PASS, ,0.04991511599999998, ,0.008020773062747174, ,0.026666942409685517, ,0.0004038021153912238, ,1.8333333333333333, ,0.762188520744874, ,0.46031713638497174, ,0.07614130323870942
79, ,PASS, ,0.050007883999999975, ,0.008015841821544991, ,0.026697003422930143, ,0.0004043031372227261, ,1.8333333333333333, ,0.7625901347033339, ,0.46033754413175243, ,0.07950858145752128
80, ,PASS, ,0.0521897178, ,0.008409332507934034, ,0.02679311302797902, ,0.000442343598825756, ,1.8333333333333333, ,0.7639511811539601, ,0.4618273096467419, ,0.07946776596395992
81, ,PASS, ,0.12776692, ,0.01748343345005689, ,0.02907989236729863, ,0.002243560349427759, ,1.6666666666666667, ,0.6958903070348251, ,0.49417358829411645, ,0.11665068059835514
82, ,PASS, ,0.09224551, ,0.013117999681184515, ,0.02833790311187527, ,0.0012154314217511846, ,1.75, ,0.7114446674081936, ,0.4877247403114222, ,0.12830350401012225
83, ,PASS, ,0.008208290000000007, ,0.0006434883867007519, ,0.02794922554539703, ,5.5363242923673525e-06, ,1.6666666666666667, ,0.4797730487859392, ,0.43272586273749514, ,0.030754474398481665
84, ,PASS, ,0.046071950000000014, ,0.00744278086495546, ,0.026707308125732132, ,0.0003458288037001917, ,1.8333333333333333, ,0.7666321602385634, ,0.4586845166425175, ,0.0715291524662762
85, ,PASS, ,0.04620690500000001, ,0.007472063372284237, ,0.026733929718311875, ,0.0003483355634804112, ,1.8333333333333333, ,0.767106423941903, ,0.4593171567927185, ,0.08046774555621314
86, ,PASS, ,0.04620128400000001, ,0.0074541197354176005, ,0.02682913026830065, ,0.0003475096131277737, ,1.8333333333333333, ,0.7660248497531882, ,0.458970225097447, ,0.0788351258137589
87, ,PASS, ,0.04632177999999999, ,0.0074571588245133345, ,0.026724554016469056, ,0.00034846455897927085, ,1.8333333333333333, ,0.7644997809476719, ,0.4585620701618334, ,0.07267198628599417
88, ,PASS, ,0.04585493000000001, ,0.007414940566919898, ,0.026666946798677583, ,0.0003429560819751857, ,1.8333333333333333, ,0.7655882563742519, ,0.45862329340217545, ,0.07593722577090263
89, ,PASS, ,0.04611659400000001, ,0.007435289227081576, ,0.026859346702720357, ,0.0003459655544686713, ,1.8333333333333333, ,0.7649665518257464, ,0.45837840044080735, ,0.0803248913287484
90, ,PASS, ,0.0459481, ,0.007406756688110221, ,0.026979479987490056, ,0.0003433188031106488, ,1.8333333333333333, ,0.7651130545229667, ,0.45788861451807106, ,0.07587600253056061
91, ,PASS, ,0.04651457800000001, ,0.007506365340180541, ,0.026633198835370714, ,0.0003522210706389993, ,1.8333333333333333, ,0.7641065115419673, ,0.45950082651374463, ,0.07361074263790535
92, ,PASS, ,0.04713011200000001, ,0.007622392150209796, ,0.026875997227097412, ,0.0003622451733449442, ,1.8333333333333333, ,0.7676967668133317, ,0.46039876737209445, ,0.0764270116936389
93, ,PASS, ,0.046873585999999995, ,0.007525636735031216, ,0.02673341255098876, ,0.00035593367494238227, ,1.8333333333333333, ,0.7649588691200238, ,0.4594396032734026, ,0.0753249933674823
94, ,PASS, ,0.04645659700000001, ,0.007516591499964642, ,0.02695439523660742, ,0.0003521587427660625, ,1.8333333333333333, ,0.7664725745930935, ,0.45909267157813105, ,0.07903920328156568
95, ,PASS, ,0.046577057000000005, ,0.007531536136945521, ,0.02685477998428604, ,0.00035389780124385776, ,1.8333333333333333, ,0.7663320429625062, ,0.4594396032734026, ,0.08056978429011653
96, ,PASS, ,0.04645110000000002, ,0.007506160198092829, ,0.0266949728832881, ,0.00035173395696266814, ,1.8333333333333333, ,0.7660609536168075, ,0.45882737086998227, ,0.08087590049182669
97, ,PASS, ,0.046725678, ,0.007560210129898751, ,0.026927689194445017, ,0.00035635385508880234, ,1.8333333333333333, ,0.7647844686253015, ,0.45846003142793, ,0.07789636946184772
98, ,PASS, ,0.04678002800000001, ,0.007518572285728342, ,0.026739820754841742, ,0.0003548673010119026, ,1.8333333333333333, ,0.76370016749688, ,0.45880696312320157, ,0.07559029407563111
99, ,PASS, ,0.0468222, ,0.007593509316489937, ,0.02688379536738026, ,0.0003586190713958727, ,1.8333333333333333, ,0.7684614098117158, ,0.46031713638497174, ,0.08048815330299382
100, ,PASS, ,0.04731448700000001, ,0.007678922083974891, ,0.026766769205750905, ,0.0003663567765788505, ,1.8333333333333333, ,0.7689176824224578, ,0.46078651456092734, ,0.08279422868921042
101, ,PASS, ,0.046258477000000006, ,0.007475023255935779, ,0.02661562548168405, ,0.00034882407362552345, ,1.8333333333333333, ,0.7674132342176563, ,0.45952123426052527, ,0.08165139486949245
102, ,PASS, ,0.04628337200000001, ,0.007467518070373875, ,0.02676357676780066, ,0.000348713390349148, ,1.8333333333333333, ,0.7645955270642434, ,0.45862329340217545, ,0.07730454480520806
103, ,PASS, ,0.04613042000000001, ,0.007449602230522684, ,0.0266791632552601, ,0.00034683443840261414, ,1.8333333333333333, ,0.7664682200244877, ,0.4588681863635436, ,0.08316156813126263
104, ,PASS, ,0.04632676100000001, ,0.0074798937545446, ,0.02673383263992572, ,0.0003494945972097826, ,1.8333333333333333, ,0.7655635027649846, ,0.45880696312320157, ,0.07910042652190771
105, ,PASS, ,0.046346636, ,0.007474605956999335, ,0.026682932802840762, ,0.0003495478614849373, ,1.8333333333333333, ,0.7656901734961048, ,0.45913348707169244, ,0.0810595702128528
106, ,PASS, ,0.046381174000000004, ,0.007416003301352885, ,0.026897739734801335, ,0.0003470968217389908, ,1.8333333333333333, ,0.7601155576946637, ,0.4580314687455358, ,0.06867206791698129
107, ,PASS, ,0.04623371200000001, ,0.007407112258209855, ,0.026661764867329244, ,0.00034568203309519096, ,1.8333333333333333, ,0.7619856032333482, ,0.45827636170690395, ,0.07326381094263382
108, ,PASS, ,0.04590181200000001, ,0.007382023174942228, ,0.02671375393926655, ,0.00034188163812831385, ,1.8333333333333333, ,0.7623057429644737, ,0.4576845370502643, ,0.07275361727311687
109, ,PASS, ,0.04098918100000003, ,0.006068351976377068, ,0.02638410414828269, ,0.0002520763688606556, ,1.75, ,0.7227047744528129, ,0.4480520805697843, ,0.055202955041733844
