Channel, ,Pass/Fail, ,Amplitude, ,Sorting Function Response, ,Mean, ,Variance, ,NPeaksRatio, ,PosIntegralRatio, ,ToT50, ,ToT99
7, ,PASS, ,0.027719619999999976, ,0.0038051677063345246, ,0.030377151795881713, ,0.00010770487853946589, ,1.9166666666666667, ,0.713855314753583, ,0.5766617007816167, ,0.052305054998877575
8, ,PASS, ,0.06302293525999998, ,0.008835540910046789, ,0.0319314620279178, ,0.0005670348489650363, ,1.9166666666666667, ,0.7244714594411067, ,0.5697842901165282, ,0.05171323034223791
9, ,PASS, ,0.04340698599999999, ,0.005650046239326984, ,0.03069176190730801, ,0.00024926403965583386, ,1.8333333333333333, ,0.6898993089093476, ,0.5667639435929879, ,0.053998897981673843
10, ,PASS, ,0.018447369999999994, ,0.0024425461095295828, ,0.029830186959857962, ,4.572940773319721e-05, ,1.8333333333333333, ,0.6968156255671517, ,0.567580253464215, ,0.05414175220913859
11, ,PASS, ,0.018652850000000002, ,0.0024019159168428656, ,0.029743467074957654, ,4.556720110009307e-05, ,1.75, ,0.6832973008322739, ,0.567457806983531, ,0.044529703475439275
12, ,PASS, ,0.01802936, ,0.0023498800371295485, ,0.029800015852533623, ,4.3125743547214614e-05, ,1.75, ,0.6892362056578901, ,0.5683557478418808, ,0.045427644333789104
13, ,PASS, ,0.01762912000000001, ,0.0023432038218135017, ,0.029641825127650456, ,4.198802788087393e-05, ,1.8333333333333333, ,0.6947219799498365, ,0.5679271851594866, ,0.05463153813187486
14, ,PASS, ,0.01811866, ,0.0023475691621791584, ,0.0297401650774474, ,4.3276493249189055e-05, ,1.8333333333333333, ,0.6880858761627565, ,0.5684986020693455, ,0.04789698169425114
15, ,PASS, ,0.017943200000000006, ,0.0023446867936137905, ,0.02967547538927777, ,4.281749626336116e-05, ,1.75, ,0.6907682522388997, ,0.5688863492581784, ,0.05326421909756944
16, ,PASS, ,0.017781910000000005, ,0.002326498709975548, ,0.03008036474439297, ,4.207224251910434e-05, ,1.8333333333333333, ,0.696409724274717, ,0.5688863492581784, ,0.05881512622191384
17, ,PASS, ,0.01754472, ,0.0023146741575103117, ,0.02999098968225138, ,4.1268125146864644e-05, ,1.8333333333333333, ,0.6925318835814873, ,0.5683557478418808, ,0.04703985632946266
18, ,PASS, ,0.017712900000000028, ,0.0023299576681945055, ,0.02977906299402053, ,4.2003548902618105e-05, ,1.75, ,0.6953871334924332, ,0.5685190098161262, ,0.0550601008142691
19, ,PASS, ,0.017473219999999998, ,0.0022758140055259154, ,0.029823479470214895, ,4.045375926990515e-05, ,1.8333333333333333, ,0.6885215926913014, ,0.5685802330564682, ,0.04222362808922267
20, ,PASS, ,0.017515489999999984, ,0.0023112476466386153, ,0.02969058436133956, ,4.122739110458438e-05, ,1.8333333333333333, ,0.694609922021136, ,0.5691720577131079, ,0.05522336278851452
21, ,PASS, ,0.017402760000000003, ,0.002258003797748966, ,0.029730887157200875, ,3.995724664933517e-05, ,1.75, ,0.6791704235802676, ,0.5677639231852412, ,0.0433052386685986
22, ,PASS, ,0.01755073000000001, ,0.0022553901359569166, ,0.02993916793840942, ,4.026621984245561e-05, ,1.8333333333333333, ,0.6807159813746833, ,0.5684169710822228, ,0.04703985632946266
23, ,PASS, ,0.017221750000000008, ,0.002250030412253442, ,0.029772448772474033, ,3.943855624182383e-05, ,1.8333333333333333, ,0.6879338194105247, ,0.5685190098161262, ,0.042448113303810125
24, ,PASS, ,0.01738059000000001, ,0.0022920749593340023, ,0.029677151681598336, ,4.0559859486946704e-05, ,1.9166666666666667, ,0.6931560020836952, ,0.5691312422195466, ,0.03865227240260403
25, ,PASS, ,0.017021100000000004, ,0.002268506274599088, ,0.029574646399665314, ,3.926095133022499e-05, ,1.9166666666666667, ,0.6958085136549058, ,0.5679475929062672, ,0.042937899226546394
26, ,PASS, ,0.01734074, ,0.002282082182880504, ,0.029770848554111138, ,4.027226342723153e-05, ,1.9166666666666667, ,0.6881900000861404, ,0.5682537091079773, ,0.03448909205934573
27, ,PASS, ,0.017307030000000008, ,0.002280011338386364, ,0.02951173772147507, ,4.020931388592182e-05, ,1.8333333333333333, ,0.6957313363306655, ,0.5703352992796066, ,0.05132548315340503
28, ,PASS, ,0.017286040000000003, ,0.0022698715789305286, ,0.02969130960755903, ,3.997757502283581e-05, ,1.9166666666666667, ,0.6946246382202772, ,0.5695802126487215, ,0.04397869431236097
29, ,PASS, ,0.01710372000000001, ,0.002238096643694532, ,0.02976961797065366, ,3.892202513734538e-05, ,1.9166666666666667, ,0.6911125432252904, ,0.5690904267259852, ,0.053549927552498926
30, ,PASS, ,0.016909630000000012, ,0.002243161165098154, ,0.029755504148690843, ,3.8582956116597005e-05, ,1.9166666666666667, ,0.6947916313672821, ,0.5685802330564682, ,0.048692883818697574
31, ,PASS, ,0.017176350000000003, ,0.0022542676327582506, ,0.02970287984571743, ,3.941521885121161e-05, ,1.9166666666666667, ,0.6938948459092104, ,0.5693965429276954, ,0.04475418869002674
32, ,PASS, ,0.017053970000000012, ,0.002184277933312058, ,0.029708763722168935, ,3.7882780825652834e-05, ,1.75, ,0.673637437403094, ,0.567457806983531, ,0.03506050896920471
33, ,PASS, ,0.017144580000000003, ,0.002179800492824775, ,0.02959552698271464, ,3.801541193501935e-05, ,1.75, ,0.6830185314200592, ,0.5691312422195466, ,0.048162282402399954
34, ,PASS, ,0.016884910000000003, ,0.0021898986509036465, ,0.02962624986939042, ,3.763182015488811e-05, ,1.8333333333333333, ,0.6807681702332467, ,0.5687639027774943, ,0.04687659435521724
35, ,PASS, ,0.016923990000000017, ,0.002164369406766192, ,0.029687979824085223, ,3.726226912046763e-05, ,1.8333333333333333, ,0.6836612064019102, ,0.569478173914818, ,0.053570335299279605
36, ,PASS, ,0.016873300000000004, ,0.002191559547191231, ,0.029734667216791494, ,3.7656943813383885e-05, ,1.9166666666666667, ,0.6869997921876847, ,0.5694373584212568, ,0.050264280320809776
37, ,PASS, ,0.016734420000000014, ,0.002339721859125878, ,0.02983170355829473, ,3.983313807144414e-05, ,1.9166666666666667, ,0.7282196692146101, ,0.5711312014040529, ,0.05552947899022469
38, ,PASS, ,0.017067720000000005, ,0.002250805367685074, ,0.02990940038325748, ,3.91499610182652e-05, ,1.9166666666666667, ,0.7027165160458222, ,0.570559784494194, ,0.06073345441929757
39, ,PASS, ,0.016729430000000007, ,0.002261681526850799, ,0.029580284308891657, ,3.8495711645084214e-05, ,1.9166666666666667, ,0.7081286199801697, ,0.5701924450521418, ,0.04967245566417012
40, ,PASS, ,0.01687518000000001, ,0.0022283649111440582, ,0.02950504301565274, ,3.8270005228397716e-05, ,1.9166666666666667, ,0.6963565425630024, ,0.5698046978633089, ,0.04014203791759352
41, ,PASS, ,0.017002240000000016, ,0.002219678472299032, ,0.02952851826248444, ,3.8411088403000376e-05, ,1.9166666666666667, ,0.6911298325996216, ,0.5699475520907736, ,0.0446929654496847
42, ,PASS, ,0.01670838000000001, ,0.002256371105385221, ,0.029346030203057077, ,3.8363055535148005e-05, ,1.9166666666666667, ,0.7047969628014766, ,0.5699067365972122, ,0.05822330156527418
43, ,PASS, ,0.016638439999999997, ,0.0022058079579361477, ,0.029644881065692533, ,3.737592974808974e-05, ,1.9166666666666667, ,0.6919981437566638, ,0.5689067570049591, ,0.05259076345380707
44, ,PASS, ,0.016832589999999998, ,0.0022947699012051473, ,0.029501193418501662, ,3.931428992836579e-05, ,1.9166666666666667, ,0.7169108675005885, ,0.5711516091508336, ,0.054366237423726045
45, ,PASS, ,0.017202870000000002, ,0.0024604733192484635, ,0.02970834225077039, ,4.310172276580601e-05, ,1.9166666666666667, ,0.73026561904671, ,0.5713352788718598, ,0.060876308646762314
46, ,PASS, ,0.016881430000000003, ,0.002273856138295486, ,0.029713807862084447, ,3.909767260761588e-05, ,1.9166666666666667, ,0.7071205875929204, ,0.5704781535070713, ,0.045733760535499275
47, ,PASS, ,0.016825370000000003, ,0.0022481062768181254, ,0.029564650915695597, ,3.852628078785465e-05, ,1.9166666666666667, ,0.7024013832642879, ,0.5691312422195466, ,0.05897838819615926
48, ,PASS, ,0.01676937000000002, ,0.0022720175031962415, ,0.02958256704536642, ,3.8789343043071045e-05, ,1.9166666666666667, ,0.7051345749719621, ,0.5696822513826248, ,0.05761106916185384
49, ,PASS, ,0.016703729999999993, ,0.0022657890863462247, ,0.029373027725964774, ,3.849810897416316e-05, ,1.9166666666666667, ,0.708134083571648, ,0.5698251056100896, ,0.05097855145813351
50, ,PASS, ,0.016902960000000005, ,0.0022480838533202084, ,0.029515836300483662, ,3.87101772287096e-05, ,1.9166666666666667, ,0.6979483687821731, ,0.5699679598375543, ,0.05791718536356401
51, ,PASS, ,0.016907190000000006, ,0.002243509502990387, ,0.02964902829717761, ,3.863596473680612e-05, ,1.9166666666666667, ,0.6939105873269997, ,0.5699067365972122, ,0.05648864308891655
52, ,PASS, ,0.01693719000000001, ,0.0022405631472251293, ,0.02956146711087529, ,3.865483897601224e-05, ,1.9166666666666667, ,0.6943853129264799, ,0.5703557070263873, ,0.043754209097773514
53, ,PASS, ,0.01699230000000002, ,0.002208282704755818, ,0.02938945055447848, ,3.81818130122788e-05, ,1.8333333333333333, ,0.6909453961447652, ,0.5689271647517398, ,0.04793779718781249
54, ,PASS, ,0.016645050000000005, ,0.002213857942586542, ,0.029589809803065244, ,3.749837401132136e-05, ,1.9166666666666667, ,0.6950984323758321, ,0.5695393971551601, ,0.04218281259566131
55, ,PASS, ,0.016652820000000006, ,0.0021964854502492985, ,0.02958872690863452, ,3.723540536197095e-05, ,1.9166666666666667, ,0.6960298408791837, ,0.5698863288504317, ,0.06479459602865248
56, ,PASS, ,0.01648502000000001, ,0.002192447451523535, ,0.029654214339095118, ,3.680944776199559e-05, ,1.9166666666666667, ,0.6939132992200227, ,0.5698455133568703, ,0.06195791922613824
57, ,PASS, ,0.016396020000000018, ,0.0022086810975828854, ,0.029343919350217344, ,3.680980723859474e-05, ,1.9166666666666667, ,0.7033977071363189, ,0.5687434950307136, ,0.05154996836799249
58, ,PASS, ,0.016724280000000008, ,0.0022167243720902867, ,0.02958432997714332, ,3.771728647518509e-05, ,1.9166666666666667, ,0.688209293097321, ,0.5685190098161262, ,0.038468602681577924
59, ,PASS, ,0.016573010000000003, ,0.002197599681770433, ,0.029593420017754737, ,3.7057495259148235e-05, ,1.9166666666666667, ,0.7004572402291183, ,0.5698046978633089, ,0.05003979510622232
60, ,PASS, ,0.016887570000000015, ,0.00228272289488571, ,0.029494648940225708, ,3.92734971532371e-05, ,1.9166666666666667, ,0.7027442176184111, ,0.5700087753311157, ,0.0439582865655803
61, ,PASS, ,0.01703643000000002, ,0.002266612585356758, ,0.029522059654905, ,3.931996049355528e-05, ,1.9166666666666667, ,0.6990443415947702, ,0.5695598049019408, ,0.04679496336809453
62, ,PASS, ,0.01721361, ,0.0022941440528315036, ,0.02972164052937695, ,4.0254633561887745e-05, ,1.9166666666666667, ,0.6993182367249654, ,0.5708250852023428, ,0.05095814371135283
63, ,PASS, ,0.016852449999999995, ,0.002251052104258379, ,0.029415400341013448, ,3.860736328248698e-05, ,1.9166666666666667, ,0.701216696822199, ,0.5703965225199485, ,0.05401930572845452
64, ,PASS, ,0.016756390000000017, ,0.0022228268848936287, ,0.029518453185649274, ,3.790408095418097e-05, ,1.9166666666666667, ,0.6981782203047658, ,0.5697026591294055, ,0.05010101834656436
65, ,PASS, ,0.016735320000000012, ,0.0021923433249668996, ,0.029581272358319217, ,3.7311276802015325e-05, ,1.9166666666666667, ,0.6958328505612423, ,0.5693149119405726, ,0.04350931613640538
66, ,PASS, ,0.016800970000000016, ,0.002207185544828996, ,0.029445029642864433, ,3.770959790472711e-05, ,1.8333333333333333, ,0.6936080626994647, ,0.5694169506744761, ,0.04250933654415216
67, ,PASS, ,0.01680555000000001, ,0.002213106158805245, ,0.02952485557172303, ,3.7827438254663004e-05, ,1.9166666666666667, ,0.6944706079104118, ,0.5693353196873533, ,0.04440725699475521
68, ,PASS, ,0.016547500000000007, ,0.002262149123317861, ,0.029560049798575537, ,3.8033081201922234e-05, ,1.9166666666666667, ,0.710802059662099, ,0.5696210281422828, ,0.04787657394747046
69, ,PASS, ,0.016888490000000003, ,0.002256591126502482, ,0.029508710063059936, ,3.8811256182488104e-05, ,1.9166666666666667, ,0.6998641780616297, ,0.5692332809534499, ,0.0419175118875125
70, ,PASS, ,0.016727740000000012, ,0.002208002333998527, ,0.029520950517540456, ,3.7532783271333473e-05, ,1.8333333333333333, ,0.6983044138816268, ,0.569865921103651, ,0.0323870941409359
71, ,PASS, ,0.01712269999999999, ,0.0022097916875592418, ,0.029517394907859026, ,3.8519289045564964e-05, ,1.75, ,0.6946177351194067, ,0.5699679598375543, ,0.043284830921817924
72, ,PASS, ,0.017173660000000014, ,0.0022353784195125173, ,0.029601382912797698, ,3.902821231069833e-05, ,1.9166666666666667, ,0.680589355241475, ,0.5678047386788024, ,0.039203281565682334
73, ,PASS, ,0.01822186, ,0.0023792761526328513, ,0.029448262183628903, ,4.4029600411529964e-05, ,1.8333333333333333, ,0.6833666299323512, ,0.5654374400522438, ,0.044039917552703006
74, ,PASS, ,0.01351997000000001, ,0.0016874977617673441, ,0.029196370640599174, ,2.315285122173851e-05, ,1.75, ,0.6602003916982097, ,0.5663353809105937, ,0.04230525907634538
75, ,PASS, ,0.013168509999999998, ,0.0016502073040636066, ,0.029367318850023468, ,2.207351687757639e-05, ,1.8333333333333333, ,0.6650554142347379, ,0.5660088569621028, ,0.033407481479969796
76, ,PASS, ,0.013093149999999994, ,0.001579078226105632, ,0.029294595338870636, ,2.1023763215142773e-05, ,1.75, ,0.6528884264167769, ,0.5662333421766903, ,0.04724393379726945
77, ,PASS, ,0.013198710000000006, ,0.001583393454640814, ,0.02923490018469011, ,2.12848585173224e-05, ,1.75, ,0.6535948531071384, ,0.5661517111895675, ,0.045243974612763006
78, ,PASS, ,0.012989970000000007, ,0.0015992292639422953, ,0.029083253242586888, ,2.1113864319354917e-05, ,1.75, ,0.6630574915230814, ,0.5664986428848391, ,0.0590396114365013
79, ,PASS, ,0.012671130000000006, ,0.0015229089293441397, ,0.029313167859227364, ,1.957688373390235e-05, ,1.8333333333333333, ,0.6553638678295168, ,0.5665190506316198, ,0.055978449419399605
112, ,PASS, ,0.012784899999999995, ,0.0015828744867449416, ,0.029269581999551028, ,2.0576524928755863e-05, ,1.75, ,0.6620428870576728, ,0.5659068182281994, ,0.048856145792943
113, ,PASS, ,0.012797409999999995, ,0.0015715074021833287, ,0.029290911569559805, ,2.0424626350167736e-05, ,1.75, ,0.6615558402436056, ,0.5673557682496275, ,0.04883573804616232
114, ,PASS, ,0.012971939999999987, ,0.0015858314621674775, ,0.029256761546090897, ,2.0900914207448313e-05, ,1.75, ,0.6660372181273894, ,0.5680088161466093, ,0.05457031489153283
115, ,PASS, ,0.012657949999999994, ,0.0015814697230777043, ,0.02914703038203302, ,2.031646530633176e-05, ,1.75, ,0.6652006976379882, ,0.5671516907818208, ,0.04706026407624334
116, ,PASS, ,0.013085089999999997, ,0.001595965480179916, ,0.02930102686271709, ,2.1267070946464603e-05, ,1.75, ,0.6604215721526607, ,0.567457806983531, ,0.04985612538519622
117, ,PASS, ,0.01262482999999999, ,0.0015577846724739485, ,0.029327013492581787, ,1.9945785816329538e-05, ,1.8333333333333333, ,0.6582990948603905, ,0.5656823330136119, ,0.03981551396910267
118, ,PASS, ,0.012687229999999997, ,0.0016063327388201396, ,0.029224308963490542, ,2.0730784362272598e-05, ,1.8333333333333333, ,0.6683926160102568, ,0.5668659823268913, ,0.04946837819636334
119, ,PASS, ,0.012796069999999996, ,0.0015627767467282277, ,0.029377808031468746, ,2.0314026114387327e-05, ,1.75, ,0.655439206931287, ,0.56682516683333, ,0.05193771555682537
120, ,PASS, ,0.012713200000000008, ,0.001584666638337636, ,0.029329309134099306, ,2.048219534234496e-05, ,1.75, ,0.6763463217597454, ,0.5677843309320217, ,0.05130507540662436
121, ,PASS, ,0.012853249999999997, ,0.001532694688596643, ,0.029160222047713312, ,2.0029447426265465e-05, ,1.75, ,0.647392863200705, ,0.5669272055672333, ,0.039101242831778946
122, ,PASS, ,0.01264844, ,0.001586254484548595, ,0.02921614346482725, ,2.036630139726826e-05, ,1.75, ,0.6648882854658447, ,0.567070059794698, ,0.03626456602926471
123, ,PASS, ,0.012750259999999989, ,0.001558827119204313, ,0.029296372800963245, ,2.0190735507389983e-05, ,1.75, ,0.6581404678133269, ,0.5663966041509357, ,0.040386930878961655
124, ,PASS, ,0.01254773, ,0.0015511851990862994, ,0.029365183285035, ,1.979194062390758e-05, ,1.75, ,0.6650182813704992, ,0.5678047386788024, ,0.03769310830391216
125, ,PASS, ,0.012596370000000006, ,0.001521197454880303, ,0.02929588663721149, ,1.9515343827863064e-05, ,1.75, ,0.6584606782988304, ,0.5682128936144161, ,0.044509295728658596
126, ,PASS, ,0.012791090000000005, ,0.0015581364843217933, ,0.029119101348952063, ,2.0294046849491374e-05, ,1.75, ,0.6504413052914647, ,0.5665598661251812, ,0.03904001959143691
127, ,PASS, ,0.012642959999999998, ,0.0015501966353659484, ,0.029210188523295447, ,1.9944118879520283e-05, ,1.75, ,0.6684522939037014, ,0.568274116854758, ,0.038693087896165386
128, ,PASS, ,0.012418540000000013, ,0.0015224005996701067, ,0.029291429980612644, ,1.9213797627954026e-05, ,1.75, ,0.6577375271244735, ,0.5658455949878574, ,0.04842758311054876
129, ,PASS, ,0.012357879999999995, ,0.0015544579653389177, ,0.02907316093896043, ,1.9499644066615966e-05, ,1.75, ,0.6800386816061924, ,0.5684169710822228, ,0.050631619762861985
130, ,PASS, ,0.012680359999999991, ,0.0015420582167451466, ,0.02933623387339034, ,1.9865647536857573e-05, ,1.75, ,0.649837596168632, ,0.5667027203526459, ,0.036387012509948774
131, ,PASS, ,0.012482780000000006, ,0.0015306286009215023, ,0.029457707385563563, ,1.9450424580777246e-05, ,1.75, ,0.6602973750663415, ,0.5669272055672333, ,0.04993775637231893
132, ,PASS, ,0.01259294, ,0.0015020311156849877, ,0.029516066767821068, ,1.9209362237292267e-05, ,1.75, ,0.6443645239649587, ,0.566376196404155, ,0.031774861737515564
133, ,PASS, ,0.012278380000000002, ,0.0014966153154167354, ,0.02944023038550234, ,1.8661725318708086e-05, ,1.75, ,0.6522642233006047, ,0.5662741576702516, ,0.0625497438827779
134, ,PASS, ,0.012630850000000013, ,0.0015203009350950735, ,0.029270297061284464, ,1.950500751886661e-05, ,1.75, ,0.6514695204190523, ,0.5662741576702516, ,0.038407379441235893
135, ,PASS, ,0.012457729999999986, ,0.0014920789431283807, ,0.02942518765739475, ,1.8886714880139825e-05, ,1.75, ,0.6431488634459076, ,0.5671720985286015, ,0.02971367931266709
136, ,PASS, ,0.012467159999999998, ,0.0014868624504545136, ,0.029485546079671847, ,1.8852583300739238e-05, ,1.75, ,0.6524214503399878, ,0.5677639231852412, ,0.04634599293891961
137, ,PASS, ,0.012674740000000004, ,0.001482496273458391, ,0.029365470543050144, ,1.9098393273699155e-05, ,1.75, ,0.6537696169787232, ,0.5673149527560662, ,0.038346156200893856
138, ,PASS, ,0.01242973, ,0.0015052226001768777, ,0.02941922502071387, ,1.904049135497608e-05, ,1.75, ,0.6548685647750422, ,0.5683965633354421, ,0.04683577886165589
139, ,PASS, ,0.012377189999999993, ,0.0015051224015728496, ,0.02944887505724373, ,1.8957414724573485e-05, ,1.75, ,0.6498147875434549, ,0.5669884288075754, ,0.04271341401195894
140, ,FAIL, ,0.0018028799999999963, ,8.218839644776457e-05, ,0.029207005893757274, ,1.4288117136681583e-07, ,1.4166666666666667, ,0.4229988478064477, ,0.6200077549437767, ,0.010509989592049141
141, ,PASS, ,0.012305209999999997, ,0.001577916356569438, ,0.029459188922675048, ,1.976197943243502e-05, ,1.9166666666666667, ,0.6864239731393867, ,0.569294504193792, ,0.04028489214505827
142, ,PASS, ,0.012485549999999991, ,0.001529586174796874, ,0.029373087114956842, ,1.9417341586391585e-05, ,1.75, ,0.6701165940250191, ,0.5677843309320217, ,0.029142262402808105
143, ,PASS, ,0.012437139999999985, ,0.0015228385455484741, ,0.029407371643639928, ,1.925844279012919e-05, ,1.75, ,0.6502008827567417, ,0.565743556253954, ,0.03189730821819963
176, ,PASS, ,0.012264449999999993, ,0.0015094772976381665, ,0.029548094658068208, ,1.8806658973799718e-05, ,1.75, ,0.6651337524297777, ,0.5673149527560662, ,0.047815350707128425
177, ,PASS, ,0.012164320000000003, ,0.0014888983772204985, ,0.029245146002326486, ,1.837013070958541e-05, ,1.75, ,0.6522594252500683, ,0.5665190506316198, ,0.0484888063508908
178, ,PASS, ,0.012319129999999987, ,0.0014629144987561126, ,0.029553067836982923, ,1.8348143029437982e-05, ,1.75, ,0.6433574071823559, ,0.5678659619191445, ,0.03579518785330912
179, ,PASS, ,0.01224679, ,0.0015129744287373614, ,0.02947684869390421, ,1.8842488461921898e-05, ,1.75, ,0.6657402085248699, ,0.5673965837431889, ,0.03777473929103488
180, ,PASS, ,0.012134809999999989, ,0.0014931516343622987, ,0.029372654416236404, ,1.842541820139721e-05, ,1.75, ,0.6633075538282345, ,0.5677639231852412, ,0.053590743046060284
181, ,PASS, ,0.012749850000000004, ,0.001692025820638097, ,0.029419224031550378, ,2.1954593942369615e-05, ,1.9166666666666667, ,0.702936891336672, ,0.5693353196873533, ,0.05467235362543622
182, ,PASS, ,0.012191629999999992, ,0.0015082267610200578, ,0.029247752828921864, ,1.872727467231358e-05, ,1.75, ,0.6677167706486058, ,0.5684986020693455, ,0.04685618660843656
183, ,PASS, ,0.012233549999999996, ,0.0014790979334812137, ,0.029364380515703763, ,1.838350908574877e-05, ,1.75, ,0.6563623452805549, ,0.567580253464215, ,0.04930511622211792
184, ,PASS, ,0.01204359, ,0.001455009994373211, ,0.02932608819085325, ,1.776086697735228e-05, ,1.75, ,0.659077072298191, ,0.5667639435929879, ,0.03806044774596437
185, ,PASS, ,0.0120328, ,0.0014893842235804103, ,0.029504819964082368, ,1.8232965498832025e-05, ,1.75, ,0.667469495942528, ,0.5684169710822228, ,0.04834595212342605
186, ,FAIL, ,0.002071680000000003, ,7.562996366243567e-05, ,0.028661779470214897, ,1.6015767291201136e-07, ,0.6666666666666666, ,0.27872569381214884, ,0.3927062713005857, ,0.007591681802412196
187, ,PASS, ,0.012157389999999983, ,0.0014644764725043724, ,0.029348536597212305, ,1.813175839787414e-05, ,1.75, ,0.6517852870076698, ,0.5671925062753821, ,0.03820330197342912
188, ,FAIL, ,0.0013324500000000059, ,6.153905831857623e-05, ,0.029024212927083123, ,8.496851773210938e-08, ,1.0833333333333333, ,0.2945612289813367, ,0.5103977469847554, ,0.002714230321830167
189, ,FAIL, ,0.0010746000000000054, ,3.824495520173293e-05, ,0.02903446504173384, ,4.426229053030663e-08, ,0.6666666666666666, ,0.3264052051934057, ,0.34113589518581255, ,0.0024285218669006757
190, ,PASS, ,0.011669849999999996, ,0.001453427438778088, ,0.029497181331809556, ,1.7235954710237597e-05, ,1.8333333333333333, ,0.6735913892872848, ,0.5679884083998286, ,0.048121466908838596
191, ,PASS, ,0.011693790000000003, ,0.0014428768977579616, ,0.029268850777126997, ,1.7130311369479198e-05, ,1.75, ,0.6680316127111088, ,0.5674986224770923, ,0.05040713454827452
192, ,PASS, ,0.01179626999999999, ,0.0014426641094328777, ,0.029465251895267445, ,1.7301163770030193e-05, ,1.75, ,0.670849362960566, ,0.5690700189792045, ,0.04720311830370809
193, ,PASS, ,0.011788519999999997, ,0.0014317490381146522, ,0.029403611408134533, ,1.7155089747787897e-05, ,1.8333333333333333, ,0.663939879869656, ,0.5679475929062672, ,0.03675435195200098
194, ,FAIL, ,0.0019208500000000052, ,6.733775625986184e-05, ,0.028951757503112185, ,1.2798437727834605e-07, ,0.6666666666666666, ,0.2413744900619591, ,0.47623517887390054, ,0.004203995836819656
195, ,PASS, ,0.011652749999999993, ,0.0014866416289059006, ,0.029169617735556423, ,1.760415534508146e-05, ,1.75, ,0.6738757019786518, ,0.5679884083998286, ,0.03681557519234301
196, ,PASS, ,0.012083789999999997, ,0.0014607507977652202, ,0.029417481178139224, ,1.7965494697735218e-05, ,1.75, ,0.6610749549367343, ,0.5685190098161262, ,0.03665231321809759
197, ,PASS, ,0.012208979999999987, ,0.001427722157970455, ,0.02945020355217241, ,1.7715629160014044e-05, ,1.75, ,0.649836082330551, ,0.5681108548805126, ,0.03146874553580539
198, ,PASS, ,0.012329030000000001, ,0.0014655029992474903, ,0.0294312624644395, ,1.8417851327826146e-05, ,1.75, ,0.6494431438949204, ,0.5691108344727659, ,0.05289687965551723
199, ,PASS, ,0.012040789999999999, ,0.0014237840980980685, ,0.02943813292014449, ,1.7434873060737583e-05, ,1.75, ,0.6448840537491932, ,0.5664986428848391, ,0.04281545274586233
200, ,PASS, ,0.011921040000000011, ,0.001444835653827143, ,0.02916417968204731, ,1.7493808835016006e-05, ,1.75, ,0.6484293783327524, ,0.5665802738719617, ,0.041672618926144364
201, ,PASS, ,0.01189119999999999, ,0.0014446232041278291, ,0.02939319643476664, ,1.7477114834531297e-05, ,1.75, ,0.6620438507367254, ,0.5684781943225649, ,0.048162282402399954
202, ,PASS, ,0.011727199999999993, ,0.0014356545911514136, ,0.029284127141282836, ,1.7103939331975208e-05, ,1.75, ,0.6610622534671452, ,0.5677843309320217, ,0.05008061059978368
203, ,PASS, ,0.011848170000000002, ,0.0014214689103627138, ,0.029282927739025737, ,1.7134233397426073e-05, ,1.75, ,0.6550152317788345, ,0.5673353605028468, ,0.043346054162159954
204, ,FAIL, ,0.0016004999999999978, ,6.698734866282868e-05, ,0.028871021037938007, ,1.1113980857648686e-07, ,1.0, ,0.3251909213112577, ,0.650149996938838, ,0.010285504377461684
205, ,PASS, ,0.011825579999999999, ,0.0015308408847935916, ,0.029408061007734538, ,1.8418431944586363e-05, ,1.9166666666666667, ,0.681069060923007, ,0.5684373788290035, ,0.0443256260076325
206, ,PASS, ,0.011758960000000006, ,0.0015265498017686405, ,0.02940481912246689, ,1.8267215333356906e-05, ,1.9166666666666667, ,0.689997269460358, ,0.5694985816615987, ,0.04393787881879962
207, ,PASS, ,0.011405779999999997, ,0.0013866739841190275, ,0.029384713181975882, ,1.6087961814671605e-05, ,1.75, ,0.6605576644986849, ,0.5685802330564682, ,0.05618252688720638
208, ,PASS, ,0.011732410000000006, ,0.001408488962610511, ,0.029208544752147916, ,1.6804219886029442e-05, ,1.75, ,0.6657223267434663, ,0.5696006203955021, ,0.0486724760719169
209, ,PASS, ,0.011777769999999986, ,0.001396330468158911, ,0.029359477629640217, ,1.6724526879527543e-05, ,1.75, ,0.6417603682885468, ,0.5668047590865493, ,0.038754311136507416
210, ,PASS, ,0.011654139999999997, ,0.001351533664226262, ,0.029321503242178734, ,1.600382157439129e-05, ,1.75, ,0.6343856585416523, ,0.566376196404155, ,0.05742739944082774
211, ,PASS, ,0.011625659999999989, ,0.0013471177332252593, ,0.029151907860043676, ,1.5908110324880068e-05, ,1.75, ,0.6212011489237509, ,0.5645803146874554, ,0.03434623783188098
212, ,PASS, ,0.011527819999999994, ,0.001314473127839876, ,0.029361785075406627, ,1.5376999045971476e-05, ,1.8333333333333333, ,0.6173732801108301, ,0.5652129548376563, ,0.04342768514928267
213, ,PASS, ,0.011851369999999996, ,0.0013396670144364602, ,0.029337812825452544, ,1.6110085400903678e-05, ,1.75, ,0.628850659284575, ,0.5666210893655231, ,0.0496928634109508
214, ,PASS, ,0.011921620000000004, ,0.001387317802902249, ,0.029304514025223976, ,1.680770468302025e-05, ,1.75, ,0.6345650983422443, ,0.5660904879492256, ,0.03240750188771658
215, ,PASS, ,0.012028119999999986, ,0.0014587305109133929, ,0.02929209746372523, ,1.7805217492799283e-05, ,1.75, ,0.6542203192876085, ,0.5677435154384605, ,0.04426440276729046
