Channel, ,Pass/Fail, ,Amplitude, ,Sorting Function Response, ,Mean, ,Variance, ,NPeaksRatio, ,PosIntegralRatio, ,ToT50, ,ToT99
41, ,PASS, ,0.047988830000000024, ,0.008025958109339908, ,0.04655978101181609, ,0.0003882583765005829, ,1.8333333333333333, ,0.7630680149256862, ,0.5421522009754903, ,0.2008938593089937
42, ,PASS, ,0.08406443799999998, ,0.011039784474905417, ,0.04553588172343422, ,0.0009330495179348207, ,1.75, ,0.6469338413992526, ,0.5083773800534683, ,0.0637538009428379
43, ,PASS, ,0.04257683999999999, ,0.006752699310142678, ,0.04575640525723964, ,0.0002897371753206398, ,1.75, ,0.7318431122985728, ,0.5353360135507439, ,0.18040448154119304
44, ,PASS, ,0.06520262000000002, ,0.009772278660101918, ,0.046026370815289486, ,0.0006413486312521699, ,1.75, ,0.7106773310456473, ,0.5288055345809269, ,0.08314116038448195
45, ,PASS, ,0.10117789700000002, ,0.012214616893486087, ,0.04458641223760739, ,0.0012404956816106528, ,1.5, ,0.6112375610097399, ,0.5046223546458235, ,0.03697883716658844
46, ,PASS, ,0.05518582999999995, ,0.007868258688978662, ,0.04516777922246485, ,0.00043665539995833396, ,1.75, ,0.6831146600074344, ,0.5273361768127182, ,0.08191669557764127
47, ,PASS, ,0.06191880000000003, ,0.009676561536758645, ,0.04653060048672476, ,0.0006036213683946489, ,1.75, ,0.7265754866640043, ,0.5311932409542662, ,0.11258953898900022
48, ,PASS, ,0.09997051599999997, ,0.01222772894353526, ,0.04495149765531437, ,0.0012277936546826616, ,1.5, ,0.617702770970877, ,0.5058672271994449, ,0.03924409705924369
49, ,PASS, ,0.05250307000000002, ,0.007831384512505927, ,0.04592854938470643, ,0.0004140729826371738, ,1.75, ,0.7015294137366415, ,0.5297034754392768, ,0.12848717373114835
50, ,PASS, ,0.06208641000000003, ,0.010375392168335116, ,0.04660347725128058, ,0.0006492722574349001, ,1.8333333333333333, ,0.7618695742904266, ,0.5411318136364563, ,0.19381237117609845
51, ,PASS, ,0.10128209900000003, ,0.012515095460963271, ,0.04567675668753903, ,0.0012740550402877773, ,1.5, ,0.6230887760922533, ,0.5084386032938103, ,0.04259096753127487
52, ,PASS, ,0.05250605000000002, ,0.008116037127955673, ,0.04595897749535724, ,0.0004290377314214057, ,1.75, ,0.7180705551423605, ,0.5307034550315299, ,0.15718046570478153
53, ,PASS, ,0.09314492356999997, ,0.01237967141635027, ,0.046258960801645065, ,0.001158912711140745, ,1.75, ,0.6573181577263213, ,0.5233566661904859, ,0.05134589090018571
54, ,PASS, ,0.11543492000000001, ,0.01323679047922424, ,0.044019138652313224, ,0.0015348793196051495, ,1.5, ,0.5947914797870755, ,0.49956123344421544, ,0.028427991265484377
55, ,PASS, ,0.06166813, ,0.008603179598897228, ,0.04672839606905981, ,0.0005335630659090489, ,1.75, ,0.6764792178152562, ,0.5309687557396788, ,0.06679455521315891
56, ,PASS, ,0.09353418909999997, ,0.012555051006080589, ,0.0461686885672372, ,0.0011809867525302542, ,1.75, ,0.6606722721688565, ,0.5216832309544703, ,0.05463153813187486
57, ,PASS, ,0.11400118999999997, ,0.013184641310473293, ,0.044608168365849674, ,0.0015099639818687552, ,1.5, ,0.5966920667308775, ,0.4990306320279178, ,0.030958551866288445
58, ,PASS, ,0.05692169999999996, ,0.00817443733401901, ,0.04553611420848554, ,0.0004679119550705156, ,1.75, ,0.6839418839329638, ,0.5233974816840473, ,0.0770800595906206
59, ,PASS, ,0.08609793899999996, ,0.011970707891343624, ,0.046955707240770604, ,0.0010375932523560402, ,1.75, ,0.6783992855326914, ,0.5260708965123161, ,0.05748862268116977
60, ,PASS, ,0.11462584999999995, ,0.013336976243231422, ,0.04362738786371707, ,0.0015353968008735828, ,1.5, ,0.5982648359547966, ,0.4986632925858656, ,0.03185649272463827
61, ,PASS, ,0.05808914999999999, ,0.008784569069803738, ,0.04522248677639232, ,0.0005140288454313327, ,1.75, ,0.7118728187956991, ,0.5274586232934022, ,0.1322217913920124
62, ,PASS, ,0.09568703399999999, ,0.01268161109098149, ,0.045808283092542396, ,0.0012224251558501504, ,1.75, ,0.6539695593856457, ,0.5220505703965225, ,0.047386788024734186
63, ,PASS, ,0.12529094, ,0.013915942676993363, ,0.042574360901410174, ,0.0017535392039909592, ,1.6666666666666667, ,0.5824402521612815, ,0.49213281361604866, ,0.0258157996775576
64, ,PASS, ,0.072659967, ,0.00995266378748875, ,0.044491003548866356, ,0.0007293412574699881, ,1.75, ,0.6641190160008085, ,0.5207444746025591, ,0.06154976429052468
65, ,PASS, ,0.09502971899999997, ,0.013051798359004645, ,0.0444581097013114, ,0.0012469831032641196, ,1.75, ,0.6712721000251016, ,0.5165812942593009, ,0.058937572702597904
66, ,PASS, ,0.12320013000000003, ,0.013726838518568105, ,0.04177902148017387, ,0.001698985523405928, ,1.6666666666666667, ,0.5823851363448226, ,0.4910716107834534, ,0.02561172220975082
67, ,PASS, ,0.07058517599999999, ,0.01012169975466175, ,0.04511694304675415, ,0.0007191060916814767, ,1.75, ,0.6842055344444943, ,0.5210097753107079, ,0.08985530907532499
68, ,PASS, ,0.09441759299999998, ,0.013217914095487742, ,0.044049410417358825, ,0.0012568256888352788, ,1.75, ,0.6757425540307683, ,0.5123568906757004, ,0.06510071223036265
69, ,PASS, ,0.12130989000000005, ,0.013636964316640491, ,0.042511278511867104, ,0.001663560187595814, ,1.75, ,0.5859520235611125, ,0.4898471459766127, ,0.029162670149588784
70, ,PASS, ,0.07089433800000003, ,0.010404971844162371, ,0.04417437877014755, ,0.0007424823554320755, ,1.75, ,0.695113997463303, ,0.5214791534866635, ,0.08830432031999347
71, ,PASS, ,0.09299008509999997, ,0.0131587994831155, ,0.045542967386337015, ,0.0012325452299534983, ,1.75, ,0.6845837587473084, ,0.5221117936368646, ,0.06618232280973858
72, ,PASS, ,0.12592578, ,0.013734602583436588, ,0.04190305528907573, ,0.0017388174380097096, ,1.6666666666666667, ,0.5758793934989398, ,0.4905206016203751, ,0.024183179935103365
73, ,PASS, ,0.07876994500000001, ,0.010494962619217153, ,0.044118239284014614, ,0.0008314132894671661, ,1.75, ,0.6559946608743161, ,0.5222954633578907, ,0.05183567682292198
74, ,PASS, ,0.08720429953000004, ,0.012309420523768991, ,0.044140389873073206, ,0.001080017216839048, ,1.75, ,0.6831967191055058, ,0.5269688373706659, ,0.04999897961266097
75, ,PASS, ,0.12118670000000002, ,0.013105933382481776, ,0.04278813912397706, ,0.00159507258063955, ,1.5833333333333333, ,0.5728211068631844, ,0.49456133548294934, ,0.023611763025244384
76, ,PASS, ,0.07554469500000002, ,0.010417944825668704, ,0.04439698260141631, ,0.0007919569114797205, ,1.75, ,0.6697708418607462, ,0.5253566253749924, ,0.0707944735821718
77, ,PASS, ,0.07717430000000002, ,0.010669337640731186, ,0.04461449566682313, ,0.0008288226079613132, ,1.75, ,0.6765764513316819, ,0.5319279198383706, ,0.05563151772412808
78, ,PASS, ,0.12279795, ,0.013063585420401463, ,0.04182936917671068, ,0.0016108729621757572, ,1.5, ,0.5653871630391011, ,0.49415318054733576, ,0.022652598926552518
79, ,PASS, ,0.07454982200000003, ,0.010320427818404383, ,0.04515074371031203, ,0.0007737369261679321, ,1.75, ,0.6712344489120611, ,0.5239076753535642, ,0.06983530948347993
80, ,PASS, ,0.07644057900000002, ,0.010295097578525874, ,0.045771501347870454, ,0.0007923745943169251, ,1.75, ,0.6673108028153696, ,0.5321728127997388, ,0.04669292463419114
81, ,PASS, ,0.12033452000000001, ,0.012854017449397338, ,0.043111302015265, ,0.001552872419964199, ,1.6666666666666667, ,0.566642897620687, ,0.49205118262892594, ,0.02295871512826269
82, ,PASS, ,0.07628958600000002, ,0.0101427590073802, ,0.045644031072406686, ,0.0007785691834141665, ,1.75, ,0.6517588940155169, ,0.5251117324136242, ,0.051121405685598253
83, ,PASS, ,0.06889593700000002, ,0.009769825696314318, ,0.04511468782439134, ,0.0006774813422671878, ,1.75, ,0.6889715698354855, ,0.533682986061509, ,0.0611620171016918
84, ,PASS, ,0.11295541999999999, ,0.012289370812280445, ,0.04364206566468031, ,0.0013928093866684525, ,1.5, ,0.5737170871971408, ,0.4943980735087039, ,0.024877043325646414
85, ,PASS, ,0.06900747800000004, ,0.009816158875474722, ,0.045519143101630584, ,0.0006824121719345587, ,1.75, ,0.6811757924617439, ,0.5242954225423971, ,0.08326360686516601
198, ,PASS, ,0.1998000000000001, ,0.044528256881087504, ,0.03125968322340373, ,0.00927210045733335, ,1.8333333333333333, ,0.9700412937868157, ,0.5763759923266872, ,0.5340911409971225
199, ,PASS, ,0.1998000000000001, ,0.04487103556919509, ,0.031029598181465813, ,0.009230628680915811, ,1.9166666666666667, ,0.9672659949589568, ,0.5751311197730659, ,0.5281320789371645
200, ,PASS, ,0.1998000000000001, ,0.04510796998595407, ,0.028002728293096184, ,0.009280457731602633, ,2.0, ,0.9645971265549874, ,0.5598661251811188, ,0.5098467378216771
201, ,PASS, ,0.1998000000000001, ,0.045029349774920735, ,0.02793806704271354, ,0.009233131430681706, ,2.0, ,0.9616912324006704, ,0.5594375624987246, ,0.5049080631007531
202, ,PASS, ,0.1998000000000001, ,0.04502815537981186, ,0.027106143945837963, ,0.009218955004619972, ,1.9166666666666667, ,0.9594616375742439, ,0.5551111201812208, ,0.4981530989163486
203, ,PASS, ,0.1998000000000001, ,0.044485766445255294, ,0.02512272808697794, ,0.009271524125746824, ,1.9166666666666667, ,0.9593640767122265, ,0.5453358094732761, ,0.48882675863757885
204, ,PASS, ,0.1998000000000001, ,0.04430365443751007, ,0.02491181222056705, ,0.009267862404095453, ,1.8333333333333333, ,0.9588269185536998, ,0.5442337911471195, ,0.48735740086937
205, ,PASS, ,0.1998000000000001, ,0.04394842827441182, ,0.023452501432419868, ,0.009290452703319256, ,2.0, ,0.958205791070751, ,0.5369278177996367, ,0.4797657190669578
206, ,PASS, ,0.1998000000000001, ,0.04405107909899236, ,0.021660268761045817, ,0.00930348530892143, ,2.0, ,0.9568253573528747, ,0.5279075937225771, ,0.47011285483969717
207, ,PASS, ,0.1998000000000001, ,0.04474084453147034, ,0.02110950622681182, ,0.009301558145134956, ,1.9166666666666667, ,0.9558485767117894, ,0.5252954021346503, ,0.46619456745780696
208, ,PASS, ,0.1998000000000001, ,0.04391581892268092, ,0.024800595276831205, ,0.009242501916761398, ,1.9166666666666667, ,0.9570528579029516, ,0.5436011509969184, ,0.48456153956041714
209, ,PASS, ,0.1998000000000001, ,0.04383521954187997, ,0.022055465514785533, ,0.009272893470003953, ,1.9166666666666667, ,0.9551405284609292, ,0.5299075529070836, ,0.469867961878329
210, ,PASS, ,0.1998000000000001, ,0.044565412968165734, ,0.026850032521989472, ,0.009184826200232865, ,1.9166666666666667, ,0.9567870844208871, ,0.5537846166404767, ,0.4935409481439154
211, ,PASS, ,0.1998000000000001, ,0.04441698059268948, ,0.025571647033530053, ,0.009211826495900211, ,1.9166666666666667, ,0.9561218717145991, ,0.5475398461255893, ,0.486785983959511
212, ,PASS, ,0.1998000000000001, ,0.04434683019967205, ,0.025987443269525234, ,0.00920085305368839, ,1.8333333333333333, ,0.9562157804860199, ,0.5495398053100957, ,0.48880635089079816
213, ,PASS, ,0.1998000000000001, ,0.044517923574195616, ,0.025074259911430502, ,0.009213539856716134, ,1.8333333333333333, ,0.9553594816304269, ,0.5450705087651272, ,0.48368400644884796
214, ,PASS, ,0.1998000000000001, ,0.04450076686260815, ,0.026966840153466377, ,0.009161292057801345, ,1.9166666666666667, ,0.9552820079358582, ,0.554458072284239, ,0.4922144446031714
215, ,PASS, ,0.1998000000000001, ,0.044022264023208614, ,0.022745565950695008, ,0.009223298002676832, ,1.8333333333333333, ,0.9523720758601644, ,0.5334789085937022, ,0.4696230689169609
216, ,PASS, ,0.1998000000000001, ,0.044538827547028946, ,0.023821980556723455, ,0.009213822410888578, ,1.8333333333333333, ,0.9534476042845181, ,0.5387645150098977, ,0.47578620844472563
217, ,PASS, ,0.1998000000000001, ,0.044207024117248264, ,0.02482419038550246, ,0.00917581035175211, ,1.8333333333333333, ,0.9525240607987461, ,0.5437031897308218, ,0.4792147099038795
218, ,PASS, ,0.1998000000000001, ,0.043828514198090446, ,0.023641948636354482, ,0.00919929217595497, ,1.9166666666666667, ,0.9520808591306796, ,0.5379073896451093, ,0.47333727883104426
219, ,PASS, ,0.1998000000000001, ,0.04394530170499465, ,0.02869892748005155, ,0.009079769769344477, ,1.9166666666666667, ,0.9533547996823307, ,0.5630701414256852, ,0.4976633129936124
220, ,PASS, ,0.1998000000000001, ,0.04441923294361334, ,0.029167723077896494, ,0.009051744174667767, ,1.9166666666666667, ,0.9528523532319271, ,0.5651925470908757, ,0.4992959327360666
221, ,PASS, ,0.1998000000000001, ,0.04363821664900204, ,0.023112813267484454, ,0.009157234766047425, ,1.9166666666666667, ,0.9487457602637195, ,0.535009489602253, ,0.4672761780371829
222, ,PASS, ,0.1998000000000001, ,0.04386818022508042, ,0.02541562717597612, ,0.00910105201257075, ,1.9166666666666667, ,0.9489175534255248, ,0.5463357890655293, ,0.47786779861635476
223, ,PASS, ,0.1998000000000001, ,0.04428584179612634, ,0.024618378898185873, ,0.009202548196872532, ,1.8333333333333333, ,0.9538586225759268, ,0.5427848411256914, ,0.4798677578008612
224, ,PASS, ,0.1998000000000001, ,0.044952875674110264, ,0.027070587581886206, ,0.009217958322664104, ,1.9166666666666667, ,0.9591012145621678, ,0.5550090814473174, ,0.49709189608375337
225, ,PASS, ,0.1998000000000001, ,0.04463242706789168, ,0.0259867030017756, ,0.00926996540285995, ,1.9166666666666667, ,0.9605591808288644, ,0.5497030672843412, ,0.49454092773616865
226, ,PASS, ,0.1998000000000001, ,0.04511093667181325, ,0.02947042368359842, ,0.009281293764728278, ,2.0, ,0.9672023895166932, ,0.5673353605028468, ,0.5207852900961205
