Channel, ,Pass/Fail, ,Amplitude, ,Sorting Function Response, ,Mean, ,Variance, ,NPeaksRatio, ,PosIntegralRatio, ,ToT50, ,ToT99
42, ,PASS, ,0.009582389999999993, ,0.0011878700089658764, ,0.02861863998489827, ,1.1701754854938551e-05, ,1.8333333333333333, ,0.7250233508169707, ,0.6197628619824085, ,0.03928491255280504
43, ,PASS, ,0.00991657000000001, ,0.0011476967122465672, ,0.02862584148711251, ,1.1717311616696814e-05, ,1.6666666666666667, ,0.695501917658099, ,0.6241301197934735, ,0.037121691394053184
44, ,PASS, ,0.00941019000000001, ,0.0011301605341071152, ,0.028987335242137913, ,1.0975374078236453e-05, ,1.75, ,0.7196141935525087, ,0.6305993755229485, ,0.06016203750943858
45, ,PASS, ,0.009687750000000009, ,0.001090595828662364, ,0.02886212852411175, ,1.0882296157906123e-05, ,1.6666666666666667, ,0.6767501938395694, ,0.6227832085059488, ,0.016836391094059305
46, ,PASS, ,0.009438830000000023, ,0.0011017473199521248, ,0.028614243709107978, ,1.074346180187214e-05, ,1.75, ,0.6681193662263412, ,0.624293381767719, ,0.019224097467398626
47, ,PASS, ,0.009423580000000022, ,0.0010805945252897254, ,0.028781508910022242, ,1.0499820741577749e-05, ,1.75, ,0.6858728662653304, ,0.6260484479908573, ,0.04952960143670537
48, ,PASS, ,0.00917830000000001, ,0.00102928393745306, ,0.028701695594171548, ,9.730604510060258e-06, ,1.75, ,0.6844595454513158, ,0.6231097324544397, ,0.03416256811085488
49, ,PASS, ,0.009198650000000003, ,0.0010231630155659503, ,0.02876334433582988, ,9.694248167137804e-06, ,1.75, ,0.6794269792064199, ,0.624109712046693, ,0.029162670149588784
50, ,PASS, ,0.009159090000000012, ,0.0010863483606054776, ,0.028551717774331135, ,1.0236121855111911e-05, ,1.8333333333333333, ,0.7034149218617658, ,0.6168241464459909, ,0.03985632946266403
51, ,PASS, ,0.008905989999999992, ,0.0010250018427035489, ,0.028721707460664065, ,9.42112422421176e-06, ,1.8333333333333333, ,0.6843388916695234, ,0.622905654986633, ,0.028203506050896922
52, ,PASS, ,0.009055810000000004, ,0.0010362799172052874, ,0.028593954795820494, ,9.653898817720346e-06, ,1.75, ,0.6767901723869117, ,0.619477153527479, ,0.0216526193342993
53, ,PASS, ,0.00898682999999999, ,0.0010518548462636612, ,0.028651610819166954, ,9.714291544956438e-06, ,1.8333333333333333, ,0.7001001329779685, ,0.6180077957592702, ,0.07679435113569111
54, ,PASS, ,0.009146840000000014, ,0.001068357593638805, ,0.02861405667292504, ,1.0044720959753739e-05, ,1.75, ,0.6876619419821852, ,0.6204771331197323, ,0.018938389012469133
55, ,PASS, ,0.00896787, ,0.0009943342106318116, ,0.028803908038407378, ,9.206823557218684e-06, ,1.75, ,0.6793250891754289, ,0.6246199057162098, ,0.027468827166792515
56, ,PASS, ,0.009116720000000009, ,0.0010580527159796001, ,0.028710924390114488, ,9.926361516998745e-06, ,1.8333333333333333, ,0.6906143149169917, ,0.622905654986633, ,0.0341421603640742
57, ,PASS, ,0.008914690000000013, ,0.001039243387946083, ,0.0287706881206506, ,9.549218301816129e-06, ,1.8333333333333333, ,0.6927091109843633, ,0.6215587436991081, ,0.03506050896920471
58, ,PASS, ,0.00885093, ,0.0010315556586766872, ,0.028681898217791473, ,9.405969395151339e-06, ,1.8333333333333333, ,0.6909033893510279, ,0.6223138303299932, ,0.03526458643701149
59, ,PASS, ,0.00890349, ,0.0010642585600187085, ,0.02854098284769698, ,9.757933481892301e-06, ,1.8333333333333333, ,0.7084879313758119, ,0.6234158486561499, ,0.03538703291769556
60, ,PASS, ,0.00898104000000001, ,0.0010172407949315648, ,0.02866197034101345, ,9.425923543692121e-06, ,1.8333333333333333, ,0.6831947019981909, ,0.620619987347197, ,0.021836289055325402
61, ,PASS, ,0.008930790000000004, ,0.001006188022535269, ,0.028871011807922287, ,9.246200872241874e-06, ,1.75, ,0.6819509330847819, ,0.6203955021326095, ,0.02036693128711659
62, ,PASS, ,0.008891679999999992, ,0.0010405292497439856, ,0.028517258790432844, ,9.525510086641673e-06, ,1.8333333333333333, ,0.6985180828933056, ,0.6222321993428706, ,0.04744801126507622
63, ,PASS, ,0.009205480000000002, ,0.0010766730598596875, ,0.02859993992020571, ,1.0190103884646759e-05, ,1.8333333333333333, ,0.7076644312437178, ,0.6232321789351237, ,0.0706924348482684
64, ,PASS, ,0.009324620000000013, ,0.0010584496513779487, ,0.028725772027305564, ,1.0173798581112927e-05, ,1.75, ,0.6913474100168304, ,0.6236811493642986, ,0.032611579355523355
65, ,PASS, ,0.009394020000000003, ,0.0010923572949015198, ,0.02874268814065019, ,1.057919218192298e-05, ,1.75, ,0.6921019986855633, ,0.6228852472398523, ,0.052672394440929776
66, ,PASS, ,0.009299750000000006, ,0.0011012061555297373, ,0.02864858353339728, ,1.0553617757015757e-05, ,1.8333333333333333, ,0.6877473384426657, ,0.6216607824330116, ,0.029917756780473866
67, ,PASS, ,0.009455350000000012, ,0.0011257278799520268, ,0.028748803210750802, ,1.0968038229366212e-05, ,1.8333333333333333, ,0.7118855653325258, ,0.6235587028836146, ,0.049325523968898596
68, ,PASS, ,0.009691910000000015, ,0.0011877544669434378, ,0.02890467693924614, ,1.185141596773542e-05, ,1.8333333333333333, ,0.7252266678221012, ,0.6231913634415625, ,0.06448847982694231
69, ,PASS, ,0.009302760000000024, ,0.001122970270953185, ,0.02879349978877982, ,1.0782297778610356e-05, ,1.8333333333333333, ,0.7006685018940761, ,0.6202730556519255, ,0.04442766474153589
70, ,PASS, ,0.00959891000000003, ,0.001152714934612275, ,0.028857186198853083, ,1.1403114568340133e-05, ,1.8333333333333333, ,0.7000621568525992, ,0.6219873063815025, ,0.034611538540029796
71, ,PASS, ,0.00964918000000001, ,0.0011445508757380277, ,0.028724490144895, ,1.1350850616957911e-05, ,1.8333333333333333, ,0.6933040688267, ,0.6196608232485051, ,0.026264770106732515
72, ,PASS, ,0.009822280000000034, ,0.0011707033968033976, ,0.028812223779514704, ,1.1832093012551746e-05, ,1.8333333333333333, ,0.7054850826690107, ,0.6191710373257688, ,0.03883594212363013
73, ,PASS, ,0.009715530000000003, ,0.00117187629785998, ,0.028684248091875676, ,1.1717142583960751e-05, ,1.8333333333333333, ,0.7173497676309792, ,0.6226199465317034, ,0.05330503459113079
74, ,PASS, ,0.009869050000000022, ,0.00119254949987249, ,0.028627899136548233, ,1.209721232845711e-05, ,1.8333333333333333, ,0.7071845973810493, ,0.6212322197506174, ,0.027468827166792515
75, ,PASS, ,0.009526470000000016, ,0.0012106855009864832, ,0.028676216589661435, ,1.1848694833789673e-05, ,1.8333333333333333, ,0.7386223353123889, ,0.618783290136936, ,0.07512091589967551
76, ,PASS, ,0.010049280000000011, ,0.0012912581933438702, ,0.02886088475582131, ,1.3331985092268931e-05, ,1.9166666666666667, ,0.7323068324352479, ,0.6217220056733536, ,0.0254484602355054
77, ,PASS, ,0.009931360000000018, ,0.001177068155882019, ,0.028769938051060182, ,1.2037094801786166e-05, ,1.8333333333333333, ,0.7139151194390366, ,0.6224158690638967, ,0.08085549274504603
78, ,PASS, ,0.009963700000000016, ,0.0011938252583796212, ,0.02885417064243587, ,1.2233336642427525e-05, ,1.8333333333333333, ,0.7024041141516773, ,0.6226403542784841, ,0.03308095753147895
79, ,PASS, ,0.009965490000000014, ,0.0012175263305862385, ,0.028718024645007244, ,1.2487192317510806e-05, ,1.8333333333333333, ,0.700734684390174, ,0.6209669190424685, ,0.031223852574437258
112, ,PASS, ,0.009689200000000016, ,0.0011804616059436885, ,0.028843715249484703, ,1.1776481515464947e-05, ,1.8333333333333333, ,0.710285662637428, ,0.6216607824330116, ,0.02959123283198302
113, ,PASS, ,0.01026379000000002, ,0.001254190302545114, ,0.028570828350237748, ,1.3236353349569446e-05, ,1.8333333333333333, ,0.7163846949702221, ,0.621885267647599, ,0.03699924491336912
114, ,PASS, ,0.01004587000000002, ,0.0012223913492484216, ,0.02878342595498051, ,1.2641531032357015e-05, ,1.8333333333333333, ,0.7169350508740712, ,0.621191404257056, ,0.033836044162364035
115, ,PASS, ,0.01020774000000001, ,0.0012598614447198245, ,0.02871806729352462, ,1.3209831459427252e-05, ,1.8333333333333333, ,0.7170681542523419, ,0.6215587436991081, ,0.028060651823432176
116, ,PASS, ,0.010290790000000018, ,0.0012428205721125738, ,0.028919969633476872, ,1.3168659362865778e-05, ,1.8333333333333333, ,0.7152977332897937, ,0.6187016591498132, ,0.04457051896900063
117, ,PASS, ,0.01012254000000002, ,0.0012561174082376164, ,0.02885958319952654, ,1.3065656605231775e-05, ,1.8333333333333333, ,0.7200343196921127, ,0.6164976224975001, ,0.05299891838942063
118, ,PASS, ,0.010288680000000015, ,0.0012740857930991633, ,0.028766241631395278, ,1.3498181803915772e-05, ,1.8333333333333333, ,0.725856979558571, ,0.6237831880982021, ,0.0519989387971674
119, ,PASS, ,0.01047988, ,0.0012473014983561037, ,0.028782279470214896, ,1.343920972814645e-05, ,1.8333333333333333, ,0.7043394302666194, ,0.625313769106753, ,0.03861145690904267
120, ,PASS, ,0.010521400000000007, ,0.001251720548249245, ,0.02887408516132324, ,1.3531893361175127e-05, ,1.8333333333333333, ,0.7019857483722545, ,0.6219056753943797, ,0.03573396461296708
121, ,PASS, ,0.010558399999999999, ,0.0012780383088975594, ,0.02879240378216771, ,1.3903361622163386e-05, ,1.8333333333333333, ,0.7069905986223045, ,0.6190485908450848, ,0.04389706332523826
122, ,PASS, ,0.01052632000000002, ,0.0013064938175635598, ,0.0289396237315565, ,1.4134168307376713e-05, ,1.8333333333333333, ,0.7211665885782949, ,0.6222321993428706, ,0.05416215995591927
123, ,PASS, ,0.010561070000000013, ,0.001281399219486592, ,0.028820221358543705, ,1.391421594333808e-05, ,1.8333333333333333, ,0.7208954863928664, ,0.6217424134201343, ,0.035080916715985386
124, ,PASS, ,0.010617620000000022, ,0.0012625059568995706, ,0.0287194608559009, ,1.381079350062313e-05, ,1.8333333333333333, ,0.6908861756471183, ,0.6205179486132936, ,0.030346319462868105
125, ,PASS, ,0.010586890000000012, ,0.0012967755087426858, ,0.028861439072671986, ,1.4145278959723364e-05, ,1.8333333333333333, ,0.7162194814981351, ,0.6196200077549437, ,0.030632027917797598
126, ,PASS, ,0.010749090000000006, ,0.0013001049288915874, ,0.02882695704087672, ,1.439979978602904e-05, ,1.8333333333333333, ,0.70005038396486, ,0.6211709965102753, ,0.02504030529989184
127, ,PASS, ,0.010758720000000006, ,0.001332904260229374, ,0.028880873277688214, ,1.4742838396718783e-05, ,1.8333333333333333, ,0.734703005900295, ,0.6221709761025285, ,0.05944776637211485
128, ,PASS, ,0.010552530000000004, ,0.0013055236442537353, ,0.02911356046366401, ,1.4174173466132705e-05, ,1.8333333333333333, ,0.725267993979523, ,0.6241709352870349, ,0.05942735862533418
129, ,PASS, ,0.010703330000000011, ,0.0013204259919137186, ,0.028859819001040794, ,1.4533938121231942e-05, ,1.8333333333333333, ,0.7218450347457902, ,0.6215995591926695, ,0.023407685557437604
130, ,PASS, ,0.010889429999999988, ,0.0013272027285741324, ,0.028961241252831577, ,1.4880035906413015e-05, ,1.8333333333333333, ,0.7136063679119571, ,0.6224566845574581, ,0.031142221587314545
131, ,PASS, ,0.011352880000000003, ,0.0014000964424253479, ,0.029034003390951205, ,1.6358821703652903e-05, ,1.8333333333333333, ,0.7187766575802332, ,0.6225179077978, ,0.03769310830391216
132, ,PASS, ,0.011307570000000003, ,0.0013348905816048485, ,0.029086080763861964, ,1.5548824734196295e-05, ,1.8333333333333333, ,0.6954899930093787, ,0.6192526683128916, ,0.018550641823636253
133, ,PASS, ,0.011030470000000014, ,0.001361247899030406, ,0.028910656413950738, ,1.5441494954277772e-05, ,1.8333333333333333, ,0.7190181536262242, ,0.620619987347197, ,0.0632027917797596
134, ,PASS, ,0.01193888000000001, ,0.0014724275467219207, ,0.029233051567927187, ,1.807188472081917e-05, ,1.8333333333333333, ,0.7205986983956696, ,0.618273096467419, ,0.04303993796044979
135, ,PASS, ,0.030456560000000014, ,0.005196667326814951, ,0.030717484750107146, ,0.00015944549184516453, ,1.75, ,0.8132364632652935, ,0.5975796412318116, ,0.16891492010367135
136, ,PASS, ,0.014001639999999996, ,0.001970567233879326, ,0.029527666998428605, ,2.8177235219409378e-05, ,2.0, ,0.75615500734785, ,0.6140486928838187, ,0.04959082467704741
137, ,PASS, ,0.01257295, ,0.0017221661828859364, ,0.02948775529458583, ,2.214331262364568e-05, ,2.0, ,0.7557200454048759, ,0.6154160119181241, ,0.04683577886165589
138, ,PASS, ,0.012579160000000002, ,0.0017470173667547056, ,0.029408132929327976, ,2.248559148616985e-05, ,2.0, ,0.7712692160891624, ,0.6163547682700353, ,0.10338564519091448
139, ,PASS, ,0.012784670000000012, ,0.0017352313071510746, ,0.029063996330483052, ,2.2715975203139194e-05, ,2.0, ,0.7534812070964341, ,0.6133548294932757, ,0.034652354033591154
140, ,PASS, ,0.012944100000000007, ,0.00171376389472719, ,0.029101148380849373, ,2.2661835580817105e-05, ,1.8333333333333333, ,0.7329937482737778, ,0.6155384583988082, ,0.05183567682292198
141, ,PASS, ,0.012775430000000011, ,0.00174463808857643, ,0.029304656866390482, ,2.280886783797397e-05, ,2.0, ,0.7599252537982703, ,0.6168445541927716, ,0.03722373012795657
142, ,PASS, ,0.012604990000000007, ,0.0017521612717803664, ,0.02920139077304545, ,2.2596462618641483e-05, ,2.0, ,0.7684301092816841, ,0.6153343809310015, ,0.08561049774494398
143, ,PASS, ,0.012928090000000017, ,0.001735896338496977, ,0.029295427256382525, ,2.292283483512106e-05, ,2.0, ,0.7631756223432811, ,0.6180077957592702, ,0.03904001959143691
176, ,PASS, ,0.012977160000000001, ,0.0017732592010926067, ,0.029203775322952596, ,2.3570994963597863e-05, ,2.0, ,0.765267152513336, ,0.6189669598579621, ,0.03555029489194098
177, ,PASS, ,0.012973869999999995, ,0.0017445209382719053, ,0.02940751927491276, ,2.3145247645141318e-05, ,2.0, ,0.7496055319019117, ,0.6166608844717455, ,0.03826452521377115
178, ,PASS, ,0.012843189999999997, ,0.0017191901605332568, ,0.029365922597498012, ,2.260962449842645e-05, ,2.0, ,0.7446252211193075, ,0.6174159711026306, ,0.03983592171588335
179, ,PASS, ,0.012639360000000013, ,0.0017405372313026555, ,0.029401069620824068, ,2.2486513778287948e-05, ,2.0, ,0.7625695649995636, ,0.6167425154588682, ,0.04195832738107386
180, ,PASS, ,0.012868590000000013, ,0.0017497732404827238, ,0.029193600406726396, ,2.3051835229113855e-05, ,2.0, ,0.7628074170155414, ,0.6158445746005183, ,0.044876635170710805
181, ,PASS, ,0.012892790000000015, ,0.001768195212277828, ,0.02940879091977715, ,2.3380562830463072e-05, ,2.0, ,0.7610308301150204, ,0.6223138303299932, ,0.059672251586702314
182, ,PASS, ,0.012699530000000018, ,0.0017825151502704924, ,0.029365263377278017, ,2.3144821285758687e-05, ,2.0, ,0.7680401112295269, ,0.6160486520683252, ,0.04144813371155691
183, ,FAIL, ,0.0022364199999999924, ,7.002138714529397e-05, ,0.028130382929736134, ,1.7697939010566778e-07, ,0.6666666666666666, ,0.2779437030211867, ,0.5324585212546683, ,0.0027754535621722005
184, ,PASS, ,0.01296617000000001, ,0.001795643542909304, ,0.02924512653966246, ,2.3833428173130198e-05, ,2.0, ,0.7672625322252616, ,0.6182526887206383, ,0.045243974612763006
185, ,PASS, ,0.012761340000000006, ,0.0018021317133242749, ,0.029234444854186654, ,2.355104910340701e-05, ,2.0, ,0.7678923910854945, ,0.6161098753086671, ,0.04924389298177588
186, ,PASS, ,0.012836920000000005, ,0.0017638629011401542, ,0.029118146550274483, ,2.3148690796666695e-05, ,2.0, ,0.7632727090416392, ,0.6170282239137976, ,0.06512111997714333
187, ,PASS, ,0.012957340000000005, ,0.0017786426776171542, ,0.029140899903063205, ,2.361505356161217e-05, ,2.0, ,0.7598957680423924, ,0.6176200485704373, ,0.033774820922022
188, ,PASS, ,0.013057819999999994, ,0.0017897624792717816, ,0.02914808870512847, ,2.3963004488144368e-05, ,2.0, ,0.7614600506044418, ,0.6169670006734557, ,0.03279524907654946
189, ,PASS, ,0.012903930000000018, ,0.0018061726371585531, ,0.029147612898104122, ,2.3866637376219943e-05, ,2.0, ,0.7609393105851702, ,0.6161506908022285, ,0.04022366890471623
190, ,PASS, ,0.012905190000000007, ,0.0017820152907938945, ,0.029111030771004676, ,2.354892276984186e-05, ,2.0, ,0.7574489916369193, ,0.6157833513601764, ,0.036305381522826065
191, ,PASS, ,0.01286072000000001, ,0.0017878055833073787, ,0.02928753585028877, ,2.3495261638171043e-05, ,2.0, ,0.7533734570144837, ,0.615109895716414, ,0.03808085549274504
192, ,PASS, ,0.013016860000000016, ,0.001807905272127965, ,0.02927038021775066, ,2.409326231033266e-05, ,2.0, ,0.7638331721190645, ,0.6162323217893513, ,0.04679496336809453
193, ,PASS, ,0.012981140000000013, ,0.0018204543174706353, ,0.02920105199730618, ,2.4183289843896475e-05, ,2.0, ,0.7728075892788551, ,0.6170894471541397, ,0.07661068141466501
194, ,PASS, ,0.01271638000000001, ,0.0017866003536087802, ,0.029322697734127875, ,2.3212223486229513e-05, ,2.0, ,0.7730501989269077, ,0.6170894471541397, ,0.07373318911858942
195, ,PASS, ,0.012800710000000028, ,0.0018338430535119591, ,0.02919727735291117, ,2.4032415123554607e-05, ,2.0, ,0.7748996115323858, ,0.618150649986735, ,0.0870798555131528
196, ,PASS, ,0.012989450000000007, ,0.0017737254851261468, ,0.02946988776045387, ,2.3568291161801563e-05, ,2.0, ,0.7589648819407762, ,0.6164772147507194, ,0.04152976469867962
197, ,PASS, ,0.012975180000000017, ,0.001771265340089777, ,0.02921491238709414, ,2.354255991915486e-05, ,2.0, ,0.7589224919963458, ,0.6200281626905574, ,0.037897185771718946
198, ,PASS, ,0.01247918000000001, ,0.0017557215317847651, ,0.02919743255607029, ,2.2415366223774835e-05, ,2.0, ,0.760072701213042, ,0.6147221485275811, ,0.036733944205220304
199, ,PASS, ,0.012635610000000009, ,0.001742482950563867, ,0.029312303379522873, ,2.2527743153348256e-05, ,2.0, ,0.7578224178441828, ,0.6121507724332157, ,0.021693434827860656
200, ,PASS, ,0.012867750000000022, ,0.0017584443938796768, ,0.029201694720719987, ,2.3163941044935348e-05, ,2.0, ,0.757487504968361, ,0.6176200485704373, ,0.035427848411256915
201, ,PASS, ,0.012910090000000006, ,0.0017718615030174647, ,0.029157624294606235, ,2.345164324525519e-05, ,2.0, ,0.7561450939307561, ,0.6143956245790902, ,0.053080549376543336
202, ,PASS, ,0.01288561000000001, ,0.001749684533586476, ,0.02935518983918696, ,2.3132671783189855e-05, ,2.0, ,0.7550248911688222, ,0.6152935654374401, ,0.04028489214505827
203, ,PASS, ,0.012976769999999999, ,0.0018816243501838198, ,0.029460670137344137, ,2.4908699587503094e-05, ,2.0, ,0.7685396854376156, ,0.6142935858451868, ,0.028774922960755903
204, ,PASS, ,0.013083110000000002, ,0.0017744566757056709, ,0.029295317693720537, ,2.3729224887041195e-05, ,2.0, ,0.7436376493734314, ,0.6134772759739597, ,0.03038713495642946
205, ,PASS, ,0.012790920000000011, ,0.0017637401133716543, ,0.02921402472704639, ,2.31030850072382e-05, ,2.0, ,0.757237739184982, ,0.6160486520683252, ,0.03593804208077386
206, ,PASS, ,0.013035170000000013, ,0.0017732563970449756, ,0.02936665880839167, ,2.3641603582627055e-05, ,2.0, ,0.7528835111301329, ,0.6172323013816045, ,0.03873390338972674
207, ,PASS, ,0.012760300000000006, ,0.0017475790558574681, ,0.029308728787167615, ,2.2804302145544214e-05, ,2.0, ,0.752588696815634, ,0.6157221281198343, ,0.035978857574335214
208, ,PASS, ,0.012931990000000004, ,0.001815603728955562, ,0.02920343667170058, ,2.397267607144549e-05, ,2.0, ,0.7643947773511206, ,0.6142935858451868, ,0.04430521826085182
209, ,PASS, ,0.012426790000000007, ,0.0017665155354497264, ,0.029234257437603314, ,2.2454193255685657e-05, ,2.0, ,0.7760630263236984, ,0.6177833105446827, ,0.07122303626456603
210, ,PASS, ,0.012680800000000016, ,0.0018000350162673642, ,0.029382846140078776, ,2.3326144093978347e-05, ,2.0, ,0.7805298413662177, ,0.6176608640639987, ,0.09007979428991245
211, ,PASS, ,0.01304136000000002, ,0.0018009528765947304, ,0.02902542092936879, ,2.4013584416578403e-05, ,2.0, ,0.7546429453679744, ,0.6166608844717455, ,0.03857064141548132
212, ,PASS, ,0.012843069999999995, ,0.0017885076940951058, ,0.029237660507336585, ,2.350969475902258e-05, ,2.0, ,0.7635378319021977, ,0.6148854105018265, ,0.05167241484867656
213, ,PASS, ,0.01291481000000003, ,0.0018031878120603171, ,0.029256199085120713, ,2.382837653314931e-05, ,2.0, ,0.7649464782352128, ,0.6182935042141997, ,0.05673353605028469
214, ,PASS, ,0.01258096000000002, ,0.0017990884861882612, ,0.02916896117895553, ,2.3129062478744558e-05, ,2.0, ,0.776041210939909, ,0.6165384379910614, ,0.07083528907573315
215, ,PASS, ,0.01276412000000001, ,0.0017918244579688677, ,0.029364735922940352, ,2.3373269055109767e-05, ,2.0, ,0.766487883939443, ,0.6177833105446827, ,0.05854982551376502
216, ,PASS, ,0.013286290000000006, ,0.0017944587594437946, ,0.02924245871247526, ,2.443909719187391e-05, ,2.0, ,0.7465951950724422, ,0.6181710577335157, ,0.04426440276729046
217, ,PASS, ,0.013198269999999995, ,0.0018068265727616234, ,0.0292436966733332, ,2.4415677375914707e-05, ,2.0, ,0.7578726661899859, ,0.6139262464031346, ,0.03732576886185996
218, ,PASS, ,0.01317252000000001, ,0.0018299456320390462, ,0.02927322200322443, ,2.4684551594597698e-05, ,2.0, ,0.7567299648698016, ,0.6161506908022285, ,0.03940735903348911
219, ,PASS, ,0.012719440000000002, ,0.0018089944584808908, ,0.02938602144854187, ,2.3551293194145996e-05, ,2.0, ,0.7673918208502637, ,0.6166608844717455, ,0.052692802187710455
220, ,PASS, ,0.012846320000000005, ,0.0017773317890462151, ,0.029445701642007306, ,2.333654654177025e-05, ,2.0, ,0.7686347305202652, ,0.6174159711026306, ,0.06899859186547214
221, ,PASS, ,0.01290198, ,0.0018011668300662632, ,0.029356970881614663, ,2.3782322344536602e-05, ,2.0, ,0.7659161708174559, ,0.6171098549009204, ,0.049488785943144015
222, ,PASS, ,0.012897420000000003, ,0.001786913098079477, ,0.02908028225607641, ,2.3594933785728674e-05, ,2.0, ,0.7529678731187436, ,0.6143139935919675, ,0.04279504499908165
223, ,PASS, ,0.012983940000000006, ,0.001796234491542499, ,0.029294782213628297, ,2.3891437616424217e-05, ,2.0, ,0.759277305106592, ,0.6167221077120875, ,0.043570539376747416
224, ,PASS, ,0.01313271000000001, ,0.0018165270620471312, ,0.029167723020550602, ,2.4436482129247863e-05, ,2.0, ,0.7711982502421383, ,0.620619987347197, ,0.04216240484888063
225, ,PASS, ,0.01333548, ,0.00184816065573086, ,0.029259615140915494, ,2.5246622748815604e-05, ,2.0, ,0.7567817803144503, ,0.6171710781412624, ,0.03893798085753352
226, ,PASS, ,0.013053420000000013, ,0.0018623006007867549, ,0.02938706100977531, ,2.483429986527615e-05, ,2.0, ,0.7751988501953313, ,0.6162527295361319, ,0.06785575804575417
227, ,PASS, ,0.013016229999999986, ,0.0018382128511187136, ,0.029369975440093062, ,2.4495197229394107e-05, ,2.0, ,0.7719479018240404, ,0.6172731168751658, ,0.06330483051366298
228, ,PASS, ,0.013515790000000007, ,0.0018773476011817245, ,0.029372695796820475, ,2.5959952297610136e-05, ,2.0, ,0.7604212145688576, ,0.614660925287239, ,0.05093773596457215
229, ,PASS, ,0.013426789999999994, ,0.0018539291180543814, ,0.029403650484071755, ,2.5516930495057424e-05, ,2.0, ,0.7666693221084386, ,0.6183343197077611, ,0.05059080426930063
230, ,PASS, ,0.017374910000000004, ,0.002804408924801698, ,0.02986952747188833, ,4.945552948685076e-05, ,1.9166666666666667, ,0.8138163325880889, ,0.6096610273259729, ,0.0656109058998796
231, ,PASS, ,0.035413044, ,0.006106887937616807, ,0.031135692384645215, ,0.00021822754204908607, ,1.75, ,0.8250396227974166, ,0.6009673271974041, ,0.183955429481031
232, ,PASS, ,0.017132270000000012, ,0.0028705333583567798, ,0.029656733014428276, ,4.968927201244546e-05, ,1.8333333333333333, ,0.8187924381475894, ,0.6036815575192342, ,0.08107997795963348
