Channel, ,Pass/Fail, ,Amplitude, ,Sorting Function Response, ,Mean, ,Variance, ,NPeaksRatio, ,PosIntegralRatio, ,ToT50, ,ToT99
0, ,PASS, ,0.06316712099999999, ,0.009594898583780782, ,0.02600427752092324, ,0.0006099409875341614, ,1.75, ,0.6850022524351413, ,0.45694985816615985, ,0.08305952939735924
1, ,PASS, ,0.07176068800000002, ,0.009902033878996007, ,0.024733814780310608, ,0.0007171779729954535, ,1.75, ,0.6344677312061718, ,0.443888900226526, ,0.07442705250913247
2, ,PASS, ,0.072035487, ,0.009993777953887386, ,0.024779861238791046, ,0.000726861791205946, ,1.75, ,0.6382489033131379, ,0.4434807452909124, ,0.08414113997673517
3, ,PASS, ,0.07213182800000002, ,0.009899816289938593, ,0.024924891970510805, ,0.0007211880839340703, ,1.75, ,0.6339245878349736, ,0.4434195220505704, ,0.07420256729454501
4, ,PASS, ,0.07157019800000002, ,0.009930420251516747, ,0.024903464479092266, ,0.0007176166386907226, ,1.75, ,0.63712913349088, ,0.44366441501193854, ,0.08001877512703823
5, ,PASS, ,0.07110538500000002, ,0.00989148787488711, ,0.024764362605395808, ,0.0007100063815351987, ,1.75, ,0.6387540120799512, ,0.4442562396685782, ,0.07995755188669619
6, ,PASS, ,0.07113669200000002, ,0.00988802805011228, ,0.0248873507139038, ,0.0007101391907425597, ,1.75, ,0.6373072743167912, ,0.4442358319217975, ,0.07930450398971449
7, ,PASS, ,0.071040036, ,0.009866359916080364, ,0.02474515101326504, ,0.000707622386439631, ,1.75, ,0.6376356693506787, ,0.4440521622007714, ,0.07854941735882941
8, ,PASS, ,0.07075244900000001, ,0.009827001559675152, ,0.024844226286912515, ,0.0007019151381730844, ,1.75, ,0.6380440456860699, ,0.44458276361706905, ,0.08018203710128365
9, ,PASS, ,0.070743618, ,0.009852422493092915, ,0.024783388234015637, ,0.0007036286705281879, ,1.75, ,0.6383868522017878, ,0.443888900226526, ,0.07750862227301483
10, ,PASS, ,0.07177456200000001, ,0.009931163583314268, ,0.024607681471969962, ,0.0007198825281838717, ,1.75, ,0.6365949611146543, ,0.4431134058488602, ,0.08034529907552906
11, ,PASS, ,0.07049875500000001, ,0.009845985881954376, ,0.024584281428644317, ,0.0007007230736235971, ,1.75, ,0.6398895425294818, ,0.4442970551621396, ,0.08020244484806432
12, ,PASS, ,0.070491234, ,0.00985174144027588, ,0.024987913950278565, ,0.0007011136828468789, ,1.75, ,0.6404379483423028, ,0.44409297769433276, ,0.08059019203689721
13, ,PASS, ,0.07062551100000003, ,0.009824342062654806, ,0.02504779494012979, ,0.0007007210309450851, ,1.75, ,0.6391745869871729, ,0.44421542417501686, ,0.08036570682230974
14, ,PASS, ,0.07040332800000002, ,0.009813618498110443, ,0.02471267608738597, ,0.0006973895140210905, ,1.75, ,0.6392102724414176, ,0.4447052100977531, ,0.08159017162915043
15, ,PASS, ,0.07060240400000002, ,0.009823671647848973, ,0.024817989249409197, ,0.0007003323523766585, ,1.75, ,0.6385761739455914, ,0.44437868614926224, ,0.07832493214424195
16, ,PASS, ,0.070590505, ,0.00980888489091865, ,0.024943394761372216, ,0.0006989459842327149, ,1.75, ,0.6379877977192805, ,0.4446031713638497, ,0.07832493214424195
17, ,PASS, ,0.07128385800000002, ,0.009854058691716547, ,0.02476418022889329, ,0.0007094978108328742, ,1.75, ,0.6370808771543786, ,0.44335829881022837, ,0.07918205750903043
18, ,PASS, ,0.07257924000000002, ,0.009928831304603944, ,0.025174703579069816, ,0.0007275768714580934, ,1.75, ,0.6325175425564541, ,0.44364400726515785, ,0.07240668557784535
19, ,PASS, ,0.071029489, ,0.009842142798630714, ,0.024823925793606254, ,0.0007057465718848748, ,1.75, ,0.6377838495751714, ,0.44419501642823617, ,0.07901879553478501
20, ,PASS, ,0.07092333600000003, ,0.00983356349685427, ,0.02474587180497541, ,0.0007043717310675531, ,1.75, ,0.6374912575209742, ,0.443888900226526, ,0.08122283218709822
21, ,PASS, ,0.07107195000000001, ,0.009833899918083273, ,0.024630667223240345, ,0.0007055603829025587, ,1.75, ,0.6373897202695157, ,0.4446848023509724, ,0.07771269974082162
22, ,PASS, ,0.07096373600000001, ,0.009858410565752559, ,0.024739660726801498, ,0.0007062924293609603, ,1.75, ,0.6370038138312965, ,0.44374604599906126, ,0.0769780208567172
23, ,PASS, ,0.07110631200000002, ,0.009845998741660686, ,0.025019006820860803, ,0.0007064662234840416, ,1.75, ,0.6385240710491147, ,0.4447256178445338, ,0.0765290504275423
24, ,PASS, ,0.07079610800000001, ,0.009823057428230116, ,0.0250119351396094, ,0.0007018908733310774, ,1.75, ,0.6382037794566743, ,0.4455623354625416, ,0.07859023285239077
25, ,PASS, ,0.07088397000000002, ,0.009871739224130312, ,0.02471851347467399, ,0.0007065015804408076, ,1.75, ,0.6402103829336412, ,0.44482765657843715, ,0.08083508499826535
26, ,PASS, ,0.07071906900000002, ,0.009844693619991341, ,0.02483792500679578, ,0.0007027051637801637, ,1.75, ,0.6404655289540008, ,0.4451949960204894, ,0.08020244484806432
27, ,PASS, ,0.07374371100000002, ,0.009907940000245563, ,0.024416780445399074, ,0.0007380123865550187, ,1.75, ,0.6250320766777644, ,0.4420317952694843, ,0.0656925368870023
28, ,PASS, ,0.07388074500000001, ,0.00993311487205871, ,0.02461293796289872, ,0.0007414252502454598, ,1.75, ,0.6245088548924953, ,0.4419297565355809, ,0.06946797004142773
29, ,PASS, ,0.18688348, ,0.021514916451232078, ,0.016028950612028324, ,0.004079682794951786, ,1.5, ,0.566355561716902, ,0.4251137731883023, ,0.029366747617395564
30, ,PASS, ,0.08262627999999998, ,0.01102071637996427, ,0.024117419959204914, ,0.0009198380200008774, ,1.75, ,0.6231099957197511, ,0.4427664741535887, ,0.06620273055651925
31, ,PASS, ,0.06843596900000003, ,0.009833251720280992, ,0.02522409794780719, ,0.000678844054187028, ,1.75, ,0.6532441813545002, ,0.4485826819860819, ,0.094100120405706
32, ,PASS, ,0.06709196100000005, ,0.00972560089490057, ,0.025125071494100124, ,0.0006579519227550095, ,1.75, ,0.6568022622256092, ,0.44862349747964325, ,0.09301850982633007
33, ,PASS, ,0.06723842700000003, ,0.00971516309650844, ,0.0251987002373421, ,0.0006584961539764716, ,1.75, ,0.6568276199081378, ,0.4497867390461419, ,0.09507969225117854
34, ,PASS, ,0.06727559900000003, ,0.009725775524586727, ,0.025415053957504954, ,0.0006599222642656926, ,1.75, ,0.6559448484379443, ,0.44856227423930123, ,0.09128385134997245
35, ,PASS, ,0.06768998800000002, ,0.00975867280801103, ,0.025306865542580766, ,0.0006661025380817093, ,1.75, ,0.6536453552234551, ,0.44837860451827516, ,0.089283892165466
36, ,PASS, ,0.06840070399999999, ,0.009754988228414615, ,0.025446164194465423, ,0.0006728396406129007, ,1.75, ,0.6508577139977785, ,0.4482153425440297, ,0.08793698087794127
37, ,PASS, ,0.068934462, ,0.009778582869900602, ,0.025159139842746068, ,0.000680075543829166, ,1.75, ,0.648980483266145, ,0.44703169323075037, ,0.08742678720842431
38, ,PASS, ,0.06869695400000002, ,0.009768419906693086, ,0.025125991211665068, ,0.0006771251754400323, ,1.75, ,0.6482694781800049, ,0.4471337319646538, ,0.08699822452603008
39, ,PASS, ,0.068539439, ,0.009767729480685088, ,0.025218177232585053, ,0.0006754791581198799, ,1.75, ,0.6496199033758124, ,0.4472765861921185, ,0.08730434072774025
40, ,PASS, ,0.068744904, ,0.009810534492725047, ,0.02499521615642538, ,0.0006803867218622043, ,1.75, ,0.6493500713243767, ,0.44697046999040835, ,0.0867941470582233
41, ,PASS, ,0.06867466000000003, ,0.00979352590078802, ,0.025143446019550625, ,0.0006781852674657157, ,1.75, ,0.651611881288324, ,0.44837860451827516, ,0.08722270974061754
42, ,PASS, ,0.06869463700000003, ,0.009782929706796046, ,0.0248878647072672, ,0.0006780491471105465, ,1.75, ,0.6496229831017843, ,0.447562294647048, ,0.08838595130711618
43, ,PASS, ,0.06892456300000001, ,0.009787018313050223, ,0.02509522112452807, ,0.0006803649453699351, ,1.75, ,0.6511329398846633, ,0.4488479826942307, ,0.08816146609252873
44, ,PASS, ,0.06843988500000002, ,0.009798798871691373, ,0.025125639543795025, ,0.0006766305523565161, ,1.75, ,0.6502740006687627, ,0.4468480235097243, ,0.08881451398951042
45, ,PASS, ,0.06840328600000001, ,0.00979478388613852, ,0.024956404040703255, ,0.0006760840887782892, ,1.75, ,0.6520969148330616, ,0.4480112650762229, ,0.09010020203669312
46, ,PASS, ,0.06779114300000001, ,0.009765272098414397, ,0.024827213491010393, ,0.0006677711732882606, ,1.75, ,0.6538661625417201, ,0.447501071406706, ,0.0926307626374972
47, ,PASS, ,0.068196882, ,0.009750554758870501, ,0.02518248253337279, ,0.000670854160961302, ,1.75, ,0.6523843379080628, ,0.4476439256341707, ,0.08846758229423889
48, ,PASS, ,0.06808561500000002, ,0.009746986321928977, ,0.024948806983543195, ,0.0006694643209296323, ,1.75, ,0.6541730266983176, ,0.4484194200118365, ,0.09377359645721516
49, ,PASS, ,0.068047794, ,0.009736074029269494, ,0.025033328274420934, ,0.000668417323675278, ,1.75, ,0.6535884772150943, ,0.4480112650762229, ,0.09173282177914736
50, ,PASS, ,0.06806189400000003, ,0.00973690416837195, ,0.025097187510714068, ,0.000668651947176523, ,1.75, ,0.6507636859351941, ,0.4476031101406094, ,0.08583498295953144
51, ,PASS, ,0.06795317400000005, ,0.009780517273308344, ,0.025047056560917127, ,0.0006702339732305506, ,1.75, ,0.6543789092685501, ,0.44827656578437175, ,0.09116140486928838
52, ,PASS, ,0.06774649900000002, ,0.009731239535641437, ,0.02504086729551438, ,0.0006651202448438929, ,1.75, ,0.6536467436555843, ,0.44817452705046834, ,0.0929981020795494
53, ,PASS, ,0.06780554000000003, ,0.009767760481224104, ,0.02512749818990429, ,0.0006680405127263515, ,1.75, ,0.6546108340961692, ,0.4484806432521785, ,0.091692006285586
54, ,PASS, ,0.06759739000000003, ,0.009743323257831036, ,0.02504468044318484, ,0.0006639749001966917, ,1.75, ,0.6555487498442572, ,0.4485214587457399, ,0.09093691965470092
55, ,PASS, ,0.06774257700000001, ,0.009780069894480645, ,0.02515729258932267, ,0.0006680055418256122, ,1.75, ,0.6552140826201963, ,0.448766351707108, ,0.09195730699373482
56, ,PASS, ,0.06816575700000002, ,0.009769064941414593, ,0.025375625443974616, ,0.0006717183707903139, ,1.75, ,0.6531150653474368, ,0.4476235178873901, ,0.09165119079202465
57, ,PASS, ,0.06826262100000004, ,0.00977263259012962, ,0.024875599392910352, ,0.0006726910802173637, ,1.75, ,0.6515961271978337, ,0.4480520805697843, ,0.08889614497663313
58, ,PASS, ,0.06809004800000004, ,0.00977145040198372, ,0.0252118330741291, ,0.000671151776750948, ,1.75, ,0.6528087540579158, ,0.44780718760841615, ,0.09010020203669312
59, ,PASS, ,0.068082318, ,0.009763876943524192, ,0.025038053864696642, ,0.0006701269801347605, ,1.75, ,0.6541148480183333, ,0.44903165241525683, ,0.08844717454745822
60, ,PASS, ,0.06914592, ,0.009828737909605265, ,0.024785748452982596, ,0.0006861093865188505, ,1.75, ,0.6513202176208336, ,0.44823575029081036, ,0.09201853023407686
61, ,PASS, ,0.06933734800000002, ,0.009836350154337514, ,0.024698046827105573, ,0.0006878886768527352, ,1.75, ,0.6484369599143521, ,0.44782759535519684, ,0.08289626742311382
62, ,PASS, ,0.06777073200000003, ,0.009778390139554935, ,0.024705113505744784, ,0.0006684415512802602, ,1.75, ,0.6542988603836936, ,0.448133711556907, ,0.08985530907532499
63, ,PASS, ,0.06780595400000002, ,0.009772534232204644, ,0.025195640781879965, ,0.000668454301631228, ,1.75, ,0.654518634360383, ,0.4483377890247138, ,0.0926307626374972
64, ,PASS, ,0.06804106300000004, ,0.00973269155898899, ,0.02505073783467685, ,0.0006677323286437329, ,1.75, ,0.6547896808908213, ,0.4496438848186772, ,0.09230423868900635
65, ,PASS, ,0.06795162300000003, ,0.009777136762107516, ,0.025151574905410094, ,0.000670013735976337, ,1.75, ,0.6575564797528931, ,0.4500928552478521, ,0.09018183302381584
66, ,PASS, ,0.06754233400000004, ,0.009760324611615377, ,0.024755177474867864, ,0.0006647237737281259, ,1.75, ,0.6561897531714959, ,0.4488887981877921, ,0.09397767392502193
67, ,PASS, ,0.068267167, ,0.009806868540165598, ,0.025049806319360834, ,0.0006753100966519568, ,1.75, ,0.6530220309708209, ,0.4488683904410114, ,0.09258994714393584
68, ,PASS, ,0.06873196200000002, ,0.009813119911576297, ,0.025027977890655296, ,0.0006805228373396612, ,1.75, ,0.6514398474516334, ,0.4481133038101263, ,0.08940633864615008
69, ,PASS, ,0.069564491, ,0.009917112293055502, ,0.024779358844044003, ,0.0006959222914341859, ,1.75, ,0.6507981353147199, ,0.4473174016856799, ,0.08930429991224668
70, ,PASS, ,0.06862328100000004, ,0.009756386736868764, ,0.025183842708781455, ,0.0006751389679067863, ,1.75, ,0.6515921329800738, ,0.4492969531234056, ,0.08889614497663313
71, ,PASS, ,0.06867058899999999, ,0.009873340530938432, ,0.025332418211138547, ,0.0006838725904810197, ,1.75, ,0.6522909910505654, ,0.44752147915348667, ,0.08969204710107957
72, ,PASS, ,0.06881262600000004, ,0.009868571482276439, ,0.024816581877675967, ,0.0006850103928437413, ,1.75, ,0.6519275899159132, ,0.4480928960633456, ,0.09093691965470092
73, ,PASS, ,0.068941839, ,0.009848147961349288, ,0.0250989418764964, ,0.0006850741506916131, ,1.75, ,0.6505128798207515, ,0.44792963408910025, ,0.08991653231566703
74, ,PASS, ,0.06877012200000003, ,0.009864774522651287, ,0.02482790051700986, ,0.0006842508155533861, ,1.75, ,0.6518899461450148, ,0.4476439256341707, ,0.09016142527703516
75, ,PASS, ,0.06879316400000003, ,0.009864883899457886, ,0.024833117553213203, ,0.0006844593917052309, ,1.75, ,0.6522438173928633, ,0.4485010509989592, ,0.08777371890369584
76, ,PASS, ,0.068585586, ,0.009865310120175766, ,0.02497690068898594, ,0.0006822942642404889, ,1.75, ,0.6545748971915606, ,0.449398991857309, ,0.09120222036284974
77, ,PASS, ,0.06830881400000005, ,0.009876246977979763, ,0.024905376898267387, ,0.0006802948571865292, ,1.75, ,0.6562551564004898, ,0.4489092059345728, ,0.09203893798085754
78, ,PASS, ,0.06823475500000004, ,0.009892232078181568, ,0.024997317776698436, ,0.0006807515417955635, ,1.75, ,0.6577311212793454, ,0.44950103059121244, ,0.09320217954735617
79, ,PASS, ,0.06824773400000002, ,0.009861359119084905, ,0.024872585950592847, ,0.0006783683296410852, ,1.75, ,0.6568533315882288, ,0.4499908165139487, ,0.09024305626415788
80, ,PASS, ,0.068740062, ,0.009884147014930707, ,0.02506337970294484, ,0.0006851392178011804, ,1.75, ,0.6534416194998295, ,0.44866431297320464, ,0.08914103793800127
81, ,PASS, ,0.06856114499999999, ,0.009892072173978084, ,0.025008751607946782, ,0.0006838817248720552, ,1.75, ,0.6556224759787833, ,0.44882757494745007, ,0.09038591049162262
82, ,PASS, ,0.06845682300000004, ,0.009876671225032958, ,0.024655617619048595, ,0.0006819983689747941, ,1.75, ,0.6553788603852879, ,0.4490520601620375, ,0.09026346401093856
83, ,PASS, ,0.06896484000000003, ,0.009925308640772222, ,0.02506648449611233, ,0.0006902583228971345, ,1.75, ,0.6538732037110933, ,0.4496030693251158, ,0.09054917246586805
84, ,PASS, ,0.06857616500000001, ,0.009918831174616526, ,0.024629615701373442, ,0.0006860471680136924, ,1.75, ,0.6558570294114922, ,0.44856227423930123, ,0.0912430358564111
85, ,PASS, ,0.06877745300000002, ,0.009949738191407813, ,0.02500484470955695, ,0.0006901435616616679, ,1.75, ,0.6564112827317317, ,0.44917450664272157, ,0.09238586967612906
86, ,PASS, ,0.06873637400000002, ,0.009908615540505603, ,0.024813595043162388, ,0.000686541415727812, ,1.75, ,0.6567533843373046, ,0.45037856370278156, ,0.09136548233709516
87, ,PASS, ,0.068498473, ,0.009930387162611206, ,0.024870521218118002, ,0.0006859150707713569, ,1.75, ,0.658133257925487, ,0.44948062284443174, ,0.096508234525826
88, ,PASS, ,0.06853936000000005, ,0.00992295500091809, ,0.024990497951715273, ,0.0006858596578003919, ,1.75, ,0.6567268039481231, ,0.44946021509765105, ,0.09507969225117854
89, ,PASS, ,0.06887147200000004, ,0.009954776582553464, ,0.024811597202342814, ,0.0006914123797836357, ,1.75, ,0.6559139235757881, ,0.4497867390461419, ,0.09210016122119957
90, ,PASS, ,0.06869193099999998, ,0.009964049948570482, ,0.024970370558702888, ,0.0006899926698170798, ,1.75, ,0.6570198018578995, ,0.44952143833799313, ,0.09150833656455991
91, ,PASS, ,0.068779619, ,0.009966797075221842, ,0.024733310168629216, ,0.0006913502038205279, ,1.75, ,0.656853188420083, ,0.44986837003326463, ,0.09034509499806126
92, ,PASS, ,0.06905726499999999, ,0.009963479168227247, ,0.025048407699761233, ,0.0006938505753724519, ,1.75, ,0.6545443836032113, ,0.44917450664272157, ,0.08863084426848432
93, ,PASS, ,0.069627455, ,0.009945168836467, ,0.025122395406603947, ,0.0006981043114140322, ,1.75, ,0.655015151766472, ,0.4508275341319565, ,0.09244709291647109
94, ,PASS, ,0.069041129, ,0.009969525435833312, ,0.02524230426048448, ,0.0006945315882547504, ,1.75, ,0.654326322067594, ,0.44854186649252054, ,0.0903042795044999
95, ,PASS, ,0.068979036, ,0.009934735600440782, ,0.02511025224113386, ,0.0006914984204443698, ,1.75, ,0.6562539613683744, ,0.4500724475010714, ,0.09589600212240566
96, ,PASS, ,0.069208002, ,0.009922735076064278, ,0.024963328881900372, ,0.0006928706799608247, ,1.75, ,0.6541892944822704, ,0.4497867390461419, ,0.09156955980490195
97, ,PASS, ,0.06953133900000001, ,0.00996918156992497, ,0.025305234735678864, ,0.0006991664332113754, ,1.75, ,0.6528128375075808, ,0.4494193996040897, ,0.08950837738005347
98, ,PASS, ,0.069529305, ,0.010054282365418048, ,0.024872308921164876, ,0.0007051513744695125, ,1.75, ,0.6558276934195023, ,0.44946021509765105, ,0.0951205077447399
99, ,PASS, ,0.07328978400000002, ,0.010489560316148911, ,0.02457408043758291, ,0.0007754703427814872, ,1.75, ,0.6509304060589237, ,0.4489704291749148, ,0.09056958021264871
100, ,PASS, ,0.19769808000000005, ,0.024432531904141585, ,0.01465494717454746, ,0.004895155652413993, ,1.6666666666666667, ,0.5983372849664651, ,0.43615436419664905, ,0.06724352564233382
101, ,PASS, ,0.07844976100000003, ,0.01123490467603034, ,0.024362986792208323, ,0.0008892607371798339, ,1.75, ,0.6513859359156414, ,0.44792963408910025, ,0.08969204710107957
102, ,PASS, ,0.071875965, ,0.010541519894282557, ,0.024708366152609133, ,0.0007637406289569263, ,1.75, ,0.662427491790086, ,0.4509907961062019, ,0.096508234525826
103, ,PASS, ,0.07142929900000002, ,0.010461263395225939, ,0.024895668232423833, ,0.0007532600811255037, ,1.75, ,0.663486339958852, ,0.4514805820289382, ,0.09754902961164058
104, ,PASS, ,0.07173984600000001, ,0.010495512904298576, ,0.025120375101589768, ,0.0007589476019401217, ,1.75, ,0.6625330558643621, ,0.45078671863839515, ,0.09075324993367483
105, ,PASS, ,0.071456677, ,0.010457301280303784, ,0.024750979085794166, ,0.0007534458023112192, ,1.75, ,0.6629683274317919, ,0.45078671863839515, ,0.09289606334564601
106, ,PASS, ,0.07124502000000002, ,0.010462814152820573, ,0.02451355320328157, ,0.0007512742647257355, ,1.75, ,0.6639726274042401, ,0.4513581355482541, ,0.0942021591396094
107, ,PASS, ,0.07124481799999999, ,0.010462909876975679, ,0.024972512023591357, ,0.0007516615751203683, ,1.75, ,0.6634941467176474, ,0.45070508765127243, ,0.09693679720822024
108, ,PASS, ,0.07137428900000002, ,0.010441447814037655, ,0.024793627978265752, ,0.0007515987214125798, ,1.75, ,0.6632333175732759, ,0.4506234566641497, ,0.09810003877471889
109, ,PASS, ,0.071443254, ,0.010451962869469452, ,0.024951249273055653, ,0.0007527199033000236, ,1.75, ,0.6620627372105098, ,0.45086834962551786, ,0.0925287239035938
110, ,PASS, ,0.07140592500000002, ,0.010444516135815696, ,0.024971707174955615, ,0.0007521060782184035, ,1.75, ,0.6627157375464813, ,0.4502357094753168, ,0.0968755739678782
111, ,PASS, ,0.07102536999999999, ,0.010461124905058473, ,0.02463329481622824, ,0.0007488768329782123, ,1.75, ,0.663917241141319, ,0.45031734046243954, ,0.09250831615681313
112, ,PASS, ,0.07161004700000004, ,0.010414272969974813, ,0.024908761773188303, ,0.0007513843086413015, ,1.75, ,0.6614389265274246, ,0.45086834962551786, ,0.09334503377482092
113, ,PASS, ,0.07160086300000001, ,0.010461528908108357, ,0.024401987413154833, ,0.0007551073382984686, ,1.75, ,0.6612559077880306, ,0.4504397869431236, ,0.0920797534744189
114, ,PASS, ,0.071471031, ,0.010451627480870238, ,0.024718976352829533, ,0.0007530899849978256, ,1.75, ,0.6620425528468995, ,0.4502561172220975, ,0.09618171057733516
115, ,PASS, ,0.07174730400000003, ,0.010454547817722695, ,0.024713221800146935, ,0.0007561528467569191, ,1.75, ,0.6612936619313049, ,0.45041937919634295, ,0.09436542111385482
116, ,PASS, ,0.071674653, ,0.010497679837707568, ,0.02469641200302035, ,0.0007584766625096779, ,1.75, ,0.6635490100507124, ,0.45021530172853613, ,0.0966919042468521
117, ,PASS, ,0.07174217299999999, ,0.010467344494499127, ,0.024783337978204527, ,0.0007570134436362721, ,1.75, ,0.6606881787652278, ,0.4501336707414134, ,0.09312054856023347
118, ,PASS, ,0.07171547800000001, ,0.010416863565004781, ,0.02463491034836024, ,0.0007535058095114671, ,1.75, ,0.6610797022192368, ,0.45031734046243954, ,0.09705924368890431
119, ,PASS, ,0.071496547, ,0.010440499585788262, ,0.024799206858941655, ,0.0007525220383535294, ,1.75, ,0.6602998283224465, ,0.4497051080590192, ,0.09430419787351278
120, ,PASS, ,0.07139043700000001, ,0.010402069239238662, ,0.025067260753413197, ,0.0007484620695180381, ,1.75, ,0.6615409949502409, ,0.4501540784881941, ,0.09820207750862227
121, ,PASS, ,0.07132163100000002, ,0.010446955119440719, ,0.024956373962286484, ,0.0007511116771011663, ,1.75, ,0.6621059722961519, ,0.4499908165139487, ,0.09944695006224363
122, ,PASS, ,0.07134053200000001, ,0.010391085948664175, ,0.024942685487316586, ,0.0007472242807050952, ,1.75, ,0.660696722598002, ,0.4500928552478521, ,0.09412052815248668
123, ,PASS, ,0.07129784300000001, ,0.010374161856009716, ,0.024977085980979984, ,0.0007454751896041166, ,1.75, ,0.6613946701976251, ,0.4507254953980531, ,0.09671231199363278
124, ,PASS, ,0.07127077100000004, ,0.010330133529160374, ,0.024864288884941122, ,0.0007420719766487723, ,1.75, ,0.659916428010635, ,0.45076631089161445, ,0.09507969225117854
125, ,PASS, ,0.07121271100000001, ,0.010364537482920412, ,0.024885547824166854, ,0.000744005909684111, ,1.75, ,0.6604310817091775, ,0.45021530172853613, ,0.09432460562029346
126, ,PASS, ,0.071311126, ,0.01038737629140944, ,0.024761681806636602, ,0.0007465448623693652, ,1.75, ,0.661568010929278, ,0.45037856370278156, ,0.09536540070610804
127, ,PASS, ,0.07116373300000002, ,0.010411808121472792, ,0.02473591996587825, ,0.0007467281032210879, ,1.75, ,0.6615146263948158, ,0.4498887777800453, ,0.09418175139282872
128, ,PASS, ,0.07150338400000002, ,0.010303944192878821, ,0.02490155566435379, ,0.0007423729085354371, ,1.75, ,0.6573008430240698, ,0.4510724270933246, ,0.08693700128568804
129, ,PASS, ,0.07169842500000001, ,0.010443861874382341, ,0.024724308325544377, ,0.0007549931365342109, ,1.75, ,0.6597475773701467, ,0.44948062284443174, ,0.08961041611395686
130, ,PASS, ,0.071712657, ,0.010462838945513543, ,0.024982466609844697, ,0.0007564121307128911, ,1.75, ,0.6604950104740526, ,0.4498071467929226, ,0.09499806126405584
131, ,PASS, ,0.07274355500000002, ,0.010551955527336544, ,0.024811755802330564, ,0.000774014087738141, ,1.75, ,0.6570737730193144, ,0.4489500214281341, ,0.0896716393542989
132, ,PASS, ,0.072484166, ,0.010521069421442842, ,0.025056688084753375, ,0.0007691772563551263, ,1.75, ,0.6588662238758469, ,0.449337768616967, ,0.09275320911818126
133, ,PASS, ,0.07113689300000002, ,0.010472547288230319, ,0.025027364121650582, ,0.0007508441892036559, ,1.75, ,0.663803559692158, ,0.4504397869431236, ,0.0942021591396094
134, ,PASS, ,0.07117521800000001, ,0.01045267484740069, ,0.02501796739074713, ,0.0007499161883248691, ,1.75, ,0.6642512844279527, ,0.45123568906757006, ,0.09693679720822024
135, ,PASS, ,0.070975683, ,0.010424130650250456, ,0.024933063980673867, ,0.0007458908546314365, ,1.75, ,0.6642648881620745, ,0.45086834962551786, ,0.09616130283055448
136, ,PASS, ,0.07055066800000001, ,0.010402842794271673, ,0.0251416596438236, ,0.0007398376134432677, ,1.75, ,0.6670054220474275, ,0.4510112038529826, ,0.10087549233689108
137, ,PASS, ,0.07080734500000002, ,0.010423304026222817, ,0.025058524601620377, ,0.00074409638266787, ,1.75, ,0.6644057228172687, ,0.4506234566641497, ,0.09520213873186262
138, ,PASS, ,0.07069640500000002, ,0.010448337728788766, ,0.025325580585620705, ,0.0007444466777507723, ,1.75, ,0.6666064459954535, ,0.4508887573722985, ,0.09940613456868228
139, ,PASS, ,0.07135489200000002, ,0.010479840233543848, ,0.025104923784432975, ,0.000753798928489107, ,1.75, ,0.6632569788159026, ,0.45021530172853613, ,0.09693679720822024
140, ,PASS, ,0.07176981700000001, ,0.01050222805813908, ,0.024991837380339176, ,0.000759807137181825, ,1.75, ,0.6618111205955394, ,0.4496438848186772, ,0.09828370849574498
141, ,PASS, ,0.07103831200000002, ,0.010427734223878899, ,0.025069377643476668, ,0.0007466212855041182, ,1.75, ,0.6629293265988426, ,0.4509499806126406, ,0.09046754147874533
142, ,PASS, ,0.07133308500000002, ,0.01039203599885647, ,0.025085479947266384, ,0.0007475666940216769, ,1.75, ,0.661448125421214, ,0.450541825677027, ,0.09307973306667211
143, ,PASS, ,0.07107864100000001, ,0.010422404056085072, ,0.025249428387053328, ,0.0007467040374976172, ,1.75, ,0.6636556070065992, ,0.45084794187873717, ,0.09089610416113957
144, ,PASS, ,0.07125801600000001, ,0.010399160920402531, ,0.02520456801059162, ,0.0007468221599550329, ,1.75, ,0.6625368945881174, ,0.451113242586886, ,0.0933654415216016
145, ,PASS, ,0.07108955300000001, ,0.010464952901225722, ,0.025033013149323487, ,0.0007499914565152342, ,1.75, ,0.6652341047498972, ,0.451113242586886, ,0.10142650149996939
146, ,PASS, ,0.07114222300000002, ,0.010411530079750705, ,0.025258754676496402, ,0.0007464374207649584, ,1.75, ,0.66470629042142, ,0.45203159119201647, ,0.09681435072753618
147, ,PASS, ,0.07134353900000001, ,0.01041721904718133, ,0.025081074160935496, ,0.0007490118804910042, ,1.75, ,0.6620082740546185, ,0.4514805820289382, ,0.0942837901267321
148, ,PASS, ,0.07113333900000003, ,0.010425840289155988, ,0.024793181845554176, ,0.0007474960188258006, ,1.75, ,0.6629609104374975, ,0.4509703883594212, ,0.09583477888206363
149, ,PASS, ,0.07127296200000001, ,0.01046493899235458, ,0.02495972127579029, ,0.0007519117680272854, ,1.75, ,0.6632185756310426, ,0.45076631089161445, ,0.09705924368890431
150, ,PASS, ,0.07310870300000002, ,0.010405475508190121, ,0.02471227588834922, ,0.0007676694409376177, ,1.75, ,0.6491156671673369, ,0.44737862492602193, ,0.08646762310973245
151, ,PASS, ,0.07303271800000001, ,0.010405693401366461, ,0.024798691580600395, ,0.0007668741911207199, ,1.75, ,0.649593504073201, ,0.4474806636599253, ,0.0883655435603355
152, ,PASS, ,0.07192130699999999, ,0.010490489191411973, ,0.02516632766655783, ,0.0007606841882470235, ,1.75, ,0.6604852397188018, ,0.4499908165139487, ,0.09340625701516296
153, ,PASS, ,0.071882899, ,0.010509685542914902, ,0.024955188463419115, ,0.0007616670430514485, ,1.75, ,0.6615317254114391, ,0.4501744862349748, ,0.09324299504091753
154, ,PASS, ,0.07186265600000001, ,0.010480886890933681, ,0.025244280183139123, ,0.0007589891545424807, ,1.75, ,0.6624989952354255, ,0.4508887573722985, ,0.09101855064182364
155, ,PASS, ,0.07201466000000001, ,0.010464729747694232, ,0.024992418922797494, ,0.0007593898866009858, ,1.75, ,0.6620034799322452, ,0.45168465949674497, ,0.09381441195077651
156, ,PASS, ,0.07178642900000003, ,0.010502569815085688, ,0.02501306271723026, ,0.0007598187068359437, ,1.75, ,0.6619315187325135, ,0.4510316115997633, ,0.08330442235872737
157, ,PASS, ,0.07180148800000001, ,0.010542479402101339, ,0.025159401897206182, ,0.000763099218352787, ,1.75, ,0.6635706653844329, ,0.4510928348401053, ,0.09514091549152058
158, ,PASS, ,0.07176426400000001, ,0.010533157052556976, ,0.025255362829350425, ,0.0007618179183212687, ,1.75, ,0.6635910617934659, ,0.4510724270933246, ,0.0925287239035938
159, ,PASS, ,0.07158350600000002, ,0.010509539363049384, ,0.025097829494234815, ,0.0007584552497523308, ,1.75, ,0.6650885560102157, ,0.45084794187873717, ,0.09218179220832227
160, ,PASS, ,0.07157406100000002, ,0.01052862176213355, ,0.025021413329768784, ,0.0007596757649501218, ,1.75, ,0.6651617067481538, ,0.4514805820289382, ,0.0936511499765311
161, ,PASS, ,0.07141522200000001, ,0.010544872992020466, ,0.025204933057141693, ,0.0007589623431881981, ,1.75, ,0.6671685088336876, ,0.45199077569845514, ,0.09710005918246567
162, ,PASS, ,0.07140012300000004, ,0.010510861959598002, ,0.025076894584090122, ,0.0007565673364336416, ,1.75, ,0.6649436359652601, ,0.4515622130160609, ,0.09210016122119957
163, ,PASS, ,0.07119600900000003, ,0.01047239839462937, ,0.024959205081161614, ,0.0007518446527878425, ,1.75, ,0.6654796450913026, ,0.45197036795167445, ,0.0960592640966511
164, ,PASS, ,0.07145546100000003, ,0.010516331865465271, ,0.025050612679720825, ,0.000757472292017482, ,1.75, ,0.6646812456815704, ,0.45194996020489375, ,0.09644701128548397
165, ,PASS, ,0.07177599000000004, ,0.010546469185874525, ,0.025104012158139632, ,0.0007630326813087462, ,1.75, ,0.6636941115691679, ,0.45162343625640294, ,0.09699802044856227
166, ,PASS, ,0.071861512, ,0.010586466314371181, ,0.024775036359196752, ,0.0007670040043719963, ,1.75, ,0.6650000989667105, ,0.45235811514050733, ,0.09501846901083652
167, ,PASS, ,0.07109817300000001, ,0.010490361478643863, ,0.025004457727189244, ,0.000751714188030932, ,1.75, ,0.6667450715765686, ,0.4522356686598233, ,0.09236546192934839
168, ,PASS, ,0.07162602500000001, ,0.010517028426811185, ,0.02504776295891921, ,0.0007591790979094202, ,1.75, ,0.6656381774864422, ,0.453011163037489, ,0.09503887675761719
169, ,PASS, ,0.07146255500000001, ,0.010566518046291318, ,0.025055443953184632, ,0.0007610733318312062, ,1.75, ,0.6666957886817466, ,0.4521336299259199, ,0.09612048733699312
170, ,PASS, ,0.19979981000000008, ,0.026020611412136338, ,0.01470716212730353, ,0.0052651307058601575, ,1.6666666666666667, ,0.6224090597193369, ,0.44252158119222057, ,0.09946735780902431
171, ,PASS, ,0.075479228, ,0.011007867644284188, ,0.024638788253137697, ,0.0008375956881607354, ,1.75, ,0.6601780139703011, ,0.4509907961062019, ,0.09091651190792024
172, ,PASS, ,0.07338908700000002, ,0.011039428111025403, ,0.02521780971374054, ,0.0008160166763807188, ,1.75, ,0.6765150229212575, ,0.4555213158915124, ,0.0899369400624477
173, ,PASS, ,0.06846797400000003, ,0.010352201583347941, ,0.025773122428481055, ,0.0007134948926342267, ,1.75, ,0.6853036681304895, ,0.4593579722862799, ,0.10316115997632701
174, ,PASS, ,0.06794327800000002, ,0.01041604896577492, ,0.025595839391706295, ,0.0007127254551896505, ,1.75, ,0.6859444895341421, ,0.4573171976082121, ,0.0929981020795494
175, ,PASS, ,0.06815723500000002, ,0.010417890559643258, ,0.025499764465806825, ,0.0007151020063623819, ,1.75, ,0.6842855386286797, ,0.45670496520479176, ,0.09334503377482092
176, ,PASS, ,0.06846380800000001, ,0.010445971532156581, ,0.02553289128589213, ,0.0007203357068118842, ,1.75, ,0.684799257876482, ,0.45633762576273956, ,0.09465112956878431
177, ,PASS, ,0.068756361, ,0.01047571770687284, ,0.025789314514846638, ,0.0007254495162401197, ,1.75, ,0.684014010959672, ,0.45668455745801106, ,0.09675312748719414
178, ,PASS, ,0.068729174, ,0.010475610782999242, ,0.025682428473337283, ,0.0007248672341050833, ,1.75, ,0.6854260090977057, ,0.4568478194322565, ,0.09930409583477888
179, ,PASS, ,0.068836765, ,0.010449302037439536, ,0.025429834488071675, ,0.0007242467827746128, ,1.75, ,0.683197675853795, ,0.4565417032305463, ,0.0942021591396094
180, ,PASS, ,0.06891220300000002, ,0.010433477639232358, ,0.02542260297502092, ,0.0007245917075277052, ,1.75, ,0.6828202584863344, ,0.45650088773698494, ,0.09377359645721516
181, ,PASS, ,0.06862789899999998, ,0.010444582966190226, ,0.02553414684177874, ,0.0007220351146456733, ,1.75, ,0.684481758319444, ,0.4564804799902043, ,0.0899369400624477
182, ,PASS, ,0.06864256200000002, ,0.010465536190394647, ,0.0256654313511561, ,0.000723508229590796, ,1.75, ,0.684643221185817, ,0.4563784412563009, ,0.09832452398930634
183, ,PASS, ,0.06873502000000001, ,0.010462785400157475, ,0.0255577423811963, ,0.0007242818260098232, ,1.75, ,0.6835270710675692, ,0.45699067365972124, ,0.09279402461174262
184, ,PASS, ,0.07010999400000001, ,0.010362494032885831, ,0.02542444072363829, ,0.0007321990762252699, ,1.75, ,0.6684491695795808, ,0.4534805412134446, ,0.09887553315238465
185, ,PASS, ,0.06869812399999999, ,0.010447439405646727, ,0.025843487076937205, ,0.0007230907369138748, ,1.75, ,0.6832186592167249, ,0.45621517928205546, ,0.09328381053447889
186, ,PASS, ,0.06861689700000001, ,0.01041671181981673, ,0.025589304956266202, ,0.0007201164554881414, ,1.75, ,0.6822106585158574, ,0.4557049856125385, ,0.09546743944001143
187, ,PASS, ,0.06828474500000005, ,0.010412617203795093, ,0.025438552339299203, ,0.0007158587756815657, ,1.75, ,0.6849518196956635, ,0.4572763821146507, ,0.09510009999795922
188, ,PASS, ,0.069909319, ,0.010394551399845714, ,0.025272515315769066, ,0.0007327020824169418, ,1.75, ,0.6703580425960342, ,0.45278667782290155, ,0.09897757188628803
189, ,PASS, ,0.06867901700000001, ,0.010477237334240844, ,0.02562186393083815, ,0.0007246831368889536, ,1.75, ,0.68292479825843, ,0.4558886553335646, ,0.09297769433276871
190, ,PASS, ,0.06870033700000001, ,0.010441149380452153, ,0.02561791837852289, ,0.0007225175958022086, ,1.75, ,0.6816592349112441, ,0.4559090630803453, ,0.0929981020795494
191, ,PASS, ,0.068714305, ,0.010400843771862487, ,0.02575697738135957, ,0.0007193832005586251, ,1.75, ,0.6826135610629273, ,0.4573171976082121, ,0.0937327809636538
192, ,PASS, ,0.06830433900000003, ,0.010431854253347018, ,0.025537709834085025, ,0.0007175902348122689, ,1.75, ,0.6841108165910943, ,0.45617436378849413, ,0.0993857268219016
193, ,PASS, ,0.06845157699999999, ,0.010401731744627211, ,0.02562220047501072, ,0.0007170992282170628, ,1.75, ,0.6833793311004714, ,0.4562764025223975, ,0.09199812248729618
194, ,PASS, ,0.06806935400000004, ,0.010407436648946791, ,0.025457608178588196, ,0.0007132303190736407, ,1.75, ,0.6852555386836808, ,0.45633762576273956, ,0.09612048733699312
195, ,PASS, ,0.06832756600000003, ,0.010403316588896348, ,0.025529638194771536, ,0.0007158136454651506, ,1.75, ,0.6829138262276387, ,0.456562110977327, ,0.09167159853880533
196, ,PASS, ,0.06822996000000002, ,0.010444370060568678, ,0.025696587047570458, ,0.0007177750862054376, ,1.75, ,0.68569380793818, ,0.45660292647088835, ,0.09701842819534295
197, ,PASS, ,0.06824747399999999, ,0.01042755592128898, ,0.0256562018337585, ,0.0007164868944012704, ,1.75, ,0.6838578253167893, ,0.4568274116854758, ,0.09754902961164058
198, ,PASS, ,0.06791046500000003, ,0.010424016516829811, ,0.025495229941919554, ,0.000713123934831837, ,1.75, ,0.6902369550775637, ,0.4575620905695802, ,0.10499785718658802
199, ,PASS, ,0.06807501900000003, ,0.010370851835540892, ,0.025512775491153245, ,0.0007112868352007944, ,1.75, ,0.6852815345420392, ,0.4568682271790372, ,0.09663068100651007
200, ,PASS, ,0.067808928, ,0.01039238440676613, ,0.026054997407848824, ,0.0007096852169611227, ,1.75, ,0.6859316179207842, ,0.45662333421766904, ,0.09550825493357279
201, ,PASS, ,0.06795318500000004, ,0.010366822799563018, ,0.025524789668680235, ,0.0007093265156111054, ,1.75, ,0.6845454998342204, ,0.45670496520479176, ,0.0925287239035938
202, ,PASS, ,0.06923224600000001, ,0.010445400451773985, ,0.025364724776127022, ,0.0007286357540502641, ,1.75, ,0.6802602860942034, ,0.4559090630803453, ,0.0934470725087243
203, ,PASS, ,0.06868742799999998, ,0.01044213134675759, ,0.025638259186179874, ,0.0007224590819772226, ,1.75, ,0.6853685184692704, ,0.4571743433807473, ,0.09710005918246567
204, ,PASS, ,0.06810072900000004, ,0.010378494550788644, ,0.02563562884898268, ,0.0007120708315725184, ,1.75, ,0.6835856796916592, ,0.45619477153527477, ,0.09371237321687312
205, ,PASS, ,0.06814118500000003, ,0.010390181351372988, ,0.025589310891838947, ,0.0007128140453881389, ,1.75, ,0.6848271251859396, ,0.45725597436787, ,0.0936511499765311
206, ,PASS, ,0.06777729300000003, ,0.010360393212094704, ,0.025675204775025003, ,0.0007072401941076402, ,1.75, ,0.6845103925241461, ,0.4560723250545907, ,0.09371237321687312
207, ,PASS, ,0.067998975, ,0.010342064021602239, ,0.025743878155629483, ,0.0007083159484947751, ,1.75, ,0.6832277463203007, ,0.45662333421766904, ,0.08977367808820229
208, ,PASS, ,0.06813020100000002, ,0.01035220799972659, ,0.025652299166017026, ,0.0007103828645035839, ,1.75, ,0.6838730988478463, ,0.456562110977327, ,0.09491643027693313
209, ,PASS, ,0.06824622, ,0.010397133317991995, ,0.025585397794330732, ,0.0007147146949801426, ,1.75, ,0.6825719185081809, ,0.45611314054815205, ,0.0901206097834738
210, ,PASS, ,0.06913697600000002, ,0.010463398344726047, ,0.025265726632354445, ,0.0007286594506158904, ,1.75, ,0.6807092919116985, ,0.45568457786575783, ,0.09922246484765616
211, ,PASS, ,0.06913579300000003, ,0.010462904603761486, ,0.02544025413550744, ,0.0007286150524085976, ,1.75, ,0.6806456564792058, ,0.4555621313850738, ,0.10034489092059345
212, ,PASS, ,0.068409346, ,0.010393747176651745, ,0.025452040829432056, ,0.0007159988140373807, ,1.75, ,0.6833838285877544, ,0.4563784412563009, ,0.0999367359849799
213, ,PASS, ,0.06868502700000002, ,0.010397034445007667, ,0.02565591046213343, ,0.0007191186749110164, ,1.75, ,0.6818120317605788, ,0.4568070039386951, ,0.09840615497642906
214, ,PASS, ,0.06821499900000004, ,0.010393486550792724, ,0.025354039730393258, ,0.0007142009699026462, ,1.75, ,0.6832416426606028, ,0.4564804799902043, ,0.09661027325972939
215, ,PASS, ,0.06814543300000003, ,0.010388280288214207, ,0.025517052911165083, ,0.0007131683951940492, ,1.75, ,0.68238230220784, ,0.45574580110609986, ,0.09636538029836125
216, ,PASS, ,0.068219652, ,0.010406320577118112, ,0.02558195426277015, ,0.0007150541226118419, ,1.75, ,0.6840593219414294, ,0.4564804799902043, ,0.09193689924695414
217, ,PASS, ,0.068088748, ,0.010397248560842407, ,0.025715576575804578, ,0.0007130234755278276, ,1.75, ,0.6857551222747481, ,0.4564396644966429, ,0.09526336197220465
218, ,PASS, ,0.06810609900000002, ,0.010403314881050632, ,0.025650020010897744, ,0.000713326438825698, ,1.75, ,0.6861507171479152, ,0.45715393563396667, ,0.09712046692924634
219, ,PASS, ,0.06781153800000002, ,0.010395103635813552, ,0.025711994663374222, ,0.0007097385012434984, ,1.75, ,0.6867022286775064, ,0.45741923634211545, ,0.09081447317401686
220, ,PASS, ,0.06755422800000001, ,0.010347551562855398, ,0.02549467895747026, ,0.0007037737457055965, ,1.75, ,0.6856993318410252, ,0.4567457806983531, ,0.08720230199383686
221, ,PASS, ,0.06776905200000001, ,0.010349763614327082, ,0.025782576037856376, ,0.0007064541150473233, ,1.75, ,0.6868180575661186, ,0.45709271239362465, ,0.0978143303197894
222, ,PASS, ,0.06767497300000004, ,0.010362836349484665, ,0.025776631078529014, ,0.0007062960300414663, ,1.75, ,0.685917096355075, ,0.45707230464684395, ,0.09038591049162262
223, ,PASS, ,0.06779862400000002, ,0.010362104102261608, ,0.0255594906188037, ,0.0007078585415291773, ,1.75, ,0.6852892467545372, ,0.45697026591294054, ,0.09154915205812127
224, ,PASS, ,0.06776197500000004, ,0.010360195619717532, ,0.025482727571049572, ,0.0007071573030044027, ,1.75, ,0.6850861283575354, ,0.4566437419644497, ,0.08987571682210567
225, ,PASS, ,0.06765825600000004, ,0.010406334202516913, ,0.02567745521815882, ,0.0007088788984831373, ,1.75, ,0.6889071424433253, ,0.45733760535499274, ,0.1018754719291443
226, ,PASS, ,0.06812143000000004, ,0.010344460629642364, ,0.025447850618966962, ,0.0007101111781659559, ,1.75, ,0.6848857353976445, ,0.45715393563396667, ,0.09375318871043448
227, ,PASS, ,0.06785273200000003, ,0.010391589516426016, ,0.025462634894287874, ,0.0007102386335905451, ,1.75, ,0.6849894491136781, ,0.4567661884451338, ,0.09148792881777923
228, ,PASS, ,0.06779219300000001, ,0.010391216755222182, ,0.025682388014958882, ,0.0007095321273212725, ,1.75, ,0.6858527167063158, ,0.4568070039386951, ,0.09203893798085754
229, ,PASS, ,0.06821927, ,0.010403416006452643, ,0.025777191284198284, ,0.00071473746139448, ,1.75, ,0.6859254958364099, ,0.4574804595824575, ,0.09646741903226465
230, ,PASS, ,0.06798672000000001, ,0.010397319040529086, ,0.02567282375992327, ,0.0007117876809823322, ,1.75, ,0.6850506598376299, ,0.45709271239362465, ,0.09322258729413685
231, ,PASS, ,0.06834638800000005, ,0.010397699311853375, ,0.02595568619822045, ,0.0007157115728891309, ,1.75, ,0.6837539938515627, ,0.45741923634211545, ,0.09295728658598804
232, ,PASS, ,0.06828206700000003, ,0.010399127095169469, ,0.025351440551560175, ,0.0007154671117398432, ,1.75, ,0.6843364008166924, ,0.45694985816615985, ,0.09628374931123855
233, ,PASS, ,0.068199588, ,0.010406782459222857, ,0.025700922744311343, ,0.0007149214514071779, ,1.75, ,0.6849935819961473, ,0.4573784208485541, ,0.09616130283055448
234, ,PASS, ,0.068202648, ,0.010421672049350579, ,0.02578947689561438, ,0.0007158770310141544, ,1.75, ,0.6843851161412875, ,0.4568070039386951, ,0.09091651190792024
235, ,PASS, ,0.06823587900000001, ,0.010394581023437325, ,0.025686838761882415, ,0.0007145827444015577, ,1.75, ,0.6843094880856427, ,0.45725597436787, ,0.09524295422542398
236, ,PASS, ,0.068222561, ,0.010447842735128866, ,0.025535843689434914, ,0.0007180597233774663, ,1.75, ,0.684715378669013, ,0.4568070039386951, ,0.09230423868900635
237, ,PASS, ,0.068589707, ,0.01047539544891362, ,0.025867946466643543, ,0.0007235088806439254, ,1.75, ,0.6854937521663463, ,0.45780698353094834, ,0.09291647109242669
238, ,PASS, ,0.06843861300000004, ,0.010448226996398122, ,0.02562913997420461, ,0.0007203574680388583, ,1.75, ,0.6840776274931348, ,0.4568682271790372, ,0.0918756760066121
239, ,PASS, ,0.06854061800000003, ,0.010422973763009605, ,0.025711587275218873, ,0.0007198711612131817, ,1.75, ,0.6836245404999913, ,0.45743964408889615, ,0.0900389787963511
240, ,PASS, ,0.06862695300000002, ,0.010510906047211594, ,0.02578887466714965, ,0.0007264409201432637, ,1.75, ,0.6852632068335661, ,0.45733760535499274, ,0.095304177465766
241, ,PASS, ,0.07835095600000001, ,0.011509312211273852, ,0.0249116953832983, ,0.0009092225002135444, ,1.75, ,0.6633422667353434, ,0.45280708556968224, ,0.08710026325993347
242, ,PASS, ,0.1979842400000001, ,0.024892838686037647, ,0.01509495330850391, ,0.004992823823199362, ,1.6666666666666667, ,0.6070983485425939, ,0.4393175649476541, ,0.07730454480520806
243, ,PASS, ,0.09640765999999998, ,0.010463624239054423, ,0.022208514107977386, ,0.0010251196770181695, ,1.5833333333333333, ,0.5460743442105662, ,0.42070569988367584, ,0.024693373604620313
244, ,PASS, ,0.09403869000000001, ,0.010124492294983738, ,0.022478647453909106, ,0.0009676792289412468, ,1.5833333333333333, ,0.5433141652754738, ,0.419746535784984, ,0.02385665598661252
245, ,PASS, ,0.09376568999999998, ,0.010070172899431377, ,0.02258415096024571, ,0.0009599944987408093, ,1.5833333333333333, ,0.5424073387349833, ,0.419236342115467, ,0.022040366523132182
246, ,PASS, ,0.09388583999999997, ,0.010120101951241104, ,0.02250566368482276, ,0.0009657664637385357, ,1.5833333333333333, ,0.5437368379933044, ,0.4188894104201955, ,0.023877063733393197
247, ,PASS, ,0.09439289000000001, ,0.010085450445184267, ,0.022490931778331055, ,0.0009676058203578527, ,1.5833333333333333, ,0.542209399369743, ,0.4201342829738169, ,0.023570947531683026
248, ,PASS, ,0.09476302999999996, ,0.010145917849890303, ,0.02239074983130956, ,0.000977623304678598, ,1.5833333333333333, ,0.5425146758568238, ,0.4181547315360911, ,0.02422399542866472
249, ,PASS, ,0.09551532999999995, ,0.010199895001885855, ,0.022387602715271116, ,0.000990841685741286, ,1.5833333333333333, ,0.5410883941915219, ,0.41825677026999447, ,0.022407705965184384
250, ,PASS, ,0.09534193999999997, ,0.010163872046811349, ,0.022209063464194607, ,0.0009855343090614391, ,1.5833333333333333, ,0.5407297399053232, ,0.41823636252321383, ,0.022815860900797943
251, ,PASS, ,0.09602949999999996, ,0.010217915027522924, ,0.022481134166078245, ,0.0009975070047122973, ,1.5833333333333333, ,0.5405233989581829, ,0.41829758576355586, ,0.022489336952307096
252, ,PASS, ,0.09543365999999998, ,0.010168119412457655, ,0.022254213084549293, ,0.000986819871374132, ,1.5833333333333333, ,0.5411858296971648, ,0.41727719842452193, ,0.022040366523132182
253, ,PASS, ,0.09587740999999997, ,0.010239578186974926, ,0.02227295854180527, ,0.0009983757192098869, ,1.5833333333333333, ,0.5414156326578753, ,0.41707312095671517, ,0.022019958776351503
254, ,PASS, ,0.09658802999999999, ,0.010331172332228774, ,0.022459639395461316, ,0.0010146121737937123, ,1.5833333333333333, ,0.5409385248345914, ,0.4163384420726108, ,0.022224036244158283
255, ,PASS, ,0.09695498, ,0.01033311644946253, ,0.022017416603232587, ,0.0010189867333930123, ,1.5833333333333333, ,0.5406584587394199, ,0.4163996653129528, ,0.02253015244586845
