Channel, ,Pass/Fail, ,Amplitude, ,Sorting Function Response, ,Mean, ,Variance
49, ,PASS, ,0.049870117225231006, ,0.04228286724914695, ,0.0032482096081360165, ,0.0004363614343684518
50, ,PASS, ,0.05090420044250901, ,0.04431033893385687, ,0.003320201158727484, ,0.0004670155064949392
51, ,PASS, ,0.05414920767858001, ,0.043850252580625214, ,0.00365959334244717, ,0.0004921179591787511
52, ,PASS, ,0.05640383120429701, ,0.045868015678415364, ,0.003731408553930666, ,0.0005366002350894421
53, ,PASS, ,0.052579167077225, ,0.04283187951993263, ,0.0035390277868098848, ,0.0004666290694840597
54, ,PASS, ,0.05514406998977, ,0.045882424344716226, ,0.0036516452565803037, ,0.0005245215562722726
55, ,PASS, ,0.052695435034199004, ,0.04251232359020344, ,0.0034049058171170044, ,0.00046420657340687113
56, ,PASS, ,0.055205402980238, ,0.04559528950054404, ,0.0036634921861288627, ,0.0005218191456305771
57, ,PASS, ,0.055721579657561, ,0.04401694279372618, ,0.0036263611555516226, ,0.0005084832767697248
58, ,PASS, ,0.05801668672440301, ,0.04663844627631373, ,0.003791379600408103, ,0.0005611784092226248
59, ,PASS, ,0.051147093982389, ,0.04284516631653895, ,0.0034833473155580744, ,0.00045375026084001685
60, ,PASS, ,0.054048952128559, ,0.04600245053781309, ,0.003617665930091938, ,0.0005150125484932783
61, ,PASS, ,0.051271210452647, ,0.04267902537006579, ,0.0033816091103720004, ,0.00045309150725186695
62, ,PASS, ,0.054615993408256, ,0.046669403119752095, ,0.0035965941228465062, ,0.000527949733718614
63, ,PASS, ,0.049902850512382996, ,0.04231085467137851, ,0.0033678766999365034, ,0.0004370901803290383
64, ,PASS, ,0.054784628632952005, ,0.047637142620689396, ,0.0036544634011477263, ,0.0005404201127183238
65, ,PASS, ,0.048138045075709, ,0.04094510413361279, ,0.0032842471466219617, ,0.0004079349894690875
66, ,PASS, ,0.05396738913525401, ,0.046973412427657374, ,0.003621212595816101, ,0.0005246788355977277
67, ,PASS, ,0.048363555589952006, ,0.04102657188100257, ,0.0033475139447314757, ,0.00041062070028231623
68, ,PASS, ,0.053583547750955, ,0.04660480565935373, ,0.0034969552027491672, ,0.0005169154474472511
69, ,PASS, ,0.047642174459141, ,0.0409667873488468, ,0.0032555466144952344, ,0.00040377992070780475
70, ,PASS, ,0.053130707503961, ,0.046729340484405746, ,0.0035338441587847453, ,0.0005135976984610929
71, ,PASS, ,0.045123005680862, ,0.0389157152506621, ,0.003082559242742856, ,0.000363142591943433
72, ,PASS, ,0.052427280059019005, ,0.046196746942785215, ,0.0034985309438543342, ,0.0005009320107674583
73, ,PASS, ,0.045438419914663006, ,0.03890659437960045, ,0.0030875850221549488, ,0.00036557017065655
74, ,PASS, ,0.052087525233589005, ,0.04567119447008931, ,0.0034709324801244904, ,0.0004920823447076864
75, ,PASS, ,0.04360378687237301, ,0.0377358395741161, ,0.0030147957999916535, ,0.0003403031501715775
76, ,PASS, ,0.049682020600978996, ,0.04390209803481833, ,0.0032827269243103033, ,0.00045110421628074946
77, ,PASS, ,0.042230011735817, ,0.03618322405163464, ,0.0029847764459183424, ,0.0003160687808810199
78, ,PASS, ,0.046767497861411, ,0.040888334866057585, ,0.0031829760861638756, ,0.00039545719494693337
198, ,PASS, ,0.095345610512166, ,0.05922655022053192, ,0.004140747237509774, ,0.0012332611982365696
199, ,PASS, ,0.070180599453682, ,0.04652245887082955, ,0.003244779083315795, ,0.0007106173177906142
200, ,PASS, ,0.049462896006369, ,0.028643305001040124, ,0.0022473860392542497, ,0.0003123339619712648
201, ,PASS, ,0.042348823668711996, ,0.024720220682529572, ,0.0019204709638368314, ,0.00023043738827990766
202, ,PASS, ,0.041874662778302, ,0.023252542963351268, ,0.001862660672699099, ,0.0002147117311655007
203, ,PASS, ,0.042980793191079, ,0.02437914951689778, ,0.0019350313337437356, ,0.00023058496517989845
204, ,PASS, ,0.059260704285632, ,0.034708749917550054, ,0.002633221656507736, ,0.00044860446812970104
205, ,PASS, ,0.067958151041206, ,0.0406675214269625, ,0.0029371833978789706, ,0.0005989938921718978
206, ,PASS, ,0.056309873382671, ,0.03250677867504041, ,0.0024984976745867364, ,0.000399538621141642
207, ,PASS, ,0.065607317987424, ,0.03958063430528381, ,0.0029402596171681926, ,0.0005634780543073919
208, ,PASS, ,0.05041691336790499, ,0.029656243168928568, ,0.00223929002157821, ,0.0003263262921524232
209, ,PASS, ,0.04883910177812199, ,0.029616487877106516, ,0.0022189558828557836, ,0.00031517990684261555
210, ,PASS, ,0.04866326431317601, ,0.0287602369183137, ,0.0022071586395668525, ,0.0003052469259866868
211, ,PASS, ,0.049828503714677994, ,0.030250019951349634, ,0.0022879445425231966, ,0.0003278508883192885
212, ,PASS, ,0.06931432119371501, ,0.042847433560749534, ,0.003033461649819707, ,0.0006393422717262267
213, ,PASS, ,0.05634485592081, ,0.035896218421522026, ,0.0026284148196365673, ,0.0004368528521301978
214, ,PASS, ,0.054486606872631016, ,0.0345862735238558, ,0.0025584850783685912, ,0.0004075722890505474
215, ,PASS, ,0.06082612084323299, ,0.037457503023501926, ,0.0027641897477257284, ,0.0004914663447038084
216, ,PASS, ,0.051220008845114, ,0.03170445156271967, ,0.0023958773264081863, ,0.0003520528426403503
217, ,PASS, ,0.05594325621092901, ,0.03472222292389257, ,0.0025994110133128277, ,0.00041880417949890977
218, ,PASS, ,0.048067700711626, ,0.02923725183655644, ,0.002269609857852295, ,0.0003043082346076887
219, ,PASS, ,0.054001002756513004, ,0.03367863601380235, ,0.002504860637618377, ,0.00039174851390975116
220, ,PASS, ,0.044670461725131005, ,0.027463438191781823, ,0.0021185369018096277, ,0.0002658450709349678
221, ,PASS, ,0.043538986218911016, ,0.02738930106402253, ,0.0020707427140552494, ,0.00025821974019178874
222, ,PASS, ,0.04140310620715, ,0.025463922485353726, ,0.0020050055999589747, ,0.00022886085581119226
223, ,PASS, ,0.04640735559413801, ,0.02896615522132924, ,0.002174239561826212, ,0.00029111964624214964
224, ,PASS, ,0.07655794843543501, ,0.05001109328038459, ,0.003481703858881293, ,0.0008144487412694213
225, ,PASS, ,0.061551279436886, ,0.039279154504102375, ,0.0028147957084639903, ,0.0005201109098418329
226, ,PASS, ,0.07448737471178002, ,0.048363565661198996, ,0.003397341121787132, ,0.0007730444540933579
