Channel, ,Pass/Fail, ,Amplitude, ,Sorting Function Response, ,Mean, ,Variance, ,NPeaksRatio, ,PosIntegralRatio, ,ToT50, ,ToT99
71, ,PASS, ,0.060421742740000006, ,0.009260197860834986, ,0.03792080863043611, ,0.0005743312606135492, ,1.9166666666666667, ,0.7924329803025372, ,0.6041101202016286, ,0.03934613579314708
72, ,PASS, ,0.0681630877, ,0.010628105328457824, ,0.03932616348890839, ,0.0007429318204604725, ,1.8333333333333333, ,0.7965647867710004, ,0.6106405991714455, ,0.048550029591232835
73, ,PASS, ,0.04264683399999999, ,0.007011227459552757, ,0.0369542074422971, ,0.0003071770142792957, ,1.8333333333333333, ,0.8233713293573308, ,0.6083957470255709, ,0.0496928634109508
74, ,PASS, ,0.05544133900000001, ,0.0076840403896036025, ,0.03740031575865799, ,0.000435733559527341, ,1.8333333333333333, ,0.7418512695895689, ,0.6025795391930777, ,0.03889716536397216
75, ,PASS, ,0.06478308085000001, ,0.009520391152142413, ,0.03855497774820922, ,0.0006317215893191304, ,1.8333333333333333, ,0.7688619481390353, ,0.6088855329483072, ,0.046060284483990126
76, ,PASS, ,0.03825455000000001, ,0.005533987849193242, ,0.03672286269770005, ,0.00021853757165911898, ,1.8333333333333333, ,0.7644058552133773, ,0.6108446766392522, ,0.04722352605048877
77, ,PASS, ,0.050320942999999986, ,0.007703802581747225, ,0.03740189686067631, ,0.0003971366360822844, ,1.8333333333333333, ,0.790378540131922, ,0.6055794779698374, ,0.04099916328238199
78, ,PASS, ,0.06343669315999999, ,0.010203922972222298, ,0.039280217295157245, ,0.000664282587581382, ,1.8333333333333333, ,0.8107130846739087, ,0.6136609456949859, ,0.07159037570661823
79, ,PASS, ,0.03744346, ,0.005847295749331126, ,0.036664201589967554, ,0.00022616280187992896, ,1.9166666666666667, ,0.8037798490742938, ,0.6174159711026306, ,0.04834595212342605
80, ,PASS, ,0.050970701, ,0.008120210486969648, ,0.03828103854186649, ,0.00042534684283309835, ,1.8333333333333333, ,0.8179620017362857, ,0.6205995796004163, ,0.04891736903328504
81, ,PASS, ,0.061076243880000006, ,0.010417903754521406, ,0.03944749491377727, ,0.0006553188937856055, ,1.8333333333333333, ,0.8448604193941531, ,0.6208240648150037, ,0.11352829534091141
82, ,PASS, ,0.037015160000000005, ,0.006017475708519695, ,0.0365397783996245, ,0.00022953545075132657, ,1.8333333333333333, ,0.8232381392112631, ,0.6142119548580641, ,0.0590396114365013
83, ,PASS, ,0.06047492281000002, ,0.009544136784340594, ,0.038872369151037735, ,0.0005935839073204874, ,1.8333333333333333, ,0.8060699154333085, ,0.6180894267463929, ,0.05673353605028469
84, ,PASS, ,0.06382493251999997, ,0.010821803776615471, ,0.03967844296851085, ,0.000711028488225748, ,1.8333333333333333, ,0.8431199455523977, ,0.6196812309952858, ,0.12238525744372564
85, ,PASS, ,0.038406090000000004, ,0.00614663019711192, ,0.03656782341299157, ,0.0002426456318879448, ,1.8333333333333333, ,0.8142633665289184, ,0.6112936470684271, ,0.04914185424787249
86, ,PASS, ,0.06960030802, ,0.012537553006244071, ,0.04121043480745291, ,0.0008986818908931986, ,1.9166666666666667, ,0.875147578264074, ,0.6227832085059488, ,0.3901144874594396
87, ,PASS, ,0.07069300888999999, ,0.012419934776597629, ,0.040905816274565826, ,0.000904259711022445, ,1.8333333333333333, ,0.8606669573508345, ,0.6193955225403563, ,0.2783208505948858
88, ,PASS, ,0.045415172999999996, ,0.00808181377951215, ,0.03780644522948511, ,0.00037781853474191327, ,1.8333333333333333, ,0.8596870394706417, ,0.6171914858880431, ,0.16432317707801883
89, ,PASS, ,0.06719871965, ,0.011955650672617488, ,0.0406010959151854, ,0.0008277566226548955, ,1.9166666666666667, ,0.8665595748612916, ,0.6228444317462909, ,0.34646231709556946
90, ,PASS, ,0.07014968386999995, ,0.01215877546200791, ,0.04076061126058651, ,0.000878305067912463, ,1.9166666666666667, ,0.85580129322646, ,0.6228444317462909, ,0.2845043978694312
91, ,PASS, ,0.045213670999999976, ,0.007916964438772434, ,0.03767520613538499, ,0.00036793237021415655, ,1.9166666666666667, ,0.8509709916294749, ,0.6161506908022285, ,0.1051203036672721
92, ,PASS, ,0.06108909481000001, ,0.011004336286141014, ,0.03980810747188833, ,0.0006917186445151851, ,1.8333333333333333, ,0.8681752785274129, ,0.6229668782269749, ,0.39313483398297994
93, ,PASS, ,0.06930134801, ,0.012005211285920631, ,0.04059666260280402, ,0.0008558004544725509, ,1.8333333333333333, ,0.8494743336564423, ,0.6224975000510193, ,0.275014795616416
94, ,PASS, ,0.04312036000000001, ,0.00760896570852286, ,0.037739074390114494, ,0.00033842882309049576, ,1.8333333333333333, ,0.8584099319766196, ,0.6221301606089672, ,0.16338442072610762
95, ,PASS, ,0.055419245000000006, ,0.009125859144532773, ,0.038226911334462564, ,0.0005196328124151652, ,1.8333333333333333, ,0.8236241297878094, ,0.6134160527336177, ,0.06548845941919552
96, ,PASS, ,0.06457626263999999, ,0.011482963636966086, ,0.04017136952735658, ,0.0007634955724976441, ,1.9166666666666667, ,0.8645868220052463, ,0.6219464908879411, ,0.33262586477826983
97, ,PASS, ,0.03976175000000001, ,0.007001059580076997, ,0.03718869081957511, ,0.0002874272023338295, ,1.8333333333333333, ,0.8612473535076974, ,0.6191098140854269, ,0.15791514458888595
98, ,PASS, ,0.050311197999999994, ,0.008473385694570018, ,0.03806701164241546, ,0.0004399113547199699, ,1.8333333333333333, ,0.8367740932965305, ,0.619477153527479, ,0.07563110956919246
99, ,PASS, ,0.06329672044, ,0.011383064162069686, ,0.039445634957041696, ,0.0007415623566058037, ,1.8333333333333333, ,0.8623390546436212, ,0.612130364686435, ,0.34270729168792474
100, ,PASS, ,0.038997409999999996, ,0.00687247071016358, ,0.03728585942878717, ,0.00027647997416039807, ,1.8333333333333333, ,0.8616115345773129, ,0.622395461317116, ,0.1681190179792249
101, ,PASS, ,0.04479335999999999, ,0.007576240985099928, ,0.03763004033305443, ,0.00035030221909104536, ,1.8333333333333333, ,0.8384623840665726, ,0.6191710373257688, ,0.07889634905410094
102, ,PASS, ,0.06185405742, ,0.01097127758588308, ,0.03974140361706904, ,0.0006976608160838942, ,1.8333333333333333, ,0.8574428795457145, ,0.6185792126691292, ,0.3241770576110692
103, ,FAIL, ,0.007635500000000007, ,0.00033017817714803575, ,0.03298328489071652, ,2.6591116891879444e-06, ,0.8333333333333334, ,0.29386509766864977, ,0.553070345503153, ,0.015183363604824392
198, ,FAIL, ,0.026871343000000002, ,0.002616969111812735, ,0.03469650369298586, ,7.290527100415809e-05, ,2.0, ,0.7357860293057384, ,0.5918246566396604, ,0.0006938633905430501
199, ,FAIL, ,0.02529505000000001, ,0.002580113387413439, ,0.03480026374073998, ,6.97457410728436e-05, ,2.0, ,0.7277267250930612, ,0.5984775820901614, ,0.0009795718454725414
200, ,PASS, ,0.03503803, ,0.004628860397519318, ,0.035235499450419386, ,0.00016795908418440822, ,2.0, ,0.7762798272102821, ,0.591089977755556, ,0.00944878675945389
201, ,PASS, ,0.06452132246999999, ,0.009164961591656548, ,0.037922286671707515, ,0.0006318417153030865, ,1.9166666666666667, ,0.8407242218036706, ,0.6007836574763781, ,0.03059121242423624
202, ,PASS, ,0.06997768, ,0.010354155563053354, ,0.038238488854594806, ,0.0007402447807956976, ,2.0, ,0.8424189860514819, ,0.6046407216179261, ,0.031060590600191833
203, ,PASS, ,0.071605322, ,0.011104339222345527, ,0.038186348754658074, ,0.0008036554393021307, ,2.0, ,0.8569539566536504, ,0.5974571947511276, ,0.052611171200587746
204, ,PASS, ,0.09989999999999996, ,0.016511964992943287, ,0.04079687811963021, ,0.001667915667182461, ,2.0, ,0.8805241015967776, ,0.596987816575172, ,0.10330401420379176
205, ,PASS, ,0.09989999999999996, ,0.018778755660162287, ,0.04295430097078487, ,0.0019964589169297006, ,1.8333333333333333, ,0.9668960969013098, ,0.6120895491928736, ,0.5672333217689435
206, ,PASS, ,0.09897105999999999, ,0.0145355355466399, ,0.040750189985102346, ,0.0015083882258707833, ,2.0, ,0.8532381005819487, ,0.6044774596436807, ,0.04750923450541826
207, ,PASS, ,0.09989999999999996, ,0.017266135499402088, ,0.0427191880290388, ,0.0018271854690452398, ,1.8333333333333333, ,0.9334114876346884, ,0.6089263484418685, ,0.2715046631701394
208, ,PASS, ,0.08798342, ,0.013135598350023734, ,0.039148188994224606, ,0.0011629363927039753, ,2.0, ,0.8517970680954658, ,0.5997224546437828, ,0.05097855145813351
209, ,PASS, ,0.079459309, ,0.01244758997875855, ,0.03877572613455644, ,0.00100085847482537, ,2.0, ,0.8653775741294312, ,0.5984163588498194, ,0.07534540111426298
210, ,PASS, ,0.07522015499999997, ,0.01116514317703728, ,0.038373936927430054, ,0.0008680351004313548, ,2.0, ,0.8479824459444611, ,0.5987224750515295, ,0.04336646190894063
211, ,PASS, ,0.08770295, ,0.013727887531995475, ,0.04006466657682496, ,0.0012311024774346515, ,2.0, ,0.8692432248309024, ,0.608518193506255, ,0.08012081386094161
212, ,PASS, ,0.09989999999999996, ,0.017941070052262142, ,0.042025944662415056, ,0.0018295713503189567, ,2.0, ,0.9233031518636033, ,0.6077835146221505, ,0.20399583681965675
213, ,PASS, ,0.08831518, ,0.014332876241435146, ,0.040165509208552885, ,0.0013207864209384536, ,1.9166666666666667, ,0.8786288879585817, ,0.6020693455235607, ,0.08297789841023652
214, ,PASS, ,0.04096948000000001, ,0.006330627098069874, ,0.035822792543213404, ,0.00025544852813884724, ,2.0, ,0.8118278767345688, ,0.5889471643435849, ,0.025285198261259974
215, ,PASS, ,0.02420863000000001, ,0.004251891091545211, ,0.034979610459582464, ,0.00010667301460577873, ,2.0, ,0.8732129617922814, ,0.5932123834207466, ,0.09599804085630906
216, ,FAIL, ,0.026887971909999992, ,0.002552590548653445, ,0.03446210620211832, ,6.509669973360725e-05, ,2.0, ,0.7373073841830681, ,0.5839472663823188, ,0.0006326401502010163
