Channel, ,Pass/Fail, ,Amplitude, ,Sorting Function Response, ,Mean, ,Variance, ,NPeaksRatio, ,PosIntegralRatio, ,ToT50, ,ToT99
38, ,PASS, ,0.04295663999999998, ,0.006717853538973957, ,0.03261205755474378, ,0.0002907637926373158, ,1.8333333333333333, ,0.7431962804920501, ,0.4230117752698925, ,0.13152792800146937
39, ,PASS, ,0.078295735, ,0.01019119872800354, ,0.03254375636031918, ,0.0007963623569136291, ,1.75, ,0.6607036375010585, ,0.44921532213628296, ,0.07679435113569111
40, ,PASS, ,0.07200795972, ,0.008820488322201043, ,0.03329189665643297, ,0.0006328283114704326, ,1.5833333333333333, ,0.6382713121044921, ,0.4562764025223975, ,0.05989673680128977
41, ,PASS, ,0.03694120999999999, ,0.005023010312534702, ,0.03330523741923634, ,0.00018598725903920462, ,1.75, ,0.6856727513832627, ,0.4335217648619416, ,0.0879982041182833
42, ,PASS, ,0.04999955900000001, ,0.007215355176282497, ,0.03253654085371727, ,0.0003625486541154196, ,1.75, ,0.7102668465045733, ,0.428868798595947, ,0.10456929450419379
43, ,PASS, ,0.08443350100000002, ,0.010374681196230197, ,0.032683970863472175, ,0.000873488103974522, ,1.6666666666666667, ,0.6412285175160679, ,0.45325605599885715, ,0.05942735862533418
44, ,PASS, ,0.07598235399999997, ,0.008848697842068046, ,0.03342313393303802, ,0.0006695495217181363, ,1.5833333333333333, ,0.6225270626989274, ,0.4618069018999612, ,0.04926430072855656
45, ,PASS, ,0.042139340000000004, ,0.005428638633317738, ,0.03334737748964307, ,0.00022887464556412828, ,1.6666666666666667, ,0.6621011307641798, ,0.43837880859574296, ,0.06395787841064468
46, ,PASS, ,0.047843197000000025, ,0.007152743545513935, ,0.03233664116203751, ,0.00034424092266819266, ,1.8333333333333333, ,0.7236870021992902, ,0.42505254994796027, ,0.1077120875084182
47, ,PASS, ,0.08297457700000002, ,0.010139208895518606, ,0.03274877178771862, ,0.0008384899189899836, ,1.6666666666666667, ,0.6376697247925468, ,0.45280708556968224, ,0.052692802187710455
48, ,PASS, ,0.0743313063, ,0.008622567353790763, ,0.03352508135100831, ,0.0006383464973246775, ,1.5833333333333333, ,0.6214174151272686, ,0.46119466949654087, ,0.040876716801697924
49, ,PASS, ,0.04014703000000001, ,0.005419345508954147, ,0.033150976875778046, ,0.00021801211323669206, ,1.75, ,0.681162603115431, ,0.4340727740250199, ,0.07450868349625518
50, ,PASS, ,0.04620133, ,0.007227346654245381, ,0.032323215598661255, ,0.00033578324507713164, ,1.75, ,0.7431513653285867, ,0.4288483908491663, ,0.12883410542641988
51, ,PASS, ,0.08290807600000002, ,0.010197323264836257, ,0.032750366103936654, ,0.000842788319504775, ,1.6666666666666667, ,0.6412950159500755, ,0.4535621722005673, ,0.0578355543764413
52, ,PASS, ,0.0740022377, ,0.00861532679189543, ,0.033455639703772556, ,0.0006345108220161511, ,1.5833333333333333, ,0.6209434623527765, ,0.46074569906736595, ,0.045713352788718596
53, ,PASS, ,0.038992219999999994, ,0.005449540969168782, ,0.0331271168182282, ,0.00021336694044849638, ,1.75, ,0.700434509268264, ,0.4297259239607355, ,0.0893859308993694
54, ,PASS, ,0.05317460899999997, ,0.007666180596951934, ,0.03232628503601967, ,0.0004097630146371861, ,1.75, ,0.7097583929765097, ,0.4266647619436338, ,0.08942674639293076
55, ,PASS, ,0.08921802300000002, ,0.010587156753375676, ,0.033045594769188384, ,0.0009413077405668764, ,1.5833333333333333, ,0.6291370384748598, ,0.4572355666210894, ,0.045754168282279954
56, ,PASS, ,0.07999732300000004, ,0.008846254054763908, ,0.03378665405683974, ,0.0007041152119289012, ,1.6666666666666667, ,0.6060065824238016, ,0.46707210056937615, ,0.03867268014938471
57, ,PASS, ,0.049995448999999983, ,0.0062989262169814595, ,0.03323949500679578, ,0.00031502518013324456, ,1.6666666666666667, ,0.6565787092538087, ,0.4417664945613355, ,0.05918246566396604
58, ,PASS, ,0.04867132000000002, ,0.007297755562807732, ,0.032237214970837334, ,0.0003575226260251022, ,1.8333333333333333, ,0.7271924076105964, ,0.42450154078488195, ,0.11018142486888023
59, ,PASS, ,0.08641006100000004, ,0.010371004121569728, ,0.03282422601169364, ,0.0008928780650357762, ,1.5833333333333333, ,0.63295844594205, ,0.4554396849043897, ,0.052774433174833164
60, ,PASS, ,0.07834364299999995, ,0.00867556952711136, ,0.03388081328132242, ,0.000676102608612617, ,1.6666666666666667, ,0.6058405669185007, ,0.4679292259341646, ,0.03873390338972674
61, ,PASS, ,0.04807750900000001, ,0.006295080133765906, ,0.03312366361666089, ,0.00030301068634437986, ,1.6666666666666667, ,0.6697439258435265, ,0.4380318769004714, ,0.06536601293851146
62, ,PASS, ,0.04671961000000001, ,0.007142950051365422, ,0.03222836129670823, ,0.00033630307710161663, ,1.8333333333333333, ,0.7380218875835749, ,0.42150160200812226, ,0.11750780596314361
63, ,PASS, ,0.08681368400000004, ,0.01037993099354094, ,0.03290569164004817, ,0.0008980373315052668, ,1.5833333333333333, ,0.6317363461735245, ,0.45625599477561685, ,0.05010101834656436
64, ,PASS, ,0.078732576, ,0.008705425670316323, ,0.03396055005320198, ,0.0006817486817001573, ,1.6666666666666667, ,0.6054992968301603, ,0.468602681577927, ,0.04032570763861962
65, ,PASS, ,0.047481300000000004, ,0.00637888267372869, ,0.032921711352625456, ,0.0003035586700471564, ,1.75, ,0.6825402005664063, ,0.43486867614946634, ,0.07193730740188976
66, ,PASS, ,0.058663566999999986, ,0.00817842542864412, ,0.031951027746188854, ,0.00048212173110567444, ,1.75, ,0.6983219568336718, ,0.4281341197118426, ,0.07159037570661823
67, ,PASS, ,0.09387176800000004, ,0.010764578002427949, ,0.0329708333274423, ,0.001006622934634842, ,1.5833333333333333, ,0.6181213034470869, ,0.45874573988285955, ,0.04279504499908165
68, ,PASS, ,0.08349946600000001, ,0.008991291350726861, ,0.0341940847967588, ,0.0007469046144677526, ,1.75, ,0.5970347557619268, ,0.4705822330156527, ,0.03399930613660946
69, ,PASS, ,0.05675444599999997, ,0.0071387293040055325, ,0.03308961302742801, ,0.0004050765980386096, ,1.6666666666666667, ,0.6546242402733571, ,0.440909369196547, ,0.0530193261362013
70, ,PASS, ,0.05402057799999999, ,0.00794080623158475, ,0.03199647628532071, ,0.00043168245628861894, ,1.8333333333333333, ,0.7202565111364496, ,0.4250117344543989, ,0.09175322952592804
71, ,PASS, ,0.09063408200000002, ,0.01048878667698852, ,0.03308349869737352, ,0.000946839962056755, ,1.5833333333333333, ,0.6213094044803479, ,0.4592355258055958, ,0.0439582865655803
72, ,PASS, ,0.08135026200000005, ,0.008792971272415186, ,0.03422313829694962, ,0.0007113002676611226, ,1.75, ,0.5986022198021314, ,0.47194955204995814, ,0.03769310830391216
73, ,PASS, ,0.05304121099999998, ,0.00696830665248407, ,0.03287339048876553, ,0.00036998722109134885, ,1.6666666666666667, ,0.671602330582359, ,0.4379502459133487, ,0.07373318911858942
74, ,PASS, ,0.05267297299999997, ,0.007941929579197411, ,0.03200446094167466, ,0.0004217797027137648, ,1.8333333333333333, ,0.7330541685206, ,0.42097100059182463, ,0.08324319911838533
75, ,PASS, ,0.09128040200000001, ,0.010493839392625427, ,0.033174207022101596, ,0.0009544256563156155, ,1.5833333333333333, ,0.6191611418898181, ,0.4585008469214914, ,0.03820330197342912
76, ,PASS, ,0.08138241500000001, ,0.008796881465171689, ,0.03406962605107345, ,0.0007119133149718157, ,1.75, ,0.5996221391661531, ,0.472214852758107, ,0.040815493561355894
77, ,PASS, ,0.051376061999999986, ,0.006874847638465555, ,0.03279230578769821, ,0.00035395552742551524, ,1.75, ,0.6787887806954988, ,0.43448092896063345, ,0.0739372665863962
78, ,PASS, ,0.07135103125600002, ,0.009948168824310467, ,0.031403009279849944, ,0.0007131189553244261, ,1.75, ,0.6999841207654918, ,0.42901165282341175, ,0.06691700169384299
79, ,PASS, ,0.09759017000000002, ,0.010879540195815678, ,0.033210320387706375, ,0.0010568862109268122, ,1.5833333333333333, ,0.6089813857164246, ,0.4622966878226975, ,0.03850941817513928
80, ,PASS, ,0.08596719300000001, ,0.009041137212253051, ,0.03439735085634375, ,0.0007727684388921774, ,1.75, ,0.5893804937735085, ,0.4750719373074019, ,0.03328503499928573
81, ,PASS, ,0.06666741099999998, ,0.008366209052855903, ,0.03262044605563152, ,0.0005575409131996967, ,1.75, ,0.652282364994542, ,0.4427052509132467, ,0.053570335299279605
82, ,PASS, ,0.06562926420000002, ,0.009417148492351668, ,0.031568858465643564, ,0.0006215262808969494, ,1.75, ,0.7115167548231927, ,0.42650149996938835, ,0.08110038570641416
83, ,PASS, ,0.09492762000000005, ,0.010634410363517451, ,0.03333500469382258, ,0.0010051299111131897, ,1.5833333333333333, ,0.6106245242959863, ,0.4622762800759168, ,0.03806044774596437
84, ,PASS, ,0.08446785300000004, ,0.00880348883744832, ,0.03463680879104253, ,0.0007389626371822854, ,1.6666666666666667, ,0.5875491871272394, ,0.47927593314422157, ,0.033815636415583356
85, ,PASS, ,0.06293144200000002, ,0.008204950067586779, ,0.032582977979163694, ,0.0005164486669311028, ,1.6666666666666667, ,0.6671678673508228, ,0.4410318156772311, ,0.0691210383461562
86, ,PASS, ,0.06151288100000003, ,0.008870651656507555, ,0.03170842800010204, ,0.0005490729942078523, ,1.8333333333333333, ,0.7145961830576194, ,0.4250117344543989, ,0.08740637946164365
87, ,PASS, ,0.09490799000000003, ,0.010665680985512347, ,0.03345283986451297, ,0.0010074864460880369, ,1.5833333333333333, ,0.6110300918914956, ,0.4627456582518724, ,0.03977469847554132
88, ,PASS, ,0.08399242800000002, ,0.008825194581582981, ,0.034319553392634844, ,0.0007369158274463124, ,1.6666666666666667, ,0.5901338402037027, ,0.4756025387236995, ,0.034693169527152505
89, ,PASS, ,0.060960182, ,0.008042713692579709, ,0.0325312234757658, ,0.0004907546131140121, ,1.6666666666666667, ,0.6718057346409362, ,0.438440031836085, ,0.06897818411869146
90, ,PASS, ,0.05970788300000003, ,0.008281581671344514, ,0.0317161394633783, ,0.0004983689782136273, ,1.8333333333333333, ,0.7061635545954069, ,0.4217669027162711, ,0.062141588947164345
91, ,PASS, ,0.10070047999999998, ,0.011383472338386585, ,0.03316954258276362, ,0.0011415071683407634, ,1.5833333333333333, ,0.6131340669018458, ,0.4605620293463399, ,0.04073386257423318
92, ,PASS, ,0.09105140700000004, ,0.009663424599726952, ,0.03422378664498684, ,0.0008748463009952218, ,1.75, ,0.5921903279005777, ,0.47372502601987715, ,0.037121691394053184
93, ,PASS, ,0.062215715000000026, ,0.008065832298484153, ,0.032380286569192465, ,0.000502629876490231, ,1.6666666666666667, ,0.665671432314253, ,0.43633803391767517, ,0.053549927552498926
198, ,PASS, ,0.1998000000000001, ,0.04181925041247339, ,0.023050576694924566, ,0.008715855009310353, ,2.0, ,0.9188239547543942, ,0.42452194853166264, ,0.34685006428440235
199, ,PASS, ,0.1860787000000001, ,0.034129310472901145, ,0.018500480451623415, ,0.0065706419592385205, ,1.9166666666666667, ,0.8519084788683393, ,0.4225219893471562, ,0.09201853023407686
200, ,PASS, ,0.17869870000000007, ,0.031156983930466554, ,0.017514133649456125, ,0.005764181274445291, ,1.9166666666666667, ,0.8523572851708282, ,0.42244035836003346, ,0.08816146609252873
201, ,PASS, ,0.15234587, ,0.021555848403616174, ,0.019778847960911186, ,0.003427546770678878, ,1.75, ,0.8264069858100545, ,0.4234607456990674, ,0.05910083467684333
202, ,PASS, ,0.15054677000000002, ,0.021488820798999813, ,0.019914906693664743, ,0.0033748017436380662, ,1.8333333333333333, ,0.8276276554513283, ,0.4209097773514826, ,0.05365196628640232
203, ,PASS, ,0.12225654, ,0.016698777316752723, ,0.022978416537050267, ,0.0021383676916963234, ,1.75, ,0.8283256126196875, ,0.4183384012571172, ,0.05714169098589825
204, ,PASS, ,0.13245711999999998, ,0.018594057088438316, ,0.021867528735842127, ,0.0025701834752823193, ,1.8333333333333333, ,0.8219819876275819, ,0.41790983857472297, ,0.04363176261708945
205, ,PASS, ,0.13009775999999998, ,0.018959457016338027, ,0.021974880409910472, ,0.002567568590232063, ,1.8333333333333333, ,0.8302109229135147, ,0.41995061325279076, ,0.05752943817473113
206, ,PASS, ,0.12077557000000001, ,0.017607084300785954, ,0.022993293289096144, ,0.002221798996231358, ,1.8333333333333333, ,0.8338809896791789, ,0.4137058427379033, ,0.06157017203730536
207, ,PASS, ,0.11916556, ,0.017059542913172365, ,0.023145894908246773, ,0.002125615989483606, ,1.8333333333333333, ,0.833220387484819, ,0.4126242321585274, ,0.055978449419399605
208, ,PASS, ,0.078815709, ,0.011012474392879841, ,0.027167385672067914, ,0.0009186932127774993, ,1.8333333333333333, ,0.8340011888144814, ,0.40113467072100567, ,0.05536621701597927
209, ,PASS, ,0.08061187100000002, ,0.011676831842963172, ,0.02690056118515949, ,0.0009937416111590156, ,1.9166666666666667, ,0.8429215676952421, ,0.40164486439052266, ,0.06067223117895553
210, ,PASS, ,0.05991904339999998, ,0.008861830370967301, ,0.02905761003448909, ,0.000563801140625672, ,1.9166666666666667, ,0.8404500594115576, ,0.396236811493643, ,0.06081508540642028
211, ,PASS, ,0.07591050499999999, ,0.011539282001765443, ,0.02731143306330483, ,0.0009214843166880634, ,2.0, ,0.8549896969897929, ,0.401746903124426, ,0.0691210383461562
212, ,PASS, ,0.1998000000000001, ,0.0347934177267239, ,0.02035088840670597, ,0.007021032015312989, ,1.9166666666666667, ,0.7749957279573307, ,0.41405277443317484, ,0.14107875349482663
213, ,PASS, ,0.1998000000000001, ,0.03893933610380135, ,0.022368283354115198, ,0.00786773513390202, ,1.9166666666666667, ,0.8435679577430284, ,0.422154649905104, ,0.2756882512601784
214, ,PASS, ,0.1998000000000001, ,0.033992895238910664, ,0.01983597586061507, ,0.006868574732080045, ,1.9166666666666667, ,0.7624027875787736, ,0.41274667863921144, ,0.12193628701455073
215, ,PASS, ,0.09866612000000002, ,0.015098784625035699, ,0.02510135444021551, ,0.0015633700967887599, ,1.9166666666666667, ,0.8519013661652955, ,0.40542029754494807, ,0.06530478969816943
216, ,PASS, ,0.075284894, ,0.010982651291750105, ,0.027568468947878615, ,0.0008768498463314979, ,1.9166666666666667, ,0.843808973268573, ,0.3996244974592355, ,0.05701924450521418
217, ,PASS, ,0.09731892, ,0.013805990050227696, ,0.0254442255394992, ,0.0014159991007405258, ,1.9166666666666667, ,0.8412666660217005, ,0.4051345890900186, ,0.05208056978429012
218, ,PASS, ,0.09054784999999996, ,0.012581398024037422, ,0.026135327732229957, ,0.0012037467038344461, ,1.8333333333333333, ,0.8387210387312435, ,0.4033591151200996, ,0.05322340360400808
219, ,PASS, ,0.10250534000000003, ,0.01701231256426155, ,0.02437351941592872, ,0.0018245568460550968, ,1.9166666666666667, ,0.8700265423132153, ,0.4033387073733189, ,0.0817942490969572
220, ,PASS, ,0.050556633000000004, ,0.0068152742680899605, ,0.030030041721801595, ,0.0003704345608424024, ,1.9166666666666667, ,0.8255687038283612, ,0.39362461990571623, ,0.04538682884022775
221, ,PASS, ,0.06330816618599999, ,0.00831353345630549, ,0.02881769894263382, ,0.0005660371355297847, ,1.9166666666666667, ,0.8230426549408988, ,0.39499193894002166, ,0.03924409705924369
222, ,PASS, ,0.050087076, ,0.006637333863587671, ,0.030078708668190443, ,0.0003581351537841498, ,1.9166666666666667, ,0.8236035123073645, ,0.3924205628456562, ,0.039550213260953856
223, ,PASS, ,0.07180484999999998, ,0.00960307549521735, ,0.028196997662476277, ,0.0007399920434914228, ,1.9166666666666667, ,0.8310861884018627, ,0.4010122242403216, ,0.04020326115793555
224, ,PASS, ,0.09122291999999999, ,0.012696908768783953, ,0.025993693773922986, ,0.0012281992835835205, ,1.9166666666666667, ,0.8398806126800848, ,0.40111426297422503, ,0.050652027509642664
225, ,PASS, ,0.08389978000000003, ,0.01122083051662719, ,0.0268537602363013, ,0.0010039291129809978, ,1.8333333333333333, ,0.8328451833938776, ,0.4004612150772433, ,0.0443256260076325
226, ,PASS, ,0.08345984000000002, ,0.011222007118214843, ,0.026982471761413034, ,0.0009983310966532439, ,1.8333333333333333, ,0.8354120568249667, ,0.40105303973388295, ,0.04342768514928267
227, ,PASS, ,0.11537249, ,0.016214970689995726, ,0.02359503510626314, ,0.0019687806336948503, ,1.8333333333333333, ,0.8410698378021988, ,0.40699169404706026, ,0.04844799085732944
228, ,PASS, ,0.08859172999999997, ,0.012084655942215371, ,0.02627060665261934, ,0.0011388181223138194, ,1.8333333333333333, ,0.8406488860238013, ,0.40070610803861145, ,0.049101038754311134
229, ,PASS, ,0.10792942999999999, ,0.017574589282870066, ,0.02403907798236771, ,0.0019794366707169084, ,1.9166666666666667, ,0.8703151422172737, ,0.40652231587110466, ,0.0951205077447399
230, ,PASS, ,0.06140783425599998, ,0.00813241962391812, ,0.029094427798432684, ,0.0005378841169144039, ,1.9166666666666667, ,0.8276048484456785, ,0.3947266382318728, ,0.03944817452705047
231, ,PASS, ,0.11068382000000004, ,0.015597263203232304, ,0.023924619864125227, ,0.0018216070383243542, ,1.9166666666666667, ,0.8438133969371374, ,0.4038489010428359, ,0.04961123242382808
232, ,PASS, ,0.075465251, ,0.010356975236419604, ,0.02757898489728781, ,0.0008358948856076462, ,1.9166666666666667, ,0.8396626841607275, ,0.398073508703904, ,0.04518275137242097
233, ,PASS, ,0.07006816300000002, ,0.009366588671332485, ,0.028257618308993693, ,0.0007044702318713591, ,1.9166666666666667, ,0.8352184836176675, ,0.3967674129099406, ,0.04050937735964572
234, ,PASS, ,0.06888686400000002, ,0.009195183635294507, ,0.028365473384992144, ,0.0006797496657176717, ,1.9166666666666667, ,0.8343145135059116, ,0.395665394583784, ,0.03904001959143691
235, ,PASS, ,0.069034822, ,0.009139235091266126, ,0.028334907807412095, ,0.0006783306136340419, ,1.9166666666666667, ,0.8320212075136545, ,0.39488990020611825, ,0.0343258300851003
236, ,PASS, ,0.057171971999999995, ,0.007434460148870621, ,0.029582920287136997, ,0.00045957226043624673, ,1.9166666666666667, ,0.8235811420339172, ,0.3922164853778494, ,0.03038713495642946
237, ,PASS, ,0.07058113500000002, ,0.009117393121897842, ,0.02823021596755168, ,0.000695802987993613, ,1.9166666666666667, ,0.8306554797580242, ,0.39401236709454907, ,0.028815738454317258
238, ,PASS, ,0.067592342, ,0.008477436161549641, ,0.028593740437664536, ,0.0006200647152925641, ,1.9166666666666667, ,0.8233045048358132, ,0.39395114385420704, ,0.029672863819105732
239, ,PASS, ,0.07341832200000001, ,0.00938423230996021, ,0.02806403388334932, ,0.000745899912482376, ,1.9166666666666667, ,0.832256109284469, ,0.39415522132201386, ,0.02604028489214506
240, ,PASS, ,0.05976669526199997, ,0.007583321231968211, ,0.029331832022121997, ,0.0004934761740152157, ,1.9166666666666667, ,0.8271124117822389, ,0.39144099100018365, ,0.025326013754821332
241, ,PASS, ,0.0832696, ,0.010344169534625578, ,0.027291010796412316, ,0.000935310826545634, ,1.9166666666666667, ,0.840154499512372, ,0.3955429481030999, ,0.02661170180200404
242, ,PASS, ,0.07540676200000003, ,0.00839457770466864, ,0.028257467201832615, ,0.0006937291007918075, ,1.9166666666666667, ,0.8253786204814558, ,0.39405318258811045, ,0.021040386930878962
243, ,PASS, ,0.12325467000000004, ,0.014917016120078298, ,0.02313566510661007, ,0.0019876059133662476, ,1.8333333333333333, ,0.8519245424663352, ,0.3987265566008857, ,0.029734087059447765
244, ,PASS, ,0.10001784000000001, ,0.010852820105066907, ,0.026234089854900923, ,0.0011962190261827542, ,1.9166666666666667, ,0.8408005741904727, ,0.39599191853227483, ,0.022305667231280996
245, ,PASS, ,0.10293404, ,0.011148234851080775, ,0.025857011627130062, ,0.001267542218908355, ,1.9166666666666667, ,0.8533192758300506, ,0.395665394583784, ,0.026366808840635907
246, ,PASS, ,0.12512386000000003, ,0.01403478437838153, ,0.023697030863247696, ,0.0019259103581899418, ,1.8333333333333333, ,0.8666669395385163, ,0.3974204608069223, ,0.035509479398379624
