Channel, ,Pass/Fail, ,Amplitude, ,Sorting Function Response, ,Mean, ,Variance, ,NPeaksRatio, ,PosIntegralRatio, ,ToT50, ,ToT99
0, ,PASS, ,0.04556233999999998, ,0.0071889908218152054, ,0.04365799527070876, ,0.0003323255714942338, ,1.75, ,0.8064395615242929, ,0.5930695291932818, ,0.12636476806595784
1, ,PASS, ,0.04527842999999997, ,0.007161474306763194, ,0.04358783134160527, ,0.0003287920981093117, ,1.75, ,0.8073834858642901, ,0.5932736066610885, ,0.13311973225036225
2, ,PASS, ,0.045973879999999974, ,0.007175883551833813, ,0.043461232442195054, ,0.00033433583387801027, ,1.75, ,0.7987364176381594, ,0.5914777249443889, ,0.09279402461174262
3, ,PASS, ,0.04546998999999998, ,0.007198317868553646, ,0.04354199873492377, ,0.00033198280404045735, ,1.75, ,0.8097397504373554, ,0.5921307728413706, ,0.13577273933185038
4, ,PASS, ,0.04523359999999997, ,0.007127207553036932, ,0.04354705643701149, ,0.0003269597512319111, ,1.75, ,0.808223048127431, ,0.5931307524336238, ,0.12718107793718494
5, ,PASS, ,0.045423919999999965, ,0.007144033404035268, ,0.043579750199995916, ,0.0003290051935030272, ,1.75, ,0.8050935021726408, ,0.5928246362319136, ,0.12148731658537582
6, ,PASS, ,0.045236619999999964, ,0.007111120648411016, ,0.04347359312422195, ,0.0003263279506576239, ,1.75, ,0.8078081437095391, ,0.5939266545580703, ,0.13330340197138835
7, ,PASS, ,0.045126019999999975, ,0.0070943344621334945, ,0.04356317324054611, ,0.0003246466421129019, ,1.75, ,0.8065655345558682, ,0.5924368890430808, ,0.1264872145466419
8, ,PASS, ,0.04564595999999998, ,0.007141521427884338, ,0.043517816035387034, ,0.0003303676011609799, ,1.75, ,0.8037594217862898, ,0.5924164812963001, ,0.11677312707903921
9, ,PASS, ,0.045944459999999986, ,0.007214650954069193, ,0.04354661176282116, ,0.0003362581796693124, ,1.75, ,0.8075834954705396, ,0.5933144221546499, ,0.13144629701434665
10, ,PASS, ,0.04483468999999997, ,0.007077578051128723, ,0.04343538862227301, ,0.0003216863094070086, ,1.75, ,0.8081029662836526, ,0.592743005244791, ,0.12118120038366564
11, ,PASS, ,0.045150749999999976, ,0.007078803020610479, ,0.043561141779147355, ,0.0003241964245314245, ,1.75, ,0.8036910440760342, ,0.5924164812963001, ,0.09883471765882329
12, ,PASS, ,0.046873129999999985, ,0.0073035469963231864, ,0.043747624422970956, ,0.00034710219337232435, ,1.75, ,0.799866150886307, ,0.5919062876267831, ,0.0645905185608457
13, ,PASS, ,0.05155100000000003, ,0.008122901927824304, ,0.04423993232791168, ,0.00042476083158397946, ,1.75, ,0.8095950664973047, ,0.5935389073692373, ,0.13909920205710088
14, ,PASS, ,0.17639736, ,0.028790736526707585, ,0.05688489267006796, ,0.005166019733602836, ,1.75, ,0.8253663296982883, ,0.5995387849227567, ,0.17111895675598457
15, ,PASS, ,0.1998000000000001, ,0.03365101335002631, ,0.05959529367986368, ,0.006852093915023179, ,1.8333333333333333, ,0.8485175195597291, ,0.6081916695577642, ,0.3796249056141711
