Channel, ,Pass/Fail, ,Amplitude, ,Sorting Function Response, ,Mean, ,Variance, ,NPeaksRatio, ,PosIntegralRatio, ,ToT50, ,ToT99
80, ,PASS, ,0.008681750000000005, ,0.0009587195160688153, ,0.028304772243219523, ,8.432003036304301e-06, ,1.75, ,0.6368110058585461, ,0.3992571580171833, ,0.02604028489214506
81, ,PASS, ,0.00849492999999999, ,0.000979464378753686, ,0.028550063406665167, ,8.377321394260755e-06, ,1.75, ,0.6491484408034937, ,0.40364482357502907, ,0.041264463990530804
82, ,PASS, ,0.006835630000000013, ,0.0007555786799815854, ,0.028721124631129975, ,5.22342597854719e-06, ,1.75, ,0.6417383651552032, ,0.40415501724454606, ,0.03399930613660946
83, ,PASS, ,0.003008049999999981, ,0.0003299494694268046, ,0.028900649408991654, ,9.9861029550453e-07, ,1.8333333333333333, ,0.6378065947643531, ,0.40821615885390095, ,0.016142527703516256
84, ,PASS, ,0.016426459999999983, ,0.0019599437836695472, ,0.027512456172118935, ,3.3176217785794656e-05, ,1.75, ,0.6357929864344207, ,0.3744821534254403, ,0.02177506581498337
85, ,PASS, ,0.021222720000000004, ,0.0029909447269614825, ,0.026808082979939186, ,6.536789896215698e-05, ,1.8333333333333333, ,0.7081794081197225, ,0.37454337666578236, ,0.03706046815371115
86, ,PASS, ,0.02207609000000002, ,0.0035428936304668372, ,0.026835891400583664, ,7.995736858037559e-05, ,1.75, ,0.7709804204811416, ,0.3834411542621579, ,0.07454949898981654
87, ,PASS, ,0.021886540000000013, ,0.0036020847514881484, ,0.026643681003857066, ,8.079029575175001e-05, ,1.75, ,0.7835328838485961, ,0.3783596253137691, ,0.08667170057753923
88, ,PASS, ,0.021089659999999996, ,0.003231093197433087, ,0.026729322448725536, ,7.007884047384981e-05, ,1.9166666666666667, ,0.7461504749753217, ,0.3754617252709128, ,0.09528376971898532
89, ,PASS, ,0.018987019999999966, ,0.002080260675304403, ,0.02724921736229873, ,4.071163617695823e-05, ,1.75, ,0.5978416066936338, ,0.37574743372584235, ,0.01828534111548744
90, ,PASS, ,0.016126839999999983, ,0.002662899896835462, ,0.027367623979306546, ,4.39622063415334e-05, ,1.75, ,0.7742689319813835, ,0.3858900838758393, ,0.06963123201567314
91, ,PASS, ,0.03253034000000001, ,0.005312421619537125, ,0.02566719169037367, ,0.00017716008940792664, ,1.75, ,0.7833395843437627, ,0.3746862308932471, ,0.08924307667190466
92, ,PASS, ,0.04117964100000002, ,0.0066488774256313644, ,0.02456398537597192, ,0.00028070715868059584, ,1.9166666666666667, ,0.773266187928643, ,0.3746862308932471, ,0.08459011040591008
93, ,PASS, ,0.04116714700000001, ,0.006655271889413918, ,0.024437278904981534, ,0.0002808488773902744, ,1.9166666666666667, ,0.7753281143217325, ,0.37480867737393114, ,0.0933654415216016
94, ,PASS, ,0.03396255000000002, ,0.005537003214104483, ,0.025374279522254652, ,0.00019270485215309402, ,1.75, ,0.7789195750006526, ,0.37607395767433316, ,0.08671251607110059
95, ,PASS, ,0.016912499999999997, ,0.0027682037698409582, ,0.027330858408399824, ,4.788209759589082e-05, ,1.8333333333333333, ,0.7729078060038288, ,0.3904206036611498, ,0.07910042652190771
96, ,PASS, ,0.01712434999999999, ,0.002806477303349655, ,0.02739041749903063, ,4.920320533780923e-05, ,1.75, ,0.773205607781101, ,0.3861349768372074, ,0.06524356645782739
97, ,PASS, ,0.03282660999999999, ,0.005334967289796112, ,0.025600672183016673, ,0.0001794785017626887, ,1.75, ,0.7811816149477644, ,0.37719638374727044, ,0.09401848941858329
98, ,PASS, ,0.03980465400000001, ,0.006445283771906465, ,0.024573339750617335, ,0.0002629603708051047, ,1.75, ,0.7759876984800465, ,0.3748494928674925, ,0.08399828574927043
99, ,PASS, ,0.03962866200000001, ,0.006438915039827718, ,0.024618024930695297, ,0.000261487142664353, ,1.75, ,0.7760622866837464, ,0.37433929919797554, ,0.08761045692945042
100, ,PASS, ,0.03305990000000001, ,0.005378618044790494, ,0.025470642766270077, ,0.00018218997813683127, ,1.75, ,0.7769962788011359, ,0.3779514703781556, ,0.09134507459031449
101, ,PASS, ,0.017238199999999988, ,0.0028078565931230503, ,0.02734091146752107, ,4.952321209536481e-05, ,1.8333333333333333, ,0.7661128781979972, ,0.3876247423521969, ,0.07838615538458399
102, ,PASS, ,0.014823769999999983, ,0.002376951351885708, ,0.02756636743882778, ,3.598076115498526e-05, ,1.8333333333333333, ,0.7710736288626582, ,0.3949307156996796, ,0.05810085508459011
103, ,PASS, ,0.027094040000000003, ,0.004445269415943561, ,0.026274335112344643, ,0.00012322666151015613, ,1.8333333333333333, ,0.7804117670126287, ,0.38831860574273996, ,0.07748821452623415
104, ,PASS, ,0.033214200000000006, ,0.005374913523995967, ,0.025567521193649113, ,0.00018258310014037315, ,1.75, ,0.7791253691103925, ,0.38397175567845554, ,0.07734536029876941
105, ,PASS, ,0.03248339, ,0.005281989842470092, ,0.025722553681761597, ,0.00017550354603018548, ,1.8333333333333333, ,0.7787225748900731, ,0.38450235709475317, ,0.08171261810983449
106, ,PASS, ,0.025855129999999976, ,0.004211815535973142, ,0.026422640905695807, ,0.00011130374523383394, ,1.8333333333333333, ,0.7753270431280765, ,0.38980837125772944, ,0.066345584783984
107, ,PASS, ,0.014190939999999982, ,0.0023029031937809993, ,0.027645723425644374, ,3.329076200017896e-05, ,1.75, ,0.7741577311116112, ,0.3989918573090345, ,0.06269259811024265
108, ,PASS, ,0.012854110000000009, ,0.0019803120177380664, ,0.027906679980612643, ,2.594045153389322e-05, ,1.75, ,0.7517657514995718, ,0.39662455868247587, ,0.044509295728658596
109, ,PASS, ,0.024663409999999997, ,0.003916015888250755, ,0.02668465511479358, ,9.868361188050293e-05, ,1.8333333333333333, ,0.7722087851698877, ,0.38948184730923857, ,0.06759045733760535
110, ,PASS, ,0.029610519999999974, ,0.004695902721050376, ,0.02616865455745801, ,0.00014209280409530376, ,1.8333333333333333, ,0.7705003082476861, ,0.38727781065692535, ,0.07110058978388197
111, ,PASS, ,0.02866836999999998, ,0.0045066664927666715, ,0.026278929111242626, ,0.000132003520429517, ,1.8333333333333333, ,0.765812178384925, ,0.3888492071590376, ,0.059631436093140956
112, ,PASS, ,0.022058860000000013, ,0.003499697483902353, ,0.026918705761923224, ,7.87790562287473e-05, ,1.8333333333333333, ,0.7691940325810105, ,0.393889920613865, ,0.05995796004163181
113, ,PASS, ,0.011423470000000005, ,0.0017324200100077547, ,0.027946932416073142, ,2.013067870734579e-05, ,1.9166666666666667, ,0.760940555293298, ,0.4021346503132589, ,0.061264055835595195
114, ,PASS, ,0.01255862999999999, ,0.001952242615678127, ,0.027766641525274995, ,2.4987684136162255e-05, ,1.8333333333333333, ,0.7603995293786372, ,0.393889920613865, ,0.06230485092140977
115, ,PASS, ,0.023160460000000008, ,0.0036660294572840157, ,0.026617521885063573, ,8.674995359272335e-05, ,1.8333333333333333, ,0.7691843667849849, ,0.38735944164404806, ,0.06381502418317994
116, ,PASS, ,0.028145979999999994, ,0.004437006861793384, ,0.02642425204363176, ,0.00012754651887993178, ,1.8333333333333333, ,0.7693727310193197, ,0.3863798697985755, ,0.07336584967653721
117, ,PASS, ,0.026703639999999994, ,0.004116258425559336, ,0.0264826587718618, ,0.0001122432585989363, ,1.8333333333333333, ,0.7637202453430584, ,0.3896247015367033, ,0.06940674680108569
118, ,PASS, ,0.02015124999999997, ,0.0031816202025657654, ,0.026985058844513375, ,6.541149435866148e-05, ,1.8333333333333333, ,0.7754517289614379, ,0.3950123466868023, ,0.07346788841044061
119, ,PASS, ,0.010819229999999999, ,0.0016621590440279617, ,0.028141913939715515, ,1.831367602612297e-05, ,1.75, ,0.753955582139138, ,0.39746127630048367, ,0.0556111099773474
120, ,PASS, ,0.011873200000000004, ,0.001689667594088246, ,0.028070835287239037, ,2.0406174914851857e-05, ,1.75, ,0.7294422425987673, ,0.3975633150343871, ,0.05748862268116977
121, ,FAIL, ,0.0019865700000000035, ,4.409787500362803e-05, ,0.028911088384114603, ,1.0542269401172352e-07, ,0.6666666666666666, ,0.2948112130926979, ,0.23499520417950653, ,0.0024489296136813534
122, ,FAIL, ,0.001827299999999997, ,5.529172474075937e-05, ,0.029164208955939668, ,1.1109110108217437e-07, ,0.8333333333333334, ,0.29719497882559087, ,0.4889696128650436, ,0.004040733862574233
123, ,PASS, ,0.02357024000000001, ,0.003459666711905515, ,0.026870871103650946, ,8.315852913298666e-05, ,1.8333333333333333, ,0.7410767785966969, ,0.3917879226954552, ,0.06034570723046469
124, ,PASS, ,0.018342269999999987, ,0.0026688176761081412, ,0.027505608328809612, ,4.986487622691257e-05, ,1.75, ,0.7420119273045526, ,0.3954613171159772, ,0.056427419848574516
125, ,PASS, ,0.010057379999999994, ,0.0014014328226788387, ,0.028113570013265032, ,1.4323692303498195e-05, ,1.8333333333333333, ,0.7205073449302892, ,0.4021754658068203, ,0.046529662659945716
