Channel, ,Pass/Fail, ,Amplitude, ,Sorting Function Response, ,Mean, ,Variance, ,NPeaksRatio, ,PosIntegralRatio, ,ToT50, ,ToT99
0, ,PASS, ,0.07493573740000002, ,0.00709956467455429, ,0.029962089385522746, ,0.0005367951456022535, ,1.5, ,0.522038183272461, ,0.39523683190138975, ,0.01757106997816371
1, ,PASS, ,0.07462150043999997, ,0.007114263556070189, ,0.03013478138711455, ,0.0005359027886305336, ,1.5, ,0.5257932800207914, ,0.3922368931246301, ,0.016815983347278626
2, ,PASS, ,0.07482163806000003, ,0.007107653399175373, ,0.02998214975286219, ,0.0005367727140008536, ,1.5, ,0.5254796575187392, ,0.39395114385420704, ,0.01669353686659456
3, ,PASS, ,0.0746512214, ,0.007090389343593158, ,0.030279004471541398, ,0.0005343587642823466, ,1.5, ,0.5217117684600492, ,0.3954613171159772, ,0.016897614334401338
4, ,PASS, ,0.07480465902, ,0.007129445330010734, ,0.030064835936409462, ,0.0005380187648123781, ,1.5833333333333333, ,0.5243769595928801, ,0.3945837840044081, ,0.015754780514683375
5, ,PASS, ,0.07513139724000002, ,0.007125191545672555, ,0.030220981698332688, ,0.000540537151161565, ,1.5, ,0.5257436928612885, ,0.391420583253403, ,0.015938450235709476
6, ,PASS, ,0.08552596699999998, ,0.008089547571171626, ,0.029489871182628927, ,0.0006981025407141392, ,1.5833333333333333, ,0.5232376991708196, ,0.3930123875022959, ,0.01618334319707761
7, ,PASS, ,0.14336761, ,0.0137891747147539, ,0.0250258266633334, ,0.0019955291148253443, ,1.5, ,0.5276654481856091, ,0.3933389114507867, ,0.017346584763576253
8, ,PASS, ,0.05490212899999999, ,0.00649022985311203, ,0.03085804244056244, ,0.0003614108595657417, ,1.6666666666666667, ,0.5898178256448755, ,0.3938082896267423, ,0.04355013162996674
9, ,PASS, ,0.05321223400000001, ,0.006368127099127666, ,0.0308677016393543, ,0.0003438021221416084, ,1.75, ,0.5940690855859735, ,0.39415522132201386, ,0.04665210914062978
10, ,PASS, ,0.052893065, ,0.006377847179540109, ,0.030788484503989716, ,0.0003419461357332646, ,1.75, ,0.5983276415667305, ,0.392624640313463, ,0.05179486132936063
11, ,PASS, ,0.052578104, ,0.006354156691454451, ,0.03105009009101855, ,0.00033840816094198495, ,1.6666666666666667, ,0.5976839393134696, ,0.3972571988326769, ,0.051080590192036895
12, ,PASS, ,0.052692702999999994, ,0.006342294864764482, ,0.03082550432134038, ,0.00033891948758354773, ,1.6666666666666667, ,0.5965251310183535, ,0.39448174527050467, ,0.04877451480582029
13, ,PASS, ,0.052788328999999995, ,0.00631216329657419, ,0.030943747863921144, ,0.0003382895820186465, ,1.75, ,0.5956641968222719, ,0.39446133752372403, ,0.0496928634109508
14, ,PASS, ,0.05260088300000001, ,0.006336035766857189, ,0.0309948346309259, ,0.0003379983888830527, ,1.6666666666666667, ,0.5969648258105997, ,0.39448174527050467, ,0.04955000918348605
15, ,PASS, ,0.052529503, ,0.006328974345577899, ,0.030883825007652906, ,0.0003370932260708882, ,1.6666666666666667, ,0.5967229623898742, ,0.3930940184894186, ,0.05038672680149385
16, ,PASS, ,0.05255273900000001, ,0.006323341942956332, ,0.031000080731821804, ,0.0003365792255121844, ,1.6666666666666667, ,0.5960396167137453, ,0.3954205016224159, ,0.04759086549254097
17, ,PASS, ,0.052460391999999995, ,0.0063021437144732285, ,0.03091465464133385, ,0.00033557955265423484, ,1.75, ,0.5964777242328337, ,0.39407359033489114, ,0.052468316973123
18, ,PASS, ,0.05258766699999999, ,0.006279171082490986, ,0.03095885176771903, ,0.00033481959561199823, ,1.75, ,0.5969424114673644, ,0.3938491051203037, ,0.049019407767188425
19, ,PASS, ,0.052409243, ,0.006296169187087989, ,0.030872698635946206, ,0.000334958069511163, ,1.75, ,0.5964230141336508, ,0.3912981367727189, ,0.04842758311054876
20, ,PASS, ,0.05262598899999999, ,0.0063334020860665715, ,0.030978020386726802, ,0.000337858997905902, ,1.6666666666666667, ,0.5960867652207096, ,0.39497153119324097, ,0.0486724760719169
21, ,PASS, ,0.05269765500000001, ,0.006315430476022756, ,0.030903192709128384, ,0.0003375693892326083, ,1.75, ,0.5961093741004493, ,0.39413481357523317, ,0.04887655353972368
22, ,PASS, ,0.052724494000000004, ,0.006303573007221313, ,0.03091797547805147, ,0.00033712589433827636, ,1.6666666666666667, ,0.5947017690554497, ,0.39401236709454907, ,0.04628476969857758
23, ,PASS, ,0.05249799800000001, ,0.006304107536343498, ,0.030739413284626847, ,0.00033555381398727476, ,1.6666666666666667, ,0.5953628229087378, ,0.3929919797555152, ,0.04879492255260097
24, ,PASS, ,0.05267716800000001, ,0.006305404734297947, ,0.030869777676782107, ,0.00033672443188649764, ,1.6666666666666667, ,0.5967726351509706, ,0.3947062304850921, ,0.047733719720005716
25, ,PASS, ,0.052500914999999995, ,0.006312259169837727, ,0.030633089597763313, ,0.0003360453309410993, ,1.6666666666666667, ,0.596771554741147, ,0.3934205424379094, ,0.048529621844452156
26, ,PASS, ,0.052255251, ,0.0063113188555102675, ,0.03078434466398645, ,0.0003344077596791181, ,1.75, ,0.5982754734509862, ,0.39395114385420704, ,0.053998897981673843
27, ,PASS, ,0.052239907, ,0.006320520027059259, ,0.030848514078080043, ,0.00033439354890230885, ,1.6666666666666667, ,0.5973647081992975, ,0.39564498683700333, ,0.04846839860411012
28, ,PASS, ,0.052258901, ,0.006385358206655337, ,0.03097003485928859, ,0.0003370164778924877, ,1.6666666666666667, ,0.5993541070431978, ,0.4017060876308647, ,0.04420317952694843
29, ,PASS, ,0.05219671, ,0.006313905004242174, ,0.030850228875941306, ,0.00033356988236204116, ,1.6666666666666667, ,0.5986959531668132, ,0.3940939980816718, ,0.04897859227362707
30, ,PASS, ,0.052092689, ,0.006265143879167208, ,0.030950400385910494, ,0.00033118659754872987, ,1.6666666666666667, ,0.5971446736568435, ,0.39272667904736636, ,0.04844799085732944
31, ,PASS, ,0.051907029, ,0.0062511051548516374, ,0.0306823248872472, ,0.00032929033937107366, ,1.75, ,0.5971668302808637, ,0.3934001346911288, ,0.05263157894736842
32, ,PASS, ,0.05202021, ,0.006273677997452757, ,0.03101071354441746, ,0.000330481942696354, ,1.6666666666666667, ,0.5963806397192596, ,0.3925021938327789, ,0.04350931613640538
33, ,PASS, ,0.052058497999999995, ,0.006267191179845905, ,0.030961360766310893, ,0.0003306052065825397, ,1.6666666666666667, ,0.5974276519996147, ,0.3941756290687945, ,0.050060202853003
34, ,PASS, ,0.05193472999999999, ,0.0062710284445474124, ,0.03105395700373462, ,0.0003301195760970847, ,1.6666666666666667, ,0.5971922276659702, ,0.39321646497010265, ,0.05046835778861656
35, ,PASS, ,0.05185392199999998, ,0.006241805570648215, ,0.030811767395971513, ,0.000327921919509011, ,1.6666666666666667, ,0.598193759050577, ,0.3916042529744291, ,0.04557049856125385
36, ,PASS, ,0.05199225799999998, ,0.006260031393489317, ,0.03080309119303688, ,0.00032997308872566945, ,1.6666666666666667, ,0.596083236406682, ,0.39397155160098773, ,0.04961123242382808
37, ,PASS, ,0.05171485199999999, ,0.0062732331248468946, ,0.03068600758229424, ,0.00032853267714572977, ,1.6666666666666667, ,0.6004301487636051, ,0.39407359033489114, ,0.05183567682292198
38, ,PASS, ,0.052966496, ,0.006330467166264016, ,0.030974083369318995, ,0.0003396977525362953, ,1.6666666666666667, ,0.5945649058677525, ,0.3972163833391155, ,0.045672537295157245
39, ,PASS, ,0.05173337899999998, ,0.006211845329204993, ,0.030990709868370037, ,0.000325839435891217, ,1.75, ,0.5957573586610014, ,0.39282871778126977, ,0.044060325299483685
40, ,PASS, ,0.05180940599999999, ,0.006231661843056604, ,0.030465607635354382, ,0.00032762337503275206, ,1.6666666666666667, ,0.596789610100268, ,0.3920940388971654, ,0.04714189506336605
41, ,PASS, ,0.05176372799999999, ,0.0062242321416884575, ,0.03060094844472562, ,0.0003267406219605198, ,1.6666666666666667, ,0.5966981086575106, ,0.3922573008714108, ,0.04957041693026673
42, ,PASS, ,0.051682741999999976, ,0.006249727039457109, ,0.030677584208893695, ,0.0003273207506923623, ,1.75, ,0.5982721778706153, ,0.3927062713005857, ,0.04685618660843656
43, ,PASS, ,0.051718716, ,0.006229157979463448, ,0.030581953223199527, ,0.00032629375784492084, ,1.6666666666666667, ,0.5962303137919441, ,0.39286953327483115, ,0.05052958102895859
44, ,PASS, ,0.051734907000000004, ,0.006238062003235872, ,0.030651150721413847, ,0.00032679208049254363, ,1.6666666666666667, ,0.5983158420152405, ,0.39311442623619924, ,0.050692843003204015
45, ,PASS, ,0.05157277599999999, ,0.006225384193741963, ,0.030753899915716008, ,0.00032538282454448074, ,1.6666666666666667, ,0.5976884905849661, ,0.3942368523091365, ,0.0519989387971674
46, ,PASS, ,0.05285955399999998, ,0.006266312520432803, ,0.030575197892287916, ,0.0003357100855147324, ,1.6666666666666667, ,0.591120724426012, ,0.3923389318585335, ,0.04022366890471623
47, ,PASS, ,0.052252682999999994, ,0.006160691270624752, ,0.030697821410787536, ,0.00032689005787633527, ,1.75, ,0.5895921182857585, ,0.39444092977694334, ,0.034652354033591154
48, ,PASS, ,0.05165537499999998, ,0.006213912113860617, ,0.03052044743576662, ,0.0003251476943716376, ,1.6666666666666667, ,0.5969831178550733, ,0.39460419175118877, ,0.050264280320809776
49, ,PASS, ,0.05161367799999999, ,0.006213605693689157, ,0.03063867787004347, ,0.00032491254981967667, ,1.6666666666666667, ,0.598564626588702, ,0.392563417073121, ,0.049039815513969104
50, ,PASS, ,0.05152468499999998, ,0.006174361757406855, ,0.030721144675006633, ,0.00032290424912591943, ,1.6666666666666667, ,0.595602045292242, ,0.3917879226954552, ,0.04750923450541826
51, ,PASS, ,0.051604021999999986, ,0.006193722828509463, ,0.03071025528376972, ,0.0003242084698821942, ,1.75, ,0.5952664828796776, ,0.39240015509887555, ,0.046550070406726395
52, ,PASS, ,0.05142092399999999, ,0.006165557082910971, ,0.030672954467663927, ,0.0003217845696726994, ,1.75, ,0.5957209124860949, ,0.3934205424379094, ,0.05059080426930063
53, ,PASS, ,0.05150959199999999, ,0.00616027429071223, ,0.030668579322666888, ,0.0003223599227081071, ,1.75, ,0.5942989677784353, ,0.39235933960531416, ,0.046121507724332156
54, ,PASS, ,0.051569462999999996, ,0.00619125409949467, ,0.030696793304014206, ,0.00032379727859653643, ,1.6666666666666667, ,0.5949946516450646, ,0.39517560866104773, ,0.04836635987020673
55, ,PASS, ,0.05181153199999998, ,0.0062107798904895975, ,0.030742921795269485, ,0.00032652569597053097, ,1.6666666666666667, ,0.5946214558878993, ,0.3929103487683925, ,0.045733760535499275
56, ,PASS, ,0.05197680600000001, ,0.0061865177945302965, ,0.03051574296687823, ,0.0003261472624230265, ,1.6666666666666667, ,0.5906569965110263, ,0.39560417134344195, ,0.04303993796044979
57, ,PASS, ,0.05193110699999999, ,0.006204736628639714, ,0.030634546663945637, ,0.0003266388446652935, ,1.6666666666666667, ,0.5938506986793377, ,0.3937266586396196, ,0.04795820493459317
58, ,PASS, ,0.051713185, ,0.006199846930823786, ,0.030542249190424687, ,0.0003249664595646148, ,1.6666666666666667, ,0.5942290383303414, ,0.3940939980816718, ,0.04681537111487521
59, ,PASS, ,0.051552958, ,0.00617691413546847, ,0.030608388596151097, ,0.0003229822178372783, ,1.6666666666666667, ,0.5956869597853592, ,0.3921756698842881, ,0.050284688067590455
60, ,PASS, ,0.05168429, ,0.00618431001072072, ,0.030627901519764904, ,0.000324284177252523, ,1.75, ,0.5977878488718782, ,0.3922164853778494, ,0.04850921409767148
61, ,PASS, ,0.051588314999999996, ,0.006267371920535277, ,0.03061673991040999, ,0.0003270155973268333, ,1.6666666666666667, ,0.597767248633746, ,0.3954817248627579, ,0.04618273096467419
62, ,PASS, ,0.05170784900000001, ,0.006157056891344742, ,0.03073005974633171, ,0.0003231685864837265, ,1.6666666666666667, ,0.5940247407183543, ,0.39229811636497214, ,0.04593783800330605
63, ,PASS, ,0.05167938699999999, ,0.006204537716701587, ,0.030664814898879615, ,0.0003249973075235145, ,1.75, ,0.5960007517745122, ,0.3929511642619538, ,0.048182690149180626
64, ,PASS, ,0.05172405099999999, ,0.006165934271524328, ,0.03076767298993898, ,0.0003237512530065497, ,1.6666666666666667, ,0.5926039401087746, ,0.39362461990571623, ,0.04520315911920165
65, ,PASS, ,0.052094472, ,0.006219548595089006, ,0.030764085177037204, ,0.0003285150281460668, ,1.75, ,0.5940003476185939, ,0.39497153119324097, ,0.04559090630803453
66, ,PASS, ,0.051805743999999994, ,0.006192247034386083, ,0.030780991598538806, ,0.00032557902449997577, ,1.75, ,0.5941460851380717, ,0.3933389114507867, ,0.04803983592171588
67, ,PASS, ,0.052168733999999994, ,0.006192919878042383, ,0.030596578572274036, ,0.00032784731870048585, ,1.6666666666666667, ,0.5924071417294157, ,0.39407359033489114, ,0.04355013162996674
68, ,PASS, ,0.052382441, ,0.006213846527620045, ,0.030627732512193633, ,0.0003302394682006128, ,1.6666666666666667, ,0.5906275835622307, ,0.39442052203016265, ,0.044468480235097245
69, ,PASS, ,0.052824834, ,0.006219366863096141, ,0.030659370951409155, ,0.00033319551922780387, ,1.6666666666666667, ,0.5897588210332377, ,0.39450215301728536, ,0.03983592171588335
70, ,PASS, ,0.05308655400000001, ,0.0062480976947004415, ,0.03061387522968919, ,0.000336257705601659, ,1.6666666666666667, ,0.5886781946482275, ,0.3934409501846901, ,0.04257055978449419
71, ,PASS, ,0.05304268399999999, ,0.006263428321342405, ,0.030615970485500296, ,0.00033691415597553474, ,1.75, ,0.5886949244186749, ,0.39360421215893554, ,0.04303993796044979
72, ,PASS, ,0.053454197000000016, ,0.006260165477033982, ,0.030559876319054713, ,0.00033939139030610593, ,1.6666666666666667, ,0.587088965533159, ,0.3912165057855962, ,0.04267259851839758
73, ,PASS, ,0.053099666, ,0.006229647706693871, ,0.030521859826942308, ,0.00033600828579557357, ,1.6666666666666667, ,0.5880825381011602, ,0.3912981367727189, ,0.041203240750188774
74, ,PASS, ,0.052859383, ,0.006199663624760037, ,0.030720827271484254, ,0.000332878109023735, ,1.6666666666666667, ,0.5879144534506024, ,0.3925430093263403, ,0.04259096753127487
75, ,PASS, ,0.052883273999999994, ,0.0062281523949155445, ,0.030472299027366787, ,0.0003339689504156003, ,1.6666666666666667, ,0.5896615589143398, ,0.39152262198730636, ,0.041223648496969446
76, ,PASS, ,0.05359544199999999, ,0.0062714576026288976, ,0.030679798728597375, ,0.00034092152013714695, ,1.6666666666666667, ,0.5856560742287017, ,0.3930123875022959, ,0.041162425256627416
77, ,PASS, ,0.07385753404, ,0.007565212401137679, ,0.029481674061141612, ,0.0005652764874534116, ,1.5, ,0.5443455980387638, ,0.39248178608599826, ,0.019754698883696253
78, ,PASS, ,0.11127321000000001, ,0.01060185131333436, ,0.0272023246599049, ,0.0011921934837919727, ,1.5, ,0.5243134634683795, ,0.39282871778126977, ,0.01657109038591049
79, ,PASS, ,0.05315524099999999, ,0.006197265833332044, ,0.030426672775045408, ,0.0003342044947914309, ,1.6666666666666667, ,0.5854855412964004, ,0.39478786147221484, ,0.03873390338972674
80, ,PASS, ,0.05184015900000002, ,0.0061355050389486, ,0.030521914994591948, ,0.0003227952109905962, ,1.6666666666666667, ,0.5915336270871026, ,0.3905838656353952, ,0.04793779718781249
81, ,PASS, ,0.051962309, ,0.006106533191186679, ,0.030578741829962654, ,0.0003221422004229192, ,1.6666666666666667, ,0.5860497987192624, ,0.3909512050774474, ,0.04391747107201894
82, ,PASS, ,0.051693911999999995, ,0.006079712407351547, ,0.030510848436358443, ,0.0003189414433295555, ,1.5833333333333333, ,0.5863083140425632, ,0.39115528254525417, ,0.04379502459133487
83, ,PASS, ,0.05161720599999999, ,0.006137770095809189, ,0.030775530644068492, ,0.0003211232798079563, ,1.6666666666666667, ,0.5911560651372637, ,0.3942776678026979, ,0.0419175118875125
84, ,PASS, ,0.051588059, ,0.006136020746214461, ,0.030817481086100284, ,0.00032080740077032946, ,1.6666666666666667, ,0.59229980827553, ,0.39415522132201386, ,0.043652170363870126
85, ,PASS, ,0.05169767799999998, ,0.006133033280298031, ,0.03065281122242403, ,0.00032101590314322716, ,1.6666666666666667, ,0.5892474219136029, ,0.39866533336054366, ,0.04138691047121487
86, ,PASS, ,0.051647167, ,0.006104153329633133, ,0.03078233475010714, ,0.0003199433431662634, ,1.6666666666666667, ,0.5895147655996006, ,0.3933389114507867, ,0.04175424991326707
87, ,PASS, ,0.051837801999999995, ,0.006124232505601908, ,0.030509940171629155, ,0.00032206502897082353, ,1.6666666666666667, ,0.5906191396447723, ,0.39219607763106873, ,0.04169302667292504
88, ,PASS, ,0.051853647, ,0.006114947283365554, ,0.03086074461092631, ,0.00032148590118861385, ,1.6666666666666667, ,0.5896047806064649, ,0.39356339666537415, ,0.04514193587885962
89, ,PASS, ,0.05218443599999999, ,0.006167197646379811, ,0.030571016632517704, ,0.0003263976537092599, ,1.6666666666666667, ,0.5903155781379144, ,0.3929511642619538, ,0.0458970225097447
90, ,PASS, ,0.05232253, ,0.00611974200728818, ,0.030715159497765352, ,0.00032489755360258276, ,1.6666666666666667, ,0.5870254626405418, ,0.3916858839615518, ,0.04181547315360911
91, ,PASS, ,0.052280276999999986, ,0.006160501578300445, ,0.030690409055121326, ,0.00032659043967644654, ,1.6666666666666667, ,0.5907432182209024, ,0.39240015509887555, ,0.046529662659945716
92, ,PASS, ,0.05188615399999998, ,0.006128768391918228, ,0.03073189613783392, ,0.0003220659940530713, ,1.6666666666666667, ,0.5892086106027677, ,0.39433889104303993, ,0.04383584008489623
93, ,PASS, ,0.05203683199999999, ,0.006152990679821774, ,0.030540098357992696, ,0.0003243190005820379, ,1.6666666666666667, ,0.5897847032101441, ,0.39405318258811045, ,0.04234607456990674
94, ,PASS, ,0.052237818000000005, ,0.006158844029089849, ,0.0305709024083182, ,0.0003256783886225688, ,1.6666666666666667, ,0.5885912833014673, ,0.39446133752372403, ,0.040039999183690125
95, ,PASS, ,0.052164531999999986, ,0.006133616009576178, ,0.03079638533540132, ,0.00032434374840416524, ,1.6666666666666667, ,0.5893591880281999, ,0.39574702557090674, ,0.04548886757413114
96, ,PASS, ,0.051779572, ,0.006043030273166706, ,0.030658533770535294, ,0.00031726896451294076, ,1.6666666666666667, ,0.5840101492374126, ,0.3938491051203037, ,0.04026448439827759
