Channel, ,Pass/Fail, ,Amplitude, ,Sorting Function Response, ,Mean, ,Variance, ,NPeaksRatio, ,PosIntegralRatio, ,ToT50, ,ToT99
0, ,PASS, ,0.10452265999999999, ,0.014597185793617308, ,0.029920052521336303, ,0.0015359725737187479, ,1.75, ,0.7026712807672383, ,0.5007448827574947, ,0.136303340748148
1, ,PASS, ,0.10364676000000003, ,0.014521831269345038, ,0.02987014160021224, ,0.00151501059932668, ,1.75, ,0.7043363052313759, ,0.500479582049346, ,0.138711454868268
2, ,PASS, ,0.10416718000000003, ,0.014585761145747608, ,0.029844423442011388, ,0.001529731686839156, ,1.75, ,0.703566169907017, ,0.4997040876716802, ,0.135099283688088
3, ,PASS, ,0.10372486, ,0.01452439798477633, ,0.02997285153427481, ,0.0015166690739343183, ,1.75, ,0.7037533205530271, ,0.5007448827574947, ,0.1358339625721924
4, ,PASS, ,0.10421490000000003, ,0.014540830119828936, ,0.029786959113405852, ,0.001525741841477496, ,1.75, ,0.7016392756765875, ,0.5005408052896879, ,0.13169118997571477
5, ,PASS, ,0.10323102, ,0.014506246120247117, ,0.029983456594253177, ,0.0015071496131365703, ,1.75, ,0.7057173263385095, ,0.5001734658476358, ,0.14467051692822597
6, ,PASS, ,0.10296268000000003, ,0.014427574455798203, ,0.029986689652435665, ,0.0014951671992391702, ,1.75, ,0.7038764663438394, ,0.4996836799248995, ,0.13569110834472767
7, ,PASS, ,0.10284777000000002, ,0.014386790258836898, ,0.030045160025734166, ,0.0014898714066703496, ,1.75, ,0.7031324266232573, ,0.500030611620171, ,0.13214016040488968
8, ,PASS, ,0.10242860000000002, ,0.0143439105328409, ,0.02987719917985347, ,0.0014793898272123772, ,1.75, ,0.7025600802166831, ,0.4994796024570927, ,0.13634415624170934
9, ,PASS, ,0.10150593999999998, ,0.014313357860523663, ,0.029730063799391845, ,0.0014624609936924394, ,1.75, ,0.7071158006896561, ,0.49919389400216324, ,0.14001755066223137
10, ,PASS, ,0.10084759999999998, ,0.01425314456028526, ,0.02970815944964388, ,0.0014472763327804188, ,1.75, ,0.7074743353874774, ,0.49835717638415544, ,0.14034407461072224
11, ,PASS, ,0.10025316999999997, ,0.0141930443136675, ,0.029637608540886918, ,0.001432082252241777, ,1.75, ,0.7081599113468487, ,0.4982959531438134, ,0.1405685598253097
12, ,PASS, ,0.10006253999999999, ,0.01418826770347758, ,0.02978205457917185, ,0.0014294152550978034, ,1.75, ,0.7082283457649339, ,0.4977653517275158, ,0.13393604212158935
13, ,PASS, ,0.10033910999999997, ,0.014211310546118384, ,0.02963781512334442, ,0.0014359836933149415, ,1.75, ,0.7081247695207706, ,0.49750005101936695, ,0.13099732658517174
14, ,PASS, ,0.09976470999999995, ,0.014126612323692785, ,0.02957143774855615, ,0.001418932195637881, ,1.75, ,0.7080590435616652, ,0.49739801228546354, ,0.13216056815167038
15, ,PASS, ,0.09952742999999997, ,0.01413229487065425, ,0.029550001314299707, ,0.001415938619079454, ,1.75, ,0.7092598593943236, ,0.49698985734985, ,0.1392624640313463
16, ,PASS, ,0.10389685999999998, ,0.014760660794272644, ,0.029670035076406604, ,0.0015442998086157142, ,1.75, ,0.7098731232302016, ,0.4972551580579988, ,0.1293647068427175
17, ,PASS, ,0.19980000000000006, ,0.031591570420309995, ,0.032625151476296445, ,0.0063590843431683905, ,1.75, ,0.7480811197895786, ,0.5017244546029673, ,0.22607701883635029
18, ,PASS, ,0.09402515999999997, ,0.014685403866461826, ,0.027856976150282646, ,0.0013917412958038685, ,1.75, ,0.7527200032756882, ,0.47999020428154526, ,0.09236546192934839
19, ,PASS, ,0.08200891000000002, ,0.012838142375918614, ,0.027558181376910674, ,0.0010620127386092915, ,1.75, ,0.7533338416578902, ,0.4740107344748066, ,0.07997795963347687
20, ,PASS, ,0.08089632999999999, ,0.01270821350611496, ,0.027325589255096837, ,0.0010368783897804173, ,1.75, ,0.7557465795710934, ,0.4743780739168588, ,0.0835493153200955
21, ,PASS, ,0.08101332000000001, ,0.012694910758242563, ,0.027574337230913654, ,0.0010373881157578059, ,1.75, ,0.7540447986603038, ,0.4735209485520704, ,0.0803248913287484
22, ,PASS, ,0.08155679999999998, ,0.01278613209335996, ,0.027337494636068653, ,0.0010513009962197992, ,1.75, ,0.7544843063869606, ,0.47448011265076223, ,0.07963102793820534
23, ,PASS, ,0.08108864, ,0.012709057826114168, ,0.027420167762066083, ,0.0010393429569724184, ,1.75, ,0.7537427826562343, ,0.47378624926021917, ,0.07856982510561009
24, ,PASS, ,0.08113904, ,0.012720322267331104, ,0.0276028775584784, ,0.0010410457186905777, ,1.75, ,0.7540516522517273, ,0.47374543376665784, ,0.07848819411848738
25, ,PASS, ,0.08141309000000001, ,0.012764324253952295, ,0.02743886030307545, ,0.0010480981442892716, ,1.75, ,0.7546726074466943, ,0.4743168506765168, ,0.08018203710128365
26, ,PASS, ,0.08133017999999999, ,0.012776663326210627, ,0.027504254847452093, ,0.0010478325824595863, ,1.75, ,0.75531575179904, ,0.47462296687822697, ,0.08530438154323382
27, ,PASS, ,0.08134681999999997, ,0.01277397615068557, ,0.0274987963709108, ,0.001048049798806319, ,1.75, ,0.7555881745466109, ,0.4750515295606212, ,0.0834676843329728
28, ,PASS, ,0.08145620000000002, ,0.012759503786488335, ,0.027491595598069428, ,0.0010482116649634516, ,1.75, ,0.7550564688636997, ,0.4755004999897961, ,0.07822289341033857
29, ,PASS, ,0.081452372, ,0.012730417906782816, ,0.02735675056184568, ,0.0010455319068332536, ,1.75, ,0.7516502807320271, ,0.4747658211056917, ,0.07138629823881146
30, ,PASS, ,0.08090317, ,0.012718689660345513, ,0.02748726873422991, ,0.0010376244429998222, ,1.75, ,0.7556279099897903, ,0.47545968449623477, ,0.0820799575518867
31, ,PASS, ,0.08066984999999999, ,0.012689282373674757, ,0.027529945248178606, ,0.0010323451625703242, ,1.75, ,0.7558581310741284, ,0.474684190118569, ,0.08381461602824432
32, ,PASS, ,0.08043717, ,0.012603555035469177, ,0.027402459402991776, ,0.0010225285902179982, ,1.75, ,0.7541691137587031, ,0.4740311422215873, ,0.08132487092100162
33, ,PASS, ,0.08030128200000002, ,0.012574811760038059, ,0.02751775351311198, ,0.0010185575081500405, ,1.75, ,0.7536891506121453, ,0.47380665700699987, ,0.07759025326013755
34, ,PASS, ,0.079855713, ,0.01250752492980264, ,0.027363005277218834, ,0.0010075603572833533, ,1.75, ,0.7534017230166473, ,0.47333727883104426, ,0.08052896879655518
35, ,PASS, ,0.07944997300000001, ,0.012414178794987234, ,0.0274102048258607, ,0.0009949705479023899, ,1.75, ,0.7526810524423354, ,0.47315360911001814, ,0.07456990673659722
36, ,PASS, ,0.07909501099999998, ,0.012400843213291353, ,0.027523349677965755, ,0.0009892239131154483, ,1.75, ,0.7544286763791348, ,0.47445970490398154, ,0.0829166751698945
37, ,PASS, ,0.079404274, ,0.012410620768036581, ,0.027519372408338603, ,0.0009937850540893082, ,1.75, ,0.7532942771643, ,0.474684190118569, ,0.07887594130732026
38, ,PASS, ,0.07893002499999997, ,0.012375617529731408, ,0.027648822930736106, ,0.000985026896426542, ,1.75, ,0.7539975875592898, ,0.4744392971572009, ,0.08063100753045856
39, ,PASS, ,0.07862481299999997, ,0.012297259791730599, ,0.027579124794351137, ,0.000975172452082679, ,1.75, ,0.7537275000305825, ,0.4738882879941226, ,0.07728413705842738
40, ,PASS, ,0.078726611, ,0.012374136815841355, ,0.027385246810554886, ,0.0009825838389693974, ,1.75, ,0.7553376200577809, ,0.4743984816636395, ,0.0827125977020877
41, ,PASS, ,0.07862391499999999, ,0.012328481769168644, ,0.027354351814044612, ,0.0009775206075167597, ,1.75, ,0.7542855521747511, ,0.47374543376665784, ,0.08065141527723924
42, ,PASS, ,0.07861639799999998, ,0.012311390046903138, ,0.02729852638350238, ,0.0009761045908556535, ,1.75, ,0.7538744486293136, ,0.47419440419583275, ,0.0781004469296545
43, ,PASS, ,0.07845167000000002, ,0.012289993276695173, ,0.027151518300973454, ,0.000972380410420329, ,1.75, ,0.754309826505484, ,0.47370461827309646, ,0.07714128283096264
44, ,PASS, ,0.078212907, ,0.01225035397600654, ,0.027319860861390585, ,0.0009666107712910401, ,1.75, ,0.7542284101721479, ,0.47329646333748293, ,0.0812432399338789
45, ,PASS, ,0.07838841299999999, ,0.012273865646434071, ,0.027098967601681602, ,0.0009704091812723601, ,1.75, ,0.7539235787684229, ,0.473480133058509, ,0.07808003918287382
46, ,PASS, ,0.07861447999999999, ,0.012272436222938748, ,0.02741369678945328, ,0.0009731536485696688, ,1.75, ,0.7525490072723313, ,0.47372502601987715, ,0.07728413705842738
47, ,PASS, ,0.07817683899999998, ,0.0122902688637918, ,0.02711672616620069, ,0.0009691698051894684, ,1.75, ,0.7551514141723294, ,0.4739699189812453, ,0.08248811248750025
48, ,PASS, ,0.07842735899999999, ,0.01226203160934998, ,0.027337797972286283, ,0.0009700636882950586, ,1.75, ,0.7531625526969586, ,0.4733985020713863, ,0.07626374971939348
49, ,PASS, ,0.07877518200000003, ,0.012334851535439454, ,0.027435088953674417, ,0.000979888353746733, ,1.75, ,0.7538230663280486, ,0.4738474725005612, ,0.08220240403257076
50, ,PASS, ,0.079367699, ,0.012478896813054056, ,0.027507992670925085, ,0.000998773051731505, ,1.75, ,0.7552748521168656, ,0.47511275280096327, ,0.08091671598538805
51, ,PASS, ,0.07978278600000001, ,0.012558480227275562, ,0.02756050437815555, ,0.0010103545561094987, ,1.75, ,0.7546313029720333, ,0.475194383788086, ,0.08350849982653415
52, ,PASS, ,0.079212692, ,0.012400348731612136, ,0.027394666309401853, ,0.000990470693294169, ,1.75, ,0.7544465965847629, ,0.47535764576233136, ,0.07797800044897044
53, ,PASS, ,0.07908318, ,0.01243881944067662, ,0.027288431429705516, ,0.0009919642435813729, ,1.75, ,0.7571670260746869, ,0.47531683026877003, ,0.08238607375359687
54, ,PASS, ,0.07910321399999999, ,0.012445544536992531, ,0.02756318506520275, ,0.000992947846447711, ,1.75, ,0.7560664378335854, ,0.47462296687822697, ,0.08095753147894941
55, ,PASS, ,0.079156794, ,0.012463579013459413, ,0.027363289469316952, ,0.0009949765716820932, ,1.75, ,0.7566989494315897, ,0.47535764576233136, ,0.08305952939735924
56, ,PASS, ,0.07904182499999997, ,0.012484187913438546, ,0.0275055757863513, ,0.0009948508113208508, ,1.75, ,0.7576152315098272, ,0.47458215138466564, ,0.08236566600681619
57, ,PASS, ,0.07963714499999998, ,0.012596253164117385, ,0.027657711366012937, ,0.0010114555577674773, ,1.75, ,0.7579828280532133, ,0.47492908307993714, ,0.08377380053468296
58, ,PASS, ,0.08020206999999999, ,0.012707555273834964, ,0.02747786444172568, ,0.0010276180364194641, ,1.75, ,0.7597013730698328, ,0.47650047958204933, ,0.08834513581355483
59, ,PASS, ,0.08062518, ,0.01277180819263659, ,0.027525559108201876, ,0.001038270243654715, ,1.75, ,0.7590069998763758, ,0.4764188485949266, ,0.0840186934960511
60, ,PASS, ,0.07947916599999998, ,0.012553606531229477, ,0.027443531486581907, ,0.001006005796441763, ,1.75, ,0.7571936829375796, ,0.47501071406705986, ,0.08073304626436195
61, ,PASS, ,0.07932116600000003, ,0.012507670324515972, ,0.02764830402781576, ,0.0010006266093280194, ,1.75, ,0.7569750675746245, ,0.4746025591314463, ,0.08159017162915043
62, ,PASS, ,0.07893850399999999, ,0.012466763172066738, ,0.027488788780392237, ,0.0009925348639175545, ,1.75, ,0.7590630160961683, ,0.475194383788086, ,0.081426909654905
63, ,PASS, ,0.07901624299999996, ,0.012445561560982166, ,0.027406562424868882, ,0.000991867200004228, ,1.75, ,0.7568611096200301, ,0.4743984816636395, ,0.08293708291667518
64, ,PASS, ,0.078774115, ,0.012419202091688527, ,0.027312413049060225, ,0.0009865888521529073, ,1.75, ,0.7577727746499011, ,0.4743984816636395, ,0.08389624701536703
65, ,PASS, ,0.078655612, ,0.012419481641117678, ,0.027355852454194814, ,0.0009852365818083038, ,1.75, ,0.7580999867310206, ,0.47456174363788495, ,0.08250852023428093
66, ,PASS, ,0.078877403, ,0.01239644874133936, ,0.027625108957613113, ,0.0009861667123147958, ,1.75, ,0.7563772221071385, ,0.4743780739168588, ,0.0786514560927328
67, ,PASS, ,0.07868939000000001, ,0.012400750715970741, ,0.027411540159241653, ,0.0009840027044398065, ,1.75, ,0.7567067696034222, ,0.4742148119426134, ,0.08177384135017653
68, ,PASS, ,0.07852737399999996, ,0.012396716676163018, ,0.02740801520740393, ,0.0009818012978633642, ,1.75, ,0.7568391904362699, ,0.4742352196893941, ,0.077814738474725
69, ,PASS, ,0.07855565700000003, ,0.012353771476833609, ,0.027365199876778025, ,0.0009787206577200373, ,1.75, ,0.7555829398826699, ,0.4739291034876839, ,0.07618211873227076
70, ,PASS, ,0.078234281, ,0.012332743010723323, ,0.02728436740939981, ,0.0009730650712871004, ,1.75, ,0.7572066775080466, ,0.47368421052631576, ,0.07946776596395992
71, ,PASS, ,0.07842583, ,0.012365458014108502, ,0.027432015946062326, ,0.0009780390014013098, ,1.75, ,0.7573471961339264, ,0.4736638027795351, ,0.0817942490969572
72, ,PASS, ,0.07897956100000002, ,0.012473192011506904, ,0.02728882760657946, ,0.0009936260104321827, ,1.75, ,0.7581335537248337, ,0.4748066365992531, ,0.08277382094242974
73, ,PASS, ,0.07921389499999999, ,0.012510336265594784, ,0.027251443054325423, ,0.0009993376665456788, ,1.75, ,0.7580426255094121, ,0.4745005203975429, ,0.081426909654905
74, ,PASS, ,0.079528219, ,0.012537874803627455, ,0.027443945124099506, ,0.0010056748309005949, ,1.75, ,0.7570120593118776, ,0.4743984816636395, ,0.0782841166506806
75, ,PASS, ,0.079643222, ,0.012572663931583343, ,0.027329850314299707, ,0.0010099018631030009, ,1.75, ,0.7579772695280043, ,0.47462296687822697, ,0.0819779188179833
76, ,PASS, ,0.07949476, ,0.012537322718391463, ,0.027412024013081366, ,0.0010052241382603954, ,1.75, ,0.7573872266396617, ,0.4738678802473419, ,0.07701883635027856
77, ,PASS, ,0.08004856699999996, ,0.012616932963962818, ,0.02721948828158609, ,0.0010186007105754409, ,1.75, ,0.7564919409716991, ,0.47409236546192934, ,0.0782841166506806
78, ,PASS, ,0.079957175, ,0.012616501240570208, ,0.027442716617599644, ,0.0010174254254276757, ,1.75, ,0.7566580515322366, ,0.4736025795391931, ,0.07279443276667823
79, ,PASS, ,0.08041216999999999, ,0.012669284591314974, ,0.027327455466072122, ,0.0010276542283932147, ,1.75, ,0.7571475650216087, ,0.4745005203975429, ,0.0765290504275423
80, ,PASS, ,0.08115596000000003, ,0.012836029347741319, ,0.027376276082120773, ,0.0010504883394633472, ,1.75, ,0.7587685602947041, ,0.4751739760413053, ,0.0779984081957511
81, ,PASS, ,0.08139487000000002, ,0.012870367013519882, ,0.027577232758943696, ,0.0010563108742972745, ,1.75, ,0.7594844496384724, ,0.475255607028428, ,0.08073304626436195
82, ,PASS, ,0.08123488000000001, ,0.012848895208519074, ,0.02733515803763189, ,0.0010528014674443971, ,1.75, ,0.7591610997911847, ,0.47541886900267344, ,0.08332483010550805
83, ,PASS, ,0.08101423999999999, ,0.012822397132365302, ,0.027329234452807088, ,0.0010475488007673508, ,1.75, ,0.7592875418993315, ,0.47499030632027917, ,0.08322279137160467
84, ,PASS, ,0.08096589999999998, ,0.012797571285344114, ,0.027315165111916083, ,0.0010450406860398388, ,1.75, ,0.7590489968734362, ,0.47494949082671784, ,0.08044733780943246
85, ,PASS, ,0.08063273999999997, ,0.012745218511124872, ,0.027264212534172775, ,0.0010365419034530517, ,1.75, ,0.7586976654678953, ,0.47448011265076223, ,0.07773310748760229
86, ,PASS, ,0.08057408000000002, ,0.01270162382520018, ,0.027343644762372197, ,0.0010324565251647673, ,1.75, ,0.7579071723651525, ,0.47399032672802593, ,0.07834533989102263
87, ,PASS, ,0.08045295, ,0.012725702974797852, ,0.027363399274933167, ,0.0010323833255564388, ,1.75, ,0.758468189749737, ,0.4743780739168588, ,0.07767188424726026
88, ,PASS, ,0.07987080299999999, ,0.01263381460327938, ,0.027249247776820883, ,0.0010176690894655874, ,1.75, ,0.7593584044362591, ,0.4740311422215873, ,0.08356972306687618
89, ,PASS, ,0.079830942, ,0.012598043956745636, ,0.027331239358115142, ,0.0010143789903704912, ,1.75, ,0.7578286821121715, ,0.4731332013632375, ,0.07048835738046162
90, ,PASS, ,0.07983655299999999, ,0.012630102408621138, ,0.02732385951372421, ,0.0010171782427775187, ,1.75, ,0.7588379379715715, ,0.4731332013632375, ,0.07973306667210873
91, ,PASS, ,0.08410827, ,0.013248033238605923, ,0.02745431688979817, ,0.0011234343351678262, ,1.75, ,0.7559781185202522, ,0.4745005203975429, ,0.0764270116936389
92, ,PASS, ,0.19980000000000006, ,0.03446085695175122, ,0.032104670660190654, ,0.006931697699839481, ,1.75, ,0.7883836201756222, ,0.4997040876716802, ,0.2728515744576641
93, ,PASS, ,0.10828126000000005, ,0.016720523255006527, ,0.0279109734154405, ,0.0018237004127686126, ,1.75, ,0.7454210420790714, ,0.4839084916634354, ,0.09171241403236668
94, ,PASS, ,0.09272651000000003, ,0.014351014325383157, ,0.027208570072039348, ,0.0013413023593483514, ,1.75, ,0.7482286209364869, ,0.4781126915777229, ,0.08075345401114263
95, ,PASS, ,0.09210789000000003, ,0.014231843927820098, ,0.02738955915777229, ,0.0013213109685324292, ,1.75, ,0.7470385511200435, ,0.4772351584661538, ,0.07734536029876941
96, ,PASS, ,0.09205182, ,0.014260312884438154, ,0.027420499877757593, ,0.0013227712332008806, ,1.75, ,0.7480141225865252, ,0.4776433134017673, ,0.07471276096406196
97, ,PASS, ,0.09267600000000002, ,0.014341368722830785, ,0.027498005156221302, ,0.0013396765787596792, ,1.75, ,0.7464352636807725, ,0.47741882818717984, ,0.07497806167221077
98, ,PASS, ,0.09265853000000002, ,0.01438093662052725, ,0.027439490916715985, ,0.0013425584162718425, ,1.75, ,0.7484966065116062, ,0.4784596232729944, ,0.07771269974082162
99, ,PASS, ,0.09314851000000002, ,0.014408033951523775, ,0.027675596552927492, ,0.0013524471938445898, ,1.75, ,0.7477825225967771, ,0.4790514479296341, ,0.08012081386094161
100, ,PASS, ,0.09230799, ,0.014300968345501463, ,0.02749413676720883, ,0.0013302246788019988, ,1.75, ,0.7479942790085075, ,0.4786637007408012, ,0.07520254688679823
101, ,PASS, ,0.09256305000000002, ,0.014329309879801229, ,0.027479419141446092, ,0.001336443130466067, ,1.75, ,0.747436206121245, ,0.4787657394747046, ,0.07363115038468603
102, ,PASS, ,0.09234366000000001, ,0.014313200505731311, ,0.02750423662864023, ,0.0013319982246192377, ,1.75, ,0.7479457022577598, ,0.47827595355196834, ,0.07612089549192874
103, ,PASS, ,0.09211193000000002, ,0.01430224727868158, ,0.02747621521132222, ,0.0013277111297517396, ,1.75, ,0.7484128038638855, ,0.4786024775004592, ,0.07873308707985552
104, ,PASS, ,0.09308177999999999, ,0.014428279330694274, ,0.027497064604803986, ,0.0013535405517944223, ,1.75, ,0.7479445012010596, ,0.4785616620068978, ,0.07891675680088162
105, ,PASS, ,0.09326412999999996, ,0.01447576818493834, ,0.02756642685128875, ,0.0013606635006571596, ,1.75, ,0.7486450356619302, ,0.47870451623436255, ,0.0805085610497745
106, ,PASS, ,0.09329796000000001, ,0.014467297226634087, ,0.02737716987918614, ,0.0013602747908719012, ,1.75, ,0.7487867865613853, ,0.4793779718781249, ,0.07544743984816636
107, ,PASS, ,0.09277885000000001, ,0.014476259434112482, ,0.027850885030101427, ,0.0013531457577855284, ,1.75, ,0.750647342138046, ,0.4820922021999551, ,0.08983490132854431
108, ,PASS, ,0.09279505000000002, ,0.014467520391978973, ,0.027850522980510602, ,0.0013524733249976096, ,1.75, ,0.7508428465874506, ,0.48254117262913004, ,0.09291647109242669
109, ,PASS, ,0.09099035000000001, ,0.01419638494766693, ,0.028080917967143525, ,0.0013017493809897008, ,1.75, ,0.750682148021566, ,0.47958204934593174, ,0.07832493214424195
