Channel, ,Pass/Fail, ,Amplitude, ,Sorting Function Response, ,Mean, ,Variance, ,NPeaksRatio, ,PosIntegralRatio, ,ToT50, ,ToT99
0, ,PASS, ,0.05442253900000003, ,0.008360943860515476, ,0.03855278250862228, ,0.00045990592986564063, ,1.75, ,0.769767887541308, ,0.540397134752352, ,0.14846635782943204
1, ,PASS, ,0.06159436299999998, ,0.008241407053806285, ,0.039415124067549635, ,0.0005138112315821421, ,1.75, ,0.7186637947434781, ,0.553009122262811, ,0.09205934572763821
2, ,PASS, ,0.06195577899999999, ,0.008243367915137162, ,0.03939805956404971, ,0.0005170835644308172, ,1.75, ,0.7151320069792138, ,0.5524785208465134, ,0.09385522744433787
3, ,PASS, ,0.061870538999999995, ,0.008172964038362587, ,0.0394093318203506, ,0.0005125741441827583, ,1.75, ,0.7133504579097432, ,0.5547029652456072, ,0.08538601253035652
4, ,PASS, ,0.06216603899999998, ,0.008221256478083125, ,0.03931874079728985, ,0.0005177038304636549, ,1.75, ,0.7137829936376578, ,0.5530295300095917, ,0.08746760270198567
5, ,PASS, ,0.062053553999999976, ,0.008195337580567707, ,0.039372788549233685, ,0.0005150720051007591, ,1.75, ,0.7140994933187921, ,0.554968265953756, ,0.08350849982653415
6, ,PASS, ,0.062111092999999985, ,0.008181046913951306, ,0.03900585770176119, ,0.0005145436757451215, ,1.75, ,0.7099028674195972, ,0.5508459011040591, ,0.08548805126425991
7, ,PASS, ,0.06189853199999998, ,0.00822211735518828, ,0.039232077252607085, ,0.0005149905883235252, ,1.75, ,0.7143485576447774, ,0.5501520377135161, ,0.08730434072774025
8, ,PASS, ,0.06157883999999997, ,0.008111178667820716, ,0.039343564245260296, ,0.0005060753165146303, ,1.75, ,0.7124583395695981, ,0.5548050039795106, ,0.08669210832431991
9, ,PASS, ,0.06176002899999998, ,0.008231000915954561, ,0.03925543600220403, ,0.0005149603429401909, ,1.75, ,0.7182327128516452, ,0.5516418032285055, ,0.08652884635007449
10, ,PASS, ,0.06309008599999996, ,0.008151906632737732, ,0.03961666306399869, ,0.0005214435126033119, ,1.75, ,0.7057231406521856, ,0.5558457990653252, ,0.0779167772086284
11, ,PASS, ,0.061341986, ,0.008171458300149563, ,0.03921853974269912, ,0.0005073543586119511, ,1.75, ,0.7147683466602152, ,0.5510091630783045, ,0.09279402461174262
12, ,PASS, ,0.06145539299999998, ,0.008169607687450581, ,0.0392133501080182, ,0.0005084065622755122, ,1.75, ,0.7155180604990042, ,0.5527846370482236, ,0.08477378012693619
13, ,PASS, ,0.06158741299999999, ,0.008188115341650426, ,0.039425046531662615, ,0.0005105905834018051, ,1.75, ,0.7170527189692478, ,0.5533356462113018, ,0.0867941470582233
14, ,PASS, ,0.061708738999999985, ,0.008152802247050058, ,0.039504948751494864, ,0.0005095343157975475, ,1.75, ,0.7142310162300956, ,0.5540907328421869, ,0.08185547233729924
15, ,PASS, ,0.061519762000000006, ,0.008123478451814468, ,0.03937749653651966, ,0.0005064447270708331, ,1.75, ,0.7110998142071385, ,0.5532336074773985, ,0.08459011040591008
16, ,PASS, ,0.06166983199999999, ,0.008186313978267976, ,0.03919902785779882, ,0.0005116215837705457, ,1.75, ,0.7102536264455594, ,0.5496214362972184, ,0.0638354319299606
17, ,PASS, ,0.06173995599999999, ,0.008153348658083807, ,0.0396035200703455, ,0.0005101232596121495, ,1.75, ,0.714833494402334, ,0.554968265953756, ,0.08534519703679516
18, ,PASS, ,0.06308397799999997, ,0.008229311048770723, ,0.03963164662394645, ,0.0005258662938039951, ,1.75, ,0.7102170556458826, ,0.5562335462541581, ,0.08210036529866738
19, ,PASS, ,0.06213675099999999, ,0.008155784768695565, ,0.03938369885355401, ,0.0005137827006317347, ,1.75, ,0.7108813254146487, ,0.5547029652456072, ,0.08089630823860737
20, ,PASS, ,0.06201156299999999, ,0.008257988402045576, ,0.039256679801575475, ,0.0005179991255005357, ,1.75, ,0.7147039639259402, ,0.5499887757392706, ,0.08210036529866738
21, ,PASS, ,0.06208170599999999, ,0.008260617396240535, ,0.03926148782565662, ,0.0005196124502542836, ,1.75, ,0.7163228893324873, ,0.5504377461684455, ,0.085039080835085
22, ,PASS, ,0.062607658, ,0.008240473602027239, ,0.03935280870621007, ,0.0005227175933990011, ,1.75, ,0.7130271016913954, ,0.5536825779065734, ,0.08112079345319484
23, ,PASS, ,0.062432100000000004, ,0.008224575842079711, ,0.039226943071223035, ,0.0005203712098213444, ,1.75, ,0.7123361101186791, ,0.5547233729923879, ,0.08991653231566703
24, ,PASS, ,0.06279812299999998, ,0.008297078704328347, ,0.03944481273504622, ,0.0005277052819243071, ,1.75, ,0.7143928858576324, ,0.5531927919838371, ,0.08934511540580804
25, ,PASS, ,0.06279470199999998, ,0.008260640208279438, ,0.03951827299391849, ,0.0005257627779341597, ,1.75, ,0.7100280001239565, ,0.5538662476275994, ,0.08126364768065958
26, ,PASS, ,0.06270922599999997, ,0.008293302392842771, ,0.039300352044243994, ,0.0005267113628062358, ,1.75, ,0.7131131792029237, ,0.5523560743658292, ,0.08161057937593111
27, ,PASS, ,0.06253298799999997, ,0.008307706926037408, ,0.03930743294834799, ,0.0005259324093113656, ,1.75, ,0.7140441028723119, ,0.5498867370053673, ,0.08575335197240873
28, ,PASS, ,0.06371404999999998, ,0.008461184565498176, ,0.039313373908267175, ,0.0005458217680172609, ,1.75, ,0.7151898706508246, ,0.5522948511254873, ,0.09289606334564601
29, ,PASS, ,0.13876342000000003, ,0.014065273761605485, ,0.04441982754107059, ,0.001982101218953562, ,1.6666666666666667, ,0.6152526115026787, ,0.5744168486357422, ,0.029652456072325056
30, ,PASS, ,0.07456031680999997, ,0.009079546874663424, ,0.04045105151429563, ,0.0006862298578375382, ,1.75, ,0.6857699491527911, ,0.5612538519622049, ,0.057202914226240284
31, ,PASS, ,0.06358391399999999, ,0.008492080847397354, ,0.03939369961194669, ,0.0005461073283637035, ,1.75, ,0.7144579020117022, ,0.5507642701169364, ,0.09350829574906634
32, ,PASS, ,0.06306526199999998, ,0.008414915932536982, ,0.03925748159692659, ,0.000537022193144721, ,1.75, ,0.7137648183057711, ,0.5487234954388686, ,0.0877124956633538
33, ,PASS, ,0.06298632099999998, ,0.008413533624778523, ,0.03943684703040754, ,0.0005363602776818373, ,1.75, ,0.7199432242472958, ,0.5545397032713618, ,0.1023448501050999
34, ,PASS, ,0.06281113799999999, ,0.008361898673676631, ,0.039447283740719576, ,0.0005322412867957753, ,1.75, ,0.716315409484129, ,0.554845819473072, ,0.09067161894655211
35, ,PASS, ,0.06286673399999998, ,0.008412256121822939, ,0.039412777598681656, ,0.0005354135069009854, ,1.75, ,0.7192820542843353, ,0.553764208893696, ,0.09879390216526193
36, ,PASS, ,0.06315847299999998, ,0.008371154010143307, ,0.03911636950696924, ,0.0005352917506404464, ,1.75, ,0.7123064370911769, ,0.5500704067263933, ,0.09534499295932736
37, ,PASS, ,0.06325175099999997, ,0.008324591058840024, ,0.0393410213174425, ,0.0005335077413446697, ,1.75, ,0.712219141038705, ,0.5551315279280015, ,0.08673292381788127
38, ,PASS, ,0.06327706199999995, ,0.00834020215926703, ,0.03965081567602701, ,0.0005347281451790108, ,1.75, ,0.7131067362800758, ,0.5570090406318239, ,0.0903042795044999
39, ,PASS, ,0.063259416, ,0.008416438675678095, ,0.03942046680090202, ,0.0005387225880771136, ,1.75, ,0.7133579398781629, ,0.5509275320911818, ,0.08889614497663313
40, ,PASS, ,0.06368959699999997, ,0.008431493111437477, ,0.03916523512032407, ,0.0005438702677640419, ,1.75, ,0.7135447255286795, ,0.5534989081855473, ,0.08889614497663313
41, ,PASS, ,0.06341779799999998, ,0.00844442143471738, ,0.039424340148527574, ,0.0005423640891115902, ,1.75, ,0.7169566795508694, ,0.5556621293442991, ,0.09495724577049448
42, ,PASS, ,0.06327086899999998, ,0.008438095720866992, ,0.03905327537691067, ,0.0005404324509118897, ,1.75, ,0.7119832519126538, ,0.5500499989796127, ,0.07785555396828636
43, ,PASS, ,0.06329003499999998, ,0.008467166242131672, ,0.03910922662884431, ,0.000542135767822012, ,1.75, ,0.7159023565848502, ,0.5509479398379625, ,0.09083488092079753
44, ,PASS, ,0.06343058299999997, ,0.008442193973129003, ,0.03916010086847207, ,0.0005423446228618897, ,1.75, ,0.7167320101085233, ,0.553519315932328, ,0.097712291585886
45, ,PASS, ,0.06367336099999998, ,0.008531506376009893, ,0.03907940088741046, ,0.0005505004331122879, ,1.75, ,0.7177950300225567, ,0.5489683884002368, ,0.08740637946164365
46, ,PASS, ,0.06363104099999997, ,0.008450529246111005, ,0.03918595306583539, ,0.0005445898690620703, ,1.75, ,0.7142810001555757, ,0.5537233934001347, ,0.0875288259423277
47, ,PASS, ,0.06365932899999996, ,0.00840777162199364, ,0.03934535285322748, ,0.0005422749149413246, ,1.75, ,0.7120883476707917, ,0.5549274504601946, ,0.09130425909675313
48, ,PASS, ,0.06350351199999998, ,0.008435489079123518, ,0.03928082701979551, ,0.0005428171207263163, ,1.75, ,0.7174727161761463, ,0.5559274300524479, ,0.09693679720822024
49, ,PASS, ,0.06382424199999995, ,0.00847234369708724, ,0.039210737744964384, ,0.000547520068155892, ,1.75, ,0.7171931854103426, ,0.5535805391726699, ,0.08775331115691516
50, ,PASS, ,0.06342333799999998, ,0.008437734614694112, ,0.039182036874369906, ,0.0005420115663687139, ,1.75, ,0.7166415379955321, ,0.5557437603314218, ,0.09181445276627008
51, ,PASS, ,0.06361908799999998, ,0.008510740068531388, ,0.038888652236689046, ,0.000548604912763881, ,1.75, ,0.7164905889949865, ,0.5505193771555682, ,0.09193689924695414
52, ,PASS, ,0.063571039, ,0.008401427360457797, ,0.039230864678680026, ,0.0005412623704322009, ,1.75, ,0.7134785523805559, ,0.5564580314687455, ,0.09330421828125957
53, ,PASS, ,0.06352308399999998, ,0.008507145792363958, ,0.039258966947633714, ,0.0005469728910533814, ,1.75, ,0.7189742279836635, ,0.5540091018550641, ,0.09007979428991245
54, ,PASS, ,0.06367595299999997, ,0.008451414649010712, ,0.03918469196622518, ,0.0005449336429666009, ,1.75, ,0.7143418471673083, ,0.5548254117262913, ,0.08685537029856534
55, ,PASS, ,0.06311582399999997, ,0.008475882919554612, ,0.03915162972753617, ,0.0005412330935244623, ,1.75, ,0.7166393509605743, ,0.5519887349237771, ,0.08618191465480296
56, ,PASS, ,0.06352050999999999, ,0.008486050911537599, ,0.03923692544423583, ,0.0005456806872672679, ,1.75, ,0.7201984062863357, ,0.5541723638293096, ,0.09761025285198262
57, ,PASS, ,0.063244629, ,0.008473419539015977, ,0.03910622199702046, ,0.0005428363912903802, ,1.75, ,0.7176917598340089, ,0.5532131997306178, ,0.09916124160731414
58, ,PASS, ,0.063249115, ,0.008430937041567341, ,0.038936078939552254, ,0.0005399605649549617, ,1.75, ,0.7154301544116098, ,0.5508459011040591, ,0.09761025285198262
59, ,PASS, ,0.06324466499999999, ,0.008460613168303082, ,0.039327202064263996, ,0.0005423143667638351, ,1.75, ,0.721087701925, ,0.5546417420052652, ,0.09603885634987042
60, ,PASS, ,0.06410219399999999, ,0.00850130013715126, ,0.03921399159513071, ,0.0005514913909990844, ,1.75, ,0.7155287717120039, ,0.5517030264688476, ,0.09230423868900635
61, ,PASS, ,0.06435574899999996, ,0.00848022471763967, ,0.03921281985794167, ,0.0005533097203174901, ,1.75, ,0.7119800588543318, ,0.5557437603314218, ,0.08736556396808229
62, ,PASS, ,0.063263166, ,0.008517445657241546, ,0.039046733551539765, ,0.0005451946077712107, ,1.75, ,0.7192967910205825, ,0.5499479602457092, ,0.10087549233689108
63, ,PASS, ,0.06311275599999999, ,0.008499056401997055, ,0.03910811794245015, ,0.0005431847767987647, ,1.75, ,0.721146847189843, ,0.5531723842370564, ,0.0984469704699904
64, ,PASS, ,0.06309301499999999, ,0.00849979467856727, ,0.03916883682837085, ,0.0005429060692048571, ,1.75, ,0.7233705579668035, ,0.5545397032713618, ,0.102528519826126
65, ,PASS, ,0.06306131399999998, ,0.008439533694321384, ,0.038885350824370925, ,0.0005389172067243643, ,1.75, ,0.7158220447107954, ,0.5510091630783045, ,0.09230423868900635
66, ,PASS, ,0.06307427599999998, ,0.008461563390050292, ,0.03920715593473602, ,0.0005407613598294692, ,1.75, ,0.7208818505288537, ,0.5550090814473174, ,0.09554907042713413
67, ,PASS, ,0.06317437499999998, ,0.008465258126956565, ,0.03928662746772515, ,0.0005417280064086165, ,1.75, ,0.7193253073049167, ,0.554968265953756, ,0.09636538029836125
68, ,PASS, ,0.06378662099999997, ,0.008518736959487072, ,0.03917369147148017, ,0.0005503841494038644, ,1.75, ,0.7166316731064197, ,0.5532948307177404, ,0.09969184302361177
69, ,PASS, ,0.064638507, ,0.008561724644897935, ,0.03921327719162874, ,0.0005605758308083852, ,1.75, ,0.710597464773008, ,0.5501316299667354, ,0.075406624354605
70, ,PASS, ,0.063579678, ,0.00860081946721013, ,0.039102030292912385, ,0.0005532149732352402, ,1.75, ,0.7204484050863146, ,0.5498051060182445, ,0.09701842819534295
71, ,PASS, ,0.06384495699999998, ,0.008540670908367543, ,0.03926647191138956, ,0.0005523393199884906, ,1.75, ,0.717800337232433, ,0.5528458602885655, ,0.08767168016979246
72, ,PASS, ,0.06402946399999995, ,0.008553994540082729, ,0.03914941816293545, ,0.000554772885467265, ,1.75, ,0.7170258590775511, ,0.5542948103099937, ,0.09587559437562498
73, ,PASS, ,0.06415109299999996, ,0.008573553181474059, ,0.03932579978524928, ,0.0005571839078753922, ,1.75, ,0.7163366733324399, ,0.5532336074773985, ,0.09199812248729618
74, ,PASS, ,0.06425598899999997, ,0.008559521485219651, ,0.039167205300218354, ,0.0005572068963031206, ,1.75, ,0.7140769734494087, ,0.5547641884859492, ,0.09210016122119957
75, ,PASS, ,0.064177467, ,0.00866767400881152, ,0.03909236323634211, ,0.0005631964741987409, ,1.75, ,0.7215608809345222, ,0.550029591232832, ,0.09867145568457787
76, ,PASS, ,0.06428865699999999, ,0.008563729083778567, ,0.03891318036009469, ,0.0005575212570176614, ,1.75, ,0.7127615557404445, ,0.5507642701169364, ,0.0911409971225077
77, ,PASS, ,0.06450955199999996, ,0.008637732610119752, ,0.038976646890838955, ,0.0005636371347870871, ,1.75, ,0.7185444890660834, ,0.5508867165976205, ,0.09048794922552601
78, ,PASS, ,0.064634673, ,0.008550424677133727, ,0.039491961517030265, ,0.0005596142149197436, ,1.75, ,0.7164847278583583, ,0.5571110793657272, ,0.08348809207975347
79, ,PASS, ,0.06428791699999997, ,0.008654851705369636, ,0.0390353881799351, ,0.00056274660885969, ,1.75, ,0.7197821675049403, ,0.5502336687006387, ,0.0942021591396094
80, ,PASS, ,0.06405454799999995, ,0.008694546503811143, ,0.039004853168016974, ,0.0005636493566883257, ,1.75, ,0.723701339648316, ,0.5501316299667354, ,0.09556947817391481
81, ,PASS, ,0.06422252799999996, ,0.008579841593417374, ,0.03904369449984694, ,0.000558300207485322, ,1.75, ,0.7179500690254971, ,0.5556825370910797, ,0.09969184302361177
82, ,PASS, ,0.06413982100000001, ,0.008651514058892886, ,0.03917688217262912, ,0.0005616610575480871, ,1.75, ,0.721514931403902, ,0.5520499581641191, ,0.09301850982633007
83, ,PASS, ,0.06387987399999998, ,0.008679008383098109, ,0.039084532594436845, ,0.000561432686433796, ,1.75, ,0.7228260168910016, ,0.5514989490010408, ,0.10675292340972634
84, ,PASS, ,0.06432575699999998, ,0.00864576389816547, ,0.03900746642129752, ,0.0005631797347454065, ,1.75, ,0.7186881107670917, ,0.5495602130568764, ,0.0822636272729128
85, ,PASS, ,0.06411908399999995, ,0.008687683946360571, ,0.03925098281528948, ,0.000564073897887203, ,1.75, ,0.7220505004301712, ,0.552437705352952, ,0.09871227117813922
86, ,PASS, ,0.06432236799999998, ,0.008651240047034294, ,0.03922749029538172, ,0.0005638981598296913, ,1.75, ,0.7202020896725939, ,0.5539070631211608, ,0.09167159853880533
87, ,PASS, ,0.06438885199999994, ,0.008683919220313698, ,0.039195533875451515, ,0.0005658729450014184, ,1.75, ,0.7212607486428777, ,0.5540499173486255, ,0.10375298463296667
88, ,PASS, ,0.06421024399999997, ,0.008728525434358253, ,0.03887098806526397, ,0.0005671337266124915, ,1.75, ,0.721039491375688, ,0.5482133017693517, ,0.09777351482622804
89, ,PASS, ,0.06431163099999995, ,0.00874798621030966, ,0.03914770361300789, ,0.000569311547457144, ,1.75, ,0.7253404914848091, ,0.5522540356319259, ,0.10479377971878125
90, ,PASS, ,0.06451778099999997, ,0.008685200029657152, ,0.0390385806825779, ,0.0005674798066157759, ,1.75, ,0.7190517161480616, ,0.5519479194302157, ,0.10263055856002938
91, ,PASS, ,0.06465731099999995, ,0.00869141284440633, ,0.03933223860135507, ,0.000569256306139556, ,1.75, ,0.7201014996568994, ,0.5534376849452052, ,0.08610028366768026
92, ,PASS, ,0.06474418099999998, ,0.008741025401358233, ,0.03938006530289177, ,0.000573064153508521, ,1.75, ,0.7205770940984025, ,0.5521111814044611, ,0.09887553315238465
93, ,PASS, ,0.06477291799999998, ,0.008711722335421423, ,0.03929031769878165, ,0.0005717170846234546, ,1.75, ,0.7202714807671556, ,0.5536009469194506, ,0.09399808167180261
94, ,PASS, ,0.06452971899999997, ,0.008765362770806601, ,0.03911521041566498, ,0.0005725881436693684, ,1.75, ,0.7233740985396294, ,0.5515805799881635, ,0.10491622619946532
95, ,PASS, ,0.06469392599999994, ,0.00879622735447025, ,0.038895183401420376, ,0.0005757903416432694, ,1.75, ,0.7235506400811912, ,0.5490296116405787, ,0.10087549233689108
96, ,PASS, ,0.06472223299999998, ,0.008794253055915057, ,0.03896935462261994, ,0.0005755630643273053, ,1.75, ,0.7233797391352597, ,0.5489683884002368, ,0.10032448317381278
97, ,PASS, ,0.06458045999999995, ,0.008810879091201389, ,0.03916536882663619, ,0.0005755994625283635, ,1.75, ,0.7260862035272216, ,0.5519479194302157, ,0.10554886634966633
98, ,PASS, ,0.06489274099999998, ,0.008862930573426889, ,0.03886457938301259, ,0.000581744649805195, ,1.75, ,0.7250424152184191, ,0.549009203893798, ,0.10261015081324872
99, ,PASS, ,0.06709538330000002, ,0.009063584152989487, ,0.03932753458909002, ,0.0006151524946561665, ,1.75, ,0.7215843006626673, ,0.5516622109752862, ,0.09140629783065651
100, ,PASS, ,0.1734464200000001, ,0.018974887983366266, ,0.045870633329319815, ,0.0033418931479950705, ,1.75, ,0.6583888266700965, ,0.5781310585498255, ,0.09322258729413685
101, ,PASS, ,0.07056316837000003, ,0.009629494764670413, ,0.039336111721903634, ,0.0006876254089973745, ,1.75, ,0.7247015726032737, ,0.5509683475847432, ,0.10775290300197955
102, ,PASS, ,0.06726872900000001, ,0.009244586419587905, ,0.039102537434521745, ,0.0006296310274261674, ,1.75, ,0.7279482987561188, ,0.5512540560396727, ,0.11022224036244159
103, ,PASS, ,0.06689610900000002, ,0.00919933907064703, ,0.039332234617395566, ,0.0006232725885643134, ,1.75, ,0.7274169703197348, ,0.5522336278851452, ,0.10638558396767413
104, ,PASS, ,0.06686804700000004, ,0.009193821018825033, ,0.03922337794571539, ,0.0006227072750942042, ,1.75, ,0.7277057120545171, ,0.5522132201383645, ,0.10738556355992734
105, ,PASS, ,0.06653373809999999, ,0.009224831046450202, ,0.039042082853003, ,0.0006208297026823374, ,1.75, ,0.730558386566775, ,0.5486418644517459, ,0.11089569600620396
106, ,PASS, ,0.06635434800000002, ,0.009226789911996665, ,0.03912033391947103, ,0.0006196361824870177, ,1.75, ,0.73157131922076, ,0.5498867370053673, ,0.10722230158568193
107, ,PASS, ,0.06651567230000002, ,0.00914795698288202, ,0.03919176590616518, ,0.0006161453411623946, ,1.75, ,0.7279482438125757, ,0.5529274912756883, ,0.1042835860492643
108, ,PASS, ,0.06659696660000004, ,0.009242867934659598, ,0.03912548237797188, ,0.0006225386220445998, ,1.75, ,0.7306574186272757, ,0.5477235158466154, ,0.11203852982592193
109, ,PASS, ,0.06685195500000002, ,0.009175854989971779, ,0.03926983917258831, ,0.0006207394197861913, ,1.75, ,0.7275185750529803, ,0.5520703659108998, ,0.10542641986898227
110, ,PASS, ,0.06676168930000004, ,0.009242179123883516, ,0.039086912929430014, ,0.0006238494215694046, ,1.75, ,0.7295035157681685, ,0.5482745250096936, ,0.10693659313075243
111, ,PASS, ,0.06654866100000001, ,0.009163986000891466, ,0.039133622421154673, ,0.0006173578856091099, ,1.75, ,0.7283459511748139, ,0.5514377257606987, ,0.10575294381747312
112, ,PASS, ,0.06668351630000004, ,0.00916721949822598, ,0.03924505576006612, ,0.0006190158257823616, ,1.75, ,0.7305426952306927, ,0.5532131997306178, ,0.11126303544825616
113, ,PASS, ,0.06666884800000002, ,0.009176448442494895, ,0.03929680033797269, ,0.0006195048643257953, ,1.75, ,0.7297191081759605, ,0.5519887349237771, ,0.10832431991183854
114, ,PASS, ,0.06660927000000004, ,0.009211158847389314, ,0.03914811311024265, ,0.0006205719338691295, ,1.75, ,0.7303131913399245, ,0.5489887961470175, ,0.11060998755127446
115, ,PASS, ,0.06654439600000002, ,0.00920629443150201, ,0.039412448695883756, ,0.0006199561890159852, ,1.75, ,0.7323980192127689, ,0.5522540356319259, ,0.11185486010489581
116, ,PASS, ,0.06675939, ,0.009156942666324172, ,0.039141547636844146, ,0.0006184774512939952, ,1.75, ,0.7265927627113753, ,0.5499275524989286, ,0.10812024244403176
117, ,PASS, ,0.06688386800000005, ,0.009206882534550603, ,0.03932188076439257, ,0.0006231211710450347, ,1.75, ,0.7307519190599033, ,0.5519887349237771, ,0.1067937389032877
118, ,PASS, ,0.06687200900000004, ,0.00909812505169382, ,0.039271794408481456, ,0.000616357718684234, ,1.75, ,0.7249495226871008, ,0.553519315932328, ,0.1007734536029877
119, ,PASS, ,0.06680928260000003, ,0.009139806821623875, ,0.03897019892494031, ,0.0006175508306610803, ,1.75, ,0.7257309235302578, ,0.5497846982714638, ,0.1058549825513765
120, ,PASS, ,0.06670499300000002, ,0.00913186137972005, ,0.0390933876362115, ,0.0006161750164283612, ,1.75, ,0.7256536182752168, ,0.5493153200955082, ,0.1030795289892043
121, ,PASS, ,0.06658170599999999, ,0.009116994858633057, ,0.03925776457892696, ,0.0006145550402584502, ,1.75, ,0.7262974123723148, ,0.5516213954817248, ,0.10097753107079448
122, ,PASS, ,0.06654660200000002, ,0.00911794024134283, ,0.03932763549431644, ,0.0006142553852158757, ,1.75, ,0.7259313295554316, ,0.5513969102671374, ,0.10646721495479684
123, ,PASS, ,0.06663113300000005, ,0.009096225513185492, ,0.039242796212260976, ,0.0006134104871100423, ,1.75, ,0.725766869654867, ,0.5528254525417848, ,0.10503867268014938
124, ,PASS, ,0.06633018800000004, ,0.0090082598672392, ,0.038893330988959404, ,0.0006048747194546625, ,1.75, ,0.7224746616392493, ,0.5494989898165343, ,0.09705924368890431
125, ,PASS, ,0.06644808300000003, ,0.009015871240630734, ,0.0393548301227526, ,0.0006069023111607332, ,1.75, ,0.725051017173113, ,0.5545805187649232, ,0.1056713128303504
126, ,PASS, ,0.066466357, ,0.009072357051956461, ,0.039124462131038144, ,0.0006107182493278864, ,1.75, ,0.7276147751066163, ,0.5509479398379625, ,0.10256933531968736
127, ,PASS, ,0.06666975100000001, ,0.009108096770822248, ,0.039090314584375827, ,0.0006140607302194002, ,1.75, ,0.7249798520568811, ,0.5501112222199547, ,0.10171220995489888
128, ,PASS, ,0.06661148200000003, ,0.00898231742693133, ,0.03923702892106283, ,0.0006062340638710732, ,1.75, ,0.7198025225298306, ,0.5506826391298136, ,0.09581437113528295
129, ,PASS, ,0.066795344, ,0.009098008933177979, ,0.03945834989496133, ,0.0006147945770607224, ,1.75, ,0.7246106207692018, ,0.5500499989796127, ,0.10269178180037142
130, ,PASS, ,0.06650660900000002, ,0.009106841829314384, ,0.03934277843190955, ,0.0006127223302472905, ,1.75, ,0.7246884582115576, ,0.5491928736148242, ,0.1039978775943348
131, ,PASS, ,0.06725183130000001, ,0.009091826195316136, ,0.03951790259453889, ,0.0006192900952915486, ,1.75, ,0.7234134559229435, ,0.5543560335503357, ,0.09454909083488092
132, ,PASS, ,0.06702840400000001, ,0.009162731034545958, ,0.039217559542499135, ,0.0006210264252536703, ,1.75, ,0.7252974233717322, ,0.5496418440439991, ,0.1011407930450399
133, ,PASS, ,0.06603148600000001, ,0.009029930991473934, ,0.039473287841268544, ,0.0006037223796928803, ,1.75, ,0.7269788701541686, ,0.5527030060611008, ,0.11142629742250158
134, ,PASS, ,0.06600953400000002, ,0.008970520339543013, ,0.03948890961102834, ,0.0005995413693270562, ,1.75, ,0.7243681198285519, ,0.5538866553743801, ,0.1088141058345748
135, ,PASS, ,0.065870699, ,0.009007006020822888, ,0.0392541201741393, ,0.0006008872263597513, ,1.75, ,0.7257232308857533, ,0.551927511683435, ,0.09922246484765616
136, ,PASS, ,0.06568369500000003, ,0.00895561036984394, ,0.03951617564486439, ,0.0005961288336317351, ,1.75, ,0.7259648605237901, ,0.5542539948164323, ,0.10916103752984634
137, ,PASS, ,0.06563273300000004, ,0.009039598366019594, ,0.039211344056060075, ,0.0006000616285281555, ,1.75, ,0.728669266401605, ,0.549396951082631, ,0.10756923328095346
138, ,PASS, ,0.06565997500000002, ,0.008969775046435388, ,0.039210341540519576, ,0.0005961977305161176, ,1.75, ,0.7244345934447362, ,0.5492540968551662, ,0.10514071141405278
139, ,PASS, ,0.06654738800000001, ,0.00894460878934636, ,0.03978798555621314, ,0.0006032308952796814, ,1.75, ,0.7225059533972038, ,0.5574171955674374, ,0.10542641986898227
140, ,PASS, ,0.06672258500000003, ,0.00904097530781202, ,0.0397009921551601, ,0.0006106180697241142, ,1.75, ,0.7259369032079717, ,0.5550090814473174, ,0.10371216913940531
141, ,PASS, ,0.06588167100000003, ,0.009019965782817397, ,0.039166802559111036, ,0.0006012686504705552, ,1.75, ,0.723488158450704, ,0.5487643109324299, ,0.10020203669312872
142, ,PASS, ,0.06583438900000002, ,0.008994176267966983, ,0.03902788178365747, ,0.0005991745804350017, ,1.75, ,0.7235698326188926, ,0.549458174322973, ,0.09838574722964838
143, ,PASS, ,0.06561032700000004, ,0.008969260346795524, ,0.03945900469304708, ,0.0005955812927792917, ,1.75, ,0.7263846478721756, ,0.5529274912756883, ,0.10748760229383074
144, ,PASS, ,0.06542375000000002, ,0.008879857332320247, ,0.03934345538707373, ,0.0005885594402438865, ,1.75, ,0.7238015213654554, ,0.5540907328421869, ,0.10618150649986735
145, ,PASS, ,0.065544916, ,0.00891406938734858, ,0.03947017774016857, ,0.0005919312462595805, ,1.75, ,0.7266827889390239, ,0.5543764412971164, ,0.10801820371012837
146, ,PASS, ,0.06525428400000001, ,0.008853260169202558, ,0.039386165110487543, ,0.0005850201589712271, ,1.75, ,0.7225604635670707, ,0.5534989081855473, ,0.1051203036672721
147, ,PASS, ,0.0655486, ,0.008895312857086396, ,0.0391674067212914, ,0.0005902973775400981, ,1.75, ,0.7200907182595337, ,0.5491928736148242, ,0.10248770433256464
148, ,PASS, ,0.06541857000000002, ,0.008927911242478444, ,0.039526000533968694, ,0.0005911805876806143, ,1.75, ,0.7255255921616737, ,0.5522336278851452, ,0.11038550233668701
149, ,PASS, ,0.06576760700000003, ,0.008893810598758068, ,0.03936627885602335, ,0.000592543872571465, ,1.75, ,0.7200687594628101, ,0.5519071039366543, ,0.09807963102793821
150, ,PASS, ,0.06578340200000002, ,0.009002424175673816, ,0.03937052837352299, ,0.0005990133934635626, ,1.75, ,0.7253055044093129, ,0.5495398053100957, ,0.10791616497622497
151, ,PASS, ,0.06606941500000003, ,0.00887834909038304, ,0.03919858050935695, ,0.0005944274490377831, ,1.75, ,0.7195111744323275, ,0.554274402563213, ,0.0973449521438338
152, ,PASS, ,0.06608753500000002, ,0.008893872825202239, ,0.039484360442603214, ,0.0005954516778922901, ,1.75, ,0.7198727736650798, ,0.5544784800310197, ,0.10007959021244464
153, ,PASS, ,0.06633053200000003, ,0.008946504395120073, ,0.039332750268035344, ,0.0006009790595958587, ,1.75, ,0.7194332022613239, ,0.5508459011040591, ,0.09536540070610804
154, ,PASS, ,0.06643290400000003, ,0.008931698453307994, ,0.03949460002850962, ,0.0006012928144969195, ,1.75, ,0.7214132354559712, ,0.5563968082284035, ,0.10246729658578396
155, ,PASS, ,0.06637625000000003, ,0.008940014200269995, ,0.03942058937272709, ,0.0006003583201261073, ,1.75, ,0.717817781259711, ,0.5499479602457092, ,0.09287565559886533
156, ,PASS, ,0.06662578400000005, ,0.008944194946469784, ,0.03945708070716924, ,0.0006036237411434986, ,1.75, ,0.7187149426350767, ,0.5525397440868554, ,0.09293687883920736
157, ,PASS, ,0.06661813790000003, ,0.009038435437877235, ,0.039214269777637194, ,0.000608913978578699, ,1.75, ,0.7228344914416684, ,0.5489479806534561, ,0.09950817330258566
158, ,PASS, ,0.06668697000000001, ,0.0089780051901948, ,0.03935179589747148, ,0.0006054898133664232, ,1.75, ,0.7192849832437631, ,0.5498255137650252, ,0.09291647109242669
159, ,PASS, ,0.06626106500000004, ,0.008960940916130263, ,0.03944639530166731, ,0.0006010732876244035, ,1.75, ,0.7226876804917957, ,0.5522336278851452, ,0.1023448501050999
160, ,PASS, ,0.06625170200000004, ,0.0089329109162781, ,0.039585661734107463, ,0.0005992848628677512, ,1.75, ,0.7223057067047449, ,0.5545601110181425, ,0.09667149650007142
161, ,PASS, ,0.06596699200000006, ,0.008868871431238648, ,0.039505152328156566, ,0.0005930219270358466, ,1.75, ,0.7206673222252171, ,0.5546621497520459, ,0.10481418746556193
162, ,PASS, ,0.06576825900000001, ,0.008981765879071959, ,0.03944908698538805, ,0.0005978990190109185, ,1.75, ,0.7248694780130026, ,0.5522540356319259, ,0.09969184302361177
163, ,PASS, ,0.06554144100000002, ,0.00884627422679452, ,0.039368519347094955, ,0.000587582613522283, ,1.75, ,0.7211644976891605, ,0.5538866553743801, ,0.10312034448276566
164, ,PASS, ,0.065237641, ,0.008983925954734238, ,0.03919776563686455, ,0.0005927284030468573, ,1.75, ,0.7275796987231096, ,0.5484581947307198, ,0.10879369808779413
165, ,PASS, ,0.06539899900000001, ,0.00884510556072354, ,0.03961433378333095, ,0.000585941348724791, ,1.75, ,0.7221295263185841, ,0.5546621497520459, ,0.10707944735821717
166, ,PASS, ,0.06533408899999998, ,0.008953765166095827, ,0.03952865105567233, ,0.0005914732024987386, ,1.75, ,0.7293036998732096, ,0.5534580926919859, ,0.10985490092038938
167, ,PASS, ,0.06505508400000001, ,0.008933061203898694, ,0.03934332959155935, ,0.0005878745967031652, ,1.75, ,0.7245802975028007, ,0.5483765637435971, ,0.10812024244403176
168, ,PASS, ,0.06577244800000003, ,0.00891224745096013, ,0.03946544839560417, ,0.0005941655868575495, ,1.75, ,0.722724376967685, ,0.5563355849880615, ,0.10281422828105549
169, ,PASS, ,0.06577938300000002, ,0.00899781085612407, ,0.03926747500697945, ,0.0005983730464249417, ,1.75, ,0.7250519670305683, ,0.5488663496663333, ,0.10322238321666904
170, ,PASS, ,0.1700973500000001, ,0.018181825155777542, ,0.045774065863553814, ,0.003138647902800087, ,1.6666666666666667, ,0.6401844079646125, ,0.5724985204383584, ,0.05657027407603926
171, ,PASS, ,0.07058651942000004, ,0.009313835895262135, ,0.03961342720358768, ,0.0006653172195729343, ,1.75, ,0.7116327925246773, ,0.5505601926491296, ,0.0864268076161711
172, ,PASS, ,0.06702047330000001, ,0.00956424028780529, ,0.03925124144868472, ,0.0006485430379715001, ,1.75, ,0.7415103052572587, ,0.5467643517479235, ,0.12003836656394767
173, ,PASS, ,0.06475620599999998, ,0.009405858569870985, ,0.039064913401155074, ,0.0006159119637396366, ,1.75, ,0.7482068091444858, ,0.543560335503357, ,0.13507887594130732
174, ,PASS, ,0.064812704, ,0.009289680350347858, ,0.03923943144505213, ,0.0006096740698553806, ,1.75, ,0.7446915853033123, ,0.548192894022571, ,0.12795657231485072
175, ,PASS, ,0.06519599499999996, ,0.009353828289064666, ,0.03889357074706638, ,0.0006172634162955109, ,1.75, ,0.7420941112724606, ,0.5448256158037591, ,0.12432399338789005
176, ,PASS, ,0.06545826200000002, ,0.00937617656617712, ,0.03909110461159976, ,0.0006210418620074204, ,1.75, ,0.7438958043870078, ,0.5468255749882656, ,0.11873227076998429
177, ,PASS, ,0.065527003, ,0.009375241672072997, ,0.0391396303466868, ,0.0006215962901719867, ,1.75, ,0.7431613006404549, ,0.5470704679496337, ,0.12246688843084835
178, ,PASS, ,0.065438735, ,0.009424960486194844, ,0.03891123807828411, ,0.0006235528768283202, ,1.75, ,0.7456408506950101, ,0.5445194996020489, ,0.13173200546927613
179, ,PASS, ,0.065653471, ,0.009327426725105139, ,0.039138286869676124, ,0.0006201362537973672, ,1.75, ,0.7421474942147495, ,0.5492540968551662, ,0.1204669292463419
180, ,PASS, ,0.065382575, ,0.00937933801355744, ,0.039079044774392356, ,0.0006203667602080867, ,1.75, ,0.7425467923700475, ,0.5450092855247852, ,0.12848717373114835
181, ,PASS, ,0.06552350400000002, ,0.0093408456760988, ,0.03938790393991959, ,0.0006196492409374185, ,1.75, ,0.7420573461195765, ,0.5491316503744822, ,0.12307912083426868
182, ,PASS, ,0.06550476600000005, ,0.009344466959087736, ,0.03907814589518581, ,0.0006194087623969086, ,1.75, ,0.7402366492156276, ,0.545846003142793, ,0.13311973225036225
183, ,PASS, ,0.06543240099999999, ,0.009298292993695001, ,0.03901318881241199, ,0.0006152836756462885, ,1.75, ,0.7414459968287407, ,0.5484786024775005, ,0.12814024203587682
184, ,PASS, ,0.06507354200000003, ,0.009376767139940255, ,0.03912542852258117, ,0.0006171483171065279, ,1.75, ,0.7462680804454188, ,0.5450705087651272, ,0.13062998714311952
185, ,PASS, ,0.06504937699999999, ,0.009276977550325883, ,0.039384235798922466, ,0.0006114316382484566, ,1.75, ,0.7428791113835016, ,0.550213260953858, ,0.12734433991143038
186, ,PASS, ,0.06489757800000004, ,0.009331029003893727, ,0.03938885946852105, ,0.0006128311956660763, ,1.75, ,0.7444334886136679, ,0.5479888165547642, ,0.1274055631517724
187, ,PASS, ,0.06501136399999999, ,0.009320019541092867, ,0.03927701424593375, ,0.0006132495727276128, ,1.75, ,0.7450245945575508, ,0.5481520785290096, ,0.12736474765821107
188, ,PASS, ,0.06520082700000003, ,0.009296278720769383, ,0.03957724989775719, ,0.0006133272117036009, ,1.75, ,0.7422926652056614, ,0.5492132813616049, ,0.12097712291585885
189, ,PASS, ,0.065201073, ,0.009386032096058426, ,0.039112377361298745, ,0.0006187128995481103, ,1.75, ,0.7447534255509346, ,0.5445603150956103, ,0.12534438072692394
190, ,PASS, ,0.06501160000000003, ,0.009317117162002996, ,0.03932550538827779, ,0.0006131560217166505, ,1.75, ,0.7448898585534779, ,0.5488051264259913, ,0.1282422807697802
191, ,PASS, ,0.06521866800000001, ,0.009294040180373022, ,0.03925528207530458, ,0.0006135006376908522, ,1.75, ,0.7422807887891707, ,0.548254117262913, ,0.1285279892247097
192, ,PASS, ,0.06511050599999998, ,0.009365667749419503, ,0.039173014014591535, ,0.0006163567350192596, ,1.75, ,0.7437478815042252, ,0.5451317320054693, ,0.11969143486867614
193, ,PASS, ,0.06513334700000001, ,0.009363757036228743, ,0.03924149942807289, ,0.0006167160877818467, ,1.75, ,0.7454268181469709, ,0.5459276341299157, ,0.12942593008305953
194, ,PASS, ,0.065007219, ,0.009261027238898158, ,0.039146137110875286, ,0.0006099149644125336, ,1.75, ,0.7437196392765362, ,0.5506418236362524, ,0.13507887594130732
195, ,PASS, ,0.06503907, ,0.009325561636247204, ,0.03951640596618436, ,0.0006136034471963105, ,1.75, ,0.7461419831434959, ,0.550601008142691, ,0.12273218913899717
196, ,PASS, ,0.06517744700000001, ,0.009384636598341942, ,0.03913430710977327, ,0.0006185738852426311, ,1.75, ,0.7443823426007572, ,0.5457439644088896, ,0.12899736740066528
197, ,PASS, ,0.065179239, ,0.009369548287461367, ,0.039255077506969244, ,0.0006182441631774567, ,1.75, ,0.7451951462971435, ,0.5460092651170384, ,0.11963021162833412
198, ,PASS, ,0.065242718, ,0.009359621040088374, ,0.03916026195347033, ,0.0006176012209625705, ,1.75, ,0.7421514762228383, ,0.5451317320054693, ,0.12765045611314055
199, ,PASS, ,0.06485845199999998, ,0.009403549727139929, ,0.039255590784188076, ,0.0006163901862874481, ,1.75, ,0.7486254273389817, ,0.5454378482071794, ,0.1355482541172629
200, ,PASS, ,0.06503081499999998, ,0.009345215642701622, ,0.03928528075657639, ,0.0006151941679275618, ,1.75, ,0.7480889209757591, ,0.5486214567049652, ,0.124834187057407
201, ,PASS, ,0.064919871, ,0.009374045469681213, ,0.03961108318971041, ,0.000616103258517974, ,1.75, ,0.7492129857805742, ,0.5492336891083855, ,0.1308340646109263
202, ,PASS, ,0.06615536600000002, ,0.009408900175540707, ,0.0390926642623824, ,0.0006296914934585478, ,1.75, ,0.7391368825123847, ,0.5449480622844431, ,0.11944654190730801
203, ,PASS, ,0.06552661300000003, ,0.009402396112594323, ,0.0393836116878431, ,0.0006233767886767573, ,1.75, ,0.7454083967407064, ,0.5485602334646231, ,0.12734433991143038
204, ,PASS, ,0.06482824100000002, ,0.009357318149636692, ,0.03941328951931593, ,0.0006143555459798842, ,1.75, ,0.7476237768974304, ,0.5498459215118059, ,0.1341809350829575
205, ,PASS, ,0.065187735, ,0.00938670938681713, ,0.03928491306459052, ,0.0006190825762469979, ,1.75, ,0.7461145104231045, ,0.5484377869839391, ,0.12799738780841208
206, ,PASS, ,0.06546304600000001, ,0.009427384214714445, ,0.03899557889881839, ,0.0006239501584393256, ,1.75, ,0.7447115333088256, ,0.5448256158037591, ,0.12946674557662088
207, ,PASS, ,0.06573033500000001, ,0.009404376647941571, ,0.0394271997131283, ,0.0006257584675806327, ,1.75, ,0.7433607811541204, ,0.5481112630354482, ,0.11695679680006531
208, ,PASS, ,0.06572512400000004, ,0.009431292500825415, ,0.03939685541321606, ,0.0006268827950507808, ,1.75, ,0.7437956670085801, ,0.5458868186363544, ,0.12738515540499173
209, ,PASS, ,0.06597965500000001, ,0.009501916425214977, ,0.03928194460070202, ,0.0006337892638652237, ,1.75, ,0.7419781891966821, ,0.54394808269219, ,0.12585457439644088
210, ,PASS, ,0.06700789800000001, ,0.009451391461283517, ,0.03943146595918451, ,0.0006410836720415159, ,1.75, ,0.7378063224397896, ,0.5492540968551662, ,0.10920185302340768
211, ,PASS, ,0.06668164320000003, ,0.009485471805339363, ,0.03932956019499602, ,0.0006400062817995052, ,1.75, ,0.7431884125432028, ,0.5503969306748842, ,0.12867084345217444
212, ,PASS, ,0.06540278800000002, ,0.00943987278631287, ,0.03919321566451705, ,0.0006243213463522395, ,1.75, ,0.7447238284384736, ,0.5453562172200568, ,0.12754841737923717
213, ,PASS, ,0.06572051200000002, ,0.00937112278494181, ,0.03920922128572886, ,0.0006233211376732064, ,1.75, ,0.7396747862248478, ,0.5460908961041612, ,0.1267729230015714
214, ,PASS, ,0.06527836, ,0.009407959647168972, ,0.03934342993728699, ,0.0006214736995405867, ,1.75, ,0.7490211688016348, ,0.5503357074345422, ,0.1270586314565009
215, ,PASS, ,0.065256917, ,0.009428929412777828, ,0.039347824130140194, ,0.0006226751020694112, ,1.75, ,0.7460632096862748, ,0.54756025387237, ,0.12879328993285852
216, ,PASS, ,0.06557254700000005, ,0.009463815521838037, ,0.039233384026530066, ,0.0006273153071488444, ,1.75, ,0.7455938851563247, ,0.5452541784861533, ,0.13069121038346157
217, ,PASS, ,0.065603609, ,0.00951408029150179, ,0.03932879657531479, ,0.0006308799274507872, ,1.75, ,0.7463154469651849, ,0.5446011305891717, ,0.11697720454684599
218, ,PASS, ,0.06527294200000001, ,0.009438755024161659, ,0.039283767799963266, ,0.000623538503453991, ,1.75, ,0.74654179146621, ,0.5485398257178425, ,0.12979326952511172
219, ,PASS, ,0.06557705900000001, ,0.009460809910809553, ,0.0394580001802004, ,0.000627746401163827, ,1.75, ,0.7476397401202418, ,0.5481724862757903, ,0.1278953490745087
220, ,PASS, ,0.06539022, ,0.00953125949617806, ,0.039156189690353255, ,0.0006299199208993003, ,1.75, ,0.7494664520142996, ,0.5442541988939001, ,0.12542601171404666
221, ,PASS, ,0.065287433, ,0.009515974986023086, ,0.039285587168486354, ,0.0006287712629779275, ,1.75, ,0.7541919651610802, ,0.549458174322973, ,0.13301769351645884
222, ,PASS, ,0.065188457, ,0.009514388782700549, ,0.039148256273831145, ,0.0006275665001099049, ,1.75, ,0.7503260426229542, ,0.5443154221342421, ,0.138140037958409
223, ,PASS, ,0.06541042000000001, ,0.009496483591224108, ,0.03952910609395726, ,0.0006288331626077315, ,1.75, ,0.7535605898860477, ,0.5492336891083855, ,0.12903818289422664
224, ,PASS, ,0.065222015, ,0.009515826831176607, ,0.03929226956439664, ,0.0006279466355069861, ,1.75, ,0.7511064051148383, ,0.5474173996449052, ,0.13791555274382156
225, ,PASS, ,0.06530669400000001, ,0.009519407414470084, ,0.03937936695128671, ,0.0006290981061022271, ,1.75, ,0.7523920111992842, ,0.5487643109324299, ,0.14275218873084222
226, ,PASS, ,0.06546811500000001, ,0.009527791918306503, ,0.03924886625030101, ,0.0006319158594905211, ,1.75, ,0.7490251164187604, ,0.5492336891083855, ,0.1353849921430175
227, ,PASS, ,0.06569081200000002, ,0.009536177521844394, ,0.03909951116599661, ,0.000633881718560735, ,1.75, ,0.7476891735565937, ,0.5449684700312238, ,0.13420134282973817
228, ,PASS, ,0.06568867299999999, ,0.009568059306209563, ,0.03946711787936981, ,0.0006356182187247174, ,1.75, ,0.7513919392667061, ,0.5480092243015449, ,0.13226260688557376
229, ,PASS, ,0.06583147600000001, ,0.009507425701705187, ,0.039395438922613824, ,0.0006341094953181444, ,1.75, ,0.7480461413456952, ,0.5491724658680435, ,0.13544621538335952
230, ,PASS, ,0.065949686, ,0.009521338274682779, ,0.0393379677953103, ,0.0006361036773727985, ,1.75, ,0.7455801170351217, ,0.5466214975204587, ,0.13024223995428666
231, ,PASS, ,0.06613200000000002, ,0.009603165363275426, ,0.03907721019528173, ,0.00064236834234781, ,1.75, ,0.7482484716826571, ,0.5451113242586886, ,0.13071161813024224
232, ,PASS, ,0.06617579800000002, ,0.00954634010939371, ,0.039332847812922185, ,0.0006397352073799871, ,1.75, ,0.745879851192557, ,0.5471316911899757, ,0.1223240342033836
233, ,PASS, ,0.06599507500000004, ,0.009576820792172506, ,0.03916598521864859, ,0.000640384271507074, ,1.75, ,0.7505775893765406, ,0.5449684700312238, ,0.12863002795861309
234, ,PASS, ,0.065812561, ,0.009617221862979117, ,0.03932475887165568, ,0.0006403491165024222, ,1.75, ,0.7522198859538944, ,0.5473357686577824, ,0.1386910471214873
235, ,PASS, ,0.06610299030000001, ,0.009607865033366664, ,0.03897667585532948, ,0.0006426110868832845, ,1.75, ,0.747900890517753, ,0.5439072671986286, ,0.1307524336238036
236, ,PASS, ,0.06638401700000002, ,0.009669063578459756, ,0.03924943967653721, ,0.0006496146544652581, ,1.75, ,0.7508173200384365, ,0.5462541580784066, ,0.1364870104691741
237, ,PASS, ,0.06641774500000003, ,0.009692611651614051, ,0.03921090439540009, ,0.0006520949875876445, ,1.75, ,0.7537270573199935, ,0.5450296932715659, ,0.13569110834472767
238, ,PASS, ,0.066388135, ,0.009672232197723708, ,0.03930809143305239, ,0.0006501292311295098, ,1.75, ,0.751475725638399, ,0.5479480010612028, ,0.13238505336625783
239, ,PASS, ,0.06598380100000002, ,0.009729022265922855, ,0.03908477198534724, ,0.0006491513979527476, ,1.75, ,0.7531776628920674, ,0.5417848615334381, ,0.1418542478724924
240, ,PASS, ,0.06673581100000002, ,0.009859835178434794, ,0.0391729019884084, ,0.0006656637272145401, ,1.75, ,0.7568590894659954, ,0.541601191812412, ,0.13273198506152936
241, ,PASS, ,0.07070182172000002, ,0.01013409408672111, ,0.03970797717660864, ,0.0007249800198598485, ,1.75, ,0.7438477596052633, ,0.5471725066835371, ,0.124834187057407
242, ,PASS, ,0.17137540000000007, ,0.019215679440330688, ,0.0461790422597498, ,0.003339805161422561, ,1.6666666666666667, ,0.6643522256373421, ,0.5739270627130059, ,0.08471255688659415
243, ,PASS, ,0.06692623790000002, ,0.009872755512312474, ,0.039246071180812636, ,0.0006688955180641666, ,1.75, ,0.7558618756680817, ,0.5460092651170384, ,0.1423032183016673
244, ,PASS, ,0.06429095499999998, ,0.009616720124122796, ,0.039306732181914654, ,0.0006255546404319034, ,1.75, ,0.7628232344833149, ,0.545907226383135, ,0.1468541458337585
245, ,PASS, ,0.063955669, ,0.00955379299622993, ,0.039228040774453576, ,0.0006178903641889331, ,1.75, ,0.7596264303699635, ,0.5436011509969184, ,0.14338482888104323
246, ,PASS, ,0.06386819599999999, ,0.009523745556079115, ,0.03900935652068324, ,0.0006149349575849612, ,1.75, ,0.7575658561043308, ,0.541601191812412, ,0.1385277851472419
247, ,PASS, ,0.063670083, ,0.009480042377364517, ,0.038951942066304764, ,0.000610377187807943, ,1.75, ,0.7577123834965618, ,0.5414583375849472, ,0.1425072957694741
248, ,PASS, ,0.06370778, ,0.009467804338462659, ,0.03879523214811942, ,0.0006100404662279226, ,1.75, ,0.7540306949384383, ,0.5395604171343442, ,0.14336442113426257
249, ,PASS, ,0.063673447, ,0.009447370188460568, ,0.03886414992210362, ,0.0006090025033005681, ,1.75, ,0.7575660295215529, ,0.5433154425419889, ,0.14509907961062019
250, ,PASS, ,0.06352125699999998, ,0.009426031379859458, ,0.039323464003081565, ,0.0006056724531069568, ,1.75, ,0.7617086475901647, ,0.5484990102242812, ,0.1443439929797351
251, ,PASS, ,0.06344903099999999, ,0.009400169090773378, ,0.03900873278245341, ,0.0006042416262117733, ,1.75, ,0.7559046687316406, ,0.5428460643660333, ,0.1423032183016673
252, ,PASS, ,0.06281906299999997, ,0.009309282907136831, ,0.03921358938854309, ,0.000591902599948644, ,1.75, ,0.7582784636664839, ,0.5459684496234771, ,0.14558886553335645
253, ,PASS, ,0.06308247199999997, ,0.00932058989069319, ,0.039247498940531825, ,0.0005952275022330205, ,1.75, ,0.7591388223939117, ,0.5484377869839391, ,0.14011958939613478
254, ,PASS, ,0.06345738, ,0.00934301759921768, ,0.03926418464000734, ,0.0006000652286586812, ,1.75, ,0.7585334639013521, ,0.547682700353054, ,0.14130323870941408
255, ,PASS, ,0.06337916699999999, ,0.00934984904085818, ,0.03909068375206628, ,0.0005994038163479793, ,1.75, ,0.7570377142305147, ,0.545907226383135, ,0.1281606497826575
