Channel, ,Pass/Fail, ,Amplitude, ,Sorting Function Response, ,Mean, ,Variance, ,NPeaksRatio, ,PosIntegralRatio, ,ToT50, ,ToT99
84, ,PASS, ,0.02411604, ,0.0026958079574289605, ,0.04040618013387482, ,6.690713647833365e-05, ,1.6666666666666667, ,0.6649724652099243, ,0.6298851043856247, ,0.04222362808922267
85, ,PASS, ,0.027144739999999976, ,0.0032331536882438646, ,0.04081643617844534, ,9.018273300449083e-05, ,1.6666666666666667, ,0.6953511815776036, ,0.6275586212526275, ,0.03159119201648946
86, ,PASS, ,0.02798914, ,0.003423981655693672, ,0.040763089397155165, ,9.848118770715273e-05, ,1.6666666666666667, ,0.7012620055745903, ,0.628476969857758, ,0.06661088549213282
87, ,PASS, ,0.025826829999999995, ,0.003054701723341238, ,0.04078084392665456, ,8.114123564168555e-05, ,1.6666666666666667, ,0.6865196877974474, ,0.6256198853084631, ,0.0492234852349952
88, ,PASS, ,0.021695990000000026, ,0.0020982381548562317, ,0.04014240234240118, ,4.698242277898498e-05, ,1.6666666666666667, ,0.602675470629543, ,0.6412522193424623, ,0.02579539193077692
89, ,PASS, ,0.01214995, ,0.001964022575461, ,0.03926593381726903, ,2.4297127164477012e-05, ,1.75, ,0.8210794390890288, ,0.591538948184731, ,0.0812432399338789
90, ,PASS, ,0.03135646, ,0.0047501558880414, ,0.04130031905777433, ,0.0001522213433274406, ,1.8333333333333333, ,0.7940663996107064, ,0.608579416746597, ,0.17869023081161609
91, ,PASS, ,0.04343906, ,0.006316602421651856, ,0.04273035462561989, ,0.00028094342273373243, ,1.8333333333333333, ,0.7731755060719406, ,0.6202730556519255, ,0.19899593885839065
92, ,PASS, ,0.04615046999999997, ,0.006634717561227253, ,0.043085566543744, ,0.0003137592980479836, ,1.8333333333333333, ,0.7674268034603091, ,0.6231709556947818, ,0.19328176975980083
93, ,PASS, ,0.0393149, ,0.0058033044725903935, ,0.04225726549254097, ,0.00023347983512831506, ,1.9166666666666667, ,0.7796654487264626, ,0.6152119344503173, ,0.1775678047386788
94, ,PASS, ,0.02041123, ,0.003194776956516765, ,0.040056383261362016, ,6.654294246084678e-05, ,1.75, ,0.8068359110832262, ,0.5972531172833208, ,0.17048631660578356
95, ,PASS, ,0.012848620000000005, ,0.002075010425353076, ,0.039381930395910286, ,2.713217649977746e-05, ,1.75, ,0.8174443674062254, ,0.5908246770474072, ,0.08477378012693619
96, ,PASS, ,0.03177271, ,0.004821523778143451, ,0.0414571950919369, ,0.00015667612054540554, ,1.8333333333333333, ,0.7924179650763196, ,0.6083345237852289, ,0.16718026162731373
97, ,PASS, ,0.04246569000000001, ,0.006226650462119937, ,0.04249190070406727, ,0.0002706527762966992, ,1.9166666666666667, ,0.7782632156932735, ,0.618273096467419, ,0.20797534744188895
98, ,PASS, ,0.044994449999999984, ,0.0065305426364423574, ,0.04292417484622763, ,0.00030098623657144694, ,1.8333333333333333, ,0.7709315015800657, ,0.6190689985918655, ,0.16969041448133712
99, ,PASS, ,0.03858233000000002, ,0.005761578259280298, ,0.04214726756372319, ,0.000227373827863023, ,1.8333333333333333, ,0.7868798754490499, ,0.6130283055447848, ,0.20595498051060182
100, ,PASS, ,0.021249499999999998, ,0.0032465237529350137, ,0.04032000634068693, ,7.04964678332655e-05, ,1.75, ,0.8001822458529536, ,0.6034162568110855, ,0.19297565355809065
101, ,PASS, ,0.012157790000000002, ,0.001978928991215227, ,0.03904675196036815, ,2.4419131525766587e-05, ,1.75, ,0.8266382820793091, ,0.5850288769616947, ,0.11356911083447277
102, ,PASS, ,0.025562039999999987, ,0.0041974291591132815, ,0.04060268428787168, ,0.00010921272473348099, ,1.75, ,0.8285171595711168, ,0.5934164608885533, ,0.1430583049325524
103, ,PASS, ,0.03529717000000002, ,0.005692194949228103, ,0.041771098106977406, ,0.00020463148643880068, ,1.8333333333333333, ,0.821679505889588, ,0.6029672863819105, ,0.18593498091875676
104, ,PASS, ,0.03832191000000002, ,0.006121940839784538, ,0.042078534046243954, ,0.00023909699208409532, ,1.8333333333333333, ,0.8163323932242604, ,0.604334605416216, ,0.1654456031509561
105, ,PASS, ,0.03255822000000001, ,0.005283728328763824, ,0.04143133979510622, ,0.00017519609909015489, ,1.75, ,0.8225569789064281, ,0.5997224546437828, ,0.16750678557580456
106, ,PASS, ,0.018532590000000022, ,0.003043130758497123, ,0.039812102354033596, ,5.7473953939863236e-05, ,1.75, ,0.829640371497173, ,0.5931715679271852, ,0.17426174976020897
107, ,PASS, ,0.009165600000000003, ,0.0014706048162686234, ,0.038741959164915005, ,1.3647223424354808e-05, ,1.8333333333333333, ,0.8130408748041841, ,0.5816207832493214, ,0.09289606334564601
108, ,PASS, ,0.02165598000000001, ,0.003528066289828021, ,0.04010209096079672, ,7.75078626757136e-05, ,1.75, ,0.8225832389945938, ,0.5896818432276892, ,0.13726250484683986
109, ,PASS, ,0.031177080000000006, ,0.004984675081285773, ,0.04109771178465745, ,0.00015770946272106615, ,1.75, ,0.8149141402649112, ,0.5963347686781902, ,0.14456847819432256
110, ,PASS, ,0.03370758999999999, ,0.00537670403749985, ,0.04140334287402298, ,0.00018394402472606095, ,1.75, ,0.8131812085729656, ,0.5967225158670231, ,0.14289504295830696
111, ,PASS, ,0.02887536, ,0.004633414754799028, ,0.040884726788432885, ,0.0001357622342194711, ,1.75, ,0.8153605427048631, ,0.5944164404808066, ,0.11914042570559784
112, ,PASS, ,0.01561503000000002, ,0.002580046497356383, ,0.03955914397583722, ,4.087143650853969e-05, ,1.75, ,0.8329771805950642, ,0.588232893206261, ,0.17232301381604456
113, ,PASS, ,0.008621979999999994, ,0.0013466691901396375, ,0.038758511366298654, ,1.172199618059244e-05, ,1.75, ,0.7891767209536427, ,0.5814167057815146, ,0.060855900899981635
114, ,PASS, ,0.020225820000000005, ,0.0032730804626425083, ,0.040014728257178424, ,6.721494427374275e-05, ,1.75, ,0.8229391267958962, ,0.5938858390645089, ,0.15964980306524357
115, ,PASS, ,0.029101879999999993, ,0.004608701944245641, ,0.041005743155241726, ,0.00013625640979797904, ,1.75, ,0.811369062312196, ,0.5996612314034407, ,0.1253851962204853
116, ,PASS, ,0.03141492000000001, ,0.004969382078738922, ,0.041214468301871386, ,0.0001586233495646493, ,1.75, ,0.8079315524382031, ,0.6003550947939837, ,0.11203852982592193
117, ,PASS, ,0.027142449999999995, ,0.004302680449736222, ,0.040612264441950166, ,0.000118590976469419, ,1.75, ,0.8132983068630564, ,0.5963551764249709, ,0.14001755066223137
118, ,PASS, ,0.014475369999999994, ,0.0022876987327678584, ,0.03941885429603477, ,3.359935005322348e-05, ,1.75, ,0.8104651698071039, ,0.5908246770474072, ,0.07877390257341686
119, ,PASS, ,0.007665689999999989, ,0.0011009154259348842, ,0.0385385630713659, ,8.495425554272918e-06, ,1.9166666666666667, ,0.7541105061998498, ,0.5795187853309116, ,0.06475378053509112
120, ,PASS, ,0.01781006999999999, ,0.0027192511736185416, ,0.039649631413032384, ,4.893389543658465e-05, ,1.75, ,0.7885669812252958, ,0.5888043101161201, ,0.11060998755127446
121, ,PASS, ,0.02452119, ,0.003630128867894584, ,0.040283687518417995, ,8.993300734142202e-05, ,1.75, ,0.7686001543109389, ,0.5918858798800024, ,0.05295810289585927
122, ,PASS, ,0.026223240000000002, ,0.0039205967315011706, ,0.04037642473133202, ,0.00010397924590179306, ,1.75, ,0.7779883767735034, ,0.5936205383563601, ,0.11046713332380972
123, ,PASS, ,0.022881100000000036, ,0.0034481684797319488, ,0.03987063381543234, ,7.969269597112246e-05, ,1.75, ,0.7817498912853524, ,0.591722617905757, ,0.10236525785188057
124, ,PASS, ,0.012681540000000005, ,0.0019401697003572683, ,0.039029935850696924, ,2.483968169071662e-05, ,1.75, ,0.7886384199527097, ,0.5848656149874493, ,0.0855084590110406
