Channel, ,Pass/Fail, ,Amplitude, ,Sorting Function Response, ,Mean, ,Variance, ,NPeaksRatio, ,PosIntegralRatio, ,ToT50, ,ToT99
34, ,PASS, ,0.06377314900000003, ,0.009447426816922828, ,0.04265347178200445, ,0.0006129915507944963, ,1.9166666666666667, ,0.7329939164198072, ,0.5926409665108875, ,0.1082630966714965
35, ,PASS, ,0.11676254999999998, ,0.012084409505513122, ,0.04349609314265015, ,0.0014330320837874777, ,1.5, ,0.5736808370804791, ,0.5807024346441909, ,0.02506071304667252
36, ,PASS, ,0.12730023000000001, ,0.013248401961674072, ,0.0441249813156058, ,0.0017134449108758337, ,1.5, ,0.5750328976346576, ,0.5841921593436868, ,0.022203628497377604
37, ,PASS, ,0.13321888999999998, ,0.01701738156747188, ,0.0465980710118569, ,0.002307773565527826, ,1.75, ,0.6715071551309394, ,0.5950694883777882, ,0.040039999183690125
38, ,PASS, ,0.07646175223799996, ,0.01074146046537395, ,0.04360913857345768, ,0.000835770333122965, ,1.8333333333333333, ,0.7128448790659718, ,0.5937429848370441, ,0.07089651231607519
39, ,PASS, ,0.12228394, ,0.012242704956939573, ,0.043543204320891406, ,0.0015200137424729334, ,1.5, ,0.563363268639263, ,0.5781514662966062, ,0.022101589763474216
40, ,PASS, ,0.13196474, ,0.01339794942132969, ,0.043706386163955835, ,0.0017966802526486263, ,1.5, ,0.5651698225033172, ,0.5827228015754781, ,0.020877124956633537
41, ,PASS, ,0.13786366999999994, ,0.016840695124237123, ,0.04744700571894451, ,0.002361050966347716, ,1.75, ,0.6663250918813797, ,0.5992938919613885, ,0.02910144690924675
42, ,PASS, ,0.08377187379999998, ,0.011696836315845848, ,0.043571028772412805, ,0.0009973484965568275, ,1.8333333333333333, ,0.7083770497431572, ,0.5931307524336238, ,0.06408032489132875
43, ,PASS, ,0.12785085000000002, ,0.012750869103999495, ,0.04281998432458521, ,0.0016560000732341615, ,1.5, ,0.5567706151254029, ,0.5739474704597866, ,0.022019958776351503
44, ,PASS, ,0.13572717999999998, ,0.013524162398049235, ,0.04343637021754658, ,0.0018654763282928732, ,1.5, ,0.5586388153300705, ,0.578416767004755, ,0.021224056651905063
45, ,PASS, ,0.13536048999999994, ,0.015318273763527027, ,0.04470982012048734, ,0.0021096704183363674, ,1.6666666666666667, ,0.6121465631186198, ,0.5897430664680313, ,0.025938246158241668
46, ,PASS, ,0.07561915042499996, ,0.010023397653286773, ,0.04272326637423726, ,0.0007709075850771103, ,1.75, ,0.6795815270409579, ,0.591722617905757, ,0.05608048815330299
47, ,PASS, ,0.12459308999999999, ,0.012477342871118395, ,0.04262100716052733, ,0.0015788266296355867, ,1.5, ,0.5579690519533208, ,0.5695189894083794, ,0.023468908797779638
48, ,PASS, ,0.13232105, ,0.01325684153981633, ,0.04345537033236056, ,0.0017822747632586613, ,1.5, ,0.5618033993979932, ,0.5796004163180343, ,0.02136691087936981
49, ,PASS, ,0.12979215000000002, ,0.014514869346898072, ,0.0446448743153201, ,0.0019166187751863998, ,1.75, ,0.6080555448858944, ,0.5912124242362401, ,0.024366849656129466
50, ,PASS, ,0.07565501857599997, ,0.009548245420248102, ,0.042507191966306805, ,0.000734661876928045, ,1.75, ,0.6600635276656344, ,0.5942939940001224, ,0.041631803432583006
51, ,PASS, ,0.12419675999999999, ,0.012340266583253632, ,0.04316821600873451, ,0.0015568219242452048, ,1.5, ,0.5565599249005722, ,0.5797636782922797, ,0.02106079467765964
52, ,PASS, ,0.13145687, ,0.013139227976248526, ,0.043412405184139094, ,0.0017547398536001538, ,1.5, ,0.5603989878891781, ,0.5789473684210527, ,0.02085671720985286
53, ,PASS, ,0.12991089000000003, ,0.014258137935669416, ,0.044542800654027465, ,0.0018843281028668672, ,1.6666666666666667, ,0.5990736668779557, ,0.5941511397726577, ,0.02332605457031489
54, ,PASS, ,0.07770936665099996, ,0.010644919308446342, ,0.04305342262888512, ,0.0008415250472787898, ,1.6666666666666667, ,0.6996705955507615, ,0.5929062672190364, ,0.06746801085692129
55, ,PASS, ,0.12862056, ,0.013039540475337917, ,0.043201354600804064, ,0.0017033817406495212, ,1.5, ,0.5615539129834977, ,0.5774576029060632, ,0.021999551029570824
56, ,PASS, ,0.13578229999999997, ,0.013744649982595598, ,0.04366848840295096, ,0.0018964827930475054, ,1.5, ,0.5640465272431149, ,0.5819268994510316, ,0.021897512295667436
57, ,PASS, ,0.12331775, ,0.014628597527943616, ,0.04513343199197975, ,0.0018360478288338242, ,1.75, ,0.6385895240521, ,0.5933144221546499, ,0.028774922960755903
58, ,PASS, ,0.07655063100999998, ,0.010413661270118356, ,0.04331526156055998, ,0.0008109462755787918, ,1.6666666666666667, ,0.6967522495380689, ,0.5957633517683313, ,0.07391685883961552
59, ,PASS, ,0.12552636999999997, ,0.012865226644935356, ,0.043414734670843454, ,0.0016399518802716973, ,1.5, ,0.5689948183876992, ,0.5818248607171282, ,0.024550519377155567
60, ,PASS, ,0.13293108, ,0.013580785592739826, ,0.04366292916256811, ,0.001833929161842332, ,1.5, ,0.5684604929385211, ,0.5804575416828228, ,0.023183200342850145
61, ,PASS, ,0.11973468, ,0.014005759831783409, ,0.04517472699814289, ,0.0017067182425860616, ,1.75, ,0.6332038560734982, ,0.5980490194077672, ,0.02832595253158099
62, ,PASS, ,0.08224466484599996, ,0.0107832650363197, ,0.04320605072125058, ,0.0009022432368641404, ,1.75, ,0.6759342798854724, ,0.594702148935736, ,0.056039672659741635
63, ,PASS, ,0.12811231, ,0.01300174229073029, ,0.04347587977341278, ,0.0016919876082180586, ,1.5, ,0.5642012818794033, ,0.5818860839574702, ,0.02257096793942981
64, ,PASS, ,0.13500669999999995, ,0.01371681787848327, ,0.043945108588681864, ,0.001881565199655356, ,1.5, ,0.5671841341317838, ,0.585130915695598, ,0.02244852145874574
65, ,PASS, ,0.12831763000000002, ,0.014658624731697389, ,0.04492603126589253, ,0.0019140386408070735, ,1.6666666666666667, ,0.6165404051565203, ,0.5940491010387543, ,0.026060692638925735
66, ,PASS, ,0.0688494062, ,0.010193800355391167, ,0.043068891427930044, ,0.0007140657011783971, ,1.8333333333333333, ,0.7390552657156741, ,0.5972327095365401, ,0.11814044611334462
67, ,PASS, ,0.11607236000000001, ,0.01222240785121409, ,0.04331703169170017, ,0.001441452497655772, ,1.5833333333333333, ,0.5773482332353346, ,0.5873757678414726, ,0.02542805248872472
68, ,PASS, ,0.12554366, ,0.01285822973469456, ,0.043340527242852186, ,0.0016400010551437048, ,1.5, ,0.5701582382247536, ,0.5823554621334258, ,0.022101589763474216
69, ,PASS, ,0.12782246000000005, ,0.013711051543525117, ,0.044159719225117855, ,0.0017822926213565463, ,1.6666666666666667, ,0.5875541949580092, ,0.5905389685924777, ,0.022775045407236585
70, ,PASS, ,0.06652886800000002, ,0.009176172595645562, ,0.04232451791085897, ,0.0006209301648903608, ,1.6666666666666667, ,0.7005663296691502, ,0.594579702455052, ,0.08587579845309279
71, ,PASS, ,0.1171161, ,0.012354008165380565, ,0.04321339944064407, ,0.0014693916496831242, ,1.6666666666666667, ,0.5786274367675566, ,0.5857839635925798, ,0.02632599334707455
72, ,PASS, ,0.12572566, ,0.012872985013259642, ,0.04333954510401828, ,0.0016441158585958557, ,1.5, ,0.5694661063370913, ,0.5817636374767862, ,0.02236689047162303
73, ,PASS, ,0.12663379000000002, ,0.013534251184059291, ,0.043820574932450354, ,0.0017424107438181627, ,1.6666666666666667, ,0.5857385059609417, ,0.5875594375624987, ,0.022591375686210485
74, ,PASS, ,0.069977110482, ,0.009194639111620544, ,0.042504709020979164, ,0.0006545284711620969, ,1.6666666666666667, ,0.6780973041197188, ,0.5954776433134018, ,0.06399869390420604
75, ,PASS, ,0.12110655000000001, ,0.012696951456652311, ,0.0434081155798249, ,0.001562124098529007, ,1.6666666666666667, ,0.5757589955182116, ,0.5864778269831228, ,0.0242444031754454
76, ,PASS, ,0.12795405, ,0.013159776695404564, ,0.043739369989734905, ,0.0017110961474267774, ,1.6666666666666667, ,0.5707324475114298, ,0.5863757882492194, ,0.022489336952307096
77, ,PASS, ,0.12368659000000001, ,0.013781635590135633, ,0.044412808784188074, ,0.0017338248188524807, ,1.6666666666666667, ,0.6044160898606848, ,0.5930899369400624, ,0.02383624823983184
78, ,PASS, ,0.07178216221200001, ,0.009900639270769413, ,0.04308106143507276, ,0.0007229807839822096, ,1.6666666666666667, ,0.7020174288799294, ,0.5966612926266811, ,0.08777371890369584
79, ,PASS, ,0.11622999999999999, ,0.01226345156321356, ,0.043708402194812354, ,0.0014476191572855932, ,1.5, ,0.5815756525879572, ,0.5876206608028408, ,0.026101508132487093
80, ,PASS, ,0.12124258, ,0.012787911452036263, ,0.04376867693106263, ,0.0015754473330275701, ,1.6666666666666667, ,0.5812297186423679, ,0.5873349523479112, ,0.02353013203812167
81, ,PASS, ,0.10393547999999998, ,0.01314042235006429, ,0.04445383308987571, ,0.0013896808141826839, ,1.75, ,0.6638634090370471, ,0.5950898961245689, ,0.0377543315442542
82, ,PASS, ,0.07954842036999998, ,0.010880142759960815, ,0.043109883180322855, ,0.0008798453177160699, ,1.6666666666666667, ,0.691074005934629, ,0.5924368890430808, ,0.08236566600681619
83, ,PASS, ,0.11787809000000002, ,0.012536510769871428, ,0.04362763543372584, ,0.001500763025104379, ,1.6666666666666667, ,0.5823749920731393, ,0.5876818840431828, ,0.026162731372829127
84, ,PASS, ,0.12231095999999998, ,0.012888032066319504, ,0.043745996089100216, ,0.0016017328281732193, ,1.6666666666666667, ,0.5789797239343515, ,0.5878043305238668, ,0.023366870063876246
85, ,PASS, ,0.10452108000000002, ,0.012737693786643186, ,0.04416160342268525, ,0.0013546111053711813, ,1.75, ,0.6436730524314229, ,0.5963347686781902, ,0.03316258851860166
86, ,PASS, ,0.09869636299999994, ,0.01151797929578742, ,0.043462485345156225, ,0.001155475229959342, ,1.6666666666666667, ,0.6201258695102738, ,0.5953756045794983, ,0.03401971388339013
87, ,PASS, ,0.12439778000000001, ,0.012870762921933477, ,0.04338136112205873, ,0.001626086729811179, ,1.5, ,0.57180491112549, ,0.5799269402665251, ,0.022428113711965063
88, ,PASS, ,0.12792441000000002, ,0.013164015886809677, ,0.043304485410501824, ,0.0017114482226352201, ,1.5833333333333333, ,0.5697815390414521, ,0.5821105691720577, ,0.02353013203812167
89, ,PASS, ,0.11825181, ,0.013336955118352607, ,0.04412637801244873, ,0.0016039926034501506, ,1.6666666666666667, ,0.6084413279944528, ,0.5938858390645089, ,0.026366808840635907
198, ,PASS, ,0.21790693999999988, ,0.03332517053526877, ,0.054777735444235816, ,0.007461656692510979, ,1.9166666666666667, ,0.89913503723781, ,0.612946674557662, ,0.062223219934287054
199, ,PASS, ,0.0947532, ,0.014367922371442242, ,0.04576131597995959, ,0.00140075032928049, ,1.9166666666666667, ,0.8965419563015734, ,0.6027836166608844, ,0.0556111099773474
200, ,PASS, ,0.10922747999999997, ,0.013100125325551635, ,0.04536760534146242, ,0.0014713032569873864, ,1.9166666666666667, ,0.8706388141555534, ,0.6080284075835187, ,0.04185628864717047
201, ,PASS, ,0.08916229999999997, ,0.01239612928717804, ,0.04470526609785515, ,0.0011358452218472013, ,1.9166666666666667, ,0.8819904496404773, ,0.6034162568110855, ,0.04075427032101386
202, ,PASS, ,0.10193659999999997, ,0.012658705118386123, ,0.04515409771825065, ,0.0013265282749622626, ,1.9166666666666667, ,0.8650293687185466, ,0.6053549927552498, ,0.037570661823228095
203, ,PASS, ,0.080368731, ,0.011437168877667915, ,0.0442408713840942, ,0.0009461144226511207, ,1.9166666666666667, ,0.8773229319543058, ,0.6014367053733597, ,0.045713352788718596
204, ,PASS, ,0.08856834000000001, ,0.011450677889836338, ,0.04434849804295831, ,0.0010419751301074453, ,1.9166666666666667, ,0.8649685841682232, ,0.6033142180771821, ,0.03767270055713149
205, ,PASS, ,0.09173061999999998, ,0.013176065138120852, ,0.04500100437044142, ,0.0012396940910767433, ,2.0, ,0.8819610651217074, ,0.6027632089141038, ,0.05381522826064774
206, ,PASS, ,0.09344077999999999, ,0.012168531586296875, ,0.04467036327428012, ,0.0011667428221131696, ,1.9166666666666667, ,0.8656724100756028, ,0.6037427807595763, ,0.03769310830391216
207, ,PASS, ,0.09923694999999998, ,0.013914788801022367, ,0.045277887938695124, ,0.0014167497684288688, ,1.9166666666666667, ,0.8808958069327482, ,0.6046611293647068, ,0.049876533131976895
208, ,PASS, ,0.07498850770000004, ,0.009749207590980769, ,0.043532474401950974, ,0.000750667700048372, ,1.9166666666666667, ,0.862515423388259, ,0.6017224138282892, ,0.0384890104283586
209, ,PASS, ,0.07018974207500002, ,0.00971496078313925, ,0.04329048260311013, ,0.0006989907807166944, ,2.0, ,0.8696787860344556, ,0.5999265321115895, ,0.04579498377584131
210, ,PASS, ,0.06653557821999999, ,0.00863503970610992, ,0.042950915123630126, ,0.0005919899727971119, ,2.0, ,0.8560266014939968, ,0.5992734842146079, ,0.03308095753147895
211, ,PASS, ,0.07296384076400005, ,0.010046851732145885, ,0.043297176873655634, ,0.0007481685105424428, ,2.0, ,0.8709190922689916, ,0.5962939531846289, ,0.04361135487030877
212, ,PASS, ,0.08556209299999999, ,0.010945940101079726, ,0.04449660404487664, ,0.0009683984598747213, ,1.9166666666666667, ,0.8665987504934843, ,0.6059672251586702, ,0.038754311136507416
213, ,PASS, ,0.09545310999999998, ,0.012898212803941668, ,0.04488741631158547, ,0.0012607479870773615, ,2.0, ,0.8762419898177172, ,0.6018652680557539, ,0.04393787881879962
214, ,PASS, ,0.09697497999999999, ,0.012566254598884722, ,0.04484528662202813, ,0.0012518054762064475, ,2.0, ,0.8685505655927946, ,0.6029876941286912, ,0.041264463990530804
215, ,PASS, ,0.11723689999999998, ,0.01615092524753368, ,0.04642804445035815, ,0.0019407683986890066, ,2.0, ,0.8840065781911451, ,0.6058039631844248, ,0.05128466765984368
216, ,PASS, ,0.09563039999999998, ,0.012180245344620071, ,0.04472572880296321, ,0.001200061265068959, ,2.0, ,0.8681638616548171, ,0.6032325870900593, ,0.03899920409787555
217, ,PASS, ,0.10123858999999996, ,0.014033252137500622, ,0.04547476303442786, ,0.001459926528130385, ,2.0, ,0.8828022393403069, ,0.6039672659741638, ,0.04963164017060876
218, ,PASS, ,0.10717626999999995, ,0.014030112128587627, ,0.045601155535009485, ,0.0015447633090564755, ,2.0, ,0.8731475116902486, ,0.6038856349870411, ,0.04146854145833759
219, ,PASS, ,0.10200034999999996, ,0.013445445738220691, ,0.0457298881388339, ,0.001421375739300884, ,1.9166666666666667, ,0.8758142774263382, ,0.6088855329483072, ,0.043672578110650805
220, ,PASS, ,0.06035738369999999, ,0.00774881098300579, ,0.042539176760678345, ,0.000482285991572699, ,2.0, ,0.851848460471054, ,0.5982122813820127, ,0.03612171180179996
221, ,PASS, ,0.06594640225099999, ,0.008877784081719298, ,0.042926406239484904, ,0.0006022997302846435, ,2.0, ,0.8625472972772008, ,0.5986408440644069, ,0.04193791963429318
222, ,PASS, ,0.05919089899999999, ,0.007541670650381081, ,0.042293077985347226, ,0.000461648203591527, ,2.0, ,0.8412397846519089, ,0.5973551560172241, ,0.02722393420542438
223, ,PASS, ,0.07619979800000003, ,0.010016426101810208, ,0.04339777155941715, ,0.0007872915366536742, ,2.0, ,0.8700626679132113, ,0.5992938919613885, ,0.04020326115793555
224, ,PASS, ,0.11593890999999999, ,0.014649252547818665, ,0.04599339620679169, ,0.0017481987991814223, ,2.0, ,0.8666938231191416, ,0.603069325115814, ,0.03783596253137691
225, ,PASS, ,0.09768655999999999, ,0.012467778176952085, ,0.04472361473953593, ,0.0012542158991744855, ,2.0, ,0.873006608481188, ,0.6026815779269811, ,0.03975429072876064
226, ,PASS, ,0.10222231999999999, ,0.012456287692068345, ,0.045037776617905756, ,0.001314163542761295, ,2.0, ,0.8630194762757829, ,0.603069325115814, ,0.034672761780371826
227, ,PASS, ,0.14090288, ,0.018899316391465967, ,0.047846742649313274, ,0.002731621156916622, ,2.0, ,0.8830066101181654, ,0.6063345646007224, ,0.047733719720005716
228, ,PASS, ,0.10312547999999996, ,0.012647308463828241, ,0.0450168094025428, ,0.001346785738616742, ,2.0, ,0.8655588278041978, ,0.602559131446297, ,0.035080916715985386
229, ,PASS, ,0.10322742999999998, ,0.013432211164261996, ,0.045344313309218176, ,0.0014289089294474827, ,2.0, ,0.8723164348105629, ,0.6010897736780882, ,0.04350931613640538
230, ,PASS, ,0.07664135900000002, ,0.009389156994788308, ,0.043181820910777324, ,0.0007422799358588723, ,2.0, ,0.8545494839443798, ,0.5972735250301014, ,0.03189730821819963
231, ,PASS, ,0.13523543000000005, ,0.017675051894278655, ,0.04745944598781657, ,0.002457492297761142, ,2.0, ,0.8781333101057807, ,0.6046407216179261, ,0.04601946899042877
232, ,PASS, ,0.09445309999999996, ,0.011593104830967866, ,0.04446320782828922, ,0.001132280858948412, ,2.0, ,0.8656443901153701, ,0.6014367053733597, ,0.031060590600191833
233, ,PASS, ,0.09045151, ,0.011368987309510796, ,0.04407401074947451, ,0.0010566436544303284, ,2.0, ,0.8694356499019854, ,0.5981102426481092, ,0.03865227240260403
234, ,PASS, ,0.09337709999999998, ,0.011613194471337318, ,0.04437082715005817, ,0.0011175483289960686, ,2.0, ,0.859746737150872, ,0.5997632701373441, ,0.03189730821819963
235, ,PASS, ,0.09680567999999998, ,0.011829019232163581, ,0.0443655746867615, ,0.0011745885042407575, ,2.0, ,0.8716665764815843, ,0.5993347074549499, ,0.039570621007734536
236, ,PASS, ,0.08151703700000003, ,0.009841066202527372, ,0.04362921733670741, ,0.0008318227763646252, ,2.0, ,0.8553336637683724, ,0.5991306299871432, ,0.03146874553580539
237, ,PASS, ,0.10543999999999998, ,0.012711912020278729, ,0.04496948196675578, ,0.0013828350624998872, ,2.0, ,0.8688303682534835, ,0.6013346666394563, ,0.039652251994857245
238, ,PASS, ,0.08932849999999999, ,0.010261800235714259, ,0.04381532707687598, ,0.0009495033600477547, ,2.0, ,0.8580642243873579, ,0.5998449011244669, ,0.033815636415583356
239, ,PASS, ,0.11165461999999998, ,0.013189422372035207, ,0.0454202086504561, ,0.0015229222447429639, ,2.0, ,0.869586285151639, ,0.6018040448154119, ,0.039488990020611826
240, ,PASS, ,0.08671071999999998, ,0.009622634052033428, ,0.04355406303455031, ,0.0008663006819364691, ,2.0, ,0.8551800007995026, ,0.5979877961674251, ,0.02873410746719455
241, ,PASS, ,0.14183842000000005, ,0.016178662592861704, ,0.04689247706967204, ,0.0023700910673496458, ,2.0, ,0.8812269119445794, ,0.6040488969612865, ,0.04112160976306606
242, ,PASS, ,0.11638933999999997, ,0.012240384893921251, ,0.04523664412838513, ,0.0014865343506330318, ,2.0, ,0.8725189535167986, ,0.6038244117466991, ,0.03208097793922573
243, ,PASS, ,0.20863651999999994, ,0.02660846243976988, ,0.05218961466245584, ,0.005729039047486706, ,2.0, ,0.8945421384999749, ,0.6089059406950879, ,0.04912144650109181
244, ,PASS, ,0.15004754000000003, ,0.016984192994196463, ,0.047463554212465044, ,0.0026303430780545293, ,2.0, ,0.8946981113497265, ,0.6053141772616886, ,0.04712148731658537
245, ,PASS, ,0.01324576799999998, ,0.00016479128113578407, ,0.038285227633109535, ,2.3213703294223583e-06, ,0.3333333333333333, ,0.19430801710715254, ,0.8886145180710597, ,0.0008979408583498296
