Channel, ,Pass/Fail, ,Amplitude, ,Sorting Function Response, ,Mean, ,Variance, ,NPeaksRatio, ,PosIntegralRatio, ,ToT50, ,ToT99
0, ,PASS, ,0.11736501999999999, ,0.018993165767646994, ,0.04528553401578579, ,0.0022497918304759347, ,1.8333333333333333, ,0.7875353542112055, ,0.5958041672618927, ,0.1642415460908961
1, ,PASS, ,0.02785924999999999, ,0.004465706153663533, ,0.03806081558845738, ,0.0001261983435344689, ,1.8333333333333333, ,0.7938644780263333, ,0.602497908205955, ,0.05577437195159282
