Channel, ,Pass/Fail, ,Amplitude, ,Sorting Function Response, ,Mean, ,Variance, ,NPeaksRatio, ,PosIntegralRatio, ,ToT50, ,ToT99
0, ,PASS, ,0.045822470700000006, ,0.005845976205030324, ,0.0258104830141242, ,0.0002716685526217031, ,1.8333333333333333, ,0.6862318427355988, ,0.4133589110426318, ,0.049835717638415544
1, ,PASS, ,0.045146793500000004, ,0.005704863900694257, ,0.025937390846082733, ,0.0002611968618122128, ,1.8333333333333333, ,0.6857813298192703, ,0.41374665823146467, ,0.054713169118997575
2, ,PASS, ,0.0450193068, ,0.005646773126199915, ,0.025962218603218304, ,0.0002576808820466686, ,1.8333333333333333, ,0.6831191039369231, ,0.4129507561070182, ,0.054774392359339605
3, ,PASS, ,0.04441676690000001, ,0.005575069898766851, ,0.026127375346611293, ,0.00025101803384633187, ,1.8333333333333333, ,0.6820568963171445, ,0.4142772596477623, ,0.056366196608232486
4, ,PASS, ,0.0441304283, ,0.005508764847588776, ,0.026115154001302016, ,0.0002465868530502497, ,1.8333333333333333, ,0.6777687165867653, ,0.4135221730168772, ,0.05695802126487214
5, ,PASS, ,0.0443067038, ,0.005505360616372833, ,0.026004818957104957, ,0.00024739197151599294, ,1.8333333333333333, ,0.6796307922510841, ,0.4133589110426318, ,0.058019224097467396
6, ,PASS, ,0.04406162240000002, ,0.005485543882924485, ,0.02622212388079631, ,0.00024513633096359997, ,1.8333333333333333, ,0.6803025581352172, ,0.41401195893961346, ,0.05979469806738638
7, ,PASS, ,0.04401934290000001, ,0.0054850827197471174, ,0.026147245432968716, ,0.0002448419624920301, ,1.8333333333333333, ,0.6786388180036934, ,0.4135221730168772, ,0.05848860227342299
8, ,PASS, ,0.04410648970000001, ,0.005474513493566525, ,0.026143340873702577, ,0.00024492804802865006, ,1.8333333333333333, ,0.6751464150532523, ,0.41395073569927143, ,0.05414175220913859
9, ,PASS, ,0.04453457350000001, ,0.005524677075134308, ,0.026082048631609556, ,0.0002494925437818008, ,1.8333333333333333, ,0.680105308073513, ,0.4153996857206996, ,0.06038652272402604
10, ,PASS, ,0.04430737970000001, ,0.005535177175401168, ,0.026001308302614233, ,0.000248788573109856, ,1.8333333333333333, ,0.6807551772074661, ,0.4138282892185874, ,0.0568151670374074
11, ,PASS, ,0.04452807960000002, ,0.005574926343703785, ,0.026020086859000837, ,0.0002515920340610578, ,1.8333333333333333, ,0.6799115485449281, ,0.4141548131670782, ,0.055141731801391806
12, ,PASS, ,0.0446879048, ,0.005542966006886322, ,0.02607079152634232, ,0.0002511915505813512, ,1.8333333333333333, ,0.678037695209296, ,0.41395073569927143, ,0.05281524866839452
13, ,PASS, ,0.04500769320000001, ,0.0055803549374572525, ,0.025916080306720272, ,0.00025459369631784676, ,1.8333333333333333, ,0.6779177901907153, ,0.41293034836023756, ,0.05418256770269995
14, ,PASS, ,0.04491945350000002, ,0.00564365196856286, ,0.026228490907301893, ,0.00025696571036869323, ,1.8333333333333333, ,0.6823690956649847, ,0.4138282892185874, ,0.053407073325034186
15, ,PASS, ,0.04499318880000003, ,0.005624776174529824, ,0.025939090184543174, ,0.00025669929816448224, ,1.8333333333333333, ,0.6819359175540068, ,0.413726250484684, ,0.05840697128630028
16, ,PASS, ,0.044633917, ,0.005589687213041617, ,0.025990817716346606, ,0.0002529014429806909, ,1.8333333333333333, ,0.6800733159197565, ,0.4109099814289504, ,0.055202955041733844
17, ,PASS, ,0.04513948970000001, ,0.005638022783774922, ,0.026075339770590397, ,0.00025830986030173764, ,1.8333333333333333, ,0.6802031080578202, ,0.41366502724434195, ,0.05338666557825351
18, ,PASS, ,0.04493874820000001, ,0.005635487388105747, ,0.026156692644768473, ,0.00025676660222629874, ,1.8333333333333333, ,0.6809983039401953, ,0.4141752209138589, ,0.054345829676945366
19, ,PASS, ,0.044963244700000016, ,0.005639966285969266, ,0.02605882461279974, ,0.0002570597610769707, ,1.8333333333333333, ,0.680401414619948, ,0.41395073569927143, ,0.053488704312156896
20, ,PASS, ,0.04500998390000002, ,0.005602080821262266, ,0.02595304599444501, ,0.00025581629663614037, ,1.8333333333333333, ,0.6794425410113389, ,0.4135221730168772, ,0.0562641578743291
21, ,PASS, ,0.04482857710000001, ,0.005592395040235941, ,0.026040663183706455, ,0.0002542573220465584, ,1.8333333333333333, ,0.6793408745782314, ,0.41366502724434195, ,0.05779473888287994
22, ,PASS, ,0.04493657919999999, ,0.005603989597299821, ,0.026109001512289544, ,0.00025559163578610627, ,1.8333333333333333, ,0.6785520027411488, ,0.4174200526519867, ,0.05875390298157181
23, ,PASS, ,0.04507614300000001, ,0.005584269989095078, ,0.02618425244876431, ,0.0002552129221444437, ,1.8333333333333333, ,0.679509044241359, ,0.4146445990898145, ,0.05834574804595825
24, ,PASS, ,0.0451399073, ,0.005615946123260449, ,0.026128613639846126, ,0.0002568263294078283, ,1.8333333333333333, ,0.6795529129709095, ,0.4150935695189894, ,0.05738658394726638
25, ,PASS, ,0.045011549600000006, ,0.005606599376283116, ,0.025831581707138628, ,0.00025602866651241746, ,1.8333333333333333, ,0.6805845662241212, ,0.413726250484684, ,0.05812126283137079
26, ,PASS, ,0.045056907699999996, ,0.005641216477462722, ,0.026224239985996205, ,0.0002577783856045478, ,1.8333333333333333, ,0.6812548180833742, ,0.4135017652700965, ,0.056427419848574516
27, ,PASS, ,0.04527300740000001, ,0.005640730824641307, ,0.026043767317062917, ,0.0002588791139626326, ,1.8333333333333333, ,0.6801722301120972, ,0.41446092936878837, ,0.05287647190873656
28, ,PASS, ,0.045367667099999995, ,0.0056477271303426455, ,0.02590030863168915, ,0.000259925474889241, ,1.8333333333333333, ,0.6786104040298696, ,0.41229770821003653, ,0.05920287341074672
29, ,PASS, ,0.04532849260000001, ,0.005634045456019482, ,0.025805366368614926, ,0.00025908510232602584, ,1.8333333333333333, ,0.6805372978938964, ,0.4141548131670782, ,0.05512132405461113
30, ,PASS, ,0.04524552380000001, ,0.005642390438775918, ,0.02598560720044489, ,0.00025887664855220175, ,1.8333333333333333, ,0.6788086923098244, ,0.41376706597824536, ,0.053529519805718254
31, ,PASS, ,0.04507242440000001, ,0.005666527618787258, ,0.025969396107177408, ,0.0002590610627609318, ,1.8333333333333333, ,0.6826763678335885, ,0.41348135752331583, ,0.05665190506316198
32, ,PASS, ,0.044815532700000014, ,0.0055863048891863455, ,0.02608964199510622, ,0.00025386593907281087, ,1.8333333333333333, ,0.6778986974645144, ,0.4137058427379033, ,0.055896818432276896
33, ,PASS, ,0.045030306099999994, ,0.005588488488371395, ,0.02606367746964552, ,0.00025528362958794626, ,1.8333333333333333, ,0.6791245487184354, ,0.4143792983816657, ,0.058366155792738926
34, ,PASS, ,0.04566174790000001, ,0.005731417351482086, ,0.025958958786063552, ,0.0002653264532114458, ,1.8333333333333333, ,0.6812347223424521, ,0.4142568519009816, ,0.05785596212322198
35, ,PASS, ,0.04494439190000001, ,0.005570166595371135, ,0.02607775118164119, ,0.00025402803734993874, ,1.8333333333333333, ,0.6768550407660378, ,0.4134201342829738, ,0.0540397134752352
36, ,PASS, ,0.04504025240000001, ,0.005585031482880853, ,0.02589948991723026, ,0.00025510159566385855, ,1.8333333333333333, ,0.6798831879165635, ,0.4105018264933369, ,0.05954980510601825
37, ,PASS, ,0.04511126530000001, ,0.00561219334893615, ,0.02597621920618967, ,0.000256755217408858, ,1.8333333333333333, ,0.6799257670409504, ,0.4112160976306606, ,0.058080447337809434
38, ,PASS, ,0.045054757300000005, ,0.005600467912879001, ,0.026068959694218484, ,0.00025604722856531107, ,1.8333333333333333, ,0.6803870613852221, ,0.4138282892185874, ,0.05538662476275994
39, ,PASS, ,0.044568005699999996, ,0.005526574486416012, ,0.02612906854278076, ,0.0002499491855766762, ,1.8333333333333333, ,0.6793435165522157, ,0.41366502724434195, ,0.06001918328197384
40, ,PASS, ,0.04514578040000001, ,0.005536874513781518, ,0.02588613796825371, ,0.0002535476055403779, ,1.8333333333333333, ,0.6762448007064293, ,0.4146650068365952, ,0.05754984592151181
41, ,PASS, ,0.04509607330000001, ,0.005613285244784221, ,0.026057856951549968, ,0.00025677828422562214, ,1.8333333333333333, ,0.6802152132010205, ,0.4164812963000755, ,0.05785596212322198
42, ,PASS, ,0.0456106347, ,0.005684448332281284, ,0.025734954826099467, ,0.00026292415454303033, ,1.8333333333333333, ,0.6802464476325609, ,0.41356298851043855, ,0.05632538111467113
43, ,PASS, ,0.0454075863, ,0.00563167919863846, ,0.025747541046086817, ,0.00025946568834080727, ,1.8333333333333333, ,0.6788149748974573, ,0.41154262157915145, ,0.056794759290626724
44, ,PASS, ,0.045363485600000024, ,0.005624493971773712, ,0.025823099541727724, ,0.0002587886901657171, ,1.8333333333333333, ,0.6785431167621154, ,0.41393032795249074, ,0.05789677761678333
45, ,PASS, ,0.0457078655, ,0.005672405103403063, ,0.02588100561161609, ,0.00026286430486046724, ,1.8333333333333333, ,0.6776747642680707, ,0.4138691047121487, ,0.055958041672618926
46, ,PASS, ,0.04579376450000002, ,0.0056988126847370224, ,0.025921697962704843, ,0.0002647288985113443, ,1.8333333333333333, ,0.680621904856823, ,0.41364461949756126, ,0.05546825574988266
47, ,PASS, ,0.0458776838, ,0.005695565315076206, ,0.025807081593322588, ,0.0002650414905826099, ,1.8333333333333333, ,0.6762606675655942, ,0.41413440542029756, ,0.052713209934491134
48, ,PASS, ,0.0455809618, ,0.005630875282069936, ,0.02591037238920022, ,0.000260473899112475, ,1.8333333333333333, ,0.6799583105160244, ,0.41395073569927143, ,0.06326401502010164
49, ,PASS, ,0.04542631810000002, ,0.00565054813433767, ,0.02582569330099182, ,0.000260257512015376, ,1.8333333333333333, ,0.6781528241157742, ,0.41348135752331583, ,0.05750903042795045
50, ,PASS, ,0.04527805200000002, ,0.005629964124249532, ,0.02580276257925553, ,0.0002585772380064923, ,1.8333333333333333, ,0.6791715143422883, ,0.41311401808126363, ,0.05901920368972062
51, ,PASS, ,0.04526279930000001, ,0.00561385344127185, ,0.02593079283274015, ,0.00025788994857553406, ,1.8333333333333333, ,0.6777809723795066, ,0.4175016836391094, ,0.05910083467684333
52, ,PASS, ,0.0454772482, ,0.005567605669507486, ,0.025945269166453743, ,0.0002568456745327709, ,1.8333333333333333, ,0.6736311309314404, ,0.41405277443317484, ,0.05742739944082774
53, ,PASS, ,0.04529894320000001, ,0.00556492882392795, ,0.025887418243031774, ,0.000255775611546759, ,1.8333333333333333, ,0.6748970288587237, ,0.4136242117507806, ,0.05744780718760842
54, ,PASS, ,0.04532868250000001, ,0.005598339613605613, ,0.02590158812964225, ,0.000257307104238097, ,1.8333333333333333, ,0.6755290255239441, ,0.41376706597824536, ,0.05697842901165282
55, ,PASS, ,0.04518573260000001, ,0.005571680388277502, ,0.025918341365196627, ,0.0002554938363224951, ,1.8333333333333333, ,0.6743422448438733, ,0.4130119793473603, ,0.0568151670374074
56, ,PASS, ,0.04533053040000001, ,0.0055646019962929194, ,0.02593495657091896, ,0.00025608128651111, ,1.8333333333333333, ,0.6761312919975018, ,0.4133385032958511, ,0.060835493153200956
57, ,PASS, ,0.045569959800000004, ,0.005608828412645274, ,0.025989441357672293, ,0.0002593790643939466, ,1.8333333333333333, ,0.6765757282913697, ,0.4135425807636579, ,0.057651884655415195
58, ,PASS, ,0.04570924950000001, ,0.005635283077402834, ,0.025769898624146446, ,0.00026124985034250894, ,1.8333333333333333, ,0.6736461435696308, ,0.413726250484684, ,0.049876533131976895
59, ,PASS, ,0.0455602053, ,0.005619419489077508, ,0.025919133942472604, ,0.00025960232311593434, ,1.8333333333333333, ,0.6771595613751721, ,0.4141956286606396, ,0.0616313952776474
60, ,PASS, ,0.04594877750000002, ,0.0056785805515876635, ,0.02586197405044795, ,0.00026475128199269664, ,1.8333333333333333, ,0.6765715433620888, ,0.4134405420297545, ,0.05989673680128977
61, ,PASS, ,0.046298403999999994, ,0.005717835070927346, ,0.02588309970573662, ,0.00026859682041155696, ,1.8333333333333333, ,0.677513371826869, ,0.41366502724434195, ,0.05910083467684333
62, ,PASS, ,0.04615951580000001, ,0.005708390281678965, ,0.025726478690547134, ,0.00026723180137728576, ,1.8333333333333333, ,0.6783100786054654, ,0.4142160364074203, ,0.06081508540642028
63, ,PASS, ,0.04653245800000001, ,0.0057269447603547135, ,0.025950325499475523, ,0.00027032710585643115, ,1.8333333333333333, ,0.6754648949849397, ,0.41401195893961346, ,0.05657027407603926
64, ,PASS, ,0.04643855720000002, ,0.005727737952861514, ,0.02598997225339075, ,0.0002698729139654022, ,1.8333333333333333, ,0.6733609293185415, ,0.41364461949756126, ,0.05779473888287994
65, ,PASS, ,0.046756968400000015, ,0.005755041527086331, ,0.026031193128042286, ,0.0002730506114497821, ,1.8333333333333333, ,0.6759170749436104, ,0.41366502724434195, ,0.05706005999877554
66, ,PASS, ,0.04638752580000001, ,0.0057345029875384155, ,0.02585396964941532, ,0.00026982888529676364, ,1.8333333333333333, ,0.6758030297509225, ,0.41321605681516704, ,0.05946817411889553
67, ,PASS, ,0.046653211900000005, ,0.005717304144135434, ,0.025824879863425236, ,0.0002705587496029192, ,1.8333333333333333, ,0.6748449292300288, ,0.41413440542029756, ,0.05993755229485113
68, ,PASS, ,0.046135546400000005, ,0.005705246570749501, ,0.025889076353302995, ,0.00026686653488944, ,1.8333333333333333, ,0.6780421259745166, ,0.4141956286606396, ,0.06248852064243587
69, ,PASS, ,0.006051687999999996, ,0.00012669521141447335, ,0.028466684516152734, ,8.284033087546437e-07, ,0.4166666666666667, ,0.24966746794356548, ,0.5941103242790964, ,0.00626517826166813
70, ,PASS, ,0.0463616418, ,0.005692466172942083, ,0.025649915637060466, ,0.00026787060398300003, ,1.8333333333333333, ,0.6782968668087066, ,0.4141752209138589, ,0.061651803024428076
71, ,PASS, ,0.04679850770000001, ,0.005714004863124243, ,0.025878144802204038, ,0.00027153978598845385, ,1.8333333333333333, ,0.6736510933623051, ,0.4160323258709006, ,0.057733515642537904
72, ,PASS, ,0.047017141199999994, ,0.005741773236211086, ,0.02586556808854105, ,0.0002739118227835963, ,1.8333333333333333, ,0.6739809358145791, ,0.41360380400399993, ,0.05918246566396604
73, ,PASS, ,0.04706200980000001, ,0.005775668154469811, ,0.025972251273618907, ,0.0002757286646702463, ,1.8333333333333333, ,0.6770002312990913, ,0.4142772596477623, ,0.06038652272402604
74, ,PASS, ,0.04687137749999999, ,0.005763387289320272, ,0.02584708624773372, ,0.0002741805294559626, ,1.8333333333333333, ,0.6767317125758476, ,0.41329768780228976, ,0.060508969204710106
75, ,PASS, ,0.047313234, ,0.005766040251512009, ,0.02582377036424359, ,0.000276798810744178, ,1.8333333333333333, ,0.6730695380453633, ,0.41495071529152466, ,0.0562641578743291
76, ,PASS, ,0.0476482251, ,0.005760927961160363, ,0.02605591386570274, ,0.00027848416045387443, ,1.75, ,0.6701996030622251, ,0.41403236668639415, ,0.06283545233770739
77, ,PASS, ,0.04995159999999998, ,0.009215510185805603, ,0.024459446810222236, ,0.0004691324484554896, ,1.8333333333333333, ,0.842710124171018, ,0.41348135752331583, ,0.2034040121630171
78, ,PASS, ,0.04995159999999998, ,0.010865838054981758, ,0.0240880362176282, ,0.0005553329922671622, ,1.9166666666666667, ,0.9290991751892531, ,0.413726250484684, ,0.3454215220097549
79, ,PASS, ,0.04563877760000001, ,0.005340842644243017, ,0.026107863751258138, ,0.0002477068872588293, ,1.8333333333333333, ,0.6571925370179695, ,0.4138078814718067, ,0.06185588049223485
80, ,PASS, ,0.044422340100000006, ,0.0052082595487953865, ,0.026050872344629702, ,0.0002352226910384434, ,1.8333333333333333, ,0.6574218163673714, ,0.41327728005550907, ,0.0630191220587335
81, ,PASS, ,0.04457006680000001, ,0.005235746191412772, ,0.026258806853737677, ,0.00023723575698928292, ,1.75, ,0.6587056034288865, ,0.41317524132160566, ,0.06226403542784841
82, ,PASS, ,0.0446729804, ,0.005309970253437621, ,0.026333616159151852, ,0.00024098720663073213, ,1.8333333333333333, ,0.6637416752477475, ,0.41360380400399993, ,0.06779453480541213
83, ,PASS, ,0.044937144899999996, ,0.00529955906841062, ,0.026202648465810902, ,0.0002419795429647957, ,1.8333333333333333, ,0.6628163682301478, ,0.41403236668639415, ,0.06475378053509112
84, ,PASS, ,0.04501052530000001, ,0.005295964252135447, ,0.026062501009705925, ,0.00024232745374726632, ,1.75, ,0.6614457603157222, ,0.4133385032958511, ,0.06408032489132875
85, ,PASS, ,0.0449111819, ,0.005324484016008239, ,0.02639123268434522, ,0.00024286674722542626, ,1.8333333333333333, ,0.6626098875444245, ,0.4133997265361931, ,0.06277422909736537
86, ,PASS, ,0.04489155880000002, ,0.005299493380178334, ,0.026071917675380096, ,0.0002417157833806369, ,1.8333333333333333, ,0.6623639027175198, ,0.41395073569927143, ,0.0671823024019918
87, ,PASS, ,0.04460560370000001, ,0.005355338537864065, ,0.026266060455896818, ,0.00024263320890643958, ,1.8333333333333333, ,0.6650998160476376, ,0.4165833350339789, ,0.06777412705863145
88, ,PASS, ,0.044684091200000005, ,0.0052332390510347266, ,0.02615031767318014, ,0.000237614140231117, ,1.8333333333333333, ,0.6592090877624189, ,0.41368543499112265, ,0.06426399461235485
89, ,PASS, ,0.04477577699999999, ,0.005203546557044922, ,0.026231309164490523, ,0.0002369549917144982, ,1.8333333333333333, ,0.6569641696935253, ,0.4138282892185874, ,0.06395787841064468
90, ,PASS, ,0.04419646230000001, ,0.0051694439542314475, ,0.02612351375038673, ,0.0002323144072918266, ,1.75, ,0.658843766557878, ,0.4134201342829738, ,0.06744760311014061
91, ,PASS, ,0.04419826259999999, ,0.005133482965451814, ,0.026103615330287138, ,0.0002305575130809374, ,1.75, ,0.6579346969826481, ,0.411318136364564, ,0.06840676720883247
92, ,PASS, ,0.04413651850000001, ,0.005111547611607938, ,0.02631119895521724, ,0.0002294049475090211, ,1.8333333333333333, ,0.6547422056606415, ,0.41374665823146467, ,0.06538642068529214
93, ,PASS, ,0.04424254379999999, ,0.005143749366773848, ,0.026314605684116654, ,0.0002312683174065788, ,1.8333333333333333, ,0.6561485484454438, ,0.413787473725026, ,0.06793738903287688
94, ,PASS, ,0.04436970789999999, ,0.005160087632444018, ,0.026175883186612518, ,0.00023279227626674614, ,1.75, ,0.6549828432737547, ,0.4133997265361931, ,0.06450888757372299
95, ,PASS, ,0.0444626483, ,0.005178501681436109, ,0.026272264870592435, ,0.00023394049573882914, ,1.8333333333333333, ,0.6556965764147953, ,0.41395073569927143, ,0.06638640027754536
96, ,PASS, ,0.0443510917, ,0.005179548568942278, ,0.026250279005463156, ,0.00023337830013769474, ,1.8333333333333333, ,0.6571629907620186, ,0.4141548131670782, ,0.06542723617885349
97, ,PASS, ,0.044497384, ,0.005179327080404663, ,0.02619238112839942, ,0.0002343282739377325, ,1.8333333333333333, ,0.6564607506372246, ,0.4136242117507806, ,0.06328442276688231
98, ,PASS, ,0.0443357953, ,0.0052227640998809685, ,0.026323678565108873, ,0.00023540458442528555, ,1.75, ,0.6630481299551534, ,0.4145629681026918, ,0.0706924348482684
99, ,PASS, ,0.044343424900000004, ,0.005210650533363393, ,0.026271302646627623, ,0.00023492078775806964, ,1.75, ,0.6603754016155083, ,0.4134609497765352, ,0.06910063059937552
100, ,PASS, ,0.044048451200000005, ,0.005133860396355629, ,0.02618039964682966, ,0.00022983278303814714, ,1.75, ,0.6566771216301814, ,0.4118283300340809, ,0.06836595171527111
101, ,PASS, ,0.04428327060000003, ,0.0051776805656413355, ,0.026180099628336156, ,0.0002329579935188145, ,1.8333333333333333, ,0.6582416297679401, ,0.41403236668639415, ,0.06787616579253485
102, ,PASS, ,0.0444930038, ,0.005172062373076427, ,0.026315532542625662, ,0.00023394919445384607, ,1.75, ,0.6564783031902119, ,0.4133589110426318, ,0.06336605375400502
103, ,PASS, ,0.0442522168, ,0.005158638807987169, ,0.026028491533409522, ,0.00023193429450978819, ,1.8333333333333333, ,0.6589143944228096, ,0.4141752209138589, ,0.0707944735821718
104, ,PASS, ,0.044562312400000005, ,0.005158736786727244, ,0.026170379455613152, ,0.00023360022984100337, ,1.8333333333333333, ,0.6535879461917007, ,0.4139099202057101, ,0.06554968265953756
105, ,PASS, ,0.0446116138, ,0.005226832390340121, ,0.02631061721661599, ,0.0002370747675654516, ,1.75, ,0.660021646829394, ,0.4136242117507806, ,0.06161098753086672
106, ,PASS, ,0.0448653776, ,0.00524109980766565, ,0.02614706995489888, ,0.000239069383586767, ,1.75, ,0.6604079263343929, ,0.41348135752331583, ,0.0695904165221118
107, ,PASS, ,0.044640807899999996, ,0.005174528138611601, ,0.02625671878465746, ,0.00023479584651041097, ,1.8333333333333333, ,0.6545539719382644, ,0.41446092936878837, ,0.0655088671659762
108, ,PASS, ,0.04432517269999999, ,0.005150407593154981, ,0.026269645064392565, ,0.00023213744582299613, ,1.75, ,0.6543188017447119, ,0.4133793187894125, ,0.0670802636680884
109, ,PASS, ,0.044692437500000015, ,0.005205745125562387, ,0.026286502126521907, ,0.000236519916816841, ,1.75, ,0.6555943853647993, ,0.4134405420297545, ,0.063937470663864
110, ,PASS, ,0.04505584800000001, ,0.005234618572402559, ,0.02628191300281219, ,0.0002396393907382056, ,1.8333333333333333, ,0.6568372707652858, ,0.4138895124589294, ,0.06248852064243587
111, ,PASS, ,0.0448206937, ,0.005313407167671811, ,0.026117802847933715, ,0.00024198752873282427, ,1.75, ,0.660271460233468, ,0.4114201750984674, ,0.06605987632905451
112, ,PASS, ,0.04500685650000001, ,0.005244197897576506, ,0.026201559346723535, ,0.00023975796018305796, ,1.8333333333333333, ,0.6540369392540035, ,0.41364461949756126, ,0.06242729740209384
113, ,PASS, ,0.04514451470000001, ,0.005292414547391921, ,0.02612708408205547, ,0.00024280812737276876, ,1.75, ,0.65941359892624, ,0.41358339625721924, ,0.06699863268096569
114, ,PASS, ,0.04536964910000001, ,0.005342121220193456, ,0.0260888359983633, ,0.00024628316414664075, ,1.75, ,0.6619790900565237, ,0.413787473725026, ,0.06432521785269689
115, ,PASS, ,0.04499705360000002, ,0.005284246746212744, ,0.026059961229415726, ,0.00024149723414586767, ,1.8333333333333333, ,0.6602366425935475, ,0.41407318217995553, ,0.071161813024224
116, ,PASS, ,0.044837057900000005, ,0.005179920675549724, ,0.026069947742664433, ,0.00023603376918431807, ,1.8333333333333333, ,0.6531055729847861, ,0.41395073569927143, ,0.06224362768106773
117, ,PASS, ,0.0444519375, ,0.005169454001077352, ,0.02594639690386727, ,0.00023345123396522932, ,1.75, ,0.6584897807603455, ,0.4112773208710026, ,0.0656925368870023
118, ,PASS, ,0.0448403818, ,0.005189684828369526, ,0.02613206429022877, ,0.00023645276294585, ,1.8333333333333333, ,0.6577578586381819, ,0.4142568519009816, ,0.07024346441909349
119, ,PASS, ,0.044802965500000014, ,0.005180290821674742, ,0.026335218914113997, ,0.00023593667923331067, ,1.75, ,0.654783555365825, ,0.413154833574825, ,0.06763127283116671
120, ,PASS, ,0.04453066370000001, ,0.005151990976941945, ,0.026141114660796716, ,0.0002331435608016396, ,1.8333333333333333, ,0.6555481623195472, ,0.41364461949756126, ,0.06763127283116671
121, ,PASS, ,0.04461618900000001, ,0.005153921503456271, ,0.026226819738597168, ,0.00023367351884320256, ,1.8333333333333333, ,0.6540174750944516, ,0.41444052162200773, ,0.06732515662945654
122, ,PASS, ,0.044125937399999995, ,0.005143477270221922, ,0.02630840762847901, ,0.00023059182982649088, ,1.8333333333333333, ,0.6532331609878985, ,0.41356298851043855, ,0.0638354319299606
123, ,PASS, ,0.0444434714, ,0.005168429110209663, ,0.026298128711152835, ,0.0002336362847504289, ,1.8333333333333333, ,0.6579743187534424, ,0.41744046039876737, ,0.06648843901144874
124, ,PASS, ,0.044151932399999996, ,0.005067096568045607, ,0.026231150446243957, ,0.00022760623354016983, ,1.75, ,0.652127700643954, ,0.41331809554907045, ,0.06450888757372299
125, ,PASS, ,0.04426949880000001, ,0.005153101113828714, ,0.02630512131043652, ,0.0002318646352941146, ,1.75, ,0.6545325802469861, ,0.41329768780228976, ,0.06334564600722434
126, ,PASS, ,0.04442257529999999, ,0.005198731708398836, ,0.026126334490014492, ,0.00023473425462511625, ,1.8333333333333333, ,0.6565149702275492, ,0.41578743290953246, ,0.06734556437623722
127, ,PASS, ,0.04484699180000003, ,0.0052260055981466855, ,0.026368497527499438, ,0.00023820087696125323, ,1.75, ,0.6556072895470398, ,0.4133589110426318, ,0.06669251647925553
128, ,PASS, ,0.04464081010000001, ,0.005175493774637141, ,0.026405759564647663, ,0.0002349537414858853, ,1.75, ,0.6546055574160009, ,0.4132568723087284, ,0.06505989673680129
129, ,PASS, ,0.04499864500000002, ,0.0052249844432632675, ,0.026274228030415705, ,0.00023901677100429146, ,1.8333333333333333, ,0.6554927046871435, ,0.41358339625721924, ,0.06379461643639926
130, ,PASS, ,0.0454596591, ,0.005290249882708648, ,0.026427720769131243, ,0.00024450401624349753, ,1.8333333333333333, ,0.654957197849189, ,0.4150527540254281, ,0.06497826574967858
131, ,PASS, ,0.045229902, ,0.005276591478180376, ,0.02640477290844881, ,0.000242627836056157, ,1.75, ,0.6572877952191458, ,0.4133997265361931, ,0.06273341360380401
132, ,PASS, ,0.045073993000000014, ,0.005272098532842756, ,0.026213388557039655, ,0.00024149626057132827, ,1.75, ,0.6561480376962017, ,0.41144058284524804, ,0.06795779677965756
133, ,PASS, ,0.04518360020000001, ,0.0052447298576620135, ,0.026498072968245544, ,0.00024094136054836322, ,1.8333333333333333, ,0.6535409990248471, ,0.416828227995347, ,0.06230485092140977
134, ,PASS, ,0.04525390240000001, ,0.005253004360124119, ,0.02639745875792127, ,0.00024171719642446016, ,1.8333333333333333, ,0.6559564519500425, ,0.41364461949756126, ,0.06620273055651925
135, ,PASS, ,0.0453786094, ,0.0052489900668476475, ,0.02647252845924573, ,0.00024194916985562374, ,1.8333333333333333, ,0.65401779996888, ,0.4136242117507806, ,0.06395787841064468
136, ,PASS, ,0.04556113220000001, ,0.005259058724851962, ,0.026192237485883965, ,0.0002434786870929116, ,1.75, ,0.6502518176543983, ,0.41109365114997654, ,0.05985592130772841
137, ,PASS, ,0.045367138900000006, ,0.005255275360203714, ,0.026573802067082306, ,0.0002424449043924107, ,1.75, ,0.6557007522567856, ,0.4138078814718067, ,0.06744760311014061
138, ,PASS, ,0.04526722579999999, ,0.005181371311092109, ,0.02647638962878717, ,0.00023859512761371541, ,1.75, ,0.6510363368179654, ,0.4133997265361931, ,0.0595906205995796
139, ,PASS, ,0.045221645800000015, ,0.005196947064588988, ,0.026302390334807454, ,0.00023885110852657707, ,1.8333333333333333, ,0.6509639333474463, ,0.41319564906838635, ,0.06240688965531316
140, ,PASS, ,0.04617141680000002, ,0.005288076549950656, ,0.026362835455400913, ,0.0002483704073128344, ,1.8333333333333333, ,0.6488511234067509, ,0.413726250484684, ,0.06332523826044366
141, ,PASS, ,0.04995159999999998, ,0.008371886527257079, ,0.02481462021334258, ,0.0004255749646203506, ,1.8333333333333333, ,0.8047098785051915, ,0.41244056243750127, ,0.17489438991040998
142, ,PASS, ,0.04995159999999998, ,0.01099425843253083, ,0.024090666049672447, ,0.0005616278082233795, ,2.0, ,0.9382412331654035, ,0.41368543499112265, ,0.35350298973490335
143, ,PASS, ,0.0429687594, ,0.004872319664259878, ,0.02671405219355319, ,0.00021279149674258483, ,1.8333333333333333, ,0.6466943628608327, ,0.41403236668639415, ,0.06373339319605723
144, ,PASS, ,0.04005167839999999, ,0.004515637599418508, ,0.02699329062592396, ,0.00018395249058364156, ,1.75, ,0.6430392808671753, ,0.41321605681516704, ,0.061815064998673494
145, ,PASS, ,0.040342281800000004, ,0.004547433880250154, ,0.026745487734978878, ,0.00018670209619173005, ,1.75, ,0.6457731415375453, ,0.413154833574825, ,0.06401910165098672
146, ,PASS, ,0.04051115730000002, ,0.00458025614798412, ,0.026733152228383093, ,0.00018878775281930493, ,1.75, ,0.6465567832474194, ,0.4130323870941409, ,0.06152935654374401
147, ,PASS, ,0.040624574400000016, ,0.004589067585129521, ,0.026788680240325706, ,0.0001895608880959335, ,1.75, ,0.6446502950652643, ,0.413787473725026, ,0.0632027917797596
148, ,PASS, ,0.040144150100000005, ,0.004527776726930928, ,0.02685464076904553, ,0.0001847559192048919, ,1.75, ,0.6442836693634312, ,0.4138282892185874, ,0.06191710373257689
149, ,PASS, ,0.0401546423, ,0.004518607035586, ,0.026855479011963022, ,0.00018448260919656591, ,1.75, ,0.6432640116462617, ,0.414297667394543, ,0.0640395093977674
150, ,PASS, ,0.040060337600000016, ,0.004531498184126074, ,0.026685527296193955, ,0.00018469762226531718, ,1.75, ,0.6465783502508523, ,0.413154833574825, ,0.0653251974449501
151, ,PASS, ,0.0402366809, ,0.004521081417500028, ,0.02685218501558948, ,0.00018499373847085304, ,1.6666666666666667, ,0.6446495969248488, ,0.41366502724434195, ,0.06195791922613824
152, ,PASS, ,0.0401397882, ,0.004478995316467232, ,0.02685793446139467, ,0.00018284216949292906, ,1.6666666666666667, ,0.6417999689473707, ,0.41209363074222977, ,0.06234566641497112
153, ,PASS, ,0.04007270040000001, ,0.004492150723904232, ,0.02673420163223812, ,0.00018299790256099077, ,1.6666666666666667, ,0.6398068774287722, ,0.41290994061345687, ,0.06803942776678026
154, ,PASS, ,0.039899928599999995, ,0.004423985248567513, ,0.026847269640919574, ,0.00017966208236002549, ,1.75, ,0.6419363947463345, ,0.41321605681516704, ,0.06342727699434705
155, ,PASS, ,0.039887345899999996, ,0.0044755103146243164, ,0.026802071473529115, ,0.00018163727534035282, ,1.6666666666666667, ,0.6419585006438867, ,0.41274667863921144, ,0.05989673680128977
156, ,PASS, ,0.0400775811, ,0.004423478244337685, ,0.02695921035497847, ,0.0001804510393503903, ,1.6666666666666667, ,0.6374643383249828, ,0.413787473725026, ,0.05661108956960062
157, ,PASS, ,0.040112433399999974, ,0.004464934364760622, ,0.0269851396332932, ,0.00018204684626775975, ,1.6666666666666667, ,0.6345598770011421, ,0.4126242321585274, ,0.05785596212322198
158, ,PASS, ,0.03991128240000001, ,0.004440063513144755, ,0.02685672092531581, ,0.00018018814642758207, ,1.6666666666666667, ,0.63852179133763, ,0.4139099202057101, ,0.0641211403848901
159, ,PASS, ,0.0399351852, ,0.004475601554147309, ,0.027117168087296178, ,0.00018182226443582138, ,1.6666666666666667, ,0.6400369751356245, ,0.4132568723087284, ,0.06242729740209384
160, ,PASS, ,0.03965565880000001, ,0.004425058728020457, ,0.026967847721740375, ,0.0001785175527451283, ,1.6666666666666667, ,0.6387742025488813, ,0.4139915511928328, ,0.059223281157527397
161, ,PASS, ,0.04025842760000002, ,0.004490295294449933, ,0.026843877121458748, ,0.00018394654225725826, ,1.6666666666666667, ,0.638564376358147, ,0.4158690638966552, ,0.06169261851798943
162, ,PASS, ,0.03989420249999999, ,0.004499770350448246, ,0.026953625188292075, ,0.00018257382861460787, ,1.75, ,0.641876508040849, ,0.4133385032958511, ,0.06720271014877248
163, ,PASS, ,0.039795169799999995, ,0.004474335146073307, ,0.026862833201824452, ,0.0001809814669159727, ,1.75, ,0.6421609210065519, ,0.4138895124589294, ,0.06618232280973858
164, ,PASS, ,0.040226823799999985, ,0.004492592036591263, ,0.027002886089194097, ,0.00018383032854802988, ,1.6666666666666667, ,0.6402867768703399, ,0.4129507561070182, ,0.05822330156527418
165, ,PASS, ,0.04005326020000001, ,0.004485847542003232, ,0.02673287853440338, ,0.0001826508524960385, ,1.75, ,0.6430704691509572, ,0.4141752209138589, ,0.06691700169384299
166, ,PASS, ,0.03981492670000001, ,0.004517195519240371, ,0.0268346416226077, ,0.0001827477814265365, ,1.75, ,0.6470383583035691, ,0.412522193424624, ,0.07210056937613518
167, ,PASS, ,0.0399459391, ,0.004491180031094395, ,0.026767757758111056, ,0.00018238735541750557, ,1.75, ,0.642545536357883, ,0.41374665823146467, ,0.06038652272402604
168, ,PASS, ,0.040017934899999996, ,0.00447899380016332, ,0.02697670961602008, ,0.00018237827197136434, ,1.6666666666666667, ,0.6413676952951393, ,0.4132568723087284, ,0.061733434011550785
169, ,PASS, ,0.0397676451, ,0.004457675742715915, ,0.027011073734042164, ,0.00018029246085546759, ,1.6666666666666667, ,0.6401425060538913, ,0.4134609497765352, ,0.06167221077120875
170, ,PASS, ,0.03964852350000001, ,0.00447139154213223, ,0.027001713027389237, ,0.0001802472465790671, ,1.6666666666666667, ,0.6443627837435937, ,0.4121752617293525, ,0.06324360727332096
171, ,PASS, ,0.040027794800000016, ,0.004517075218431107, ,0.02697188907289239, ,0.0001838876301041184, ,1.6666666666666667, ,0.6444585987494547, ,0.4130732025877023, ,0.061651803024428076
172, ,PASS, ,0.039534526900000005, ,0.004406548701064515, ,0.0267710781965164, ,0.0001771665185866958, ,1.6666666666666667, ,0.6387398393373444, ,0.4133997265361931, ,0.06187628823901553
173, ,PASS, ,0.03958169530000002, ,0.004444961022812754, ,0.026962938266733332, ,0.00017903925820174954, ,1.6666666666666667, ,0.6395460560509029, ,0.41276708638599213, ,0.06224362768106773
174, ,PASS, ,0.03969609590000001, ,0.004414167617853859, ,0.026877721071482216, ,0.00017818890740030618, ,1.6666666666666667, ,0.6388324862236202, ,0.41152221383237075, ,0.05730495296014367
175, ,PASS, ,0.03973070240000001, ,0.004457158151438921, ,0.026850222178094324, ,0.0001800897975797202, ,1.75, ,0.6429227554350021, ,0.41348135752331583, ,0.0653251974449501
176, ,PASS, ,0.0398403291, ,0.004420515006489762, ,0.026768666266763944, ,0.00017907774355181938, ,1.6666666666666667, ,0.6365936166877296, ,0.4130527948409216, ,0.053570335299279605
177, ,PASS, ,0.04037786169999999, ,0.004506313196311709, ,0.02692312735734781, ,0.00018498376785803987, ,1.6666666666666667, ,0.639703373464322, ,0.4138282892185874, ,0.060121222015877225
178, ,PASS, ,0.040773840199999994, ,0.004637684536269752, ,0.026908849101204054, ,0.00019227253365049606, ,1.8333333333333333, ,0.6472919844890732, ,0.41376706597824536, ,0.07022305667231281
179, ,PASS, ,0.04021402810000001, ,0.004511281925599845, ,0.026864798617048633, ,0.00018440922659820533, ,1.75, ,0.6400544167084522, ,0.41360380400399993, ,0.05875390298157181
180, ,PASS, ,0.03972498180000002, ,0.004459041157537472, ,0.02688346232697292, ,0.00018015851324735803, ,1.75, ,0.6398164301706804, ,0.4153996857206996, ,0.06371298544927655
181, ,PASS, ,0.040080749299999996, ,0.004505106578497443, ,0.02697619536818432, ,0.00018365343230690217, ,1.5833333333333333, ,0.6419468852826645, ,0.41290994061345687, ,0.06752923409726332
182, ,PASS, ,0.040020662100000014, ,0.004473439797180118, ,0.026910014703181568, ,0.00018212558896248576, ,1.75, ,0.638703014446979, ,0.4153996857206996, ,0.06075386216607824
183, ,PASS, ,0.0397683361, ,0.004436877567879751, ,0.02702318881551193, ,0.0001795220053352714, ,1.6666666666666667, ,0.6400015463409778, ,0.4134609497765352, ,0.06483541152221384
184, ,PASS, ,0.03973036800000003, ,0.004408571239888193, ,0.02690926473926859, ,0.00017811238159486225, ,1.6666666666666667, ,0.637843278497878, ,0.4139099202057101, ,0.06363135446215383
185, ,PASS, ,0.03984598210000001, ,0.004417402778726693, ,0.02695040987994939, ,0.00017919464196935534, ,1.6666666666666667, ,0.6361049399341625, ,0.4133997265361931, ,0.0606110079386135
186, ,PASS, ,0.0397249132, ,0.004442517322598391, ,0.02698862400102651, ,0.00017950673849851067, ,1.6666666666666667, ,0.6397371268550042, ,0.4128895328666762, ,0.059162057917185366
187, ,PASS, ,0.039825567900000004, ,0.004412680387508932, ,0.026905850337601272, ,0.00017887117178469578, ,1.6666666666666667, ,0.6368159062830506, ,0.41407318217995553, ,0.05936613538499214
188, ,PASS, ,0.039899218099999995, ,0.004401077770343116, ,0.026913940663410952, ,0.0001787206396495334, ,1.6666666666666667, ,0.634221484536349, ,0.41323646456194774, ,0.06636599253076468
189, ,PASS, ,0.03944622110000002, ,0.0043737326465413395, ,0.026641002789394096, ,0.00017535312040691285, ,1.6666666666666667, ,0.6374717752223429, ,0.4105018264933369, ,0.05577437195159282
190, ,PASS, ,0.03948541100000001, ,0.004384146584488622, ,0.026813353617438418, ,0.00017614406158228364, ,1.6666666666666667, ,0.6352123877842767, ,0.4129507561070182, ,0.05738658394726638
191, ,PASS, ,0.03979183349999999, ,0.004400820381975071, ,0.026909052065968043, ,0.0001782920490751373, ,1.6666666666666667, ,0.638756401057299, ,0.41413440542029756, ,0.06475378053509112
192, ,PASS, ,0.03955098450000001, ,0.004396002706050308, ,0.026771859903342788, ,0.0001768097195132684, ,1.6666666666666667, ,0.6379037977537665, ,0.41364461949756126, ,0.06154976429052468
193, ,PASS, ,0.039530885000000016, ,0.004450858903924434, ,0.02698777338874105, ,0.0001788886454824611, ,1.6666666666666667, ,0.6427443757397793, ,0.4160323258709006, ,0.07285565600702026
194, ,PASS, ,0.0399728005, ,0.004459913957102221, ,0.027188798669882247, ,0.0001813855657240662, ,1.75, ,0.6395222105113304, ,0.4155221322013836, ,0.05828452480561621
195, ,PASS, ,0.0397319278, ,0.004426208287788835, ,0.026944856785565602, ,0.00017886627636801302, ,1.6666666666666667, ,0.6348620579517604, ,0.41327728005550907, ,0.05244790922634232
196, ,PASS, ,0.03968836750000001, ,0.004410660643534659, ,0.02711812357842493, ,0.00017795144624187676, ,1.6666666666666667, ,0.6379145540892888, ,0.4150119385318667, ,0.06326401502010164
197, ,PASS, ,0.0398204699, ,0.004422163898030766, ,0.02718446646151099, ,0.00017911926535562066, ,1.6666666666666667, ,0.6360478243109146, ,0.4138282892185874, ,0.06330483051366298
198, ,PASS, ,0.03990503270000001, ,0.004420327839414041, ,0.02713586348127181, ,0.00017946018461032778, ,1.6666666666666667, ,0.6364594027540146, ,0.4130732025877023, ,0.06059060019183282
199, ,PASS, ,0.03974103439999999, ,0.004414387398474343, ,0.027302694350911205, ,0.0001784130988648968, ,1.6666666666666667, ,0.6339625332284093, ,0.4150527540254281, ,0.06238648190853248
200, ,PASS, ,0.0397372147, ,0.004375631896408534, ,0.027150679240178773, ,0.0001767650073627429, ,1.6666666666666667, ,0.6355311366851838, ,0.41164466031305486, ,0.05946817411889553
201, ,PASS, ,0.039836127000000006, ,0.004430049302272085, ,0.02694814371361605, ,0.00017945679596880585, ,1.6666666666666667, ,0.6383245175157776, ,0.41317524132160566, ,0.062223219934287054
202, ,PASS, ,0.0399437077, ,0.004442931923673949, ,0.026872223325642333, ,0.00018044141831872408, ,1.6666666666666667, ,0.635682517934366, ,0.4132568723087284, ,0.05612130364686435
203, ,PASS, ,0.04068173689999999, ,0.0045272826373710115, ,0.026871095923326056, ,0.00018718307222606348, ,1.6666666666666667, ,0.6376570353759892, ,0.4137058427379033, ,0.059325319891430785
204, ,PASS, ,0.04120646670000001, ,0.004558512417482399, ,0.026815623846217426, ,0.00019118395658595388, ,1.6666666666666667, ,0.6349976261783536, ,0.41619558784514604, ,0.059243688904308076
205, ,PASS, ,0.04995159999999998, ,0.007142177126183169, ,0.025213588320728147, ,0.0003624379366378981, ,1.8333333333333333, ,0.7374845549159857, ,0.4108487581886084, ,0.1295483765637436
206, ,PASS, ,0.04995159999999998, ,0.011105521719633436, ,0.024036135060508963, ,0.0005684457089154723, ,2.0, ,0.9487489079217248, ,0.412583416664966, ,0.36138037999224504
207, ,PASS, ,0.03908294910000001, ,0.004370399778472957, ,0.027053359441950166, ,0.0001736460903374935, ,1.6666666666666667, ,0.6382247728809358, ,0.414358890634885, ,0.06028448399012265
208, ,PASS, ,0.0362654662, ,0.004042534473912018, ,0.026967682511458948, ,0.0001490342096036718, ,1.6666666666666667, ,0.637263017922398, ,0.41284871737311485, ,0.06057019244505214
209, ,PASS, ,0.036192500300000006, ,0.004041457221845699, ,0.026844894530193265, ,0.0001487973121537437, ,1.6666666666666667, ,0.6385152040396297, ,0.41293034836023756, ,0.06397828615742536
210, ,PASS, ,0.03651965200000001, ,0.00407643168571758, ,0.02706973169278178, ,0.00015140395218432738, ,1.6666666666666667, ,0.639283435225134, ,0.41284871737311485, ,0.06608028407583519
211, ,PASS, ,0.037312269800000006, ,0.00411102943115358, ,0.026870286987204343, ,0.00015597130535808786, ,1.6666666666666667, ,0.6313026584839444, ,0.41031815677231076, ,0.058876349462255874
212, ,PASS, ,0.0361493912, ,0.004007706929928359, ,0.027028266657374338, ,0.00014729657103661924, ,1.5833333333333333, ,0.6367167918483857, ,0.4121140384890104, ,0.05869267974122977
213, ,PASS, ,0.0362939244, ,0.004046234808725363, ,0.026895706500010205, ,0.00014923886527832148, ,1.6666666666666667, ,0.6364763186370256, ,0.41280790187955346, ,0.057243729719801635
214, ,PASS, ,0.036023031500000004, ,0.004015964819261631, ,0.0268804381746495, ,0.00014708280126194824, ,1.75, ,0.6380413831071207, ,0.4126650476520887, ,0.060957939633885024
215, ,PASS, ,0.036443973000000005, ,0.004030058658021228, ,0.026868244039264504, ,0.00014929221497786112, ,1.6666666666666667, ,0.6390425135549936, ,0.413726250484684, ,0.06363135446215383
216, ,PASS, ,0.03656200610000001, ,0.004018655713395005, ,0.027128194049325528, ,0.0001494728776521943, ,1.6666666666666667, ,0.6336685060154292, ,0.4134405420297545, ,0.05828452480561621
217, ,PASS, ,0.03649424179999999, ,0.00400040678797024, ,0.026904559605069284, ,0.00014845203588648742, ,1.6666666666666667, ,0.6358922697680789, ,0.413154833574825, ,0.058835533968694516
218, ,PASS, ,0.0366733002, ,0.0040539333431485036, ,0.027005171977326995, ,0.0001512210967952222, ,1.6666666666666667, ,0.6401016265176338, ,0.4134201342829738, ,0.06491704250933654
219, ,PASS, ,0.03620284250000001, ,0.004017983698249664, ,0.026975570811554866, ,0.00014782403999244324, ,1.6666666666666667, ,0.635638335326962, ,0.41311401808126363, ,0.06197832697291892
220, ,PASS, ,0.03607130900000001, ,0.003964485293361504, ,0.027100001220954673, ,0.00014533681328989895, ,1.6666666666666667, ,0.6309030790637925, ,0.41366502724434195, ,0.05818248607171282
221, ,PASS, ,0.036068864, ,0.00397954745245227, ,0.026965886490663456, ,0.00014591974571267143, ,1.6666666666666667, ,0.6334202920670975, ,0.4133385032958511, ,0.0621824044407257
222, ,PASS, ,0.03582243399999998, ,0.003979217772364861, ,0.027029649409685517, ,0.00014488579671078345, ,1.6666666666666667, ,0.6369175890667305, ,0.41311401808126363, ,0.061815064998673494
223, ,PASS, ,0.036195617299999996, ,0.003985821375849413, ,0.02690205942770556, ,0.00014669863599719828, ,1.6666666666666667, ,0.6353919104045397, ,0.4133385032958511, ,0.06371298544927655
224, ,PASS, ,0.0364038312, ,0.0039744837249945115, ,0.026986670515724172, ,0.00014709667013448923, ,1.6666666666666667, ,0.629245975517543, ,0.41368543499112265, ,0.05708046774555621
225, ,PASS, ,0.0363587774, ,0.004045628257321832, ,0.02690030713369115, ,0.00014954758187204752, ,1.6666666666666667, ,0.6343644943662198, ,0.4128691251198955, ,0.0607946776596396
226, ,PASS, ,0.03649103209999999, ,0.004034868425381353, ,0.02688740761566091, ,0.00014968173911507758, ,1.6666666666666667, ,0.633703643647272, ,0.41282830962633416, ,0.06303952980551418
227, ,PASS, ,0.0367685101, ,0.004103227779651607, ,0.026991036720046532, ,0.00015336209858734265, ,1.6666666666666667, ,0.6354933289485656, ,0.41293034836023756, ,0.058080447337809434
228, ,PASS, ,0.03623665060000001, ,0.003989790498272258, ,0.026930377479582053, ,0.00014693663385829874, ,1.6666666666666667, ,0.6328071241448351, ,0.4109303891757311, ,0.06740678761657926
229, ,PASS, ,0.036474322400000016, ,0.003974985063466862, ,0.026959470250954066, ,0.0001474482552454602, ,1.6666666666666667, ,0.6310352099292676, ,0.41329768780228976, ,0.05761106916185384
230, ,PASS, ,0.0364599025, ,0.004019345299168228, ,0.026860445655578456, ,0.00014896686663492474, ,1.6666666666666667, ,0.6335888154967353, ,0.4134405420297545, ,0.058468194526642314
231, ,PASS, ,0.036385726199999996, ,0.004015084123602281, ,0.02692193246888839, ,0.0001484722736281692, ,1.6666666666666667, ,0.6324471832440406, ,0.4139099202057101, ,0.05871308748801045
232, ,PASS, ,0.03660177240000001, ,0.004020208037582307, ,0.026959796977102508, ,0.00014951290833099413, ,1.6666666666666667, ,0.6317967226125697, ,0.4129507561070182, ,0.050998959204914186
233, ,PASS, ,0.036708416100000016, ,0.004042167309987699, ,0.026963342379645316, ,0.00015071262501964368, ,1.6666666666666667, ,0.6332929747517834, ,0.41164466031305486, ,0.06118242484847248
234, ,PASS, ,0.0369212076, ,0.004138584304186485, ,0.026960917989163488, ,0.00015511420460295795, ,1.75, ,0.6379315401241809, ,0.41360380400399993, ,0.05993755229485113
235, ,PASS, ,0.0368645298, ,0.004071851534964432, ,0.027057742831391198, ,0.00015265079107132655, ,1.5833333333333333, ,0.6320522088588808, ,0.4127874941327728, ,0.0538560437542091
236, ,PASS, ,0.036462385900000005, ,0.004025709082059835, ,0.026832307353564216, ,0.000149201332050084, ,1.6666666666666667, ,0.6318301360945786, ,0.41272627089243075, ,0.06379461643639926
237, ,PASS, ,0.03695361180000001, ,0.004015085506517392, ,0.026838664170731212, ,0.00015086636196037168, ,1.6666666666666667, ,0.6260352227223454, ,0.40995081733025857, ,0.05687639027774943
238, ,PASS, ,0.036785389, ,0.004064280261243153, ,0.02724047418822065, ,0.00015196787031841622, ,1.6666666666666667, ,0.632827769701372, ,0.41274667863921144, ,0.05991714454807045
239, ,PASS, ,0.0363168666, ,0.004022514198258774, ,0.026899214113916044, ,0.00014853388603769217, ,1.6666666666666667, ,0.6366836765457, ,0.4147466378237179, ,0.0607946776596396
240, ,PASS, ,0.036933834099999986, ,0.004011421039409584, ,0.02724768341368544, ,0.0001505936736988847, ,1.6666666666666667, ,0.6257417333133882, ,0.4138078814718067, ,0.05942735862533418
241, ,PASS, ,0.03700553960000001, ,0.004049283752608385, ,0.02689940556064162, ,0.0001523501936508227, ,1.6666666666666667, ,0.6308007841116702, ,0.4108691659353891, ,0.05601926491296096
242, ,PASS, ,0.03761856680000001, ,0.004180487463827776, ,0.02704648757815147, ,0.00015980007020607913, ,1.6666666666666667, ,0.6354708223046733, ,0.4145425603559111, ,0.06271300585702333
243, ,PASS, ,0.03695891010000001, ,0.004072289799005218, ,0.027072503109324304, ,0.00015294972951114606, ,1.6666666666666667, ,0.6336803016609182, ,0.41256300891818537, ,0.059325319891430785
244, ,PASS, ,0.037052846400000006, ,0.004055528858773757, ,0.027064931287483933, ,0.00015268228477926287, ,1.6666666666666667, ,0.6279322480692053, ,0.4134609497765352, ,0.0629170833248301
245, ,PASS, ,0.0374379386, ,0.0041179283060305385, ,0.026770512751188753, ,0.00015671387458717634, ,1.5833333333333333, ,0.63242332886533, ,0.4129711638537989, ,0.059672251586702314
246, ,PASS, ,0.0372555408, ,0.0040894439776600275, ,0.02723442034293178, ,0.0001548293038416331, ,1.6666666666666667, ,0.6335082282608182, ,0.4137058427379033, ,0.06316197628619824
247, ,PASS, ,0.03746275659999998, ,0.004126412160076255, ,0.02693859602708108, ,0.000157122963754364, ,1.6666666666666667, ,0.6343042373985216, ,0.4136242117507806, ,0.06248852064243587
248, ,PASS, ,0.03754279359999999, ,0.0040757383777145495, ,0.026945224554029513, ,0.00015549458511150777, ,1.6666666666666667, ,0.6272757756864438, ,0.4133793187894125, ,0.05910083467684333
249, ,PASS, ,0.037355821199999986, ,0.004109315394970728, ,0.027077081101487724, ,0.0001559972004835169, ,1.5833333333333333, ,0.6330555514308264, ,0.41321605681516704, ,0.06657006999857146
250, ,PASS, ,0.037267537899999995, ,0.004139719017922733, ,0.02683486552036285, ,0.0001565229395643556, ,1.6666666666666667, ,0.6301778688954849, ,0.4131344258280443, ,0.06285586008448807
251, ,PASS, ,0.03744830580000002, ,0.004094428740916335, ,0.0269575768192894, ,0.0001557875210270317, ,1.6666666666666667, ,0.6294928817501473, ,0.41329768780228976, ,0.0582028938184935
252, ,PASS, ,0.0369794765, ,0.004025430183246414, ,0.02693691630089182, ,0.00015135054271918133, ,1.6666666666666667, ,0.6271566324128657, ,0.4135221730168772, ,0.058366155792738926
253, ,PASS, ,0.03702185260000001, ,0.004073959679952669, ,0.026948698574539295, ,0.000153224347815261, ,1.6666666666666667, ,0.6310059202291206, ,0.4150119385318667, ,0.06650884675822942
254, ,PASS, ,0.0372260352, ,0.004052864123109408, ,0.027076640044386847, ,0.0001532737858006305, ,1.6666666666666667, ,0.6273705957095633, ,0.41366502724434195, ,0.05873349523479113
255, ,PASS, ,0.0374613786, ,0.004083161616051219, ,0.026937371062998716, ,0.00015551643613908125, ,1.6666666666666667, ,0.6266824058446513, ,0.4133385032958511, ,0.06016203750943858
