Channel, ,Pass/Fail, ,Amplitude, ,Sorting Function Response, ,Mean, ,Variance, ,NPeaksRatio, ,PosIntegralRatio, ,ToT50, ,ToT99
0, ,PASS, ,0.10526589, ,0.01725199803031025, ,0.04102047473271974, ,0.0018071783217381138, ,1.8333333333333333, ,0.7654294654534465, ,0.5152547907185567, ,0.10575294381747312
1, ,PASS, ,0.10322123000000001, ,0.01698666678471464, ,0.040921575332421786, ,0.0017453170519009882, ,1.8333333333333333, ,0.7680190393321049, ,0.5148262280361625, ,0.11136507418215955
2, ,PASS, ,0.10371149000000002, ,0.017059460718478848, ,0.04121036075418869, ,0.0017610169294877446, ,1.8333333333333333, ,0.7674367883251699, ,0.5147854125426011, ,0.1072427093324626
3, ,PASS, ,0.10383377, ,0.017020917316197988, ,0.041097853260423256, ,0.0017588451985738453, ,1.8333333333333333, ,0.7662549568827596, ,0.5151527519846534, ,0.10891614456847819
4, ,PASS, ,0.10388495000000003, ,0.017015541007852054, ,0.041113690402399955, ,0.0017590715568448342, ,1.8333333333333333, ,0.7649787121778551, ,0.5150711209975307, ,0.1089977755556009
5, ,PASS, ,0.10362703, ,0.017026709150890825, ,0.04118198179877962, ,0.0017559677058155416, ,1.8333333333333333, ,0.7656551746192145, ,0.5147650047958205, ,0.11022224036244159
6, ,PASS, ,0.10341905000000003, ,0.016970650227226977, ,0.04117520917291484, ,0.0017465532981457068, ,1.8333333333333333, ,0.7649741457637029, ,0.5147037815554785, ,0.1123242382808514
7, ,PASS, ,0.10343908000000006, ,0.01691631703549955, ,0.04115096074606641, ,0.0017412065426126574, ,1.8333333333333333, ,0.7644828568861254, ,0.5153568294524602, ,0.10914062978306566
8, ,PASS, ,0.10315661000000002, ,0.01683225689928973, ,0.041036286075835184, ,0.0017279240328831216, ,1.8333333333333333, ,0.7640640225059713, ,0.515234382971776, ,0.10667129242260362
9, ,PASS, ,0.10247039000000001, ,0.01675657066979735, ,0.0409223670418971, ,0.0017087910543158577, ,1.8333333333333333, ,0.7648474308439607, ,0.5154792759331442, ,0.1092834840105304
10, ,PASS, ,0.10164848099999998, ,0.016660176809743896, ,0.0410757936849248, ,0.0016853263396695982, ,1.8333333333333333, ,0.7651138946605515, ,0.5148466357829432, ,0.11238546152119344
11, ,PASS, ,0.10098416399999996, ,0.016528109258626397, ,0.04109759999806126, ,0.0016613119933028494, ,1.8333333333333333, ,0.7644076670601041, ,0.5148466357829432, ,0.10795698046978633
12, ,PASS, ,0.10011270199999998, ,0.0164256096762265, ,0.04092782908761045, ,0.0016367488750275638, ,1.8333333333333333, ,0.7655693700432225, ,0.5147445970490399, ,0.10793657272300565
13, ,PASS, ,0.09907781799999997, ,0.01626232840599045, ,0.04095433722873002, ,0.0016032785028266923, ,1.8333333333333333, ,0.7664696859378438, ,0.515234382971776, ,0.10942633823799515
14, ,PASS, ,0.09889708300000001, ,0.016250380359306975, ,0.041005170950429576, ,0.001599846311544486, ,1.8333333333333333, ,0.7666477151577655, ,0.5147445970490399, ,0.10867125160711005
15, ,PASS, ,0.11117708000000003, ,0.018474757280664278, ,0.04115494848125549, ,0.002045919397598303, ,1.8333333333333333, ,0.771620165469864, ,0.5148262280361625, ,0.11248750025509684
16, ,PASS, ,0.08531625799999999, ,0.014508977912187531, ,0.04069062745040175, ,0.0012402739061777549, ,1.9166666666666667, ,0.7958088215858962, ,0.5152751984653374, ,0.09516132323830126
17, ,PASS, ,0.06363907699999997, ,0.009853580324769358, ,0.04035789869267974, ,0.0006314767489702592, ,1.8333333333333333, ,0.7579481099035502, ,0.5148262280361625, ,0.06987612497704128
18, ,PASS, ,0.06296569700000004, ,0.009769013172039005, ,0.040012641858737576, ,0.0006194400103407805, ,1.8333333333333333, ,0.7606349942402222, ,0.51505071325075, ,0.07793718495540908
19, ,PASS, ,0.06271634800000003, ,0.0097247161604363, ,0.040211298581824866, ,0.0006140733721754595, ,1.9166666666666667, ,0.7594954365332578, ,0.515234382971776, ,0.07005979469806739
20, ,PASS, ,0.06240251300000001, ,0.00965004421167734, ,0.03997149350890798, ,0.0006063526054748108, ,1.9166666666666667, ,0.7588785934238398, ,0.5153160139588988, ,0.07305973347482704
21, ,PASS, ,0.061881658000000006, ,0.009625109854864962, ,0.04025303851798943, ,0.0005996922412815194, ,1.9166666666666667, ,0.7599728054904573, ,0.5151935674782148, ,0.07244750107140671
22, ,PASS, ,0.06224345000000002, ,0.009647984911882434, ,0.04028832076324973, ,0.0006046008833837432, ,1.9166666666666667, ,0.7594287096512012, ,0.5152751984653374, ,0.07454949898981654
23, ,PASS, ,0.06247342000000002, ,0.009684364767483706, ,0.04039100510254893, ,0.0006091521505969289, ,1.9166666666666667, ,0.7592212659667813, ,0.5150303055039693, ,0.07065161935470704
24, ,PASS, ,0.06235895500000001, ,0.009778402867904707, ,0.040326556326809655, ,0.0006136652205308951, ,1.9166666666666667, ,0.7644891299289381, ,0.5153364217056795, ,0.07950858145752128
25, ,PASS, ,0.06303420000000003, ,0.009833101068636902, ,0.04021200946817412, ,0.0006239002663717333, ,1.9166666666666667, ,0.762144213676484, ,0.5152547907185567, ,0.07173322993408297
26, ,PASS, ,0.06290983999999998, ,0.00984703998669341, ,0.04013916854207057, ,0.0006234513803439635, ,1.9166666666666667, ,0.7639337591510308, ,0.5153160139588988, ,0.07816167016999653
27, ,PASS, ,0.062907223, ,0.009907374311992161, ,0.04032803448080651, ,0.0006270484239798074, ,1.9166666666666667, ,0.7651956801095351, ,0.5154384604395829, ,0.07903920328156568
28, ,PASS, ,0.06267559499999999, ,0.00992344201970086, ,0.040180618901634664, ,0.0006257499351373178, ,1.9166666666666667, ,0.769793053352072, ,0.5154180526928022, ,0.08034529907552906
29, ,PASS, ,0.06285242300000002, ,0.009989653735485389, ,0.04022463473720945, ,0.0006314706578317064, ,1.9166666666666667, ,0.7678017679964112, ,0.51505071325075, ,0.07312095671516908
30, ,PASS, ,0.06305666000000001, ,0.010051159965383138, ,0.04019688226358646, ,0.0006373644000614981, ,1.9166666666666667, ,0.771680926820373, ,0.5153772371992408, ,0.07644741944041958
31, ,PASS, ,0.063204641, ,0.010090444636584133, ,0.040165469594314405, ,0.0006413598510647501, ,1.9166666666666667, ,0.7725833048840653, ,0.5153568294524602, ,0.08067182302401991
32, ,PASS, ,0.06344528599999999, ,0.010132196714165532, ,0.04026496675384176, ,0.0006464055988003237, ,1.9166666666666667, ,0.7736595877974949, ,0.515622130160609, ,0.0842023632170772
33, ,PASS, ,0.06318786400000001, ,0.010182247780652869, ,0.04040904110532439, ,0.0006467549363939004, ,1.9166666666666667, ,0.7756007302270526, ,0.5153772371992408, ,0.08454929491234872
34, ,PASS, ,0.063033829, ,0.010186187204642037, ,0.04023331983881962, ,0.0006454739107117067, ,1.9166666666666667, ,0.7764541383684397, ,0.5149486745168466, ,0.08250852023428093
35, ,PASS, ,0.06344947899999999, ,0.010253854608860446, ,0.04039404239960409, ,0.0006537679636208064, ,1.9166666666666667, ,0.775239679940119, ,0.5149282667700659, ,0.07473316871084264
36, ,PASS, ,0.06372465, ,0.010264908667440122, ,0.04041301940791005, ,0.0006574298534364605, ,1.9166666666666667, ,0.7736433263875522, ,0.515111936491092, ,0.07716169057774332
37, ,PASS, ,0.06366822, ,0.010280680826256227, ,0.04030454497149038, ,0.0006578429759008105, ,1.9166666666666667, ,0.7760243139035652, ,0.5153568294524602, ,0.07899838778800433
38, ,PASS, ,0.06338834499999998, ,0.010289864732917728, ,0.04022368096234771, ,0.0006554896389449545, ,1.9166666666666667, ,0.7798109773847365, ,0.5149486745168466, ,0.08677373931144262
39, ,PASS, ,0.06322283500000002, ,0.010206723102489674, ,0.04024528349541846, ,0.000648314559685586, ,1.9166666666666667, ,0.7781527276341459, ,0.5160915083365646, ,0.07910042652190771
40, ,PASS, ,0.06349354900000002, ,0.010250209143884848, ,0.040035458236199264, ,0.0006540742415786441, ,1.9166666666666667, ,0.7781034072784622, ,0.5154996836799249, ,0.0854064202771372
41, ,PASS, ,0.063434452, ,0.01028919862004414, ,0.0401019165060509, ,0.0006557370672237886, ,1.9166666666666667, ,0.7794975688112111, ,0.5152956062121181, ,0.08434521744454195
42, ,PASS, ,0.063358071, ,0.010264037377525258, ,0.04012500309165119, ,0.0006534305089950225, ,1.9166666666666667, ,0.7765199533671381, ,0.5150915287443113, ,0.07928409624293382
43, ,PASS, ,0.063386627, ,0.010345018677967818, ,0.039739756934307466, ,0.0006586000115901649, ,1.9166666666666667, ,0.7797436487322577, ,0.5151527519846534, ,0.07983510540601212
44, ,PASS, ,0.06351097600000001, ,0.010351294044206247, ,0.04002249565639477, ,0.0006603655721774421, ,1.9166666666666667, ,0.7780749631999012, ,0.5144997040876716, ,0.0677333115650701
45, ,PASS, ,0.06356463899999999, ,0.010385550633914624, ,0.04008466619662864, ,0.0006629978169094146, ,1.9166666666666667, ,0.7803429282390713, ,0.5150098977571886, ,0.07773310748760229
46, ,PASS, ,0.063469549, ,0.010385376188511649, ,0.04004342416797617, ,0.0006618075548561479, ,1.9166666666666667, ,0.7807153946008297, ,0.5151935674782148, ,0.083835023775025
47, ,PASS, ,0.069906679, ,0.010279413668524489, ,0.042227303709230425, ,0.0007194728057049202, ,1.8333333333333333, ,0.7819830770425542, ,0.5188669618987367, ,0.08042693006265178
48, ,PASS, ,0.06268215999999999, ,0.010176085127177712, ,0.04017394844643987, ,0.0006409349464173298, ,1.9166666666666667, ,0.788441830411843, ,0.5160711005897839, ,0.09481439154302973
49, ,PASS, ,0.06321645800000003, ,0.010585666144406154, ,0.040010949290932844, ,0.0006714827855113959, ,1.9166666666666667, ,0.794058557159794, ,0.5161119160833453, ,0.08685537029856534
50, ,PASS, ,0.06324644000000001, ,0.010815557554215873, ,0.04019586862794637, ,0.0006862659613839024, ,1.9166666666666667, ,0.7965681432706596, ,0.5142139956327422, ,0.09446745984775821
