Channel, ,Pass/Fail, ,Amplitude, ,Sorting Function Response, ,Mean, ,Variance, ,NPeaksRatio, ,IntegralRatio, ,ToT50, ,ToT99
0, ,PASS, ,0.045020167799243005, ,0.037222602049256856, ,0.0004771977601423539, ,0.0003534220307750677, ,1.0, ,0.40240609953094003, ,0.5137038019632253, ,0.0998346972510765
1, ,PASS, ,0.0390008082615, ,0.02696444479511204, ,0.0003178759836798729, ,0.0002236222702106195, ,1.0, ,0.36575214262751254, ,0.5140507336584967, ,0.06691700169384299
2, ,PASS, ,0.039305945744013, ,0.02710925229715462, ,0.00037627589119443994, ,0.00022654362776281612, ,1.0, ,0.36665384625716807, ,0.513907879431032, ,0.06554968265953756
3, ,PASS, ,0.03918587378723899, ,0.026991252188853274, ,0.00035109100016838504, ,0.00022485812948820714, ,1.0, ,0.3657799284464855, ,0.5140099181649355, ,0.06540682843207281
4, ,PASS, ,0.039369392921962995, ,0.02761276042126013, ,0.0003475095363890844, ,0.0002309989125784524, ,0.9166666666666666, ,0.36934716508099447, ,0.5139895104181548, ,0.06834554396849044
5, ,PASS, ,0.03921208277541499, ,0.027011527877396677, ,0.0003756094593173673, ,0.00022517104116632223, ,1.0, ,0.36627227147566177, ,0.5140915491520581, ,0.06795779677965756
6, ,PASS, ,0.03921254969981601, ,0.027038614296535233, ,0.0003970800406661893, ,0.00022544057631323797, ,1.0, ,0.3671438884034492, ,0.5140507336584967, ,0.06646803126466806
7, ,PASS, ,0.035693542673371007, ,0.02453433842110871, ,0.00030730164574404163, ,0.0001868285270320982, ,1.0, ,0.367331584615412, ,0.5142752188730842, ,0.05930491214465011
8, ,PASS, ,0.0389948404356, ,0.027172786372573927, ,0.0003959971981992984, ,0.00022518346254435896, ,1.0, ,0.3691462497590236, ,0.5141731801391808, ,0.066345584783984
9, ,PASS, ,0.03906961501380901, ,0.026991958419743514, ,0.000395246075913963, ,0.00022413757357130182, ,1.0, ,0.36727381568473505, ,0.5142139956327422, ,0.06661088549213282
10, ,PASS, ,0.039000366772690004, ,0.027106930336342653, ,0.00033980790148117093, ,0.00022462534834042744, ,1.0, ,0.3669083456197002, ,0.5143772576069876, ,0.06914144609293688
11, ,PASS, ,0.0390181622026, ,0.0268471718931896, ,0.0004139817800340019, ,0.00022258849968025937, ,1.0, ,0.3670144944757657, ,0.5139691026713741, ,0.06557009040631824
12, ,PASS, ,0.03886357010150799, ,0.026817275938023712, ,0.000433908261284611, ,0.00022148549697176856, ,1.0, ,0.3679085129259485, ,0.5143772576069876, ,0.06659047774535214
13, ,PASS, ,0.039011607479719004, ,0.026879591730400932, ,0.000404993183703642, ,0.00022283266554249388, ,1.0, ,0.3667308676749305, ,0.5144384808473297, ,0.06693740944062367
14, ,PASS, ,0.038833798263861005, ,0.026966207084289883, ,0.00037095614591489695, ,0.00022245997700447875, ,1.0, ,0.36749774306795874, ,0.5143568498602069, ,0.06677414746637823
15, ,PASS, ,0.03875334328540202, ,0.026647437628977623, ,0.0003743035292424156, ,0.00021940214602253968, ,1.0, ,0.3654319533655482, ,0.5146017428215751, ,0.06491704250933654
16, ,PASS, ,0.03871247742674601, ,0.0266419167906669, ,0.0003428425201164466, ,0.00021907073813727827, ,1.0, ,0.36490647552687544, ,0.5143364421134262, ,0.06567212914022162
17, ,PASS, ,0.038674870864768, ,0.026494328212804785, ,0.0003692003756301683, ,0.00021769484754500043, ,1.0, ,0.3645517390419548, ,0.5145201118344523, ,0.06530478969816943
18, ,PASS, ,0.03869372182400001, ,0.02661585886961701, ,0.00035387959407729623, ,0.0002187891796261012, ,1.0, ,0.3650623861003141, ,0.5144384808473297, ,0.06510071223036265
19, ,PASS, ,0.03844077975684101, ,0.02629451020156904, ,0.00033339699692365156, ,0.00021473476389391696, ,1.0, ,0.3633389750936857, ,0.5144997040876716, ,0.06626395379686129
20, ,PASS, ,0.038484790027044, ,0.026379383512403272, ,0.0003720720859297962, ,0.0002156599487788201, ,1.0, ,0.36487987866108135, ,0.5143364421134262, ,0.06724352564233382
21, ,PASS, ,0.038442526949028, ,0.02615501375304493, ,0.00034252336183153393, ,0.00021362327677251273, ,1.0, ,0.3625659741599345, ,0.5143976653537683, ,0.06418236362523214
22, ,PASS, ,0.038492174727597, ,0.026401032557003594, ,0.00035833616479158745, ,0.00021588513392448516, ,1.0, ,0.3645101771316779, ,0.5144588885941104, ,0.06638640027754536
23, ,PASS, ,0.03854028384377, ,0.026250280146095723, ,0.0003800863706050238, ,0.00021488226336381945, ,1.0, ,0.3635460034015532, ,0.514540519581233, ,0.06438644109303891
24, ,PASS, ,0.038313832367808, ,0.026386948237835134, ,0.0003497199802932617, ,0.00021469999871951705, ,1.0, ,0.3650550008730304, ,0.5146425583151364, ,0.06593742984837044
25, ,PASS, ,0.038495627037823, ,0.026341749075811303, ,0.00037654561994431896, ,0.00021543512152357212, ,1.0, ,0.36428401390772774, ,0.5148874512765046, ,0.06722311789555316
26, ,PASS, ,0.038436705259091, ,0.026670623623133844, ,0.0003324448343462911, ,0.00021761049904131164, ,0.9166666666666666, ,0.36609356222184386, ,0.514418073100549, ,0.06701904042774637
27, ,PASS, ,0.038355973307167994, ,0.02639187379278445, ,0.00030597246517358054, ,0.00021498437790197663, ,0.9166666666666666, ,0.36381207685689004, ,0.514479296340891, ,0.06595783759515111
28, ,PASS, ,0.038354070585976, ,0.02639560593313695, ,0.00037732941481299497, ,0.00021496008842632555, ,1.0, ,0.3657889487334488, ,0.5142752188730842, ,0.06463133405440705
29, ,PASS, ,0.038357010053869, ,0.02622365466218751, ,0.00030779639610609437, ,0.00021363873233502578, ,1.0, ,0.36266956735352374, ,0.5142548111263036, ,0.06538642068529214
30, ,PASS, ,0.03842516414731201, ,0.026344910226892174, ,0.0003484975227335862, ,0.0002149587087172282, ,1.0, ,0.3641368919619217, ,0.5143364421134262, ,0.0665292545050101
31, ,PASS, ,0.03813689025844599, ,0.026106133787394754, ,0.00035556510364338285, ,0.00021142180661732113, ,1.0, ,0.36423977284280273, ,0.5141323646456195, ,0.06436603334625823
32, ,PASS, ,0.038706634040814, ,0.027398051333423965, ,0.000373233695397683, ,0.00022493556637041357, ,1.0, ,0.37110486077061444, ,0.514418073100549, ,0.06950878553498908
33, ,PASS, ,0.03869648508695701, ,0.02755660431121598, ,0.0003273312418409533, ,0.00022615755240250075, ,1.0, ,0.37140761189997834, ,0.514030325911716, ,0.06885573763800738
34, ,PASS, ,0.038175982971577004, ,0.026448521706888394, ,0.000286524383076269, ,0.0002143155205671164, ,1.0, ,0.3646134289493435, ,0.5143976653537683, ,0.06661088549213282
35, ,PASS, ,0.038181315079492004, ,0.02632493346672244, ,0.0003758582699478366, ,0.00021335922437099012, ,0.9166666666666666, ,0.36606966194034535, ,0.5142139956327422, ,0.06271300585702333
36, ,PASS, ,0.038300410598269, ,0.026366639916133937, ,0.00035746692483032346, ,0.0002143294763416715, ,0.9166666666666666, ,0.36518149824603113, ,0.5142956266198649, ,0.06501908124323993
37, ,PASS, ,0.03827852652368, ,0.026392819275323987, ,0.00030079464547956976, ,0.00021442890226788916, ,1.0, ,0.36409908665099044, ,0.5143568498602069, ,0.06346809248790841
38, ,PASS, ,0.038207246498998, ,0.026553602825646522, ,0.0003000289470441466, ,0.0002152496241588331, ,1.0, ,0.36565622847580814, ,0.5140915491520581, ,0.06732515662945654
39, ,PASS, ,0.03802626501643501, ,0.026132930918572904, ,0.00029801067197824705, ,0.00021097497217309233, ,1.0, ,0.363472453879764, ,0.5142548111263036, ,0.06542723617885349
40, ,PASS, ,0.038516936564016, ,0.02690753838101151, ,0.00033836562398988106, ,0.0002199115183548103, ,1.0, ,0.3675255899105248, ,0.5143976653537683, ,0.0686516601702006
41, ,PASS, ,0.038709537524663995, ,0.027341064112919335, ,0.0002884521887416715, ,0.00022456231225919814, ,1.0, ,0.36839245260786724, ,0.5145813350747944, ,0.07201893838901247
42, ,PASS, ,0.038158143825405, ,0.026133862013916934, ,0.0002873579535442319, ,0.00021170744922078397, ,1.0, ,0.362341897488738, ,0.5143160343666455, ,0.06540682843207281
43, ,PASS, ,0.03809684007412201, ,0.02585243177499591, ,0.00032655749437455035, ,0.00020916839060387048, ,1.0, ,0.3615224120812046, ,0.5144384808473297, ,0.0641211403848901
44, ,PASS, ,0.038206596201065, ,0.02631924981321516, ,0.0003418771383177372, ,0.00021339399029345844, ,0.9166666666666666, ,0.36503984811605367, ,0.5139691026713741, ,0.06675373971959755
45, ,PASS, ,0.03821450667621, ,0.026141778863516155, ,0.000324048499910931, ,0.00021207251509180916, ,0.9166666666666666, ,0.36293477447175415, ,0.514479296340891, ,0.06516193547070467
46, ,PASS, ,0.038163148430532, ,0.026291562977162165, ,0.0003152436073113799, ,0.00021294517870654967, ,1.0, ,0.3643219238928764, ,0.5141731801391808, ,0.06420277137201282
47, ,PASS, ,0.038098469319545, ,0.026328824816423596, ,0.00031597215297243233, ,0.00021281229972924633, ,1.0, ,0.3649110634690579, ,0.514030325911716, ,0.0656925368870023
48, ,PASS, ,0.03800464045225499, ,0.0259588858952162, ,0.00037680515037839937, ,0.00020945803814821073, ,1.0, ,0.36408328954133856, ,0.5143976653537683, ,0.06542723617885349
49, ,PASS, ,0.038034366360854, ,0.025930108659383746, ,0.00028063947953662423, ,0.00020935805128932103, ,0.9166666666666666, ,0.3611345314764806, ,0.514418073100549, ,0.06608028407583519
50, ,PASS, ,0.038057932954254, ,0.026070127946236057, ,0.0003476936580787074, ,0.00021057451405904264, ,0.9166666666666666, ,0.36398994401647056, ,0.5141731801391808, ,0.06469255729474908
51, ,PASS, ,0.037820563455984, ,0.02568779385040222, ,0.00030975909829315926, ,0.00020631218162691603, ,0.9166666666666666, ,0.3613486062479872, ,0.5143772576069876, ,0.06363135446215383
52, ,PASS, ,0.038008819994831994, ,0.02618485780585587, ,0.00027654019202282606, ,0.0002112244801202658, ,1.0, ,0.3633920593049933, ,0.5140099181649355, ,0.0656109058998796
53, ,PASS, ,0.038073120371919, ,0.026047512769987378, ,0.0003145630045216902, ,0.000210476546331028, ,0.9166666666666666, ,0.362892467320716, ,0.5141527723924002, ,0.06779453480541213
54, ,PASS, ,0.037940057993016, ,0.02618413630311593, ,0.00029783577228419583, ,0.0002108169572105499, ,1.0, ,0.36408821964641214, ,0.5142752188730842, ,0.06697822493418501
55, ,PASS, ,0.03789144291826499, ,0.02600130370523438, ,0.0003069290871135737, ,0.00020913288498368462, ,1.0, ,0.36326888510692523, ,0.5143568498602069, ,0.06618232280973858
56, ,PASS, ,0.037770657210247006, ,0.02597049209145989, ,0.000300770907911732, ,0.00020816707587152213, ,1.0, ,0.3635107553520008, ,0.5141935878859615, ,0.06552927491275688
57, ,PASS, ,0.037835932890541005, ,0.02576466045525794, ,0.00036769144169759073, ,0.00020696644114769888, ,1.0, ,0.3632695335435257, ,0.5143772576069876, ,0.06542723617885349
58, ,PASS, ,0.03781197214886901, ,0.026022899090752397, ,0.0002488653724220609, ,0.00020886641064391114, ,1.0, ,0.3622849035068719, ,0.5143568498602069, ,0.06673333197281688
59, ,PASS, ,0.037768529663358, ,0.02591120943293219, ,0.00030623779386549103, ,0.00020770535236624732, ,0.9166666666666666, ,0.3632088463466792, ,0.5142752188730842, ,0.06595783759515111
60, ,PASS, ,0.038170620359647, ,0.026063718621197933, ,0.0003632445521403207, ,0.0002112005247151959, ,1.0, ,0.3638318924148678, ,0.5141731801391808, ,0.06471296504152976
61, ,PASS, ,0.03806309417099601, ,0.025796586811575945, ,0.0003225821532594256, ,0.00020851635407105745, ,1.0, ,0.36126989866496617, ,0.5141731801391808, ,0.06516193547070467
62, ,PASS, ,0.03812855919867, ,0.02604110412165628, ,0.0003496541150434239, ,0.00021079853487320895, ,1.0, ,0.36328342596440355, ,0.5145201118344523, ,0.06530478969816943
63, ,PASS, ,0.038097685979870004, ,0.025913139156952494, ,0.00038192090244864766, ,0.0002096217250528706, ,1.0, ,0.36328409304372566, ,0.5145201118344523, ,0.06465174180118773
64, ,PASS, ,0.038208801588402994, ,0.02642352909570943, ,0.00026715634953583333, ,0.0002142712587576661, ,1.0, ,0.36358363725911824, ,0.5145609273280137, ,0.06997816371094467
65, ,PASS, ,0.038486647122112, ,0.026329886298348735, ,0.00039301520307705005, ,0.00021511960954075486, ,1.0, ,0.36462392833221957, ,0.5145813350747944, ,0.06654966225179078
66, ,PASS, ,0.038469276762451, ,0.026560401244319264, ,0.0003500624377687117, ,0.00021689045495550498, ,0.9166666666666666, ,0.3654585495371709, ,0.514540519581233, ,0.06667210873247485
67, ,PASS, ,0.038501831977776, ,0.026533007505732356, ,0.00037553145224213574, ,0.00021685940768835746, ,0.9166666666666666, ,0.3659160918530799, ,0.5142956266198649, ,0.06610069182261587
68, ,PASS, ,0.038981528089048006, ,0.02671261043278684, ,0.00035898414675142873, ,0.00022109971073453155, ,0.9166666666666666, ,0.3640962783258354, ,0.5145201118344523, ,0.06626395379686129
69, ,PASS, ,0.038657382878817, ,0.026364165479634813, ,0.00034122318704580146, ,0.00021648603469479825, ,1.0, ,0.362892852531386, ,0.5143772576069876, ,0.06461092630762638
70, ,PASS, ,0.03881231962902401, ,0.02655720286605309, ,0.00035260592419206633, ,0.00021891592557269482, ,1.0, ,0.3637674647219521, ,0.5144384808473297, ,0.06499867349645926
71, ,PASS, ,0.038779360143736, ,0.02659852280818904, ,0.00032784826424951636, ,0.00021902625634367864, ,1.0, ,0.3634560316117304, ,0.514479296340891, ,0.06854962143629721
72, ,PASS, ,0.039098179845105996, ,0.0268574142320436, ,0.00031859255279188516, ,0.00022301188294785175, ,0.9166666666666666, ,0.36356892358368265, ,0.5145609273280137, ,0.06520275096426603
73, ,PASS, ,0.040427008631917005, ,0.027569291830230408, ,0.00036413906949706823, ,0.0002366968923627843, ,1.0, ,0.3628612142318214, ,0.514479296340891, ,0.06659047774535214
74, ,PASS, ,0.09869348370165003, ,0.08666536775913426, ,0.0015661140652306505, ,0.0017891465186547274, ,1.0, ,0.4164781461382708, ,0.5111732413624211, ,0.1106712107916165
75, ,PASS, ,0.043205619446583, ,0.03473722574855243, ,0.0004841419801218244, ,0.00031619328333872356, ,1.0, ,0.3958531003956375, ,0.5144997040876716, ,0.0916103752984633
76, ,PASS, ,0.033961850466756, ,0.023797018088336837, ,0.0003351168245757996, ,0.00017150546583189036, ,0.9166666666666666, ,0.3688508836516374, ,0.5147241893022592, ,0.07326381094263382
77, ,PASS, ,0.033739514893461005, ,0.023491651820126285, ,0.00028949119887823773, ,0.00016822440754486265, ,0.9166666666666666, ,0.3663930803509238, ,0.5145609273280137, ,0.0682026897410257
78, ,PASS, ,0.033784475773821994, ,0.023543614537331784, ,0.0002883756615522497, ,0.00016877050832385637, ,0.9166666666666666, ,0.3664479833864282, ,0.5145609273280137, ,0.06761086508438603
79, ,PASS, ,0.033539985211343, ,0.02343021830243234, ,0.0002414145509176828, ,0.00016670803522575423, ,1.0, ,0.36551055317309805, ,0.5147037815554785, ,0.0727332095263362
80, ,PASS, ,0.033877483616809, ,0.02389204656750775, ,0.00025802063952477447, ,0.00017169593525348019, ,1.0, ,0.36796014421850454, ,0.5145609273280137, ,0.07140670598559214
81, ,PASS, ,0.033830637486361996, ,0.023765346399076313, ,0.00027250944079643396, ,0.0001705138471788134, ,1.0, ,0.36753534299712154, ,0.514540519581233, ,0.07091692006285585
82, ,PASS, ,0.033648185240598, ,0.02362315366167022, ,0.00032807243774038333, ,0.0001686271205115932, ,1.0, ,0.36899138334430537, ,0.5147445970490399, ,0.06989653272382196
83, ,PASS, ,0.03358427176718699, ,0.023595107508005853, ,0.00026586794407841015, ,0.00016811292453000251, ,1.0, ,0.36749152001497765, ,0.5144997040876716, ,0.07144752147915348
84, ,PASS, ,0.03371033008520399, ,0.023374333849864048, ,0.0003201527076373402, ,0.0001672040189736553, ,0.9166666666666666, ,0.3664333719950915, ,0.514479296340891, ,0.06934552356074365
85, ,PASS, ,0.033640037637055004, ,0.023269085525077515, ,0.00023894542656048467, ,0.0001660959639491428, ,1.0, ,0.36342623407558144, ,0.5146629660619171, ,0.0667129242260362
86, ,PASS, ,0.03377778890107799, ,0.023491161488937918, ,0.000322271261167557, ,0.00016829708493353363, ,1.0, ,0.3669251911765616, ,0.5146629660619171, ,0.0672639333891145
87, ,PASS, ,0.033703599776229, ,0.023435515821754863, ,0.0003477617242067672, ,0.00016750146449981442, ,0.9166666666666666, ,0.36735975326377646, ,0.5148262280361625, ,0.06814146650068366
88, ,PASS, ,0.03380297448979799, ,0.02379047030795441, ,0.0003005575412739776, ,0.00017042846005790426, ,1.0, ,0.3684643770857347, ,0.5145813350747944, ,0.06989653272382196
89, ,PASS, ,0.033762684712155, ,0.023594607030028095, ,0.00027261601496295047, ,0.0001688583562933593, ,1.0, ,0.3661242966465365, ,0.5147241893022592, ,0.06885573763800738
90, ,PASS, ,0.033958723957236994, ,0.025497429066446854, ,0.00030227831052901695, ,0.00018303721504794846, ,1.0, ,0.3809453924018992, ,0.5147037815554785, ,0.07850860186526805
91, ,PASS, ,0.033929280509061, ,0.025600745148716696, ,0.0002712734668936481, ,0.00018354917950189002, ,1.0, ,0.38102550230436305, ,0.5145813350747944, ,0.0822636272729128
92, ,PASS, ,0.03365734183826301, ,0.023636212661256057, ,0.00030923029277060595, ,0.00016859119404353352, ,1.0, ,0.36831697541414815, ,0.5146221505683557, ,0.06946797004142773
93, ,PASS, ,0.033547733342072006, ,0.023567409905536657, ,0.0003012117922210911, ,0.00016753148294885095, ,1.0, ,0.36807783032407865, ,0.5146425583151364, ,0.0680190200199996
94, ,PASS, ,0.033568765599616995, ,0.023720683460619545, ,0.00024631913666412793, ,0.00016867050368727125, ,1.0, ,0.3674580952384595, ,0.5146833738086978, ,0.0732842186894145
95, ,PASS, ,0.03341384991063301, ,0.023371240150161524, ,0.0003050682526537882, ,0.00016552648594737876, ,1.0, ,0.3672791359633793, ,0.5147445970490399, ,0.0696720475092345
96, ,PASS, ,0.033374747458632004, ,0.023296561228876883, ,0.000276820398533169, ,0.00016476683523149099, ,1.0, ,0.36595781445032627, ,0.5147037815554785, ,0.07036591089977756
97, ,PASS, ,0.03322494755098101, ,0.022952779164170767, ,0.00029258744256290984, ,0.00016167876123318289, ,1.0, ,0.36451323677468384, ,0.5146833738086978, ,0.06503948899002061
98, ,PASS, ,0.03308742323369399, ,0.023108683481926674, ,0.00029728682673241615, ,0.00016202482558158712, ,1.0, ,0.36693178926843484, ,0.5143772576069876, ,0.07036591089977756
99, ,PASS, ,0.03303744003444101, ,0.02296209450030097, ,0.00028379034137368346, ,0.0001607669262341644, ,1.0, ,0.36579958174880817, ,0.5141527723924002, ,0.06812105875390298
100, ,PASS, ,0.032964561080011, ,0.023293978660108714, ,0.0002567952819467147, ,0.00016264360760210285, ,1.0, ,0.3680504543974523, ,0.5143772576069876, ,0.07283524826023959
101, ,PASS, ,0.033131934441221, ,0.02324538816689925, ,0.00026471455937743444, ,0.0001631722133907744, ,1.0, ,0.3669149246936471, ,0.5143364421134262, ,0.07030468765943552
102, ,PASS, ,0.033206995366400004, ,0.02331047031609904, ,0.0003156694115361124, ,0.0001639962025652468, ,1.0, ,0.36846440236223543, ,0.5144588885941104, ,0.07008020244484807
103, ,PASS, ,0.033078860123683995, ,0.023005869416360812, ,0.00029595088874759045, ,0.00016120318747441984, ,1.0, ,0.36578173830771765, ,0.5147037815554785, ,0.06854962143629721
104, ,PASS, ,0.033456538250334, ,0.023267590597123015, ,0.00030501924799913004, ,0.00016485984448808298, ,1.0, ,0.3661186836577432, ,0.5141527723924002, ,0.06724352564233382
105, ,PASS, ,0.03373748942334301, ,0.023366090162896487, ,0.0003598988665434443, ,0.00016706681002297082, ,1.0, ,0.36685337049771993, ,0.5144384808473297, ,0.06914144609293688
106, ,PASS, ,0.034018131346944, ,0.02382153098683976, ,0.00031170291151382586, ,0.0001716213157105116, ,1.0, ,0.36732041606447735, ,0.5146221505683557, ,0.06848839819595519
107, ,PASS, ,0.03423132074190399, ,0.024387714588243212, ,0.00033497048668273114, ,0.00017665297836658741, ,1.0, ,0.3714640251832961, ,0.5143568498602069, ,0.07169241444052162
108, ,PASS, ,0.034596154243934, ,0.025334900006817596, ,0.00033224443625164466, ,0.00018526948911538709, ,1.0, ,0.37662219699093064, ,0.5144588885941104, ,0.07428419828166773
