Channel, ,Pass/Fail, ,Amplitude, ,Sorting Function Response, ,Mean, ,Variance, ,NPeaksRatio, ,PosIntegralRatio, ,ToT50, ,ToT99
34, ,FAIL, ,0.0011096800000000191, ,7.978311429357866e-05, ,0.029144417797391884, ,9.343279496744044e-08, ,1.5833333333333333, ,0.4807147765400225, ,0.37203322381175896, ,0.011265076222934226
35, ,FAIL, ,0.0013602300000000178, ,8.446485398117954e-05, ,0.029166587244341943, ,1.219359047293357e-07, ,1.3333333333333333, ,0.32449433163809666, ,0.4955817228219832, ,0.004020326115793556
36, ,PASS, ,0.0032584400000000117, ,0.00021923797915521673, ,0.028973169412665045, ,7.626257924303863e-07, ,1.5833333333333333, ,0.46658236063157105, ,0.5216015999673476, ,0.01559151854043795
37, ,PASS, ,0.004958840000000006, ,0.0003266502122561941, ,0.029029428439215525, ,1.6963055199061437e-06, ,1.0833333333333333, ,0.3385933484755501, ,0.4860717128221873, ,0.008448807167200669
38, ,PASS, ,0.10112506999999997, ,0.01217211520634624, ,0.03700095950286729, ,0.0012552656858627986, ,1.6666666666666667, ,0.6748861142512858, ,0.5929470827125977, ,0.043570539376747416
39, ,PASS, ,0.11295545000000003, ,0.013064247689769425, ,0.03816009333829922, ,0.0015066493501353934, ,1.5833333333333333, ,0.6563214297746178, ,0.6030081018754719, ,0.044121548539825715
40, ,PASS, ,0.11133447000000003, ,0.012863139828023937, ,0.03787376028427991, ,0.001461838944585386, ,1.5833333333333333, ,0.654839064778605, ,0.6052529540213465, ,0.046550070406726395
41, ,PASS, ,0.09269445000000001, ,0.01153289571319105, ,0.03616050549662252, ,0.0010894806362335314, ,1.6666666666666667, ,0.6845103549073692, ,0.5938042080773862, ,0.06185588049223485
42, ,PASS, ,0.10700725999999998, ,0.013058299660956264, ,0.037392619406950885, ,0.0014251225170008827, ,1.6666666666666667, ,0.6800783135385279, ,0.5908859002877492, ,0.050243872574029104
43, ,PASS, ,0.11777286999999997, ,0.01361428885928885, ,0.03819345592763413, ,0.001636850734825341, ,1.5833333333333333, ,0.6566622094112239, ,0.6015183363604825, ,0.0434889083896247
44, ,PASS, ,0.11509405000000002, ,0.013264204519102681, ,0.037906086563335446, ,0.0015585589462996218, ,1.5833333333333333, ,0.6544044137705298, ,0.6049468378196363, ,0.04681537111487521
45, ,PASS, ,0.09803583, ,0.011974522852794956, ,0.036576730541825676, ,0.0011973062845124555, ,1.6666666666666667, ,0.6764061900699103, ,0.5978857574335218, ,0.062121181200383666
46, ,PASS, ,0.10452808000000001, ,0.013094688971847212, ,0.036895457530458566, ,0.0013950951792651124, ,1.75, ,0.6905059376828382, ,0.5885390094079712, ,0.0554274402563213
47, ,PASS, ,0.11470303000000004, ,0.013370337769495777, ,0.038161982697087815, ,0.0015651829375868214, ,1.5833333333333333, ,0.6603315462257507, ,0.6011101814248688, ,0.045652129548376566
48, ,PASS, ,0.11246606, ,0.013012740301700921, ,0.03785837239913471, ,0.0014939880523582069, ,1.5833333333333333, ,0.6551655883175824, ,0.6049876533131977, ,0.0422848513295647
49, ,PASS, ,0.09505669, ,0.011648998269589402, ,0.03651441620497541, ,0.001129155058333518, ,1.6666666666666667, ,0.6772561118259217, ,0.5974571947511276, ,0.05659068182281994
50, ,PASS, ,0.10100215999999997, ,0.012730878625482023, ,0.03664488544825616, ,0.0013104833461481406, ,1.6666666666666667, ,0.694722432761953, ,0.58609007979429, ,0.06103957062100773
51, ,PASS, ,0.11467874000000004, ,0.01332712147953739, ,0.03801818078386156, ,0.0015597597063242029, ,1.5833333333333333, ,0.6589755415430285, ,0.6007020264892553, ,0.04479500418358809
52, ,PASS, ,0.11250612999999998, ,0.012958824504136662, ,0.038101118028407585, ,0.001488261939304853, ,1.5833333333333333, ,0.6547511727661386, ,0.6047223526050489, ,0.0455296830676925
53, ,PASS, ,0.09367318000000001, ,0.01158374026687825, ,0.036384086990469584, ,0.001106381628450082, ,1.6666666666666667, ,0.6815179749056114, ,0.595844982755454, ,0.06367216995571519
54, ,PASS, ,0.09750347000000001, ,0.01312614322204056, ,0.03603031055629478, ,0.0013030810986307902, ,1.75, ,0.7211774719416789, ,0.5767433317687394, ,0.06557009040631824
55, ,PASS, ,0.12035487000000004, ,0.013899745661600451, ,0.03840169877778005, ,0.0017074475811001502, ,1.5833333333333333, ,0.6568824495633274, ,0.6005387645150099, ,0.040835901308136566
56, ,PASS, ,0.11875614000000001, ,0.013538767101237343, ,0.03845217508275341, ,0.001641861692489156, ,1.5833333333333333, ,0.650386773651596, ,0.6060080406522316, ,0.04336646190894063
57, ,PASS, ,0.10077728, ,0.012273471151331112, ,0.03699008669435318, ,0.0012614303226834986, ,1.6666666666666667, ,0.6755403918624907, ,0.5971510785494174, ,0.05614171139364503
58, ,PASS, ,0.09279181000000002, ,0.013285935736626722, ,0.035600343542356284, ,0.0012541480660264203, ,1.75, ,0.7458353691116394, ,0.5727230056529459, ,0.10856921287320667
59, ,PASS, ,0.1177164, ,0.013747618346900074, ,0.03822111683353401, ,0.001651810736520679, ,1.6666666666666667, ,0.6612573884097702, ,0.5996612314034407, ,0.044876635170710805
60, ,PASS, ,0.11683374000000002, ,0.013355783362089271, ,0.03812931541927716, ,0.00159327815035483, ,1.5833333333333333, ,0.6505394698424938, ,0.6059876329054509, ,0.041652211179363685
61, ,PASS, ,0.09806275999999998, ,0.012140611728012684, ,0.03668809719556744, ,0.0012136004668401074, ,1.6666666666666667, ,0.6818490827539438, ,0.5958857982490153, ,0.06612109956939655
62, ,PASS, ,0.09065588999999999, ,0.013113372902122762, ,0.03545395385049285, ,0.0012092819365325884, ,1.75, ,0.7499239226637611, ,0.5701924450521418, ,0.10418154731536092
63, ,PASS, ,0.11802093999999999, ,0.013758375923531874, ,0.03813966565968042, ,0.0016572427901238567, ,1.6666666666666667, ,0.6612460925550082, ,0.6001714250729577, ,0.04771331197322504
64, ,PASS, ,0.11668147000000001, ,0.013316628429913484, ,0.038331855655598865, ,0.0015866234038921746, ,1.5833333333333333, ,0.6509663839430241, ,0.6057019244505214, ,0.043692985857431484
65, ,PASS, ,0.09811241999999998, ,0.012253877393614538, ,0.03681283838227792, ,0.001225702342668561, ,1.6666666666666667, ,0.6861838468540655, ,0.5943348094936838, ,0.06475378053509112
66, ,PASS, ,0.10208140000000002, ,0.013943137740465001, ,0.0364890870160609, ,0.0014489847941647504, ,1.75, ,0.7272138529293568, ,0.5738046162323218, ,0.0727332095263362
67, ,PASS, ,0.12378734000000001, ,0.014213075759874733, ,0.038871943501969354, ,0.0017964585505195548, ,1.6666666666666667, ,0.6552630962320504, ,0.6005183567682292, ,0.0421011816085386
68, ,PASS, ,0.12252706000000001, ,0.013850066899903944, ,0.0388021798406155, ,0.0017331716678301089, ,1.5833333333333333, ,0.6469937155678323, ,0.606742719536336, ,0.04057060059998775
69, ,PASS, ,0.10332595000000001, ,0.012832604507385457, ,0.037254715763964004, ,0.0013516448864869437, ,1.6666666666666667, ,0.6838249547113091, ,0.5927634129915716, ,0.061345686822717904
70, ,PASS, ,0.09702665999999999, ,0.013443573519503444, ,0.03577915803534622, ,0.0013276627102795913, ,1.75, ,0.7341287314225499, ,0.5727842288932878, ,0.09005938654313177
71, ,PASS, ,0.12047484000000006, ,0.013889338871539546, ,0.03854846286606396, ,0.0017082529271083974, ,1.5833333333333333, ,0.6570734527047254, ,0.6007836574763781, ,0.04352972388318606
72, ,PASS, ,0.11907687000000002, ,0.013525054755124381, ,0.03859974967225159, ,0.0016447578205263048, ,1.5833333333333333, ,0.648968046847486, ,0.6064161955878451, ,0.04420317952694843
73, ,PASS, ,0.09781819, ,0.01238309262089099, ,0.03658071914491541, ,0.0012345403744851743, ,1.6666666666666667, ,0.6913281959560952, ,0.5910491622619947, ,0.06505989673680129
74, ,PASS, ,0.09529620000000001, ,0.013367686590733547, ,0.035812231374869906, ,0.0012964388484665822, ,1.75, ,0.7408252024913227, ,0.5699271443439929, ,0.08773290341013448
75, ,PASS, ,0.12019121000000003, ,0.013799860550136243, ,0.038521437787596174, ,0.0016934825244947684, ,1.5833333333333333, ,0.6555187139065878, ,0.6012530356523337, ,0.0421011816085386
76, ,PASS, ,0.11850843000000003, ,0.013469686151625122, ,0.03849366529397359, ,0.0016300725204266872, ,1.5833333333333333, ,0.6486577188336126, ,0.6062121181200384, ,0.043325646415379275
77, ,PASS, ,0.09665217, ,0.012410495552181051, ,0.03634035142854228, ,0.0012220291225375857, ,1.75, ,0.6981249009569407, ,0.5884981939144099, ,0.07156996795983755
78, ,PASS, ,0.10334047000000005, ,0.01388679251896895, ,0.03625579854784596, ,0.0014611342328070555, ,1.75, ,0.7245342518502356, ,0.5706414154813167, ,0.05912124242362401
79, ,PASS, ,0.12559510000000002, ,0.014243440355988323, ,0.03866365349870411, ,0.001826651134283379, ,1.5833333333333333, ,0.6511336635013626, ,0.6009673271974041, ,0.04030529989183894
80, ,PASS, ,0.1243747, ,0.013910652329029573, ,0.03884269491561397, ,0.0017673709217897553, ,1.5833333333333333, ,0.6433362251299035, ,0.6079671843431766, ,0.04136650272443419
81, ,PASS, ,0.10766621000000001, ,0.013242986429654692, ,0.03727824184179915, ,0.0014539728047354733, ,1.6666666666666667, ,0.6803546717711901, ,0.5921511805881513, ,0.0474684190118569
82, ,PASS, ,0.09581648000000001, ,0.013006309729605202, ,0.035578495401910167, ,0.0012689645542437928, ,1.75, ,0.7295477919123086, ,0.5697026591294055, ,0.07593722577090263
83, ,PASS, ,0.12242253000000003, ,0.013917146056871806, ,0.038685308863492585, ,0.0017398251472089572, ,1.5833333333333333, ,0.651613260838602, ,0.6017428215750699, ,0.039978775943348095
84, ,PASS, ,0.12131495000000005, ,0.01358477577731712, ,0.03856218854860105, ,0.0016833971877901308, ,1.5833333333333333, ,0.6433992691756321, ,0.6071508744719496, ,0.04022366890471623
85, ,PASS, ,0.10153292, ,0.012654061175625909, ,0.03687522137772699, ,0.0013097934993939308, ,1.6666666666666667, ,0.6855363273547466, ,0.5906614150731617, ,0.05361115079284096
86, ,PASS, ,0.09466857000000001, ,0.012992015016472954, ,0.03520745530701415, ,0.0012524621465353533, ,1.6666666666666667, ,0.7342983304197599, ,0.5676210689577764, ,0.07463112997693924
87, ,PASS, ,0.12274663000000002, ,0.01392713017606167, ,0.0386309389802249, ,0.0017454837410685391, ,1.5833333333333333, ,0.6509022455203727, ,0.6015591518540438, ,0.041182833003408095
88, ,PASS, ,0.12144640000000007, ,0.01360226119672857, ,0.038664066446399054, ,0.0016873606741434348, ,1.5833333333333333, ,0.6435777397117782, ,0.6082733005448868, ,0.040366523132180976
89, ,PASS, ,0.10152157, ,0.012792945739509594, ,0.03670762867186384, ,0.0013237489531241283, ,1.75, ,0.6916151853684375, ,0.5895389890002245, ,0.05957021285279892
198, ,PASS, ,0.18238490000000007, ,0.03261627945275537, ,0.041314934224811736, ,0.0062203724253366895, ,2.0, ,0.8497641189812758, ,0.5331319768984306, ,0.04383584008489623
199, ,PASS, ,0.13929446, ,0.018742307749359748, ,0.028521645441521606, ,0.0027136875796929037, ,2.0, ,0.8518492181842348, ,0.5406624354605009, ,0.043672578110650805
200, ,PASS, ,0.14203415, ,0.019346429299724126, ,0.028582837485153365, ,0.002863718603475323, ,2.0, ,0.8404351536077402, ,0.538499214301749, ,0.03634619701638742
201, ,PASS, ,0.13974600000000004, ,0.01881771347179368, ,0.028769795416624153, ,0.002722128463766943, ,2.0, ,0.8467879250632074, ,0.5428460643660333, ,0.039488990020611826
202, ,PASS, ,0.1135884, ,0.015017546314767627, ,0.02832469559457971, ,0.0017882261247176622, ,2.0, ,0.8356971057243084, ,0.5368257790657334, ,0.0343258300851003
203, ,PASS, ,0.09891575000000001, ,0.01312688987907269, ,0.028639691432215668, ,0.0013687887165968074, ,2.0, ,0.8340380253826932, ,0.534254402971368, ,0.03277484132976878
204, ,PASS, ,0.07841348999999999, ,0.010528197820833368, ,0.028584609047284746, ,0.0008815591381988133, ,1.9166666666666667, ,0.8253931439542845, ,0.5295810289585927, ,0.03212179343278709
205, ,PASS, ,0.07733390999999998, ,0.010457746565930242, ,0.028890949758739615, ,0.0008653584429396253, ,1.9166666666666667, ,0.8162195644745156, ,0.5281320789371645, ,0.03171363849717353
206, ,PASS, ,0.06800661600000002, ,0.00898274657167047, ,0.028936108359155936, ,0.0006550369559822052, ,1.9166666666666667, ,0.8161403581345458, ,0.5285402338727782, ,0.03204016244566438
207, ,PASS, ,0.07395711, ,0.009892756808581083, ,0.02874386409750821, ,0.0007849811183062644, ,1.9166666666666667, ,0.813975668355711, ,0.5275810697740863, ,0.025550498969408787
208, ,PASS, ,0.06395559299999999, ,0.008689431433794784, ,0.02894989521724108, ,0.0005990425894587975, ,1.9166666666666667, ,0.8158370840766416, ,0.5258055958041673, ,0.03020346523540336
209, ,PASS, ,0.057565462000000005, ,0.00767124714991532, ,0.028759525952192815, ,0.00047782419185084376, ,1.9166666666666667, ,0.8146461902387371, ,0.5253974408685537, ,0.028366768025142344
210, ,PASS, ,0.06568492499999999, ,0.008860734706318096, ,0.028823365168676153, ,0.0006268614180710331, ,1.9166666666666667, ,0.8156630261515441, ,0.5260708965123161, ,0.02912185465602743
211, ,PASS, ,0.06742947400000002, ,0.00909885402207632, ,0.028670522434154407, ,0.0006592262857723254, ,1.9166666666666667, ,0.8219671828344426, ,0.5274382155466215, ,0.03059121242423624
212, ,PASS, ,0.10356222, ,0.014626142140303429, ,0.029289942655251932, ,0.0015865035937079922, ,2.0, ,0.8382292695358843, ,0.5347237811473236, ,0.03616252729536132
213, ,PASS, ,0.08191195000000003, ,0.01116148842864412, ,0.028997633176486192, ,0.0009731690322330785, ,1.9166666666666667, ,0.8262940229899957, ,0.5301524458684517, ,0.03165241525683149
214, ,PASS, ,0.07382879999999999, ,0.009987628052273923, ,0.028744008881002422, ,0.0007885779165558366, ,1.9166666666666667, ,0.8255969214546949, ,0.5291116507826371, ,0.029652456072325056
215, ,PASS, ,0.09379035, ,0.013009028641212748, ,0.028890332971367932, ,0.0012882215982185652, ,2.0, ,0.8320735102613469, ,0.5324177057611069, ,0.03652986673741352
216, ,PASS, ,0.08821616, ,0.012122011041109024, ,0.02877805685700292, ,0.0011316441878843119, ,2.0, ,0.8342240339754539, ,0.5321115895593967, ,0.033897267402706065
217, ,PASS, ,0.08365826000000003, ,0.011401093359003281, ,0.02869630124834187, ,0.0010158134964789903, ,1.9166666666666667, ,0.8300658407598672, ,0.5301932613620131, ,0.028958592681782004
218, ,PASS, ,0.09821890000000001, ,0.013649935710156422, ,0.028896834646231707, ,0.0014153366072518032, ,2.0, ,0.8337872626647289, ,0.5324381135078876, ,0.03440746107222301
219, ,PASS, ,0.08974121000000003, ,0.012282178522381471, ,0.028860323130752437, ,0.0011662451654278338, ,2.0, ,0.8348327610345359, ,0.5321524050529581, ,0.032631987102304034
220, ,PASS, ,0.08484405000000002, ,0.011604860535192866, ,0.02893777956490684, ,0.0010449377352498125, ,2.0, ,0.836416093561102, ,0.5315605803963185, ,0.03406052937695149
221, ,PASS, ,0.09619167000000002, ,0.013259174264233266, ,0.02870400660272239, ,0.0013448552430648888, ,2.0, ,0.8386554374837253, ,0.5336217628211669, ,0.03410134487051285
222, ,PASS, ,0.06667232499999999, ,0.00891110382136292, ,0.02864944173617069, ,0.0006412220645088272, ,1.9166666666666667, ,0.8193149023414183, ,0.5263361972204649, ,0.027570865900695903
223, ,PASS, ,0.08435609, ,0.011480732587006971, ,0.028559699155119283, ,0.0010312641902745644, ,1.9166666666666667, ,0.8333651226740719, ,0.5304381543233812, ,0.03212179343278709
224, ,PASS, ,0.08331081000000004, ,0.011376449517189642, ,0.0286727703564417, ,0.0010161626901420365, ,1.9166666666666667, ,0.8257019374771025, ,0.5277851472418931, ,0.03530540193057285
225, ,PASS, ,0.07397226, ,0.009792303659183118, ,0.028842073596232726, ,0.0007802081250129994, ,1.9166666666666667, ,0.8193310269014955, ,0.5269688373706659, ,0.029856533540131833
226, ,PASS, ,0.067677341, ,0.008931309409407402, ,0.028761184248611255, ,0.000652311360562619, ,1.9166666666666667, ,0.8255277538450047, ,0.5271933225852533, ,0.030876920879165732
227, ,PASS, ,0.10750144000000005, ,0.014899840040038097, ,0.028702996930878966, ,0.0016951868356845645, ,2.0, ,0.8355060056304026, ,0.5315401726495378, ,0.03557070263872166
228, ,PASS, ,0.1951958, ,0.03693246810268765, ,0.04565421102548928, ,0.007531439567666843, ,1.8333333333333333, ,0.843227103056777, ,0.5363768086365585, ,0.0434889083896247
229, ,PASS, ,0.18148760000000005, ,0.03317172082047942, ,0.04008665124650517, ,0.006270310784809641, ,1.8333333333333333, ,0.8434736098077877, ,0.5370298565335402, ,0.042448113303810125
230, ,PASS, ,0.1923501, ,0.036183633320015486, ,0.04393254681720782, ,0.007273892092778679, ,1.8333333333333333, ,0.8432288294340765, ,0.533866655782535, ,0.04048896961286504
231, ,PASS, ,0.19980000000000012, ,0.04285362546671872, ,0.053654660847329706, ,0.008938664011316542, ,1.9166666666666667, ,0.9448014945024398, ,0.5412746678639212, ,0.472214852758107
232, ,PASS, ,0.10265602000000003, ,0.014065847519370622, ,0.0288961842215465, ,0.0015190747077359155, ,2.0, ,0.8452457565951532, ,0.5349278586151303, ,0.037162506887614535
233, ,PASS, ,0.08913842999999999, ,0.011913746916022903, ,0.02877219258892676, ,0.001131836859647132, ,1.9166666666666667, ,0.8362437847441314, ,0.5309687557396788, ,0.03397889838982878
234, ,PASS, ,0.10120731, ,0.013781214803567038, ,0.028640925652129542, ,0.0014765242931521418, ,2.0, ,0.8406986583677389, ,0.5329074916838432, ,0.033489112467092505
235, ,PASS, ,0.11086136000000003, ,0.015140502913966793, ,0.02862713470623049, ,0.0017698231217327981, ,2.0, ,0.8436657710686812, ,0.5340707332503418, ,0.03706046815371115
236, ,PASS, ,0.07267189, ,0.009548445510634291, ,0.02862647996763331, ,0.0007529820995046526, ,1.9166666666666667, ,0.8261282451824361, ,0.5259892655251933, ,0.02710148772474031
237, ,PASS, ,0.09246741000000003, ,0.011984817167292681, ,0.02848276110038571, ,0.0011856360918945116, ,1.9166666666666667, ,0.8357407413122302, ,0.5311116099671436, ,0.028652476480071836
238, ,PASS, ,0.09153704, ,0.011703941481644062, ,0.028491820056937612, ,0.00115110494184571, ,1.9166666666666667, ,0.8305233996012962, ,0.5302953000959164, ,0.026672925042346075
239, ,PASS, ,0.07373448, ,0.009204716483599593, ,0.02849506463306871, ,0.0007405569815078681, ,1.9166666666666667, ,0.824570708069266, ,0.5262749739801229, ,0.02444848064325218
240, ,PASS, ,0.08615612000000003, ,0.010677515416377998, ,0.028552090877002504, ,0.0009975910615884298, ,1.9166666666666667, ,0.831987984561331, ,0.5288871655680496, ,0.024550519377155567
241, ,PASS, ,0.10757155, ,0.0133142150272095, ,0.02825929665251729, ,0.0015412182216620717, ,1.9166666666666667, ,0.8451095727397194, ,0.5318258811044673, ,0.02873410746719455
242, ,PASS, ,0.10219825999999999, ,0.011620020579613782, ,0.02800369338870635, ,0.00129715353306405, ,1.9166666666666667, ,0.8395744198532185, ,0.5309075324993368, ,0.02481582008530438
243, ,PASS, ,0.09085028000000003, ,0.010237674412705117, ,0.028213424603293808, ,0.0010292803958856982, ,1.9166666666666667, ,0.8397517079083731, ,0.5274994387869635, ,0.0230403461153854
244, ,PASS, ,0.1612493, ,0.02545672901494358, ,0.03343176205220301, ,0.004383258701587226, ,2.0, ,0.8486539123643042, ,0.5302953000959164, ,0.027142303218301668
245, ,PASS, ,0.17306660000000001, ,0.028907473201904843, ,0.03662943017040469, ,0.005368441956382496, ,2.0, ,0.8464056828227181, ,0.5266219056753944, ,0.02710148772474031
