Channel, ,Pass/Fail, ,Amplitude, ,Sorting Function Response, ,Mean, ,Variance, ,NPeaksRatio, ,PosIntegralRatio, ,ToT50, ,ToT99
60, ,PASS, ,0.034228841000000024, ,0.0015528955480543778, ,0.02822633529336136, ,5.408839824385745e-05, ,0.8333333333333334, ,0.3931004603090448, ,0.4147058223301565, ,0.012754841737923716
61, ,PASS, ,0.05629323820000001, ,0.0025149088381881232, ,0.02721070066202731, ,0.00015159177201388592, ,1.0833333333333333, ,0.4010040739734431, ,0.4180526928021877, ,0.017836370686312525
62, ,PASS, ,0.05665019237999999, ,0.0026953117711177865, ,0.02736820613211975, ,0.00015747889230992914, ,0.9166666666666666, ,0.4062086821310016, ,0.41227730046325584, ,0.017060876308646764
63, ,PASS, ,0.031825389999999995, ,0.0013553422971311828, ,0.0276080423403604, ,4.453297068450456e-05, ,0.9166666666666666, ,0.3628763978026554, ,0.4080324891328748, ,0.01736699251035693
64, ,PASS, ,0.03226536, ,0.0012910448714987548, ,0.02781890090896104, ,4.415335988833326e-05, ,0.9166666666666666, ,0.361927599455618, ,0.4194404195832738, ,0.016264974184200323
65, ,PASS, ,0.05686542348000001, ,0.002590155456878301, ,0.02734012711067121, ,0.0001560786887036858, ,1.0833333333333333, ,0.39805046991452797, ,0.4162159955919267, ,0.016428236158445745
66, ,PASS, ,0.05660257156000002, ,0.0026516370627522284, ,0.0273503894293994, ,0.00015534383035721913, ,1.0, ,0.4028384664844466, ,0.4138078814718067, ,0.01708128405542744
67, ,PASS, ,0.02837832, ,0.0011852551189245502, ,0.027938070692638924, ,3.535923110363353e-05, ,0.9166666666666666, ,0.3637679901226907, ,0.4206444766433338, ,0.017713924205628458
68, ,PASS, ,0.03533920700000004, ,0.0018834702869582952, ,0.02751434485990082, ,7.015168713928385e-05, ,1.4166666666666667, ,0.4509709457804617, ,0.4163180343258301, ,0.017550662231383032
69, ,PASS, ,0.06008091951999999, ,0.003319632732721332, ,0.02685699879369809, ,0.00021204190174049667, ,1.5833333333333333, ,0.4580582504915823, ,0.415562947694945, ,0.01844860308973286
70, ,PASS, ,0.0614010495, ,0.0033531392591599407, ,0.026819735857839637, ,0.0002165213065403576, ,1.4166666666666667, ,0.4523942712672034, ,0.41476704557049854, ,0.018815942531785066
71, ,PASS, ,0.03148257999999999, ,0.001745466752763142, ,0.027574510394277666, ,5.838191676695416e-05, ,1.5833333333333333, ,0.4611786685306682, ,0.41939960408971244, ,0.017999632660557947
72, ,PASS, ,0.038015748000000016, ,0.0019309620604484041, ,0.027885205076018858, ,7.657486733815363e-05, ,1.1666666666666667, ,0.424008857851456, ,0.422787290055305, ,0.018040448154119305
73, ,PASS, ,0.06428019800000001, ,0.003770077753098702, ,0.026683787322503625, ,0.00024899741610184253, ,1.5833333333333333, ,0.4612218966981143, ,0.4143180751413236, ,0.019122058733495234
74, ,PASS, ,0.064780781, ,0.003779908850904867, ,0.027128781735678863, ,0.0002610939252065991, ,1.5833333333333333, ,0.46616472442091145, ,0.4310320197546989, ,0.019938368604722354
75, ,PASS, ,0.036075831000000017, ,0.001898161805817709, ,0.027612800446725577, ,7.103780863782232e-05, ,1.1666666666666667, ,0.43149707585248304, ,0.4100732638109426, ,0.0190608354931532
76, ,PASS, ,0.03518052300000002, ,0.0017379814054993181, ,0.027669605498255135, ,6.386336668749703e-05, ,1.0833333333333333, ,0.41702253527568706, ,0.4173180139180833, ,0.01797922491377727
77, ,PASS, ,0.06292849000000002, ,0.003578612571406557, ,0.026648479524091346, ,0.00023686418964934317, ,1.4166666666666667, ,0.46442714100067667, ,0.4126038244117467, ,0.019530213669108794
78, ,PASS, ,0.06450988000000002, ,0.0037596667061641255, ,0.026797510124895414, ,0.0002532158335561403, ,1.5, ,0.46621179839147975, ,0.4188690026734148, ,0.01928532070774066
79, ,PASS, ,0.033247145000000006, ,0.0017030583535288658, ,0.02765700288096161, ,5.9663505796488746e-05, ,1.25, ,0.4292561071526554, ,0.41495071529152466, ,0.01904042774637252
80, ,PASS, ,0.046968881999999976, ,0.0028960533469447242, ,0.02706240011285484, ,0.00014299466658862392, ,1.5, ,0.4897811929000162, ,0.4093385849268382, ,0.020632231995265402
81, ,PASS, ,0.07690073899999998, ,0.005910682027179314, ,0.02703110397924532, ,0.0004561069558868491, ,1.8333333333333333, ,0.5431738278248298, ,0.4380318769004714, ,0.01965266014979286
82, ,PASS, ,0.07497773700000002, ,0.005273534380252916, ,0.025773282454705008, ,0.0004125391355940845, ,1.75, ,0.5290248934558368, ,0.4146445990898145, ,0.021203648905124384
83, ,PASS, ,0.04306351799999999, ,0.003040681101328296, ,0.027749951074059715, ,0.00013443612055751835, ,1.75, ,0.5315624654864192, ,0.429440215505806, ,0.020346523540335913
84, ,PASS, ,0.04643627299999998, ,0.0026815321143883694, ,0.02706873791494051, ,0.00013077049392681261, ,1.3333333333333333, ,0.46577190578103367, ,0.41080794269504706, ,0.01965266014979286
85, ,PASS, ,0.07875051399999998, ,0.00511066580601425, ,0.026105302099753064, ,0.0004208150602002628, ,1.5833333333333333, ,0.5013956294061688, ,0.4126038244117467, ,0.020326115793555234
86, ,PASS, ,0.076814875, ,0.004950340346087612, ,0.02597196401616294, ,0.0003980719808139594, ,1.5833333333333333, ,0.4998646845963496, ,0.4097263321156711, ,0.021693434827860656
87, ,PASS, ,0.04064580400000001, ,0.0022862981323031827, ,0.02753916164404808, ,9.847316790415227e-05, ,1.25, ,0.46234003257809475, ,0.4129711638537989, ,0.020346523540335913
88, ,PASS, ,0.04369507199999998, ,0.002908839143179696, ,0.02681572467541479, ,0.00013329668259307544, ,1.5833333333333333, ,0.5149988332481328, ,0.4075631109569193, ,0.0190608354931532
89, ,PASS, ,0.07680246900000001, ,0.005570208765951717, ,0.02573119254047877, ,0.0004457643622648989, ,1.8333333333333333, ,0.5381905908001521, ,0.41560376318850634, ,0.02065263974204608
90, ,PASS, ,0.07570209599999998, ,0.00574518093684221, ,0.027890522633211567, ,0.000455505955451198, ,1.9166666666666667, ,0.5441552674289749, ,0.47078631048345954, ,0.02136691087936981
91, ,PASS, ,0.041825229000000005, ,0.002643187958540214, ,0.027222052078120854, ,0.0001162276120574755, ,1.5, ,0.49593888924069124, ,0.4088896144976633, ,0.022183220750596925
92, ,PASS, ,0.037820337000000016, ,0.0023048709162037505, ,0.027638220793453197, ,9.070920683619277e-05, ,1.4166666666666667, ,0.48355469380586386, ,0.4231342217505765, ,0.019591436909450827
93, ,PASS, ,0.07378453799999998, ,0.005118783515210522, ,0.025985967445439892, ,0.0003970222122402282, ,1.6666666666666667, ,0.5270740975520615, ,0.4114813983388094, ,0.02016285381930981
94, ,PASS, ,0.07568162499999995, ,0.005370439821218353, ,0.02560274462957899, ,0.00042450108472501453, ,1.6666666666666667, ,0.5307498760488452, ,0.40664476235178876, ,0.021407726372931164
95, ,PASS, ,0.039048071, ,0.002536667019479276, ,0.027245951152629542, ,0.00010467334593124829, ,1.6666666666666667, ,0.5056617967123834, ,0.41735882941164465, ,0.02355053978490235
96, ,PASS, ,0.035954438000000026, ,0.0021807759415735533, ,0.027163665275402545, ,8.254412404664415e-05, ,1.5, ,0.48547723040365687, ,0.4115834370727128, ,0.02006081508540642
97, ,PASS, ,0.07357295200000001, ,0.005250915584535521, ,0.025817579100671416, ,0.0004032278548376707, ,1.6666666666666667, ,0.5366356974276201, ,0.40282851370380196, ,0.020632231995265402
98, ,PASS, ,0.074623784, ,0.005406771013117162, ,0.025703942269137366, ,0.0004187008132749058, ,1.6666666666666667, ,0.5361283144279041, ,0.40654272361788535, ,0.02116283341156303
99, ,PASS, ,0.03572306600000004, ,0.002317286488738033, ,0.02725217020326116, ,8.66063301465417e-05, ,1.5, ,0.5031505959724308, ,0.40864472153629516, ,0.020877124956633537
100, ,PASS, ,0.03509645200000003, ,0.0014773123553368278, ,0.02779143581784045, ,5.4762903907818334e-05, ,0.8333333333333334, ,0.3490761718778659, ,0.41790983857472297, ,0.018020040407338626
101, ,PASS, ,0.07523449599999998, ,0.003946284526292125, ,0.02692358338993082, ,0.0003108971145673034, ,1.0833333333333333, ,0.42506012577679203, ,0.41488949205118264, ,0.019591436909450827
102, ,PASS, ,0.074812009, ,0.004126923523396331, ,0.026996433430542234, ,0.00031829355831569536, ,1.1666666666666667, ,0.43658058409494027, ,0.4147058223301565, ,0.021122017918001675
103, ,PASS, ,0.032789995000000016, ,0.0015244846750335841, ,0.028057231061202833, ,5.2481038333259636e-05, ,0.9166666666666666, ,0.37254535132754263, ,0.41690985898246974, ,0.018979204506030488
198, ,FAIL, ,0.028728501119999986, ,0.0027859045500270917, ,0.026837130524275016, ,8.480501887384548e-05, ,1.9166666666666667, ,0.7370087572103393, ,0.4150119385318667, ,0.0006530478969816942
199, ,PASS, ,0.019451410000000002, ,0.0022369172881658863, ,0.027313739559804904, ,4.593438007098546e-05, ,1.8333333333333333, ,0.767579935506568, ,0.41290994061345687, ,0.001510173261770168
200, ,PASS, ,0.039221656000000035, ,0.004010329711031073, ,0.026653809663680337, ,0.00016612822482963826, ,1.9166666666666667, ,0.7571824725941776, ,0.4197057202914226, ,0.01122426072937287
201, ,PASS, ,0.08516237000000002, ,0.008005346381438957, ,0.02475661056820269, ,0.0007291788795498324, ,1.9166666666666667, ,0.804551115348894, ,0.4225628048407175, ,0.017938409420215913
202, ,PASS, ,0.08786004000000003, ,0.008059061531558312, ,0.024857279326054568, ,0.0007436472896613051, ,1.9166666666666667, ,0.7921827798437262, ,0.4253790738964511, ,0.01520377135160507
203, ,PASS, ,0.0820479, ,0.007337572329516833, ,0.025143304281422828, ,0.0006458114157094053, ,1.9166666666666667, ,0.8017670949541738, ,0.42284851329564704, ,0.016754760106936592
204, ,PASS, ,0.07512219999999997, ,0.006514349020597363, ,0.025729018780045302, ,0.0005062679160189334, ,1.9166666666666667, ,0.7897547000661082, ,0.4287871676088243, ,0.015632334033999305
205, ,PASS, ,0.07854226000000002, ,0.006681986881343783, ,0.025900461577151486, ,0.000555468078088237, ,1.9166666666666667, ,0.7908967273852804, ,0.43358298810228363, ,0.0188771657721271
206, ,PASS, ,0.07031358, ,0.005854698931784262, ,0.025747455536070694, ,0.00043269634699787075, ,1.9166666666666667, ,0.7905527513526668, ,0.42319544499091855, ,0.01340788963490541
207, ,PASS, ,0.07116842000000001, ,0.005812111452284056, ,0.02581738867927185, ,0.0004465723288561573, ,1.8333333333333333, ,0.7894299488113733, ,0.4250729576947409, ,0.013836452317299647
208, ,PASS, ,0.06885642, ,0.006023996351409634, ,0.02592793210469174, ,0.00042906420802590666, ,1.9166666666666667, ,0.7807770743823668, ,0.4286034978877982, ,0.0135099283688088
209, ,PASS, ,0.07333024, ,0.006627872672686108, ,0.025452902581396295, ,0.0005061253631895753, ,1.9166666666666667, ,0.772178178515424, ,0.42317503724413785, ,0.010877329034101345
210, ,PASS, ,0.07408091999999998, ,0.006270188936546961, ,0.025309671389930816, ,0.0004923466974327377, ,1.9166666666666667, ,0.7746324386942547, ,0.42162404848880636, ,0.011530376931083039
211, ,PASS, ,0.07135143999999999, ,0.006346731834074203, ,0.027704642313401764, ,0.00047957520395158087, ,1.9166666666666667, ,0.7986834924560953, ,0.4676843329727965, ,0.022489336952307096
212, ,PASS, ,0.11431354000000002, ,0.008407830020967006, ,0.02488689613303565, ,0.0010390053522682128, ,1.75, ,0.7797435296799353, ,0.4485010509989592, ,0.016142527703516256
213, ,PASS, ,0.08123635000000001, ,0.006896595904326463, ,0.02548801599383686, ,0.0005897362876665445, ,1.9166666666666667, ,0.7941743117302548, ,0.42735862533417684, ,0.014469092467500663
214, ,PASS, ,0.08313015000000003, ,0.007892296642347309, ,0.025094429126711698, ,0.0006803822106277349, ,1.9166666666666667, ,0.7867232572096258, ,0.42505254994796027, ,0.013550743862370155
215, ,PASS, ,0.03954130300000005, ,0.0040553189480957525, ,0.02677297080467746, ,0.00016466112662089297, ,1.9166666666666667, ,0.7584232440498471, ,0.4233382992183833, ,0.01191812411991592
216, ,FAIL, ,0.022198953000000018, ,0.002085602165236151, ,0.02736278383461562, ,4.905824169959808e-05, ,1.9166666666666667, ,0.723552576602851, ,0.41774657660047754, ,0.000755086630885084
217, ,PASS, ,0.023772105459999998, ,0.0024168303354563233, ,0.027155757939633884, ,6.115418266068538e-05, ,1.8333333333333333, ,0.758110310958256, ,0.4151139772657701, ,0.0005714169098589825
