Channel, ,Pass/Fail, ,Amplitude, ,Sorting Function Response, ,Mean, ,Variance, ,NPeaksRatio, ,PosIntegralRatio, ,ToT50, ,ToT99
0, ,PASS, ,0.04975673999999999, ,0.00826440417284142, ,0.03695510455256015, ,0.00041333805484115567, ,1.9166666666666667, ,0.753106432898024, ,0.4739291034876839, ,0.07748821452623415
1, ,PASS, ,0.048840629999999975, ,0.008013660112340028, ,0.03732870433950328, ,0.00039332523515786213, ,1.9166666666666667, ,0.7517454677401948, ,0.47625558662068124, ,0.06850880594273587
2, ,PASS, ,0.04906006999999999, ,0.008093026786655064, ,0.03740068702781576, ,0.0003990857859053309, ,1.9166666666666667, ,0.7539319268092813, ,0.4759290626721904, ,0.07314136446194976
3, ,PASS, ,0.049088530000000005, ,0.00807983764199781, ,0.03699854306810066, ,0.00039849291222923005, ,1.9166666666666667, ,0.754232271948281, ,0.47650047958204933, ,0.0741209363074223
4, ,PASS, ,0.04919744999999998, ,0.008091821934750198, ,0.03706549989143079, ,0.0004001940925036823, ,1.9166666666666667, ,0.7521291329958805, ,0.47531683026877003, ,0.07454949898981654
5, ,PASS, ,0.049472849999999985, ,0.008139311326168068, ,0.03732195744127671, ,0.0004048491219516094, ,1.9166666666666667, ,0.7505454582897048, ,0.4755413154833575, ,0.07054958062080366
6, ,PASS, ,0.04955486999999997, ,0.00814513303013247, ,0.037166912980755494, ,0.00040566484012904687, ,1.9166666666666667, ,0.7518174491910874, ,0.47580661619150627, ,0.07052917287402298
7, ,PASS, ,0.04953663, ,0.008151072301031655, ,0.0373611597228628, ,0.00040609723459570697, ,1.9166666666666667, ,0.7514396333086572, ,0.47566376196404153, ,0.07403930532029959
8, ,PASS, ,0.04948145000000001, ,0.008189449523380597, ,0.037324083629721845, ,0.000407245067105715, ,1.9166666666666667, ,0.7517692575899675, ,0.47541886900267344, ,0.07361074263790535
9, ,PASS, ,0.049438259999999984, ,0.00817161237295956, ,0.03709054670598559, ,0.00040615424824561535, ,1.9166666666666667, ,0.7537082741974973, ,0.4755821309769188, ,0.07414134405420297
10, ,PASS, ,0.04949863999999997, ,0.008192288217023424, ,0.03723973972837289, ,0.00040760400122801736, ,1.9166666666666667, ,0.7502541648862252, ,0.47456174363788495, ,0.07191689965510908
11, ,PASS, ,0.04965844999999998, ,0.008187209248276246, ,0.037292241663843595, ,0.00040871304195158365, ,1.9166666666666667, ,0.7514637550443607, ,0.47578620844472563, ,0.07687598212281382
12, ,PASS, ,0.049221769999999984, ,0.008159467384181216, ,0.03720829700985694, ,0.00040369090258360595, ,1.9166666666666667, ,0.7526919912938062, ,0.4755209077365768, ,0.07693720536315585
13, ,PASS, ,0.04920256999999997, ,0.0081172082364057, ,0.03717603934225833, ,0.0004014870189153601, ,1.9166666666666667, ,0.7509727289100858, ,0.47492908307993714, ,0.07038631864655823
14, ,PASS, ,0.04916615999999997, ,0.008083302428747966, ,0.037166947641680784, ,0.0003996437102559357, ,1.9166666666666667, ,0.7498224576541008, ,0.4756433542172609, ,0.07093732780963653
15, ,PASS, ,0.04933381999999997, ,0.008141950238940225, ,0.03722059144772556, ,0.0004037268229049356, ,1.9166666666666667, ,0.7538955133412294, ,0.47613314013999714, ,0.07648823493398094
16, ,PASS, ,0.059767688000000006, ,0.009808977075282733, ,0.036287285534907454, ,0.0005898799263514025, ,1.8333333333333333, ,0.7325079639898644, ,0.46837819636333955, ,0.09534499295932736
17, ,PASS, ,0.12647500999999997, ,0.017751023762719226, ,0.0310237970002653, ,0.0022668873023616327, ,1.75, ,0.6444152355302694, ,0.4496234770718965, ,0.07167200669374095
18, ,PASS, ,0.04662125000000002, ,0.007836479189140412, ,0.03740131043713394, ,0.0003673443462002461, ,1.9166666666666667, ,0.7659235851824405, ,0.47907185567641475, ,0.08569212873206669
19, ,PASS, ,0.045011800000000025, ,0.00747338508486864, ,0.03771461016387421, ,0.0003385603435716341, ,1.9166666666666667, ,0.7634087805941709, ,0.4797453113201771, ,0.07148833697271484
20, ,PASS, ,0.04478957000000003, ,0.007425421835527183, ,0.03758561637027816, ,0.0003346357592429803, ,1.9166666666666667, ,0.7626110236394054, ,0.4798881655476419, ,0.0682843207281484
21, ,PASS, ,0.04463122000000003, ,0.007446278637403069, ,0.03776225043325647, ,0.0003343721725208796, ,1.9166666666666667, ,0.7629621358310144, ,0.47948001061202833, ,0.06793738903287688
22, ,PASS, ,0.045141800000000024, ,0.007499036369016606, ,0.03746673648843901, ,0.000340635832795884, ,1.9166666666666667, ,0.7633661645303553, ,0.4797249035733965, ,0.06775371931185079
23, ,PASS, ,0.04506406, ,0.007496789925249941, ,0.037397753996449054, ,0.00033988363533934697, ,1.9166666666666667, ,0.7624145791354532, ,0.47962286483949307, ,0.07048835738046162
24, ,PASS, ,0.04498438000000001, ,0.007456822087278125, ,0.03763960363543601, ,0.0003376996847099537, ,1.9166666666666667, ,0.7620483793190969, ,0.47915348666353746, ,0.06899859186547214
25, ,PASS, ,0.044991280000000036, ,0.007455453166789992, ,0.03761444004244811, ,0.00033756268257762107, ,1.9166666666666667, ,0.7632105278747038, ,0.4802350972429134, ,0.06812105875390298
26, ,PASS, ,0.04465666, ,0.007458954942987624, ,0.03743316715903757, ,0.0003351121845593105, ,1.9166666666666667, ,0.7675368562142072, ,0.48027591273647474, ,0.08234525826003551
27, ,PASS, ,0.04446114000000001, ,0.007421544857391489, ,0.037542570592028736, ,0.0003320063905988591, ,1.9166666666666667, ,0.7658251086231618, ,0.48001061202832596, ,0.07216179261647722
28, ,PASS, ,0.044456500000000024, ,0.0073997103647557615, ,0.03754855773147487, ,0.00033101612182191297, ,1.9166666666666667, ,0.7644420745448467, ,0.4796840880798351, ,0.07285565600702026
29, ,PASS, ,0.04441102000000002, ,0.007403644067034161, ,0.037548606187220675, ,0.0003309015667967855, ,1.9166666666666667, ,0.7657508374859991, ,0.47952082610558966, ,0.07450868349625518
30, ,PASS, ,0.04435090000000002, ,0.007430547383112642, ,0.037497850588763496, ,0.00033155250295305815, ,1.9166666666666667, ,0.7667999999307166, ,0.47996979653476457, ,0.08385543152180568
31, ,PASS, ,0.04473810000000002, ,0.007375958191387194, ,0.03747086331380992, ,0.00033214449713390786, ,1.9166666666666667, ,0.7601188564593703, ,0.4797861268137385, ,0.07159037570661823
32, ,PASS, ,0.04471088000000001, ,0.007398976191631887, ,0.037494730174486235, ,0.0003330176031696165, ,1.9166666666666667, ,0.7632678385362616, ,0.4801534662557907, ,0.0694883777882084
33, ,PASS, ,0.04459431000000001, ,0.007447639515748966, ,0.037583801670782235, ,0.0003341826484565362, ,1.9166666666666667, ,0.7659407236205086, ,0.47992898104120324, ,0.0762433419726128
34, ,PASS, ,0.04466154000000003, ,0.007446762485029875, ,0.03772286118446563, ,0.00033468966565173674, ,1.9166666666666667, ,0.7634995521635873, ,0.47958204934593174, ,0.07120262851778535
35, ,PASS, ,0.04457676000000001, ,0.007480248757789207, ,0.03747530153139732, ,0.00033548156763742057, ,1.9166666666666667, ,0.765289616878488, ,0.4793371563845636, ,0.07489643068508806
36, ,PASS, ,0.04499855000000001, ,0.007484657759345592, ,0.03753764682557499, ,0.00033890552413038907, ,1.9166666666666667, ,0.7634156890642377, ,0.47927593314422157, ,0.06812105875390298
37, ,PASS, ,0.04489173000000002, ,0.00754571181580748, ,0.03752927967327198, ,0.00034080873107845397, ,1.9166666666666667, ,0.7671680265261278, ,0.4793371563845636, ,0.08305952939735924
38, ,PASS, ,0.04491168000000002, ,0.007553188007504007, ,0.03746576329666742, ,0.00034130030742992717, ,1.9166666666666667, ,0.7653183937392692, ,0.47874533172792394, ,0.07859023285239077
39, ,PASS, ,0.04486932000000002, ,0.007537693458360002, ,0.037546838966959865, ,0.0003403175066609854, ,1.9166666666666667, ,0.7633307960052073, ,0.4785616620068978, ,0.07465153772371992
40, ,PASS, ,0.045250820000000025, ,0.00759335526240084, ,0.03714664469806739, ,0.00034593388551748674, ,1.9166666666666667, ,0.7650706101306911, ,0.4786024775004592, ,0.08130446317422094
41, ,PASS, ,0.04530480000000002, ,0.007612695771686316, ,0.03723432815064999, ,0.0003470355551244938, ,1.9166666666666667, ,0.7639759305937138, ,0.47907185567641475, ,0.07095773555641721
42, ,PASS, ,0.04522088000000001, ,0.007617907321504377, ,0.0372602263400747, ,0.0003465553990875581, ,1.9166666666666667, ,0.7660700464027399, ,0.47909226342319544, ,0.08650843860329381
43, ,PASS, ,0.045206500000000024, ,0.007578284893470455, ,0.03703040843880737, ,0.00034466250284312437, ,1.9166666666666667, ,0.7618527825823116, ,0.4781943225648456, ,0.0670802636680884
44, ,PASS, ,0.04479177000000002, ,0.007545514141907938, ,0.03741241587294137, ,0.00034010468422070655, ,1.9166666666666667, ,0.764825673745408, ,0.47882696271504666, ,0.08091671598538805
45, ,PASS, ,0.04460626999999999, ,0.007446096865793159, ,0.03717064959939593, ,0.00033430670967402135, ,1.9166666666666667, ,0.7644229820744715, ,0.4797453113201771, ,0.07136589049203078
46, ,PASS, ,0.04451349, ,0.007381328712357174, ,0.03729815536621702, ,0.00033075723026361237, ,1.9166666666666667, ,0.7619047336346315, ,0.4797044958266158, ,0.06891696087834942
47, ,PASS, ,0.043857380000000015, ,0.0073592593131948224, ,0.03766657089202261, ,0.000324658936072206, ,1.9166666666666667, ,0.7675599706960126, ,0.48013305850901, ,0.08087590049182669
48, ,PASS, ,0.043775750000000016, ,0.007287937708534911, ,0.037298369682047305, ,0.0003210899682634059, ,1.9166666666666667, ,0.7667813072892261, ,0.480704475418869, ,0.08395747025570907
49, ,PASS, ,0.043603290000000024, ,0.007272260829772581, ,0.03741220459908982, ,0.0003189743415979439, ,1.9166666666666667, ,0.7664582376377608, ,0.48078610640599173, ,0.07952898920430196
50, ,PASS, ,0.04445699, ,0.00743259500642396, ,0.03723596193404217, ,0.0003325746680128941, ,1.9166666666666667, ,0.7630554690903347, ,0.4793167486377829, ,0.07563110956919246
51, ,PASS, ,0.04404575, ,0.007314066105189085, ,0.03735967790657334, ,0.00032418571178943333, ,1.9166666666666667, ,0.7637384863917852, ,0.480643252178527, ,0.07028427991265485
52, ,PASS, ,0.043474810000000016, ,0.007246056322807965, ,0.03745504247362299, ,0.00031691895489254624, ,1.9166666666666667, ,0.7683145929875402, ,0.4810105916205792, ,0.08395747025570907
53, ,PASS, ,0.04360764000000002, ,0.007269102675557594, ,0.03744320372686272, ,0.0003189255175799966, ,1.9166666666666667, ,0.7665887328324588, ,0.4809901838737985, ,0.08265137446174568
54, ,PASS, ,0.04374090000000001, ,0.007307672060452145, ,0.03733843959021244, ,0.00032156683517592626, ,1.9166666666666667, ,0.7663270561240664, ,0.4809085528866758, ,0.07805963143609314
55, ,PASS, ,0.04410153, ,0.007305151577278089, ,0.037311978169833275, ,0.000324234714288629, ,1.9166666666666667, ,0.7616239425892367, ,0.4806228444317463, ,0.07169241444052162
56, ,PASS, ,0.04399948000000001, ,0.0073261733576076, ,0.03721306090181833, ,0.0003243914436838398, ,1.9166666666666667, ,0.765981523041901, ,0.480071835268668, ,0.07856982510561009
57, ,PASS, ,0.044408119999999995, ,0.007365144616532712, ,0.03718555705312137, ,0.0003291277841157059, ,1.9166666666666667, ,0.7641212713970228, ,0.4808881451398951, ,0.07293728699414298
58, ,PASS, ,0.044660500000000006, ,0.0074920669146934585, ,0.037313653214628276, ,0.0003367898380070584, ,1.9166666666666667, ,0.7639555738581967, ,0.47956164159915105, ,0.07808003918287382
59, ,PASS, ,0.04430607000000002, ,0.007419276103615988, ,0.03730458507173323, ,0.0003308587298175918, ,1.9166666666666667, ,0.7653411783995769, ,0.4801942817493521, ,0.08030448358196772
60, ,PASS, ,0.04411998, ,0.00737375517160251, ,0.037385070978959614, ,0.000327310689879003, ,1.9166666666666667, ,0.7676350622766219, ,0.4810514071141405, ,0.08442684843166466
61, ,PASS, ,0.043986860000000017, ,0.0073725736304169195, ,0.03749171181751393, ,0.0003262103645031829, ,1.9166666666666667, ,0.7686541239766137, ,0.4810309993673598, ,0.08597783718699618
62, ,PASS, ,0.044043820000000025, ,0.007353262829868119, ,0.03754806345870493, ,0.00032578846340116296, ,1.9166666666666667, ,0.7652602489953291, ,0.48094936838023716, ,0.07373318911858942
63, ,PASS, ,0.04420085000000001, ,0.00736494306130537, ,0.0372907905352952, ,0.0003275520137849257, ,1.9166666666666667, ,0.7676946798967212, ,0.4809901838737985, ,0.08546764351747924
64, ,PASS, ,0.04417973000000003, ,0.0074204633266054245, ,0.03748099821656701, ,0.0003297847078479972, ,1.9166666666666667, ,0.765828277119717, ,0.48047999020428156, ,0.07385563559927348
65, ,PASS, ,0.04427987000000001, ,0.007388091817540314, ,0.03726524904001959, ,0.00032918650711067705, ,1.9166666666666667, ,0.7679690514586277, ,0.4814187465561927, ,0.08228403501969347
66, ,PASS, ,0.04426337000000001, ,0.00737138000100205, ,0.03740131578375951, ,0.00032832609103153093, ,1.9166666666666667, ,0.7656512128462946, ,0.48131670782228936, ,0.07640660394685823
67, ,PASS, ,0.04403068, ,0.007362805748426229, ,0.03746216572294443, ,0.00032626097790697337, ,1.9166666666666667, ,0.7656148952214842, ,0.4805616211914043, ,0.0705087651272423
68, ,PASS, ,0.04420567000000001, ,0.007379172748559586, ,0.037421617511683436, ,0.00032829261218786474, ,1.9166666666666667, ,0.7658824887265249, ,0.4808881451398951, ,0.07842697087814535
69, ,PASS, ,0.04436853, ,0.00741107732129418, ,0.03748151708556968, ,0.0003309495170393031, ,1.9166666666666667, ,0.766654305033236, ,0.4810514071141405, ,0.07724332156486602
70, ,PASS, ,0.04459771, ,0.007390649401950491, ,0.03718726238056366, ,0.00033179029981014605, ,1.9166666666666667, ,0.7627261344074832, ,0.48066365992530763, ,0.07036591089977756
71, ,PASS, ,0.044281959999999995, ,0.007406691222340203, ,0.03736299047876574, ,0.000330005527933325, ,1.9166666666666667, ,0.7664270016946289, ,0.48092896063345647, ,0.07716169057774332
72, ,PASS, ,0.044297680000000006, ,0.007408274492738181, ,0.03711369698475541, ,0.0003302589442645777, ,1.9166666666666667, ,0.7676228460782976, ,0.4809085528866758, ,0.07918205750903043
73, ,PASS, ,0.04444116000000001, ,0.0073904650355982905, ,0.03743261028366768, ,0.00033059882484743307, ,1.9166666666666667, ,0.7634548208535402, ,0.4809901838737985, ,0.07191689965510908
74, ,PASS, ,0.04443095, ,0.007436323612021042, ,0.03730580240586927, ,0.0003324154762041691, ,1.9166666666666667, ,0.766504204171021, ,0.48119426134160526, ,0.0764270116936389
75, ,PASS, ,0.044380239999999994, ,0.007429162525051095, ,0.03735782451562213, ,0.00033180933700780206, ,1.9166666666666667, ,0.7661400891103464, ,0.4810514071141405, ,0.08054937654333585
76, ,PASS, ,0.04429613000000001, ,0.007411433477132855, ,0.03737344336646191, ,0.00033047708060589867, ,1.9166666666666667, ,0.7682974507431918, ,0.4809697761270178, ,0.08495744984796229
77, ,PASS, ,0.04406303, ,0.0074239861241546514, ,0.03745757320340401, ,0.00032918225892997476, ,1.9166666666666667, ,0.7674323744761573, ,0.4807248831656497, ,0.07312095671516908
78, ,PASS, ,0.0443708, ,0.00739483691989107, ,0.03733376165690496, ,0.00033033262751507074, ,1.9166666666666667, ,0.7634595146232805, ,0.4806228444317463, ,0.07356992714434399
79, ,PASS, ,0.043976440000000006, ,0.0073495399954346535, ,0.03739581362788515, ,0.00032540845865609814, ,1.9166666666666667, ,0.7665065316835751, ,0.48127589232872797, ,0.07812085467643518
80, ,PASS, ,0.04402422, ,0.00735479682187235, ,0.03748678868553703, ,0.0003259734951712472, ,1.9166666666666667, ,0.7677385440662794, ,0.48168404726434155, ,0.07730454480520806
81, ,PASS, ,0.04393190000000001, ,0.007325714873810537, ,0.03739996041162426, ,0.0003239178878945799, ,1.9166666666666667, ,0.7667305723123333, ,0.4818064937450256, ,0.07497806167221077
82, ,PASS, ,0.04354224000000001, ,0.007304310599180176, ,0.03751267978388196, ,0.00032000917012796706, ,1.9166666666666667, ,0.770023015147755, ,0.48211260994673577, ,0.08571253647884737
83, ,PASS, ,0.04348980000000002, ,0.00725565825586516, ,0.037165695895798045, ,0.00031757051058353556, ,1.9166666666666667, ,0.7688539799513816, ,0.4822962796677619, ,0.08265137446174568
84, ,PASS, ,0.043474410000000026, ,0.007290603360359037, ,0.0373363065374176, ,0.00031890799338397876, ,1.9166666666666667, ,0.769889323695583, ,0.4819901634660517, ,0.0829983061570172
85, ,PASS, ,0.04363318000000002, ,0.007246285850991517, ,0.03741338388563499, ,0.0003183580332529647, ,1.9166666666666667, ,0.766813330968977, ,0.4818269014918063, ,0.07716169057774332
86, ,PASS, ,0.043467100000000015, ,0.007252305671554658, ,0.03725051895920491, ,0.0003172004927822971, ,1.9166666666666667, ,0.7704965220073957, ,0.4823779106548846, ,0.0879165731311606
87, ,PASS, ,0.04382262000000001, ,0.007329787428415201, ,0.0374814614265015, ,0.00032316300457981283, ,1.9166666666666667, ,0.7674273354091373, ,0.4818269014918063, ,0.08030448358196772
88, ,PASS, ,0.044153479999999995, ,0.007339852905192765, ,0.03736602764841534, ,0.0003261828862181747, ,1.9166666666666667, ,0.767052051337515, ,0.48194934797249034, ,0.083835023775025
89, ,PASS, ,0.0444587, ,0.007410035101893211, ,0.037210282777290264, ,0.0003317517927673538, ,1.9166666666666667, ,0.7659610324915854, ,0.48158200853043814, ,0.07275361727311687
90, ,PASS, ,0.04501205000000001, ,0.007517642625386307, ,0.03731746363768087, ,0.00034062624104055645, ,1.9166666666666667, ,0.7639786059816255, ,0.48080651415277237, ,0.0728148405134589
91, ,PASS, ,0.06006418500000001, ,0.009818178165602962, ,0.03560801542060366, ,0.0005943654428386207, ,1.8333333333333333, ,0.722561350430782, ,0.46745984775820904, ,0.10320197546988837
92, ,PASS, ,0.14161572, ,0.01964881870316998, ,0.029984410245913348, ,0.002810884603405974, ,1.75, ,0.6392414896961797, ,0.4483377890247138, ,0.06742719536335993
93, ,PASS, ,0.05712463300000004, ,0.009509613763874419, ,0.036534509076590276, ,0.00054639422802681, ,1.9166666666666667, ,0.7532594279652064, ,0.475888247178629, ,0.07277402501989755
94, ,PASS, ,0.05467573600000003, ,0.009135420185287225, ,0.03679975912989532, ,0.0005024643378113224, ,1.9166666666666667, ,0.7570575772374047, ,0.4773576049468378, ,0.07312095671516908
95, ,PASS, ,0.054537454000000006, ,0.00909211852881929, ,0.03677890493540949, ,0.0004988041453967948, ,1.9166666666666667, ,0.7567086702255709, ,0.47715352747903106, ,0.07589641027734127
96, ,PASS, ,0.054230822000000005, ,0.009052503993341307, ,0.03679984603979511, ,0.0004938396972928313, ,1.9166666666666667, ,0.758872454010289, ,0.4773576049468378, ,0.07701883635027856
97, ,PASS, ,0.05413803400000001, ,0.00903549009160017, ,0.03705071634436032, ,0.0004920494124492314, ,1.9166666666666667, ,0.7578365507486963, ,0.4777453521356707, ,0.07289647150058162
98, ,PASS, ,0.053983502, ,0.009027891100456233, ,0.0367302914968266, ,0.0004902562348922397, ,1.9166666666666667, ,0.7602988192806011, ,0.47752086692108325, ,0.08116160894675618
99, ,PASS, ,0.053990970000000055, ,0.008973826866897945, ,0.03713671784657457, ,0.0004874155211524271, ,1.9166666666666667, ,0.7563415703363192, ,0.4772555662129344, ,0.07048835738046162
100, ,PASS, ,0.05337621000000003, ,0.008936641272493898, ,0.036916019943062386, ,0.00047971125219938303, ,1.9166666666666667, ,0.7589848716645275, ,0.4773167894532765, ,0.07305973347482704
101, ,PASS, ,0.05354948, ,0.008923541097710253, ,0.03705403584906431, ,0.0004806376354672729, ,1.9166666666666667, ,0.7574699106330205, ,0.47790861410991614, ,0.07420256729454501
102, ,PASS, ,0.053401850000000015, ,0.00890197242250922, ,0.036874655556213144, ,0.0004781647545399473, ,1.9166666666666667, ,0.7582298781016444, ,0.47790861410991614, ,0.06975367849635722
103, ,PASS, ,0.05343148, ,0.008920007939086802, ,0.03709048285055407, ,0.00047931190013644396, ,1.9166666666666667, ,0.7591183932880339, ,0.4780106528438195, ,0.07422297504132569
104, ,PASS, ,0.05343152, ,0.008975248801982317, ,0.037036990790187956, ,0.00048213316022304754, ,1.9166666666666667, ,0.7651753839823099, ,0.4793167486377829, ,0.07838615538458399
105, ,PASS, ,0.05380658000000001, ,0.008945019415187976, ,0.03682720611742618, ,0.00048405497568388377, ,1.9166666666666667, ,0.7599946536846366, ,0.47823513805840695, ,0.0746719454705006
106, ,PASS, ,0.05385669000000001, ,0.008944505150476397, ,0.036832696822513826, ,0.00048462002091266223, ,1.9166666666666667, ,0.7589134703108829, ,0.4784596232729944, ,0.06946797004142773
107, ,PASS, ,0.053686819999999996, ,0.008949033520816874, ,0.03703711008407992, ,0.0004831752585939417, ,1.9166666666666667, ,0.7587957431844534, ,0.4780514683373809, ,0.0706924348482684
108, ,PASS, ,0.05413817, ,0.008983647333337714, ,0.037062337309238594, ,0.0004892276406158946, ,1.9166666666666667, ,0.7581192717856828, ,0.4784188077794331, ,0.07089651231607519
109, ,PASS, ,0.05421780300000004, ,0.009030701163449135, ,0.037039551286300286, ,0.0004924036875477533, ,1.9166666666666667, ,0.7592218836964868, ,0.4780106528438195, ,0.07446786800269382
110, ,PASS, ,0.05421080200000002, ,0.009016858091787264, ,0.03697315539907349, ,0.0004916707852514674, ,1.9166666666666667, ,0.7571877050946141, ,0.4772555662129344, ,0.07105977429032061
111, ,PASS, ,0.05448806300000003, ,0.009068171570746391, ,0.03691864266892513, ,0.0004970213644380032, ,1.9166666666666667, ,0.7556237350587403, ,0.4773576049468378, ,0.07144752147915348
112, ,PASS, ,0.05421602400000002, ,0.009066080092098607, ,0.03672979056080489, ,0.0004945127868592548, ,1.9166666666666667, ,0.7576367085446366, ,0.4771127119854697, ,0.07724332156486602
113, ,PASS, ,0.05392385300000002, ,0.009021140803727491, ,0.03661099745197037, ,0.0004894729110191771, ,1.9166666666666667, ,0.7578023677992246, ,0.47705148874512765, ,0.07691679761637518
114, ,PASS, ,0.006836569999999993, ,0.00024683967451254055, ,0.0386078435993143, ,1.862903080788194e-06, ,0.75, ,0.288501587885818, ,0.592294034815616, ,0.015509887553315239
115, ,PASS, ,0.005662929999999983, ,0.00020020727912759855, ,0.03836947502336687, ,1.2481128407781492e-06, ,0.8333333333333334, ,0.3033257360923649, ,0.5895389890002245, ,0.023060753862166078
116, ,PASS, ,0.05361376000000002, ,0.00891646034436662, ,0.03684670554764189, ,0.000480960808033927, ,1.9166666666666667, ,0.7567387099348478, ,0.47741882818717984, ,0.0756107018224118
117, ,PASS, ,0.05347500000000002, ,0.008989437343650304, ,0.036945591556294774, ,0.00048350862913137314, ,1.9166666666666667, ,0.7598304537520677, ,0.47715352747903106, ,0.08232485051325483
118, ,PASS, ,0.009434230000000016, ,0.00034505068923970547, ,0.038718081900165305, ,3.593805094881443e-06, ,0.8333333333333334, ,0.2553420817161689, ,0.7271280177955552, ,0.023693394012367093
119, ,PASS, ,0.05351315000000002, ,0.0089690746134016, ,0.03677359906797821, ,0.00048283469042917945, ,1.9166666666666667, ,0.758402168291079, ,0.47703108099834696, ,0.0739372665863962
120, ,PASS, ,0.05361743000000003, ,0.008967985404647497, ,0.03683240275382135, ,0.000483556348253256, ,1.9166666666666667, ,0.7591911966078657, ,0.4777045366421093, ,0.07454949898981654
121, ,PASS, ,0.05384919000000003, ,0.008985119132623696, ,0.03681037583151364, ,0.00048673382174279137, ,1.9166666666666667, ,0.7591426815881418, ,0.4777045366421093, ,0.0743046060284484
122, ,PASS, ,0.05328099, ,0.008913278324264518, ,0.0369584788832881, ,0.0004777687809182825, ,1.9166666666666667, ,0.7615683325130592, ,0.4781943225648456, ,0.07818207791677721
123, ,PASS, ,0.0531345, ,0.008875684012419538, ,0.03688542247117406, ,0.0004743919283373488, ,1.9166666666666667, ,0.7623056808626232, ,0.47864329299402053, ,0.08126364768065958
124, ,PASS, ,0.05304506000000002, ,0.008812031798530478, ,0.036879341917103736, ,0.0004702466820290727, ,1.9166666666666667, ,0.7592819273862381, ,0.47827595355196834, ,0.07536580886104365
125, ,PASS, ,0.05383340000000003, ,0.009070371853051632, ,0.03660451395155201, ,0.0004911103375863532, ,1.9166666666666667, ,0.7591240616335684, ,0.4768065957837595, ,0.07767188424726026
126, ,PASS, ,0.053731150000000005, ,0.008969241038637953, ,0.03683113305422339, ,0.00048490330653841945, ,1.9166666666666667, ,0.7574603797309457, ,0.47662292606273343, ,0.07242709332462603
127, ,PASS, ,0.010151520000000032, ,0.00039567067922959356, ,0.03888231091834861, ,4.386535701118829e-06, ,0.8333333333333334, ,0.30111606381697553, ,0.6577620864880308, ,0.014346645986816595
128, ,PASS, ,0.05340043000000003, ,0.008987344317066595, ,0.037096222451582624, ,0.00048275873307339627, ,1.9166666666666667, ,0.7614133282715071, ,0.47696985775800493, ,0.07665149690822637
129, ,PASS, ,0.054044060000000005, ,0.008960632901926646, ,0.037046004959898786, ,0.0004872951266091489, ,1.9166666666666667, ,0.7568838718168371, ,0.47790861410991614, ,0.0721822003632579
130, ,PASS, ,0.05426794000000003, ,0.009011994534229515, ,0.03715016053692782, ,0.0004919658734587436, ,1.9166666666666667, ,0.7598255800931236, ,0.4785208465133365, ,0.0737535968653701
131, ,PASS, ,0.05406487000000003, ,0.009011789279943963, ,0.03693852888879819, ,0.0004902211096850398, ,1.9166666666666667, ,0.7586214217113931, ,0.47796983735025816, ,0.07214138486969654
132, ,PASS, ,0.05405947000000001, ,0.009053760274721696, ,0.0371664357947797, ,0.0004922985203957579, ,1.9166666666666667, ,0.7621185435904287, ,0.47829636129874903, ,0.0779984081957511
133, ,PASS, ,0.05468837000000003, ,0.00919772210187179, ,0.0370962589638987, ,0.0005059502424939643, ,1.9166666666666667, ,0.7597475390750226, ,0.47713311973225037, ,0.07965143568498602
134, ,PASS, ,0.05447821600000001, ,0.00916839707252083, ,0.037003245362747704, ,0.0005023746993348387, ,1.9166666666666667, ,0.7611201774983334, ,0.4771127119854697, ,0.07587600253056061
135, ,PASS, ,0.05445090999999998, ,0.009106301236607809, ,0.03712586890247138, ,0.0004987503783809961, ,1.9166666666666667, ,0.7592280093025746, ,0.47796983735025816, ,0.07369237362502806
136, ,PASS, ,0.05421826800000003, ,0.00909498482848884, ,0.037108770531009576, ,0.0004959324646000804, ,1.9166666666666667, ,0.760602791465642, ,0.4776229056549866, ,0.07585559478377993
137, ,PASS, ,0.05452285000000002, ,0.00908314090299443, ,0.03705618733985021, ,0.0004983742020484099, ,1.9166666666666667, ,0.7591085790113808, ,0.4783779922858717, ,0.07573314830309585
138, ,PASS, ,0.05427205000000002, ,0.009104122337348773, ,0.03714399244158283, ,0.0004969496745230336, ,1.9166666666666667, ,0.7592456721770897, ,0.47786779861635476, ,0.07463112997693924
139, ,PASS, ,0.05431742000000002, ,0.009074004388007074, ,0.03714924882614641, ,0.0004958740934164102, ,1.9166666666666667, ,0.7586052664377422, ,0.47780657537601273, ,0.07432501377522907
140, ,PASS, ,0.05433779000000001, ,0.009079560812542586, ,0.03720860129262668, ,0.0004962848160236632, ,1.9166666666666667, ,0.759661911760317, ,0.4780514683373809, ,0.07548825534172772
141, ,PASS, ,0.05420576000000002, ,0.009078825861932358, ,0.03702900384808474, ,0.0004950114669511593, ,1.9166666666666667, ,0.7607064080101102, ,0.4782147303116263, ,0.0707944735821718
142, ,PASS, ,0.05413588000000003, ,0.009086466585735219, ,0.03721088137772699, ,0.0004948673295238524, ,1.9166666666666667, ,0.761413755663694, ,0.47829636129874903, ,0.07877390257341686
143, ,PASS, ,0.05425440000000002, ,0.009100843594974173, ,0.03721875161813025, ,0.0004965883110365625, ,1.9166666666666667, ,0.7610640540043445, ,0.4782147303116263, ,0.07616171098549009
144, ,PASS, ,0.05440094000000003, ,0.009117281535671335, ,0.037094375296422524, ,0.0004989934867920664, ,1.9166666666666667, ,0.761386607396585, ,0.47790861410991614, ,0.0736515581314667
145, ,PASS, ,0.05447939, ,0.009141895562037856, ,0.037116529013285444, ,0.0005009187024018621, ,1.9166666666666667, ,0.7609094678525165, ,0.47799024509703886, ,0.07395767433317688
146, ,PASS, ,0.05490567, ,0.009172730043353545, ,0.03721016318911859, ,0.0005068477342174777, ,1.9166666666666667, ,0.7574063174863108, ,0.4775820901614253, ,0.07675353564212975
147, ,PASS, ,0.054891834000000014, ,0.009167189034211647, ,0.0371916371669966, ,0.0005063822931837113, ,1.9166666666666667, ,0.7575240158547317, ,0.4776229056549866, ,0.06808024326034162
148, ,PASS, ,0.054551962, ,0.009179274570493253, ,0.0370988465081529, ,0.0005037592323864543, ,1.9166666666666667, ,0.7601572486763517, ,0.4775820901614253, ,0.0768963898695945
149, ,PASS, ,0.054699010000000006, ,0.00915350595523182, ,0.0371236585155405, ,0.0005037898335544065, ,1.9166666666666667, ,0.7585021860319129, ,0.4779290218566968, ,0.07271280177955552
150, ,PASS, ,0.054343780000000015, ,0.009091290702064478, ,0.037210727225362755, ,0.0004971559054121539, ,1.9166666666666667, ,0.7605577349836444, ,0.4781126915777229, ,0.06879451439766536
151, ,PASS, ,0.05422189000000002, ,0.009066637156804913, ,0.03712419891063448, ,0.000494769388897091, ,1.9166666666666667, ,0.7585765030748031, ,0.4779290218566968, ,0.06859043692985857
152, ,PASS, ,0.05443168000000003, ,0.009085337252288552, ,0.03721598944246036, ,0.0004975352672115493, ,1.9166666666666667, ,0.7604745019355442, ,0.47892900144895, ,0.0715291524662762
153, ,PASS, ,0.05426986000000003, ,0.009104633440330284, ,0.03727780110263056, ,0.0004970641532553484, ,1.9166666666666667, ,0.7620289014828633, ,0.47882696271504666, ,0.07644741944041958
154, ,PASS, ,0.05416990000000001, ,0.009066662666636591, ,0.03711888549764291, ,0.0004941472188017124, ,1.9166666666666667, ,0.7618644937131622, ,0.4790310401828534, ,0.07491683843186873
155, ,PASS, ,0.05394812000000001, ,0.009032783986295343, ,0.037086246723944415, ,0.000490278358526685, ,1.9166666666666667, ,0.7622372750707719, ,0.4793167486377829, ,0.07305973347482704
156, ,PASS, ,0.05442620000000002, ,0.009046763806618527, ,0.03719657341850167, ,0.0004955820799252235, ,1.9166666666666667, ,0.7588425747329733, ,0.47878614722148527, ,0.07071284259504908
157, ,PASS, ,0.054425410000000014, ,0.009102641684063552, ,0.037328122475663764, ,0.0004985291796549211, ,1.9166666666666667, ,0.7613662578904827, ,0.47882696271504666, ,0.07559029407563111
158, ,PASS, ,0.05434523000000001, ,0.00912165547309486, ,0.037119417951062224, ,0.0004987638308939776, ,1.9166666666666667, ,0.7621710325067335, ,0.47907185567641475, ,0.07277402501989755
159, ,PASS, ,0.05428069000000003, ,0.009124730150657843, ,0.037324903159731436, ,0.0004984492124733853, ,1.9166666666666667, ,0.7625605464483256, ,0.4791330789167568, ,0.07487602293830738
160, ,PASS, ,0.054556270000000004, ,0.009102644692643895, ,0.03720954021591397, ,0.0004997859721949737, ,1.9166666666666667, ,0.7606868104041351, ,0.47899022468929203, ,0.07322299544907247
161, ,PASS, ,0.05474181000000002, ,0.009112549255851067, ,0.03730710835921716, ,0.0005019356166512622, ,1.9166666666666667, ,0.7617108072881352, ,0.47954123385237035, ,0.0760596722515867
162, ,PASS, ,0.054650892000000006, ,0.009156142814778345, ,0.03704832911369156, ,0.0005034917839748302, ,1.9166666666666667, ,0.7616192411055902, ,0.47872492398114325, ,0.07432501377522907
163, ,PASS, ,0.05433257999999999, ,0.009094158370361217, ,0.037135529965714995, ,0.0004970463560870184, ,1.9166666666666667, ,0.7602411208719158, ,0.47907185567641475, ,0.07097814330319789
164, ,PASS, ,0.05498337399999999, ,0.00917569539978614, ,0.03726488317503725, ,0.0005076196716431722, ,1.9166666666666667, ,0.7628960359331718, ,0.48003101977510665, ,0.07752903001979551
165, ,PASS, ,0.055176708000000026, ,0.009197060878191974, ,0.0373252445439889, ,0.0005106266858793853, ,1.9166666666666667, ,0.7604185304555499, ,0.47945960286524764, ,0.07254953980531009
166, ,PASS, ,0.07052118100000003, ,0.011579966650840833, ,0.03549007346184772, ,0.0008227996365577484, ,1.8333333333333333, ,0.727920501307312, ,0.46799044917450666, ,0.10712026285177853
167, ,PASS, ,0.15344697000000002, ,0.02105692078029433, ,0.029275022113222183, ,0.0032648875388983996, ,1.75, ,0.6335601458689895, ,0.4472765861921185, ,0.060896716393542986
168, ,PASS, ,0.060492199, ,0.010108038511374012, ,0.03680133834015633, ,0.0006151075119597059, ,1.9166666666666667, ,0.7544107253546267, ,0.4764800718352687, ,0.08005959062059959
169, ,PASS, ,0.062217847000000014, ,0.01039411937476565, ,0.036761335958082494, ,0.0006505653430669362, ,1.9166666666666667, ,0.7527564545143105, ,0.4759698781657517, ,0.0819779188179833
170, ,PASS, ,0.06081723600000001, ,0.010154099517778922, ,0.03679133704050938, ,0.000621190915590662, ,1.9166666666666667, ,0.7521147750590054, ,0.47574539295116425, ,0.07612089549192874
171, ,PASS, ,0.06072246799999999, ,0.010124457836263052, ,0.03675493032568723, ,0.0006185921947466258, ,1.9166666666666667, ,0.7515154864389136, ,0.4757045774576029, ,0.0707944735821718
172, ,PASS, ,0.06069667399999999, ,0.010142506565644705, ,0.03676342280867738, ,0.0006194264576462664, ,1.9166666666666667, ,0.754579046522566, ,0.4756841697108222, ,0.08322279137160467
173, ,PASS, ,0.06068797499999999, ,0.010117421381842908, ,0.036812093324605624, ,0.0006177587101998739, ,1.9166666666666667, ,0.7533596387527903, ,0.475888247178629, ,0.0788351258137589
174, ,PASS, ,0.06049011099999999, ,0.01011755127499923, ,0.03664672202622396, ,0.000615582285842809, ,1.9166666666666667, ,0.7535556531799763, ,0.4757045774576029, ,0.07924328074937247
175, ,PASS, ,0.06050373600000001, ,0.010144254843397262, ,0.03654305664680313, ,0.000617578268001574, ,1.9166666666666667, ,0.7541774400819583, ,0.4757045774576029, ,0.07822289341033857
176, ,PASS, ,0.060921155, ,0.010153255256510731, ,0.03682444437238016, ,0.0006224831927925767, ,1.9166666666666667, ,0.7532339575328025, ,0.47576580069794494, ,0.08016162935450297
177, ,PASS, ,0.06054865900000002, ,0.010155665929861335, ,0.036734278723454625, ,0.0006186689729351574, ,1.9166666666666667, ,0.753832184387748, ,0.4752147915348666, ,0.07991673639313483
178, ,PASS, ,0.060542337, ,0.010136639464963798, ,0.036434009008326364, ,0.0006174078864452353, ,1.9166666666666667, ,0.7528754723401642, ,0.4756433542172609, ,0.07579437154343789
179, ,PASS, ,0.06052440799999998, ,0.010094581658920741, ,0.036727767005693766, ,0.0006147022794229625, ,1.9166666666666667, ,0.7521968580682306, ,0.4757249852043836, ,0.07724332156486602
180, ,PASS, ,0.06027427600000003, ,0.010037295359931322, ,0.03672612369610825, ,0.0006087919855228399, ,1.9166666666666667, ,0.753426314911179, ,0.4760515091528744, ,0.07814126242321585
181, ,PASS, ,0.05987328300000001, ,0.009992859981183894, ,0.036813412729189206, ,0.000602069025711812, ,1.9166666666666667, ,0.7550893517362683, ,0.4761739556335585, ,0.07512091589967551
182, ,PASS, ,0.059644598, ,0.009964379361186366, ,0.036978766923430134, ,0.0005978172504393755, ,1.9166666666666667, ,0.753998396791752, ,0.47584743168506766, ,0.077814738474725
183, ,PASS, ,0.05921872099999997, ,0.009915285725482503, ,0.036819108089977765, ,0.0005906334049932783, ,1.9166666666666667, ,0.7555908434207799, ,0.47621477112711985, ,0.07142711373237282
184, ,PASS, ,0.05899172800000001, ,0.009859116968725502, ,0.037013583703169324, ,0.0005849282334573898, ,1.9166666666666667, ,0.7577429193107555, ,0.47713311973225037, ,0.07595763351768331
185, ,PASS, ,0.05895649800000001, ,0.009833967846951485, ,0.037033986197077616, ,0.0005832441368426284, ,1.9166666666666667, ,0.7579781798718224, ,0.4773780126936185, ,0.07944735821717924
186, ,PASS, ,0.058888239000000016, ,0.009805884515992262, ,0.03694252942237914, ,0.0005808553336165517, ,1.9166666666666667, ,0.7568138406885081, ,0.4773576049468378, ,0.07314136446194976
187, ,PASS, ,0.05903442699999998, ,0.009802346025019414, ,0.0366315176093141, ,0.0005820723898557323, ,1.9166666666666667, ,0.7561657198185378, ,0.4772351584661538, ,0.07940654272361788
188, ,PASS, ,0.05888411500000003, ,0.009829245353368179, ,0.03701084898226567, ,0.0005821340858521641, ,1.9166666666666667, ,0.7564888946833753, ,0.476459664088488, ,0.07597804126446399
189, ,PASS, ,0.05896172500000002, ,0.00981528121751062, ,0.036824236657721277, ,0.0005821955138352541, ,1.9166666666666667, ,0.7551918588950903, ,0.4768474112773209, ,0.07581477929021857
190, ,PASS, ,0.058857481999999996, ,0.009813864719580135, ,0.037021048428705544, ,0.0005810904181327102, ,1.9166666666666667, ,0.7550632371782142, ,0.4762759943674619, ,0.07775351523438297
191, ,PASS, ,0.059052951000000006, ,0.00982780629146657, ,0.0368264551564662, ,0.0005835523703514455, ,1.9166666666666667, ,0.7566093794513851, ,0.47705148874512765, ,0.07965143568498602
192, ,PASS, ,0.059198625000000005, ,0.009841054123014592, ,0.036655605281749354, ,0.0005859982557813356, ,1.9166666666666667, ,0.755284287889311, ,0.476459664088488, ,0.07510050815289483
193, ,PASS, ,0.05912572300000002, ,0.009938329960918991, ,0.03679310498549009, ,0.0005907997837975852, ,1.9166666666666667, ,0.7569426216683877, ,0.47621477112711985, ,0.07897798004122365
194, ,PASS, ,0.059322729000000005, ,0.009935843308562793, ,0.036808296046550074, ,0.0005928743202034262, ,1.9166666666666667, ,0.7554289306840729, ,0.4757249852043836, ,0.08128405542744026
195, ,PASS, ,0.059731241000000046, ,0.009977543399813422, ,0.036632450855186634, ,0.0005995723889130361, ,1.9166666666666667, ,0.7524155045744955, ,0.4748678598395951, ,0.0768963898695945
196, ,PASS, ,0.06031506299999999, ,0.010046023140563706, ,0.0366946662241791, ,0.0006096725701046766, ,1.9166666666666667, ,0.751784740010724, ,0.4750923450541826, ,0.07636578845329688
197, ,PASS, ,0.060568924999999996, ,0.010061164888087015, ,0.03671131770902635, ,0.0006132490291223941, ,1.9166666666666667, ,0.7510696255457454, ,0.47531683026877003, ,0.08210036529866738
198, ,PASS, ,0.060224398000000005, ,0.010055928208223023, ,0.03661895094340932, ,0.0006093648738075091, ,1.9166666666666667, ,0.7521064047671896, ,0.47466378237178836, ,0.0813452786677823
199, ,PASS, ,0.060187063, ,0.010032219947754144, ,0.036947460643946044, ,0.0006073793376138952, ,1.9166666666666667, ,0.7504287052056613, ,0.4747658211056917, ,0.07601885675802535
200, ,PASS, ,0.061146776999999986, ,0.010216559554812208, ,0.036289872728270854, ,0.0006286511442161475, ,1.9166666666666667, ,0.7485868202353352, ,0.4734597253117283, ,0.08289626742311382
201, ,PASS, ,0.060531567999999994, ,0.010087571818033754, ,0.03651155514828269, ,0.0006144568834889848, ,1.9166666666666667, ,0.7509612536195188, ,0.4748678598395951, ,0.08091671598538805
202, ,PASS, ,0.05988733599999999, ,0.009985269703948066, ,0.03671638019538377, ,0.0006016384185724816, ,1.9166666666666667, ,0.7503173495843994, ,0.4746025591314463, ,0.0776310687536989
203, ,PASS, ,0.059612024, ,0.009970547754420698, ,0.03680164762000776, ,0.0005979191156903745, ,1.9166666666666667, ,0.7526761093838255, ,0.47482704434603373, ,0.08230444276647415
204, ,PASS, ,0.05944739100000001, ,0.009945632161358655, ,0.0368312081119569, ,0.0005947647599427913, ,1.9166666666666667, ,0.7532018249814264, ,0.47529642252198934, ,0.08010040611416093
205, ,PASS, ,0.059470853999999976, ,0.009931329440659312, ,0.036895397662496686, ,0.0005941188373799906, ,1.9166666666666667, ,0.7531048491966276, ,0.4748474520928144, ,0.07942695047039856
206, ,PASS, ,0.059388955000000014, ,0.009936509306082279, ,0.036712691265259896, ,0.0005936259637059018, ,1.9166666666666667, ,0.7527734193716212, ,0.47492908307993714, ,0.07856982510561009
207, ,PASS, ,0.05929052300000002, ,0.009926515298796432, ,0.03668776489596131, ,0.0005921347563660426, ,1.9166666666666667, ,0.7529811441881687, ,0.4747862288524724, ,0.08181465684373788
208, ,PASS, ,0.060092370000000006, ,0.010054678088982739, ,0.03677945564717047, ,0.0006078722944252492, ,1.9166666666666667, ,0.7499267330175415, ,0.4738474725005612, ,0.08034529907552906
209, ,PASS, ,0.059446449000000026, ,0.0099467008731082, ,0.036866675366012944, ,0.0005949115305092163, ,1.9166666666666667, ,0.7531397763929725, ,0.47482704434603373, ,0.08361053856043754
210, ,PASS, ,0.058772105000000026, ,0.009804910025781917, ,0.036744971306095796, ,0.0005797153907755464, ,1.9166666666666667, ,0.7528913024235853, ,0.4750719373074019, ,0.0769780208567172
211, ,PASS, ,0.05860297700000003, ,0.009790552706232742, ,0.037060316078161674, ,0.0005770709664568248, ,1.9166666666666667, ,0.753371213199419, ,0.47539846125589275, ,0.07744739903267281
212, ,PASS, ,0.05840275199999998, ,0.00975914074463237, ,0.03674833887324749, ,0.0005732740264660207, ,1.9166666666666667, ,0.7542087709908589, ,0.47548009224301546, ,0.07863104834595212
213, ,PASS, ,0.05870478500000001, ,0.009739269907247262, ,0.036696104624946435, ,0.0005750567845759786, ,1.9166666666666667, ,0.7513220987462821, ,0.47529642252198934, ,0.0731005489683884
214, ,PASS, ,0.05825500799999999, ,0.009695758616985644, ,0.03683086099159201, ,0.0005681847073359593, ,1.9166666666666667, ,0.7527750464562051, ,0.47545968449623477, ,0.07416175180098365
215, ,PASS, ,0.05821515400000001, ,0.009689148515795457, ,0.036907685062345666, ,0.0005673570359075204, ,1.9166666666666667, ,0.7539317035002303, ,0.47580661619150627, ,0.07516173139323687
216, ,PASS, ,0.058544411999999976, ,0.009736888164723791, ,0.03685009113230343, ,0.0005736179262800875, ,1.9166666666666667, ,0.7538344824027714, ,0.47613314013999714, ,0.0772637293116467
217, ,PASS, ,0.058285378000000006, ,0.009683421871085037, ,0.03678901029956532, ,0.0005677176031355078, ,1.9166666666666667, ,0.7537024608735892, ,0.47611273239321644, ,0.07238627783106467
218, ,PASS, ,0.05812409899999997, ,0.00967876821314868, ,0.036908030745964375, ,0.0005658568983237366, ,1.9166666666666667, ,0.75476538657202, ,0.4760515091528744, ,0.07348829615722129
219, ,PASS, ,0.05813113700000001, ,0.009671630740536832, ,0.036849771710352856, ,0.0005655198796489967, ,1.9166666666666667, ,0.7540708243016332, ,0.4760311014060937, ,0.07944735821717924
220, ,PASS, ,0.058012321000000006, ,0.009694356685694567, ,0.03675978896793943, ,0.0005656445437869419, ,1.9166666666666667, ,0.7559829895312067, ,0.47621477112711985, ,0.08087590049182669
221, ,PASS, ,0.05812457100000001, ,0.009708500040892631, ,0.03689730321370993, ,0.0005674627818545537, ,1.9166666666666667, ,0.7565036171599372, ,0.47631680986102326, ,0.08016162935450297
222, ,PASS, ,0.058292042000000016, ,0.009711455853612222, ,0.0370058029791841, ,0.0005694022119750208, ,1.9166666666666667, ,0.7551229245801678, ,0.47631680986102326, ,0.07459031448337788
223, ,PASS, ,0.05826725, ,0.00973095325677757, ,0.03693947712122202, ,0.0005703199881531511, ,1.9166666666666667, ,0.7554709864108503, ,0.47619436338033916, ,0.0784677863717067
224, ,PASS, ,0.058782596000000006, ,0.009797742483312609, ,0.036782044419052674, ,0.0005791922924850537, ,1.9166666666666667, ,0.7538128380356899, ,0.47576580069794494, ,0.07422297504132569
225, ,PASS, ,0.05900903399999999, ,0.009855513619837442, ,0.03674833494340932, ,0.0005849382854178132, ,1.9166666666666667, ,0.7536719097958282, ,0.47545968449623477, ,0.07997795963347687
226, ,PASS, ,0.05918064499999999, ,0.009890668904034403, ,0.036703817263525236, ,0.0005888880004537439, ,1.9166666666666667, ,0.7523664340301194, ,0.4747862288524724, ,0.07626374971939348
227, ,PASS, ,0.05937938600000001, ,0.009964577389022728, ,0.03655548451029571, ,0.0005951268249669424, ,1.9166666666666667, ,0.7529691620335518, ,0.474684190118569, ,0.0817942490969572
228, ,PASS, ,0.05974041000000001, ,0.009967890144421605, ,0.03662602017615967, ,0.0005991039701277852, ,1.9166666666666667, ,0.7492550065211642, ,0.4739086957409033, ,0.07501887716577213
229, ,PASS, ,0.059605145000000005, ,0.009972904480793113, ,0.03667591248582682, ,0.0005980983081858579, ,1.9166666666666667, ,0.7511354667583252, ,0.4743576661700782, ,0.08071263851758127
230, ,PASS, ,0.059474019000000024, ,0.009932061463059843, ,0.036595756727821886, ,0.0005942920082445478, ,1.9166666666666667, ,0.751845690706525, ,0.47427603518295547, ,0.07969225117854738
231, ,PASS, ,0.059299956000000015, ,0.009920274699904495, ,0.0366881700545091, ,0.0005920211053473823, ,1.9166666666666667, ,0.7513642242889679, ,0.4743780739168588, ,0.08042693006265178
232, ,PASS, ,0.059374709000000005, ,0.009889929826558197, ,0.036703496735148264, ,0.0005906822878718456, ,1.9166666666666667, ,0.7527567064433541, ,0.47529642252198934, ,0.08418195547029653
233, ,PASS, ,0.059162583, ,0.009897262025400564, ,0.036637095942490976, ,0.0005890962233836455, ,1.9166666666666667, ,0.7525943207556559, ,0.47482704434603373, ,0.08214118079222874
234, ,PASS, ,0.05912188800000001, ,0.009868377875784387, ,0.03661494849588784, ,0.0005872706767517502, ,1.9166666666666667, ,0.7519866542914637, ,0.4748066365992531, ,0.08118201669353686
235, ,PASS, ,0.059200915000000014, ,0.009854131544829345, ,0.03663333916711904, ,0.0005870306289309008, ,1.9166666666666667, ,0.7516770258509792, ,0.4751535682945246, ,0.07746780677945347
236, ,PASS, ,0.059501073, ,0.009909937926068165, ,0.036535171753515235, ,0.0005933388130342238, ,1.9166666666666667, ,0.7521985100248966, ,0.4751535682945246, ,0.07840656313136467
237, ,PASS, ,0.059243157, ,0.009924981702871505, ,0.03648686172612804, ,0.0005914932251221921, ,1.9166666666666667, ,0.7528601194499794, ,0.4743984816636395, ,0.07654945817432297
238, ,PASS, ,0.05918032800000001, ,0.009901010598916994, ,0.036705469251749966, ,0.0005895167150249947, ,1.9166666666666667, ,0.7537599385993654, ,0.47499030632027917, ,0.07979428991245077
239, ,PASS, ,0.059154655000000014, ,0.009895808932785933, ,0.03658002590281831, ,0.0005889000752875421, ,1.9166666666666667, ,0.7533566944349318, ,0.47527601477520864, ,0.07916164976224975
240, ,PASS, ,0.059886491000000014, ,0.010012074007910677, ,0.036562581344686845, ,0.0006031983734138618, ,1.9166666666666667, ,0.7523069710673448, ,0.4750923450541826, ,0.0769780208567172
241, ,PASS, ,0.07545083334000001, ,0.012128666193644234, ,0.0350401694195547, ,0.0009219107733994814, ,1.8333333333333333, ,0.7154373697363983, ,0.4646231709556948, ,0.10448766351707107
242, ,PASS, ,0.19325725999999985, ,0.025627435188163183, ,0.025775515993142987, ,0.005008351804685752, ,1.75, ,0.6212301568467598, ,0.44078692271586295, ,0.06924348482684027
243, ,PASS, ,0.09901022899999995, ,0.012888163892123024, ,0.031872783409910004, ,0.0012904938663937733, ,1.6666666666666667, ,0.6103648228456255, ,0.4371951592824636, ,0.056060080406522314
244, ,PASS, ,0.096708537, ,0.01254771250633867, ,0.03215211259335524, ,0.0012274865165448573, ,1.6666666666666667, ,0.6087753936701775, ,0.4371543437889023, ,0.0550601008142691
245, ,PASS, ,0.09710776699999998, ,0.012507029412988068, ,0.03192316729383074, ,0.0012288087653903007, ,1.6666666666666667, ,0.606324897496613, ,0.43662374237260465, ,0.05408052896879655
246, ,PASS, ,0.09764605800000001, ,0.012531914398313868, ,0.032110038416726196, ,0.001238094041750246, ,1.6666666666666667, ,0.6047423399477114, ,0.4364196649047979, ,0.052468316973123
247, ,PASS, ,0.09838187399999998, ,0.012549085009247566, ,0.0319969851325075, ,0.0012495117919035425, ,1.6666666666666667, ,0.6031666028368604, ,0.43576661700781616, ,0.051468337380869776
248, ,PASS, ,0.09886406299999999, ,0.012575992970143847, ,0.031920640453419316, ,0.0012580576717520732, ,1.6666666666666667, ,0.6021144370018361, ,0.4359094712352809, ,0.04846839860411012
249, ,PASS, ,0.09914611499999999, ,0.012593760500234467, ,0.03193115756343748, ,0.0012635510726542105, ,1.6666666666666667, ,0.6015282999266389, ,0.4356237627803514, ,0.050060202853003
250, ,PASS, ,0.09885834899999998, ,0.012580117607512237, ,0.03171273708569213, ,0.0012588515791188079, ,1.6666666666666667, ,0.6030598357115392, ,0.4355013162996674, ,0.050264280320809776
251, ,PASS, ,0.09900709399999998, ,0.012618441490985996, ,0.031942300903593804, ,0.0012643182596294847, ,1.6666666666666667, ,0.6025558347934223, ,0.4354809085528867, ,0.04991734862553825
252, ,PASS, ,0.098158739, ,0.01256084928480858, ,0.03186297676239261, ,0.001247602219496109, ,1.6666666666666667, ,0.6039914939906712, ,0.435521724046448, ,0.05059080426930063
253, ,PASS, ,0.09843311499999996, ,0.012631794051314583, ,0.03182535888296157, ,0.0012581446354706025, ,1.6666666666666667, ,0.6052724434448472, ,0.43578702475459685, ,0.051427521887308425
254, ,PASS, ,0.09845113299999998, ,0.012721737305651728, ,0.03187096041135895, ,0.001267280183127977, ,1.6666666666666667, ,0.6081581604655356, ,0.4363788494112365, ,0.05585600293871554
255, ,PASS, ,0.09870642899999998, ,0.012673646265355134, ,0.03180751095844983, ,0.0012657326681898417, ,1.6666666666666667, ,0.605750868673243, ,0.4363176261708945, ,0.05418256770269995
