Channel, ,Pass/Fail, ,Amplitude, ,Sorting Function Response, ,Mean, ,Variance, ,NPeaksRatio, ,PosIntegralRatio, ,ToT50, ,ToT99
24, ,PASS, ,0.012604798999999996, ,0.001979350578118716, ,0.028445564238362482, ,2.537631427577887e-05, ,1.8333333333333333, ,0.7785836119133529, ,0.4155221322013836, ,0.04012163017081284
25, ,PASS, ,0.024285655999999996, ,0.0037375184092750674, ,0.02776275574431134, ,9.239232097764661e-05, ,1.8333333333333333, ,0.7709339760632883, ,0.4139711434460521, ,0.05293769514907859
26, ,PASS, ,0.02730074199999999, ,0.004239818738970653, ,0.027414790116895574, ,0.00011784365151210673, ,1.8333333333333333, ,0.7806733247462443, ,0.41497112303830536, ,0.0712434440113467
27, ,PASS, ,0.02566365599999998, ,0.004010025637885579, ,0.027701072995102143, ,0.00010479150875081422, ,1.8333333333333333, ,0.7792121033044427, ,0.41654251954041754, ,0.06277422909736537
28, ,PASS, ,0.018381607, ,0.0028666484480826685, ,0.028044908774514807, ,5.363729008597001e-05, ,1.8333333333333333, ,0.7786462627977808, ,0.41497112303830536, ,0.0519989387971674
29, ,PASS, ,0.007963789000000023, ,0.001065293081799352, ,0.028713107632966677, ,8.665163590728067e-06, ,1.9166666666666667, ,0.7394350043352637, ,0.4146854145833758, ,0.05499887757392706
30, ,PASS, ,0.011951931999999998, ,0.0018983653170388695, ,0.02846176713469113, ,2.3158752372643554e-05, ,1.8333333333333333, ,0.7852982176506009, ,0.4146241913430338, ,0.06030489173690333
31, ,PASS, ,0.024059021999999996, ,0.0037199176603983568, ,0.027705474214954798, ,9.123328231675446e-05, ,1.8333333333333333, ,0.7752579864578595, ,0.4146445990898145, ,0.056447827595355195
32, ,PASS, ,0.027811216000000007, ,0.004280137550655087, ,0.027563458605130507, ,0.00012123547807164354, ,1.8333333333333333, ,0.7753353161898484, ,0.4146854145833758, ,0.06277422909736537
33, ,PASS, ,0.02580484900000001, ,0.003996268760755426, ,0.027566813195404178, ,0.0001051098627783811, ,1.8333333333333333, ,0.7754786945466893, ,0.4146241913430338, ,0.06071304667251689
34, ,PASS, ,0.01808637099999998, ,0.002759866158776212, ,0.028228470348788802, ,5.093351651242796e-05, ,1.8333333333333333, ,0.7753884566201066, ,0.41444052162200773, ,0.03824411746699047
35, ,PASS, ,0.007249672000000002, ,0.0010356640086738767, ,0.02902718930991205, ,7.665568633926545e-06, ,1.9166666666666667, ,0.7532204240490519, ,0.41478745331727923, ,0.048305136629864694
36, ,PASS, ,0.014604030000000004, ,0.002641964641026094, ,0.028198319119324095, ,3.916613682560159e-05, ,1.9166666666666667, ,0.8176398391845283, ,0.4150731617722087, ,0.0887328830023877
37, ,PASS, ,0.025102180000000005, ,0.004516470206936148, ,0.027672056072529132, ,0.00011523589645341369, ,1.9166666666666667, ,0.8283477595071324, ,0.4154609089610416, ,0.08107997795963348
38, ,PASS, ,0.029164350999999998, ,0.005126299115168884, ,0.027174147923919922, ,0.00015204401341911044, ,1.9166666666666667, ,0.8194428308229668, ,0.41458337584947247, ,0.077182098324524
39, ,PASS, ,0.027239132999999978, ,0.004804269666908185, ,0.027333400265586418, ,0.00013314305070846706, ,1.9166666666666667, ,0.8204848026099295, ,0.4138078814718067, ,0.06248852064243587
40, ,PASS, ,0.019071924000000007, ,0.0035461178278200427, ,0.027590381389665516, ,6.881228565850959e-05, ,1.9166666666666667, ,0.841798518163734, ,0.41488949205118264, ,0.08622273014836432
41, ,PASS, ,0.009381786999999992, ,0.0015520273386206785, ,0.028515516393257282, ,1.4803579306385347e-05, ,1.8333333333333333, ,0.7624856106409991, ,0.415562947694945, ,0.03810126323952572
42, ,PASS, ,0.015473753000000007, ,0.0024717319101780597, ,0.028131602308463094, ,3.8960241491343754e-05, ,1.8333333333333333, ,0.7944613350580617, ,0.41568539417562905, ,0.06973327074957654
43, ,PASS, ,0.029396545000000003, ,0.0046533243473099286, ,0.02700683666072121, ,0.00013916329519608002, ,1.8333333333333333, ,0.7809989699718878, ,0.4142568519009816, ,0.061019162874227054
44, ,PASS, ,0.033340669000000024, ,0.005345677182415651, ,0.026752425766657824, ,0.00018125925016201339, ,1.8333333333333333, ,0.7824931013617484, ,0.41411399767351686, ,0.06840676720883247
45, ,PASS, ,0.031013397000000012, ,0.004972587959441752, ,0.02664107992865452, ,0.00015685101671790048, ,1.8333333333333333, ,0.7827789722466159, ,0.4145629681026918, ,0.0630191220587335
46, ,PASS, ,0.02180220799999999, ,0.003478538519400936, ,0.027729819559947758, ,7.722311180235445e-05, ,1.8333333333333333, ,0.7870822858301139, ,0.41542009346748027, ,0.06683537070672027
47, ,PASS, ,0.008829801000000005, ,0.0013102468062030786, ,0.028690932936389055, ,1.1776127100181002e-05, ,1.9166666666666667, ,0.7569300376239237, ,0.41442011387522704, ,0.048631660578355544
48, ,PASS, ,0.014516269000000016, ,0.002354321439623103, ,0.02791540727083121, ,3.479834679652447e-05, ,1.8333333333333333, ,0.7906577017577371, ,0.41560376318850634, ,0.060549784698271464
49, ,PASS, ,0.02928869800000001, ,0.004709494114190242, ,0.027017867738495134, ,0.00014028131113978673, ,1.8333333333333333, ,0.7846524604978501, ,0.41580784065631315, ,0.06587620660802841
50, ,PASS, ,0.03383300500000002, ,0.0054578276671408245, ,0.02658706700863248, ,0.00018766464474080733, ,1.9166666666666667, ,0.7853799138506259, ,0.4145425603559111, ,0.06363135446215383
51, ,PASS, ,0.030883477000000006, ,0.005011299985301387, ,0.026718212683700334, ,0.00015735891794437575, ,1.9166666666666667, ,0.7853915777331439, ,0.4150527540254281, ,0.06189669598579621
52, ,PASS, ,0.021256664000000012, ,0.0034350726191956084, ,0.02750683495842942, ,7.4384726706266e-05, ,1.8333333333333333, ,0.7921515789963137, ,0.41403236668639415, ,0.06554968265953756
53, ,PASS, ,0.008225413000000018, ,0.0012207496317945083, ,0.0286354369718169, ,1.0223175081996513e-05, ,1.9166666666666667, ,0.7636798126866792, ,0.41484867655762125, ,0.04189710414073182
54, ,PASS, ,0.022833856000000017, ,0.0020877543549898364, ,0.02777305705995796, ,4.812693365545582e-05, ,1.5, ,0.5270151294971184, ,0.4151547927593314, ,0.013367074141344054
55, ,PASS, ,0.02084815, ,0.0022965868150476424, ,0.02778682514971123, ,4.840414312660158e-05, ,1.6666666666666667, ,0.5881408131626306, ,0.4159915103773392, ,0.016081304463174222
56, ,PASS, ,0.021869238999999995, ,0.002541733499552299, ,0.027876438230709576, ,5.622690702480756e-05, ,1.75, ,0.6105144849222152, ,0.4143180751413236, ,0.01844860308973286
57, ,PASS, ,0.021177573000000012, ,0.0024093092616385013, ,0.027637638548560235, ,5.1618063275323104e-05, ,1.75, ,0.6028617270715203, ,0.41580784065631315, ,0.01844860308973286
58, ,PASS, ,0.02173224, ,0.002142304310057976, ,0.027768850297034756, ,4.701988620400535e-05, ,1.6666666666666667, ,0.549493746907787, ,0.41409358992673617, ,0.014081345278667782
59, ,PASS, ,0.016789643000000007, ,0.0016361212481083758, ,0.028037995800657134, ,2.7737133207014896e-05, ,1.5833333333333333, ,0.5435295240894333, ,0.41484867655762125, ,0.018326156609048794
