Channel, ,Pass/Fail, ,Amplitude, ,Sorting Function Response, ,Mean, ,Variance, ,NPeaksRatio, ,PosIntegralRatio, ,ToT50, ,ToT99
24, ,PASS, ,0.019464430000000008, ,0.0029038176762353524, ,0.029703227310054897, ,5.6839472154473616e-05, ,1.75, ,0.7418910697898266, ,0.5869267974122977, ,0.10224281137119651
25, ,PASS, ,0.055295796157999996, ,0.007510085285176553, ,0.031005034292353052, ,0.0004150332597599648, ,1.75, ,0.6893073478382135, ,0.5703148915328259, ,0.08473296463337483
26, ,PASS, ,0.07128311299999998, ,0.009202582594915904, ,0.031528380378312355, ,0.0006548709303311392, ,1.75, ,0.6684069834047929, ,0.5660088569621028, ,0.05010101834656436
27, ,PASS, ,0.07536541600000002, ,0.010220547187369039, ,0.032357062790989835, ,0.0007709374210660931, ,1.75, ,0.6907310532466161, ,0.5712536478847371, ,0.06473337278831044
28, ,PASS, ,0.06957769499999998, ,0.010307927411243758, ,0.03283176731198691, ,0.0007209265985569762, ,1.75, ,0.7359031131070125, ,0.585702332605457, ,0.10303871349564295
29, ,PASS, ,0.043641218000000016, ,0.007037851363975458, ,0.031604309871492424, ,0.0003097405031194409, ,1.8333333333333333, ,0.7810107040612889, ,0.5912124242362401, ,0.15356829452460155
30, ,PASS, ,0.02827488000000001, ,0.003951966331625236, ,0.030106520940388973, ,0.00011225179018939355, ,1.75, ,0.7090146395590171, ,0.5865186424766842, ,0.1140997122507704
31, ,PASS, ,0.07085920099999998, ,0.008880876137421142, ,0.03165654820802104, ,0.0006289352492321689, ,1.75, ,0.6562986290662345, ,0.5671108752882594, ,0.04538682884022775
32, ,PASS, ,0.08902224000000002, ,0.010788573022505347, ,0.0320990104707659, ,0.0009578924181793914, ,1.75, ,0.644031939524129, ,0.5629476949450011, ,0.034713577273933184
33, ,PASS, ,0.09289992000000002, ,0.011512540398025779, ,0.03259769016920063, ,0.0010676206600345412, ,1.75, ,0.6536342692610979, ,0.5655394787861472, ,0.03418297585763556
34, ,PASS, ,0.08399305999999997, ,0.011198554154938783, ,0.03303663893714597, ,0.0009412395929102444, ,1.8333333333333333, ,0.6873264883849408, ,0.5744168486357422, ,0.04265219077161691
35, ,PASS, ,0.050573601, ,0.0076569755181027845, ,0.03180570957968205, ,0.00038985927560115664, ,1.75, ,0.7505847130606957, ,0.5914165017040468, ,0.09812044652149957
36, ,PASS, ,0.031549919999999995, ,0.004577913584258155, ,0.030212817191894042, ,0.0001449515483520593, ,1.75, ,0.7244509787868981, ,0.5848656149874493, ,0.11569151649966328
37, ,PASS, ,0.076382427, ,0.009953642808267667, ,0.03213460362961088, ,0.0007607735354263888, ,1.75, ,0.6738635985114461, ,0.5705393767474133, ,0.046060284483990126
38, ,PASS, ,0.09393599999999999, ,0.011811546007833271, ,0.03274692843119528, ,0.0011077585958329996, ,1.75, ,0.6595868956415324, ,0.56682516683333, ,0.03857064141548132
39, ,PASS, ,0.09708531000000002, ,0.012453814345618104, ,0.03338042330378972, ,0.0012080342527652883, ,1.75, ,0.6695256826939725, ,0.5712128323911757, ,0.03850941817513928
40, ,PASS, ,0.08822658999999998, ,0.012101777598376398, ,0.03329301356612385, ,0.0010722476972712873, ,1.75, ,0.7027506015325041, ,0.5821105691720577, ,0.053509112058937575
41, ,PASS, ,0.054404588057000006, ,0.00852743586247448, ,0.03201340213845611, ,0.0004667860584452521, ,1.8333333333333333, ,0.7657710073444329, ,0.5907634538070652, ,0.12197710250811208
42, ,PASS, ,0.03686831699999999, ,0.005443655761967848, ,0.030609964295218464, ,0.00020215097377704054, ,1.75, ,0.7368245555724379, ,0.5913552784637048, ,0.15050713250749984
43, ,PASS, ,0.08046759999999997, ,0.010999502083696018, ,0.03217787931205263, ,0.0008851404039713262, ,1.8333333333333333, ,0.6935556406889946, ,0.5704169302667292, ,0.05591722617905757
44, ,PASS, ,0.09659503000000003, ,0.012615154883754153, ,0.032822538614232365, ,0.0012176484725231463, ,1.75, ,0.6761586347138501, ,0.56802922389339, ,0.039897144956225386
45, ,PASS, ,0.10017502000000002, ,0.013331661500751563, ,0.033279866953817266, ,0.0013357747195112926, ,1.8333333333333333, ,0.6837783326632092, ,0.5721107732495255, ,0.039978775943348095
46, ,PASS, ,0.09172656, ,0.013156901994766535, ,0.03385631687056519, ,0.0012106391945687404, ,1.75, ,0.7229858743214345, ,0.583232995244995, ,0.06873329115732332
47, ,PASS, ,0.058347280643, ,0.009380210750969675, ,0.03258399374912916, ,0.0005518865676704161, ,1.8333333333333333, ,0.7797075955042281, ,0.5948654109099815, ,0.1516499663272178
48, ,PASS, ,0.040790573, ,0.0061282370599297364, ,0.030610732859349808, ,0.00025112254765141017, ,1.75, ,0.7406007022614948, ,0.5831513642578723, ,0.1290994061345687
49, ,PASS, ,0.08052897999999997, ,0.01107066902561395, ,0.03270011616568215, ,0.000893142576843923, ,1.75, ,0.6963833273281391, ,0.5757637599232669, ,0.07361074263790535
50, ,PASS, ,0.09676665000000002, ,0.012705017378089569, ,0.032985229729025935, ,0.001230199858033526, ,1.75, ,0.6769588872323752, ,0.5689067570049591, ,0.04712148731658537
51, ,PASS, ,0.09915748000000003, ,0.013128927976985874, ,0.033288083766719045, ,0.001303608337915708, ,1.75, ,0.6836881276732222, ,0.5729883063610947, ,0.04712148731658537
52, ,PASS, ,0.08974800000000001, ,0.012875372405607816, ,0.03370140078346399, ,0.001160759265322239, ,1.75, ,0.7217780665085876, ,0.5818248607171282, ,0.07118222077100467
53, ,PASS, ,0.054017034038, ,0.00914301197484553, ,0.032831293059353894, ,0.0005002378324787856, ,1.8333333333333333, ,0.8127581304125667, ,0.6032325870900593, ,0.23644415420093468
54, ,PASS, ,0.040546323, ,0.00610426437459971, ,0.030702551996775577, ,0.00024849496009346007, ,1.75, ,0.741844756392018, ,0.584437052305055, ,0.15622130160608969
55, ,PASS, ,0.07931765999999998, ,0.010913818414440309, ,0.03242825920115379, ,0.0008673228577446097, ,1.8333333333333333, ,0.6977354687098644, ,0.5741311401808127, ,0.07075365808861044
56, ,PASS, ,0.09428015999999999, ,0.012268614986563347, ,0.03317610016702851, ,0.001158630300828217, ,1.75, ,0.6754029733047683, ,0.5717230260606926, ,0.05036631905471317
57, ,PASS, ,0.09659163000000004, ,0.012847677261228003, ,0.0333824854605008, ,0.0012430205866889826, ,1.75, ,0.6848718680371172, ,0.5725597436787004, ,0.051019366951694865
58, ,PASS, ,0.08897064, ,0.012656466554961193, ,0.033827289753778675, ,0.001132650345232251, ,1.75, ,0.7189716570533553, ,0.5840493051162221, ,0.07259035529887145
59, ,PASS, ,0.05526632498, ,0.009302526157983477, ,0.032635404081701805, ,0.0005199659879350381, ,1.8333333333333333, ,0.8030898856612279, ,0.5985388053305034, ,0.24360727332095264
60, ,PASS, ,0.042246834000000004, ,0.00661695170790172, ,0.031235830054366236, ,0.00028208667643895956, ,1.8333333333333333, ,0.7692441873117515, ,0.5924572967898615, ,0.14191547111283442
61, ,PASS, ,0.07783089300000003, ,0.01176252177413986, ,0.03302546662190823, ,0.0009177058422064016, ,1.75, ,0.7417505535112563, ,0.5795391930776923, ,0.15236423746454153
62, ,PASS, ,0.09310991999999998, ,0.013102255148598242, ,0.033246412670414886, ,0.0012203952954788495, ,1.8333333333333333, ,0.7078925286680016, ,0.5726617824126038, ,0.07940654272361788
63, ,PASS, ,0.09577032, ,0.013658068943779808, ,0.03382667297729434, ,0.0013115466585094486, ,1.75, ,0.7156934201202739, ,0.5773555641721597, ,0.07693720536315585
64, ,PASS, ,0.08830415, ,0.013534986969966531, ,0.03448660176921895, ,0.0012033311740319325, ,1.75, ,0.7533848864642754, ,0.587988000244893, ,0.11258953898900022
65, ,PASS, ,0.05573176085599999, ,0.009454946601016052, ,0.03297698139926124, ,0.0005343377833396338, ,1.8333333333333333, ,0.81774612642787, ,0.604395828656558, ,0.17501683639109405
66, ,PASS, ,0.042010753000000005, ,0.006542064929832002, ,0.031305727711312015, ,0.00027687988225861274, ,1.8333333333333333, ,0.7674873364408564, ,0.5911716087426787, ,0.14311952817289442
67, ,PASS, ,0.07508151799999994, ,0.01131680123310371, ,0.032907468603871524, ,0.0008528641802083885, ,1.75, ,0.7399422323254858, ,0.5803350952021388, ,0.14985408461051816
68, ,PASS, ,0.08946096000000002, ,0.012768756913243215, ,0.03309563493096467, ,0.0011436755756676134, ,1.8333333333333333, ,0.7133416913119592, ,0.5743556253954001, ,0.08844717454745822
69, ,PASS, ,0.09207648000000002, ,0.013202987109139466, ,0.0335684617800642, ,0.0012194891107467905, ,1.75, ,0.7180547576162285, ,0.5774576029060632, ,0.08579416746597009
70, ,PASS, ,0.08311824000000001, ,0.012899217361647168, ,0.03382213681836393, ,0.0010777077303132376, ,1.75, ,0.7585680524623925, ,0.5863553805024387, ,0.14062978306565171
71, ,PASS, ,0.054354015394000005, ,0.009279844516648653, ,0.03304311143429726, ,0.0005120769020128173, ,1.75, ,0.8169503094220467, ,0.6050488765535397, ,0.19305728454521337
72, ,PASS, ,0.040977597, ,0.006427137233054769, ,0.031386945849758166, ,0.00026588288038555086, ,1.75, ,0.7770620947112926, ,0.5980082039142058, ,0.1418542478724924
73, ,PASS, ,0.072350969, ,0.011212280142491763, ,0.032902626622111686, ,0.0008150030280369267, ,1.75, ,0.7523850663990667, ,0.583232995244995, ,0.17962898716352727
74, ,PASS, ,0.08621701999999999, ,0.012675303149705063, ,0.0332930964236848, ,0.001094648417492809, ,1.8333333333333333, ,0.7280297944951248, ,0.5774780106528438, ,0.11444664394604191
75, ,PASS, ,0.08847714999999999, ,0.013045834110058491, ,0.03348299578584047, ,0.0011589695312668258, ,1.75, ,0.7311983814559507, ,0.580192240974674, ,0.10018162894634804
76, ,PASS, ,0.08031389999999998, ,0.012830911179500908, ,0.034114951148202156, ,0.0010369735332201749, ,1.75, ,0.7729033490659334, ,0.5887022713822166, ,0.1744250117344544
77, ,PASS, ,0.053898896294, ,0.009203046569237055, ,0.03296046678269831, ,0.0005038104416759628, ,1.75, ,0.8219961188205889, ,0.6061917103732577, ,0.16058855941715475
78, ,PASS, ,0.036453207999999994, ,0.005680114465789904, ,0.031206260131629967, ,0.00020973483113299494, ,1.8333333333333333, ,0.7842261030209035, ,0.6038652272402604, ,0.11405889675720904
79, ,PASS, ,0.066775885, ,0.010455274968203986, ,0.03306070866464039, ,0.0007029212101515945, ,1.75, ,0.7644469053685863, ,0.5889471643435849, ,0.15273157690659375
80, ,PASS, ,0.08238153000000002, ,0.012541531075278872, ,0.03325715668270363, ,0.0010364351122049583, ,1.8333333333333333, ,0.7452635740361844, ,0.5787636987000265, ,0.16577212709944694
81, ,PASS, ,0.08423919999999997, ,0.012962364329693422, ,0.03374548169650421, ,0.0010959743015889248, ,1.75, ,0.7511020485998882, ,0.5812126283137079, ,0.16118038407379442
82, ,PASS, ,0.07526355199999998, ,0.012254171438821003, ,0.03354045253498867, ,0.0009281060569711887, ,1.75, ,0.7825566499210411, ,0.5871716903736658, ,0.18726148445950083
83, ,PASS, ,0.04779236800000001, ,0.008019558632517897, ,0.03238710517264954, ,0.00038953687066703164, ,1.8333333333333333, ,0.81701412082367, ,0.6074365829268791, ,0.10593661353849922
84, ,PASS, ,0.03770667299999999, ,0.0058452903279807445, ,0.03103877619028183, ,0.00022277545191945442, ,1.75, ,0.7742292013371788, ,0.5982735046223546, ,0.12605865186424767
85, ,PASS, ,0.06801553599999999, ,0.010534385512916668, ,0.03267231513825805, ,0.0007195026698927432, ,1.75, ,0.7543452011672147, ,0.5822942388930838, ,0.16475173976041305
86, ,PASS, ,0.08123338, ,0.012184079852212376, ,0.033198768997345904, ,0.0009932143188527986, ,1.8333333333333333, ,0.7376058627398959, ,0.578539213485439, ,0.15187445154180526
87, ,PASS, ,0.08249513, ,0.012567082327561298, ,0.03336578064159541, ,0.0010403119433400267, ,1.75, ,0.7468633489897629, ,0.5792943001163241, ,0.16464970102650966
88, ,PASS, ,0.07346264799999998, ,0.011696003589694748, ,0.033363367821993097, ,0.000864934544426976, ,1.75, ,0.7708441815479509, ,0.5869267974122977, ,0.16854758066161915
89, ,PASS, ,0.048102261, ,0.00820150710013128, ,0.03239810269139405, ,0.0003995232912680491, ,1.8333333333333333, ,0.8183086013190057, ,0.6028244321544458, ,0.22250566314973164
90, ,PASS, ,0.01896872999999999, ,0.0030481773559547826, ,0.02948704877165772, ,5.839343836363632e-05, ,1.75, ,0.7815877944450127, ,0.5967429236138038, ,0.1512009958980429
91, ,PASS, ,0.026206550000000002, ,0.004188411474547977, ,0.0303732194910308, ,0.00011122864315520249, ,1.8333333333333333, ,0.7892972657042312, ,0.6021101610171221, ,0.10795698046978633
92, ,PASS, ,0.029092080000000024, ,0.004635198909304254, ,0.030403147424950514, ,0.00013632484243199618, ,1.8333333333333333, ,0.7808671967745351, ,0.5977837186996183, ,0.05669272055672333
93, ,PASS, ,0.03020688, ,0.004831707799604279, ,0.03079572883410543, ,0.00014787890008881833, ,1.8333333333333333, ,0.79428515445666, ,0.6024775004591743, ,0.11967102712189547
94, ,PASS, ,0.028966320000000004, ,0.00485910385048342, ,0.030614035201730578, ,0.00014251546137600442, ,1.8333333333333333, ,0.807130603306854, ,0.6013754821330177, ,0.15207852900961205
95, ,PASS, ,0.024697780000000003, ,0.003535930178365636, ,0.02996825813452787, ,8.833786859955322e-05, ,1.8333333333333333, ,0.7395356031670649, ,0.6018652680557539, ,0.031754453990734885
199, ,FAIL, ,0.022682649999999988, ,0.0013731035335891868, ,0.029625162963000752, ,3.2817708044558796e-05, ,1.1666666666666667, ,0.42590407778675576, ,0.6263137486990061, ,0.013754821330176935
200, ,PASS, ,0.02507667999999999, ,0.0030688182049172664, ,0.03048805245546009, ,8.231931763257196e-05, ,1.9166666666666667, ,0.7890964747452618, ,0.628415746617416, ,0.006346809248790841
201, ,PASS, ,0.04178723000000001, ,0.006356895774157881, ,0.032709086252117305, ,0.0002806401788567374, ,2.0, ,0.8758428493171992, ,0.6327625966817004, ,0.05750903042795045
202, ,PASS, ,0.036700201, ,0.005030163782421519, ,0.0320487144443991, ,0.00019442105862427965, ,1.9166666666666667, ,0.8495517310716773, ,0.6328442276688231, ,0.044060325299483685
203, ,PASS, ,0.050717483715999996, ,0.007304034850679803, ,0.03353284097710251, ,0.00039033699018412526, ,2.0, ,0.8677281741938941, ,0.6336401297932696, ,0.05946817411889553
204, ,PASS, ,0.07306755, ,0.009877328035554852, ,0.035507476717332294, ,0.00075615133099186, ,1.9166666666666667, ,0.8801249504051941, ,0.633987061488541, ,0.06397828615742536
205, ,PASS, ,0.07212761000000001, ,0.009598375927651077, ,0.03543542576341299, ,0.0007232627165248768, ,2.0, ,0.8789706455998166, ,0.6366400685700292, ,0.06148854105018265
206, ,PASS, ,0.07825903999999997, ,0.010199489754568674, ,0.03581763254694802, ,0.000841009907358797, ,1.9166666666666667, ,0.8720346982441709, ,0.633925838248199, ,0.061304871329156546
207, ,PASS, ,0.07260042999999998, ,0.009492325847741028, ,0.0352569291412012, ,0.0007226363598035058, ,1.9166666666666667, ,0.8777645068224061, ,0.6346605171323034, ,0.061264055835595195
208, ,PASS, ,0.070275129, ,0.008965834268671513, ,0.035032600615069076, ,0.0006596669409387093, ,1.9166666666666667, ,0.8655188278247242, ,0.633925838248199, ,0.0484888063508908
209, ,PASS, ,0.064443057, ,0.008222498737593318, ,0.034401942440378766, ,0.0005597397356517133, ,1.9166666666666667, ,0.86745085515426, ,0.6332319748576559, ,0.05334585008469215
210, ,PASS, ,0.07199119999999999, ,0.009086413821698723, ,0.035289567609497766, ,0.0006865793856333711, ,1.9166666666666667, ,0.8683252815722459, ,0.6361910981408543, ,0.055570294483786045
211, ,PASS, ,0.07703333, ,0.009793780532939939, ,0.035775489270484274, ,0.0007891786340221007, ,1.9166666666666667, ,0.873846293169253, ,0.6360278361666089, ,0.05563151772412808
212, ,PASS, ,0.11722356, ,0.014306624190770365, ,0.03919395414022163, ,0.0017545529425755998, ,2.0, ,0.8886211343499221, ,0.6433338095140916, ,0.07330462643619517
213, ,PASS, ,0.0856841, ,0.010522856070558742, ,0.03649832150507132, ,0.0009445880597239728, ,2.0, ,0.8810306216252729, ,0.6385788045141936, ,0.06763127283116671
214, ,PASS, ,0.08418095999999994, ,0.010234161351302295, ,0.03621689571041407, ,0.000904259013684639, ,2.0, ,0.8739543548476126, ,0.6388236974755617, ,0.05954980510601825
215, ,PASS, ,0.11032280000000003, ,0.014022877490045887, ,0.038957781806697823, ,0.0016170770246334283, ,2.0, ,0.8826290673191297, ,0.6378645333768699, ,0.06910063059937552
216, ,PASS, ,0.10738784000000001, ,0.013185301494759383, ,0.03856322467259851, ,0.0014843830804151439, ,2.0, ,0.8808384496541917, ,0.6397420460806922, ,0.06677414746637823
217, ,PASS, ,0.09276503999999999, ,0.011531364330563594, ,0.03701422676302524, ,0.0011183169286034028, ,1.9166666666666667, ,0.8813750818114916, ,0.6357421277116794, ,0.06179465725189282
218, ,PASS, ,0.11789380999999999, ,0.01450952734517383, ,0.039251318136956384, ,0.0017858357520989764, ,1.9166666666666667, ,0.8873519050620852, ,0.6378441256300892, ,0.06926389257362095
219, ,PASS, ,0.10363444999999999, ,0.012636086554019937, ,0.03819332692249137, ,0.0013726173927124388, ,2.0, ,0.8843748586009337, ,0.6395583763596662, ,0.06499867349645926
220, ,PASS, ,0.09700775999999997, ,0.01175608581068495, ,0.037586865950266314, ,0.0011877756808942074, ,2.0, ,0.8855811952958538, ,0.6400277545356218, ,0.06234566641497112
221, ,PASS, ,0.10955528, ,0.013549816849898751, ,0.03863831426010489, ,0.0015645571387336806, ,1.9166666666666667, ,0.8787042712980156, ,0.6369461847717394, ,0.06330483051366298
222, ,PASS, ,0.07160376, ,0.008738222681016095, ,0.03512526777102508, ,0.0006569538479073275, ,1.9166666666666667, ,0.8705045356319511, ,0.6370074080120813, ,0.051080590192036895
223, ,PASS, ,0.08861207999999998, ,0.011434224000480003, ,0.03694855283704413, ,0.0010587732551785292, ,2.0, ,0.885393253861768, ,0.6374359706944757, ,0.06369257770249587
224, ,PASS, ,0.050557653987999995, ,0.006733455065577382, ,0.03328534029601437, ,0.00035958968716391816, ,1.9166666666666667, ,0.8543055202626036, ,0.6310687536989041, ,0.046060284483990126
225, ,PASS, ,0.03640019599999999, ,0.004598167573794557, ,0.03179324444684803, ,0.00017794340564934014, ,1.9166666666666667, ,0.8278319913571477, ,0.6317422093426664, ,0.02899940817534336
226, ,PASS, ,0.035279765000000005, ,0.0043459670899207905, ,0.03155844654945818, ,0.00016553528156031924, ,1.9166666666666667, ,0.8237922862199886, ,0.6292524642354238, ,0.021877104548886757
227, ,FAIL, ,0.029439638000000004, ,0.002719708457707334, ,0.030688642541580786, ,8.620211129014753e-05, ,1.9166666666666667, ,0.7451036278549096, ,0.6314156853941756, ,0.002142813411971184
228, ,PASS, ,0.044674466063999996, ,0.004843995682391194, ,0.03221077361678333, ,0.00023269152236155574, ,1.9166666666666667, ,0.8011344878896925, ,0.6295789881839147, ,0.0031632007510050816
