Channel, ,Pass/Fail, ,Amplitude, ,Sorting Function Response, ,Mean, ,Variance, ,NPeaksRatio, ,PosIntegralRatio, ,ToT50, ,ToT99
29, ,PASS, ,0.022097420000000007, ,0.0032872203038191157, ,0.03721996811309974, ,7.298842255827803e-05, ,1.75, ,0.7390734733071358, ,0.5890492030774882, ,0.1341809350829575
30, ,PASS, ,0.06743728659999997, ,0.009058692992579966, ,0.03937198034475827, ,0.0006106310043500025, ,1.75, ,0.685187055296915, ,0.5697026591294055, ,0.06316197628619824
31, ,PASS, ,0.09256630200000003, ,0.01154298249874838, ,0.04007621403650925, ,0.0010653779136238985, ,1.75, ,0.6561418511420343, ,0.5607640660394686, ,0.03934613579314708
32, ,PASS, ,0.09832417999999996, ,0.01220734950759214, ,0.04046850678672782, ,0.0011979181419146377, ,1.75, ,0.6552222706905502, ,0.565049692863411, ,0.034631946286810475
33, ,PASS, ,0.08913717999999994, ,0.011894386469633414, ,0.04118671041232076, ,0.0010611166182657047, ,1.8333333333333333, ,0.6916814867010523, ,0.5760290606314157, ,0.04840717536376809
34, ,PASS, ,0.044719210000000016, ,0.007218114285489491, ,0.03946002796922512, ,0.0003254787182940557, ,1.8333333333333333, ,0.7830260343928334, ,0.5936001306095794, ,0.17264953776453543
35, ,PASS, ,0.02698867000000001, ,0.003977641056478288, ,0.037656671132425865, ,0.00010797374377591461, ,1.75, ,0.7365150462849384, ,0.5883349319401645, ,0.12542601171404666
36, ,PASS, ,0.07093939733, ,0.009585040040261039, ,0.03986208520780025, ,0.0006797373351146978, ,1.75, ,0.6895430944124341, ,0.5711312014040529, ,0.06161098753086672
37, ,PASS, ,0.09709771999999997, ,0.012092488241841996, ,0.040472992943185446, ,0.001173757014784066, ,1.75, ,0.6564406592734299, ,0.56802922389339, ,0.034223791351196915
38, ,PASS, ,0.10227489000000006, ,0.012737771207959787, ,0.040939386085304376, ,0.0013001995807972626, ,1.75, ,0.6560464617093258, ,0.567519030223873, ,0.03281565682333014
39, ,PASS, ,0.093265338, ,0.012427932905082399, ,0.04114124109549091, ,0.0011600467882837689, ,1.8333333333333333, ,0.6895661350250779, ,0.5776004571335279, ,0.04259096753127487
40, ,PASS, ,0.05045911700000002, ,0.007960870370647997, ,0.0396395557531479, ,0.00040458632364666575, ,1.8333333333333333, ,0.769512857758549, ,0.591151200995898, ,0.10850798963286463
41, ,PASS, ,0.03106608000000002, ,0.004701687003401451, ,0.037937297849227565, ,0.0001470825399175527, ,1.75, ,0.750173168547941, ,0.5924981122834228, ,0.12632395257239648
42, ,PASS, ,0.07742822539999998, ,0.010799421527917916, ,0.04022629559745781, ,0.0008380207150063443, ,1.8333333333333333, ,0.7048679180002713, ,0.5755392747086794, ,0.07344748066365993
43, ,PASS, ,0.10077086999999998, ,0.012819804446164639, ,0.04090827041852289, ,0.0012899117347370086, ,1.75, ,0.6660541355734211, ,0.5698251056100896, ,0.03952980551417318
44, ,PASS, ,0.10443485000000005, ,0.013332914185485382, ,0.0410593543746446, ,0.001391237367825166, ,1.75, ,0.6680508000552192, ,0.5709679394298075, ,0.03514213995632742
45, ,PASS, ,0.09638496999999999, ,0.013068924830861969, ,0.04173063002822269, ,0.0012645729244851055, ,1.75, ,0.6992426049867858, ,0.5833758494724598, ,0.049019407767188425
46, ,PASS, ,0.05332843799999998, ,0.008933200635793481, ,0.039873895705108055, ,0.0004810443556668119, ,1.8333333333333333, ,0.8026017924922974, ,0.5967021081202425, ,0.2110569172057713
47, ,PASS, ,0.03103298000000001, ,0.004769703912642908, ,0.03777465783779923, ,0.00014904840910053458, ,1.75, ,0.7563728466831298, ,0.5889267565968042, ,0.135099283688088
48, ,PASS, ,0.07821605399999997, ,0.011091683238618474, ,0.04032857508011734, ,0.0008685451220696941, ,1.8333333333333333, ,0.7116622016938531, ,0.5751923430134079, ,0.08036570682230974
49, ,PASS, ,0.10085539999999997, ,0.01295260340916127, ,0.040900006162506476, ,0.001306477796778081, ,1.75, ,0.6697791555259449, ,0.5707026387216587, ,0.04179506540682843
50, ,PASS, ,0.10380705000000004, ,0.013304165071942677, ,0.041024980699443686, ,0.001382023765669435, ,1.75, ,0.6713889059857193, ,0.5713352788718598, ,0.041672618926144364
51, ,PASS, ,0.09456481400000002, ,0.013134035931052399, ,0.041295387445183365, ,0.0012431490508191863, ,1.8333333333333333, ,0.7064159345084681, ,0.5784371747515357, ,0.05530499377563723
52, ,PASS, ,0.05335570199999996, ,0.00894114411389552, ,0.040082598328340234, ,0.0004812355717494061, ,1.75, ,0.8000785643473688, ,0.5972735250301014, ,0.20777126997408216
53, ,PASS, ,0.033124139999999996, ,0.005161639821439338, ,0.037865071643435846, ,0.000171922282305511, ,1.75, ,0.760040172391192, ,0.5887634946225587, ,0.13446664353788698
54, ,PASS, ,0.07979454999999998, ,0.011729777874478167, ,0.04046374926315259, ,0.0009380936006381652, ,1.75, ,0.7298363251386654, ,0.5764984388073713, ,0.09230423868900635
55, ,PASS, ,0.09996897999999994, ,0.013098996205490092, ,0.040672802134512555, ,0.0013081594157173973, ,1.75, ,0.6783108481592455, ,0.5707638619620008, ,0.04708067182302402
56, ,PASS, ,0.10183793000000001, ,0.01349068218135979, ,0.040734791330161425, ,0.0013736242885420869, ,1.75, ,0.6833717901083184, ,0.5692128732066692, ,0.04465214995612334
57, ,PASS, ,0.09539560000000004, ,0.013563746762625993, ,0.041564975148609414, ,0.0012975604025717365, ,1.75, ,0.7205342164660721, ,0.5826207628415747, ,0.06491704250933654
58, ,PASS, ,0.055846454, ,0.00948698030516516, ,0.04040217311369155, ,0.0005360307347038783, ,1.8333333333333333, ,0.8092484117521747, ,0.5996000081630987, ,0.24681128956551907
59, ,PASS, ,0.02809409, ,0.0044065985240070975, ,0.03776742007856982, ,0.00012541211539733672, ,1.8333333333333333, ,0.7839167340199404, ,0.6015999673476051, ,0.11065080304483582
60, ,PASS, ,0.06934913313999999, ,0.011006330473977866, ,0.04052170896764351, ,0.0007677554120083485, ,1.75, ,0.7692226004402589, ,0.5856002938715537, ,0.20117956776392318
61, ,PASS, ,0.09293930899999998, ,0.013315363047892367, ,0.041025765770754674, ,0.0012399338614326309, ,1.8333333333333333, ,0.7174813744717262, ,0.5757025366829248, ,0.08183506459051856
62, ,PASS, ,0.09763755999999997, ,0.013736637520037601, ,0.041432369828179626, ,0.0013449993095991104, ,1.8333333333333333, ,0.711496974337187, ,0.5764780310605906, ,0.07008020244484807
63, ,PASS, ,0.08898292799999996, ,0.013572160027863909, ,0.0417930982228779, ,0.001212897944790007, ,1.75, ,0.7508549425886262, ,0.5844574600518356, ,0.10018162894634804
64, ,PASS, ,0.05205035699999998, ,0.009094174514165958, ,0.040214098621415895, ,0.00047932566536358927, ,1.8333333333333333, ,0.8286571132360515, ,0.602436684965613, ,0.2550152037713516
65, ,PASS, ,0.028548039999999986, ,0.0044742181266129956, ,0.037770708790841, ,0.00012909703021617505, ,1.8333333333333333, ,0.7766941868670145, ,0.5965388461459971, ,0.09446745984775821
66, ,PASS, ,0.06981265330000001, ,0.011024481221327936, ,0.04072097350874614, ,0.000773024745736012, ,1.75, ,0.7656058110410198, ,0.5844166445582744, ,0.20342441990979776
67, ,PASS, ,0.09091927099999997, ,0.012870317070219515, ,0.040996173744987645, ,0.0011737894882172491, ,1.8333333333333333, ,0.7128881165353818, ,0.5775188261464052, ,0.07750862227301483
68, ,PASS, ,0.09527007200000004, ,0.013496706012264832, ,0.04104688971183466, ,0.0012868839628812766, ,1.8333333333333333, ,0.7131527749508465, ,0.5725597436787004, ,0.06691700169384299
69, ,PASS, ,0.08740465400000001, ,0.013192188785527411, ,0.0415279644854905, ,0.0011584496159025833, ,1.75, ,0.7460785516799882, ,0.5841105283565642, ,0.09297769433276871
70, ,PASS, ,0.05250057899999998, ,0.009182446403256833, ,0.04034851693791963, ,0.00048754491193420883, ,1.8333333333333333, ,0.8260596400375021, ,0.6015183363604825, ,0.29523887267606785
71, ,PASS, ,0.02953000999999999, ,0.004704728513263377, ,0.03802260019142466, ,0.00014077126424385378, ,1.8333333333333333, ,0.789450494893886, ,0.6037019652660149, ,0.10869165935389073
72, ,PASS, ,0.07039328144999998, ,0.011308376877005082, ,0.04115636073624864, ,0.0008017481318731406, ,1.75, ,0.7770477050229899, ,0.5909471235280913, ,0.23079120834268688
73, ,PASS, ,0.08843689999999996, ,0.01322385461497515, ,0.0414333979256258, ,0.0011725383592187395, ,1.75, ,0.7381190903721533, ,0.5806208036570683, ,0.1039978775943348
74, ,PASS, ,0.09276490799999998, ,0.01363781921396237, ,0.041185466991973625, ,0.001268175293237086, ,1.75, ,0.7318344310697737, ,0.5783147282708516, ,0.0855900899981633
75, ,PASS, ,0.08320517100000002, ,0.013389899276449905, ,0.04193025164930634, ,0.0011207353277074106, ,1.75, ,0.7776060548186821, ,0.5889879798371462, ,0.1538948184730924
76, ,PASS, ,0.050682365000000014, ,0.008735225188746781, ,0.04028990655129487, ,0.00044954021002265916, ,1.8333333333333333, ,0.8311562668533122, ,0.6079263688496153, ,0.12458929409603886
77, ,PASS, ,0.029072799999999985, ,0.004541830059220355, ,0.03815339871594457, ,0.0001337623935899858, ,1.8333333333333333, ,0.7863056996605284, ,0.6046203138711455, ,0.11230383053407074
78, ,PASS, ,0.06729926522999999, ,0.010810658910947105, ,0.040735606996040896, ,0.0007313434379717529, ,1.75, ,0.7764025364427157, ,0.5865390502234649, ,0.21432215669067978
79, ,PASS, ,0.08484793800000004, ,0.012414917646515502, ,0.041154822864177064, ,0.001057811668325403, ,1.8333333333333333, ,0.7275579193026759, ,0.5822942388930838, ,0.09426338237995142
80, ,PASS, ,0.086860356, ,0.012693342662371576, ,0.04099240723251342, ,0.001104667764839511, ,1.8333333333333333, ,0.7289218389994367, ,0.578477990245097, ,0.09154915205812127
81, ,PASS, ,0.07994746299999995, ,0.012756447130223047, ,0.04132845621794718, ,0.001025684063019455, ,1.75, ,0.7732003857374442, ,0.5861921185281933, ,0.16136405379482052
82, ,PASS, ,0.047751906, ,0.008279600468406619, ,0.0402045749143895, ,0.00040199216611952834, ,1.75, ,0.8314623630171097, ,0.6101304055019285, ,0.20111834452358116
83, ,PASS, ,0.03280508999999998, ,0.005308252440711207, ,0.038144240688965526, ,0.00017547694137033304, ,1.8333333333333333, ,0.7793295558379165, ,0.5910083467684333, ,0.20179180016734352
84, ,PASS, ,0.06367120200000001, ,0.009955707700422355, ,0.040058043814718065, ,0.000637522811993679, ,1.75, ,0.7603481305479834, ,0.585069692455256, ,0.17926164772147507
85, ,PASS, ,0.07824018899999996, ,0.010811022010816925, ,0.04013152971548397, ,0.0008463951741845596, ,1.75, ,0.701818777671494, ,0.573600538764515, ,0.06167221077120875
86, ,PASS, ,0.08153476300000002, ,0.011292670287433214, ,0.0403269453378729, ,0.0009228957885305806, ,1.8333333333333333, ,0.7051428133691162, ,0.5762739535927838, ,0.0653251974449501
87, ,PASS, ,0.0768300464, ,0.011309416137201544, ,0.04085865860351625, ,0.0008735411422923307, ,1.75, ,0.7342587620010467, ,0.5833962572192404, ,0.08093712373216873
199, ,FAIL, ,0.026018151999999985, ,0.0021351151010227925, ,0.037845863922573005, ,6.090472111007782e-05, ,1.9166666666666667, ,0.7397137363129617, ,0.6312932389134915, ,0.0011836493132793208
200, ,FAIL, ,0.024494229999999992, ,0.002093748116685232, ,0.03766348903920328, ,5.550860888478125e-05, ,1.8333333333333333, ,0.7258510836065243, ,0.6317013938491052, ,0.0018162894634803372
201, ,PASS, ,0.035895999999999983, ,0.004741819719381286, ,0.039431224540519574, ,0.00018083155262843791, ,1.9166666666666667, ,0.837859413954341, ,0.6318034325830085, ,0.026183139119609802
202, ,PASS, ,0.04106181, ,0.0050316721310866355, ,0.039763746677006585, ,0.00021992284054117963, ,1.9166666666666667, ,0.8225410174073522, ,0.630762637497194, ,0.030162649741842004
203, ,PASS, ,0.048138015000000006, ,0.006523798793575614, ,0.04073834410093671, ,0.00033189948336830114, ,1.9166666666666667, ,0.8542784202220551, ,0.630252443827677, ,0.03714209914083386
204, ,PASS, ,0.09064906999999997, ,0.011249153359281018, ,0.04468624158588601, ,0.0010731319306607463, ,1.9166666666666667, ,0.8725257367570965, ,0.6359870206730475, ,0.050631619762861985
205, ,PASS, ,0.10529051999999994, ,0.013380162253823226, ,0.046113871945164385, ,0.0014768302015965486, ,1.9166666666666667, ,0.8830576015429192, ,0.6356196812309953, ,0.06638640027754536
206, ,PASS, ,0.10822627999999995, ,0.012972141645657681, ,0.04614396087126793, ,0.0014719415999230503, ,2.0, ,0.8794169726219384, ,0.638864512969123, ,0.06238648190853248
207, ,PASS, ,0.11479668, ,0.013880960109364642, ,0.04660216362019142, ,0.001666341897887648, ,1.9166666666666667, ,0.8856266866842483, ,0.6383747270463868, ,0.06185588049223485
208, ,PASS, ,0.08661429000000002, ,0.010365186359122522, ,0.0440663860619171, ,0.0009420456005146714, ,1.9166666666666667, ,0.8704354187538353, ,0.6371910777331075, ,0.05326421909756944
209, ,PASS, ,0.08622975000000001, ,0.01058285596181106, ,0.04401203967531275, ,0.0009578551327391728, ,1.9166666666666667, ,0.8688425206143295, ,0.6342115467031285, ,0.055570294483786045
210, ,PASS, ,0.07850942000000001, ,0.009392679060271539, ,0.043286959394706226, ,0.0007745769983773495, ,1.9166666666666667, ,0.8649463701724436, ,0.6353747882696271, ,0.05330503459113079
211, ,PASS, ,0.08760844000000002, ,0.0109823169288489, ,0.044381100581824866, ,0.0010095169494203906, ,1.9166666666666667, ,0.8711883652467433, ,0.6364359911022224, ,0.056855982530968754
212, ,PASS, ,0.09893630000000002, ,0.01213418618575305, ,0.04526718492234852, ,0.0012604392853060118, ,1.9166666666666667, ,0.8743753152514497, ,0.6364155833554417, ,0.06322319952654028
213, ,PASS, ,0.11053136000000001, ,0.01395651309076918, ,0.04649189454380522, ,0.001612857977182551, ,1.9166666666666667, ,0.8844080354367784, ,0.6371502622395462, ,0.0705087651272423
214, ,PASS, ,0.11227453999999996, ,0.01368854091048817, ,0.04649977489949185, ,0.001597820944148512, ,1.9166666666666667, ,0.8806508569055457, ,0.638231872818922, ,0.06305993755229485
215, ,PASS, ,0.13558597999999997, ,0.01703599620345426, ,0.04885392514313994, ,0.0024108716761741967, ,2.0, ,0.8874375258749155, ,0.6393542988918594, ,0.07314136446194976
216, ,PASS, ,0.11272193000000004, ,0.014448388297728426, ,0.0469962901654456, ,0.0017074499434975745, ,2.0, ,0.8858530451249801, ,0.6398849003081569, ,0.07769229199404094
217, ,PASS, ,0.12361405, ,0.01570084314662523, ,0.04781509850786718, ,0.002032315610072003, ,2.0, ,0.8859774612837709, ,0.640517540458358, ,0.07259035529887145
218, ,PASS, ,0.11558818000000003, ,0.014309399389872173, ,0.04654663659802861, ,0.001724953526014819, ,1.9166666666666667, ,0.8854550934218088, ,0.6391502214240525, ,0.06789657353931552
219, ,PASS, ,0.12107655000000003, ,0.0156502313415454, ,0.0475043650202853, ,0.0019797456256555137, ,1.9166666666666667, ,0.8848479061769438, ,0.6372727087202302, ,0.06969245525601518
220, ,PASS, ,0.06952691400000002, ,0.009092696126679005, ,0.04268558587273728, ,0.0006640538014697337, ,1.9166666666666667, ,0.8694667276504476, ,0.6336809452868308, ,0.0557947796983735
221, ,PASS, ,0.07809933200000001, ,0.010156033030333259, ,0.04351442768270035, ,0.0008315431928632704, ,1.9166666666666667, ,0.8750253678546605, ,0.6345992938919613, ,0.06387624742352196
222, ,PASS, ,0.06495212600999999, ,0.008634880613684715, ,0.04231238938715536, ,0.0005893273163960741, ,1.9166666666666667, ,0.8681300139277808, ,0.6331911593640946, ,0.05993755229485113
223, ,PASS, ,0.080441896, ,0.010795579938491685, ,0.04399621873369931, ,0.0009107776439023207, ,1.9166666666666667, ,0.8800388112471369, ,0.6353543805228464, ,0.0649578580028979
224, ,PASS, ,0.06375776911999997, ,0.00917106301001504, ,0.042596270869574085, ,0.000614741571022754, ,2.0, ,0.867356327885199, ,0.634619701638742, ,0.059264096651088755
225, ,PASS, ,0.04378832999999999, ,0.0060246717625997885, ,0.04037385856431501, ,0.00027833615444624384, ,1.9166666666666667, ,0.8460495192419372, ,0.6303136670680191, ,0.04963164017060876
226, ,PASS, ,0.044014830000000005, ,0.006267997991495706, ,0.040440717094957244, ,0.00029138513404702914, ,1.9166666666666667, ,0.8553687734299422, ,0.6307830452439747, ,0.04310116120079182
227, ,PASS, ,0.029283799999999985, ,0.0039164343927423455, ,0.03884957819799596, ,0.00012170766560138863, ,1.9166666666666667, ,0.8231811067317915, ,0.6325789269606743, ,0.03785637027815759
228, ,PASS, ,0.023943930000000016, ,0.0027270730312235754, ,0.03799003013020142, ,6.919795098413781e-05, ,1.9166666666666667, ,0.7730309621616727, ,0.631578947368421, ,0.0027754535621722005
