Channel, ,Pass/Fail, ,Amplitude, ,Sorting Function Response, ,Mean, ,Variance, ,NPeaksRatio, ,IntegralRatio, ,ToT50, ,ToT99
24, ,PASS, ,0.06193540999999999, ,0.05135936723235743, ,-0.0004124090032856476, ,0.0006630106605637597, ,1.0, ,0.3956854206782582, ,0.486785983959511, ,0.14301748943899104
25, ,PASS, ,0.12093754999999992, ,0.0734847210370288, ,-0.0009109191247117415, ,0.0018359642152274052, ,1.0, ,0.3236023526241445, ,0.4864798677578009, ,0.033734005428460646
26, ,PASS, ,0.12824400000000002, ,0.06971907868754583, ,-0.0007862526968837368, ,0.001840056960833736, ,1.0, ,0.3018642841594361, ,0.4871941388951246, ,0.024387257402910145
27, ,PASS, ,0.12059120999999993, ,0.06695176823747002, ,-0.0007788769947552096, ,0.0016620158561610622, ,1.0, ,0.3054811566833059, ,0.4869084304401951, ,0.02812187506377421
28, ,PASS, ,0.07305568999999998, ,0.05019214158433612, ,-0.0005102276086202324, ,0.0007594045571848925, ,1.0, ,0.34874267893809335, ,0.4868880226934144, ,0.08359013081365686
29, ,PASS, ,0.06680595000000003, ,0.054514953764267765, ,-0.0004410134558478374, ,0.0007591881864391537, ,1.0, ,0.3907599384982934, ,0.4878267790453256, ,0.13920124079100427
30, ,PASS, ,0.12327451, ,0.07491243745021174, ,-0.0008305086171710781, ,0.0019080934028199866, ,1.0, ,0.3244367486237932, ,0.48639823677067817, ,0.03644823575029081
31, ,PASS, ,0.13292719000000003, ,0.07175835896015138, ,-0.00092984757576376, ,0.001962851876362717, ,1.0, ,0.2992165049138271, ,0.48786759453888695, ,0.029264708883492172
32, ,PASS, ,0.12489859, ,0.0682263621839553, ,-0.000927584554192771, ,0.0017533043319045967, ,1.0, ,0.30147242981132333, ,0.486724760719169, ,0.03010142650149997
33, ,PASS, ,0.07816327, ,0.052501505815626306, ,-0.0005550239199200013, ,0.0008495122896341719, ,1.0, ,0.34379394570648586, ,0.48656149874492355, ,0.0813452786677823
34, ,PASS, ,0.058033749999999995, ,0.04820573576363781, ,-0.0005593346888839003, ,0.0005836579963809041, ,1.0, ,0.39359910131473247, ,0.48664312973204626, ,0.13848696965368054
35, ,PASS, ,0.11828114999999996, ,0.07346492620495784, ,-0.0009304427172914844, ,0.0017956474359440554, ,1.0, ,0.3275617992467342, ,0.4863370135303361, ,0.04648884716638436
36, ,PASS, ,0.12873913, ,0.06994928507657026, ,-0.0007882355225403567, ,0.0018537893537238204, ,1.0, ,0.3021369958269553, ,0.48670435297238834, ,0.029162670149588784
37, ,PASS, ,0.12012842999999992, ,0.06626804839818448, ,-0.0008878691473643395, ,0.0016384872852769853, ,1.0, ,0.3035135352620942, ,0.4867451684659497, ,0.028040244076651497
38, ,PASS, ,0.06993894, ,0.048368061600816234, ,-0.00041408540152241825, ,0.0007008213497258598, ,1.0, ,0.35115828936137616, ,0.4869084304401951, ,0.09199812248729618
39, ,PASS, ,0.05480427, ,0.04566393546791405, ,-0.0005130103704006041, ,0.0005228903173421266, ,1.0, ,0.39511772131449857, ,0.4866227219852656, ,0.1436909450827534
40, ,PASS, ,0.12060169999999998, ,0.07394023195457246, ,-0.0007561073845431736, ,0.001842389092633895, ,1.0, ,0.3262004739930414, ,0.4869900614273178, ,0.038591049162262
41, ,PASS, ,0.13169145999999995, ,0.07111409127887257, ,-0.0008860339544090942, ,0.0019269081067203805, ,1.0, ,0.2998844251050812, ,0.48731658537580863, ,0.026693332789126754
42, ,PASS, ,0.12408865000000002, ,0.06620928600602938, ,9.06692904226446e-05, ,0.0016916497094692088, ,1.0, ,0.30542934945244626, ,0.4870104691740985, ,0.02940756311095692
43, ,FAIL, ,0.006560611900000001, ,0.001752523300909835, ,0.0003084167575049489, ,2.661681631208855e-06, ,1.0, ,0.25526030821050544, ,0.49298993898083715, ,0.013673190343054224
44, ,PASS, ,0.050707350000000026, ,0.04187343114083974, ,-0.0002840752343829722, ,0.0004437319271617453, ,1.0, ,0.39559547552143903, ,0.4874594396032734, ,0.1305483561559968
45, ,PASS, ,0.11391121000000003, ,0.0695773833673598, ,-0.0007069015511928326, ,0.001637427193514743, ,1.0, ,0.32476809221813785, ,0.48807167200669377, ,0.03732576886185996
46, ,PASS, ,0.12381592000000002, ,0.06688972091527517, ,-0.0008249264684394195, ,0.0017043763982367336, ,1.0, ,0.3001358641087098, ,0.48743903185649273, ,0.0272035264586437
47, ,PASS, ,0.11451656000000002, ,0.06368032388012651, ,-0.0007410108073304627, ,0.0015009369263550263, ,1.0, ,0.30497480342236866, ,0.4880512642599131, ,0.03269321034264607
48, ,PASS, ,0.05677431999999999, ,0.0414437602927874, ,-0.00026570372318932304, ,0.000488497055226151, ,1.0, ,0.3645575609171948, ,0.487296177629028, ,0.11183445235811514
49, ,PASS, ,0.04804273000000001, ,0.040438389949297306, ,-0.00025061974102569203, ,0.00040663389251195854, ,1.0, ,0.4019346987145876, ,0.4881737107405971, ,0.11332421787310464
50, ,PASS, ,0.11384425000000004, ,0.06954081899552285, ,-0.0007633979161649764, ,0.0016357762427988839, ,1.0, ,0.3246976649228932, ,0.4876635170710802, ,0.03924409705924369
51, ,PASS, ,0.12407006000000001, ,0.06711927688823864, ,-0.0008450669500622434, ,0.001713372679498723, ,1.0, ,0.30002645061809985, ,0.4874594396032734, ,0.029244301136711497
52, ,PASS, ,0.11449475000000002, ,0.06365071161587041, ,-0.0006506395163364013, ,0.0014998191773236337, ,1.0, ,0.30520944793298566, ,0.4888879818779209, ,0.03316258851860166
53, ,PASS, ,0.054638619999999985, ,0.040265647657046134, ,-0.0003087493834819705, ,0.00045681686600024225, ,1.0, ,0.3659264311660171, ,0.48752066284361545, ,0.11485479888165548
54, ,PASS, ,0.04972982000000002, ,0.04152658002780289, ,-0.00026216862757902864, ,0.00043248724260924336, ,1.0, ,0.3994068389896869, ,0.48825534172771984, ,0.14026244362359952
55, ,PASS, ,0.11744089999999999, ,0.07065509416336913, ,-0.0006621726246403141, ,0.0017140203688260306, ,1.0, ,0.32231680696302, ,0.48827574947450053, ,0.034305422338319624
56, ,PASS, ,0.12742277000000002, ,0.06828898604182884, ,-0.000758565437848207, ,0.0017894904456699718, ,1.0, ,0.29874530965861257, ,0.4878267790453256, ,0.026489255321319974
57, ,PASS, ,0.116244, ,0.06434837027220468, ,-0.0007672450090814477, ,0.001539841777888982, ,1.0, ,0.30452838470738014, ,0.48723495438868597, ,0.02910144690924675
58, ,PASS, ,0.052713990000000016, ,0.03882402642123431, ,-5.6115568865942566e-05, ,0.000425301192050947, ,1.0, ,0.369050961754217, ,0.48909205934572764, ,0.11885471725066836
59, ,PASS, ,0.047022390000000004, ,0.038704694226543594, ,-0.00030418017407807897, ,0.0003808275178250326, ,1.0, ,0.39464613240463775, ,0.4875614783371768, ,0.15136425787228833
60, ,PASS, ,0.11254548000000003, ,0.06841678962904604, ,-0.0007137917144548069, ,0.0015909945642337319, ,1.0, ,0.3239876443673567, ,0.48790841003244834, ,0.03814207873308708
61, ,PASS, ,0.12280727, ,0.06596559452150787, ,-0.000771176222117916, ,0.001666786790075604, ,1.0, ,0.29951708131329147, ,0.4872145466419053, ,0.023693394012367093
62, ,PASS, ,0.10965601000000005, ,0.06231197673663387, ,-0.0008989862947694946, ,0.0014072800356898314, ,1.0, ,0.30780147051980566, ,0.48754107059039614, ,0.03369318993489929
63, ,PASS, ,0.04303622, ,0.03263821165167891, ,-0.00018206170098569472, ,0.00029225869799126076, ,1.0, ,0.3735737273526615, ,0.48860227342299134, ,0.11595681720781209
64, ,PASS, ,0.04448093999999999, ,0.03770059006842755, ,-0.0004018530087141079, ,0.00035119764015716857, ,1.0, ,0.4000822420897471, ,0.48743903185649273, ,0.14942552192812392
65, ,PASS, ,0.11201503000000004, ,0.06818471436919048, ,-0.0006544268141466497, ,0.001578033533832485, ,1.0, ,0.325025163087571, ,0.4874594396032734, ,0.035427848411256915
66, ,PASS, ,0.12283601999999999, ,0.06592610214382089, ,-0.0006721867225158667, ,0.0016655199447359454, ,1.0, ,0.299692251900651, ,0.4876635170710802, ,0.023060753862166078
67, ,PASS, ,0.10828643000000004, ,0.06126446076704895, ,-0.0005935591745066427, ,0.00136686109699668, ,1.0, ,0.31041022751228464, ,0.4868063917062917, ,0.030529989183894206
68, ,PASS, ,0.04069350000000001, ,0.03142249687677725, ,-0.0002179196412318118, ,0.0002663148885594761, ,1.0, ,0.3781122223257142, ,0.48705128466765985, ,0.13940531825881106
69, ,PASS, ,0.04459087, ,0.037638819906007294, ,-0.0002708740150201018, ,0.0003515123372430441, ,1.0, ,0.40195095918721924, ,0.48754107059039614, ,0.13456868227179036
70, ,PASS, ,0.11384235000000004, ,0.06925341728581955, ,-0.0007109385024795415, ,0.0016297589373714247, ,1.0, ,0.32489077680881534, ,0.4872145466419053, ,0.03820330197342912
71, ,PASS, ,0.12582491, ,0.0672978785790246, ,-0.0006674281508540638, ,0.0017419542044452589, ,1.0, ,0.2993907859693458, ,0.4875614783371768, ,0.024468888390032858
72, ,PASS, ,0.11019332000000004, ,0.06252751341970546, ,-0.0005100344856227421, ,0.0014199630981290721, ,1.0, ,0.3108736580156395, ,0.48835738046162325, ,0.03363196669455725
73, ,PASS, ,0.04149338000000001, ,0.03192345095734747, ,-7.725812758923343e-05, ,0.00027578637073341205, ,1.0, ,0.37917550117791776, ,0.4885410501826493, ,0.12587498214322157
74, ,PASS, ,0.039196770000000006, ,0.03280354717689555, ,6.097209852860215e-05, ,0.0002693346148506311, ,1.0, ,0.4089673985670633, ,0.48876553539723677, ,0.10130405501928533
75, ,PASS, ,0.10800562000000004, ,0.06749816590958718, ,-0.0004976838033917667, ,0.0015071239557509259, ,1.0, ,0.3314884495233527, ,0.4878267790453256, ,0.04152976469867962
76, ,PASS, ,0.12195207999999996, ,0.06612230642777779, ,-0.0005718299167363931, ,0.0016588902893046845, ,1.0, ,0.3023768185688495, ,0.4877247403114222, ,0.02773412787494133
77, ,PASS, ,0.10405534000000002, ,0.061312202474839254, ,-0.0005985484373788289, ,0.0013158005687804054, ,1.0, ,0.3170430809534355, ,0.48841860370196527, ,0.0389583886043142
78, ,PASS, ,0.036971550000000006, ,0.029676367201868264, ,-5.881398134731861e-05, ,0.00022833522794043685, ,1.0, ,0.3915339061217129, ,0.48758188608395747, ,0.09571233240137957
79, ,PASS, ,0.03549695, ,0.02968417285203279, ,6.997848207179484e-05, ,0.00022065042329804418, ,1.0, ,0.4094283969272279, ,0.48958184526846393, ,0.08130446317422094
80, ,PASS, ,0.10549110000000006, ,0.06584055588006267, ,-0.0007213231399359189, ,0.0014364674972597322, ,1.0, ,0.32918103500672047, ,0.48778596355176423, ,0.04316238444113386
81, ,PASS, ,0.12077680999999993, ,0.06548560041661504, ,-0.0006813704697863316, ,0.0016273399359002603, ,1.0, ,0.3022750899656845, ,0.4863370135303361, ,0.027468827166792515
82, ,PASS, ,0.10213996, ,0.06010307002591188, ,-0.0005335625285198262, ,0.0012663365931145317, ,1.0, ,0.3175030744667671, ,0.4881328952470358, ,0.036325789269606744
83, ,PASS, ,0.03427308, ,0.02762519832906782, ,-2.4534413175241226e-05, ,0.00019742113075084592, ,1.0, ,0.3946489298173955, ,0.48711250790800187, ,0.1039978775943348
84, ,PASS, ,0.03704438000000001, ,0.03137015966885147, ,-0.00016793825574988217, ,0.00024333080712380398, ,1.0, ,0.40756696646262897, ,0.4869084304401951, ,0.0905899879594294
85, ,PASS, ,0.10787598000000004, ,0.06863732372148883, ,-0.0008218298020448561, ,0.0015321409194438988, ,1.0, ,0.33264584136384795, ,0.48747984735005406, ,0.04193791963429318
86, ,PASS, ,0.12677452000000003, ,0.06873236127182099, ,-0.0007968543841962408, ,0.0017932210288187352, ,1.0, ,0.30116568748103395, ,0.48731658537580863, ,0.027142303218301668
87, ,PASS, ,0.10428080000000006, ,0.06195068975034822, ,-0.0006733833972776063, ,0.001333455737497408, ,1.0, ,0.31922371273815975, ,0.4869900614273178, ,0.03981551396910267
88, ,PASS, ,0.03242405999999999, ,0.026370171133805527, ,-7.915025815799722e-05, ,0.00017830724993434205, ,1.0, ,0.3951343982778237, ,0.48715332340156325, ,0.11112018122079141
89, ,PASS, ,0.032564439999999986, ,0.026054845212787614, ,-0.00012384339115528267, ,0.0001778499379283207, ,1.0, ,0.3993737073254581, ,0.48707169241444054, ,0.08244729699393889
90, ,PASS, ,0.10164912, ,0.06750753020802548, ,-0.0008213337127813716, ,0.0014217380838611683, ,1.0, ,0.3412021708011841, ,0.4876635170710802, ,0.05573355645803147
91, ,PASS, ,0.12275584999999997, ,0.0678395728584156, ,-0.0007619989800208156, ,0.0017153308508587805, ,1.0, ,0.3051928048565072, ,0.4870921001612212, ,0.02828513703801963
92, ,PASS, ,0.09815745, ,0.06056096431471397, ,-0.000491886575171936, ,0.0012281716472742814, ,1.0, ,0.3279019435638886, ,0.4875614783371768, ,0.041570580192240976
93, ,PASS, ,0.025052403, ,0.02040724458337629, ,7.652459778371932e-05, ,0.00010664593115289022, ,1.0, ,0.4045576977723359, ,0.48713291565478256, ,0.08963082386073754
198, ,PASS, ,0.10594360999999997, ,0.06500629960802494, ,-0.0004541442629742246, ,0.0015785493726898614, ,1.0, ,0.36102584413664224, ,0.4959490622640354, ,0.048162282402399954
199, ,PASS, ,0.062300420000000016, ,0.0393559608873936, ,-0.00014632373216873115, ,0.0005687861924845961, ,1.0, ,0.3774394488657832, ,0.49284708475337236, ,0.03606048856145793
200, ,PASS, ,0.044697450000000014, ,0.025367378568588502, ,-6.447946001102086e-05, ,0.00026691654149039605, ,1.0, ,0.3618303015150922, ,0.49127568825126017, ,0.02542805248872472
201, ,PASS, ,0.04127436, ,0.024057198908832875, ,1.6683829350421525e-05, ,0.0002332770270295987, ,1.0, ,0.3689161654369681, ,0.49074508683496254, ,0.030836105385604374
202, ,PASS, ,0.052281990000000014, ,0.029393688228172232, ,-6.205643374625029e-05, ,0.0003609003972008411, ,1.0, ,0.3601412613252941, ,0.49047978612681375, ,0.02067304748882676
203, ,PASS, ,0.04503308000000002, ,0.0249480896470306, ,-2.5930463868084756e-05, ,0.0002642295477372621, ,1.0, ,0.35766055202446, ,0.49092875655598867, ,0.02781575886206404
204, ,PASS, ,0.06153511000000002, ,0.035537061386651754, ,-0.00010043467439439935, ,0.000506945544322694, ,1.0, ,0.35879412865826443, ,0.49294912348727576, ,0.029774902553009124
205, ,PASS, ,0.07026968, ,0.040706607199726026, ,-0.00011589361380379983, ,0.0006578061203402184, ,1.0, ,0.35535188300585235, ,0.4948674516846595, ,0.032938103304014206
206, ,PASS, ,0.06083899000000001, ,0.03413296668304235, ,-9.919454847860123e-05, ,0.0004821126417263313, ,1.0, ,0.35232027673654054, ,0.49372461786494154, ,0.02691781800371421
207, ,PASS, ,0.06126404000000002, ,0.03552569736587894, ,-0.0001210305467235353, ,0.0005028316152587556, ,1.0, ,0.3575466587809451, ,0.49380624885206426, ,0.03695842941980776
208, ,PASS, ,0.05018897, ,0.029160827808502685, ,1.9893032183015832e-05, ,0.00034094881893296543, ,1.0, ,0.3639765535028489, ,0.4922960755902941, ,0.03365237444133793
209, ,PASS, ,0.04861022, ,0.028849205576746268, ,-0.00012898624762760068, ,0.000326967464427219, ,1.0, ,0.36678902090198734, ,0.49113283402379543, ,0.0309993673598498
210, ,PASS, ,0.10987965000000004, ,0.04027094699275964, ,-9.304170498561275e-05, ,0.0009328692427886334, ,1.0, ,0.21982371994940758, ,0.4997653109120222, ,0.034285014591538945
211, ,PASS, ,0.04953775, ,0.028348149265569937, ,-8.805481010591727e-05, ,0.00032704353691730435, ,1.0, ,0.35836704422711085, ,0.4926430072855656, ,0.025305606008040653
212, ,PASS, ,0.07166352000000002, ,0.04219011897167478, ,-0.00015221528234117708, ,0.0006929472380099578, ,1.0, ,0.3580029738572637, ,0.4943368502683619, ,0.038693087896165386
213, ,PASS, ,0.06320425, ,0.036715822944528444, ,-0.0002163160506928428, ,0.0005366094939933829, ,1.0, ,0.357759139298897, ,0.4928266770065917, ,0.027387196179669802
214, ,PASS, ,0.061767690000000014, ,0.034603776542298896, ,-0.0002198345272545452, ,0.0004953874846207173, ,1.0, ,0.35062608217697194, ,0.4923572988306361, ,0.03248913287483929
215, ,PASS, ,0.07293466000000001, ,0.04225747885508891, ,-0.00030927913165037477, ,0.000708288153155746, ,1.0, ,0.3548089720210379, ,0.4925409685516622, ,0.028387175771923023
216, ,PASS, ,0.0534169, ,0.03086650567403817, ,-0.00020396909654904992, ,0.0003829622660520075, ,1.0, ,0.35845600498330127, ,0.4914389502255056, ,0.03436664557866166
217, ,PASS, ,0.05922046, ,0.034645350783075596, ,-2.907699679598222e-05, ,0.0004723722524965765, ,1.0, ,0.36007203001766236, ,0.49335727842288934, ,0.034652354033591154
218, ,PASS, ,0.05491172999999999, ,0.030607119938281017, ,3.283531417726221e-05, ,0.0003903551568033715, ,1.0, ,0.3548317247942483, ,0.49194914389502253, ,0.03077488214526234
219, ,PASS, ,0.054295960000000004, ,0.03081632441678467, ,8.910381420787894e-06, ,0.00038785600420264497, ,1.0, ,0.35712745774243254, ,0.49243892981775883, ,0.03240750188771658
220, ,PASS, ,0.045727100000000014, ,0.026058061258512122, ,-3.1514061957919796e-05, ,0.0002777730125472848, ,1.0, ,0.3603070737031333, ,0.4910716107834534, ,0.0272035264586437
221, ,PASS, ,0.04364623000000001, ,0.02522707665245139, ,-0.00021812972918920005, ,0.0002566655666812261, ,1.0, ,0.35918684039954163, ,0.4906430481010592, ,0.030468765943552172
222, ,PASS, ,0.04872807, ,0.027428561012856508, ,-4.8077103528500586e-05, ,0.0003118099448313117, ,1.0, ,0.3584005618210561, ,0.4901532621783229, ,0.026856594763372175
223, ,PASS, ,0.04949841, ,0.028550458682114987, ,-4.6083563600743806e-05, ,0.0003283789801113755, ,1.0, ,0.36149017099191955, ,0.49084712556886595, ,0.031836084977857594
224, ,PASS, ,0.08091522000000001, ,0.04817560347393169, ,-0.000366238484724802, ,0.0008837059483515643, ,1.0, ,0.35437327793173207, ,0.4943980735087039, ,0.034631946286810475
225, ,PASS, ,0.05923479000000001, ,0.03398193090835293, ,-0.0002091069008795724, ,0.0004634046594643563, ,1.0, ,0.35358502415250714, ,0.4926634150323463, ,0.022693414420113876
226, ,PASS, ,0.06294512000000001, ,0.03557877575185677, ,-0.000300571398338809, ,0.0005164355564494758, ,1.0, ,0.34979043226620654, ,0.4927042305259076, ,0.029183077896369463
227, ,PASS, ,0.055795, ,0.031975758033768224, ,-5.762305075406513e-05, ,0.0004121243424309225, ,1.0, ,0.35700542888835307, ,0.4922552600967327, ,0.03361155894777658
228, ,PASS, ,0.04349223000000001, ,0.025010058463425713, ,-0.00012906278116773102, ,0.0002532248989122605, ,1.0, ,0.35923562408941256, ,0.4906838635946205, ,0.03338707373318912
229, ,PASS, ,0.04267383000000001, ,0.024623282792221986, ,-8.609888757372254e-05, ,0.0002448223916710568, ,1.0, ,0.36148572776314153, ,0.49072467908818185, ,0.03185649272463827
230, ,PASS, ,0.04291306000000001, ,0.02414247016424952, ,8.456634517663321e-06, ,0.0002414874383987124, ,1.0, ,0.35871638027838043, ,0.4905410093671558, ,0.021591396093957268
231, ,PASS, ,0.04865160999999999, ,0.028189550977948882, ,-0.00021902515071121087, ,0.00031800654289637354, ,1.0, ,0.3581402806722885, ,0.49092875655598867, ,0.025591314462970142
232, ,PASS, ,0.052974730000000005, ,0.030645225478292095, ,-6.315877757596799e-05, ,0.0003750814074196228, ,1.0, ,0.35934742311960227, ,0.49201036713536456, ,0.03193812371176098
233, ,PASS, ,0.05732262000000001, ,0.03394912970627544, ,-0.0002234430107548811, ,0.0004482340848532456, ,1.0, ,0.36131425712192256, ,0.4914185424787249, ,0.035040101222424035
234, ,PASS, ,0.06326301, ,0.03732374536712443, ,-0.00020455478153507065, ,0.0005412143160743058, ,1.0, ,0.3586594326173798, ,0.4923777065774168, ,0.032999326544356236
235, ,PASS, ,0.06427683999999999, ,0.03829265473011934, ,-0.00031318600191832825, ,0.0005636912133017985, ,1.0, ,0.3593840807200107, ,0.4918675129078998, ,0.03483602375461725
236, ,PASS, ,0.05679429, ,0.03352582828561003, ,-0.00022790519458786422, ,0.00043886899819223815, ,1.0, ,0.36096437029539247, ,0.4910512030366727, ,0.031080998346972512
237, ,PASS, ,0.05439229000000001, ,0.03366275742260509, ,-0.00023398549111242525, ,0.0004204962737504693, ,1.0, ,0.3701232934235283, ,0.4905818248607171, ,0.03779514703781556
238, ,PASS, ,0.039647510000000004, ,0.02279305321584603, ,-1.2204352237709077e-05, ,0.0002104493252146737, ,1.0, ,0.36364883057108455, ,0.4893777678006571, ,0.031366706801902004
239, ,PASS, ,0.050794030000000004, ,0.030889331849479763, ,-3.719707801881668e-05, ,0.0003604943289229189, ,1.0, ,0.37069131712238296, ,0.4901328544315422, ,0.026652517295565396
240, ,PASS, ,0.059966729999999996, ,0.036405590880129686, ,-0.00021594167527193164, ,0.0004996783374191572, ,1.0, ,0.3648629957826571, ,0.49158180445297034, ,0.03273402583620742
241, ,PASS, ,0.08850728999999999, ,0.06525362942973033, ,-0.0004152930621824041, ,0.001206039138070936, ,1.0, ,0.386587548478363, ,0.4822962796677619, ,0.06491704250933654
242, ,PASS, ,0.036435970000000005, ,0.021061425062502255, ,0.00013333349433685058, ,0.00017885195362329163, ,1.0, ,0.36831711775574366, ,0.4898879614701741, ,0.03189730821819963
243, ,PASS, ,0.042141029999999996, ,0.025313064791186005, ,0.0001269020773045451, ,0.0002469104413491988, ,1.0, ,0.3729528286603566, ,0.49074508683496254, ,0.03536662517091488
244, ,PASS, ,0.06233165000000002, ,0.037943733489644645, ,-6.128906736597206e-05, ,0.0005374410382619605, ,1.0, ,0.3637409091920548, ,0.49378584110528356, ,0.03765229281035081
245, ,PASS, ,0.04488342000000001, ,0.02762286565680835, ,3.2425410093671236e-05, ,0.0002855788143458793, ,1.0, ,0.3742471219196624, ,0.490908348809208, ,0.03767270055713149
246, ,PASS, ,0.03647686, ,0.02082737643504546, ,-1.2546876675986107e-05, ,0.0001768630851646842, ,1.0, ,0.36093618035770164, ,0.4905818248607171, ,0.03528499418379217
247, ,PASS, ,0.04451874000000001, ,0.026210022239663077, ,-0.00011197803004020335, ,0.00026990737660754913, ,1.0, ,0.36298593299433557, ,0.49096957204955, ,0.027632089141037937
248, ,PASS, ,0.06263062000000003, ,0.038174369779514265, ,-0.00011514654598885718, ,0.0005429602442429174, ,1.0, ,0.36368297375676345, ,0.4931940164486439, ,0.03824411746699047
249, ,PASS, ,0.04759281, ,0.027984996490106658, ,-8.112043325646506e-05, ,0.0003066871090013095, ,1.0, ,0.3608121869440616, ,0.4923777065774168, ,0.03665231321809759
250, ,PASS, ,0.035662629999999994, ,0.02002650053186928, ,-0.00015936286453337671, ,0.00016664504888765723, ,1.0, ,0.35462930586127406, ,0.48996959245729677, ,0.02681577926981082
251, ,PASS, ,0.04123421, ,0.02532700520143248, ,1.847765229281052e-05, ,0.00024164622111189316, ,1.0, ,0.37533186341910757, ,0.49076549458174323, ,0.026142323626048448
252, ,PASS, ,0.06784223999999997, ,0.04568432880031024, ,-0.0002677157458011066, ,0.000701334583122294, ,1.0, ,0.38377922449509094, ,0.4918062896675578, ,0.04144813371155691
253, ,PASS, ,0.07028121000000001, ,0.04137606241730505, ,-0.00026019571457725404, ,0.0006548734774986276, ,1.0, ,0.3492981619895423, ,0.4960306932511581, ,0.033734005428460646
254, ,PASS, ,0.06474236, ,0.042665655202992724, ,-0.0004143234829901431, ,0.0006261717811718985, ,1.0, ,0.3755729014270541, ,0.4930511622211792, ,0.046999040835901305
255, ,PASS, ,0.08402143000000001, ,0.05418078896143201, ,-0.00031563497336789255, ,0.001018552895794688, ,1.0, ,0.36666438394234663, ,0.4957041693026673, ,0.044509295728658596
