Channel, ,Pass/Fail, ,Amplitude, ,Sorting Function Response, ,Mean, ,Variance, ,NPeaksRatio, ,PosIntegralRatio, ,ToT50, ,ToT99
24, ,PASS, ,0.11856109999999997, ,0.01349464810616643, ,0.03629699887424747, ,0.0016251755642020167, ,1.8333333333333333, ,0.6282301133811157, ,0.44697046999040835, ,0.026162731372829127
25, ,PASS, ,0.13886284, ,0.014146976425455326, ,0.03645549590556723, ,0.0020011769731164623, ,1.6666666666666667, ,0.5945269026818586, ,0.4449909185526826, ,0.02293830738148201
26, ,PASS, ,0.13338377, ,0.013616135489646823, ,0.036942196676169874, ,0.0018452592091409644, ,1.5833333333333333, ,0.5941219141338382, ,0.44625619885308465, ,0.022224036244158283
27, ,PASS, ,0.07920630971000002, ,0.010099267582769945, ,0.037430780187281895, ,0.0008114683514615192, ,1.6666666666666667, ,0.6649116891518754, ,0.4477663721148548, ,0.04683577886165589
28, ,PASS, ,0.12274317, ,0.013953509469158808, ,0.036616328785677846, ,0.0017374994923309835, ,1.8333333333333333, ,0.6357440643133635, ,0.44752147915348667, ,0.02520356727413726
29, ,PASS, ,0.15107503, ,0.015282952246887947, ,0.03465693374012775, ,0.002350552694961872, ,1.5, ,0.5946474215810188, ,0.42697087814534396, ,0.021203648905124384
30, ,PASS, ,0.14534148, ,0.014745415280945227, ,0.03764876674998469, ,0.0021804742783028564, ,1.6666666666666667, ,0.5944641389573534, ,0.4568682271790372, ,0.02295871512826269
31, ,PASS, ,0.085309212, ,0.01021271501269776, ,0.03718079095765393, ,0.0008845810600927384, ,1.6666666666666667, ,0.6442571482975117, ,0.44537866574151547, ,0.03048917369033285
32, ,PASS, ,0.11730154, ,0.014003795423212746, ,0.036040215120487336, ,0.0016667473144613466, ,1.6666666666666667, ,0.6429596090593239, ,0.446929654496847, ,0.028468806759045735
33, ,PASS, ,0.14861235, ,0.0152132229589739, ,0.03730929392596069, ,0.0023018615982250516, ,1.6666666666666667, ,0.5972561308516544, ,0.4535009489602253, ,0.022693414420113876
34, ,PASS, ,0.14297361, ,0.014401675493093978, ,0.036523866163690535, ,0.002096594544172718, ,1.6666666666666667, ,0.5890033450747272, ,0.44617456786596194, ,0.022224036244158283
35, ,PASS, ,0.08143891683000001, ,0.009987655273144767, ,0.03729596933919716, ,0.0008259254512091125, ,1.6666666666666667, ,0.6568605981279891, ,0.4455419277157609, ,0.04183588090038979
36, ,PASS, ,0.11871335999999996, ,0.013796494609322713, ,0.03378718839431848, ,0.0016657769611360192, ,1.6666666666666667, ,0.6340219383395409, ,0.41952205057039654, ,0.02524438276769862
37, ,PASS, ,0.15180821, ,0.015332337195678192, ,0.03635695209977348, ,0.0023690221886606064, ,1.6666666666666667, ,0.5903354011893419, ,0.44705210097753106, ,0.021101610171220996
38, ,PASS, ,0.14554018000000002, ,0.014895554499034715, ,0.035653167606334565, ,0.0022029834415276547, ,1.75, ,0.5870409480387113, ,0.4453582579947348, ,0.022468929205526417
39, ,PASS, ,0.0836636313, ,0.010585279837219833, ,0.03641448339958368, ,0.0008949927442887981, ,1.6666666666666667, ,0.6519400616703259, ,0.44421542417501686, ,0.03697883716658844
40, ,PASS, ,0.11097163999999998, ,0.013256519305395183, ,0.03645564470719455, ,0.0014948835188946224, ,1.75, ,0.649019597212265, ,0.4499908165139487, ,0.02732597293932777
41, ,PASS, ,0.14524935000000003, ,0.014536324019403718, ,0.03596420713720128, ,0.002150281041756787, ,1.5833333333333333, ,0.5904278675994772, ,0.44372563825228056, ,0.021101610171220996
42, ,PASS, ,0.13898552999999997, ,0.014012992742776044, ,0.03620007571149569, ,0.0019839524746909603, ,1.6666666666666667, ,0.5877926614344084, ,0.4453582579947348, ,0.022775045407236585
43, ,PASS, ,0.07901226379000002, ,0.00966670033559557, ,0.03691879707544744, ,0.0007745056537680303, ,1.6666666666666667, ,0.6494830492588037, ,0.4460929368788392, ,0.037101283647272505
44, ,PASS, ,0.10907288000000002, ,0.013012482254781594, ,0.037201656363135445, ,0.0014391549264536445, ,1.75, ,0.6456654526480301, ,0.4606436603334626, ,0.027366788432889123
45, ,PASS, ,0.14551618, ,0.01489942123765395, ,0.03540670840629783, ,0.002202167624568785, ,1.6666666666666667, ,0.5897190860563026, ,0.44437868614926224, ,0.02144854186649252
46, ,PASS, ,0.13967017999999998, ,0.013879508930478856, ,0.036502465000508154, ,0.0019751941685311955, ,1.5833333333333333, ,0.5869939231814334, ,0.44568478194322564, ,0.02244852145874574
47, ,PASS, ,0.07726926199, ,0.009749595583677278, ,0.03676423000638762, ,0.0007642761642622361, ,1.6666666666666667, ,0.6617747012452747, ,0.44437868614926224, ,0.04308075345401114
48, ,PASS, ,0.11486809, ,0.013078155696769718, ,0.037157183887381894, ,0.0015230577009430076, ,1.75, ,0.6212864115484797, ,0.46354156037631883, ,0.024101548947980653
49, ,PASS, ,0.14977316000000002, ,0.015066577885553841, ,0.035907275300871414, ,0.002294320185386115, ,1.6666666666666667, ,0.5861464436158298, ,0.446929654496847, ,0.020407746780677947
50, ,PASS, ,0.14367278, ,0.014865854006278585, ,0.0352208683216465, ,0.0021634058529282412, ,1.6666666666666667, ,0.5841905248784358, ,0.4489500214281341, ,0.021183241158343708
51, ,PASS, ,0.08206244823000003, ,0.010126806739669625, ,0.036601698035672744, ,0.0008453176975955842, ,1.75, ,0.6510361731625617, ,0.44409297769433276, ,0.037386992102202
52, ,PASS, ,0.11306075, ,0.012967875879963887, ,0.03620561161694884, ,0.001489630727789221, ,1.75, ,0.6315768353272486, ,0.44825615803759106, ,0.023693394012367093
53, ,PASS, ,0.14636935, ,0.01439121746484418, ,0.036647485827779026, ,0.0021416600121633876, ,1.5833333333333333, ,0.58638099365873, ,0.44550111222219957, ,0.020815901716291503
54, ,PASS, ,0.13895103, ,0.013602912045519272, ,0.03662563249345931, ,0.00192465894765884, ,1.5833333333333333, ,0.5844693766962847, ,0.4456439664496643, ,0.022264851737719638
55, ,PASS, ,0.07994388852000003, ,0.009887975717411587, ,0.036913635131793236, ,0.0008019604676705853, ,1.6666666666666667, ,0.6544265708300879, ,0.4464602763208914, ,0.039509397767392505
56, ,PASS, ,0.11325250000000003, ,0.013008136905591659, ,0.03594250774892349, ,0.001496649272298765, ,1.6666666666666667, ,0.6314666948435027, ,0.44621538335952327, ,0.023713801759147772
57, ,PASS, ,0.1451791, ,0.014706311456794428, ,0.03570293573620947, ,0.002164107328194506, ,1.6666666666666667, ,0.5861742793487887, ,0.44486847207199853, ,0.020795493969510827
58, ,PASS, ,0.13851296999999999, ,0.013802226294495396, ,0.036234519302028534, ,0.0019467831286996483, ,1.6666666666666667, ,0.5839840422781285, ,0.44705210097753106, ,0.021693434827860656
59, ,PASS, ,0.07968405183, ,0.010033048031779046, ,0.03674665029483072, ,0.0008114497935559109, ,1.6666666666666667, ,0.6650149669535014, ,0.4410318156772311, ,0.03808085549274504
60, ,PASS, ,0.11596088999999998, ,0.013334977488409621, ,0.03580210605306015, ,0.0015681246135424234, ,1.6666666666666667, ,0.6302655248438103, ,0.44695006224362765, ,0.02383624823983184
61, ,PASS, ,0.15202038999999998, ,0.014890439292855325, ,0.03648235617934328, ,0.00230660288881897, ,1.6666666666666667, ,0.578446787926199, ,0.4510928348401053, ,0.020305708046774555
62, ,PASS, ,0.14603926, ,0.014833645999773189, ,0.034938872327531276, ,0.0022014974241824662, ,1.6666666666666667, ,0.5788323954659179, ,0.4464806840676721, ,0.02085671720985286
63, ,PASS, ,0.08366528100000001, ,0.010133386066889983, ,0.036246092433970735, ,0.0008601808078927225, ,1.6666666666666667, ,0.6525633801667037, ,0.43605232546274564, ,0.03777473929103488
64, ,PASS, ,0.11038586000000003, ,0.013453909557788126, ,0.03496868792780454, ,0.0014962903727124136, ,1.75, ,0.6321494733707312, ,0.4463174220934267, ,0.023999510214077265
65, ,PASS, ,0.14869236999999996, ,0.0151188537951798, ,0.0355934267004755, ,0.002271528028544619, ,1.6666666666666667, ,0.5830529247012031, ,0.4463786453337687, ,0.020509785514581335
66, ,PASS, ,0.1432946, ,0.013903212599501684, ,0.03660565941351401, ,0.0020303917812507146, ,1.5833333333333333, ,0.5788352971079406, ,0.44733780943246054, ,0.020836309463072182
67, ,PASS, ,0.07837601257000004, ,0.00933265765430735, ,0.03612013943452175, ,0.0007423855968757127, ,1.6666666666666667, ,0.6349516542720217, ,0.4342360359992653, ,0.028836146201097937
68, ,PASS, ,0.11166708000000002, ,0.012990909103497142, ,0.032298944714373175, ,0.0014700206890753383, ,1.8333333333333333, ,0.6254477288995279, ,0.4074202567294545, ,0.021203648905124384
69, ,PASS, ,0.15130977, ,0.015631612134960216, ,0.03473348569700822, ,0.002392267882151768, ,1.6666666666666667, ,0.5804308193264083, ,0.4488071672006694, ,0.019938368604722354
70, ,PASS, ,0.14538341000000002, ,0.01428779368378856, ,0.03503175334701333, ,0.002114106200391891, ,1.6666666666666667, ,0.573393575400731, ,0.4405624375012755, ,0.020305708046774555
71, ,PASS, ,0.07746350885000004, ,0.009058895343853263, ,0.037199165025428055, ,0.0007125051995112422, ,1.6666666666666667, ,0.6357822379689622, ,0.4461949756127426, ,0.03369318993489929
72, ,PASS, ,0.10228590500000004, ,0.011775312647668354, ,0.036301446152492194, ,0.0012229594929170989, ,1.6666666666666667, ,0.630547475079445, ,0.4472561784453378, ,0.023224015836411503
73, ,PASS, ,0.14458184999999998, ,0.014165049323035087, ,0.036187271312605865, ,0.0020838126960540737, ,1.6666666666666667, ,0.5781314279629184, ,0.447562294647048, ,0.019999591845064387
74, ,PASS, ,0.13818707, ,0.013345891738631592, ,0.036781345853679516, ,0.0018783285367513687, ,1.5833333333333333, ,0.5755195644510377, ,0.44790922634231956, ,0.020917940450194895
75, ,PASS, ,0.06212773700000002, ,0.007275716343973188, ,0.03763489529458582, ,0.00045900984846555045, ,1.6666666666666667, ,0.6336767695684823, ,0.4480520805697843, ,0.03204016244566438
198, ,PASS, ,0.19980000000000037, ,0.0427894337061225, ,0.03254099340503261, ,0.008702863622911955, ,2.0, ,0.9655127452778131, ,0.4577253525438256, ,0.4238484928879003
199, ,PASS, ,0.07427997519999999, ,0.009947558609627942, ,0.03705832245843962, ,0.0007626071526472816, ,2.0, ,0.8501132552503714, ,0.452949939797147, ,0.025754576437215567
200, ,PASS, ,0.07283251400000001, ,0.009168181771474004, ,0.03740006637589029, ,0.0006878627917628579, ,2.0, ,0.8400791057253866, ,0.4552356074365829, ,0.028836146201097937
201, ,PASS, ,0.07450252900000003, ,0.009247449655706466, ,0.037176301157180465, ,0.0007134902820993812, ,1.8333333333333333, ,0.8375032373621007, ,0.4527458623293402, ,0.02910144690924675
202, ,PASS, ,0.08404998700000002, ,0.011000916098842716, ,0.03977509183139119, ,0.000937263339094485, ,2.0, ,0.8361194729034573, ,0.5027856574355626, ,0.02940756311095692
203, ,PASS, ,0.07649752, ,0.009771552665878919, ,0.037412591720373055, ,0.0007631733689367641, ,2.0, ,0.8309162946030532, ,0.45921511805881515, ,0.03167282300361217
204, ,PASS, ,0.087387463, ,0.011361709227125188, ,0.03647236641423644, ,0.0010272331825279231, ,2.0, ,0.8364805103788371, ,0.4501948939817555, ,0.03281565682333014
205, ,PASS, ,0.08730663700000002, ,0.011032197006304988, ,0.03684254898791861, ,0.0009902086075075406, ,2.0, ,0.841547227338252, ,0.45403155037652293, ,0.03459113079324912
206, ,PASS, ,0.09885808, ,0.012508305694652042, ,0.03641929535808922, ,0.0012774838022854781, ,1.8333333333333333, ,0.8354120017088404, ,0.4551335687026795, ,0.031774861737515564
207, ,PASS, ,0.09559066, ,0.012164332166661018, ,0.0361975745102549, ,0.0011925792421641577, ,2.0, ,0.8460836213814039, ,0.4560111018142487, ,0.0327544335829881
208, ,PASS, ,0.0732894937, ,0.009308660635773168, ,0.037364814973551555, ,0.0007002772847580103, ,2.0, ,0.8355514603186781, ,0.4567457806983531, ,0.03324421950572437
209, ,PASS, ,0.07055003200999999, ,0.009414714553966981, ,0.03808353001179568, ,0.0006710693818203258, ,1.9166666666666667, ,0.840307625394268, ,0.4684598273504622, ,0.04342768514928267
210, ,PASS, ,0.06791757029, ,0.00845118643547748, ,0.03751894400012245, ,0.0005920717843760739, ,2.0, ,0.8285034190138985, ,0.454725413767066, ,0.028060651823432176
211, ,PASS, ,0.07259681016000001, ,0.009207041420301633, ,0.0373151498672272, ,0.0006871852124129586, ,2.0, ,0.8335610938904461, ,0.4552560151833636, ,0.032529948368400646
212, ,PASS, ,0.08126050499999997, ,0.010440550950734989, ,0.038410722880798345, ,0.0008765885099259025, ,1.9166666666666667, ,0.8433337173550103, ,0.4771739352258117, ,0.05789677761678333
213, ,PASS, ,0.09322960000000004, ,0.012043088990116595, ,0.03636525814198711, ,0.0011521879426442912, ,2.0, ,0.8434044172786143, ,0.4563784412563009, ,0.037917593518499625
214, ,PASS, ,0.09792815, ,0.01277724551668521, ,0.035431593205057045, ,0.0012893995196919163, ,2.0, ,0.8390856623785181, ,0.453011163037489, ,0.035448256158037594
215, ,PASS, ,0.11641564, ,0.01547380152525662, ,0.03499033091906288, ,0.001842931910982545, ,2.0, ,0.8458339999374282, ,0.45699067365972124, ,0.037182914634395214
216, ,PASS, ,0.09647195000000003, ,0.012410351512744661, ,0.03674047606433787, ,0.0012217451000889523, ,2.0, ,0.8379162103801877, ,0.4597253117283321, ,0.030509581437113527
217, ,PASS, ,0.10949876999999997, ,0.014788318658441556, ,0.03527466864908879, ,0.0016660989619389063, ,2.0, ,0.8416793958633529, ,0.45288871655680496, ,0.03781555478459623
218, ,PASS, ,0.11102662999999999, ,0.014318449160146041, ,0.03576279473098508, ,0.0016310881021016784, ,2.0, ,0.8430993264544784, ,0.4562968102691782, ,0.03567274137262505
219, ,PASS, ,0.10665377000000001, ,0.014072912533592571, ,0.03590982154698884, ,0.0015330529081407297, ,1.9166666666666667, ,0.8425159290528362, ,0.4607048835738046, ,0.038468602681577924
220, ,PASS, ,0.06540149299999999, ,0.008621926390134475, ,0.03732149227628007, ,0.0005789548489308411, ,2.0, ,0.8209333023056604, ,0.4524805616211914, ,0.029325932123834206
221, ,PASS, ,0.07014813613, ,0.008999789987405698, ,0.03746706044517459, ,0.0006536812943536214, ,1.8333333333333333, ,0.8246707957190489, ,0.4567661884451338, ,0.029346339870614885
222, ,PASS, ,0.061607329999999995, ,0.007479209258402843, ,0.0378979220071019, ,0.0004803037161610922, ,2.0, ,0.8179759627568323, ,0.45576620885288055, ,0.027264749698985735
223, ,PASS, ,0.076049302, ,0.009512476206199088, ,0.03673159027287198, ,0.0007515840161951566, ,2.0, ,0.8336013374212998, ,0.44946021509765105, ,0.03130548356155997
224, ,PASS, ,0.11159399999999998, ,0.015407012114866826, ,0.03529479201304055, ,0.0017426413159407556, ,1.9166666666666667, ,0.8496561990012815, ,0.4625619885308463, ,0.04212158935531928
225, ,PASS, ,0.09736345000000002, ,0.012755144424265558, ,0.034626400949796944, ,0.0012921966925481716, ,1.9166666666666667, ,0.8513005667403104, ,0.44086855370298567, ,0.037509438582886065
226, ,PASS, ,0.10147919000000001, ,0.013235973311291295, ,0.036229849871186305, ,0.0013611686380199683, ,1.9166666666666667, ,0.8421428736791489, ,0.4638884920715904, ,0.039264504806024364
227, ,PASS, ,0.13675983, ,0.019980564167565877, ,0.03354213408212078, ,0.0027446110418474032, ,1.8333333333333333, ,0.8524281519989844, ,0.46743944001142834, ,0.04316238444113386
228, ,PASS, ,0.10229008000000003, ,0.013550711963406584, ,0.03611378095685802, ,0.0014273377486080517, ,1.8333333333333333, ,0.8491007379123872, ,0.46380686108446767, ,0.03979510622232199
229, ,PASS, ,0.10039313000000002, ,0.01361600278330619, ,0.035997475352421385, ,0.0013892581005794256, ,1.9166666666666667, ,0.8453779736157422, ,0.4606028448399012, ,0.03804003999918369
230, ,PASS, ,0.07927155000000001, ,0.010155897449051465, ,0.036751413258260035, ,0.0008262664756200687, ,2.0, ,0.8324387252621367, ,0.45531723842370564, ,0.03724413787473725
231, ,PASS, ,0.13693897, ,0.02049304393624028, ,0.03353884021856697, ,0.002823261762968539, ,1.9166666666666667, ,0.8516980753165873, ,0.4672557702904022, ,0.04322360768147589
232, ,PASS, ,0.09666171999999999, ,0.013462422530475424, ,0.03575399357851881, ,0.0013265006799297815, ,2.0, ,0.846876406564962, ,0.4580518764923165, ,0.04012163017081284
233, ,PASS, ,0.09785401000000002, ,0.01340934417488639, ,0.03600366797924532, ,0.0013356483690755688, ,1.9166666666666667, ,0.836705037966076, ,0.4576845370502643, ,0.03652986673741352
234, ,PASS, ,0.10057923999999999, ,0.013689808786723877, ,0.035765249537805355, ,0.0014066367984357827, ,2.0, ,0.8368917930143116, ,0.45709271239362465, ,0.03863186465582335
235, ,PASS, ,0.10259655999999998, ,0.013924922820861873, ,0.035857385342176695, ,0.0014528435690361254, ,2.0, ,0.8379999525755338, ,0.4610314075222955, ,0.039264504806024364
236, ,PASS, ,0.08707402300000001, ,0.012029036797988425, ,0.036380601608214526, ,0.0010668185022878114, ,1.9166666666666667, ,0.8329226812518062, ,0.4547662292606273, ,0.037386992102202
237, ,PASS, ,0.10613221000000005, ,0.01496993299340073, ,0.03515001612281382, ,0.0016189258209558211, ,2.0, ,0.8490179155084974, ,0.4579294300116324, ,0.04022366890471623
238, ,PASS, ,0.09616666000000001, ,0.012915551630471112, ,0.036030126285116634, ,0.0012653010938939546, ,2.0, ,0.841675848846787, ,0.45984775820901613, ,0.03826452521377115
239, ,PASS, ,0.10749395999999999, ,0.015043774569101881, ,0.03538876415560907, ,0.001631080242154392, ,1.9166666666666667, ,0.8461944220898097, ,0.46337829840207345, ,0.040366523132180976
240, ,PASS, ,0.07543250600000001, ,0.010310516393946203, ,0.037113729145037855, ,0.0007909772797877091, ,2.0, ,0.8374955622158337, ,0.4592355258055958, ,0.037101283647272505
241, ,PASS, ,0.10681515000000003, ,0.015279732962206444, ,0.03547232229654497, ,0.0016480139923175303, ,1.9166666666666667, ,0.8502962956182211, ,0.46186812514030323, ,0.04669292463419114
242, ,PASS, ,0.08912532000000002, ,0.011802557484425337, ,0.0366421641050152, ,0.0010696864233825376, ,1.9166666666666667, ,0.839066811568367, ,0.4606028448399012, ,0.03728495336829861
243, ,PASS, ,0.12809192000000003, ,0.018407166506119555, ,0.034981250870383666, ,0.002398846536822549, ,1.8333333333333333, ,0.8496038920442559, ,0.4680108569212873, ,0.04391747107201894
244, ,PASS, ,0.08938704000000003, ,0.012289916900429689, ,0.0366662322139691, ,0.0011164167646864952, ,2.0, ,0.8441509953144541, ,0.4622762800759168, ,0.039591028754515215
245, ,PASS, ,0.14166072, ,0.017576694246116683, ,0.033904439811771596, ,0.0025065660515389255, ,1.75, ,0.6310082436027772, ,0.450480602436685, ,0.051407114140527746
246, ,PASS, ,0.08840421000000004, ,0.011623978092136398, ,0.03678570365582784, ,0.0010656894704927599, ,2.0, ,0.839877960661, ,0.46066406808024324, ,0.038754311136507416
247, ,PASS, ,0.11931740000000003, ,0.017588539031878323, ,0.034647885091814455, ,0.0021269749861821717, ,2.0, ,0.8440236323610016, ,0.4609089610416114, ,0.042550152037713514
248, ,PASS, ,0.08973842300000004, ,0.012354145108969775, ,0.03999141047378625, ,0.001122968477355326, ,1.9166666666666667, ,0.8246860862397721, ,0.5134385012550764, ,0.03681557519234301
249, ,PASS, ,0.09090586000000002, ,0.011922305883491373, ,0.03681997630985388, ,0.0011258457131197164, ,1.8333333333333333, ,0.8359320970240767, ,0.4630517744535826, ,0.04195832738107386
250, ,PASS, ,0.1007989, ,0.013716192231786575, ,0.036025374104650926, ,0.0014069097452495236, ,2.0, ,0.8344536650994123, ,0.4597661272218934, ,0.03975429072876064
251, ,PASS, ,0.08426598000000003, ,0.0120387630169516, ,0.03625814856414542, ,0.0010362260901388362, ,2.0, ,0.8401511919136958, ,0.456562110977327, ,0.036713536458439625
252, ,PASS, ,0.05263090000000001, ,0.007578507001507644, ,0.037637790388359425, ,0.00040790390352911295, ,2.0, ,0.8330793476452196, ,0.4463990530805494, ,0.033795228668802677
253, ,PASS, ,0.06377074099999995, ,0.007883404078973802, ,0.039794399770616926, ,0.0005323425630406175, ,1.9166666666666667, ,0.8068910932067715, ,0.510805901920369, ,0.05085610497744944
254, ,PASS, ,0.06179268399999996, ,0.008434847316884523, ,0.037865921264055837, ,0.0005402310346629915, ,1.8333333333333333, ,0.8392056830312012, ,0.4542560355911104, ,0.03326462725250505
255, ,PASS, ,0.086281389, ,0.012350807020181284, ,0.036460066502960145, ,0.0010826304476446473, ,1.9166666666666667, ,0.8515262335169939, ,0.45699067365972124, ,0.03922368931246301
