Channel, ,Pass/Fail, ,Amplitude, ,Sorting Function Response, ,Mean, ,Variance, ,NPeaksRatio, ,PosIntegralRatio, ,ToT50, ,ToT99
42, ,PASS, ,0.006159139999999997, ,0.000739642086324044, ,0.02900518340360401, ,4.611072912346434e-06, ,1.9166666666666667, ,0.7115981079370558, ,0.5477031080998347, ,0.011509969184302362
43, ,PASS, ,0.007563619999999986, ,0.001047709631093531, ,0.02893331317850656, ,8.040629283530608e-06, ,2.0, ,0.7386587799715144, ,0.5429481030999367, ,0.03367278218811861
44, ,PASS, ,0.007460719999999994, ,0.001045296431716642, ,0.029023787825554582, ,7.915612782107923e-06, ,2.0, ,0.7235998944651787, ,0.5381318748596967, ,0.03250954062161997
45, ,PASS, ,0.0074018899999999735, ,0.0010372726649791302, ,0.029183123124426034, ,7.774429184813493e-06, ,2.0, ,0.7296741292341196, ,0.540213465031326, ,0.03355033570743454
46, ,PASS, ,0.00738796999999999, ,0.0010609445536710694, ,0.029264344419909796, ,7.958273295890292e-06, ,1.9166666666666667, ,0.741355311943356, ,0.5376216811901798, ,0.03287688006367217
47, ,PASS, ,0.007325059999999991, ,0.0010346618242291542, ,0.029021597148221463, ,7.704230985229966e-06, ,1.9166666666666667, ,0.7270891850189735, ,0.5353564212975246, ,0.013081365686414563
48, ,PASS, ,0.007292719999999992, ,0.001011472735863341, ,0.02883063260872227, ,7.450313889960835e-06, ,2.0, ,0.723504254488265, ,0.5400297953102998, ,0.02732597293932777
49, ,PASS, ,0.00747368, ,0.0010513808068077853, ,0.028876324763168097, ,8.013580323091252e-06, ,1.9166666666666667, ,0.7584905474768308, ,0.5403563192587907, ,0.0507948817371074
50, ,PASS, ,0.007375929999999989, ,0.0010413868600482857, ,0.02871845180771821, ,7.781631452878596e-06, ,2.0, ,0.7478908314823839, ,0.5414175220913859, ,0.05161119160833452
51, ,PASS, ,0.007372190000000004, ,0.0010096119820416996, ,0.028575576316605785, ,7.519823912821713e-06, ,2.0, ,0.7364009400365121, ,0.5415195608252893, ,0.012979326952511173
52, ,PASS, ,0.007277159999999991, ,0.001054512336751246, ,0.02859381933919716, ,7.755806140965479e-06, ,2.0, ,0.7427315880201183, ,0.5412950756107018, ,0.0365502744841942
53, ,PASS, ,0.007338619999999994, ,0.0010384969897596782, ,0.028588718861043656, ,7.721081060452e-06, ,2.0, ,0.7411924001824474, ,0.5386420685292137, ,0.027876982102406075
54, ,PASS, ,0.007371619999999995, ,0.0010273317061466338, ,0.02849832194791943, ,7.691055471946169e-06, ,2.0, ,0.72236645694383, ,0.538499214301749, ,0.01987714536438032
55, ,PASS, ,0.0070963299999999944, ,0.0010363898668356412, ,0.02845737669965919, ,7.458417414958584e-06, ,2.0, ,0.7404121560970612, ,0.5380706516193547, ,0.030509581437113527
56, ,PASS, ,0.007252940000000003, ,0.0010634376764986624, ,0.0284106852903002, ,7.806936402798959e-06, ,2.0, ,0.7460143816963801, ,0.5381726903532581, ,0.035978857574335214
57, ,PASS, ,0.007439889999999998, ,0.0010467351019829857, ,0.028535982419134305, ,7.88803028090956e-06, ,2.0, ,0.7304297879123137, ,0.5393971551600988, ,0.03159119201648946
58, ,PASS, ,0.007301919999999993, ,0.0010955626092116072, ,0.028947789966123138, ,8.128061256326186e-06, ,1.9166666666666667, ,0.7548532784949271, ,0.534499295932736, ,0.022877084141139977
59, ,PASS, ,0.007483049999999988, ,0.0010487069502058176, ,0.02896554265219077, ,7.965236359995802e-06, ,2.0, ,0.7247836491017741, ,0.5382747290871615, ,0.021815881308544723
60, ,PASS, ,0.007375149999999987, ,0.0010594532018673997, ,0.028999755378053507, ,7.901501327917184e-06, ,2.0, ,0.7631670930296832, ,0.5422542397093937, ,0.05654986632925859
61, ,PASS, ,0.007693239999999983, ,0.0010965669206500837, ,0.029194568816554762, ,8.51783282434052e-06, ,2.0, ,0.7256193324316087, ,0.5382747290871615, ,0.04777453521356707
62, ,PASS, ,0.00754336999999999, ,0.0010383069600235855, ,0.02906875437338013, ,7.942915629037953e-06, ,2.0, ,0.7211625142138633, ,0.5381318748596967, ,0.03448909205934573
63, ,PASS, ,0.007460129999999995, ,0.0010379212760378773, ,0.029104107648415336, ,7.862331692970774e-06, ,2.0, ,0.72206576503559, ,0.5394991938940021, ,0.02257096793942981
64, ,PASS, ,0.007363540000000005, ,0.0010462544496849392, ,0.028918737652088734, ,7.830649607434862e-06, ,1.9166666666666667, ,0.7348039822909387, ,0.536784963572172, ,0.031754453990734885
65, ,PASS, ,0.007604349999999985, ,0.0010440838680454523, ,0.02912822498357176, ,8.035800027776196e-06, ,2.0, ,0.7145152214292044, ,0.5389481847309239, ,0.014877247403114222
66, ,PASS, ,0.00727477, ,0.0010812032935678736, ,0.028937316637007406, ,7.957184553750588e-06, ,2.0, ,0.7562473919429963, ,0.5390706312116079, ,0.04887655353972368
67, ,PASS, ,0.007417609999999988, ,0.0010804388702377143, ,0.028958423344217464, ,8.125223741485086e-06, ,2.0, ,0.7511665382338466, ,0.5393563396665374, ,0.037550254076447416
68, ,PASS, ,0.007513729999999993, ,0.0010730754145177016, ,0.02875794912634436, ,8.19172920349302e-06, ,1.9166666666666667, ,0.7333323669794802, ,0.5364176241301198, ,0.01828534111548744
69, ,PASS, ,0.007519219999999979, ,0.0010984778221141225, ,0.028951380886920675, ,8.367976915523289e-06, ,2.0, ,0.7581708944699451, ,0.5402746882716679, ,0.04716230281014673
70, ,PASS, ,0.007579309999999988, ,0.0010988672768885103, ,0.02896653204485623, ,8.438254399122795e-06, ,2.0, ,0.7429693090723306, ,0.5389890002244853, ,0.0320197546988837
71, ,PASS, ,0.007839599999999978, ,0.001089343451320826, ,0.028691057913716046, ,8.65018828534931e-06, ,2.0, ,0.7284290919776146, ,0.5397440868553703, ,0.019795514377257607
72, ,PASS, ,0.007607189999999993, ,0.0011104041324583485, ,0.02873629359768168, ,8.548900070642047e-06, ,2.0, ,0.7413931596717258, ,0.5405603967265974, ,0.021183241158343708
73, ,PASS, ,0.007633339999999992, ,0.001115260717551048, ,0.02875377210526316, ,8.630724501834447e-06, ,2.0, ,0.7501696620307027, ,0.5382339135936002, ,0.013448705128466767
74, ,PASS, ,0.007739259999999991, ,0.001122076917172501, ,0.028592557415767023, ,8.810603864501453e-06, ,2.0, ,0.7256069977856188, ,0.5387441072631171, ,0.028570845492949123
75, ,PASS, ,0.007902319999999987, ,0.001106564866412582, ,0.028906879543478703, ,8.888802398905619e-06, ,2.0, ,0.7410405319401783, ,0.5405808044733781, ,0.0335911512009959
76, ,PASS, ,0.00753172999999999, ,0.0011235830767364553, ,0.029018780545703147, ,8.594490166063198e-06, ,2.0, ,0.7689174707534753, ,0.540519581233036, ,0.044937858411052835
77, ,PASS, ,0.007704739999999988, ,0.0011189351043531148, ,0.028686638210444686, ,8.724532031084464e-06, ,2.0, ,0.7462606350843913, ,0.53792779739189, ,0.016673129119813883
78, ,PASS, ,0.007836759999999998, ,0.0011253742424591018, ,0.0288297872276076, ,8.941119470699841e-06, ,2.0, ,0.7471270058044924, ,0.5400706108038611, ,0.03824411746699047
79, ,PASS, ,0.007958269999999993, ,0.0010997878287139077, ,0.028867479328993282, ,8.870641582940373e-06, ,1.9166666666666667, ,0.7137219055307266, ,0.5363972163833391, ,0.012285463561968123
112, ,PASS, ,0.007667089999999998, ,0.001123907127901843, ,0.02881759507418216, ,8.73556229343106e-06, ,1.9166666666666667, ,0.7527156305747661, ,0.5396828636150283, ,0.039652251994857245
113, ,PASS, ,0.008098939999999989, ,0.0011610265812428966, ,0.028880597727597393, ,9.554545786344974e-06, ,2.0, ,0.7436521998499831, ,0.5384379910614069, ,0.04438684924797453
114, ,PASS, ,0.007834819999999985, ,0.0011058423404211133, ,0.028993415037448213, ,8.785466464028485e-06, ,2.0, ,0.7305119624517531, ,0.5394175629068795, ,0.03693802167302708
115, ,PASS, ,0.00800654999999999, ,0.0011749342233553452, ,0.028936423930736106, ,9.552874372346805e-06, ,1.9166666666666667, ,0.753523826691003, ,0.5382135058468195, ,0.029264708883492172
116, ,PASS, ,0.008224339999999997, ,0.0011987414899898698, ,0.028765039793065446, ,9.944869659181672e-06, ,2.0, ,0.7418849626862323, ,0.5366421093447072, ,0.026468847574539295
117, ,PASS, ,0.00785054999999998, ,0.0011850437303454323, ,0.02857997179649395, ,9.435625695412866e-06, ,2.0, ,0.7757215597090286, ,0.541029774902553, ,0.08077386175792331
118, ,PASS, ,0.00830456999999998, ,0.0011811606493012609, ,0.02863676011734454, ,9.916551029427294e-06, ,1.9166666666666667, ,0.7576774336501821, ,0.5392338931858534, ,0.019346543948082693
119, ,PASS, ,0.008032559999999987, ,0.0011628149893445395, ,0.028726615315605806, ,9.463689003667819e-06, ,2.0, ,0.7489056239809811, ,0.5392951164261954, ,0.015448664312973205
120, ,PASS, ,0.008157209999999977, ,0.0012104998170656691, ,0.028805015007244746, ,1.0036529619659615e-05, ,1.9166666666666667, ,0.7724643687814707, ,0.5396420481214669, ,0.07450868349625518
121, ,PASS, ,0.008196969999999994, ,0.001296063722146709, ,0.02860155456235587, ,1.0747598252380637e-05, ,2.0, ,0.7834510235457991, ,0.5371318952674435, ,0.06428440235913553
122, ,PASS, ,0.008143789999999991, ,0.0012376773767504114, ,0.028794974088896145, ,1.0198904412816019e-05, ,2.0, ,0.7639648906490188, ,0.5383155445807228, ,0.02650966306810065
123, ,PASS, ,0.008197889999999975, ,0.0011921858780400661, ,0.029177995667435355, ,9.886204539616748e-06, ,2.0, ,0.7584875124145303, ,0.5408665129283076, ,0.033019734291136915
124, ,PASS, ,0.007847089999999977, ,0.0011745209311253876, ,0.029112913828085136, ,9.332360216282192e-06, ,2.0, ,0.748806992635306, ,0.5368665945592948, ,0.02850962225260709
125, ,PASS, ,0.008548460000000004, ,0.0012080440847188668, ,0.028959722135670697, ,1.045731685399555e-05, ,2.0, ,0.7230507220870384, ,0.5365196628640232, ,0.01202016285381931
126, ,PASS, ,0.008315979999999997, ,0.0012230994536165036, ,0.029234066082324848, ,1.0263068350574317e-05, ,2.0, ,0.7536725876290141, ,0.538621660782433, ,0.04224403583600335
127, ,PASS, ,0.008390049999999982, ,0.0012472807008069259, ,0.02914998812024244, ,1.0595426897409405e-05, ,2.0, ,0.7623858466872975, ,0.539193077692292, ,0.044529703475439275
128, ,PASS, ,0.008308759999999988, ,0.001192662222765408, ,0.02934845960490602, ,1.0017471934647451e-05, ,2.0, ,0.7432254511718023, ,0.5390706312116079, ,0.030754474398481665
129, ,PASS, ,0.008388359999999994, ,0.0012365919226527925, ,0.029544168855125404, ,1.0497074799918678e-05, ,2.0, ,0.743260819768207, ,0.5361727311687516, ,0.021999551029570824
130, ,PASS, ,0.008495129999999983, ,0.0012498131504278995, ,0.029467727818411865, ,1.0770174348321484e-05, ,2.0, ,0.7528664166985403, ,0.5373563804820309, ,0.03573396461296708
131, ,PASS, ,0.008397879999999993, ,0.0012548563065070582, ,0.029441661806085588, ,1.0706175225015438e-05, ,2.0, ,0.7640489269943581, ,0.5392747086794147, ,0.03565233362584437
132, ,PASS, ,0.008503789999999987, ,0.0012545846356081644, ,0.029342581096712308, ,1.0836530759563665e-05, ,2.0, ,0.7595434632742486, ,0.5403767270055713, ,0.040774678067794536
133, ,PASS, ,0.008540739999999988, ,0.001240334922275248, ,0.029040612924634192, ,1.0768284773487026e-05, ,2.0, ,0.7537155031445448, ,0.5394583784004408, ,0.01687720658762066
134, ,PASS, ,0.00863783999999999, ,0.0012733885195043287, ,0.029251570890185912, ,1.1131222066344363e-05, ,2.0, ,0.7492992052931379, ,0.538050243872574, ,0.04726434154405012
135, ,PASS, ,0.008683299999999988, ,0.001284564734111042, ,0.02934015157364135, ,1.13398940852866e-05, ,2.0, ,0.7604679767124362, ,0.5370910797738822, ,0.029244301136711497
136, ,PASS, ,0.00865218999999999, ,0.0012829360909765713, ,0.02943224266076202, ,1.128965429612253e-05, ,1.9166666666666667, ,0.7613332456139851, ,0.5370910797738822, ,0.03883594212363013
137, ,PASS, ,0.00895693999999999, ,0.0012453585824134534, ,0.02961189204403991, ,1.1348100913044907e-05, ,2.0, ,0.7417728941253381, ,0.541662415052754, ,0.03008101875471929
138, ,PASS, ,0.008593679999999996, ,0.0012779520198326296, ,0.02970596558478398, ,1.1117590204139193e-05, ,2.0, ,0.7590817448619075, ,0.5403563192587907, ,0.04877451480582029
139, ,PASS, ,0.008630059999999995, ,0.0013044080971298532, ,0.02969866849574498, ,1.1402887392663791e-05, ,2.0, ,0.7657474607895678, ,0.5393563396665374, ,0.04099916328238199
140, ,PASS, ,0.008806609999999979, ,0.0012796455009770258, ,0.02950589365788453, ,1.1393908078960469e-05, ,2.0, ,0.7625780141365418, ,0.5406216199669395, ,0.055590702230566724
141, ,PASS, ,0.008635369999999986, ,0.0012968746653405588, ,0.0294888267402706, ,1.1343853349702529e-05, ,2.0, ,0.7628669365616886, ,0.539825717842493, ,0.04303993796044979
142, ,PASS, ,0.00901242, ,0.0013355913443424076, ,0.029753738149833675, ,1.216952719474083e-05, ,2.0, ,0.7643602392214498, ,0.5398053100957123, ,0.03761147731678945
143, ,PASS, ,0.008866569999999987, ,0.0013067460378287663, ,0.02935595712658925, ,1.177270928875607e-05, ,2.0, ,0.7555023767178194, ,0.5384175833146262, ,0.015509887553315239
176, ,PASS, ,0.00902993999999999, ,0.00131475640072819, ,0.02919035344176649, ,1.203726637763528e-05, ,2.0, ,0.7556241022713983, ,0.5400910185506418, ,0.021489357360053876
177, ,PASS, ,0.008734739999999987, ,0.0013307726267608453, ,0.029400717933103403, ,1.1760089593406173e-05, ,2.0, ,0.7656018985632966, ,0.5403563192587907, ,0.03952980551417318
178, ,PASS, ,0.008644689999999983, ,0.0013206086797817912, ,0.029422419649190828, ,1.1550670741907631e-05, ,2.0, ,0.7625237829271228, ,0.5392951164261954, ,0.04599906124364809
179, ,PASS, ,0.009065259999999985, ,0.0013238784166996421, ,0.029739723490541003, ,1.2110570937483478e-05, ,2.0, ,0.734448235422524, ,0.53672374033183, ,0.01597926572927083
180, ,PASS, ,0.00907842, ,0.0012989828799834357, ,0.029762424323993387, ,1.196603953358527e-05, ,2.0, ,0.7384958167453922, ,0.538111467112916, ,0.04012163017081284
181, ,PASS, ,0.0089179, ,0.0013421901977022652, ,0.029610700195506212, ,1.217465620259789e-05, ,1.9166666666666667, ,0.748883112420598, ,0.5361727311687516, ,0.03406052937695149
182, ,PASS, ,0.009074819999999994, ,0.0013507064421599579, ,0.029591805500499987, ,1.2407760603597519e-05, ,2.0, ,0.758525060062744, ,0.539254300932634, ,0.034244199097977594
183, ,PASS, ,0.008930859999999985, ,0.00134917061846479, ,0.029514343180547332, ,1.2199762613134857e-05, ,2.0, ,0.7572502458212668, ,0.5394787861472214, ,0.03773392379747352
184, ,PASS, ,0.009004730000000006, ,0.0013356919868885984, ,0.02956075102324442, ,1.2204480549632109e-05, ,2.0, ,0.7654056056868985, ,0.5387645150098977, ,0.03646864349707149
185, ,PASS, ,0.009120429999999988, ,0.0013693960032737263, ,0.029543921727107604, ,1.2640213466959306e-05, ,2.0, ,0.7562299480090321, ,0.5387236995163364, ,0.028815738454317258
186, ,PASS, ,0.009027960000000008, ,0.001369584470254211, ,0.029616976960470193, ,1.2520918858914465e-05, ,2.0, ,0.756039679720787, ,0.5372135262545662, ,0.04316238444113386
187, ,PASS, ,0.009142389999999997, ,0.0013954264870262815, ,0.02970333114201751, ,1.2915012862661793e-05, ,2.0, ,0.774880219778129, ,0.5390094079712658, ,0.0568151670374074
188, ,PASS, ,0.009430739999999996, ,0.0013844914962212144, ,0.02967510497398012, ,1.3237399022047982e-05, ,1.9166666666666667, ,0.7694003533450894, ,0.5381930981000388, ,0.046611293647068425
189, ,PASS, ,0.00926811, ,0.0014034733996912668, ,0.029632810208975326, ,1.3161767162362638e-05, ,2.0, ,0.7621553258782667, ,0.5387441072631171, ,0.03008101875471929
190, ,PASS, ,0.00940423, ,0.0013872780160425337, ,0.029413261806289663, ,1.3198946883608452e-05, ,1.9166666666666667, ,0.7626392463845811, ,0.5383767678210649, ,0.036223750535703356
191, ,PASS, ,0.009110739999999982, ,0.0014078052421553292, ,0.02935560426072937, ,1.3019450726147716e-05, ,1.9166666666666667, ,0.778435329919458, ,0.5374788269627151, ,0.04195832738107386
192, ,PASS, ,0.010032270000000003, ,0.0015886457986538892, ,0.02930752058488602, ,1.6143415273641945e-05, ,1.9166666666666667, ,0.7763667225819096, ,0.5394379706536602, ,0.018611865063978286
193, ,PASS, ,0.021063770000000002, ,0.0037084206560806846, ,0.029440120239995097, ,7.889452415582956e-05, ,1.75, ,0.7963445001253878, ,0.5224383175853554, ,0.1382624844390931
194, ,PASS, ,0.010269940000000002, ,0.0016410584839113642, ,0.02940119473153609, ,1.7060009101180824e-05, ,1.9166666666666667, ,0.7724914183566675, ,0.5360094691945062, ,0.03218301667312912
195, ,PASS, ,0.009931470000000001, ,0.0015635457512012036, ,0.02941059128385135, ,1.5707402027017068e-05, ,1.9166666666666667, ,0.7744779973364937, ,0.538111467112916, ,0.04430521826085182
196, ,PASS, ,0.010151300000000002, ,0.0015500907655075459, ,0.02948314478133099, ,1.5978682430346647e-05, ,1.9166666666666667, ,0.7628092531926607, ,0.5357645762331381, ,0.022795453154017264
197, ,PASS, ,0.009957989999999983, ,0.0015726937150662486, ,0.029659311329972855, ,1.5871925369503962e-05, ,2.0, ,0.7754738843651485, ,0.5357645762331381, ,0.045346013346666394
198, ,PASS, ,0.009875419999999985, ,0.0015551516284269512, ,0.02963928082814636, ,1.5550343035021197e-05, ,1.9166666666666667, ,0.7774141673794279, ,0.5359686537009449, ,0.038713495642946065
199, ,PASS, ,0.009864359999999992, ,0.0015200281899763566, ,0.029652502823207687, ,1.5188159103864114e-05, ,1.9166666666666667, ,0.7661828942480713, ,0.5380298361257934, ,0.02236689047162303
200, ,PASS, ,0.009773349999999986, ,0.0015631201311586305, ,0.029583490987734943, ,1.549765928201917e-05, ,1.9166666666666667, ,0.7883995971118398, ,0.5368257790657334, ,0.07585559478377993
201, ,PASS, ,0.009949410000000006, ,0.0015699388443306407, ,0.029443129455113157, ,1.5812031235615677e-05, ,1.9166666666666667, ,0.7853214792879378, ,0.5375808656966184, ,0.04067263933389115
202, ,PASS, ,0.010257229999999996, ,0.0015476031378026547, ,0.029727358864921123, ,1.603300923219553e-05, ,1.9166666666666667, ,0.7730269428912281, ,0.5373971959755923, ,0.04636640068570029
203, ,PASS, ,0.009631619999999997, ,0.0015374457770794669, ,0.029600461896900063, ,1.5059146545930817e-05, ,1.9166666666666667, ,0.772593567129314, ,0.5364176241301198, ,0.03308095753147895
204, ,PASS, ,0.010243180000000005, ,0.001543242172531835, ,0.029687764331952405, ,1.5955958950004655e-05, ,1.9166666666666667, ,0.7635743710146222, ,0.5378869818983286, ,0.021713842574641335
205, ,PASS, ,0.009951899999999996, ,0.0015753282318631, ,0.029117568482684025, ,1.5873148994787203e-05, ,1.9166666666666667, ,0.7878965528192686, ,0.5369482255464174, ,0.050060202853003
206, ,PASS, ,0.010205379999999997, ,0.0015319241147147323, ,0.02864416923777065, ,1.5802855033752424e-05, ,1.9166666666666667, ,0.7595328000967362, ,0.5360502846880676, ,0.025489275729066754
207, ,PASS, ,0.010074219999999991, ,0.0015780305641867368, ,0.02883034038897165, ,1.604094489801441e-05, ,2.0, ,0.7775993499729391, ,0.5392951164261954, ,0.024693373604620313
208, ,PASS, ,0.010055399999999992, ,0.0015857666811149298, ,0.02858977733842166, ,1.615375487703167e-05, ,1.9166666666666667, ,0.7762610340631321, ,0.5361727311687516, ,0.031815677231076915
209, ,PASS, ,0.010035319999999993, ,0.001625044036196606, ,0.029462091342829736, ,1.649554078974098e-05, ,1.9166666666666667, ,0.7831510384750178, ,0.5348258198812269, ,0.03816248647986776
210, ,PASS, ,0.009962469999999994, ,0.0015335055979229062, ,0.029256461303442782, ,1.5524196582292253e-05, ,1.9166666666666667, ,0.7849378712210254, ,0.535580906512112, ,0.03885634987041081
211, ,PASS, ,0.010086999999999999, ,0.0015341901782584331, ,0.02953520468316973, ,1.5700554598733537e-05, ,1.9166666666666667, ,0.7433252509862754, ,0.5331523846452113, ,0.02385665598661252
212, ,PASS, ,0.010303899999999998, ,0.0015915060370958651, ,0.029610956545172547, ,1.6608430653156874e-05, ,1.9166666666666667, ,0.766114208704081, ,0.5335605395808248, ,0.033101365278259624
213, ,PASS, ,0.010232360000000006, ,0.0016099903201304445, ,0.029282301991796083, ,1.6649773661412034e-05, ,1.9166666666666667, ,0.7864018123439331, ,0.5383155445807228, ,0.041631803432583006
214, ,PASS, ,0.010115729999999996, ,0.0015837551964895508, ,0.028936321182628923, ,1.6258649803778825e-05, ,1.9166666666666667, ,0.7770659777084449, ,0.5354584600314279, ,0.04310116120079182
215, ,PASS, ,0.010443270000000008, ,0.001545555672860837, ,0.028846771964245625, ,1.6296851141495162e-05, ,1.9166666666666667, ,0.7597268603769769, ,0.5380910593661354, ,0.021509765106834555
216, ,PASS, ,0.010107329999999998, ,0.0015983677186332998, ,0.029394707762290563, ,1.6393636938663864e-05, ,2.0, ,0.7774252508367547, ,0.5368257790657334, ,0.0474684190118569
217, ,PASS, ,0.01006958999999999, ,0.0015775413683601482, ,0.02908166257953919, ,1.6119822717002305e-05, ,1.9166666666666667, ,0.7767902325305268, ,0.5375604579498378, ,0.051896900063264015
218, ,PASS, ,0.010072539999999994, ,0.0016105784210669186, ,0.028665107614334398, ,1.6446657861784394e-05, ,1.9166666666666667, ,0.7817259600990563, ,0.5349686741086916, ,0.05987632905450909
219, ,PASS, ,0.010158699999999993, ,0.0015678764993551984, ,0.02852870819268994, ,1.617520793554595e-05, ,1.9166666666666667, ,0.7844736952778106, ,0.5373359727352504, ,0.04875410705903961
220, ,PASS, ,0.00993618999999999, ,0.001663100252002499, ,0.028502787363319113, ,1.671415360334114e-05, ,1.9166666666666667, ,0.7998115156783782, ,0.5366829248382686, ,0.05259076345380707
221, ,PASS, ,0.01021602000000001, ,0.0016078915548299426, ,0.028530716406603943, ,1.6642865987572495e-05, ,1.9166666666666667, ,0.7848308780186103, ,0.5366421093447072, ,0.0365502744841942
222, ,PASS, ,0.010198590000000004, ,0.0016233807989517984, ,0.02864200656394767, ,1.6731104930077437e-05, ,1.9166666666666667, ,0.7969200372905263, ,0.5384788065549683, ,0.09134507459031449
223, ,PASS, ,0.010049379999999997, ,0.0015603153660730762, ,0.028548996968021056, ,1.584499701003143e-05, ,1.9166666666666667, ,0.7767830732877924, ,0.5385196220485297, ,0.03657068223097488
224, ,PASS, ,0.009897759999999995, ,0.0015832750667250136, ,0.028531847163119118, ,1.5880946643008035e-05, ,1.9166666666666667, ,0.7904349737239961, ,0.5369278177996367, ,0.05487643109324299
225, ,PASS, ,0.010369189999999993, ,0.0015601948533073904, ,0.02873551195322544, ,1.6343612523041954e-05, ,1.9166666666666667, ,0.770354159767579, ,0.5378257586579865, ,0.03612171180179996
226, ,PASS, ,0.009960919999999995, ,0.0015615634726058225, ,0.02857616431215689, ,1.5811050759837084e-05, ,1.9166666666666667, ,0.7817163887395308, ,0.535070712842595, ,0.0421011816085386
227, ,PASS, ,0.009846110000000005, ,0.0015996815103742942, ,0.02873850326666802, ,1.5929551043669532e-05, ,1.9166666666666667, ,0.7934281389867098, ,0.5377645354176446, ,0.06034570723046469
228, ,PASS, ,0.00999835999999999, ,0.001622501579545544, ,0.02857399169057774, ,1.639654134245847e-05, ,1.9166666666666667, ,0.7953105453540835, ,0.5371931185077855, ,0.08001877512703823
229, ,PASS, ,0.010125940000000014, ,0.0016020499274488598, ,0.028548142219750612, ,1.6402020153859924e-05, ,1.9166666666666667, ,0.7973253526840656, ,0.5364176241301198, ,0.049019407767188425
230, ,PASS, ,0.009734279999999998, ,0.0015603398347693398, ,0.028458338704924382, ,1.5409283901809265e-05, ,1.9166666666666667, ,0.7888569906024465, ,0.5351319360829371, ,0.06734556437623722
231, ,PASS, ,0.0098431, ,0.001542961585814722, ,0.028540633991755267, ,1.5355623769663364e-05, ,1.9166666666666667, ,0.7687033865778038, ,0.5360298769412869, ,0.051407114140527746
232, ,PASS, ,0.00993384999999999, ,0.0015354926155573911, ,0.028754825481316706, ,1.544433800902856e-05, ,2.0, ,0.781474031465832, ,0.5393359319197567, ,0.032611579355523355
233, ,PASS, ,0.009850029999999989, ,0.0015685650084679074, ,0.028508720119385315, ,1.5666173927774593e-05, ,1.9166666666666667, ,0.7896900897570086, ,0.5346829656537622, ,0.0630191220587335
234, ,PASS, ,0.009949469999999981, ,0.0015356463107398424, ,0.028489804574396437, ,1.5530873787967666e-05, ,1.9166666666666667, ,0.7554841977923399, ,0.533050345911308, ,0.037121691394053184
235, ,PASS, ,0.009929499999999994, ,0.0015679692281622374, ,0.028552148521050588, ,1.5754652591158848e-05, ,1.9166666666666667, ,0.7875638459870081, ,0.5387236995163364, ,0.04546845982735046
236, ,PASS, ,0.010086630000000003, ,0.0016047785621233013, ,0.028368838672884224, ,1.6381511725134493e-05, ,1.9166666666666667, ,0.7897755843228104, ,0.5388869614905818, ,0.021856696802106078
237, ,PASS, ,0.010181619999999995, ,0.0016026252768829743, ,0.028402252555662123, ,1.6569350624302186e-05, ,1.9166666666666667, ,0.781493879907118, ,0.5375400502030571, ,0.05840697128630028
238, ,PASS, ,0.010306569999999998, ,0.0015917314709042224, ,0.02869311311054876, ,1.6573079044200942e-05, ,1.9166666666666667, ,0.7757941953750899, ,0.5375196424562764, ,0.022836268647578623
239, ,PASS, ,0.010156250000000002, ,0.0016299296104769665, ,0.02848393607722291, ,1.676254319990314e-05, ,2.0, ,0.7867888091856807, ,0.5375808656966184, ,0.03614211954858064
240, ,PASS, ,0.01038227000000001, ,0.0016523181418025739, ,0.028487988627170873, ,1.7362845404064588e-05, ,1.9166666666666667, ,0.7924263536491866, ,0.5368461868125141, ,0.04793779718781249
241, ,PASS, ,0.010336080000000004, ,0.0016398329582396115, ,0.02853285457806983, ,1.713929947661634e-05, ,1.9166666666666667, ,0.7914934144283413, ,0.5383971755678456, ,0.051407114140527746
242, ,PASS, ,0.010502029999999992, ,0.0016363300159426557, ,0.02860135474990306, ,1.7334289286996346e-05, ,1.9166666666666667, ,0.7777428997440743, ,0.53672374033183, ,0.039121650578559625
243, ,PASS, ,0.010594949999999992, ,0.0016290763289157134, ,0.028745369132058527, ,1.750760821851529e-05, ,1.9166666666666667, ,0.7811338428816293, ,0.538621660782433, ,0.051264259913063
244, ,PASS, ,0.010182489999999992, ,0.0016353250368440519, ,0.02847361505275402, ,1.687495402610604e-05, ,1.9166666666666667, ,0.7989129010292241, ,0.5390298157180465, ,0.0883655435603355
245, ,PASS, ,0.010267020000000002, ,0.0016264712205953896, ,0.028706750131629964, ,1.690256790613559e-05, ,2.0, ,0.7845114550126596, ,0.5366829248382686, ,0.04555009081447317
246, ,PASS, ,0.010436359999999995, ,0.001669532307941356, ,0.028570686197832693, ,1.7605986000012318e-05, ,1.9166666666666667, ,0.783642348426631, ,0.5373767882288116, ,0.039978775943348095
247, ,PASS, ,0.010368809999999992, ,0.001641925246751329, ,0.028807353805636614, ,1.7290143898594502e-05, ,1.9166666666666667, ,0.778515973250301, ,0.5345605191730781, ,0.03473398502071386
248, ,PASS, ,0.010593189999999988, ,0.001661622022949316, ,0.028684758253709104, ,1.7865401169946874e-05, ,1.9166666666666667, ,0.7844894657129536, ,0.5359890614477255, ,0.05252954021346503
249, ,PASS, ,0.010547889999999997, ,0.0016621267469308064, ,0.028610478580845283, ,1.775759358454648e-05, ,1.9166666666666667, ,0.7710416859890171, ,0.5370298565335402, ,0.0351625477031081
250, ,PASS, ,0.010326430000000001, ,0.0015324044888899205, ,0.028594432563825226, ,1.6054610127360424e-05, ,2.0, ,0.7255587091376151, ,0.5372747494949083, ,0.04289708373298504
251, ,PASS, ,0.010461810000000002, ,0.0016338448874782714, ,0.02849166455970286, ,1.7283614350134103e-05, ,1.9166666666666667, ,0.7751470747138282, ,0.5369278177996367, ,0.04761127323932165
252, ,PASS, ,0.010298460000000006, ,0.0016366800985280594, ,0.028604295017244548, ,1.7059266860855605e-05, ,2.0, ,0.7888088611678546, ,0.5378053509112058, ,0.045264382359543685
253, ,PASS, ,0.010353079999999987, ,0.0016731026761417302, ,0.028658472057509033, ,1.7507896926705223e-05, ,1.9166666666666667, ,0.7891449048309244, ,0.5371318952674435, ,0.035591110385502334
254, ,PASS, ,0.010774720000000005, ,0.001626917105909038, ,0.02852432889430828, ,1.7750046431829082e-05, ,2.0, ,0.7669223680702224, ,0.5388665537438011, ,0.04320319993469521
255, ,PASS, ,0.010621769999999989, ,0.001669062891215295, ,0.028525470999775517, ,1.7994213103364152e-05, ,2.0, ,0.7851882005279511, ,0.5390298157180465, ,0.04110120201628538
