Channel, ,Pass/Fail, ,Amplitude, ,Sorting Function Response, ,Mean, ,Variance, ,NPeaksRatio, ,PosIntegralRatio, ,ToT50, ,ToT99
42, ,PASS, ,0.004939979999999997, ,0.0004029674601433314, ,0.03178851833105447, ,2.0381998900032505e-06, ,1.4166666666666667, ,0.5083179784943463, ,0.6462113018101672, ,0.007816167016999652
43, ,PASS, ,0.006499245000000008, ,0.0006179967187239426, ,0.033547511109181444, ,4.157627212583578e-06, ,1.5, ,0.6006785492046338, ,0.6492112405869268, ,0.021244464398685742
44, ,PASS, ,0.0066975559999999865, ,0.0006160561247081191, ,0.03326385392522602, ,4.269829038658469e-06, ,1.5, ,0.5720532513776554, ,0.646721495479684, ,0.017101691802208118
45, ,PASS, ,0.006717553999999997, ,0.0005852978173926627, ,0.03373184432938103, ,4.067577856638435e-06, ,1.5, ,0.5627566152722799, ,0.6498030652435665, ,0.01602008122283219
46, ,PASS, ,0.006467859999999985, ,0.0005665313758317601, ,0.03321534975439277, ,3.7858357187147256e-06, ,1.5833333333333333, ,0.5349927649341855, ,0.6431705475398461, ,0.01253035652333626
47, ,PASS, ,0.0066471179999999935, ,0.0005692138653939482, ,0.03340150968761862, ,3.889746057664408e-06, ,1.5, ,0.5373682837486491, ,0.6277626987204343, ,0.022632191179771843
48, ,PASS, ,0.006660487999999989, ,0.0005565398369201936, ,0.03326181801357115, ,3.810967073096212e-06, ,1.4166666666666667, ,0.5152786146406467, ,0.6419256749862248, ,0.014877247403114222
49, ,PASS, ,0.006433838999999986, ,0.0006276182106314912, ,0.03351155836966593, ,4.156328971602187e-06, ,1.5, ,0.6139602148734427, ,0.6555172343421563, ,0.011999755107038632
50, ,PASS, ,0.0066656070000000005, ,0.0006064799417395926, ,0.03346670542841983, ,4.16359107282171e-06, ,1.5, ,0.5836491588289537, ,0.6629048386767618, ,0.028652476480071836
51, ,PASS, ,0.006651904999999996, ,0.0006507075304171571, ,0.03326635182230975, ,4.413077403517195e-06, ,1.6666666666666667, ,0.6027241159397035, ,0.6420481214669088, ,0.02761168139425726
52, ,PASS, ,0.006306175999999993, ,0.0006205492405051021, ,0.03331080901191812, ,4.059073931065634e-06, ,1.5, ,0.6138472136789457, ,0.647925552539744, ,0.04648884716638436
53, ,PASS, ,0.006529595999999995, ,0.000660063298458975, ,0.033488432213342585, ,4.465042149039233e-06, ,1.5, ,0.6481601391380399, ,0.6491908328401461, ,0.038693087896165386
54, ,PASS, ,0.006494036999999994, ,0.0006121317391347932, ,0.033531779566968026, ,4.10033851501774e-06, ,1.5833333333333333, ,0.6324816721122373, ,0.6633129936123753, ,0.016652721373033204
55, ,PASS, ,0.006937373999999982, ,0.0006574551858307752, ,0.03331353999163282, ,4.7192737485568944e-06, ,1.5833333333333333, ,0.6077919085353829, ,0.6503948899002061, ,0.005224383175853554
56, ,PASS, ,0.006704405, ,0.0006416253149425812, ,0.0334013327244546, ,4.455374013664155e-06, ,1.5, ,0.6256191627460606, ,0.650027550458154, ,0.01936695169486337
57, ,PASS, ,0.006589260000000003, ,0.0006640965830569519, ,0.03343041223948491, ,4.529974724682436e-06, ,1.5833333333333333, ,0.6501141138740034, ,0.647680659578376, ,0.05728454521336299
58, ,PASS, ,0.006633898999999999, ,0.0006425618878965064, ,0.03322311100932634, ,4.417819556054822e-06, ,1.5833333333333333, ,0.6166189563660952, ,0.6482928919817963, ,0.016264974184200323
59, ,PASS, ,0.006433111999999987, ,0.0006515016138808826, ,0.03345419781720781, ,4.358995793654671e-06, ,1.5, ,0.6279550215668259, ,0.646986796187833, ,0.019387359441644048
60, ,PASS, ,0.006703855000000005, ,0.0006562278151315757, ,0.033436661179914694, ,4.561839839278776e-06, ,1.5833333333333333, ,0.6112265268046058, ,0.6471908736556397, ,0.017652700965286424
61, ,PASS, ,0.006706695000000002, ,0.000683692283930599, ,0.03345915719120018, ,4.752237733460805e-06, ,1.5833333333333333, ,0.6477319205901155, ,0.6477622905654986, ,0.030938144119507766
62, ,PASS, ,0.006984667999999996, ,0.000657540957665191, ,0.033373517279545316, ,4.775085661189429e-06, ,1.5, ,0.5628576960326941, ,0.6472725046427624, ,0.008407991673639313
63, ,PASS, ,0.006505069999999998, ,0.0006239339728798413, ,0.03359591477802494, ,4.167484183191349e-06, ,1.5, ,0.6099097058002639, ,0.6518030244280729, ,0.028611660986510478
64, ,PASS, ,0.006638881999999992, ,0.0006612892660118598, ,0.033511926565661924, ,4.522357449245166e-06, ,1.5833333333333333, ,0.6182610828830545, ,0.6480071835268668, ,0.015856819248586763
65, ,PASS, ,0.006881677999999995, ,0.000681367251816873, ,0.03339140653790739, ,4.856070172543926e-06, ,1.5833333333333333, ,0.6221465332393488, ,0.648945939878778, ,0.024183179935103365
66, ,PASS, ,0.006663932999999997, ,0.0006490689997611298, ,0.033586885673435235, ,4.499739362331868e-06, ,1.5833333333333333, ,0.6193684846371432, ,0.648945939878778, ,0.014979286137017612
67, ,PASS, ,0.006687214999999993, ,0.0006716730106000481, ,0.03344844492065468, ,4.6549491738046225e-06, ,1.5833333333333333, ,0.6133626523763086, ,0.6444154200934675, ,0.022468929205526417
68, ,PASS, ,0.006718609999999996, ,0.0006659298821440955, ,0.0334514035903553, ,4.619197564524504e-06, ,1.5, ,0.6416614015714315, ,0.6475582130976919, ,0.04514193587885962
69, ,PASS, ,0.006982676, ,0.0006559278008058676, ,0.033519057363523196, ,4.745201383677121e-06, ,1.5, ,0.5947159105974633, ,0.6479867757800861, ,0.025754576437215567
70, ,PASS, ,0.006463047999999992, ,0.000666516832183254, ,0.03361981414142568, ,4.443014468974272e-06, ,1.5833333333333333, ,0.6376435381155405, ,0.6497214342564438, ,0.037550254076447416
71, ,PASS, ,0.006716614999999999, ,0.0006839550666364169, ,0.033668579332299345, ,4.709917606652584e-06, ,1.5833333333333333, ,0.6240734662792963, ,0.6485786004367258, ,0.02485663557886574
72, ,PASS, ,0.006516839000000007, ,0.0006748192941628816, ,0.03376696741211404, ,4.559585290059031e-06, ,1.5833333333333333, ,0.6412853050341623, ,0.6499255117242505, ,0.04683577886165589
73, ,PASS, ,0.006488436000000004, ,0.000650046471657074, ,0.03357927147650048, ,4.3912632262328375e-06, ,1.5833333333333333, ,0.6206954726164436, ,0.6306605987632905, ,0.04834595212342605
74, ,PASS, ,0.006576562999999997, ,0.0006212821852374571, ,0.0336015582065264, ,4.23637149786063e-06, ,1.5, ,0.6061240021811702, ,0.6446603130548356, ,0.023693394012367093
75, ,PASS, ,0.006803524000000005, ,0.0006704762389902975, ,0.03335902923662782, ,4.723325171421738e-06, ,1.5, ,0.6104440255695058, ,0.6471296504152977, ,0.011734454398889819
76, ,PASS, ,0.006546129999999997, ,0.0006469818965593924, ,0.03357766957094754, ,4.386967278081951e-06, ,1.5, ,0.6267652741144365, ,0.64900716311912, ,0.01312218117997592
77, ,PASS, ,0.006454906, ,0.0006477313953675406, ,0.033565303867247605, ,4.327146839439455e-06, ,1.5, ,0.6332406833976137, ,0.6481908532478929, ,0.019530213669108794
78, ,PASS, ,0.0065353240000000055, ,0.0006624709382344974, ,0.03352408271763842, ,4.486485159042964e-06, ,1.5, ,0.6299000312217655, ,0.6477214750719373, ,0.03761147731678945
79, ,PASS, ,0.006644240999999992, ,0.0006161808474784078, ,0.033521113236158445, ,4.24475092971403e-06, ,1.5833333333333333, ,0.5907264948461719, ,0.6477622905654986, ,0.02791779759596743
112, ,PASS, ,0.006744234999999998, ,0.0006283965626347807, ,0.03353194794016449, ,4.382632594965461e-06, ,1.5, ,0.6122447234793179, ,0.6481704455011122, ,0.034978877982082
113, ,PASS, ,0.006725092999999984, ,0.0007086260598947987, ,0.03349808431940164, ,4.902712013665848e-06, ,1.6666666666666667, ,0.6588931561210006, ,0.6450888757372298, ,0.02869329197363319
114, ,PASS, ,0.006722150000000007, ,0.0006804340161912443, ,0.03357489431619763, ,4.7184763947998485e-06, ,1.6666666666666667, ,0.6323838476180708, ,0.644884798269423, ,0.03412175261729353
115, ,PASS, ,0.006768978000000002, ,0.0006832359504691506, ,0.03347496020105712, ,4.749428103788032e-06, ,1.5, ,0.6105176901714593, ,0.6454153996857207, ,0.029570825085202344
116, ,PASS, ,0.007093218999999991, ,0.0006848316079883707, ,0.033336510695985797, ,5.0177823143353425e-06, ,1.5, ,0.6293130239042986, ,0.6473541356298851, ,0.009754902961164057
117, ,PASS, ,0.006417810999999992, ,0.0006289539174328953, ,0.03365127793087896, ,4.140375540422706e-06, ,1.5, ,0.5999848814729017, ,0.6461704863166058, ,0.020346523540335913
118, ,PASS, ,0.007054450999999996, ,0.0007364036900078441, ,0.033448809794800104, ,5.349191184753861e-06, ,1.5833333333333333, ,0.6568165939311013, ,0.6465582335054386, ,0.046529662659945716
119, ,PASS, ,0.006989422999999995, ,0.0007000015824523152, ,0.03363320840493051, ,5.072646587334148e-06, ,1.5833333333333333, ,0.6230168246677099, ,0.6474357666170079, ,0.022183220750596925
120, ,PASS, ,0.006824160999999995, ,0.0006939981268786314, ,0.03348875003257076, ,4.86459602504537e-06, ,1.5833333333333333, ,0.6340357452346578, ,0.6547621477112712, ,0.02691781800371421
121, ,PASS, ,0.007396540999999986, ,0.0007746698991294539, ,0.03355425778810636, ,5.9415825757069684e-06, ,1.6666666666666667, ,0.6572530583349532, ,0.6499663272178119, ,0.029325932123834206
122, ,PASS, ,0.007292338000000002, ,0.0006941712734462919, ,0.033715355722332196, ,5.262066848661228e-06, ,1.5, ,0.6148608094406108, ,0.6491704250933654, ,0.017550662231383032
123, ,PASS, ,0.007099192000000001, ,0.0007155424077499706, ,0.03354002223636252, ,5.2762282516276434e-06, ,1.5833333333333333, ,0.6490890318632244, ,0.6498642884839085, ,0.02912185465602743
124, ,PASS, ,0.006726052000000007, ,0.0006690119768834779, ,0.03339003926909655, ,4.657547503500669e-06, ,1.5833333333333333, ,0.6176492447934014, ,0.6453541764453786, ,0.015346625579069816
125, ,PASS, ,0.007223026999999986, ,0.0007451302308256431, ,0.03345692525756617, ,5.584395402922582e-06, ,1.5833333333333333, ,0.6538755003859273, ,0.6477826983122793, ,0.05771310789575723
126, ,PASS, ,0.006943261000000006, ,0.0007246664654353752, ,0.03357712096626599, ,5.2022234753236586e-06, ,1.5833333333333333, ,0.6481108384509519, ,0.6451705067243526, ,0.04667251688741046
127, ,PASS, ,0.006979104000000007, ,0.0007535373616999781, ,0.03357234609212057, ,5.422663625363731e-06, ,1.5833333333333333, ,0.6603503759268624, ,0.6567416991489969, ,0.04483581967714945
128, ,PASS, ,0.0071004890000000015, ,0.00070795945433315, ,0.03365234100883655, ,5.218788183125374e-06, ,1.5833333333333333, ,0.640960997828819, ,0.6503744821534254, ,0.01657109038591049
129, ,PASS, ,0.0070235460000000055, ,0.0007158474197945805, ,0.033748372609844694, ,5.198463091774823e-06, ,1.5, ,0.6320704284934976, ,0.6487010469174098, ,0.055202955041733844
130, ,PASS, ,0.007441003999999987, ,0.0007510713930918612, ,0.03362996021009775, ,5.722151775349525e-06, ,1.5, ,0.6377530623640785, ,0.6493336870676109, ,0.03387685965592539
131, ,PASS, ,0.007220034999999993, ,0.0007247451941373398, ,0.033602081940021636, ,5.372624487641904e-06, ,1.5, ,0.6245649518368765, ,0.6453541764453786, ,0.04377461684455419
132, ,PASS, ,0.0074772890000000015, ,0.000740796847558062, ,0.033856804930287136, ,5.73381410305282e-06, ,1.5, ,0.6306882963239355, ,0.6486602314238485, ,0.026489255321319974
133, ,PASS, ,0.007722624999999993, ,0.0007674710594834935, ,0.033773946693761346, ,6.126722967883236e-06, ,1.5833333333333333, ,0.632132698356049, ,0.649578580028979, ,0.0351625477031081
134, ,PASS, ,0.007743072999999993, ,0.0007556655930619345, ,0.033804543784739086, ,6.050647178466448e-06, ,1.5, ,0.5982203853861411, ,0.6453133609518173, ,0.01806085590089998
135, ,PASS, ,0.0076623179999999805, ,0.0007622378840831439, ,0.033795863502642805, ,5.9678182127493254e-06, ,1.6666666666666667, ,0.6116948334688814, ,0.6444766433338095, ,0.02273422991367523
136, ,PASS, ,0.007530890000000002, ,0.0007612855043119636, ,0.033719183603967265, ,5.9449166578256015e-06, ,1.5, ,0.6352597193103837, ,0.6476602518315953, ,0.014673169935307442
137, ,PASS, ,0.007571444999999996, ,0.0007775181592768958, ,0.03375263227203526, ,6.0912140731385135e-06, ,1.5833333333333333, ,0.6510989558466503, ,0.6394971531193241, ,0.031795269484296236
138, ,PASS, ,0.007869141999999985, ,0.0007747784585622003, ,0.033726261899757144, ,6.249318550118412e-06, ,1.5, ,0.6117326572178942, ,0.6474561743637884, ,0.02244852145874574
139, ,PASS, ,0.0077218789999999905, ,0.0007611850375544778, ,0.03373547246392931, ,6.0356731060495965e-06, ,1.5, ,0.6001954654489605, ,0.6434562559947756, ,0.026101508132487093
140, ,PASS, ,0.007377992000000007, ,0.0007427653833860568, ,0.03384191053996857, ,5.6720282426077875e-06, ,1.5833333333333333, ,0.6172389121182078, ,0.6483949307156996, ,0.02097916369053693
141, ,PASS, ,0.007549165, ,0.0007714024159589018, ,0.033651920965735396, ,6.037096287586717e-06, ,1.5833333333333333, ,0.6537134306697615, ,0.6494561335482949, ,0.027958613089528784
142, ,PASS, ,0.007969200000000003, ,0.0007850732946129451, ,0.033933095928185136, ,6.452027402603138e-06, ,1.5833333333333333, ,0.6091293578175295, ,0.6479867757800861, ,0.028774922960755903
143, ,PASS, ,0.007798694000000005, ,0.0007954035392702364, ,0.03393265688757372, ,6.428983312595523e-06, ,1.5833333333333333, ,0.6379063933228362, ,0.6486194159302872, ,0.016530274892349137
176, ,PASS, ,0.007823119999999989, ,0.0007887085060466321, ,0.033910804798983694, ,6.382130205052099e-06, ,1.5, ,0.6329280097371023, ,0.6493949103079529, ,0.048203097895961305
177, ,PASS, ,0.007820903999999983, ,0.000782079975918179, ,0.03394125002806065, ,6.318708020300209e-06, ,1.5, ,0.6305913182324332, ,0.6490275708659007, ,0.021489357360053876
178, ,PASS, ,0.007794640999999998, ,0.0007572118252879087, ,0.03389868091561397, ,6.107744235433698e-06, ,1.5833333333333333, ,0.6275755212447007, ,0.6485990081835065, ,0.02712189547152099
179, ,PASS, ,0.007740243999999993, ,0.0007567806883307527, ,0.03355401177855554, ,6.039781070382742e-06, ,1.5, ,0.573033587037208, ,0.6386604355013163, ,0.021203648905124384
180, ,PASS, ,0.008440253000000005, ,0.0007941704582534568, ,0.033751604162037506, ,6.954710690146352e-06, ,1.5, ,0.5765777106991371, ,0.6466806799861228, ,0.010469174098487785
181, ,PASS, ,0.008206664999999988, ,0.0008018295406620784, ,0.03368124632697292, ,6.810488428712294e-06, ,1.5833333333333333, ,0.6230111092445169, ,0.6479051447929635, ,0.020530193261362014
182, ,PASS, ,0.007956510000000007, ,0.0007758594956160977, ,0.03375746355133569, ,6.387322524484044e-06, ,1.5, ,0.6145445110803753, ,0.6496806187628824, ,0.032244239913471154
183, ,PASS, ,0.007961590999999997, ,0.0008187759518959316, ,0.033881613518907776, ,6.754579257316629e-06, ,1.5833333333333333, ,0.6394528444831482, ,0.649578580028979, ,0.037570661823228095
184, ,PASS, ,0.008293440000000003, ,0.0008378016805330941, ,0.0337876810142242, ,7.1765048681555e-06, ,1.5, ,0.6198034160624515, ,0.6468235342135875, ,0.03250954062161997
185, ,PASS, ,0.008883909999999995, ,0.0012202546338386906, ,0.03404293615211934, ,1.1211280238776081e-05, ,1.8333333333333333, ,0.7838782425255117, ,0.6489867553723393, ,0.0798555131527928
186, ,FAIL, ,0.0018723860000000106, ,6.877841714780367e-05, ,0.033049400331442214, ,1.353876955693065e-07, ,1.0833333333333333, ,0.3243206283226463, ,0.5093569518989408, ,0.00973449521438338
187, ,PASS, ,0.008091139999999986, ,0.0008474154182825005, ,0.03391261472412808, ,7.092626426210301e-06, ,1.6666666666666667, ,0.6658058216069132, ,0.649517356788637, ,0.042856268239423685
188, ,PASS, ,0.008203731999999991, ,0.0008321884281113283, ,0.03364060840350197, ,6.986536208495271e-06, ,1.5, ,0.635192491526121, ,0.6488234933980939, ,0.02257096793942981
189, ,PASS, ,0.008183304999999988, ,0.0008304253788995698, ,0.03377652307442705, ,7.0666720243350945e-06, ,1.6666666666666667, ,0.6295453644820618, ,0.632089141037938, ,0.0332238117589437
190, ,PASS, ,0.008517301999999997, ,0.0008359174900498457, ,0.033834851002918304, ,7.3322069438833065e-06, ,1.5, ,0.6094307528211711, ,0.6482316687414542, ,0.023489316544560317
191, ,PASS, ,0.008629256000000005, ,0.0008726400043228023, ,0.03382747631109569, ,7.788497086421249e-06, ,1.5, ,0.6384014627822082, ,0.6493949103079529, ,0.03979510622232199
192, ,PASS, ,0.009268353999999996, ,0.0009831898506049094, ,0.033756200533621765, ,9.424683023893981e-06, ,1.5833333333333333, ,0.6436465726443479, ,0.6489867553723393, ,0.02293830738148201
193, ,PASS, ,0.03198240499999999, ,0.004869520257601573, ,0.0361934023206057, ,0.00015876908651398904, ,1.75, ,0.7762422005937866, ,0.6249464296647007, ,0.18991449154098897
194, ,PASS, ,0.010905018999999998, ,0.0015047536189425194, ,0.03433217234723781, ,1.697225941608787e-05, ,2.0, ,0.7841097061353367, ,0.6497214342564438, ,0.055264178282075874
195, ,PASS, ,0.009584982000000002, ,0.0011733653491748273, ,0.034014405636476806, ,1.155466101407137e-05, ,1.75, ,0.7215274739873301, ,0.6494357258015142, ,0.07314136446194976
196, ,PASS, ,0.009241751999999999, ,0.0010488963683744975, ,0.033909296443031776, ,1.0002117644927095e-05, ,1.6666666666666667, ,0.6712267216695699, ,0.6473133201363237, ,0.024060733454419298
197, ,PASS, ,0.009211195999999984, ,0.00110218698002557, ,0.0339771448527377, ,1.0504686258480762e-05, ,1.6666666666666667, ,0.6975423715293726, ,0.646599048999, ,0.0384890104283586
198, ,PASS, ,0.00953983299999999, ,0.0010806032641315299, ,0.03393373803391767, ,1.0648154372149946e-05, ,1.6666666666666667, ,0.6805151006791513, ,0.6473541356298851, ,0.017999632660557947
199, ,PASS, ,0.009348352999999983, ,0.001143887669259724, ,0.034334895950470394, ,1.105849183306462e-05, ,1.75, ,0.7081698667709647, ,0.6476602518315953, ,0.04501948939817555
200, ,PASS, ,0.009263443999999996, ,0.0010669046322752452, ,0.03410267542056285, ,1.023303812375883e-05, ,1.6666666666666667, ,0.6995207340042943, ,0.6475786208444726, ,0.02085671720985286
201, ,PASS, ,0.008937888999999987, ,0.0010646628295831592, ,0.0339351222307708, ,9.866004081531613e-06, ,1.75, ,0.7051366901342402, ,0.6487622701577519, ,0.03944817452705047
202, ,PASS, ,0.009347745000000005, ,0.0010530073399713689, ,0.03400772094769495, ,1.013052599890762e-05, ,1.75, ,0.6670766182996637, ,0.6437011489561437, ,0.010714067059855921
203, ,PASS, ,0.009047560000000007, ,0.0010612928766536851, ,0.034021830301993836, ,9.930355928020055e-06, ,1.75, ,0.6891586231051497, ,0.64780310605906, ,0.033734005428460646
204, ,PASS, ,0.009500382000000009, ,0.0010132519591345038, ,0.03390582800363258, ,9.940609849533965e-06, ,1.6666666666666667, ,0.6492899155009296, ,0.6447215362951777, ,0.019591436909450827
205, ,PASS, ,0.00934585100000001, ,0.0011081642464868457, ,0.03389971992769535, ,1.0714050003164708e-05, ,1.75, ,0.7050845171017243, ,0.648435746209261, ,0.03689720617946572
206, ,PASS, ,0.008955679000000001, ,0.0010264585802994954, ,0.03395898176294362, ,9.509970446039002e-06, ,1.75, ,0.6758732362390891, ,0.64780310605906, ,0.024346441909348787
207, ,PASS, ,0.008989590000000009, ,0.0010599546421828023, ,0.03405543298491868, ,9.881228851817036e-06, ,1.75, ,0.7039234232611011, ,0.6496602110161017, ,0.031244260321217934
208, ,PASS, ,0.009056708, ,0.0010547681727401872, ,0.03388489765400706, ,9.891453485010874e-06, ,1.75, ,0.7015590621325942, ,0.648374522968919, ,0.026958633497275567
209, ,PASS, ,0.009342286999999994, ,0.0010133030242464205, ,0.03405782560366115, ,9.811638220135216e-06, ,1.6666666666666667, ,0.6627508037477954, ,0.6402318320034285, ,0.015509887553315239
210, ,PASS, ,0.009019021000000009, ,0.0010764012231295364, ,0.03395455484661537, ,9.958501497920269e-06, ,1.75, ,0.6957462728839943, ,0.6457419236342116, ,0.05512132405461113
211, ,PASS, ,0.008992251000000003, ,0.0011061328758639735, ,0.03406408302893819, ,1.0312300711277252e-05, ,1.75, ,0.7274275164451187, ,0.6480275912736475, ,0.051815269076141306
212, ,PASS, ,0.009058270000000004, ,0.001065796260180256, ,0.03392182770788351, ,1.0003057669741504e-05, ,1.75, ,0.7073183127948478, ,0.6487214546641905, ,0.05001938735944164
213, ,PASS, ,0.009191843000000009, ,0.0010763177469572487, ,0.03395409652858105, ,1.0242400059801285e-05, ,1.6666666666666667, ,0.714780765976156, ,0.6484153384624803, ,0.06691700169384299
214, ,PASS, ,0.009285735999999989, ,0.0010993080719425593, ,0.0339978951533234, ,1.0555066607177823e-05, ,1.75, ,0.6839952943913326, ,0.646476602518316, ,0.03785637027815759
215, ,PASS, ,0.009129732999999987, ,0.0011215769110374059, ,0.0338263458066366, ,1.0610750445504534e-05, ,1.75, ,0.7199820792163771, ,0.6480888145139895, ,0.06230485092140977
216, ,PASS, ,0.009276102000000001, ,0.0011073904256550344, ,0.03395268134117671, ,1.0587714335180431e-05, ,1.6666666666666667, ,0.707625173833923, ,0.6458031468745535, ,0.03806044774596437
217, ,PASS, ,0.00918493400000001, ,0.0011272380934547117, ,0.03401479810295708, ,1.0658875912022489e-05, ,1.6666666666666667, ,0.7130404447470303, ,0.6478235138058407, ,0.03604008081467725
218, ,PASS, ,0.009241611, ,0.001105622236297642, ,0.03404652276410686, ,1.0588951126473294e-05, ,1.75, ,0.7231730674029808, ,0.649578580028979, ,0.056407012101793844
219, ,PASS, ,0.009303900000000014, ,0.0011325703158410211, ,0.03396960557837595, ,1.0902080101635347e-05, ,1.8333333333333333, ,0.7240308440428658, ,0.6482316687414542, ,0.030040203261157937
220, ,PASS, ,0.009371794999999981, ,0.0010884396167695372, ,0.03398774655060101, ,1.0585050923928571e-05, ,1.75, ,0.6867611291082194, ,0.649129609599804, ,0.022224036244158283
221, ,PASS, ,0.00944120099999999, ,0.0011691770856660495, ,0.03395021281249362, ,1.133560666310767e-05, ,1.8333333333333333, ,0.7162760629436259, ,0.6542315462949736, ,0.03604008081467725
222, ,PASS, ,0.009413336999999994, ,0.0010669493478175128, ,0.034164939493806244, ,1.0398542607061305e-05, ,1.6666666666666667, ,0.696003465758849, ,0.6494153180547336, ,0.0401624456643742
223, ,PASS, ,0.009304741000000009, ,0.0011100780902792331, ,0.034034081914573175, ,1.0646457481431988e-05, ,1.6666666666666667, ,0.7083234863120859, ,0.6483949307156996, ,0.04061141609354911
224, ,PASS, ,0.009497325999999997, ,0.001089639765922943, ,0.033968458736454356, ,1.0666312021650929e-05, ,1.6666666666666667, ,0.6910067414799232, ,0.6459868165955797, ,0.04306034570723046
225, ,PASS, ,0.009435465999999997, ,0.0010992671733638497, ,0.03391215990098161, ,1.074408112938862e-05, ,1.75, ,0.6850040406061954, ,0.6480479990204282, ,0.026387216587416582
226, ,PASS, ,0.009526121000000002, ,0.001060856252952588, ,0.03394123227519846, ,1.0467985919523917e-05, ,1.75, ,0.6595001463166111, ,0.6473949511234465, ,0.0347952082610559
227, ,PASS, ,0.00949092600000001, ,0.0011092508578540003, ,0.03416398172729128, ,1.0892454132152797e-05, ,1.6666666666666667, ,0.7057672652570404, ,0.6484765617028224, ,0.0393257280463664
228, ,PASS, ,0.009463318999999987, ,0.0011036231752286345, ,0.03405249875729067, ,1.0799116776871524e-05, ,1.6666666666666667, ,0.695578560888823, ,0.6478643292994021, ,0.035876818840431826
229, ,PASS, ,0.009109905999999997, ,0.001157855254177279, ,0.03413774673204629, ,1.0926491302714916e-05, ,1.8333333333333333, ,0.7412758769739957, ,0.6490479786126814, ,0.05601926491296096
230, ,FAIL, ,0.0015718250000000059, ,4.6811385569037814e-05, ,0.03312442109846738, ,7.655384198465017e-08, ,0.6666666666666666, ,0.2836159978954769, ,0.7477602497908206, ,0.0025509683475847434
231, ,FAIL, ,0.0021518670000000087, ,0.00010003296209638224, ,0.032833370612926266, ,2.1195018085601084e-07, ,1.0, ,0.36903660377297104, ,0.4000734678884104, ,0.0015305810085508458
232, ,FAIL, ,0.0010911420000000033, ,4.5223733825420694e-05, ,0.033001239144221546, ,5.21395446257155e-08, ,1.0833333333333333, ,0.31718932284916995, ,0.5728250443868492, ,0.00606110079386135
233, ,PASS, ,0.009405220000000006, ,0.001086444245097613, ,0.03407586647145976, ,1.057151274650195e-05, ,1.6666666666666667, ,0.6910606366889172, ,0.6486806391706291, ,0.033856451909144714
234, ,PASS, ,0.009483229999999999, ,0.0010809196838899551, ,0.03402940750256117, ,1.0617936248134198e-05, ,1.6666666666666667, ,0.6742683811074258, ,0.6477010673251566, ,0.03569314911940573
235, ,PASS, ,0.009664514000000006, ,0.0011479796362892799, ,0.03404638974567866, ,1.150073919813757e-05, ,1.6666666666666667, ,0.7149914960781193, ,0.6501295891920573, ,0.060447745964368076
236, ,PASS, ,0.009779737999999993, ,0.0011209072251844323, ,0.03414475888020653, ,1.128591729966748e-05, ,1.6666666666666667, ,0.6767139775730411, ,0.6444970510805902, ,0.032999326544356236
237, ,PASS, ,0.010060067999999991, ,0.0011645863283338814, ,0.03399243327962694, ,1.2082741510903895e-05, ,1.6666666666666667, ,0.6906337440291672, ,0.6491908328401461, ,0.026693332789126754
238, ,PASS, ,0.009880986999999994, ,0.0011289625841502955, ,0.03408642712942593, ,1.1569789853660821e-05, ,1.6666666666666667, ,0.6753943463468451, ,0.6487010469174098, ,0.051080590192036895
239, ,PASS, ,0.009681835999999992, ,0.0011316258045505716, ,0.03414144818950634, ,1.132992109998705e-05, ,1.6666666666666667, ,0.6991424682809032, ,0.6489867553723393, ,0.055896818432276896
240, ,PASS, ,0.00989764299999999, ,0.0011412572007171722, ,0.03417129593559315, ,1.1691467014707693e-05, ,1.6666666666666667, ,0.7072016111180593, ,0.6493132793208302, ,0.07801881594253178
241, ,PASS, ,0.009795810999999995, ,0.00114684210000914, ,0.03393968207885553, ,1.1651610359212347e-05, ,1.6666666666666667, ,0.7006798501169722, ,0.6493132793208302, ,0.05481520785290096
242, ,PASS, ,0.00985220299999999, ,0.0011562681970123392, ,0.03418884522595457, ,1.1718893346486154e-05, ,1.6666666666666667, ,0.6929359691206551, ,0.6495989877757596, ,0.06975367849635722
243, ,PASS, ,0.010166517999999996, ,0.0011987858901279268, ,0.03415618178843289, ,1.2505349851754115e-05, ,1.6666666666666667, ,0.7018106063058198, ,0.6483541152221384, ,0.033774820922022
244, ,PASS, ,0.010011716999999986, ,0.001142516825891259, ,0.03398655797522499, ,1.1839991170527406e-05, ,1.6666666666666667, ,0.6928646953883816, ,0.647925552539744, ,0.02401991796085794
245, ,PASS, ,0.010190635999999989, ,0.0011704689363768658, ,0.03413374428507581, ,1.224999770297281e-05, ,1.6666666666666667, ,0.6902272141513248, ,0.6501091814452766, ,0.032652394849084714
246, ,PASS, ,0.010300859999999992, ,0.0011757954202432708, ,0.034003491180649374, ,1.2519597278947074e-05, ,1.6666666666666667, ,0.6831026982761137, ,0.6485786004367258, ,0.039121650578559625
247, ,PASS, ,0.010202751999999985, ,0.0011899353062009286, ,0.03398951964131344, ,1.2571027219385287e-05, ,1.75, ,0.6921337140819372, ,0.6484969694496031, ,0.03993796044978674
248, ,PASS, ,0.010097089000000007, ,0.0011842043080327578, ,0.03379186401034673, ,1.2395908044067739e-05, ,1.6666666666666667, ,0.7125921806512074, ,0.6498234729903472, ,0.05426419868982266
249, ,PASS, ,0.009997392000000011, ,0.0012027326546391365, ,0.034317268465378255, ,1.2424342449911708e-05, ,1.6666666666666667, ,0.7039354626140082, ,0.6481092222607702, ,0.05171323034223791
250, ,PASS, ,0.010301617999999995, ,0.0011762201680430755, ,0.0339458076085386, ,1.2532557123990565e-05, ,1.6666666666666667, ,0.6859345498248516, ,0.6487214546641905, ,0.031815677231076915
251, ,PASS, ,0.009985249999999994, ,0.0011821281976350816, ,0.034103986984183994, ,1.2216598961802642e-05, ,1.75, ,0.6945533915358894, ,0.6481500377543316, ,0.027979020836309463
252, ,PASS, ,0.009863604999999998, ,0.0011527201167036356, ,0.03384364276167833, ,1.1776349975973051e-05, ,1.75, ,0.697984271478861, ,0.6486194159302872, ,0.035407440664476236
253, ,PASS, ,0.010034505999999999, ,0.0011713917194638528, ,0.0340325608490439, ,1.218294419813707e-05, ,1.75, ,0.6938460798295556, ,0.6478439215526214, ,0.015530295300095916
254, ,PASS, ,0.010078707999999995, ,0.001197171561580984, ,0.03398520183532989, ,1.2487269635303637e-05, ,1.6666666666666667, ,0.702719941346603, ,0.6477622905654986, ,0.036795167445562334
255, ,PASS, ,0.010298737000000006, ,0.0012534194335791667, ,0.034046646503601966, ,1.3305686776006482e-05, ,1.8333333333333333, ,0.7231184982087087, ,0.656170282239138, ,0.03152996877614742
