Channel, ,Pass/Fail, ,Amplitude, ,Sorting Function Response, ,Mean, ,Variance, ,NPeaksRatio, ,PosIntegralRatio, ,ToT50, ,ToT99
43, ,PASS, ,0.020710379999999966, ,0.0022402123635963922, ,0.039967695297238835, ,4.6717391587999826e-05, ,1.75, ,0.5570336984754565, ,0.5444990918552682, ,0.04185628864717047
44, ,PASS, ,0.04565888000000001, ,0.0065669295200340575, ,0.04169270351788739, ,0.00030119205265983877, ,1.8333333333333333, ,0.7321585905236424, ,0.5561110997734741, ,0.052325462745658254
45, ,PASS, ,0.061381431000000014, ,0.008676851657765841, ,0.04287567138417583, ,0.0005342312962598236, ,1.9166666666666667, ,0.7258501420147763, ,0.5598865329278995, ,0.045815391522621984
46, ,PASS, ,0.06652788800000001, ,0.009612351424339572, ,0.043532297839513484, ,0.0006414050044554419, ,1.9166666666666667, ,0.7400757851316473, ,0.5629272871982205, ,0.05738658394726638
47, ,PASS, ,0.061531129000000004, ,0.008976808435545562, ,0.04305141815716006, ,0.0005541120188332462, ,1.9166666666666667, ,0.7466879231486632, ,0.5625395400093876, ,0.06763127283116671
48, ,PASS, ,0.042084099999999985, ,0.006659531481831125, ,0.042379461044264405, ,0.00028220315170046043, ,1.9166666666666667, ,0.7905328146325994, ,0.5631517724128079, ,0.09148792881777923
49, ,PASS, ,0.018722019999999995, ,0.002923546575929673, ,0.040885568494316446, ,5.5040017636193885e-05, ,1.8333333333333333, ,0.7782475102052048, ,0.556560070202649, ,0.07167200669374095
50, ,PASS, ,0.018102299999999974, ,0.0019676769107467864, ,0.04020526362625253, ,3.593284071036317e-05, ,1.8333333333333333, ,0.5727097839947112, ,0.5454582559539601, ,0.03606048856145793
51, ,PASS, ,0.04090236999999997, ,0.005846593722550133, ,0.04168382006999857, ,0.00024024486863279544, ,1.8333333333333333, ,0.7301846774258344, ,0.5555804983571764, ,0.04926430072855656
52, ,PASS, ,0.06302575999999997, ,0.009036496190970206, ,0.04325762896169466, ,0.0005710516249528098, ,1.9166666666666667, ,0.7370313306174144, ,0.5619885308463093, ,0.05824370931205486
53, ,PASS, ,0.06750118, ,0.009720822196700438, ,0.043559833082977895, ,0.0006577861841845564, ,1.9166666666666667, ,0.7390967342283374, ,0.5633762576273954, ,0.06297830656517214
54, ,PASS, ,0.05877561000000002, ,0.008536379259809128, ,0.04307214328438195, ,0.0005030215160609608, ,1.9166666666666667, ,0.743173977915372, ,0.5620905695802126, ,0.06675373971959755
55, ,PASS, ,0.036855889999999995, ,0.0053347599455455565, ,0.041476723424215836, ,0.00019729099064016683, ,1.8333333333333333, ,0.7391511293522435, ,0.5570702638721658, ,0.047019448582681984
56, ,PASS, ,0.014352610000000016, ,0.0018015401391631727, ,0.040094138756760066, ,2.593658457561022e-05, ,1.8333333333333333, ,0.6416215418731634, ,0.5477031080998347, ,0.04540723658700843
57, ,PASS, ,0.019987609999999975, ,0.0023445028532045786, ,0.04027597380359585, ,4.713328635834303e-05, ,1.8333333333333333, ,0.5993965357685777, ,0.5454990714475215, ,0.04146854145833759
58, ,PASS, ,0.04140976999999997, ,0.006075408093889614, ,0.041638583470133265, ,0.00025297934388731914, ,1.8333333333333333, ,0.7409968072641889, ,0.5553968286361503, ,0.04908063100753046
59, ,PASS, ,0.06387471100000001, ,0.009312814798625463, ,0.04310618565535398, ,0.0005967288083209018, ,1.9166666666666667, ,0.7468432024648368, ,0.5627640252239751, ,0.061325279075937225
60, ,PASS, ,0.068344176, ,0.010041284508474002, ,0.04380618982916675, ,0.0006884165485396718, ,1.9166666666666667, ,0.75002043337752, ,0.5645190914471133, ,0.06989653272382196
61, ,PASS, ,0.059828803000000014, ,0.008841320380432484, ,0.04339733836554356, ,0.000530594246046245, ,1.9166666666666667, ,0.7529667574115303, ,0.5630905491724658, ,0.07279443276667823
62, ,PASS, ,0.03722030999999999, ,0.005575888238911626, ,0.04175289020897533, ,0.0002083448883624019, ,1.8333333333333333, ,0.7574999495548229, ,0.5580702434644191, ,0.06926389257362095
63, ,PASS, ,0.014459439999999997, ,0.0018427035201076301, ,0.0403736392020571, ,2.672652194650646e-05, ,1.8333333333333333, ,0.6527863234405685, ,0.5487030876920879, ,0.03771351605069284
64, ,PASS, ,0.02160981999999999, ,0.0026671147811882165, ,0.04033200549437767, ,5.792532973174693e-05, ,1.8333333333333333, ,0.6329248895627954, ,0.5481724862757903, ,0.0369176139262464
65, ,PASS, ,0.04395783000000003, ,0.006636844612609633, ,0.04212327654660109, ,0.0002933610572441431, ,1.9166666666666667, ,0.7622076670931278, ,0.5588457378420849, ,0.06265178261668129
66, ,PASS, ,0.065522972, ,0.009788678511665823, ,0.043930825245137854, ,0.000644257507440478, ,1.9166666666666667, ,0.7611231192787886, ,0.5650088773698496, ,0.06932511581396299
67, ,PASS, ,0.07009807599999998, ,0.010538950830901025, ,0.04417765048423501, ,0.0007419920078257206, ,2.0, ,0.7633626357570036, ,0.5671312830350401, ,0.08183506459051856
68, ,PASS, ,0.06249397500000001, ,0.00939804534515708, ,0.04389834046592927, ,0.0005899121039847947, ,2.0, ,0.7657486188005428, ,0.5668047590865493, ,0.08126364768065958
69, ,PASS, ,0.04114271999999998, ,0.006228460532029512, ,0.042228535003775436, ,0.000257701043824181, ,1.9166666666666667, ,0.7690486443980278, ,0.5624987245158262, ,0.07742699128589213
70, ,PASS, ,0.015203439999999999, ,0.0020467079014551744, ,0.040541694009714094, ,3.118300671565707e-05, ,1.75, ,0.6826804149126527, ,0.5510907940654273, ,0.04295830697332707
71, ,PASS, ,0.020422699999999985, ,0.002462622212265532, ,0.04038044652905043, ,5.062220772426705e-05, ,1.8333333333333333, ,0.6236464335878724, ,0.5474582151384666, ,0.030529989183894206
72, ,PASS, ,0.043121339999999994, ,0.006517917263352385, ,0.04177752854860105, ,0.0002828002975524789, ,1.9166666666666667, ,0.7616731678691852, ,0.5582335054386646, ,0.0532029958572274
73, ,PASS, ,0.06588228399999997, ,0.009846753089387652, ,0.04399376421177119, ,0.0006519990654177366, ,1.9166666666666667, ,0.7630680312971864, ,0.5654578477990245, ,0.06669251647925553
74, ,PASS, ,0.07022740399999998, ,0.010633848249279335, ,0.04452789249609192, ,0.0007505131204160932, ,2.0, ,0.7679471432905357, ,0.5677843309320217, ,0.08067182302401991
75, ,PASS, ,0.06282476300000002, ,0.009485134614033825, ,0.043957079379686126, ,0.0005987243232671344, ,2.0, ,0.7696491234901475, ,0.5672129140221628, ,0.08750841819554703
76, ,PASS, ,0.04029891999999999, ,0.006174481562179526, ,0.04232236552641783, ,0.00025014032864309455, ,1.9166666666666667, ,0.7719302203122913, ,0.5610497744943981, ,0.07983510540601212
77, ,PASS, ,0.014966259999999988, ,0.0020450776084691208, ,0.04058615262525255, ,3.068891196545872e-05, ,1.75, ,0.6956852924691798, ,0.5517642497091896, ,0.05538662476275994
78, ,PASS, ,0.018607799999999973, ,0.002445502355744746, ,0.040519609844901126, ,4.5744656353946184e-05, ,1.8333333333333333, ,0.6641103674334926, ,0.5479888165547642, ,0.04540723658700843
79, ,PASS, ,0.044057720000000036, ,0.006863711002863171, ,0.04236732326074978, ,0.0003044462753349148, ,1.9166666666666667, ,0.7825400201614607, ,0.560294687863513, ,0.07016183343197077
80, ,PASS, ,0.067689056, ,0.010401850985644548, ,0.04420792547494949, ,0.0007083294194164312, ,2.0, ,0.779407928779088, ,0.5678659619191445, ,0.07752903001979551
81, ,PASS, ,0.07294623500000001, ,0.0112274524491012, ,0.0450087974797249, ,0.0008242382347813646, ,2.0, ,0.7801668344806869, ,0.5700495908246771, ,0.09444705210097754
82, ,PASS, ,0.06608987600000002, ,0.010165551423942083, ,0.04455334636072733, ,0.0006761572113244068, ,2.0, ,0.7802757555940028, ,0.5703148915328259, ,0.0943858288606355
83, ,PASS, ,0.04489133000000002, ,0.006959708137269173, ,0.04299107614293587, ,0.00031444043346857877, ,1.9166666666666667, ,0.7842279841386315, ,0.56562110977327, ,0.09191649150017346
84, ,PASS, ,0.017791679999999987, ,0.002463726381254845, ,0.040461028610436524, ,4.387542126957637e-05, ,1.8333333333333333, ,0.7029770534634013, ,0.5519683271769964, ,0.011734454398889819
85, ,PASS, ,0.005643009999999997, ,0.00013713991580034868, ,0.03976974867982286, ,8.776682984182728e-07, ,0.5833333333333334, ,0.17487135463783607, ,0.5896614354809085, ,0.006918226158649824
86, ,PASS, ,0.04293540000000001, ,0.006717709840556494, ,0.04241300006857003, ,0.00029041477028134377, ,1.9166666666666667, ,0.7812793615292247, ,0.5601110181424869, ,0.05912124242362401
87, ,PASS, ,0.067288108, ,0.01042760295716648, ,0.044532182366033346, ,0.0007061920947895154, ,2.0, ,0.7852436229899901, ,0.568723087283933, ,0.08826350482643211
88, ,PASS, ,0.07338442900000001, ,0.011390292630337584, ,0.045115013191792, ,0.0008417066100586476, ,1.9166666666666667, ,0.7855377957293651, ,0.5721515887430869, ,0.1032631987102304
89, ,PASS, ,0.066953453, ,0.010311178750298656, ,0.04477303207667191, ,0.0006949042405648062, ,2.0, ,0.7833059723918265, ,0.5715393563396666, ,0.10473255647843921
90, ,PASS, ,0.04412547000000002, ,0.0068657331841403355, ,0.04296361540866513, ,0.00030504379552603704, ,2.0, ,0.7880183377946942, ,0.5674169914899696, ,0.10218158813085447
91, ,PASS, ,0.015888549999999994, ,0.0022765351073475337, ,0.04095963798249016, ,3.6225411512822936e-05, ,1.8333333333333333, ,0.7284172288346076, ,0.5543764412971164, ,0.04793779718781249
92, ,PASS, ,0.017004760000000008, ,0.002388542770733701, ,0.04045027408889615, ,4.0846596938848505e-05, ,1.8333333333333333, ,0.711371100044303, ,0.5497234750311218, ,0.05942735862533418
93, ,PASS, ,0.04319314000000002, ,0.006907021493019335, ,0.04257131446256199, ,0.0003006880811978961, ,1.9166666666666667, ,0.7964081282089439, ,0.5622130160608967, ,0.0762433419726128
94, ,PASS, ,0.06720644599999999, ,0.010533529917903725, ,0.044726488227811674, ,0.0007131252374299545, ,2.0, ,0.7923562819890801, ,0.5703557070263873, ,0.0944878675945389
95, ,PASS, ,0.07363198000000003, ,0.011552874094933246, ,0.045641674036489055, ,0.0008572746940794689, ,1.9166666666666667, ,0.7923732137567122, ,0.5733556458031469, ,0.11497724536233954
96, ,PASS, ,0.067452518, ,0.010487456267607316, ,0.04507083728607579, ,0.0007130613843166819, ,1.9166666666666667, ,0.7895360102621746, ,0.573600538764515, ,0.11395685802330564
97, ,PASS, ,0.04332383000000001, ,0.006804153591638386, ,0.04294551228281056, ,0.0002971407295958539, ,2.0, ,0.7928428616537634, ,0.5676210689577764, ,0.1048345952123426
98, ,PASS, ,0.014134939999999999, ,0.002082134464063311, ,0.04066659371665885, ,2.9553560430516667e-05, ,1.8333333333333333, ,0.7493557441221252, ,0.5557029448378604, ,0.06442725658660027
99, ,PASS, ,0.017077480000000006, ,0.002539342189402296, ,0.04067843391134875, ,4.357507242197679e-05, ,1.8333333333333333, ,0.746731795600627, ,0.5518254729495317, ,0.06867206791698129
100, ,PASS, ,0.04395014000000002, ,0.007137115329150967, ,0.04281125175139283, ,0.0003164695693803317, ,2.0, ,0.8095733946241669, ,0.5664986428848391, ,0.09518173098508194
101, ,PASS, ,0.06686212599999998, ,0.010648043810771508, ,0.045045781633231974, ,0.0007183459124727565, ,1.9166666666666667, ,0.8028479095210106, ,0.5737025774984184, ,0.11536499255117243
102, ,PASS, ,0.072939195, ,0.011551039187818675, ,0.045843267592620564, ,0.0008504237598102929, ,1.8333333333333333, ,0.7998983741206045, ,0.5768861859962041, ,0.12275259688577785
103, ,PASS, ,0.067240124, ,0.010580761196217552, ,0.045373401403440754, ,0.0007186239031863768, ,1.8333333333333333, ,0.7991514887896691, ,0.578416767004755, ,0.12481377931062632
104, ,PASS, ,0.043445180000000014, ,0.006857537795694723, ,0.04328268326585172, ,0.00030082801655527435, ,1.9166666666666667, ,0.8021580872732631, ,0.5738658394726638, ,0.12456888634925818
105, ,PASS, ,0.013011580000000002, ,0.0019808211205248087, ,0.04075820814799699, ,2.586976364748524e-05, ,1.8333333333333333, ,0.7676897091754655, ,0.5580906512111997, ,0.052305054998877575
106, ,PASS, ,0.013197070000000005, ,0.001961372418298755, ,0.040400474545621526, ,2.6002503212032064e-05, ,1.75, ,0.743537690798084, ,0.5508867165976205, ,0.0557947796983735
107, ,PASS, ,0.04133003999999996, ,0.0066947252543922715, ,0.04288561862227302, ,0.00027927895053650833, ,2.0, ,0.8093409395074612, ,0.5663353809105937, ,0.09442664435419686
108, ,PASS, ,0.06618313100000003, ,0.010580230480971588, ,0.044967108704720316, ,0.0007067106854661566, ,1.9166666666666667, ,0.8046558271037432, ,0.5749678577988204, ,0.11860982428930023
109, ,PASS, ,0.07316301499999998, ,0.011594977752907666, ,0.045792734871125076, ,0.0008568351282866613, ,1.75, ,0.8016746568510764, ,0.579049407154956, ,0.13087488010448767
110, ,PASS, ,0.06722937600000001, ,0.010479525607260124, ,0.0453271481169772, ,0.0007119271060746959, ,1.75, ,0.7938780417360813, ,0.5794167465970083, ,0.1138956347829636
111, ,PASS, ,0.041764759999999984, ,0.0066048535071315684, ,0.04317953801534662, ,0.00027847942309091483, ,1.8333333333333333, ,0.8008546234836647, ,0.5740699169404706, ,0.12189547152098937
112, ,PASS, ,0.012759170000000028, ,0.001917523127028093, ,0.04061240460419176, ,2.456496508298305e-05, ,1.8333333333333333, ,0.7629831699959388, ,0.5587232913614008, ,0.03406052937695149
113, ,PASS, ,0.010279510000000026, ,0.001405995486587027, ,0.040180605407644746, ,1.4529414444556064e-05, ,1.8333333333333333, ,0.6829511480923459, ,0.5480296320483256, ,0.02253015244586845
114, ,PASS, ,0.03816795999999998, ,0.0061246606950457316, ,0.04240860930123875, ,0.0002356982911503299, ,1.9166666666666667, ,0.8014614900111922, ,0.5638864512969123, ,0.08434521744454195
115, ,PASS, ,0.06452567199999999, ,0.01016057621758494, ,0.04478028209934491, ,0.0006610539031768988, ,1.9166666666666667, ,0.7973693546236806, ,0.5733964612967082, ,0.10612028325952531
116, ,PASS, ,0.07163359100000001, ,0.011216173004536908, ,0.04574708123656661, ,0.0008107881488991968, ,1.8333333333333333, ,0.7945030465939517, ,0.5775800493867472, ,0.11744658272280158
117, ,PASS, ,0.06529479300000002, ,0.010095982539746359, ,0.045323254501948934, ,0.0006654562959751696, ,1.75, ,0.7894599810817136, ,0.5787024754596845, ,0.10120201628538193
118, ,PASS, ,0.039230420000000016, ,0.006152573032349001, ,0.042864702663006876, ,0.00024363633612133973, ,1.9166666666666667, ,0.7974906517430946, ,0.5732536070692434, ,0.12020162853819309
119, ,PASS, ,0.010192110000000004, ,0.001513201151639512, ,0.04047669128058611, ,1.550055277264255e-05, ,1.8333333333333333, ,0.7402810064576772, ,0.554845819473072, ,0.051060182445256216
198, ,FAIL, ,0.030014190000000013, ,0.0017234831443006264, ,0.039188333800330606, ,5.38761820183023e-05, ,1.0, ,0.28747329637251245, ,0.4966225179077978, ,0.016856798840839984
199, ,FAIL, ,0.023562668000000005, ,0.00201809530637393, ,0.040652589921022025, ,4.9851803839320696e-05, ,1.9166666666666667, ,0.6971229303089985, ,0.5402338727781065, ,0.0006326401502010163
200, ,FAIL, ,0.02329921, ,0.002081225936067358, ,0.04045261108528398, ,5.088800521601809e-05, ,1.9166666666666667, ,0.6854568302444897, ,0.5414583375849472, ,0.0008163098712271178
201, ,PASS, ,0.03231098000000002, ,0.004809341576534586, ,0.04068139803595846, ,0.00016106844856036802, ,1.9166666666666667, ,0.8138535802138329, ,0.5438868594518479, ,0.012795657231485071
202, ,PASS, ,0.03430115, ,0.004682844379350347, ,0.04057568073651559, ,0.00016718315127464158, ,1.8333333333333333, ,0.7932143391686169, ,0.5446827615762944, ,0.013224219913879308
203, ,PASS, ,0.038172489999999976, ,0.0057809478931625064, ,0.04072108906165181, ,0.0002286169412657832, ,1.8333333333333333, ,0.8237746600719686, ,0.5462949735719679, ,0.020407746780677947
204, ,PASS, ,0.07093727645000002, ,0.01039967086808046, ,0.041122087237586986, ,0.0007608172087229224, ,1.8333333333333333, ,0.8466473901489973, ,0.5528866757821269, ,0.02691781800371421
205, ,PASS, ,0.07794715700000002, ,0.011241823709944167, ,0.0411030029586539, ,0.0009019117803549582, ,1.8333333333333333, ,0.8459784626171749, ,0.5544784800310197, ,0.02663210954878472
206, ,PASS, ,0.08189989300000002, ,0.01155505116939188, ,0.04103822733638068, ,0.0009744992402565497, ,1.8333333333333333, ,0.843859671291229, ,0.5546009265117039, ,0.028815738454317258
207, ,PASS, ,0.087499037, ,0.01250825826363094, ,0.04121816159219465, ,0.0011240833656015825, ,1.8333333333333333, ,0.8475507248241999, ,0.5568661864043591, ,0.027428011673231157
208, ,PASS, ,0.07327851040000001, ,0.010293331557593556, ,0.041052363162221175, ,0.000778567633469453, ,1.8333333333333333, ,0.8352313186714183, ,0.5528662680353462, ,0.026570886308442686
209, ,PASS, ,0.065778773, ,0.009294690155475575, ,0.04089347348625539, ,0.0006316911876187319, ,1.8333333333333333, ,0.836198925265893, ,0.5526009673271974, ,0.027468827166792515
210, ,PASS, ,0.06132586599999997, ,0.008454020174511473, ,0.040804819424297464, ,0.0005364546298435551, ,1.8333333333333333, ,0.826264086224307, ,0.5519479194302157, ,0.02312197710250811
211, ,PASS, ,0.06909111019000001, ,0.0098069004770717, ,0.04105882248350034, ,0.0006992250529704733, ,1.8333333333333333, ,0.8355605848146638, ,0.5533356462113018, ,0.027346380686108448
212, ,PASS, ,0.07211162343000004, ,0.010109514805936855, ,0.04096824822164854, ,0.000750893005589641, ,1.8333333333333333, ,0.8424964025785413, ,0.554968265953756, ,0.030223872982184038
213, ,PASS, ,0.08677838800000001, ,0.01230982526901477, ,0.041152406672290365, ,0.0010948746183741221, ,1.8333333333333333, ,0.8471044183844483, ,0.5574580110609988, ,0.02908103916246607
214, ,PASS, ,0.08810012500000003, ,0.012477275912129741, ,0.041439765775387445, ,0.0011276228441013945, ,1.8333333333333333, ,0.8428376302976991, ,0.5577845350094897, ,0.027570865900695903
215, ,PASS, ,0.10525462999999999, ,0.015250672948695403, ,0.04199752338156365, ,0.0016346665971803645, ,1.9166666666666667, ,0.8535763419986826, ,0.5619068998591865, ,0.03440746107222301
216, ,PASS, ,0.086082679, ,0.01245520546186363, ,0.04139235805555213, ,0.001099008403719819, ,1.8333333333333333, ,0.846322818790488, ,0.5568049631640171, ,0.03028509622252607
217, ,PASS, ,0.09234749000000002, ,0.013653808199824853, ,0.04182404942795045, ,0.0012870294981745542, ,1.8333333333333333, ,0.8528203359679379, ,0.5590294075631109, ,0.03483602375461725
218, ,PASS, ,0.09259396000000002, ,0.013683472483356945, ,0.0415903006311708, ,0.0012927968088291537, ,1.8333333333333333, ,0.8514694977622693, ,0.5587641068549621, ,0.03267280259586539
219, ,PASS, ,0.09170642000000002, ,0.01358327160015948, ,0.04161434037148222, ,0.001267611045933917, ,1.8333333333333333, ,0.8517626102558862, ,0.5585396216403747, ,0.029815718046570478
220, ,PASS, ,0.055333164000000004, ,0.008185173653914041, ,0.04050858719128181, ,0.0004665218129276852, ,1.8333333333333333, ,0.8296116306843854, ,0.5499275524989286, ,0.026101508132487093
221, ,PASS, ,0.06062130199999999, ,0.009077739214204152, ,0.040540345838044126, ,0.0005655482605553849, ,1.8333333333333333, ,0.8384316175675326, ,0.5516622109752862, ,0.02969327156588641
222, ,PASS, ,0.05138276200000001, ,0.007664771998610193, ,0.04054977118630232, ,0.00040647784888575827, ,1.8333333333333333, ,0.8317584208663078, ,0.5504377461684455, ,0.02506071304667252
223, ,PASS, ,0.06219546899999996, ,0.00970508870438784, ,0.040856988617497605, ,0.0006199569833892606, ,1.8333333333333333, ,0.8494098053538431, ,0.5532744229709597, ,0.03352992796065386
224, ,PASS, ,0.04937760000000003, ,0.007955855273357999, ,0.0407911158735536, ,0.0004029172824937694, ,1.8333333333333333, ,0.840612013179632, ,0.5501724454602968, ,0.027856574355625396
225, ,PASS, ,0.03530701, ,0.0055108796510869714, ,0.04031419929838167, ,0.00020042601270219235, ,1.8333333333333333, ,0.821646174914511, ,0.5469072059753882, ,0.024407665149690824
226, ,PASS, ,0.03887992999999999, ,0.006300980040180475, ,0.04055454364951736, ,0.0002523811833977144, ,1.8333333333333333, ,0.8341833141001354, ,0.5471316911899757, ,0.028183098304116243
227, ,PASS, ,0.026202490000000023, ,0.003961251399057538, ,0.039972693360747734, ,0.00010735697738054304, ,1.8333333333333333, ,0.8003026809883939, ,0.5437848207179445, ,0.019550621415889473
228, ,FAIL, ,0.025355599999999992, ,0.0027877054011536976, ,0.039875070703250956, ,7.352365948357739e-05, ,1.9166666666666667, ,0.7346083604660459, ,0.5418256770269995, ,0.0009795718454725414
229, ,FAIL, ,0.025658679999999996, ,0.0028729583218035344, ,0.03935902151874452, ,7.373173465352034e-05, ,1.75, ,0.570180425807758, ,0.5427236178853493, ,0.03720332238117589
