Channel, ,Pass/Fail, ,Amplitude, ,Sorting Function Response, ,Mean, ,Variance, ,NPeaksRatio, ,PosIntegralRatio, ,ToT50, ,ToT99
0, ,PASS, ,0.020574739999999994, ,0.0020598126954752384, ,0.033305813449113285, ,4.285592774585158e-05, ,1.5, ,0.5375947426297646, ,0.5909879390216526, ,0.052284647252096896
1, ,PASS, ,0.020614929999999976, ,0.002029850878909621, ,0.03345013714924185, ,4.1831957484612416e-05, ,1.5, ,0.5230984999224338, ,0.581457521275076, ,0.04401950980592233
2, ,PASS, ,0.020788629999999992, ,0.0020659385059695794, ,0.03351041097324544, ,4.308993302606824e-05, ,1.5, ,0.5296395075131006, ,0.5824166853737679, ,0.042774637252300976
3, ,PASS, ,0.02052662999999999, ,0.00203994101841381, ,0.03335316226893329, ,4.2211577745275835e-05, ,1.5833333333333333, ,0.5438074675177594, ,0.5913348707169241, ,0.04718271055692741
4, ,PASS, ,0.02067751, ,0.002070226273941192, ,0.03350466688557376, ,4.294425329855782e-05, ,1.5833333333333333, ,0.5338901809249079, ,0.5874369910818147, ,0.04865206832513622
5, ,PASS, ,0.020604479999999984, ,0.002105973230365874, ,0.033422294955205, ,4.341145614021836e-05, ,1.5833333333333333, ,0.5441969029575268, ,0.5847431685067652, ,0.05401930572845452
6, ,PASS, ,0.020866769999999996, ,0.0020891496931717025, ,0.033286930467133324, ,4.367023724579437e-05, ,1.5833333333333333, ,0.5334242685466777, ,0.5848452072406686, ,0.0407134548274525
7, ,PASS, ,0.020180529999999995, ,0.0020229494720462237, ,0.033394444610926305, ,4.0974243615233866e-05, ,1.5833333333333333, ,0.5333577835539178, ,0.5852941776698435, ,0.04930511622211792
8, ,PASS, ,0.020424119999999994, ,0.0020435647999283157, ,0.033333320319585316, ,4.183465575468467e-05, ,1.5833333333333333, ,0.5299376180242034, ,0.5839472663823188, ,0.0405297851064264
9, ,PASS, ,0.02027627, ,0.0020112176086368983, ,0.0330839285255403, ,4.0792948059966584e-05, ,1.5, ,0.5210330244944877, ,0.5783351360176323, ,0.04628476969857758
10, ,PASS, ,0.020377660000000006, ,0.002040499696117792, ,0.032964512675863755, ,4.144299887786236e-05, ,1.4166666666666667, ,0.5167864611462485, ,0.574804595824575, ,0.038591049162262
11, ,PASS, ,0.020338160000000004, ,0.001988168850550416, ,0.033250570101222426, ,4.039066822126467e-05, ,1.4166666666666667, ,0.5110421167523748, ,0.5751107120262852, ,0.06030489173690333
12, ,PASS, ,0.020357290000000004, ,0.0020040017444312797, ,0.033434341134466646, ,4.07497801253252e-05, ,1.5, ,0.5175842248571048, ,0.5888043101161201, ,0.037080875900491826
13, ,PASS, ,0.02019498, ,0.0020270749597869914, ,0.03344485873676047, ,4.086860847670155e-05, ,1.5, ,0.5298855973094364, ,0.5818044529703476, ,0.04752964225219893
14, ,PASS, ,0.02000188, ,0.002002952887213631, ,0.03336369533356462, ,3.996933314001727e-05, ,1.5833333333333333, ,0.5259256332021287, ,0.5833554417256791, ,0.040795085814575215
15, ,PASS, ,0.020096660000000002, ,0.0019408197615051203, ,0.033380674873982163, ,3.916010442029828e-05, ,1.5, ,0.5115434481091352, ,0.584375829064713, ,0.041672618926144364
16, ,PASS, ,0.01977706999999999, ,0.001973805582127693, ,0.03337735098957164, ,3.9129378638324095e-05, ,1.5833333333333333, ,0.5308836891447632, ,0.5856207016183343, ,0.04240729781024877
17, ,PASS, ,0.01981620999999999, ,0.001996374561762047, ,0.03328016487479847, ,3.953543265167112e-05, ,1.5833333333333333, ,0.5387209336867607, ,0.5844166445582744, ,0.04218281259566131
18, ,PASS, ,0.019758319999999992, ,0.001988007130251181, ,0.03336787035570703, ,3.932781656973544e-05, ,1.5, ,0.5288627286984342, ,0.5834370727128018, ,0.0439582865655803
19, ,PASS, ,0.01974247, ,0.001931201623430831, ,0.03339716484275831, ,3.8202053579268935e-05, ,1.5, ,0.5192122959787553, ,0.5804371339360421, ,0.04550927532091182
20, ,PASS, ,0.019863189999999985, ,0.0019777320729878188, ,0.033411922818922066, ,3.940448400986273e-05, ,1.5, ,0.5252234707408749, ,0.5843146058243709, ,0.04103997877594335
21, ,PASS, ,0.01979775999999999, ,0.0020110935869588815, ,0.03354640295565396, ,3.989165618311031e-05, ,1.5, ,0.5368091857693387, ,0.5841513438501255, ,0.05712128323911757
22, ,PASS, ,0.019593759999999984, ,0.0019697949854922303, ,0.03331809148384727, ,3.8611935576621925e-05, ,1.5833333333333333, ,0.5304206673553452, ,0.5817636374767862, ,0.04508071263851758
23, ,PASS, ,0.019683930000000002, ,0.0019937725477175094, ,0.0333300160990592, ,3.9269979326814745e-05, ,1.5833333333333333, ,0.539773558533349, ,0.5825391318544519, ,0.03569314911940573
24, ,PASS, ,0.01972161, ,0.0019457362604883997, ,0.0333353887283933, ,3.8540209245084564e-05, ,1.5, ,0.5303777331084557, ,0.582028938184935, ,0.03936654353992776
25, ,PASS, ,0.019988030000000007, ,0.0019735473059757434, ,0.033489947537397195, ,3.95236537938146e-05, ,1.5, ,0.5311418239792496, ,0.5846411297728618, ,0.042366482316687416
26, ,PASS, ,0.019809829999999997, ,0.001973830084205751, ,0.03329388555560091, ,3.915192385472482e-05, ,1.5, ,0.5293137546824229, ,0.583171772004653, ,0.04683577886165589
27, ,PASS, ,0.019723739999999993, ,0.0019760516189257986, ,0.033391984204812146, ,3.915586180912652e-05, ,1.5, ,0.5298462135613737, ,0.5828656558029428, ,0.04489704291749148
28, ,PASS, ,0.019776479999999996, ,0.0020008902685886946, ,0.03331169982816677, ,3.9568543285889026e-05, ,1.5, ,0.5357984602170366, ,0.5837431889145119, ,0.055958041672618926
29, ,PASS, ,0.019920659999999986, ,0.0020519918517065074, ,0.03320347946143956, ,4.0604978913859735e-05, ,1.5, ,0.5375124149186825, ,0.5764168078202485, ,0.04720311830370809
30, ,PASS, ,0.019782109999999995, ,0.001989611710751559, ,0.03347309344564397, ,3.936486542607495e-05, ,1.5833333333333333, ,0.5331366085085569, ,0.5819268994510316, ,0.050692843003204015
31, ,PASS, ,0.019922210000000003, ,0.0019413816425692633, ,0.03336477551662211, ,3.912056730643036e-05, ,1.5, ,0.5207291275579183, ,0.5839676741290994, ,0.04310116120079182
32, ,PASS, ,0.019835020000000002, ,0.002011986427726025, ,0.03344759576967817, ,3.9869414355496855e-05, ,1.5833333333333333, ,0.5387677135813119, ,0.5837023734209505, ,0.050652027509642664
33, ,PASS, ,0.019583739999999985, ,0.001987691809861468, ,0.03328629166670068, ,3.894376279710376e-05, ,1.5833333333333333, ,0.5456683238969717, ,0.587416583335034, ,0.05336625783147283
34, ,PASS, ,0.020056449999999993, ,0.002013814167286353, ,0.033374309985306425, ,4.048031758349971e-05, ,1.5, ,0.5351705427715827, ,0.5854574396440889, ,0.043652170363870126
35, ,PASS, ,0.019767469999999992, ,0.0020234422564206255, ,0.033380694760923244, ,4.001271596411738e-05, ,1.5, ,0.5360776869188386, ,0.5828452480561621, ,0.05244790922634232
36, ,PASS, ,0.020023429999999995, ,0.00197739777037776, ,0.03351915885777841, ,3.981938324169227e-05, ,1.5, ,0.5295291507448147, ,0.5855594783779923, ,0.046141915471112835
37, ,PASS, ,0.019893829999999998, ,0.002019156956494231, ,0.033513887728821856, ,4.0067007698245186e-05, ,1.5833333333333333, ,0.5327425175886208, ,0.5825595396012326, ,0.04097875553560131
38, ,PASS, ,0.020028179999999993, ,0.002013518048552093, ,0.033283916544152164, ,4.037272077851452e-05, ,1.5, ,0.5312954254275182, ,0.5841513438501255, ,0.050631619762861985
39, ,PASS, ,0.02032704, ,0.002027341263677718, ,0.03325531936674762, ,4.157479244955212e-05, ,1.5833333333333333, ,0.5382464640157264, ,0.5872125058672272, ,0.04752964225219893
40, ,PASS, ,0.02070406, ,0.0020928670042897187, ,0.03317248463643599, ,4.3792100989799365e-05, ,1.5833333333333333, ,0.5476833776874487, ,0.5883349319401645, ,0.05052958102895859
41, ,PASS, ,0.04457298300000001, ,0.005368404888048643, ,0.03542590548111263, ,0.0002415239380136414, ,1.8333333333333333, ,0.6711280638780169, ,0.5960082447296994, ,0.06520275096426603
42, ,PASS, ,0.021613339999999984, ,0.002228371731051045, ,0.03337513180669782, ,4.8647405156302276e-05, ,1.6666666666666667, ,0.5505153017701584, ,0.5877431072835249, ,0.043182792187914536
43, ,PASS, ,0.020971109999999994, ,0.0021576436024707477, ,0.033310958657374344, ,4.5210566989495775e-05, ,1.5833333333333333, ,0.5400314399236671, ,0.5831921797514337, ,0.04963164017060876
44, ,PASS, ,0.02086097, ,0.0021285436135897525, ,0.03323397365768046, ,4.4467712231505855e-05, ,1.5833333333333333, ,0.5435851117153833, ,0.5854166241505275, ,0.04189710414073182
45, ,PASS, ,0.020780760000000006, ,0.0021397096517473016, ,0.033225449995918456, ,4.4858403588916515e-05, ,1.6666666666666667, ,0.5568222361411512, ,0.5895185812534438, ,0.04030529989183894
46, ,PASS, ,0.020993819999999996, ,0.0021155774115503936, ,0.033655574309095736, ,4.45435156098702e-05, ,1.6666666666666667, ,0.5769547773181646, ,0.6054570314891533, ,0.04138691047121487
47, ,PASS, ,0.02076673999999999, ,0.002122780858974449, ,0.03334368072794432, ,4.441798866776804e-05, ,1.6666666666666667, ,0.5490612293538519, ,0.5886614558886554, ,0.04912144650109181
48, ,PASS, ,0.020587140000000007, ,0.0020858770829056314, ,0.03311380366870064, ,4.305584096115503e-05, ,1.5833333333333333, ,0.5383387865315359, ,0.5863961959960001, ,0.0431215689475725
49, ,PASS, ,0.020603809999999997, ,0.00208429868211592, ,0.03322833459786535, ,4.35070872147897e-05, ,1.5, ,0.5520727929242257, ,0.5804371339360421, ,0.04306034570723046
50, ,PASS, ,0.020478159999999992, ,0.002072785044930495, ,0.03319896989347156, ,4.257352445105893e-05, ,1.6666666666666667, ,0.5452161140664941, ,0.5859268178200445, ,0.04761127323932165
51, ,PASS, ,0.020641140000000016, ,0.0021595568023994294, ,0.0334768293714414, ,4.537221361615285e-05, ,1.5, ,0.5725910859468629, ,0.5999673476051509, ,0.04677455562131385
52, ,PASS, ,0.02053684999999999, ,0.0021688612464447993, ,0.0334789328366768, ,4.5230080581995536e-05, ,1.5, ,0.5764470613257374, ,0.601293851145895, ,0.05161119160833452
53, ,PASS, ,0.020522009999999997, ,0.0021106399574151386, ,0.03321991251403033, ,4.3749756191703904e-05, ,1.6666666666666667, ,0.5557338924972903, ,0.5888859411032428, ,0.0443256260076325
54, ,PASS, ,0.020583240000000003, ,0.0021331977641471695, ,0.03343018835554377, ,4.472165801094911e-05, ,1.5, ,0.5660031636066435, ,0.5984979898369421, ,0.04014203791759352
55, ,PASS, ,0.020581719999999994, ,0.002152251983758024, ,0.03316854970102651, ,4.444318926448918e-05, ,1.6666666666666667, ,0.558516272769285, ,0.5857635558457991, ,0.05871308748801045
56, ,PASS, ,0.02030603999999999, ,0.0020966483647106957, ,0.03320771788126773, ,4.30201838683887e-05, ,1.6666666666666667, ,0.5599813844717543, ,0.5892328727985143, ,0.05954980510601825
57, ,PASS, ,0.020442309999999995, ,0.0021060047074719177, ,0.03326566819636334, ,4.364778608517129e-05, ,1.5833333333333333, ,0.557730006743651, ,0.5911920164894594, ,0.05044795004183588
58, ,PASS, ,0.020674329999999998, ,0.002181700259403002, ,0.033550409624497464, ,4.5574989111788095e-05, ,1.5833333333333333, ,0.5779662439859896, ,0.603069325115814, ,0.03944817452705047
59, ,PASS, ,0.020417749999999995, ,0.002076501111008505, ,0.03334133720597539, ,4.271043844508824e-05, ,1.5, ,0.5493146004273743, ,0.5963551764249709, ,0.03557070263872166
60, ,PASS, ,0.02041414, ,0.0021035456536525575, ,0.03343803080039183, ,4.327573669834872e-05, ,1.6666666666666667, ,0.553166919865035, ,0.5889471643435849, ,0.046570478153507074
61, ,PASS, ,0.020603739999999995, ,0.0021409886326712, ,0.03332825932042203, ,4.45912000996034e-05, ,1.6666666666666667, ,0.5576631331742796, ,0.5898451052019347, ,0.052223424011754865
62, ,PASS, ,0.02058273, ,0.0021475571391249173, ,0.03363060269504704, ,4.4922396745574546e-05, ,1.4166666666666667, ,0.5705822047955723, ,0.6081712618109835, ,0.033734005428460646
63, ,PASS, ,0.020536760000000005, ,0.0021304941835135907, ,0.033370843727679025, ,4.397134217572968e-05, ,1.6666666666666667, ,0.5502422764890934, ,0.5870900593865431, ,0.05014183384012571
64, ,PASS, ,0.02072276, ,0.002149537606220127, ,0.03327673651272423, ,4.473007047471933e-05, ,1.6666666666666667, ,0.5544316013727082, ,0.586212526274974, ,0.046570478153507074
65, ,PASS, ,0.020656450000000003, ,0.0021671878887595474, ,0.03337446578457583, ,4.559794898988444e-05, ,1.5, ,0.5730640039886594, ,0.5994775616824146, ,0.048305136629864694
66, ,PASS, ,0.020318769999999996, ,0.0021315464481377507, ,0.03336159329891227, ,4.384505742666671e-05, ,1.5833333333333333, ,0.5744355393128707, ,0.590518560845697, ,0.054692761372216896
67, ,PASS, ,0.020568799999999995, ,0.002169421058301283, ,0.03353164213403809, ,4.5140921474982234e-05, ,1.6666666666666667, ,0.5719389242488763, ,0.5948041876696394, ,0.04879492255260097
68, ,PASS, ,0.020546740000000004, ,0.002177084088245848, ,0.03353775322687292, ,4.5415505835432905e-05, ,1.4166666666666667, ,0.5765343180600659, ,0.5992326687210465, ,0.04838676761698741
69, ,PASS, ,0.02096752999999999, ,0.002176053146135772, ,0.033603573451358136, ,4.615910333024361e-05, ,1.6666666666666667, ,0.5535973395785908, ,0.5987836982918716, ,0.02869329197363319
70, ,PASS, ,0.02047462, ,0.002165168300673542, ,0.033467943925430094, ,4.5040599377591805e-05, ,1.5, ,0.5786868615509796, ,0.6028652476480072, ,0.04636640068570029
71, ,PASS, ,0.020590260000000003, ,0.0021815902548017545, ,0.03344436679680007, ,4.527305748911761e-05, ,1.6666666666666667, ,0.5677983096094416, ,0.5924164812963001, ,0.048631660578355544
72, ,PASS, ,0.020685919999999983, ,0.0022200607853933786, ,0.03352280222281178, ,4.658061071543823e-05, ,1.4166666666666667, ,0.5873340581250106, ,0.6074569906736598, ,0.05285606416195588
73, ,PASS, ,0.020514229999999998, ,0.0021892946785038903, ,0.03348325895124589, ,4.555513111587787e-05, ,1.5, ,0.580190495457294, ,0.5992122609742658, ,0.050998959204914186
74, ,PASS, ,0.020887369999999992, ,0.0021857545595405765, ,0.03328013383461562, ,4.611481288693748e-05, ,1.6666666666666667, ,0.5669007081776858, ,0.5910491622619947, ,0.03985632946266403
75, ,PASS, ,0.020693989999999992, ,0.0021722688444363635, ,0.03336490893328708, ,4.516365371212632e-05, ,1.6666666666666667, ,0.566331268289501, ,0.5869676129058591, ,0.051876492316483336
76, ,PASS, ,0.02086862000000001, ,0.00216074312280445, ,0.03325658905573355, ,4.544740116056874e-05, ,1.6666666666666667, ,0.5582792523182594, ,0.5896818432276892, ,0.042448113303810125
77, ,PASS, ,0.021096930000000003, ,0.0022439488579855775, ,0.033378132070978145, ,4.757070227912359e-05, ,1.6666666666666667, ,0.5674162728230447, ,0.5865390502234649, ,0.04183588090038979
78, ,PASS, ,0.020588769999999992, ,0.002130275400176296, ,0.03333506009836534, ,4.406302382603051e-05, ,1.6666666666666667, ,0.5518306548701677, ,0.5864370114895614, ,0.04924389298177588
79, ,PASS, ,0.02104170000000001, ,0.0021280233695075194, ,0.03332565535560499, ,4.5226435283364065e-05, ,1.6666666666666667, ,0.5486028941085783, ,0.5894573580131017, ,0.03906042733821759
80, ,PASS, ,0.021126599999999985, ,0.0021895409474589774, ,0.03315455825677027, ,4.6556480570772575e-05, ,1.6666666666666667, ,0.5516392798208231, ,0.5890900185710496, ,0.05152956062121181
81, ,PASS, ,0.02076848999999999, ,0.0021681678122351922, ,0.03312237338054325, ,4.550250136848864e-05, ,1.6666666666666667, ,0.5574611135067837, ,0.5888655333564621, ,0.05618252688720638
82, ,PASS, ,0.020993269999999987, ,0.0021863959426217184, ,0.03320886897777597, ,4.6239320209925736e-05, ,1.6666666666666667, ,0.5614432604835582, ,0.5886614558886554, ,0.0341421603640742
83, ,PASS, ,0.021366760000000002, ,0.002201145510924045, ,0.03332033065508867, ,4.753446752128438e-05, ,1.6666666666666667, ,0.5549056791826978, ,0.5899879594293994, ,0.023468908797779638
84, ,PASS, ,0.021137149999999987, ,0.0021951479429780096, ,0.03320065600171425, ,4.652222807236479e-05, ,1.6666666666666667, ,0.5539068732481732, ,0.5862329340217547, ,0.04883573804616232
85, ,PASS, ,0.02159555000000001, ,0.0022883105672970626, ,0.03360094470684272, ,4.988578247658991e-05, ,1.6666666666666667, ,0.5575921788281053, ,0.6016611905879472, ,0.04132568723087284
86, ,PASS, ,0.020895600000000004, ,0.002177781508269901, ,0.033446864386645174, ,4.622908258600128e-05, ,1.4166666666666667, ,0.5720539967420484, ,0.6003550947939837, ,0.0419175118875125
87, ,PASS, ,0.021066909999999984, ,0.0022042095760138767, ,0.03315869264055835, ,4.69339393175573e-05, ,1.6666666666666667, ,0.557266104492893, ,0.5883349319401645, ,0.05512132405461113
88, ,PASS, ,0.02125752, ,0.0021751518085223846, ,0.03350863673292382, ,4.682839697963993e-05, ,1.6666666666666667, ,0.5474569057903962, ,0.5912736474765821, ,0.042876675986204364
89, ,PASS, ,0.021361319999999996, ,0.002177188343625586, ,0.033487965403971344, ,4.740308404978406e-05, ,1.5, ,0.5554066809519091, ,0.5939674700516316, ,0.03706046815371115
90, ,PASS, ,0.021209480000000003, ,0.0022058001565413133, ,0.0334815952549948, ,4.753309514685673e-05, ,1.5, ,0.5663026627475409, ,0.6010285504377462, ,0.050631619762861985
91, ,PASS, ,0.021302339999999986, ,0.002224221547795933, ,0.03342779213730332, ,4.811634496183821e-05, ,1.4166666666666667, ,0.572359859174996, ,0.6039468582273831, ,0.04677455562131385
92, ,PASS, ,0.021221019999999983, ,0.00225699398201587, ,0.03357544760045714, ,4.8601690905975136e-05, ,1.4166666666666667, ,0.583784145555754, ,0.6081916695577642, ,0.05448868390441011
93, ,PASS, ,0.021320439999999993, ,0.0022212053276224977, ,0.03357088923634212, ,4.8239658539747294e-05, ,1.5, ,0.5659147420171559, ,0.5956409052876472, ,0.038325748454113184
94, ,PASS, ,0.021504339999999993, ,0.0022663176562482475, ,0.03346411611885471, ,4.9637840532763656e-05, ,1.5, ,0.5714229363889245, ,0.5999061243648088, ,0.0544070529172874
95, ,PASS, ,0.021404210000000003, ,0.002259679512416668, ,0.033520656531295275, ,4.912408707687447e-05, ,1.4166666666666667, ,0.5769751057966003, ,0.6019877145364381, ,0.04930511622211792
96, ,PASS, ,0.02142579, ,0.0023035317415691413, ,0.03374115401889757, ,4.998871704836535e-05, ,1.4166666666666667, ,0.5868306864637141, ,0.6077426991285892, ,0.05136629864696639
97, ,PASS, ,0.021511799999999987, ,0.002280223748683925, ,0.03354406202832595, ,4.974434017538988e-05, ,1.4166666666666667, ,0.5742897200681376, ,0.6054366237423726, ,0.04101957102916267
98, ,PASS, ,0.02154481000000001, ,0.002244932681580996, ,0.03361899187200261, ,4.9149729240512736e-05, ,1.4166666666666667, ,0.5666913815943385, ,0.6025795391930777, ,0.04479500418358809
99, ,PASS, ,0.021342660000000003, ,0.0022795173771653853, ,0.03359556371604661, ,4.938540733540662e-05, ,1.4166666666666667, ,0.5850165661271742, ,0.6065386420685293, ,0.05614171139364503
100, ,PASS, ,0.021675289999999993, ,0.0023035581547656593, ,0.03345522207710047, ,5.064147058932284e-05, ,1.4166666666666667, ,0.5754733086365688, ,0.6026815779269811, ,0.04257055978449419
101, ,PASS, ,0.022204239999999997, ,0.002345838408712477, ,0.03349625004571335, ,5.27327808818238e-05, ,1.4166666666666667, ,0.5742755271542964, ,0.598946960266117, ,0.0433052386685986
102, ,PASS, ,0.021479889999999998, ,0.0022965922424389583, ,0.03358985979653476, ,5.007208462285684e-05, ,1.5833333333333333, ,0.5828836261814008, ,0.5960490602232608, ,0.05050917328217792
103, ,PASS, ,0.02163572, ,0.0022793805386383437, ,0.03360879483479929, ,5.01594435499555e-05, ,1.4166666666666667, ,0.577058988433294, ,0.6010285504377462, ,0.050243872574029104
104, ,PASS, ,0.03387116999999999, ,0.004102683742077561, ,0.034945436497418415, ,0.00014134535826178064, ,1.8333333333333333, ,0.6767327102109049, ,0.5993755229485113, ,0.057223321973020956
105, ,PASS, ,0.03604766, ,0.004399642666438979, ,0.03525016828064733, ,0.0001612849813601396, ,1.8333333333333333, ,0.6784605448983058, ,0.6001102018326157, ,0.06197832697291892
106, ,PASS, ,0.024169019999999992, ,0.0025968088120245972, ,0.033689020272851575, ,6.379136113912185e-05, ,1.5, ,0.5846980829526498, ,0.6005183567682292, ,0.042080773861757924
107, ,PASS, ,0.02383169000000001, ,0.002601512095933599, ,0.03342061242811371, ,6.318442435439399e-05, ,1.5, ,0.5978832140337775, ,0.6020693455235607, ,0.059264096651088755
108, ,PASS, ,0.023529060000000015, ,0.0025186925257414225, ,0.034027743443399115, ,6.011101883278317e-05, ,1.5, ,0.5979244398740601, ,0.6142527703516255, ,0.04689700210199792
109, ,PASS, ,0.023795289999999993, ,0.0025980436702423637, ,0.033602797538621665, ,6.243495112293752e-05, ,1.6666666666666667, ,0.591234987383592, ,0.5932940144078692, ,0.04393787881879962
110, ,PASS, ,0.023438869999999997, ,0.0025318032755238173, ,0.03352668432052407, ,6.0066584088601315e-05, ,1.5833333333333333, ,0.581852950637155, ,0.5897226587212506, ,0.05432542193016469
111, ,PASS, ,0.023427860000000012, ,0.002613348749473306, ,0.03399630711005898, ,6.204585626491136e-05, ,1.5833333333333333, ,0.6130005229864064, ,0.6092324646435787, ,0.06373339319605723
112, ,PASS, ,0.023297059999999984, ,0.002629777204666835, ,0.03374407875676007, ,6.23197711276127e-05, ,1.5833333333333333, ,0.6116813701341689, ,0.5991306299871432, ,0.06344768474112773
113, ,PASS, ,0.023259189999999992, ,0.002557166456544203, ,0.033954889796330684, ,6.031373379665504e-05, ,1.5833333333333333, ,0.6002453984086668, ,0.6092732801371401, ,0.052264239505316216
114, ,PASS, ,0.02327437000000001, ,0.0025258133045030972, ,0.03371873627007612, ,6.002571628540923e-05, ,1.5833333333333333, ,0.5929770971449934, ,0.6039468582273831, ,0.05161119160833452
115, ,PASS, ,0.023270769999999993, ,0.0025697686785190474, ,0.03378649944592967, ,6.088043478886523e-05, ,1.5, ,0.6017694544593486, ,0.6021509765106835, ,0.0556111099773474
116, ,PASS, ,0.023544029999999997, ,0.0026211187257731885, ,0.03354053475745393, ,6.229923393856658e-05, ,1.5833333333333333, ,0.5947408880766222, ,0.586906389665517, ,0.0561621191404257
117, ,PASS, ,0.023273359999999993, ,0.0025379146462989723, ,0.033835940534887046, ,6.001481055494067e-05, ,1.5833333333333333, ,0.5934986915519092, ,0.5984979898369421, ,0.05334585008469215
118, ,PASS, ,0.023721830000000003, ,0.002611465821328358, ,0.033994475986204364, ,6.288493826310976e-05, ,1.4166666666666667, ,0.5968645844873758, ,0.6125385196220485, ,0.04791738944103181
119, ,PASS, ,0.023074709999999995, ,0.002547438477038401, ,0.03373074448480643, ,5.973656372156107e-05, ,1.6666666666666667, ,0.6062335844346951, ,0.5988041060386523, ,0.051815269076141306
120, ,PASS, ,0.023176250000000002, ,0.002532862820779978, ,0.03342271763678292, ,5.9064661680720736e-05, ,1.75, ,0.5843669320676224, ,0.5876002530560601, ,0.055488663496663336
121, ,PASS, ,0.02313716, ,0.0025286728546095793, ,0.0337406292763413, ,5.9677651440153534e-05, ,1.5833333333333333, ,0.6004430271649193, ,0.5968653700944878, ,0.05406012122201588
122, ,PASS, ,0.022856679999999987, ,0.00259319295209909, ,0.03397800970898553, ,6.017180897889678e-05, ,1.5833333333333333, ,0.6114413645991635, ,0.609212056896798, ,0.054794800106120284
123, ,PASS, ,0.02312381, ,0.0025742552559109644, ,0.0339622231509561, ,6.0456534336459883e-05, ,1.5833333333333333, ,0.6083354452623363, ,0.6093753188710435, ,0.05669272055672333
124, ,PASS, ,0.02275831, ,0.002563370270146923, ,0.033744119650619374, ,5.9354671108421745e-05, ,1.5, ,0.6204986046129412, ,0.6031101406093753, ,0.07046794963368094
125, ,PASS, ,0.023057099999999994, ,0.0025609251066798237, ,0.0336786957966164, ,5.9995266289120045e-05, ,1.6666666666666667, ,0.607231559084591, ,0.5996612314034407, ,0.05075406624354605
126, ,PASS, ,0.023114070000000014, ,0.0026002697271795524, ,0.03387309686475786, ,6.109210586393982e-05, ,1.5833333333333333, ,0.6145458166491602, ,0.6062733413603804, ,0.05742739944082774
127, ,PASS, ,0.023305439999999993, ,0.0026047439019367424, ,0.033872815436623745, ,6.160890163727698e-05, ,1.5833333333333333, ,0.6116711075775553, ,0.6096610273259729, ,0.05899879594293994
128, ,PASS, ,0.022593739999999984, ,0.002563543369157917, ,0.03416644701373441, ,5.883222942264603e-05, ,1.5833333333333333, ,0.614726216693472, ,0.6073345441929756, ,0.06557009040631824
129, ,PASS, ,0.02332647999999999, ,0.002581096591691759, ,0.034015030752025464, ,6.126693285018221e-05, ,1.5, ,0.6049383972147337, ,0.6041509356951899, ,0.0557947796983735
130, ,PASS, ,0.02303003999999999, ,0.002562195261814446, ,0.034147456576804555, ,5.9763662015020226e-05, ,1.5, ,0.6120679724153683, ,0.609212056896798, ,0.06267219036346197
131, ,PASS, ,0.023309360000000008, ,0.002559134498825938, ,0.03404509929838167, ,6.0293226222030726e-05, ,1.6666666666666667, ,0.5912177010742345, ,0.5931715679271852, ,0.05314177261688537
132, ,PASS, ,0.02396352000000001, ,0.002685897882341087, ,0.03411811374767862, ,6.543305913336584e-05, ,1.5833333333333333, ,0.611730933149975, ,0.607946776596396, ,0.044121548539825715
133, ,PASS, ,0.023098380000000012, ,0.0026221510279737415, ,0.034089051890369586, ,6.137858542549052e-05, ,1.5833333333333333, ,0.620286871657307, ,0.6107426379053489, ,0.06581498336768637
134, ,PASS, ,0.02343527000000002, ,0.0025404722239567076, ,0.03416815391216506, ,6.05982685693571e-05, ,1.5833333333333333, ,0.5987801895709737, ,0.5992734842146079, ,0.05493765433358503
135, ,PASS, ,0.02327394999999999, ,0.002604975743309168, ,0.03411070130976919, ,6.162703227795827e-05, ,1.5833333333333333, ,0.6129444741354516, ,0.6089059406950879, ,0.061815064998673494
136, ,PASS, ,0.023285630000000012, ,0.0026371034865180333, ,0.03433929116834351, ,6.233696981421363e-05, ,1.5833333333333333, ,0.6183032526021877, ,0.6093957266178242, ,0.05695802126487214
137, ,PASS, ,0.02352712000000001, ,0.002605029108452631, ,0.034086109558376355, ,6.237024571181258e-05, ,1.5833333333333333, ,0.6058041274233863, ,0.6023142384849289, ,0.051815269076141306
138, ,PASS, ,0.02346335000000001, ,0.002604320412614876, ,0.03407509699822453, ,6.202897621908696e-05, ,1.5833333333333333, ,0.6026143183494028, ,0.6093753188710435, ,0.051896900063264015
139, ,PASS, ,0.023269489999999997, ,0.0025671574685072157, ,0.03394971949286749, ,6.0838979558280595e-05, ,1.5833333333333333, ,0.6047367919661425, ,0.6044774596436807, ,0.0604273382175874
140, ,PASS, ,0.023430939999999994, ,0.002713801642374873, ,0.03434694108161058, ,6.4484403829938e-05, ,1.5833333333333333, ,0.6307591437494516, ,0.6104365217036387, ,0.066345584783984
141, ,PASS, ,0.023389369999999996, ,0.002671867429920798, ,0.03406748631456501, ,6.332824484813671e-05, ,1.5833333333333333, ,0.6200658144449323, ,0.6101304055019285, ,0.058529417766984344
142, ,PASS, ,0.023360299999999983, ,0.002623945742612814, ,0.03386629568886349, ,6.229750212845697e-05, ,1.5833333333333333, ,0.6111028057231631, ,0.6011918124119916, ,0.0561621191404257
143, ,PASS, ,0.02345725000000001, ,0.0026151765757890053, ,0.03424640490438971, ,6.226543890947e-05, ,1.5833333333333333, ,0.6151893672267245, ,0.6124568886349259, ,0.0443256260076325
144, ,PASS, ,0.023153149999999994, ,0.002606811987320977, ,0.03407565957776372, ,6.131020587191104e-05, ,1.5833333333333333, ,0.6099127395286785, ,0.6049876533131977, ,0.05297851064263995
145, ,PASS, ,0.023280220000000008, ,0.0026549875359415088, ,0.034159092130772846, ,6.269097032358472e-05, ,1.5833333333333333, ,0.6204618174326014, ,0.6098651047937798, ,0.06108038611456909
146, ,PASS, ,0.02339107, ,0.0026460733603079307, ,0.034091884068284325, ,6.272586206100196e-05, ,1.5833333333333333, ,0.6182693463216126, ,0.6100079590212445, ,0.054753984612558926
147, ,PASS, ,0.023293440000000002, ,0.002666536920569655, ,0.03403269767331279, ,6.302133964826899e-05, ,1.5833333333333333, ,0.6228334664909727, ,0.6066406808024326, ,0.07024346441909349
148, ,PASS, ,0.023421429999999997, ,0.002596015381299852, ,0.03411641133793188, ,6.153342734467435e-05, ,1.5, ,0.5957916884389882, ,0.5968857778412685, ,0.05948858186567621
149, ,PASS, ,0.023429790000000002, ,0.002615111774464325, ,0.034275547460664066, ,6.21931061729406e-05, ,1.5833333333333333, ,0.6155126203743612, ,0.6117834329911634, ,0.057978408603906045
150, ,PASS, ,0.023314639999999998, ,0.0026420132884354087, ,0.03436659879961633, ,6.237527604962252e-05, ,1.5833333333333333, ,0.6194429424086764, ,0.6095181730985082, ,0.06034570723046469
151, ,PASS, ,0.023515770000000002, ,0.002677912768343973, ,0.034209469919185324, ,6.395650681346187e-05, ,1.5833333333333333, ,0.6209000649100326, ,0.6137221689353278, ,0.055080508561049776
152, ,PASS, ,0.02328573, ,0.0026334787164923436, ,0.0342002443392992, ,6.208409566591478e-05, ,1.5833333333333333, ,0.6196968753428805, ,0.6088039019611845, ,0.06350890798146977
153, ,PASS, ,0.023520110000000014, ,0.002666471497072828, ,0.0341599765845595, ,6.355217821776808e-05, ,1.5833333333333333, ,0.6187161136634118, ,0.6067223117895553, ,0.051815269076141306
154, ,PASS, ,0.02378436000000001, ,0.002642313415164637, ,0.03412945913899716, ,6.384534251953825e-05, ,1.5833333333333333, ,0.6101608315916339, ,0.6071508744719496, ,0.05867227199444909
155, ,PASS, ,0.02358268000000001, ,0.0026678721061992685, ,0.03443506675945389, ,6.384384011740773e-05, ,1.5833333333333333, ,0.6161043136095581, ,0.6109671231199363, ,0.056855982530968754
156, ,PASS, ,0.023720640000000005, ,0.002606090810918404, ,0.03407753856553948, ,6.283655358656331e-05, ,1.5833333333333333, ,0.6037893678939227, ,0.5990898144935818, ,0.05583559519193486
157, ,PASS, ,0.023711009999999994, ,0.002665653237088716, ,0.03405182692169548, ,6.4355124380083e-05, ,1.5833333333333333, ,0.619510955728645, ,0.6029672863819105, ,0.05979469806738638
158, ,PASS, ,0.023831969999999994, ,0.002681949925981082, ,0.03401597230158568, ,6.486266581533444e-05, ,1.5833333333333333, ,0.6180141795462971, ,0.6092936878839207, ,0.04636640068570029
159, ,PASS, ,0.023932620000000005, ,0.002694170877942579, ,0.034224386655986615, ,6.543536032386833e-05, ,1.5833333333333333, ,0.609827170725464, ,0.6120283259525315, ,0.04591743025652538
160, ,PASS, ,0.02398283999999999, ,0.002699368318473721, ,0.03414320504908063, ,6.57174231672167e-05, ,1.5833333333333333, ,0.6181152537013173, ,0.609905920287341, ,0.05632538111467113
161, ,PASS, ,0.02379205, ,0.0026864837107196163, ,0.034139148138813497, ,6.487743013915542e-05, ,1.5833333333333333, ,0.6190209377926689, ,0.6101916287422706, ,0.06475378053509112
162, ,PASS, ,0.023775149999999995, ,0.002700627700074343, ,0.034293502617089446, ,6.518312053075554e-05, ,1.5833333333333333, ,0.6173388113039199, ,0.6089467561886492, ,0.058876349462255874
163, ,PASS, ,0.023651079999999988, ,0.002659248973980539, ,0.0341348521954654, ,6.376804125658446e-05, ,1.5833333333333333, ,0.6140306507194915, ,0.609089610416114, ,0.04777453521356707
164, ,PASS, ,0.02367123, ,0.0026462459347499465, ,0.03430152139588988, ,6.347597572636036e-05, ,1.5, ,0.6141191430490291, ,0.6075590294075631, ,0.06018244525621926
165, ,PASS, ,0.02419644000000002, ,0.00267058705797908, ,0.034279425494173586, ,6.553326564925353e-05, ,1.5, ,0.6046097882313057, ,0.6082528927981061, ,0.04148894920511826
166, ,PASS, ,0.024080310000000008, ,0.002685711211122071, ,0.03419521546397013, ,6.567426268626023e-05, ,1.5, ,0.6097158494359263, ,0.6070284279912654, ,0.06020285300299994
167, ,PASS, ,0.024177470000000003, ,0.002796156180292934, ,0.03429246434317667, ,6.86262347039744e-05, ,1.5833333333333333, ,0.629002748777606, ,0.6100079590212445, ,0.06834554396849044
168, ,PASS, ,0.026256270000000012, ,0.003057603348887456, ,0.0343323908785535, ,8.157913891613168e-05, ,1.5833333333333333, ,0.6374657637291931, ,0.6090079794289912, ,0.08910022244443991
169, ,PASS, ,0.030607520000000003, ,0.003778071229409805, ,0.0350424950503051, ,0.00011805104555611126, ,1.8333333333333333, ,0.6842725683712247, ,0.6108242688924715, ,0.09120222036284974
170, ,PASS, ,0.026459910000000014, ,0.0030535328585448392, ,0.03437267394093998, ,8.192884198311927e-05, ,1.5833333333333333, ,0.6249407624496771, ,0.6093549111242628, ,0.0538560437542091
171, ,PASS, ,0.02617319000000001, ,0.0030266798499004803, ,0.034352414370318975, ,8.042914154625108e-05, ,1.5833333333333333, ,0.6265779535847099, ,0.6107426379053489, ,0.0561621191404257
172, ,PASS, ,0.026059060000000012, ,0.0030104848535951927, ,0.03448753331074876, ,7.958872085712735e-05, ,1.5833333333333333, ,0.636279982357212, ,0.6100487745148058, ,0.07065161935470704
173, ,PASS, ,0.026303270000000017, ,0.0030339802812420435, ,0.03451597336054366, ,8.089635314444764e-05, ,1.5833333333333333, ,0.6299602685169075, ,0.6108446766392522, ,0.05761106916185384
174, ,PASS, ,0.026419199999999997, ,0.003044758507589141, ,0.03459973209791637, ,8.173806649895255e-05, ,1.5833333333333333, ,0.6308358057404131, ,0.612007918205751, ,0.06505989673680129
175, ,PASS, ,0.025993460000000003, ,0.0029843825758019524, ,0.03424304737413522, ,7.880570676206482e-05, ,1.5833333333333333, ,0.63076544576254, ,0.6106201914246648, ,0.05997836778841248
176, ,PASS, ,0.026044130000000002, ,0.002984816272042775, ,0.034357686975163775, ,7.888193164252087e-05, ,1.5833333333333333, ,0.6276725016094443, ,0.6102528519826126, ,0.05865186424766841
177, ,PASS, ,0.025937410000000022, ,0.002984961967352308, ,0.034522422563621154, ,7.86069414099096e-05, ,1.5833333333333333, ,0.63234578027889, ,0.6096202118324116, ,0.04359094712352809
178, ,PASS, ,0.026139010000000025, ,0.002972146252571816, ,0.03430100122589335, ,7.894734961973282e-05, ,1.5833333333333333, ,0.6213888809127052, ,0.607252913205853, ,0.03769310830391216
179, ,PASS, ,0.02630440000000001, ,0.0029975889416765378, ,0.03457872356625375, ,8.006335019508736e-05, ,1.5833333333333333, ,0.618508887837209, ,0.6136609456949859, ,0.04440725699475521
180, ,PASS, ,0.02575487000000002, ,0.003012500529769891, ,0.03435884857288627, ,7.885109542029259e-05, ,1.5833333333333333, ,0.6315286392260334, ,0.6108650843860329, ,0.07261076304565213
181, ,PASS, ,0.025948190000000034, ,0.0028959252588916973, ,0.034439383815024184, ,7.6320604562989e-05, ,1.5833333333333333, ,0.6255843983071622, ,0.6107222301585682, ,0.0393257280463664
182, ,PASS, ,0.025546860000000005, ,0.0030031732953910545, ,0.03454401971265893, ,7.781072709801277e-05, ,1.6666666666666667, ,0.6424877997744841, ,0.614538478806555, ,0.07385563559927348
183, ,PASS, ,0.02561587000000001, ,0.002983890817894311, ,0.03436802391400176, ,7.758814008302872e-05, ,1.5833333333333333, ,0.6358063835044213, ,0.6111712005877431, ,0.06405991714454808
184, ,PASS, ,0.025874960000000013, ,0.0029869207564918172, ,0.03430979293320545, ,7.851377971557318e-05, ,1.5833333333333333, ,0.6275055556108702, ,0.6101712209954899, ,0.04875410705903961
185, ,PASS, ,0.02581743000000002, ,0.0029689352928530736, ,0.03451962452705047, ,7.788513347832239e-05, ,1.5833333333333333, ,0.6269226291345479, ,0.6104977449439807, ,0.04150935695189894
186, ,PASS, ,0.025688090000000004, ,0.0029531676027656044, ,0.03449578119058795, ,7.708642174440515e-05, ,1.5833333333333333, ,0.630730215865879, ,0.6084365625191323, ,0.042427705557029446
187, ,PASS, ,0.025362830000000003, ,0.0029184149105226835, ,0.034319152749331644, ,7.513159359817793e-05, ,1.5833333333333333, ,0.6303268512748474, ,0.612824228076978, ,0.06067223117895553
188, ,PASS, ,0.025448510000000004, ,0.0029476897447020304, ,0.03431806582069754, ,7.614653707841971e-05, ,1.5833333333333333, ,0.6333556594509373, ,0.6103752984632966, ,0.057264137466582314
189, ,PASS, ,0.025446280000000005, ,0.0029692591253568, ,0.03450519081651395, ,7.669490131954689e-05, ,1.5833333333333333, ,0.6392845150798152, ,0.6119262872186282, ,0.059713067080263665
190, ,PASS, ,0.025220450000000005, ,0.0029185798949939584, ,0.03449264530805494, ,7.474979372329213e-05, ,1.6666666666666667, ,0.6350050219172416, ,0.6123140344074611, ,0.05901920368972062
191, ,PASS, ,0.02549378000000001, ,0.0029435841902176606, ,0.03441831308769209, ,7.628790430262137e-05, ,1.5833333333333333, ,0.6327540702094917, ,0.6112936470684271, ,0.053917266994551134
192, ,PASS, ,0.025125010000000007, ,0.0029508172162599766, ,0.03424800718271056, ,7.527976725650334e-05, ,1.5833333333333333, ,0.6428065371877758, ,0.6108038611456909, ,0.07618211873227076
193, ,PASS, ,0.02524401000000001, ,0.002921101605636554, ,0.03458942394277668, ,7.481347080562253e-05, ,1.5833333333333333, ,0.6341730623637314, ,0.6107630456521296, ,0.06257015162955858
194, ,PASS, ,0.02509276, ,0.002913247734452546, ,0.03456974264770107, ,7.423202121403539e-05, ,1.5833333333333333, ,0.6335319703400534, ,0.6117222097508214, ,0.05620293463398706
195, ,PASS, ,0.02491849000000002, ,0.002900031664115732, ,0.03465282821983225, ,7.344404600776503e-05, ,1.5833333333333333, ,0.63871946416263, ,0.6122936266606804, ,0.04467255770290402
196, ,PASS, ,0.025355649999999997, ,0.0029308497117049143, ,0.03449569533131977, ,7.546703804922607e-05, ,1.5833333333333333, ,0.6334874503051345, ,0.6110895696006204, ,0.06205995796004163
197, ,PASS, ,0.02500276, ,0.002936305993205986, ,0.03436981626109671, ,7.446064525310636e-05, ,1.6666666666666667, ,0.6437495701274687, ,0.612130364686435, ,0.07897798004122365
198, ,PASS, ,0.02497596, ,0.0028699850041919244, ,0.03430038878226975, ,7.274081282264603e-05, ,1.5833333333333333, ,0.6323615513024022, ,0.6099671435276831, ,0.05463153813187486
199, ,PASS, ,0.024709030000000017, ,0.002927909486501591, ,0.03461287051958123, ,7.345273208727745e-05, ,1.6666666666666667, ,0.6470214031712922, ,0.6156609048794922, ,0.05769270014897655
200, ,PASS, ,0.025152070000000016, ,0.0029277521602327477, ,0.03454592831513643, ,7.480513021194215e-05, ,1.5833333333333333, ,0.6384033641622966, ,0.6135384992143017, ,0.05703965225199486
201, ,PASS, ,0.02499079000000001, ,0.0029333361952290304, ,0.034382755131119776, ,7.445379425949793e-05, ,1.5833333333333333, ,0.6424301611954687, ,0.6102528519826126, ,0.05693761351809147
202, ,PASS, ,0.02474077000000001, ,0.0029106128030610212, ,0.03458452462949736, ,7.313222795055027e-05, ,1.5833333333333333, ,0.6419477799985033, ,0.6124160731413645, ,0.06712107916164976
203, ,PASS, ,0.024917930000000015, ,0.0029447017086158015, ,0.03447487748699006, ,7.446908695109194e-05, ,1.6666666666666667, ,0.6481820725971594, ,0.6123548499010224, ,0.0895696006203955
204, ,PASS, ,0.024966610000000004, ,0.002911476474200219, ,0.034366339653884616, ,7.373044018069432e-05, ,1.6666666666666667, ,0.6409044475245682, ,0.6128446358237587, ,0.04559090630803453
205, ,PASS, ,0.02488987, ,0.0029304927515834142, ,0.034336964236036, ,7.407684580740019e-05, ,1.6666666666666667, ,0.6459435098704112, ,0.6131711597722496, ,0.07679435113569111
206, ,PASS, ,0.024644530000000008, ,0.0028908549722195197, ,0.03446235382400359, ,7.226279906184454e-05, ,1.6666666666666667, ,0.6468029186694995, ,0.6138037999224506, ,0.08071263851758127
207, ,PASS, ,0.02448423, ,0.002899896717558556, ,0.03446274482581988, ,7.20704496017816e-05, ,1.6666666666666667, ,0.6449118135458827, ,0.6131507520254689, ,0.06436603334625823
208, ,PASS, ,0.024818540000000007, ,0.0030155749499477472, ,0.03482522064427257, ,7.630886688886912e-05, ,1.6666666666666667, ,0.6623796302733063, ,0.6307218220036326, ,0.03159119201648946
209, ,PASS, ,0.02475112, ,0.0028934347801687784, ,0.03464798236995164, ,7.280484121639524e-05, ,1.5833333333333333, ,0.6417477772897644, ,0.6143139935919675, ,0.06138650231627926
210, ,PASS, ,0.024503560000000004, ,0.0028671129657966967, ,0.03466398800146936, ,7.135444958257258e-05, ,1.6666666666666667, ,0.6454715282679294, ,0.6124772963817064, ,0.06030489173690333
211, ,PASS, ,0.024656960000000006, ,0.002902180923696591, ,0.0344968576161711, ,7.271435227677388e-05, ,1.5833333333333333, ,0.6456839706363001, ,0.6125589273688292, ,0.05779473888287994
212, ,PASS, ,0.02460896000000001, ,0.0028870651609377634, ,0.034400329144711334, ,7.220875465659376e-05, ,1.6666666666666667, ,0.6445048548197623, ,0.6126609661027326, ,0.047754127466786395
213, ,PASS, ,0.02437893000000001, ,0.002888742415850193, ,0.034476143668700644, ,7.144238851476025e-05, ,1.6666666666666667, ,0.6463096622616665, ,0.6149874492357299, ,0.0782841166506806
214, ,PASS, ,0.024492470000000013, ,0.002887283483586534, ,0.03453882432889125, ,7.176145942764475e-05, ,1.6666666666666667, ,0.6412886607382993, ,0.6153751964245627, ,0.04555009081447317
215, ,PASS, ,0.02436114000000002, ,0.002885382942684641, ,0.03470698138874717, ,7.125390882636527e-05, ,1.6666666666666667, ,0.6480351508079085, ,0.6167221077120875, ,0.04499908165139487
216, ,PASS, ,0.024678730000000013, ,0.002958083211999734, ,0.03462061124609702, ,7.41404929925816e-05, ,1.6666666666666667, ,0.6577199849156046, ,0.6111916083345238, ,0.08118201669353686
217, ,PASS, ,0.024434220000000013, ,0.0028639373910133935, ,0.03452930272423012, ,7.099918266768762e-05, ,1.6666666666666667, ,0.640848881982937, ,0.6125997428623906, ,0.05918246566396604
218, ,PASS, ,0.024437840000000002, ,0.0028706666220721325, ,0.034310180886308446, ,7.115475004993135e-05, ,1.6666666666666667, ,0.6400028429044922, ,0.6132323830125915, ,0.061815064998673494
219, ,PASS, ,0.02426748000000002, ,0.002869047656281942, ,0.034474168136772725, ,7.065491820884922e-05, ,1.6666666666666667, ,0.648144863416704, ,0.6131915675190303, ,0.08216158853900941
220, ,PASS, ,0.02399167999999999, ,0.002835191248208231, ,0.03448278105344789, ,6.902843907680294e-05, ,1.6666666666666667, ,0.646944785420316, ,0.612824228076978, ,0.07095773555641721
221, ,PASS, ,0.02403172, ,0.0028413567568829927, ,0.03458037282381992, ,6.930262482342608e-05, ,1.6666666666666667, ,0.6486717062172529, ,0.6142323626048448, ,0.08454929491234872
222, ,PASS, ,0.0239603, ,0.0028079935918693395, ,0.03443284313850738, ,6.829745888297197e-05, ,1.6666666666666667, ,0.644389746934523, ,0.6136609456949859, ,0.06599865308871247
223, ,PASS, ,0.023953390000000015, ,0.0028043238687829705, ,0.034632933657680456, ,6.820362022724646e-05, ,1.6666666666666667, ,0.6354588588023138, ,0.6127834125834166, ,0.054753984612558926
224, ,PASS, ,0.023875900000000012, ,0.0028094713514245895, ,0.03453176455521316, ,6.805027444117805e-05, ,1.6666666666666667, ,0.644194546839869, ,0.6135384992143017, ,0.06595783759515111
225, ,PASS, ,0.024045890000000004, ,0.0028206141450647813, ,0.03458479908185547, ,6.889851554782431e-05, ,1.6666666666666667, ,0.6430922902505232, ,0.6156813126262729, ,0.0526519866941491
226, ,PASS, ,0.023833400000000015, ,0.0028097123127418743, ,0.034492296448643905, ,6.800293093321852e-05, ,1.6666666666666667, ,0.6479378178398283, ,0.6134160527336177, ,0.07363115038468603
227, ,PASS, ,0.02362175000000001, ,0.002823017967518692, ,0.03453363989653272, ,6.766132982501367e-05, ,1.6666666666666667, ,0.6487043634820028, ,0.6157629436133957, ,0.07640660394685823
228, ,PASS, ,0.02387449000000001, ,0.002820646458731443, ,0.03444243716311912, ,6.833835085996553e-05, ,1.6666666666666667, ,0.6481760584624162, ,0.6141099161241608, ,0.08744719495520499
229, ,PASS, ,0.023733650000000012, ,0.0028017334263131187, ,0.034429217548009226, ,6.745050592006158e-05, ,1.6666666666666667, ,0.6465004739501837, ,0.6130283055447848, ,0.08399828574927043
230, ,PASS, ,0.02385933, ,0.002815678812930452, ,0.03443130795004184, ,6.813343452933185e-05, ,1.6666666666666667, ,0.6453959470372282, ,0.6123548499010224, ,0.07287606375380094
231, ,PASS, ,0.023813970000000004, ,0.002782826709690094, ,0.0345182242541989, ,6.717527919262889e-05, ,1.6666666666666667, ,0.6388479051350304, ,0.6147017407808004, ,0.05742739944082774
232, ,PASS, ,0.023859430000000015, ,0.0026716468117799924, ,0.035138991021815884, ,6.490033218465339e-05, ,1.6666666666666667, ,0.6530699758525813, ,0.6403542784841125, ,0.03742780759576335
233, ,PASS, ,0.023754639999999997, ,0.002820603332689862, ,0.03458257268137385, ,6.794857953014793e-05, ,1.6666666666666667, ,0.6486597903222583, ,0.6171098549009204, ,0.06195791922613824
234, ,PASS, ,0.02369955, ,0.0028191576193919844, ,0.03443531202873411, ,6.777324587484959e-05, ,1.6666666666666667, ,0.6430077508374329, ,0.6119466949654089, ,0.05432542193016469
235, ,PASS, ,0.023710639999999998, ,0.002766392635622469, ,0.03408034366053754, ,6.678250673711833e-05, ,1.5833333333333333, ,0.6410761661159292, ,0.6071508744719496, ,0.08191669557764127
236, ,PASS, ,0.023985580000000003, ,0.0028528369815008616, ,0.03454234042162405, ,6.93935237905611e-05, ,1.5833333333333333, ,0.649605632219073, ,0.6135793147078631, ,0.0895696006203955
237, ,PASS, ,0.02412553, ,0.002826819111517962, ,0.03436367170751617, ,6.924835123270493e-05, ,1.6666666666666667, ,0.643026644358959, ,0.6133752372400563, ,0.04685618660843656
238, ,PASS, ,0.02389943999999999, ,0.002799730869481276, ,0.0345252733240138, ,6.786483391544858e-05, ,1.6666666666666667, ,0.6392991089772556, ,0.6133548294932757, ,0.05946817411889553
239, ,PASS, ,0.023931139999999997, ,0.002829552352869397, ,0.03444843335013571, ,6.869515400283724e-05, ,1.6666666666666667, ,0.6474706051031336, ,0.6154772351584662, ,0.0633864615007857
240, ,PASS, ,0.02403695, ,0.0028279271469354396, ,0.03448960485765597, ,6.896272507333955e-05, ,1.6666666666666667, ,0.6468654627162017, ,0.6141303238709415, ,0.05952939735923757
241, ,PASS, ,0.024188060000000004, ,0.0028590325613393613, ,0.03442384846064366, ,7.016400285672838e-05, ,1.6666666666666667, ,0.6496425984620372, ,0.6159466133344218, ,0.07228423909716128
242, ,PASS, ,0.023997720000000007, ,0.002950261843768867, ,0.03490105128017796, ,7.234605754483511e-05, ,1.5833333333333333, ,0.6770774070535583, ,0.6346809248790841, ,0.09767147609232464
243, ,PASS, ,0.024089900000000008, ,0.0028587905740773295, ,0.0344157456525377, ,6.984799409849381e-05, ,1.6666666666666667, ,0.6466513590994665, ,0.6138242076692313, ,0.08510030407542703
244, ,PASS, ,0.024094499999999998, ,0.002872126164002021, ,0.03435793664721128, ,7.022716599789412e-05, ,1.6666666666666667, ,0.6503634898083102, ,0.6154160119181241, ,0.08254933572784229
245, ,PASS, ,0.024206350000000005, ,0.0028593166345595848, ,0.034402286380890185, ,7.018232887434666e-05, ,1.6666666666666667, ,0.6453855845376577, ,0.6143548090855289, ,0.059733474827044344
246, ,PASS, ,0.024099040000000002, ,0.0028517877690126584, ,0.03452509101569356, ,6.960702054429524e-05, ,1.6666666666666667, ,0.6443432893715497, ,0.6131915675190303, ,0.04718271055692741
247, ,PASS, ,0.023748860000000004, ,0.0028867097290323656, ,0.0345827420487337, ,6.957842341720545e-05, ,1.6666666666666667, ,0.6611261460170941, ,0.6174771943429725, ,0.10914062978306566
248, ,PASS, ,0.024237069999999993, ,0.002842954764472152, ,0.03458331551458134, ,6.988228039472539e-05, ,1.6666666666666667, ,0.6448233639358788, ,0.6155384583988082, ,0.04359094712352809
249, ,PASS, ,0.023884119999999995, ,0.002830867038872426, ,0.03449682013897676, ,6.85409899687541e-05, ,1.5833333333333333, ,0.6518756746363908, ,0.6162527295361319, ,0.08381461602824432
250, ,PASS, ,0.02398113, ,0.002865478444388622, ,0.034371679925919885, ,6.971965966361753e-05, ,1.6666666666666667, ,0.6493371784665293, ,0.6156609048794922, ,0.08530438154323382
251, ,FAIL, ,0.005237990000000012, ,0.00020476835601937864, ,0.032816248925532136, ,1.1115643114128698e-06, ,0.75, ,0.31116525752042534, ,0.4256647823513806, ,0.009510009999795923
252, ,PASS, ,0.02380906, ,0.0028104587951894365, ,0.03441394328605539, ,6.786919106500466e-05, ,1.6666666666666667, ,0.6423257448504893, ,0.6138037999224506, ,0.02930552437705353
253, ,PASS, ,0.024191340000000013, ,0.002836849202278368, ,0.03437460571641395, ,6.961311900660577e-05, ,1.6666666666666667, ,0.6356947208643137, ,0.6128650435705394, ,0.022877084141139977
254, ,PASS, ,0.02385455, ,0.0028266006875403795, ,0.03428564081039163, ,6.844264516382676e-05, ,1.6666666666666667, ,0.6531842882036866, ,0.6150282647292913, ,0.06781494255219281
255, ,PASS, ,0.02184691999999999, ,0.0021731365812845942, ,0.03372860456337626, ,4.788332546516457e-05, ,1.4166666666666667, ,0.5405893407561819, ,0.6105589681843228, ,0.03601967306789657
