Channel, ,Pass/Fail, ,Amplitude, ,Sorting Function Response, ,Mean, ,Variance, ,NPeaksRatio, ,IntegralRatio, ,ToT50, ,ToT99
39, ,PASS, ,0.08789236999999997, ,0.06676726178859338, ,-0.004131236010897736, ,0.0012173140716756111, ,0.9166666666666666, ,0.35697377815365244, ,0.4538682884022775, ,0.10458970225097447
40, ,PASS, ,0.08899267999999995, ,0.0670440237136729, ,-0.004177721985265606, ,0.0012370739090934366, ,1.0, ,0.3558138529303621, ,0.4522152609130426, ,0.11073243403195854
41, ,PASS, ,0.04713518000000001, ,0.039037912599019585, ,-0.002216038534519704, ,0.00038148422412464703, ,1.0, ,0.38119389117515967, ,0.4540519581233036, ,0.11671190383869717
42, ,PASS, ,0.049983219999999995, ,0.04070932728316891, ,-0.0023010609918164937, ,0.00042316552275242596, ,1.0, ,0.3794651211461797, ,0.4529703475439277, ,0.1275076018856758
43, ,PASS, ,0.09497829000000005, ,0.06735948321224947, ,-0.004465589517152713, ,0.001329693194761932, ,1.0, ,0.3417585846702272, ,0.4532152405052958, ,0.06873329115732332
44, ,PASS, ,0.09731863, ,0.06674692938893954, ,-0.004469589594702149, ,0.001350544442956997, ,1.0, ,0.33481676758140616, ,0.4533172792391992, ,0.053570335299279605
45, ,PASS, ,0.06299365999999998, ,0.047429276639225686, ,-0.002858816643741965, ,0.0006205277075449558, ,1.0, ,0.3577140428872639, ,0.4534397257198833, ,0.09489602253015245
46, ,PASS, ,0.0474862, ,0.039807135950609716, ,-0.002194286010285505, ,0.0003928993583309841, ,1.0, ,0.38694284007121, ,0.45317442501173444, ,0.15530295300095917
47, ,PASS, ,0.09341100000000002, ,0.0657584570851121, ,-0.004352120693863391, ,0.0012768666143296108, ,1.0, ,0.3406885056664422, ,0.4530519785310504, ,0.06167221077120875
48, ,PASS, ,0.09590320000000002, ,0.06533143845281107, ,-0.004445151194669498, ,0.0013029369355973053, ,1.0, ,0.33268588067481947, ,0.45333768698597987, ,0.058141670578151464
49, ,PASS, ,0.06471304, ,0.04970067891502451, ,-0.003022794087059447, ,0.0006675337757635285, ,1.0, ,0.36094480519488226, ,0.45364380318769004, ,0.11744658272280158
50, ,PASS, ,0.04564553000000001, ,0.03907989764957192, ,-0.002094378947776576, ,0.0003708986023292911, ,1.0, ,0.39407822699920586, ,0.453011163037489, ,0.1565682333013612
51, ,PASS, ,0.09307708000000003, ,0.0658388417528249, ,-0.004393599360013062, ,0.0012737963765456965, ,1.0, ,0.34117176007532735, ,0.45299075529070837, ,0.06834554396849044
52, ,PASS, ,0.09624005000000002, ,0.06537422387923904, ,-0.004300981326911697, ,0.0013085799834969324, ,1.0, ,0.33412178005239723, ,0.45284790106324363, ,0.058060039591028755
53, ,PASS, ,0.06508546000000001, ,0.0509586697505241, ,-0.0029722937523723996, ,0.0006882553576902062, ,1.0, ,0.3673574310734887, ,0.45337850247954126, ,0.118813901757107
54, ,PASS, ,0.05684359000000001, ,0.04456878825292961, ,-0.002631232632599335, ,0.0005276121733801502, ,1.0, ,0.3701620372351064, ,0.45335809473276056, ,0.10005918246566396
55, ,PASS, ,0.10338489000000001, ,0.0686358872354811, ,-0.004714324605824371, ,0.001477585882984248, ,1.0, ,0.32897448537178137, ,0.45270504683577883, ,0.039162466072120976
56, ,PASS, ,0.10470153000000001, ,0.06786710737471954, ,-0.004606104894798065, ,0.0014799248675483971, ,1.0, ,0.3243191428398308, ,0.45362339544090935, ,0.03893798085753352
57, ,PASS, ,0.06852035, ,0.051116316305260666, ,-0.0031664963951756084, ,0.0007280220240156512, ,1.0, ,0.35555993292687565, ,0.4535009489602253, ,0.08518193506254974
58, ,PASS, ,0.05336157000000001, ,0.04323621278603839, ,-0.0024539534836023756, ,0.00048022613597348366, ,1.0, ,0.37856645456526905, ,0.4536029876941287, ,0.11852819330217751
59, ,PASS, ,0.10150568000000004, ,0.06791083227893403, ,-0.004614285726413746, ,0.0014352118492775207, ,1.0, ,0.32988950315270416, ,0.4538886961490582, ,0.049325523968898596
60, ,PASS, ,0.10215898000000001, ,0.06677886854868154, ,-0.004597127922899532, ,0.0014206031186262602, ,1.0, ,0.32505767659007173, ,0.453582579947348, ,0.0471010795698047
61, ,PASS, ,0.06314492, ,0.04868045974976141, ,-0.0029584388112487495, ,0.000638486023898778, ,1.0, ,0.36267467488964694, ,0.45368461868125143, ,0.10436521703638701
62, ,PASS, ,0.051110409999999995, ,0.04242027649228788, ,-0.002440658483296259, ,0.00045129383625048446, ,1.0, ,0.38376841410523993, ,0.45333768698597987, ,0.12273218913899717
63, ,PASS, ,0.10170401000000001, ,0.06789478648556044, ,-0.004675149296544968, ,0.0014375237843045094, ,1.0, ,0.3301285012307222, ,0.4522560764066039, ,0.041652211179363685
64, ,PASS, ,0.10229818000000002, ,0.06671478117805238, ,-0.0046610140399175526, ,0.0014210986690394933, ,1.0, ,0.3240581089593332, ,0.45333768698597987, ,0.04267259851839758
65, ,PASS, ,0.06252018, ,0.04937360131378882, ,-0.0029302866761902815, ,0.0006410727301510978, ,1.0, ,0.3693860591564153, ,0.45323564825207646, ,0.12495663353809106
66, ,PASS, ,0.06215297, ,0.04750350016209477, ,-0.0029202240811412013, ,0.0006154835318890071, ,0.9166666666666666, ,0.36458737236371486, ,0.45290912430358565, ,0.06208036570682231
67, ,PASS, ,0.10929412000000005, ,0.06944223062760639, ,-0.004930179687761475, ,0.001582547204083615, ,1.0, ,0.3199942220953527, ,0.4529703475439277, ,0.032938103304014206
68, ,PASS, ,0.10968961000000005, ,0.06856335433364873, ,-0.004910590675700496, ,0.001568063082279445, ,0.9166666666666666, ,0.3157679383747899, ,0.45362339544090935, ,0.03393808289626742
69, ,PASS, ,0.07266309000000001, ,0.05371810728486176, ,-0.003463250576927002, ,0.000811575792154218, ,1.0, ,0.35305733787214544, ,0.4523989306340687, ,0.06167221077120875
70, ,PASS, ,0.05772531000000001, ,0.04580240587093445, ,-0.0026986450072447503, ,0.0005510390294476233, ,1.0, ,0.37483099983965856, ,0.4522968919001653, ,0.09973265851717313
71, ,PASS, ,0.10620340000000002, ,0.06804437315077792, ,-0.004828158362482398, ,0.0015063630035824732, ,1.0, ,0.3214649387035902, ,0.45282749331646294, ,0.0365502744841942
72, ,PASS, ,0.10730515000000002, ,0.06723926453206608, ,-0.004886267335768658, ,0.0015041670510699992, ,0.9166666666666666, ,0.3159063621318955, ,0.4531540172649538, ,0.03555029489194098
73, ,PASS, ,0.0689527, ,0.05259092016052442, ,-0.0032706412005877434, ,0.0007536658715762866, ,1.0, ,0.3603936095614218, ,0.45278667782290155, ,0.09463072182200363
74, ,PASS, ,0.05584303, ,0.0451605052586947, ,-0.002793101587518622, ,0.0005257244527787662, ,1.0, ,0.37640885937622226, ,0.45288871655680496, ,0.09377359645721516
75, ,PASS, ,0.10619207000000003, ,0.06785200537797775, ,-0.004761742010163057, ,0.001502202355877218, ,1.0, ,0.32121258981652157, ,0.45323564825207646, ,0.03493806248852064
76, ,PASS, ,0.10684589000000003, ,0.0670295502559758, ,-0.0047937304644803174, ,0.001493075712748403, ,0.9166666666666666, ,0.31642694609555794, ,0.45366421093447074, ,0.035101324462766065
77, ,PASS, ,0.06698297000000003, ,0.05232494904714271, ,-0.0030982584830921826, ,0.0007281091588674472, ,1.0, ,0.366554148270406, ,0.4539091038958389, ,0.10842635864574192
78, ,PASS, ,0.06671604000000006, ,0.048230797670297046, ,-0.0030777188422685254, ,0.0006726304664186486, ,0.9166666666666666, ,0.3539738469613126, ,0.4526234158486562, ,0.04018285341115487
79, ,PASS, ,0.11497848000000002, ,0.06976676136899658, ,-0.005135247100059183, ,0.0016749520077901196, ,0.9166666666666666, ,0.3110472145860474, ,0.45235811514050733, ,0.024938266565988448
80, ,PASS, ,0.11455661000000002, ,0.06816499678121235, ,-0.0052229129683067695, ,0.0016309936694679865, ,1.0, ,0.3051818428865107, ,0.4530315707842697, ,0.027979020836309463
81, ,PASS, ,0.07860837000000004, ,0.055838566986324965, ,-0.003587359025734169, ,0.0009138332151867089, ,0.9166666666666666, ,0.3450175178575352, ,0.45370502642803207, ,0.058386563539519605
82, ,PASS, ,0.05983937000000001, ,0.04458989443451475, ,-0.0027736527987183937, ,0.0005573947666504009, ,1.0, ,0.3610665799527064, ,0.45241933838084936, ,0.05710087549233689
83, ,PASS, ,0.11220344, ,0.06825814311226473, ,-0.004953226615783352, ,0.001599050321288626, ,0.9166666666666666, ,0.3116974392414989, ,0.45292953205036635, ,0.02653007081488133
84, ,PASS, ,0.11068170000000002, ,0.06660804176481545, ,-0.004799778365339484, ,0.0015391869797052944, ,1.0, ,0.3094536508507619, ,0.45325605599885715, ,0.030264688475745392
85, ,PASS, ,0.07258801000000001, ,0.05340126871501315, ,-0.0035094371459766125, ,0.0008063915045301241, ,1.0, ,0.35023676930265973, ,0.4539295116426195, ,0.07830452439746127
86, ,PASS, ,0.05594221999999999, ,0.042169492078446, ,-0.0026268667572090366, ,0.0004928815144310583, ,1.0, ,0.3630856200965252, ,0.45299075529070837, ,0.05961102834636028
87, ,PASS, ,0.006192125000000001, ,0.0025604750874948456, ,-0.0001359444297753107, ,3.506754319821279e-06, ,0.9166666666666666, ,0.2968530286685687, ,0.452378522887288, ,0.005897838819615926
88, ,PASS, ,0.11080652000000002, ,0.06622746825596898, ,-0.004922704699904084, ,0.0015321893402862768, ,1.0, ,0.30667290160782296, ,0.45382747290871617, ,0.02940756311095692
89, ,PASS, ,0.06739504000000002, ,0.04940364211863889, ,-0.0031486908614109924, ,0.0006925362577728216, ,1.0, ,0.3515012974756045, ,0.45323564825207646, ,0.07065161935470704
90, ,PASS, ,0.06283413999999998, ,0.0449078843812549, ,-0.002905210125099488, ,0.0005906100470885701, ,1.0, ,0.35124894603278056, ,0.4533989102263219, ,0.043284830921817924
91, ,PASS, ,0.11916824999999995, ,0.0736731975162189, ,-0.005365211653027489, ,0.001832803942184909, ,0.9166666666666666, ,0.3134682715634015, ,0.45413358911042634, ,0.03324421950572437
92, ,PASS, ,0.11893023999999995, ,0.07152802496837075, ,-0.005451700666517009, ,0.001776077332141975, ,1.0, ,0.30667619303093363, ,0.4534397257198833, ,0.030142241995061325
93, ,PASS, ,0.06454329000000002, ,0.044687470648767366, ,-0.002929745493357278, ,0.0006014039412262994, ,1.0, ,0.33994829468185206, ,0.45407236587008426, ,0.04512152813207894
94, ,FAIL, ,0.006380235, ,0.0014876367185795833, ,-0.0002659329956731495, ,2.0845706035253227e-06, ,0.9166666666666666, ,0.1550004218587987, ,0.45241933838084936, ,0.015897634742148118
198, ,PASS, ,0.13944661000000003, ,0.09142682359977865, ,-0.0022405806505377433, ,0.002640623115782479, ,1.0, ,0.349497427982395, ,0.47362298728597374, ,0.06354972347503113
199, ,PASS, ,0.12591714000000004, ,0.07102396240714468, ,-0.0015771670771208756, ,0.001863093209056034, ,1.0, ,0.31582808954725206, ,0.4784800310197751, ,0.044550111222219954
200, ,FAIL, ,0.00114768778, ,0.00038663138985007965, ,-0.0001406806774959695, ,1.0121878649317481e-07, ,0.8333333333333334, ,0.167283678190491, ,0.457133527887186, ,0.0006122324034203384
201, ,PASS, ,0.06797733, ,0.038420123514119296, ,-0.0013729841134609499, ,0.0005611346525527297, ,1.0, ,0.3377875674779978, ,0.4642966470072039, ,0.03610130405501929
202, ,PASS, ,0.06230435000000001, ,0.03958411722216895, ,-0.0015601480052856063, ,0.0005291284157556735, ,1.0, ,0.3636279912749269, ,0.4598069427154548, ,0.036182935042142
203, ,PASS, ,0.059831819999999994, ,0.034357219766611234, ,-0.0011663666547641887, ,0.00044005765727139496, ,1.0, ,0.34044410760325533, ,0.46445990898144934, ,0.041652211179363685
204, ,PASS, ,0.07595651999999997, ,0.04460557202857969, ,-0.0014673057075365805, ,0.0007156346160004486, ,1.0, ,0.339526213023288, ,0.4663782371788331, ,0.03936654353992776
205, ,PASS, ,0.09071039, ,0.053103125808868, ,-0.001479477833921756, ,0.0010068819189841822, ,1.0, ,0.33184329228013715, ,0.471010795698047, ,0.04591743025652538
206, ,PASS, ,0.06790297000000002, ,0.03935982334619583, ,-0.0014424407088851252, ,0.0005666908697860304, ,1.0, ,0.3369598728788592, ,0.46568437378829003, ,0.036795167445562334
207, ,PASS, ,0.07997572, ,0.048205427848576274, ,-0.0015802114447868397, ,0.0008121016302482487, ,1.0, ,0.3434087156809845, ,0.4660925287239036, ,0.0422848513295647
208, ,PASS, ,0.054193769999999995, ,0.03352967844530506, ,-0.0012649030551417323, ,0.0003892628294571978, ,1.0, ,0.35831986181427333, ,0.4610109997755148, ,0.026101508132487093
209, ,PASS, ,0.052384520000000004, ,0.0324926086149394, ,-0.0012369980473296467, ,0.0003643363331783849, ,1.0, ,0.3567030467559984, ,0.46150078569825104, ,0.03863186465582335
210, ,PASS, ,0.11182502000000002, ,0.07590933619422004, ,-0.0031023169535470702, ,0.0018147917894415693, ,1.0, ,0.3794934874358159, ,0.45486826799453073, ,0.04195832738107386
211, ,PASS, ,0.05774990999999998, ,0.03563581963891363, ,-0.0013377231878737162, ,0.0004394461909546667, ,1.0, ,0.3547505225142347, ,0.46209261035489074, ,0.03675435195200098
212, ,PASS, ,0.07562924, ,0.04732781118456096, ,-0.001855019247699027, ,0.000756967762033183, ,1.0, ,0.35253097316045734, ,0.463153813187486, ,0.03855023366870064
213, ,PASS, ,0.06622185000000001, ,0.04065950138596643, ,-0.0014780049163486458, ,0.0005720299674853605, ,1.0, ,0.3512290029675203, ,0.46333748290851207, ,0.04350931613640538
214, ,PASS, ,0.06502655999999998, ,0.037664437470918556, ,-0.001383100766433338, ,0.0005227064898935884, ,1.0, ,0.34092467727524106, ,0.4637660455909063, ,0.03724413787473725
215, ,PASS, ,0.07465017999999997, ,0.04515157202428035, ,-0.001393061413399726, ,0.0007128049497249537, ,1.0, ,0.3483736530722635, ,0.4651945878655538, ,0.040876716801697924
216, ,PASS, ,0.06148547, ,0.03395714640242897, ,-0.001253162604683578, ,0.00044669550821027886, ,1.0, ,0.3310299534633842, ,0.465051733638089, ,0.032938103304014206
217, ,PASS, ,0.07053704, ,0.04269301612591355, ,-0.0016159972402889735, ,0.0006381345944717669, ,1.0, ,0.34519382178483643, ,0.4647660251831595, ,0.04234607456990674
218, ,PASS, ,0.06339092999999998, ,0.03416670424866724, ,-0.0013099957888675743, ,0.00046366582337878306, ,1.0, ,0.3251010822456884, ,0.46582722801575477, ,0.03620334278892268
219, ,PASS, ,0.061876570000000006, ,0.03754294429333196, ,-0.0015070793743984818, ,0.0004951244457635935, ,1.0, ,0.3472478238306992, ,0.46327625966817004, ,0.048121466908838596
220, ,PASS, ,0.047735400000000004, ,0.027610997126825593, ,-0.0010811584374992346, ,0.0002849412377674553, ,1.0, ,0.3468797761233262, ,0.46066406808024324, ,0.030223872982184038
221, ,PASS, ,0.04818958000000001, ,0.030081073492071553, ,-0.0011571492594930717, ,0.0003110153500822072, ,1.0, ,0.35875236594240795, ,0.4609293687883921, ,0.04761127323932165
222, ,PASS, ,0.005963193, ,0.002545026524194842, ,-0.00016958122166323136, ,3.323716722191982e-06, ,1.0, ,0.29482762698175735, ,0.4568070039386951, ,0.0004081549356135589
223, ,PASS, ,0.05052440000000001, ,0.030141052872763075, ,-0.0010987803831758538, ,0.00032716468402783835, ,1.0, ,0.34996114389751576, ,0.4622762800759168, ,0.03881553437684945
224, ,PASS, ,0.08461236999999999, ,0.04972736690534402, ,-0.0018509779304116244, ,0.0008889208750457296, ,1.0, ,0.3379981261767684, ,0.4658068202689741, ,0.040795085814575215
225, ,PASS, ,0.06679407, ,0.03932182628712423, ,-0.0013811455225403561, ,0.0005588690200244803, ,1.0, ,0.3423515078962961, ,0.4648884716638436, ,0.042774637252300976
226, ,PASS, ,0.07043013000000001, ,0.03874740538294609, ,-0.0013726782210567129, ,0.000585368820401529, ,1.0, ,0.33345767114695035, ,0.4644395012346687, ,0.03189730821819963
227, ,PASS, ,0.06209592000000001, ,0.03666758431250291, ,-0.0014235405736821695, ,0.00048714429455718643, ,1.0, ,0.3446638456262024, ,0.46333748290851207, ,0.03981551396910267
228, ,PASS, ,0.04799386, ,0.02570764848937076, ,-0.0010516493385849266, ,0.00026870115395609195, ,1.0, ,0.33253573415178556, ,0.46199057162098733, ,0.024897451072427093
229, ,PASS, ,0.045911110000000005, ,0.02594117827499854, ,-0.0010797783522540352, ,0.000259177825562879, ,1.0, ,0.34288057682971884, ,0.46086814554805006, ,0.02522397502091794
230, ,PASS, ,0.04437450000000001, ,0.02422935808630697, ,-0.0011440777922899527, ,0.00023500545848246664, ,1.0, ,0.33559854414668594, ,0.4609089610416114, ,0.02601987714536438
231, ,PASS, ,0.05060146000000001, ,0.028384508211165713, ,-0.0012305958320340405, ,0.0003122858245680492, ,1.0, ,0.33981357608992235, ,0.46152119344503173, ,0.02848921450582641
232, ,PASS, ,0.057622750000000014, ,0.03279464480892851, ,-0.0013937407173567886, ,0.00040885967616116067, ,1.0, ,0.34140941157579463, ,0.46203138711454866, ,0.03157078426970878
233, ,PASS, ,0.05568508000000001, ,0.030829907800046224, ,-0.0013077605857329446, ,0.00037233018283256493, ,1.0, ,0.3361193616077245, ,0.46254158078406565, ,0.024672965857839634
234, ,PASS, ,0.06671102, ,0.03686728098825543, ,-0.0014143140182037094, ,0.0005306776022748742, ,1.0, ,0.336244141223954, ,0.46325585192138935, ,0.026550478561662007
235, ,PASS, ,0.06140363, ,0.03407605604164054, ,-0.001304426633997265, ,0.00045195247523401163, ,1.0, ,0.33705805579543535, ,0.46364359911022224, ,0.02867288422685251
236, ,PASS, ,0.05426076, ,0.029561640121752043, ,-0.0011586103793432795, ,0.0003495408711864197, ,1.0, ,0.33747599910830095, ,0.4621130181016714, ,0.022856676394359298
237, ,PASS, ,0.05769972000000001, ,0.031245762795524355, ,-0.0013399370594232773, ,0.0003924247932324556, ,1.0, ,0.33354429456386064, ,0.4622966878226975, ,0.02712189547152099
238, ,PASS, ,0.036215950000000004, ,0.019089690388380477, ,-0.0008462432676822927, ,0.00015261979054798227, ,1.0, ,0.33538019566346633, ,0.4599906124364809, ,0.016469051652007103
239, ,PASS, ,0.048575160000000006, ,0.026414822743351725, ,-0.001190558923270954, ,0.0002813472778533387, ,1.0, ,0.3369928485921554, ,0.461378339217567, ,0.025142344033795228
240, ,PASS, ,0.07149132000000001, ,0.037732465010457884, ,-0.0017047669024305627, ,0.0005885787196233143, ,1.0, ,0.3277961469170204, ,0.46327625966817004, ,0.022713822166894552
241, ,PASS, ,0.05745831000000001, ,0.029114236432703985, ,-0.0012853058045346017, ,0.0003690426457979707, ,1.0, ,0.32475729342133397, ,0.4631946286810473, ,0.02075467847594947
242, ,PASS, ,0.05038015000000001, ,0.0242420297001657, ,-0.0012676398411256918, ,0.00027239957834336944, ,1.0, ,0.3176198037413995, ,0.4614191547111283, ,0.013183404420317953
243, ,PASS, ,0.05956700000000001, ,0.029111451202132224, ,-0.0013057571438950227, ,0.00038630713316095916, ,1.0, ,0.32153894844182085, ,0.46270484275831103, ,0.01736699251035693
244, ,PASS, ,0.12917084999999995, ,0.05756841719816878, ,-0.004388334907716168, ,0.0016143608229350526, ,1.0, ,0.2697196242899481, ,0.47490867533315645, ,0.030652435664578273
245, ,PASS, ,0.07664765000000001, ,0.03674023829697438, ,-0.0014832124558682475, ,0.0006277517460196861, ,1.0, ,0.3177915454043291, ,0.4653374420930185, ,0.021264872145466417
246, ,PASS, ,0.06113376999999999, ,0.03288962128660519, ,-0.0013435737255770286, ,0.0004454661393034895, ,1.0, ,0.33891921355947474, ,0.46243954205016224, ,0.023224015836411503
