Channel, ,Pass/Fail, ,Amplitude, ,Sorting Function Response, ,Mean, ,Variance, ,NPeaksRatio, ,PosIntegralRatio, ,ToT50, ,ToT99
0, ,PASS, ,0.032166337, ,0.005269560574577257, ,0.02901468450276525, ,0.00017149250009296569, ,1.8333333333333333, ,0.7823788163794712, ,0.5223566865982326, ,0.05342748107181486
1, ,PASS, ,0.035395804, ,0.006077944213233066, ,0.029735969486296202, ,0.00021784220811837759, ,1.9166666666666667, ,0.8170573806748092, ,0.5306218240444073, ,0.14430317748617374
2, ,PASS, ,0.03526734200000001, ,0.006010733713195818, ,0.02953260010999776, ,0.0002148611247850746, ,1.9166666666666667, ,0.8125620833726163, ,0.5290912430358564, ,0.08840635905389686
3, ,PASS, ,0.034802332000000005, ,0.0059631203872615906, ,0.029508905416542525, ,0.0002100372988046492, ,1.9166666666666667, ,0.8130506081939082, ,0.5287239035938042, ,0.10044692965449685
4, ,PASS, ,0.03463489900000001, ,0.005923822842530908, ,0.029545716152405057, ,0.00020763814421566557, ,1.9166666666666667, ,0.8170573130707935, ,0.5314381339156343, ,0.12960959980408562
5, ,PASS, ,0.03444375900000001, ,0.0058995430471997425, ,0.029469069267443523, ,0.00020582361938023276, ,1.9166666666666667, ,0.815396665133889, ,0.5274790310401829, ,0.11269157772290361
6, ,PASS, ,0.03474433000000001, ,0.005896650623857798, ,0.029504064802248937, ,0.0002074407781570845, ,1.9166666666666667, ,0.8101025752879834, ,0.5267035366625171, ,0.08942674639293076
7, ,PASS, ,0.03420201400000002, ,0.0058989771661633085, ,0.029425460836064572, ,0.00020439997946657915, ,1.9166666666666667, ,0.8159578905802183, ,0.5286422726066815, ,0.12340564478275953
8, ,PASS, ,0.03442994300000002, ,0.005909892553717767, ,0.02951536722266893, ,0.00020625018808821335, ,1.9166666666666667, ,0.8170013167826871, ,0.5310912022203629, ,0.12950756107018224
9, ,PASS, ,0.03443693500000001, ,0.005853349141418887, ,0.02979961977741271, ,0.00020439242571311845, ,1.9166666666666667, ,0.8127645507036048, ,0.5307034550315299, ,0.08871247525560703
10, ,PASS, ,0.034602075000000024, ,0.005962309317167455, ,0.029340455853696868, ,0.0002089236308552354, ,1.9166666666666667, ,0.8158916372258114, ,0.5297442909328381, ,0.13014020122038325
11, ,PASS, ,0.034797146000000015, ,0.005927926065499715, ,0.02946678704632559, ,0.00020879510614788452, ,1.9166666666666667, ,0.811001486431147, ,0.5284586028856554, ,0.09848778596355176
12, ,PASS, ,0.034711104000000007, ,0.005980575059182559, ,0.029309058646639866, ,0.00021009190508264677, ,1.9166666666666667, ,0.8169601279959101, ,0.5298055141731801, ,0.1373237280871819
13, ,PASS, ,0.035059487000000014, ,0.005974095248506547, ,0.029244378788636973, ,0.0002120414142678352, ,1.9166666666666667, ,0.8121084747939044, ,0.5280912634436032, ,0.10320197546988837
14, ,PASS, ,0.03484939100000001, ,0.006021026460286962, ,0.02942601376700476, ,0.00021249169701386788, ,1.9166666666666667, ,0.8183480553978004, ,0.5298667374135222, ,0.14354809085528866
15, ,PASS, ,0.03507671300000001, ,0.006002820490753293, ,0.029313867221832213, ,0.00021302060470672603, ,1.9166666666666667, ,0.8109343694718951, ,0.5285810493663394, ,0.09942654231546295
16, ,PASS, ,0.035100893000000015, ,0.006036353124711911, ,0.02948399574384197, ,0.00021458198810656842, ,1.9166666666666667, ,0.815963511719838, ,0.5297034754392768, ,0.13295647027611682
17, ,PASS, ,0.035200004000000014, ,0.0059812314445083755, ,0.029582543802718315, ,0.0002133799261880965, ,1.9166666666666667, ,0.8119746487320537, ,0.530764678271872, ,0.0928144323585233
18, ,PASS, ,0.035309034, ,0.005981801454954636, ,0.029642732519479197, ,0.00021396537540222836, ,1.9166666666666667, ,0.811550782114139, ,0.530825901512214, ,0.10009999795922532
19, ,PASS, ,0.03521129000000001, ,0.005991661138538162, ,0.029358794403379525, ,0.00021352783090897978, ,1.9166666666666667, ,0.8119170623266552, ,0.5255811105895798, ,0.10532438113507887
20, ,PASS, ,0.03521869700000001, ,0.006035381672962106, ,0.029600530673006678, ,0.00021531895228709904, ,1.9166666666666667, ,0.8174346688894751, ,0.5297646986796187, ,0.14011958939613478
21, ,PASS, ,0.03510497900000001, ,0.006016863969167262, ,0.0294504338922471, ,0.00021385394517391324, ,1.9166666666666667, ,0.8173840376560466, ,0.5298259219199608, ,0.12840554274402563
22, ,PASS, ,0.03516641500000001, ,0.006075544241107604, ,0.029425180089365528, ,0.00021626954046583607, ,1.9166666666666667, ,0.8175572259323778, ,0.5295402134650313, ,0.1317728209628375
23, ,PASS, ,0.03534882200000002, ,0.0060229067554170975, ,0.029375374878267795, ,0.00021571760591179576, ,1.9166666666666667, ,0.8115528476322049, ,0.5308463092589947, ,0.10444684802350973
24, ,PASS, ,0.03540198100000001, ,0.006066171658843766, ,0.02930902682098325, ,0.0002175127909604615, ,1.9166666666666667, ,0.8134681592900257, ,0.5280096324564805, ,0.11352829534091141
25, ,PASS, ,0.03521521900000001, ,0.006078131159002925, ,0.02938523110538561, ,0.0002165925724964699, ,1.9166666666666667, ,0.8164414018434605, ,0.5291320585294178, ,0.13034427868819004
26, ,PASS, ,0.035504521, ,0.006044714393261886, ,0.029471706239913478, ,0.00021754328724813421, ,1.9166666666666667, ,0.8142692188047667, ,0.52829534091141, ,0.08816146609252873
27, ,PASS, ,0.035573228000000005, ,0.006043647992273766, ,0.029232075793208304, ,0.00021756302295202783, ,1.9166666666666667, ,0.8093695544182912, ,0.5296014367053734, ,0.08454929491234872
28, ,PASS, ,0.035692598000000006, ,0.006080097890403255, ,0.029412163205750907, ,0.00021965030090884463, ,1.9166666666666667, ,0.8125596398188237, ,0.5288259423277076, ,0.10842635864574192
29, ,PASS, ,0.03786460900000001, ,0.00646922212272482, ,0.02963270201940777, ,0.0002479755339662083, ,1.9166666666666667, ,0.8131970716310747, ,0.5294789902246892, ,0.11783432991163445
30, ,PASS, ,0.13677498, ,0.020562189189956132, ,0.035184474567661876, ,0.002852403236873662, ,1.75, ,0.7636615470533061, ,0.5475806616191506, ,0.1372216893532785
31, ,PASS, ,0.038563354, ,0.00668895317175693, ,0.0294812433477276, ,0.0002613933666011134, ,1.9166666666666667, ,0.819375589316872, ,0.5291116507826371, ,0.12773208710026326
32, ,PASS, ,0.032669555, ,0.0056888788132919525, ,0.02893467395861309, ,0.00018837390311171845, ,1.8333333333333333, ,0.820091722209915, ,0.5234587049243893, ,0.12275259688577785
33, ,PASS, ,0.03236032800000001, ,0.005657065105179322, ,0.029012689962796677, ,0.00018509176512185026, ,1.8333333333333333, ,0.8219706038960259, ,0.5230301422419951, ,0.11942613416052733
34, ,PASS, ,0.03274182700000003, ,0.005698212844989155, ,0.029052033745046023, ,0.00018908258096192283, ,1.8333333333333333, ,0.8174908785986584, ,0.5228464725209689, ,0.10263055856002938
35, ,PASS, ,0.03263472300000002, ,0.005693721049470641, ,0.029151813407828412, ,0.0001881632869117875, ,1.8333333333333333, ,0.8191827123226101, ,0.5228056570274076, ,0.11258953898900022
36, ,PASS, ,0.03320095800000001, ,0.005750553840340431, ,0.029090576184281954, ,0.0001934510507494756, ,1.8333333333333333, ,0.8167258759774111, ,0.5224995408256974, ,0.09514091549152058
37, ,PASS, ,0.03329496600000002, ,0.005760676543953381, ,0.029113855535703354, ,0.00019440071391847656, ,1.8333333333333333, ,0.8160529157030428, ,0.5232138119630212, ,0.08071263851758127
38, ,PASS, ,0.03328208200000001, ,0.005807344160085654, ,0.02922620672280158, ,0.00019552209321542087, ,1.8333333333333333, ,0.8204998477668417, ,0.523989306340687, ,0.11203852982592193
39, ,PASS, ,0.032993766, ,0.0057743045715099315, ,0.029177944547478626, ,0.00019305902490301095, ,1.8333333333333333, ,0.824022400146008, ,0.5261321197526581, ,0.13091569559804903
40, ,PASS, ,0.033506704000000026, ,0.005813111424394173, ,0.029066623381277936, ,0.00019732154802292815, ,1.8333333333333333, ,0.8180052554531264, ,0.5234587049243893, ,0.10430399379604498
41, ,PASS, ,0.03324110200000001, ,0.0058294603267771165, ,0.028810402809269203, ,0.00019635161736897307, ,1.8333333333333333, ,0.8256248128846934, ,0.524744392971572, ,0.13179322870961818
42, ,PASS, ,0.03327713300000001, ,0.0058337495498410035, ,0.028945408270014898, ,0.00019659651702582547, ,1.8333333333333333, ,0.822196495964099, ,0.5240505295810289, ,0.11763025244382767
43, ,PASS, ,0.033335189000000015, ,0.005856772476593355, ,0.02898896549935716, ,0.00019772691981669477, ,1.8333333333333333, ,0.8252910192314822, ,0.5232546274565825, ,0.1282422807697802
44, ,PASS, ,0.03341180000000002, ,0.005824605092717222, ,0.029130505285443156, ,0.00019709260839621042, ,1.8333333333333333, ,0.8201013619877554, ,0.5237035978857575, ,0.11236505377441276
45, ,PASS, ,0.03320095900000002, ,0.005816654622405377, ,0.029028022868819003, ,0.0001955285090396903, ,1.8333333333333333, ,0.823230108124657, ,0.5237240056325381, ,0.12450766310891614
46, ,PASS, ,0.03356659500000001, ,0.005832862922560078, ,0.029061302377441277, ,0.0001983870983017165, ,1.8333333333333333, ,0.81742794726128, ,0.5237035978857575, ,0.09756943735842126
47, ,PASS, ,0.03339426600000001, ,0.005852126303231072, ,0.028876484704108082, ,0.00019774816766375935, ,1.8333333333333333, ,0.8220050573268625, ,0.5240097140874675, ,0.12411991592008326
48, ,PASS, ,0.03330819400000001, ,0.005819347451427033, ,0.029121148312075264, ,0.000196195511851435, ,1.8333333333333333, ,0.822171694940576, ,0.5263361972204649, ,0.12634436031917715
49, ,PASS, ,0.033293556, ,0.005795106212809758, ,0.029030702355911105, ,0.0001954138356973511, ,1.8333333333333333, ,0.8182884867402577, ,0.5240301218342482, ,0.10552845860288565
50, ,PASS, ,0.03314147700000001, ,0.00578667730803147, ,0.028827026579641233, ,0.00019429207604582016, ,1.8333333333333333, ,0.8185419248295184, ,0.5229281035080917, ,0.1115079284096243
51, ,PASS, ,0.03285853100000001, ,0.00573196378929823, ,0.028969803211158954, ,0.0001907308876251549, ,1.8333333333333333, ,0.8199981097499377, ,0.5242546070488358, ,0.10732434031958532
52, ,PASS, ,0.03308029600000002, ,0.005727983530910348, ,0.02902489533013612, ,0.000191758159774973, ,1.8333333333333333, ,0.8136473295949697, ,0.5236219668986347, ,0.07510050815289483
53, ,PASS, ,0.03286146800000001, ,0.005702007012771796, ,0.02895188936917614, ,0.00019011705696213494, ,1.8333333333333333, ,0.8176204949524225, ,0.5253362176282117, ,0.0917940450194894
54, ,PASS, ,0.03306307900000002, ,0.005721547630713694, ,0.028935202862655864, ,0.00019163769670744012, ,1.8333333333333333, ,0.8200616223786045, ,0.5244586845166426, ,0.11712005877431073
55, ,PASS, ,0.033042463000000015, ,0.005762311897422048, ,0.029045035779943267, ,0.00019279533241358806, ,1.8333333333333333, ,0.8190066095957509, ,0.5241321605681517, ,0.10897736780882022
56, ,PASS, ,0.033279240000000015, ,0.005766641283590002, ,0.028937121899573478, ,0.00019444633526698743, ,1.8333333333333333, ,0.8141564333961897, ,0.5234382971776086, ,0.07308014122160772
57, ,PASS, ,0.032930841000000016, ,0.005755215053698318, ,0.02911693024201547, ,0.00019189185248628151, ,1.8333333333333333, ,0.824014530967216, ,0.5254994796024571, ,0.12897695965388462
58, ,PASS, ,0.032948489000000025, ,0.005752750611865713, ,0.029184069058774312, ,0.0001918952060183587, ,1.8333333333333333, ,0.819052577125707, ,0.5239688985939063, ,0.10434480928960634
59, ,PASS, ,0.032917399000000014, ,0.0056959781126893864, ,0.02905677992928716, ,0.00018976646733263156, ,1.8333333333333333, ,0.8162220221197222, ,0.5251525479071856, ,0.09916124160731414
60, ,PASS, ,0.03318693500000002, ,0.005803396854733305, ,0.02898268942037918, ,0.00019499516279560122, ,1.8333333333333333, ,0.8220157189164974, ,0.5213771147527602, ,0.12393624619905716
61, ,PASS, ,0.03311666600000001, ,0.005721559511814485, ,0.029107847543784822, ,0.0001920251527286104, ,1.8333333333333333, ,0.813738868904745, ,0.5240301218342482, ,0.04479500418358809
62, ,PASS, ,0.03312171999999999, ,0.005784532189733872, ,0.028988383393338913, ,0.00019405136243988018, ,1.8333333333333333, ,0.8178575344720546, ,0.5244382767698619, ,0.10195710291626701
63, ,PASS, ,0.033484593, ,0.005786989106207956, ,0.029051419651170383, ,0.00019616544458745796, ,1.8333333333333333, ,0.8153593388068211, ,0.5247648007183527, ,0.09787555356013143
64, ,PASS, ,0.033624776000000016, ,0.005853023684402647, ,0.029015248654231548, ,0.00019932917115719412, ,1.8333333333333333, ,0.8199374694243983, ,0.5250709169200628, ,0.10193669516948634
65, ,PASS, ,0.03335757100000001, ,0.005673162625563985, ,0.029032869201465278, ,0.0001916161546960002, ,1.8333333333333333, ,0.8083782229689754, ,0.5249892859329401, ,0.07720250607130466
66, ,PASS, ,0.03288344600000001, ,0.005760461468369752, ,0.029048169957368218, ,0.00019191833374583255, ,1.8333333333333333, ,0.8228289648489495, ,0.5237648211260995, ,0.12179343278708597
67, ,PASS, ,0.03299003300000001, ,0.005740854094478766, ,0.029002833084937042, ,0.0001919486382530285, ,1.8333333333333333, ,0.8216953571674586, ,0.5255811105895798, ,0.11360992632803413
68, ,PASS, ,0.03316471300000001, ,0.005745808217206829, ,0.0290469884346646, ,0.00019304229939453167, ,1.8333333333333333, ,0.8182887337740612, ,0.5260504887655354, ,0.10448766351707107
69, ,PASS, ,0.03314702400000001, ,0.0057612304869452124, ,0.028969885651782618, ,0.00019348235033808108, ,1.8333333333333333, ,0.8208459187572059, ,0.5243566457827391, ,0.12099753066263953
70, ,PASS, ,0.03326225000000002, ,0.0057339291814697295, ,0.029241942517703724, ,0.0001932931337171985, ,1.8333333333333333, ,0.8212565525694301, ,0.5250505091732822, ,0.09624293381767719
71, ,PASS, ,0.03319995600000002, ,0.005806135856334872, ,0.029048342711720167, ,0.00019528989669778676, ,1.8333333333333333, ,0.8241731010749479, ,0.52588722679129, ,0.13756862104855003
72, ,PASS, ,0.033516654000000014, ,0.005844183770781665, ,0.029182206911063043, ,0.00019835085218376393, ,1.8333333333333333, ,0.822452743168239, ,0.5245607232505459, ,0.11930368767984327
73, ,PASS, ,0.03330237100000001, ,0.005754293988835624, ,0.028940425229219816, ,0.0001935799978276335, ,1.75, ,0.8159938954863584, ,0.5263566049672456, ,0.10214077263729311
74, ,PASS, ,0.03329141100000003, ,0.00576127365561297, ,0.029149810501683644, ,0.00019423791669643395, ,1.8333333333333333, ,0.8177278675687278, ,0.5245811309973266, ,0.09816126201506092
75, ,PASS, ,0.03316666100000002, ,0.005707686543393094, ,0.0289570629583682, ,0.00019182164048346605, ,1.8333333333333333, ,0.8154452856143681, ,0.5238464521132222, ,0.08481459562049753
76, ,PASS, ,0.03303245000000001, ,0.005732977045929222, ,0.028970790609130426, ,0.00019184715599755112, ,1.8333333333333333, ,0.8173104038893011, ,0.52468316973123, ,0.10405910083467684
77, ,PASS, ,0.032915207000000016, ,0.005734861954502562, ,0.02892445745374584, ,0.00019113719841622025, ,1.8333333333333333, ,0.8194992596528458, ,0.5230709577355565, ,0.12305871308748802
78, ,PASS, ,0.03311433700000001, ,0.005727460265903967, ,0.028891536684741127, ,0.00019208690673245293, ,1.8333333333333333, ,0.8159569733656657, ,0.522397502091794, ,0.11456909042672599
79, ,PASS, ,0.03290996400000001, ,0.005631531606302479, ,0.028731867274116855, ,0.00018776317871335742, ,1.8333333333333333, ,0.8145637964741933, ,0.5239076753535642, ,0.08216158853900941
80, ,PASS, ,0.03326439400000002, ,0.005753974953772069, ,0.029046336885492133, ,0.00019362098028484668, ,1.8333333333333333, ,0.8155669243600532, ,0.5236423746454154, ,0.0923450541825677
81, ,PASS, ,0.033081036000000015, ,0.005740406718349568, ,0.028974442341809348, ,0.0001925059351393251, ,1.8333333333333333, ,0.8179832640202561, ,0.5253566253749924, ,0.09750821411807922
82, ,PASS, ,0.03305300400000001, ,0.005689736804727652, ,0.028898436962959937, ,0.00019043679421102035, ,1.8333333333333333, ,0.8162540299157522, ,0.5239484908471256, ,0.09183486051305076
83, ,PASS, ,0.03298666, ,0.005745276831270234, ,0.02877899284149303, ,0.00019178215593469123, ,1.8333333333333333, ,0.8191854498836025, ,0.5237852288728801, ,0.11652823411767106
84, ,PASS, ,0.033288608000000025, ,0.005795706790797658, ,0.028807612657231484, ,0.00019546867852957527, ,1.8333333333333333, ,0.8218985334857329, ,0.5239688985939063, ,0.12369135323768903
85, ,PASS, ,0.03309389700000002, ,0.005778393955115482, ,0.02887320140178772, ,0.0001937093291719697, ,1.8333333333333333, ,0.8221005824611674, ,0.5234587049243893, ,0.11536499255117243
86, ,PASS, ,0.03306891000000001, ,0.005767436042476835, ,0.02878769767882288, ,0.00019300597930235034, ,1.8333333333333333, ,0.8195860174051618, ,0.5230301422419951, ,0.09707965143568499
87, ,PASS, ,0.03325034900000002, ,0.005771597235701288, ,0.0288312546448848, ,0.00019417137875007097, ,1.8333333333333333, ,0.8151146120593582, ,0.5231321809758984, ,0.07748821452623415
88, ,PASS, ,0.03314357600000002, ,0.005785381783315006, ,0.02898436931440175, ,0.00019410850821894598, ,1.8333333333333333, ,0.8200363191868043, ,0.5242954225423971, ,0.11852819330217751
89, ,PASS, ,0.03295224200000002, ,0.005797199534963259, ,0.029046324136609458, ,0.00019331947310947836, ,1.8333333333333333, ,0.824935569545906, ,0.5239484908471256, ,0.1395277647394951
90, ,PASS, ,0.03328471100000001, ,0.005756367749690419, ,0.028878200257851882, ,0.00019417868305209339, ,1.8333333333333333, ,0.8145145623987489, ,0.5230097344952144, ,0.09599804085630906
91, ,PASS, ,0.033193947000000015, ,0.005763297759609312, ,0.02876340183590131, ,0.00019375981889355724, ,1.8333333333333333, ,0.8191443177955813, ,0.5228464725209689, ,0.1089977755556009
92, ,PASS, ,0.03334220700000001, ,0.005819820339258315, ,0.02893384256045795, ,0.0001962348272504814, ,1.8333333333333333, ,0.8195026319913856, ,0.5243974612763005, ,0.10334482969735312
93, ,PASS, ,0.03348363500000001, ,0.005770590304128294, ,0.02901619947762291, ,0.00019581342067132707, ,1.8333333333333333, ,0.8151370454602016, ,0.5248260239586947, ,0.08959000836717618
94, ,PASS, ,0.033290135000000005, ,0.0057921604051732346, ,0.02904834945458256, ,0.00019521242887341598, ,1.8333333333333333, ,0.8179403416464401, ,0.5238260443664415, ,0.060917124140323665
95, ,PASS, ,0.03317726300000001, ,0.0057596891531023035, ,0.028964169177690253, ,0.00019362876401568345, ,1.8333333333333333, ,0.8187541247430895, ,0.5232342197098019, ,0.10979367768004734
96, ,PASS, ,0.03347705100000001, ,0.005784973760166865, ,0.0289416517610661, ,0.00019608364525047943, ,1.8333333333333333, ,0.8169032236461619, ,0.5240913450745903, ,0.05697842901165282
97, ,PASS, ,0.03353498600000002, ,0.0057847461494386744, ,0.02894679499151038, ,0.00019646552658591932, ,1.8333333333333333, ,0.8186837902813483, ,0.5245403155037652, ,0.09412052815248668
98, ,PASS, ,0.033303952000000026, ,0.005795086640481952, ,0.02893142508875329, ,0.00019537147569453602, ,1.8333333333333333, ,0.8194550501626007, ,0.5232342197098019, ,0.1147323524009714
99, ,PASS, ,0.033275905000000015, ,0.005786688087400962, ,0.02877798283794208, ,0.0001952267265192493, ,1.8333333333333333, ,0.8177623822785063, ,0.5241525683149324, ,0.10556927409644701
100, ,PASS, ,0.033560988000000014, ,0.0058149358706088535, ,0.028856244643476664, ,0.0001974346623831319, ,1.8333333333333333, ,0.8186889044834844, ,0.5233770739372666, ,0.11314054815207852
101, ,PASS, ,0.033429929, ,0.005821556382256865, ,0.028996755884022778, ,0.00019699227816728933, ,1.8333333333333333, ,0.8196205525544237, ,0.5228056570274076, ,0.12142609334503378
102, ,PASS, ,0.03347345000000003, ,0.005825664719766456, ,0.028865952602579542, ,0.00019742216368889693, ,1.8333333333333333, ,0.8201998196806531, ,0.5224791330789168, ,0.11950776514765005
103, ,PASS, ,0.03351085400000002, ,0.005814556856063536, ,0.029105764995265408, ,0.0001971465616643288, ,1.8333333333333333, ,0.8202997423356019, ,0.5232954429501439, ,0.11789555315197649
104, ,PASS, ,0.03538699200000001, ,0.006063614066226398, ,0.02889341595983756, ,0.00021725706625049605, ,1.8333333333333333, ,0.8221815027586029, ,0.5247035774780107, ,0.12689536948225547
105, ,PASS, ,0.10698388, ,0.016272384402049263, ,0.03323192332462603, ,0.0017655482256389526, ,1.75, ,0.7686604061506402, ,0.543437889022673, ,0.13775229076957612
106, ,PASS, ,0.040492562999999995, ,0.0070262216363663225, ,0.029324557321646495, ,0.00028806141524096503, ,1.9166666666666667, ,0.8238566174246158, ,0.5266014979286137, ,0.1515683353400951
107, ,PASS, ,0.03259871500000001, ,0.0057252424020982195, ,0.02867044485008469, ,0.00018905885093499085, ,1.75, ,0.8227598479652625, ,0.5219281239158384, ,0.11463031366706802
108, ,PASS, ,0.032295594999999996, ,0.005672356667645788, ,0.028678654799004097, ,0.0001856704471235394, ,1.8333333333333333, ,0.8239621551211731, ,0.5216220077141283, ,0.07254953980531009
109, ,PASS, ,0.032361705000000004, ,0.005635992186175501, ,0.028600259394073586, ,0.00018476824522280338, ,1.75, ,0.821814952400847, ,0.5212546682720761, ,0.08712067100671415
110, ,PASS, ,0.032202982000000005, ,0.005679310419036767, ,0.0286374814594396, ,0.0001850505096637236, ,1.75, ,0.8253410691267066, ,0.5209077365768046, ,0.11565070100610192
111, ,PASS, ,0.03203430700000001, ,0.005633080149007397, ,0.028864161455072344, ,0.000182644866119187, ,1.75, ,0.8220397112064375, ,0.5211730372849533, ,0.09856941695067448
112, ,PASS, ,0.032114885, ,0.00564928276840637, ,0.02865913840882839, ,0.0001836024021437586, ,1.75, ,0.8214821178243084, ,0.5207036591089977, ,0.09840615497642906
113, ,PASS, ,0.032093130000000004, ,0.005631577930120135, ,0.028640965398420436, ,0.00018294491095799297, ,1.8333333333333333, ,0.8185803815567539, ,0.5221934246239872, ,0.08720230199383686
114, ,PASS, ,0.032116509000000015, ,0.005644655751635123, ,0.028976592754535624, ,0.00018337186959918535, ,1.75, ,0.8204069414942653, ,0.520438358400849, ,0.10746719454705006
115, ,PASS, ,0.03229122, ,0.005588168853564074, ,0.028566672885390092, ,0.00018278185600523745, ,1.75, ,0.8158273027281074, ,0.5199689802248934, ,0.057202914226240284
116, ,PASS, ,0.03233429700000001, ,0.0056956328497869005, ,0.0287310290777127, ,0.0001863198778888149, ,1.75, ,0.8224123051756956, ,0.520560804881533, ,0.10824268892471582
117, ,PASS, ,0.032384497000000005, ,0.005680789110746619, ,0.028779200997040875, ,0.00018633757730205573, ,1.8333333333333333, ,0.8210389854392791, ,0.5199077569845514, ,0.11463031366706802
118, ,PASS, ,0.03260927000000001, ,0.005674173284631567, ,0.02902075587894125, ,0.00018753443030608086, ,1.8333333333333333, ,0.8187056647321815, ,0.5208465133364625, ,0.0920797534744189
119, ,PASS, ,0.03241465400000001, ,0.005679938603294087, ,0.028919963904450927, ,0.0001865520020054523, ,1.8333333333333333, ,0.8199406277784209, ,0.5220709781433032, ,0.09061039570621007
120, ,PASS, ,0.03241363000000001, ,0.005701793861172978, ,0.028712539835472745, ,0.00018718157727022473, ,1.8333333333333333, ,0.8200258939422493, ,0.5206220281218751, ,0.10528356564151752
121, ,PASS, ,0.03253440800000002, ,0.005698109193920292, ,0.02868821369702659, ,0.00018767340056571964, ,1.75, ,0.8172170455182961, ,0.518785330911614, ,0.1030795289892043
122, ,PASS, ,0.03248285000000002, ,0.005712984570857465, ,0.02882234180771821, ,0.00018789699795907636, ,1.8333333333333333, ,0.823257888667328, ,0.5218056774351544, ,0.11577314748678598
123, ,PASS, ,0.032599552000000004, ,0.00570598749244166, ,0.028485263207995753, ,0.0001881203393800839, ,1.75, ,0.812391037102755, ,0.51986694149099, ,0.08340646109263077
124, ,PASS, ,0.03221922, ,0.005668154380074965, ,0.028712474105752943, ,0.00018505483861096334, ,1.8333333333333333, ,0.823924569327137, ,0.520499581641191, ,0.12654843778698394
125, ,PASS, ,0.032423708000000016, ,0.005689106932603319, ,0.028585132108875328, ,0.00018669750652390563, ,1.75, ,0.8219943582201337, ,0.5213567070059795, ,0.11195689883879921
126, ,PASS, ,0.03257960200000002, ,0.005698532201168504, ,0.02874712853066264, ,0.0001881258622209937, ,1.8333333333333333, ,0.8186597557648695, ,0.5203567274137263, ,0.08381461602824432
127, ,PASS, ,0.03266342500000001, ,0.005684061148045425, ,0.02866443611665068, ,0.00018770739910225413, ,1.75, ,0.8175116447156191, ,0.5209689598171466, ,0.09371237321687312
128, ,PASS, ,0.03229731100000001, ,0.005698922437082473, ,0.02908084027015775, ,0.00018655320008483377, ,1.8333333333333333, ,0.8221390269915324, ,0.5202138731862616, ,0.10371216913940531
129, ,PASS, ,0.032692579000000006, ,0.005734355710678841, ,0.028748656851574458, ,0.00018985866053212167, ,1.8333333333333333, ,0.8234041992267325, ,0.5208669210832432, ,0.11271198546968429
130, ,PASS, ,0.03292617800000001, ,0.005782255431052686, ,0.028906563362645663, ,0.00019268015928078805, ,1.75, ,0.8240609470975773, ,0.5213975224995409, ,0.11679353482581988
131, ,PASS, ,0.03290620000000001, ,0.005773711227289859, ,0.02880181743735842, ,0.00019230362202117985, ,1.75, ,0.8209181032533566, ,0.5206424358686558, ,0.11375278055549887
132, ,PASS, ,0.03301099400000001, ,0.0057891128135192475, ,0.02885377509756944, ,0.00019363112620745637, ,1.8333333333333333, ,0.8207866918090018, ,0.5198873492377707, ,0.11073243403195854
133, ,PASS, ,0.032852199000000026, ,0.005785215091109362, ,0.029025432078977984, ,0.00019248998476240745, ,1.75, ,0.8214327473262403, ,0.519356747821473, ,0.1155690700189792
134, ,PASS, ,0.032922092000000014, ,0.0057823605201373805, ,0.0290417427768617, ,0.0001926468677632332, ,1.75, ,0.8226050075173091, ,0.5203363196669456, ,0.1048345952123426
135, ,PASS, ,0.032942120000000005, ,0.005780702774671836, ,0.028767384998571458, ,0.00019272322388356626, ,1.75, ,0.818828876130052, ,0.5197649027570866, ,0.10579375931103446
136, ,PASS, ,0.03290905000000002, ,0.005776139070554276, ,0.028656276705883554, ,0.00019232887654494786, ,1.75, ,0.8199638990846853, ,0.5203567274137263, ,0.11152833615640498
137, ,PASS, ,0.03293098800000001, ,0.005746435516829797, ,0.028887177589212464, ,0.0001917079122002962, ,1.8333333333333333, ,0.8192794314420743, ,0.5203363196669456, ,0.10809983469725108
138, ,PASS, ,0.03322577400000001, ,0.005864423081219854, ,0.028858159421215893, ,0.00019716895795776434, ,1.75, ,0.8245648078071695, ,0.5204587661476296, ,0.12573212791575683
139, ,PASS, ,0.03331518900000002, ,0.005873759522262842, ,0.02872915525279076, ,0.0001982636059617019, ,1.8333333333333333, ,0.8231319183852209, ,0.5209689598171466, ,0.10561008959000837
140, ,PASS, ,0.03325582100000001, ,0.005774783415647264, ,0.02887864776045387, ,0.0001947677656499961, ,1.8333333333333333, ,0.8189434815274367, ,0.5222342401175486, ,0.11544662353829514
141, ,PASS, ,0.033177116000000006, ,0.005772793034122846, ,0.028885154606620275, ,0.000193939480939145, ,1.75, ,0.8123557240079524, ,0.5191934858472276, ,0.08165139486949245
142, ,PASS, ,0.03331313200000001, ,0.005771309486946753, ,0.028713610861492624, ,0.00019457398001819195, ,1.75, ,0.8096543488025045, ,0.519479194302157, ,0.05918246566396604
143, ,PASS, ,0.03295781700000002, ,0.005748260909124318, ,0.029156812525968856, ,0.00019205062543101547, ,1.75, ,0.8213554138343028, ,0.5208669210832432, ,0.07916164976224975
144, ,PASS, ,0.03291623700000001, ,0.005793431533829186, ,0.02892364946913328, ,0.0001930906737208813, ,1.75, ,0.823034182576398, ,0.5209689598171466, ,0.11765066019060835
145, ,PASS, ,0.03312599400000002, ,0.005765624848944985, ,0.028937848798800025, ,0.0001934459081146952, ,1.75, ,0.8180179175940587, ,0.5203363196669456, ,0.09663068100651007
146, ,PASS, ,0.03296036600000002, ,0.005843469478118963, ,0.029030401839635924, ,0.00019490696577641612, ,1.75, ,0.8219908666781329, ,0.5195608252892798, ,0.1187118630232036
147, ,PASS, ,0.033508421000000004, ,0.005887638841411775, ,0.028576703516764963, ,0.0001996614958914125, ,1.75, ,0.8176535581989847, ,0.519744495010306, ,0.07926368849615315
148, ,PASS, ,0.03298427600000002, ,0.005830429376441889, ,0.028830025669659802, ,0.00019463091065140118, ,1.75, ,0.8221292914166882, ,0.5200302034652354, ,0.11132425868859819
149, ,PASS, ,0.03333742300000002, ,0.005732281377490578, ,0.028832927789453275, ,0.00019359908873795739, ,1.8333333333333333, ,0.8115012783288816, ,0.519989387971674, ,0.08505948858186567
150, ,PASS, ,0.03306947700000002, ,0.005814541454783874, ,0.028706106352645866, ,0.00019474433034477243, ,1.75, ,0.8228226282669955, ,0.520560804881533, ,0.10969163894614396
151, ,PASS, ,0.03308243500000002, ,0.00579098910618977, ,0.02882610590524683, ,0.00019411988146861563, ,1.75, ,0.8166806442277437, ,0.5208465133364625, ,0.09593681761596702
152, ,PASS, ,0.03305338700000001, ,0.005775437416966205, ,0.029152102706495788, ,0.00019331645523130124, ,1.8333333333333333, ,0.825677041837164, ,0.5226423950531622, ,0.12128323911756902
153, ,FAIL, ,0.005607269999999987, ,0.00016549471042721185, ,0.028025799181037127, ,9.814223783047583e-07, ,0.5, ,0.23641857828727042, ,0.3325442337911471, ,0.005591722617905757
154, ,PASS, ,0.03286612900000003, ,0.00577035957568043, ,0.029092867052794843, ,0.0001921756708996958, ,1.8333333333333333, ,0.820232597877398, ,0.5221526091304259, ,0.10297749025530091
155, ,PASS, ,0.03285092500000002, ,0.005768039337692532, ,0.02885488926781086, ,0.00019172349763225564, ,1.75, ,0.8255079029792974, ,0.5208056978429012, ,0.10393665435399277
156, ,PASS, ,0.033280281000000016, ,0.005823736713685335, ,0.028898834369584295, ,0.00019622392936011613, ,1.8333333333333333, ,0.8185933833182273, ,0.5199485724781127, ,0.0982633007489643
157, ,PASS, ,0.03319124600000001, ,0.005824456198754973, ,0.02868368731246301, ,0.00019568034291343723, ,1.8333333333333333, ,0.8207214247635378, ,0.5197240872635253, ,0.11077324952551988
158, ,PASS, ,0.033367970000000004, ,0.005812144958143288, ,0.028883760835207446, ,0.00019624963828355157, ,1.8333333333333333, ,0.8165506037414237, ,0.5192751168343503, ,0.11452827493316463
159, ,PASS, ,0.03296404100000002, ,0.005811847859070888, ,0.029105157581028957, ,0.00019400325698196847, ,1.8333333333333333, ,0.8222078889013272, ,0.5197853105038672, ,0.1309361033448297
160, ,PASS, ,0.03332251500000001, ,0.005828255718149096, ,0.028830496964551745, ,0.00019667131170885495, ,1.75, ,0.8153197950267398, ,0.5189281851390788, ,0.0896716393542989
161, ,PASS, ,0.033189956000000014, ,0.005842227127081689, ,0.028999930309810004, ,0.00019624426951602523, ,1.8333333333333333, ,0.8205805539962348, ,0.519356747821473, ,0.11342625660700802
162, ,PASS, ,0.033055905999999996, ,0.00581161336345336, ,0.02893800057549846, ,0.00019468087307227653, ,1.75, ,0.821614327664979, ,0.5209485520703659, ,0.11385481928940226
163, ,PASS, ,0.032974278, ,0.0057673948919568715, ,0.028728320905063165, ,0.00019278828910357918, ,1.9166666666666667, ,0.8177949442581539, ,0.5195812330360605, ,0.10393665435399277
164, ,PASS, ,0.03312875100000001, ,0.005824125667776322, ,0.02881589309410012, ,0.00019546744679641275, ,1.75, ,0.822183457007911, ,0.5202955041733842, ,0.1213036468643497
165, ,PASS, ,0.033253042000000024, ,0.0057457621323707235, ,0.02891807548009224, ,0.00019358276598079215, ,1.8333333333333333, ,0.8138478060097221, ,0.5210914062978307, ,0.09465112956878431
166, ,PASS, ,0.03329509600000001, ,0.005815133633349961, ,0.028893931543233813, ,0.00019587771955725396, ,1.8333333333333333, ,0.8141955038793155, ,0.5195200097957184, ,0.08846758229423889
167, ,PASS, ,0.032888865, ,0.0058078070302108875, ,0.028920808165159895, ,0.00019350852071487715, ,1.9166666666666667, ,0.8227722323254828, ,0.521193445031734, ,0.11277320871002633
168, ,PASS, ,0.033134989000000024, ,0.005812409246394214, ,0.028806818884145224, ,0.00019503844135127554, ,1.9166666666666667, ,0.8224124331474639, ,0.5220505703965225, ,0.12036489051243852
169, ,PASS, ,0.03313216900000001, ,0.00579840031542838, ,0.028746849838717576, ,0.00019481108658558574, ,1.8333333333333333, ,0.8199583069300241, ,0.5211118140446114, ,0.10126323952572397
170, ,PASS, ,0.033300754000000016, ,0.005813810132421115, ,0.028733902507316177, ,0.0001959510531487869, ,1.75, ,0.8194839705624821, ,0.5201322421991388, ,0.09893675639272669
171, ,PASS, ,0.033113717000000015, ,0.005855190890427958, ,0.02884047087483929, ,0.00019649540954417527, ,1.8333333333333333, ,0.8238090837542588, ,0.5197240872635253, ,0.11905879471847514
172, ,PASS, ,0.033148962000000025, ,0.005867297416812444, ,0.02895894817030265, ,0.0001968027832867432, ,1.8333333333333333, ,0.826253538451187, ,0.5202138731862616, ,0.1253851962204853
173, ,PASS, ,0.033119695000000005, ,0.005832030168811441, ,0.02881508726707618, ,0.00019582024235455486, ,1.75, ,0.8224375632807422, ,0.5205403971347523, ,0.12107916164976225
174, ,PASS, ,0.03341201100000002, ,0.0058270714565232485, ,0.02888946097663313, ,0.00019718681915844807, ,1.8333333333333333, ,0.8161605910336529, ,0.5200097957184547, ,0.09422256688639008
175, ,PASS, ,0.033349066, ,0.005855791769545933, ,0.028872359909858984, ,0.0001978501523146695, ,1.8333333333333333, ,0.8186903493903868, ,0.5193975633150344, ,0.10397746984755413
176, ,PASS, ,0.03362371499999999, ,0.005881673610729895, ,0.028925874415971106, ,0.0002001559397355631, ,1.8333333333333333, ,0.8196784391409032, ,0.5195404175424991, ,0.09138589008387583
177, ,PASS, ,0.033610851000000025, ,0.0058542132194473635, ,0.02888902785606416, ,0.00019946624507737965, ,1.75, ,0.8182946882776562, ,0.521132221791392, ,0.0738352278524928
178, ,PASS, ,0.03364765300000001, ,0.005941475348020533, ,0.029059951272769946, ,0.00020260276071074418, ,1.9166666666666667, ,0.821852608952437, ,0.5191322626068856, ,0.10903859104916226
179, ,PASS, ,0.03454018400000001, ,0.006021089306668827, ,0.028968981033795232, ,0.00021047271966504326, ,1.75, ,0.8159672636869573, ,0.5201118344523581, ,0.07901879553478501
180, ,PASS, ,0.10029880000000001, ,0.015519017775905251, ,0.03274800487520663, ,0.0015788066640851578, ,1.75, ,0.7787785882683843, ,0.5403155037652293, ,0.1376910675292341
181, ,PASS, ,0.037647973, ,0.006592529452992722, ,0.029329927132629947, ,0.00025135697800262626, ,1.8333333333333333, ,0.8307738129415395, ,0.5264586437011489, ,0.14754800922430156
182, ,PASS, ,0.030047268999999995, ,0.005342144858159505, ,0.0287601393759311, ,0.00016196255073360543, ,1.8333333333333333, ,0.8224822675141203, ,0.5166833329932042, ,0.11528336156404971
183, ,PASS, ,0.030078998999999995, ,0.0052896779276839145, ,0.028822068511663027, ,0.00016135469739299665, ,1.75, ,0.8239381299263927, ,0.5186424766841493, ,0.11038550233668701
184, ,PASS, ,0.02949559999999999, ,0.00522592217656992, ,0.02877833786983939, ,0.00015647279603679906, ,1.75, ,0.8286249153461991, ,0.5209077365768046, ,0.11828330034080937
185, ,PASS, ,0.029567729999999997, ,0.005205398804314385, ,0.02874093588559417, ,0.00015607372371376763, ,1.75, ,0.8206846538324917, ,0.5190302238729821, ,0.08589620619987347
186, ,PASS, ,0.029564099999999992, ,0.0052287153767366, ,0.028785727282912593, ,0.0001565858875717807, ,1.9166666666666667, ,0.8269518892932873, ,0.5185608456970265, ,0.10226321911797719
187, ,PASS, ,0.02945759, ,0.0051681532580700506, ,0.02886197663537479, ,0.00015437866238400907, ,1.75, ,0.8262555841148517, ,0.5206016203750944, ,0.11540580804473378
188, ,PASS, ,0.029740057999999996, ,0.00520643497044009, ,0.028715755102957076, ,0.00015684524837213261, ,1.75, ,0.8213161350307687, ,0.519989387971674, ,0.09491643027693313
189, ,PASS, ,0.029585369999999986, ,0.0052160517061237005, ,0.02868817984163588, ,0.00015608796704098284, ,1.8333333333333333, ,0.8232104658694912, ,0.5183771759760005, ,0.10258974306646804
190, ,PASS, ,0.02963340799999999, ,0.0052124062702128314, ,0.02868754979755515, ,0.00015660783160563078, ,1.75, ,0.8222747794099576, ,0.5201526499459195, ,0.09503887675761719
191, ,PASS, ,0.02943955999999999, ,0.005219126527090882, ,0.028909949203077486, ,0.00015591441903836886, ,1.75, ,0.8279747231194746, ,0.5202138731862616, ,0.1213036468643497
192, ,PASS, ,0.029385228999999985, ,0.005222262144230642, ,0.0288217159876329, ,0.00015563331690283852, ,1.9166666666666667, ,0.8278016176752402, ,0.5202138731862616, ,0.11240586926797412
193, ,PASS, ,0.029411839999999988, ,0.005201424702313736, ,0.028956964965408866, ,0.00015505465334755242, ,1.9166666666666667, ,0.8252953946501989, ,0.5190098161262015, ,0.11036509458990633
194, ,PASS, ,0.02944315, ,0.005196157721987715, ,0.028822746378237177, ,0.00015499453413378927, ,1.75, ,0.8269675760581227, ,0.519928164731332, ,0.11324258688598192
195, ,PASS, ,0.029290329999999996, ,0.005225465590809441, ,0.02871288803963184, ,0.00015446080878203875, ,1.8333333333333333, ,0.8265026834579974, ,0.5171118956755985, ,0.12109956939654293
196, ,PASS, ,0.029697619999999987, ,0.0052002615014198755, ,0.029022405974163792, ,0.00015640593963228382, ,1.8333333333333333, ,0.8237787076825763, ,0.5215199689802249, ,0.10238566559866125
197, ,PASS, ,0.029563339999999994, ,0.005214501348807069, ,0.02875590157282504, ,0.00015631024874256872, ,1.8333333333333333, ,0.824593393471726, ,0.5183771759760005, ,0.11532417705761107
198, ,PASS, ,0.02952364999999999, ,0.005247662297801449, ,0.028724569595926612, ,0.00015664988866665147, ,1.8333333333333333, ,0.8262676407320118, ,0.519295524581131, ,0.12169139405318259
199, ,PASS, ,0.029376209999999986, ,0.005174174586421139, ,0.028691208542274648, ,0.00015394198384922593, ,1.8333333333333333, ,0.8215347443170968, ,0.51866288443093, ,0.09342666476194364
200, ,PASS, ,0.029580729999999996, ,0.005156737851958429, ,0.028755465557233524, ,0.0001545776088687486, ,1.8333333333333333, ,0.8147879186749183, ,0.5179077978000449, ,0.06669251647925553
201, ,PASS, ,0.02925280999999999, ,0.005147419695967399, ,0.028826069628783084, ,0.00015261942097556384, ,1.8333333333333333, ,0.8213760341971814, ,0.5187036999244914, ,0.09471235280912635
202, ,PASS, ,0.02934224999999998, ,0.005152286342034674, ,0.028812682341584864, ,0.00015321885012359383, ,1.9166666666666667, ,0.8225487279421454, ,0.5195200097957184, ,0.06963123201567314
203, ,PASS, ,0.029378609999999993, ,0.0051667096466354945, ,0.028875258273912775, ,0.00015376730716077058, ,1.8333333333333333, ,0.8167588295621576, ,0.518152690761413, ,0.09946735780902431
204, ,PASS, ,0.02923739499999999, ,0.005144664592717823, ,0.029058442945246014, ,0.00015236943223616916, ,1.75, ,0.8250078775335004, ,0.5202138731862616, ,0.056039672659741635
205, ,PASS, ,0.029358329999999988, ,0.00515132050976977, ,0.02863983118140446, ,0.00015323020749586583, ,1.9166666666666667, ,0.8234445679853812, ,0.5192547090875697, ,0.11346707210056937
206, ,PASS, ,0.029189169999999993, ,0.005184960005501487, ,0.02877409296973531, ,0.00015313441495456127, ,1.8333333333333333, ,0.8235131757264827, ,0.5189894083794209, ,0.09387563519111855
207, ,PASS, ,0.029215592999999998, ,0.0051623631147534755, ,0.028798284599008184, ,0.00015283625658420625, ,1.9166666666666667, ,0.8238324140616988, ,0.5191730781004469, ,0.10905899879594294
208, ,PASS, ,0.029122389999999998, ,0.005161201563402153, ,0.028737920117956773, ,0.0001522908602355201, ,1.75, ,0.8268236565154579, ,0.5201934654394809, ,0.12050774473990326
209, ,PASS, ,0.029420399999999985, ,0.0051013225164796335, ,0.028738487046386804, ,0.00015203349808215057, ,1.75, ,0.8165936644681951, ,0.5180710597742904, ,0.057958000857125366
210, ,PASS, ,0.029173979999999988, ,0.005142362656928962, ,0.028767514876431092, ,0.00015207047385219202, ,1.8333333333333333, ,0.8215448335923782, ,0.5202342809330421, ,0.0793861349768372
211, ,PASS, ,0.029111659999999998, ,0.005108509280374395, ,0.02888359475071937, ,0.00015041900981194528, ,1.8333333333333333, ,0.8212582956073855, ,0.5212546682720761, ,0.08844717454745822
212, ,PASS, ,0.02883838999999999, ,0.00510917132610322, ,0.02887839449950001, ,0.00014914038129464966, ,1.8333333333333333, ,0.8287748710604628, ,0.5203771351605069, ,0.12234444195016428
213, ,PASS, ,0.029233289999999988, ,0.005185945354543005, ,0.028977323450541825, ,0.00015362409232516617, ,1.75, ,0.8286398051713983, ,0.5214587457398828, ,0.11844656231505479
214, ,PASS, ,0.029339989999999982, ,0.0052146739936194085, ,0.0288524615052754, ,0.00015502581271033053, ,1.8333333333333333, ,0.829526336583229, ,0.5213567070059795, ,0.1187118630232036
215, ,PASS, ,0.029019339999999987, ,0.005064706443214964, ,0.028860021702618314, ,0.00014897552052866336, ,1.8333333333333333, ,0.8211863222845176, ,0.5197240872635253, ,0.06191710373257689
216, ,PASS, ,0.029134669999999994, ,0.005079278275716968, ,0.028919517193118503, ,0.00015016907619689918, ,1.8333333333333333, ,0.821476695075694, ,0.521703638701251, ,0.06899859186547214
217, ,PASS, ,0.029214929999999986, ,0.005063042251522177, ,0.028633893539111444, ,0.0001495230701597012, ,1.8333333333333333, ,0.8148055867386524, ,0.520560804881533, ,0.06073345441929757
218, ,PASS, ,0.029119559999999996, ,0.005079080870701075, ,0.028675078853696863, ,0.00014968894115572611, ,1.75, ,0.8098803041316345, ,0.5190914471133242, ,0.04475418869002674
219, ,PASS, ,0.028997679999999977, ,0.005127294540169502, ,0.02886837136017632, ,0.00015040343951355835, ,1.75, ,0.8228499536477999, ,0.5203567274137263, ,0.11967102712189547
220, ,PASS, ,0.02886943999999999, ,0.005109071204119874, ,0.02888684060100814, ,0.00014944574092098497, ,1.8333333333333333, ,0.8258100940982235, ,0.5207036591089977, ,0.11636497214342564
221, ,PASS, ,0.02904788999999999, ,0.005140390848608529, ,0.028906744172567903, ,0.00015133868610790472, ,1.8333333333333333, ,0.8283211150895143, ,0.5209485520703659, ,0.11216097630660599
222, ,PASS, ,0.029384069999999998, ,0.005183608912920156, ,0.02917508504724393, ,0.00015420586559516922, ,1.75, ,0.8276726183279786, ,0.5220097549029612, ,0.11812003836656394
223, ,PASS, ,0.02908245, ,0.005092560212910865, ,0.029029151642619534, ,0.00014989605568938458, ,1.9166666666666667, ,0.8200385865092114, ,0.5219281239158384, ,0.09758984510520194
224, ,PASS, ,0.029107439999999984, ,0.005109307734658016, ,0.029151204537050262, ,0.00015072042017304414, ,1.8333333333333333, ,0.8225782982401665, ,0.5221730168772066, ,0.09346748025550498
225, ,PASS, ,0.028859389999999988, ,0.005084355655539651, ,0.029080742294851122, ,0.00014887436860970058, ,1.8333333333333333, ,0.8271265863491817, ,0.5226219873063815, ,0.11673231158547785
226, ,PASS, ,0.029040929999999986, ,0.005086885428315594, ,0.02891975885839064, ,0.00014969308461031008, ,1.8333333333333333, ,0.8227082467834896, ,0.5220097549029612, ,0.10556927409644701
227, ,PASS, ,0.028785909999999998, ,0.0050461349941973545, ,0.02898893428236158, ,0.00014722421143545516, ,1.8333333333333333, ,0.8217651410821971, ,0.5193363400746923, ,0.11275280096324565
228, ,PASS, ,0.028676479999999994, ,0.005014927718044584, ,0.028823021076304564, ,0.0001457042715625962, ,1.8333333333333333, ,0.8198607094691935, ,0.5210914062978307, ,0.09852860145711312
229, ,PASS, ,0.02880735999999999, ,0.00500200112472142, ,0.02897134090263464, ,0.00014605571879050736, ,1.8333333333333333, ,0.8190069783547123, ,0.5204587661476296, ,0.0887328830023877
230, ,PASS, ,0.02865847, ,0.0050446244004779695, ,0.028854894708475336, ,0.00014646954883820824, ,1.8333333333333333, ,0.8190555391407864, ,0.5216832309544703, ,0.0876308646762311
231, ,PASS, ,0.028479070000000002, ,0.0050319830735027415, ,0.028916695820493454, ,0.00014523780709495382, ,1.75, ,0.8219990108377415, ,0.5194996020489377, ,0.11875267851676496
232, ,PASS, ,0.028413699999999997, ,0.005010031153606616, ,0.028920317640048158, ,0.0001440959734049264, ,1.75, ,0.823377783308869, ,0.5219281239158384, ,0.10609987551274463
233, ,PASS, ,0.028344419999999988, ,0.0050035761467029935, ,0.029104579004101953, ,0.00014374658107467667, ,1.8333333333333333, ,0.8217445827798745, ,0.5201730576927002, ,0.10750801004061142
234, ,PASS, ,0.028572419999999984, ,0.004946102599565845, ,0.028905693626456598, ,0.00014305436323743746, ,1.75, ,0.8182265547021621, ,0.5212750760188568, ,0.08199832656476398
235, ,PASS, ,0.02839486999999999, ,0.004999225446770052, ,0.028794246426807616, ,0.0001437410327146535, ,1.75, ,0.8240701415946172, ,0.5202750964266035, ,0.10889573682169752
236, ,PASS, ,0.02852122, ,0.00504246025969897, ,0.028795626294769495, ,0.00014553499508873348, ,1.75, ,0.824465036925299, ,0.5210505908042693, ,0.12369135323768903
237, ,PASS, ,0.02869783999999999, ,0.0050122548093041305, ,0.029029302719536333, ,0.0001458057507503233, ,1.8333333333333333, ,0.8197951524021093, ,0.5206628436154365, ,0.10124283177894329
238, ,PASS, ,0.02887329999999999, ,0.005006254070600092, ,0.028998170196526597, ,0.00014646013199598625, ,1.8333333333333333, ,0.8126485015228807, ,0.5213975224995409, ,0.05571314871125079
239, ,PASS, ,0.02862448, ,0.0049921981089555145, ,0.028737605165812943, ,0.0001444792038958919, ,1.75, ,0.8141777951429551, ,0.5194996020489377, ,0.05881512622191384
240, ,PASS, ,0.02854298999999999, ,0.005029013636520693, ,0.02872217293994, ,0.00014533896889592712, ,1.75, ,0.8187981725500152, ,0.5206424358686558, ,0.09236546192934839
241, ,PASS, ,0.028559179999999997, ,0.005011805129053061, ,0.0288628515940491, ,0.00014505253089261346, ,1.8333333333333333, ,0.8187742424178873, ,0.5208465133364625, ,0.08210036529866738
242, ,PASS, ,0.02849854999999998, ,0.005036395210885902, ,0.02883513854247872, ,0.0001454633789710261, ,1.8333333333333333, ,0.8255172257289207, ,0.5213362992591988, ,0.12330360604885615
243, ,PASS, ,0.02850606999999999, ,0.005034753475021544, ,0.02883443034305422, ,0.0001452010554354925, ,1.75, ,0.8226593017841223, ,0.5209485520703659, ,0.11503846860268158
244, ,PASS, ,0.028297189999999986, ,0.005025520837930624, ,0.028961329872655657, ,0.0001441595488413694, ,1.8333333333333333, ,0.8252443891978268, ,0.521581192220567, ,0.09832452398930634
245, ,PASS, ,0.02878045, ,0.0050008893519840275, ,0.02895473682577906, ,0.00014569818214556175, ,1.75, ,0.8221904115891023, ,0.5229485112548723, ,0.07740658353911145
246, ,PASS, ,0.028571079999999978, ,0.005001639547640877, ,0.028811833078916754, ,0.00014470333099851857, ,1.8333333333333333, ,0.8195275871075989, ,0.5207852900961205, ,0.08065141527723924
247, ,PASS, ,0.02869379999999999, ,0.005048332990430072, ,0.028837475544580722, ,0.00014668152665459796, ,1.8333333333333333, ,0.8227426999259914, ,0.521581192220567, ,0.1162221179159609
248, ,PASS, ,0.028665779999999995, ,0.005047786544998023, ,0.02875480493459317, ,0.0001464826249106236, ,1.9166666666666667, ,0.819600951145, ,0.5207852900961205, ,0.06595783759515111
249, ,PASS, ,0.02875096, ,0.005031628666943208, ,0.02889422199791841, ,0.0001464413514346017, ,1.75, ,0.8124770571573304, ,0.5167241484867656, ,0.05787636987000265
250, ,PASS, ,0.028797258999999985, ,0.005080588293599584, ,0.028245914139711434, ,0.00014811982163974498, ,1.8333333333333333, ,0.8266601018650545, ,0.5209077365768046, ,0.12234444195016428
251, ,PASS, ,0.029153429999999994, ,0.0051376814618061765, ,0.02896942593232791, ,0.0001516427873423944, ,1.75, ,0.8246578607849473, ,0.5215403767270056, ,0.12452807085569682
252, ,PASS, ,0.028487159999999973, ,0.004929172386945977, ,0.028884566556600884, ,0.00014226683226690312, ,1.8333333333333333, ,0.8212162761040362, ,0.5220913858900839, ,0.059651843839921635
253, ,PASS, ,0.028875559999999977, ,0.005056198480328973, ,0.028677621624660716, ,0.00014776906727400902, ,1.8333333333333333, ,0.8162200567730411, ,0.5204791738944103, ,0.06144772555662129
254, ,PASS, ,0.03020517999999999, ,0.005326237281397149, ,0.029044088587987998, ,0.0001629288385771197, ,1.8333333333333333, ,0.8237474964410623, ,0.5219077161690577, ,0.11891594049101038
255, ,PASS, ,0.09537658, ,0.014496341841370693, ,0.032945738412073225, ,0.0014021921823466946, ,1.75, ,0.7685662997869037, ,0.5438460439582866, ,0.1299973469929185
