Channel, ,Pass/Fail, ,Amplitude, ,Sorting Function Response, ,Mean, ,Variance, ,NPeaksRatio, ,PosIntegralRatio, ,ToT50, ,ToT99
0, ,PASS, ,0.051913661399999984, ,0.007675477117803386, ,0.02472491225764984, ,0.00040242590089791756, ,1.9166666666666667, ,0.7327443260389622, ,0.4260321217934328, ,0.06520275096426603
1, ,PASS, ,0.03683205900000001, ,0.004744581944795592, ,0.02644017403991755, ,0.0001772362472838527, ,1.9166666666666667, ,0.693052318682811, ,0.42819534295218464, ,0.0606110079386135
2, ,PASS, ,0.036982401, ,0.004672816769630098, ,0.026447666856390686, ,0.0001753406337445807, ,1.9166666666666667, ,0.6881243739964006, ,0.42790963449725516, ,0.060896716393542986
3, ,PASS, ,0.03699429700000001, ,0.004733458828714388, ,0.026444815982939122, ,0.00017753973519376835, ,1.9166666666666667, ,0.6888220465828181, ,0.42690965490500193, ,0.06048856145792943
4, ,PASS, ,0.03762064, ,0.004625412076107864, ,0.027129625457439643, ,0.00017757715228104335, ,1.8333333333333333, ,0.6786473034430314, ,0.44482765657843715, ,0.06981490173669926
5, ,PASS, ,0.03715569, ,0.004861744206341768, ,0.02610100088024734, ,0.00018328817362029743, ,1.8333333333333333, ,0.6975716041185827, ,0.4196649047978613, ,0.06246811289565519
6, ,PASS, ,0.03729561599999998, ,0.004891287856307495, ,0.02613188310026326, ,0.00018494452561051137, ,1.8333333333333333, ,0.6982326533499618, ,0.42060366114977243, ,0.06324360727332096
7, ,PASS, ,0.036969107, ,0.0049082373198906645, ,0.026246795682333013, ,0.00018426485561720226, ,1.8333333333333333, ,0.7034899421778664, ,0.4156649864288484, ,0.05691720577131079
8, ,PASS, ,0.037054936, ,0.004872775227632764, ,0.026147525608783494, ,0.00018321166881310862, ,1.8333333333333333, ,0.7041249664245602, ,0.4202771372012816, ,0.06844758270239383
9, ,PASS, ,0.036985274, ,0.004862643344727558, ,0.026160429195853145, ,0.00018267793699563133, ,1.8333333333333333, ,0.697869642275379, ,0.41793024632150366, ,0.055651925470908754
10, ,PASS, ,0.036860512, ,0.00484463016418126, ,0.026252308924675005, ,0.00018124944861289903, ,1.8333333333333333, ,0.6992772835090271, ,0.4189914491540989, ,0.05738658394726638
11, ,PASS, ,0.036893095, ,0.004796257516444204, ,0.02613196109128385, ,0.0001796104372361534, ,1.8333333333333333, ,0.6965053431923601, ,0.4200730597334748, ,0.06630476929042264
12, ,PASS, ,0.037052557, ,0.004800834994050388, ,0.02622396657780453, ,0.0001805765455592918, ,1.8333333333333333, ,0.6889477352080652, ,0.42078733087079856, ,0.0630191220587335
13, ,PASS, ,0.036473069999999996, ,0.00476463421278064, ,0.026233054117773106, ,0.0001764696705321542, ,1.8333333333333333, ,0.6938836939944252, ,0.41821595477643314, ,0.046611293647068425
14, ,PASS, ,0.03665196099999999, ,0.004803580568411687, ,0.026196485499826536, ,0.00017866631391051495, ,1.8333333333333333, ,0.698245118913583, ,0.4199914287463521, ,0.05879471847513316
15, ,PASS, ,0.036847809, ,0.004708456024400289, ,0.02569389983432991, ,0.00017644985361989232, ,1.9166666666666667, ,0.6940353535283924, ,0.4039305320299586, ,0.06387624742352196
16, ,PASS, ,0.036450015999999995, ,0.004789698558214847, ,0.026137891057509032, ,0.00017688333509574468, ,1.8333333333333333, ,0.6982725978468538, ,0.4200118364931328, ,0.056060080406522314
17, ,PASS, ,0.036350407, ,0.004646609301053939, ,0.026679051790881817, ,0.00017168183751147174, ,1.9166666666666667, ,0.6914115001553591, ,0.4317666986388033, ,0.061753841758331464
18, ,PASS, ,0.03648065899999999, ,0.004570464865457111, ,0.027291473765841515, ,0.00016948519425305207, ,1.9166666666666667, ,0.669773616205175, ,0.46111303850941815, ,0.06922307708005959
19, ,PASS, ,0.03573496399999999, ,0.004724684686827104, ,0.026075187951307116, ,0.0001714412534522108, ,1.8333333333333333, ,0.6995943697499052, ,0.4179914695618457, ,0.0544070529172874
20, ,PASS, ,0.03578771399999999, ,0.004663868646585676, ,0.026087531803738698, ,0.00016921578345220173, ,1.8333333333333333, ,0.692959087579661, ,0.4201750984673782, ,0.0590396114365013
21, ,PASS, ,0.035821676999999996, ,0.004602287671093356, ,0.02631032672863819, ,0.00016713763895446232, ,1.9166666666666667, ,0.6919856466691451, ,0.42572600559172263, ,0.07038631864655823
22, ,PASS, ,0.035909369, ,0.004623385191781888, ,0.025985383299463278, ,0.00016859488415682958, ,1.8333333333333333, ,0.6936190600430578, ,0.41913430338156366, ,0.060876308646762314
23, ,PASS, ,0.035840585, ,0.004660694967628075, ,0.02633299333082998, ,0.0001694621998043848, ,1.8333333333333333, ,0.6986437014050516, ,0.42005265198669417, ,0.06605987632905451
24, ,PASS, ,0.03582947399999999, ,0.004566218137297941, ,0.026546091639231852, ,0.00016633882878444153, ,1.8333333333333333, ,0.685421075574972, ,0.43409318177180056, ,0.06318238403297892
25, ,PASS, ,0.035737762, ,0.004668754435424308, ,0.0261621627966368, ,0.00016902965941463773, ,1.8333333333333333, ,0.6941955225521474, ,0.42437909430419785, ,0.06318238403297892
26, ,PASS, ,0.035567245, ,0.004706977748092789, ,0.026025848628211667, ,0.00016972155727134415, ,1.8333333333333333, ,0.7029094080073821, ,0.42031795269484296, ,0.0686516601702006
27, ,PASS, ,0.035463045, ,0.004696461014749606, ,0.02612873121273035, ,0.00016909869694516752, ,1.8333333333333333, ,0.7001823331085892, ,0.4175833146262321, ,0.05950898961245689
28, ,PASS, ,0.035106302999999985, ,0.004697035401411217, ,0.026057148111426297, ,0.0001675159616082221, ,1.8333333333333333, ,0.7028253118242118, ,0.41570580192240975, ,0.06687618620028163
29, ,PASS, ,0.035718677, ,0.004640288990743739, ,0.02626222621122018, ,0.00016799182731989094, ,1.8333333333333333, ,0.6870339552321515, ,0.4289912450766311, ,0.054386645170506724
30, ,PASS, ,0.03521013699999999, ,0.004644672325344766, ,0.026004590551968323, ,0.0001660733165662266, ,1.8333333333333333, ,0.701972592057933, ,0.4191955266219057, ,0.060876308646762314
31, ,PASS, ,0.035105683999999984, ,0.004591211786361547, ,0.025930825733719718, ,0.00016343726251107803, ,1.8333333333333333, ,0.6968822703663422, ,0.41862410971204667, ,0.05946817411889553
32, ,PASS, ,0.03547806599999999, ,0.004684532562711013, ,0.026066199919960814, ,0.00016871265546784746, ,1.8333333333333333, ,0.6997242221078822, ,0.4193179731025897, ,0.057243729719801635
33, ,PASS, ,0.03558018, ,0.004764666416884999, ,0.026172889067161895, ,0.00017200931852438565, ,1.8333333333333333, ,0.7058059956605168, ,0.4192975653558091, ,0.0670802636680884
34, ,PASS, ,0.034585984999999986, ,0.004534851922723614, ,0.026215666238689005, ,0.00015905927145064817, ,1.8333333333333333, ,0.6951902392670343, ,0.42005265198669417, ,0.06324360727332096
35, ,PASS, ,0.034622356999999986, ,0.0044705488340173825, ,0.026169624891328746, ,0.00015722668574224676, ,1.8333333333333333, ,0.6942650978420043, ,0.4184812554845819, ,0.06279463684414603
36, ,PASS, ,0.03485751699999999, ,0.0045913107717445835, ,0.026121766576518844, ,0.0001622558095725044, ,1.8333333333333333, ,0.6992665095622123, ,0.4200934674802555, ,0.06303952980551418
37, ,PASS, ,0.03511764799999998, ,0.0046492599492514285, ,0.02621501482012612, ,0.00016557879246740433, ,1.8333333333333333, ,0.7007665101873268, ,0.41905267239444094, ,0.06444766433338095
38, ,PASS, ,0.03511708099999999, ,0.004661000243412362, ,0.026152599238791045, ,0.00016598061345040154, ,1.8333333333333333, ,0.702695148689787, ,0.41942001183649313, ,0.06157017203730536
39, ,PASS, ,0.03496678599999999, ,0.004611004318579696, ,0.026009114086243137, ,0.00016344566413347707, ,1.8333333333333333, ,0.700815057640832, ,0.4201546907205975, ,0.06063141568539417
40, ,PASS, ,0.035207081999999994, ,0.004697322034453912, ,0.026075038927981062, ,0.00016773420343711126, ,1.8333333333333333, ,0.7031642309655602, ,0.4201546907205975, ,0.06567212914022162
41, ,PASS, ,0.035840322, ,0.004862230418404785, ,0.025931476174955614, ,0.00017670495645892765, ,1.8333333333333333, ,0.7086324574744481, ,0.4197261280382033, ,0.06516193547070467
42, ,PASS, ,0.03523145499999999, ,0.00466875790192193, ,0.02592442541101202, ,0.00016696592458748498, ,1.8333333333333333, ,0.7019837682896731, ,0.41662415052754026, ,0.06099875512744638
43, ,PASS, ,0.03514368300000001, ,0.004652468633080558, ,0.02588978310938552, ,0.0001659951709266294, ,1.8333333333333333, ,0.7007558537747437, ,0.41780779984081956, ,0.06867206791698129
44, ,PASS, ,0.03514847099999999, ,0.004654231493872846, ,0.0258471768221873, ,0.00016603267827797007, ,1.8333333333333333, ,0.7008899591559045, ,0.4181343237893104, ,0.06326401502010164
45, ,PASS, ,0.035135072999999996, ,0.004629547280362015, ,0.02596758104812147, ,0.00016511900996789023, ,1.8333333333333333, ,0.6982537408512254, ,0.4189710414073182, ,0.06540682843207281
46, ,PASS, ,0.03528618099999999, ,0.004630643599199946, ,0.02584392938166568, ,0.00016579602904048273, ,1.8333333333333333, ,0.69646740792807, ,0.4166649660211016, ,0.05624375012754842
47, ,PASS, ,0.03505922099999998, ,0.004641290850823969, ,0.02601870648021469, ,0.00016496224408117408, ,1.8333333333333333, ,0.6997392850451727, ,0.41990979775922943, ,0.058529417766984344
48, ,PASS, ,0.034840038000000004, ,0.004612978700597936, ,0.025569148354605005, ,0.0001630582355083538, ,1.8333333333333333, ,0.7028613982513431, ,0.4192975653558091, ,0.06510071223036265
49, ,PASS, ,0.035251861999999995, ,0.0046802030435668445, ,0.026060197664823165, ,0.00016727060012681339, ,1.8333333333333333, ,0.7006776919973479, ,0.42152200975490295, ,0.06479459602865248
50, ,PASS, ,0.034760028999999984, ,0.004600726477913033, ,0.025848064370686312, ,0.00016237433136436698, ,1.8333333333333333, ,0.7015881966341642, ,0.4184404399910206, ,0.061345686822717904
51, ,PASS, ,0.034801546, ,0.00459117377826149, ,0.026058110902124447, ,0.0001618079902966804, ,1.8333333333333333, ,0.7011023972879181, ,0.42321585273769924, ,0.06961082426889247
52, ,PASS, ,0.034953652, ,0.004580339610558521, ,0.025868102127099446, ,0.0001622891318668329, ,1.8333333333333333, ,0.6986031047464458, ,0.4212771167935348, ,0.07063121160792638
53, ,PASS, ,0.03481025499999999, ,0.004612028873313881, ,0.026067387386400277, ,0.00016284912433103295, ,1.8333333333333333, ,0.7014850145127293, ,0.4196444970510806, ,0.07230464684394196
54, ,PASS, ,0.03507597799999999, ,0.004603679390233428, ,0.025875628516213955, ,0.00016397514027657685, ,1.8333333333333333, ,0.6999442559505492, ,0.4178894308279423, ,0.06448847982694231
55, ,PASS, ,0.035088698, ,0.004607537616938373, ,0.025871781381971798, ,0.00016406787495509134, ,1.8333333333333333, ,0.6989766653910603, ,0.4192771576090284, ,0.06057019244505214
56, ,PASS, ,0.03495336999999999, ,0.0046629300299606356, ,0.025988651525723962, ,0.00016553307645593193, ,1.8333333333333333, ,0.7042762494901745, ,0.4171139364502765, ,0.06738637986979858
57, ,PASS, ,0.034732541999999984, ,0.00467662899296737, ,0.02570512881792208, ,0.0001649929408035125, ,1.8333333333333333, ,0.7009624048911068, ,0.41615477235158466, ,0.06201914246648028
58, ,PASS, ,0.035084108999999974, ,0.004672822714784219, ,0.02604772656019265, ,0.000166573300240787, ,1.8333333333333333, ,0.7026042880836977, ,0.4163792575661721, ,0.06395787841064468
59, ,PASS, ,0.03483831199999998, ,0.004629969412915946, ,0.025935910601110182, ,0.0001638052689686248, ,1.8333333333333333, ,0.7007687311664906, ,0.4170527132099345, ,0.057202914226240284
60, ,PASS, ,0.03537116399999999, ,0.0046886753574936066, ,0.026106976018040445, ,0.0001681159140745701, ,1.8333333333333333, ,0.698595927841786, ,0.42031795269484296, ,0.06461092630762638
61, ,PASS, ,0.03496821899999999, ,0.004634963521412817, ,0.02610626581628946, ,0.0001644915133505871, ,1.8333333333333333, ,0.7011976903438714, ,0.4194404195832738, ,0.06389665517030264
62, ,PASS, ,0.03522206699999998, ,0.004617087407028296, ,0.026106787027019858, ,0.00016517242633585038, ,1.8333333333333333, ,0.6988232386897859, ,0.41864451745882736, ,0.06277422909736537
63, ,PASS, ,0.03532548999999999, ,0.004633046943172384, ,0.02593838280579988, ,0.0001659449534421855, ,1.8333333333333333, ,0.6982352878542245, ,0.4202771372012816, ,0.06603946858227383
64, ,PASS, ,0.03559077399999998, ,0.004635273078907005, ,0.02601000360862023, ,0.00016724599078141424, ,1.8333333333333333, ,0.6970801725567819, ,0.42105263157894735, ,0.06401910165098672
65, ,PASS, ,0.03536222299999999, ,0.0046094889415979785, ,0.02587300273116875, ,0.00016538227999700849, ,1.8333333333333333, ,0.694975503543945, ,0.42029754494806226, ,0.06283545233770739
66, ,PASS, ,0.03524564799999999, ,0.004639096355530676, ,0.026053025242648107, ,0.00016583318284386624, ,1.8333333333333333, ,0.6981601607208573, ,0.41903226464766025, ,0.06434562559947757
67, ,PASS, ,0.035311108999999986, ,0.004642845273691843, ,0.025893062846492926, ,0.00016636534002208102, ,1.8333333333333333, ,0.702049743939909, ,0.41995061325279076, ,0.06520275096426603
68, ,PASS, ,0.03585908399999999, ,0.004718461729093876, ,0.025993257170690395, ,0.00017170486716473055, ,1.8333333333333333, ,0.6993410290824001, ,0.4192975653558091, ,0.06161098753086672
69, ,PASS, ,0.03532435299999999, ,0.0046918980284075765, ,0.02589893123230138, ,0.0001682646541682332, ,1.8333333333333333, ,0.7033969616186548, ,0.4170527132099345, ,0.0706108038611457
70, ,PASS, ,0.035805257, ,0.004681837841298328, ,0.02618273081918736, ,0.00016989627961769274, ,1.8333333333333333, ,0.6983015976982435, ,0.4199914287463521, ,0.061815064998673494
71, ,PASS, ,0.035990733, ,0.004722885872718671, ,0.025965030628619826, ,0.00017233093905067698, ,1.8333333333333333, ,0.6989600792334725, ,0.4196853125446419, ,0.05942735862533418
72, ,PASS, ,0.03575464299999999, ,0.004765587808505834, ,0.026017292289810413, ,0.00017262099817980076, ,1.8333333333333333, ,0.7027204686361391, ,0.42172608722270977, ,0.05693761351809147
73, ,PASS, ,0.03785334299999999, ,0.005013423133506536, ,0.02584047671910777, ,0.0001923938633850447, ,1.8333333333333333, ,0.700104226125113, ,0.42031795269484296, ,0.06857002918307789
74, ,PASS, ,0.11068334999999999, ,0.016306559676744208, ,0.019987351583232997, ,0.0018239003725493855, ,1.8333333333333333, ,0.722269250367772, ,0.4200934674802555, ,0.0578355543764413
75, ,PASS, ,0.04482248770000001, ,0.006495765492136494, ,0.024962078662315056, ,0.0002943855759406683, ,1.9166666666666667, ,0.7294229590187504, ,0.42029754494806226, ,0.07756984551335687
76, ,PASS, ,0.032636834999999975, ,0.004391599522794183, ,0.02605673867792494, ,0.0001451817178835926, ,1.8333333333333333, ,0.7039925501602831, ,0.4205832534029918, ,0.06234566641497112
77, ,PASS, ,0.032553379999999986, ,0.004308611973158216, ,0.02620211798071468, ,0.00014205505662503364, ,1.8333333333333333, ,0.6988602055029589, ,0.42068529213689515, ,0.05946817411889553
78, ,PASS, ,0.032643846999999976, ,0.0043336146360551265, ,0.026232817371890368, ,0.0001433925658946768, ,1.8333333333333333, ,0.7039054215822843, ,0.4205424379094304, ,0.07418215954776433
79, ,PASS, ,0.03200359099999999, ,0.004261951462141236, ,0.02606945617620049, ,0.0001384261293382105, ,1.8333333333333333, ,0.7047408815625201, ,0.4175424991326708, ,0.06891696087834942
80, ,PASS, ,0.03244217299999998, ,0.004335352346809743, ,0.025985416561702824, ,0.00014269753457768768, ,1.8333333333333333, ,0.7086821833375068, ,0.41831799351033655, ,0.07059039611436502
81, ,PASS, ,0.03230167999999999, ,0.0043011599121235665, ,0.026075112915450706, ,0.00014106178920747584, ,1.8333333333333333, ,0.7029645094930714, ,0.41827717801677516, ,0.06859043692985857
82, ,PASS, ,0.03241899899999997, ,0.004349238514383446, ,0.026071333389318583, ,0.00014296409500074453, ,1.8333333333333333, ,0.7031922299331768, ,0.42115467031285075, ,0.05850901002020367
83, ,PASS, ,0.03248748299999998, ,0.004357444727395377, ,0.02618006273300545, ,0.0001433666099255583, ,1.8333333333333333, ,0.6998280966990138, ,0.4221954653986653, ,0.05889675720903655
84, ,PASS, ,0.032888415999999976, ,0.004422884519520881, ,0.02602080000081631, ,0.00014721528761378985, ,1.8333333333333333, ,0.7052311677240183, ,0.422787290055305, ,0.07003938695128671
85, ,PASS, ,0.03297844299999998, ,0.0043989291326944745, ,0.026033243075039285, ,0.00014691028657474195, ,1.8333333333333333, ,0.703976396480028, ,0.4201342829738169, ,0.05463153813187486
86, ,PASS, ,0.032976945999999986, ,0.004445750436227724, ,0.02628724166976184, ,0.00014833156850820644, ,1.8333333333333333, ,0.7041526745549361, ,0.4230525907634538, ,0.06626395379686129
87, ,PASS, ,0.03298526599999998, ,0.004385065722022735, ,0.02623529657333524, ,0.00014637332007591173, ,1.8333333333333333, ,0.7001849769039802, ,0.4226036203342789, ,0.05889675720903655
88, ,PASS, ,0.03315613899999999, ,0.004452555966202618, ,0.02622954048835738, ,0.00014948807856992235, ,1.8333333333333333, ,0.7046652196592993, ,0.4230321830166731, ,0.06587620660802841
89, ,PASS, ,0.03283957699999999, ,0.004449070086427722, ,0.02577420053184629, ,0.00014799229717277958, ,1.8333333333333333, ,0.7096368483166086, ,0.4206648843901145, ,0.07130466725168874
90, ,PASS, ,0.03226806799999998, ,0.004404559201709666, ,0.02621552780779984, ,0.0001440980229304027, ,1.8333333333333333, ,0.7125412320306984, ,0.41960368155751926, ,0.07065161935470704
91, ,PASS, ,0.03244227699999998, ,0.004379595781685906, ,0.025936888847166384, ,0.000143990011856335, ,1.8333333333333333, ,0.7060320432083375, ,0.41990979775922943, ,0.066345584783984
92, ,PASS, ,0.03238093699999997, ,0.004371071038646758, ,0.026039705061325278, ,0.00014361321319441667, ,1.8333333333333333, ,0.7044447920262455, ,0.418032285055407, ,0.06112120160813045
93, ,PASS, ,0.032540689999999976, ,0.00436907068423752, ,0.02614198635415604, ,0.00014426298635337252, ,1.8333333333333333, ,0.7020343525441, ,0.4204812146690884, ,0.0631007530458562
94, ,PASS, ,0.03215060099999998, ,0.004267741651117027, ,0.02596784167425155, ,0.0001391065053739336, ,1.8333333333333333, ,0.7011929070023077, ,0.4195628660639579, ,0.06208036570682231
95, ,PASS, ,0.03177944999999999, ,0.004216121342331289, ,0.026150355316013958, ,0.00013590737868525722, ,1.8333333333333333, ,0.6995016514955635, ,0.41901185690087955, ,0.06673333197281688
96, ,PASS, ,0.03173825999999999, ,0.004206380728658262, ,0.026057434675822944, ,0.0001354049477136735, ,1.8333333333333333, ,0.7002850878580282, ,0.41862410971204667, ,0.06077426991285892
97, ,PASS, ,0.03153445999999999, ,0.004166303141996341, ,0.026222027764739496, ,0.00013327374141084932, ,1.8333333333333333, ,0.7041806573894217, ,0.4194404195832738, ,0.06985571723026061
98, ,PASS, ,0.03143749999999999, ,0.004246397554866266, ,0.026033024106038655, ,0.00013550176780905996, ,1.8333333333333333, ,0.7095553860396048, ,0.4170527132099345, ,0.07471276096406196
99, ,PASS, ,0.031819420999999994, ,0.0042106100592649385, ,0.02592373177955552, ,0.00013594313899268845, ,1.8333333333333333, ,0.6988462375116661, ,0.4191547111283443, ,0.06208036570682231
100, ,PASS, ,0.031312429999999995, ,0.004149852164762478, ,0.02605216295463358, ,0.00013179282155255278, ,1.8333333333333333, ,0.7015127708862803, ,0.41905267239444094, ,0.06167221077120875
101, ,PASS, ,0.031239300000000005, ,0.004082583053912024, ,0.026025883679516748, ,0.00012938474133895208, ,1.8333333333333333, ,0.6981656618271526, ,0.41901185690087955, ,0.056855982530968754
102, ,PASS, ,0.031025299999999985, ,0.004104477044115211, ,0.026142160275912735, ,0.00012921168743555383, ,1.8333333333333333, ,0.6956005622235745, ,0.4189098181669762, ,0.05601926491296096
103, ,PASS, ,0.030957510000000008, ,0.004025208431559485, ,0.02600668525785188, ,0.00012648050878290786, ,1.8333333333333333, ,0.6899581188324039, ,0.41901185690087955, ,0.052223424011754865
104, ,PASS, ,0.031760429999999985, ,0.004131324990214065, ,0.026298274935817635, ,0.00013323596605183778, ,1.8333333333333333, ,0.690721391639902, ,0.4193587885961511, ,0.05361115079284096
105, ,PASS, ,0.03162651, ,0.004190521829602762, ,0.026091367653109123, ,0.00013426544077262118, ,1.8333333333333333, ,0.696384658756897, ,0.419807759025326, ,0.061304871329156546
106, ,PASS, ,0.03206478599999998, ,0.004243339037414174, ,0.02605862940756311, ,0.00013792193134897306, ,1.8333333333333333, ,0.698046489682133, ,0.42039958368196567, ,0.06710067141486908
107, ,PASS, ,0.032522831999999974, ,0.004368472712422585, ,0.025946611930776926, ,0.00014404076122207296, ,1.8333333333333333, ,0.7042772162606351, ,0.4206444766433338, ,0.06328442276688231
108, ,PASS, ,0.032589822999999976, ,0.004437952759592435, ,0.026061819154915206, ,0.00014653254808584597, ,1.8333333333333333, ,0.713330836299458, ,0.42080773861757925, ,0.07850860186526805
