Channel, ,Pass/Fail, ,Amplitude, ,Sorting Function Response, ,Mean, ,Variance, ,NPeaksRatio, ,PosIntegralRatio, ,ToT50, ,ToT99
0, ,PASS, ,0.03250319999999998, ,0.003633456165815073, ,0.036877053721148544, ,0.00011980351093117079, ,1.75, ,0.5621246147455218, ,0.4555825391318544, ,0.060529376951490785
1, ,PASS, ,0.03214574999999999, ,0.0035418683100831554, ,0.03710382403073407, ,0.00011558092961423475, ,1.6666666666666667, ,0.5514002942334902, ,0.4542560355911104, ,0.0530193261362013
2, ,PASS, ,0.03203231000000001, ,0.0034871962573655192, ,0.03720065082039142, ,0.00011346632439389112, ,1.5833333333333333, ,0.5470687731776563, ,0.45446011305891715, ,0.05538662476275994
3, ,PASS, ,0.031446139999999984, ,0.0034257012945336836, ,0.03715520362257913, ,0.00010948603376580055, ,1.5833333333333333, ,0.5491778938329476, ,0.45403155037652293, ,0.04685618660843656
4, ,PASS, ,0.03122485999999998, ,0.0033832129746951068, ,0.03696311605906002, ,0.00010728870587791715, ,1.5833333333333333, ,0.5417544059814734, ,0.45319483275851513, ,0.05036631905471317
5, ,PASS, ,0.030931669999999974, ,0.00335692122458534, ,0.036934239095936815, ,0.00010544176129144084, ,1.5833333333333333, ,0.5381818408445169, ,0.45323564825207646, ,0.04975408665129283
6, ,PASS, ,0.03106833999999998, ,0.0033656013247312464, ,0.03712330085916614, ,0.00010620070016173947, ,1.5833333333333333, ,0.5382039040830513, ,0.4538478806554968, ,0.048999000020407746
7, ,PASS, ,0.030888669999999965, ,0.003325369566859853, ,0.036925831388747166, ,0.00010427258897730368, ,1.5833333333333333, ,0.5350121238872864, ,0.4539907348829616, ,0.048223505642741984
8, ,PASS, ,0.03044624999999999, ,0.0032921940632152148, ,0.03696963931960572, ,0.00010186900151522785, ,1.5833333333333333, ,0.5367951705767519, ,0.45317442501173444, ,0.0496928634109508
9, ,PASS, ,0.030529749999999987, ,0.003283762511684175, ,0.03701569924817861, ,0.00010175946514866893, ,1.5833333333333333, ,0.5359530763411535, ,0.4537662496683741, ,0.04995816411909961
10, ,PASS, ,0.030647869999999994, ,0.003298925622102535, ,0.037172291487112506, ,0.00010268113440928415, ,1.5833333333333333, ,0.5334927721620262, ,0.4532152405052958, ,0.048223505642741984
11, ,PASS, ,0.030479249999999982, ,0.0033093566728749748, ,0.03713635965735393, ,0.00010241415973008216, ,1.5833333333333333, ,0.5381016205642688, ,0.4526642313422175, ,0.053182588110446724
12, ,PASS, ,0.03029494, ,0.0032845446267491577, ,0.03696850978306565, ,0.00010110762738224198, ,1.5833333333333333, ,0.5434880586188056, ,0.45403155037652293, ,0.06067223117895553
13, ,PASS, ,0.030574539999999983, ,0.00330634792636715, ,0.036980179869798575, ,0.00010273859470581297, ,1.5833333333333333, ,0.5371794266544379, ,0.45317442501173444, ,0.04595824575008673
14, ,PASS, ,0.03041363999999998, ,0.003259861181000329, ,0.03720872415583355, ,0.00010064235792846644, ,1.5833333333333333, ,0.5384520810573421, ,0.453521356707006, ,0.04795820493459317
15, ,PASS, ,0.03029728999999999, ,0.003272296243807032, ,0.03702430944613375, ,0.00010068485712337984, ,1.5833333333333333, ,0.5368722715105114, ,0.45403155037652293, ,0.0514479296340891
16, ,PASS, ,0.030374929999999987, ,0.003277528655453852, ,0.03716386091447113, ,0.00010112405000728786, ,1.5833333333333333, ,0.5366445340240816, ,0.4543376665782331, ,0.05587641068549622
17, ,PASS, ,0.030659369999999974, ,0.0032595445230348572, ,0.037079992311177326, ,0.00010140324077643875, ,1.5833333333333333, ,0.5359036434340921, ,0.4543580743250138, ,0.049488785943144015
18, ,PASS, ,0.030475779999999994, ,0.003302161601975613, ,0.03706566571988327, ,0.00010215419697974241, ,1.5833333333333333, ,0.5374346099848426, ,0.45401114262974224, ,0.05130507540662436
19, ,PASS, ,0.03056923999999998, ,0.003309658929475462, ,0.03694789689761433, ,0.00010277470856242538, ,1.5833333333333333, ,0.5357962858138443, ,0.45282749331646294, ,0.05036631905471317
20, ,PASS, ,0.030401089999999974, ,0.003288841771944104, ,0.03703717157568213, ,0.00010162949485403272, ,1.5833333333333333, ,0.538900367684795, ,0.45325605599885715, ,0.04975408665129283
21, ,PASS, ,0.030659609999999983, ,0.003307486899120754, ,0.03704239562682394, ,0.00010300141435767928, ,1.5833333333333333, ,0.5348937482528769, ,0.453460133466664, ,0.04924389298177588
22, ,PASS, ,0.030662179999999976, ,0.0033154523649026146, ,0.03717878006203955, ,0.00010325263420973004, ,1.5833333333333333, ,0.5372788429409129, ,0.4533172792391992, ,0.04985612538519622
23, ,PASS, ,0.03077812999999997, ,0.0033330271458315405, ,0.03698145135180915, ,0.00010425850312057315, ,1.5833333333333333, ,0.5374441613962917, ,0.45246015387441074, ,0.05177445358257995
24, ,PASS, ,0.030699129999999974, ,0.0033258421059219456, ,0.03704692764535417, ,0.00010374188668996103, ,1.5833333333333333, ,0.543404562233023, ,0.45417440460398767, ,0.047733719720005716
25, ,PASS, ,0.030732869999999995, ,0.0033295274114576727, ,0.037040435980898345, ,0.00010391596680826895, ,1.5833333333333333, ,0.5378545058006168, ,0.4537866574151548, ,0.047386788024734186
26, ,PASS, ,0.030770929999999964, ,0.0033172586488989385, ,0.036882753427481076, ,0.00010369503835201713, ,1.5833333333333333, ,0.5346808079185421, ,0.45278667782290155, ,0.04748882675863758
27, ,PASS, ,0.030858879999999964, ,0.003343980411201192, ,0.03687064978551458, ,0.00010479804218558346, ,1.5833333333333333, ,0.5403067876270681, ,0.45374584192159345, ,0.052672394440929776
28, ,PASS, ,0.030988029999999972, ,0.0033359257249921622, ,0.03696060934633987, ,0.00010496097185941965, ,1.5833333333333333, ,0.5354309906010918, ,0.4539091038958389, ,0.04761127323932165
29, ,PASS, ,0.030879399999999977, ,0.0033513970876987574, ,0.037058462766270076, ,0.00010509150175716212, ,1.5833333333333333, ,0.5356988786431854, ,0.45325605599885715, ,0.05240709373278096
30, ,PASS, ,0.03136987999999999, ,0.0033696125400457483, ,0.037045981937103324, ,0.000107446975668757, ,1.5833333333333333, ,0.5408164020999062, ,0.4537866574151548, ,0.04934593171567927
31, ,PASS, ,0.030981399999999968, ,0.0033462044236518052, ,0.036911118494928674, ,0.00010525794131525106, ,1.6666666666666667, ,0.5350430261904172, ,0.45327646374563785, ,0.04806024366849656
32, ,PASS, ,0.030990929999999993, ,0.00337194879835938, ,0.037173705613150754, ,0.00010610021124510071, ,1.5833333333333333, ,0.5406015236288232, ,0.45319483275851513, ,0.053407073325034186
33, ,PASS, ,0.031038569999999977, ,0.0033325197035668445, ,0.036974575499275526, ,0.0001050306903068038, ,1.5833333333333333, ,0.5368133407795975, ,0.45364380318769004, ,0.05077447399032673
34, ,PASS, ,0.03157066999999998, ,0.0034657216110691776, ,0.03687773635150303, ,0.00011116657241959577, ,1.6666666666666667, ,0.5485749333841724, ,0.45458255953960125, ,0.050243872574029104
35, ,PASS, ,0.031380299999999986, ,0.003390311876814179, ,0.03716804085386012, ,0.00010807830753238038, ,1.5833333333333333, ,0.5385614001496232, ,0.4532152405052958, ,0.048223505642741984
36, ,PASS, ,0.03125687999999999, ,0.0033851071295508944, ,0.036966289785514576, ,0.00010749748849670723, ,1.5833333333333333, ,0.5388528880211211, ,0.45327646374563785, ,0.05075406624354605
37, ,PASS, ,0.031239509999999967, ,0.0034265918857518643, ,0.036958541355278464, ,0.00010875484067083206, ,1.5833333333333333, ,0.5434782301703445, ,0.45374584192159345, ,0.05377441276708639
38, ,PASS, ,0.031396779999999985, ,0.003407677613198489, ,0.03699582539152262, ,0.00010872706625329033, ,1.5833333333333333, ,0.5398974229790783, ,0.45362339544090935, ,0.05314177261688537
39, ,PASS, ,0.03118740999999997, ,0.0033818480170200683, ,0.03692729131242219, ,0.00010717498711876547, ,1.6666666666666667, ,0.5384869332454956, ,0.45421522009754906, ,0.051039774698475544
40, ,PASS, ,0.03172539999999997, ,0.003421104819371327, ,0.03672482658741658, ,0.000110233927985146, ,1.6666666666666667, ,0.5378932514396356, ,0.45382747290871617, ,0.05185608456970266
41, ,PASS, ,0.03154735999999997, ,0.0034361508538681878, ,0.036732711489969594, ,0.00011011056810882749, ,1.6666666666666667, ,0.5433595453318597, ,0.4542968510846717, ,0.05183567682292198
42, ,PASS, ,0.032291239999999985, ,0.003560411306063606, ,0.03671350515724169, ,0.00011676386833990781, ,1.6666666666666667, ,0.5526124484696497, ,0.45421522009754906, ,0.05426419868982266
43, ,PASS, ,0.03172968999999997, ,0.0034683332752064398, ,0.03669791232178935, ,0.00011183766490588321, ,1.6666666666666667, ,0.5426631824447891, ,0.45374584192159345, ,0.056447827595355195
44, ,PASS, ,0.03157598999999997, ,0.003414876839771879, ,0.03664351554458072, ,0.00010956709983416434, ,1.6666666666666667, ,0.5404216758963404, ,0.45421522009754906, ,0.042386890063468095
45, ,PASS, ,0.031711959999999983, ,0.0033976442192848646, ,0.03668460557274341, ,0.00010953497537630227, ,1.5833333333333333, ,0.5357162947863727, ,0.4538886961490582, ,0.048141874655619275
46, ,PASS, ,0.03143480999999997, ,0.003413836220096597, ,0.03673897197118426, ,0.00010901331838357, ,1.5833333333333333, ,0.5390896576976155, ,0.4534397257198833, ,0.04832554437664537
47, ,PASS, ,0.031562099999999996, ,0.0033986614725943867, ,0.036815621517315975, ,0.0001089251421983471, ,1.5833333333333333, ,0.5355602676349354, ,0.4530723862778311, ,0.04850921409767148
48, ,PASS, ,0.03154127999999996, ,0.0033926666083256237, ,0.036793751393645026, ,0.00010882202365819965, ,1.5833333333333333, ,0.537882645147725, ,0.4539295116426195, ,0.05381522826064774
49, ,PASS, ,0.03140117999999996, ,0.003398989532447591, ,0.036583882405461114, ,0.00010846414074092432, ,1.6666666666666667, ,0.5397915018006406, ,0.4542764433378911, ,0.045754168282279954
50, ,PASS, ,0.03114569999999998, ,0.003365675007323326, ,0.03662077712128324, ,0.00010651738656510563, ,1.6666666666666667, ,0.5335450821827372, ,0.453582579947348, ,0.053937674741331806
51, ,PASS, ,0.03141499999999998, ,0.003327263889388038, ,0.03672751795187853, ,0.00010615298755688098, ,1.5833333333333333, ,0.5346439161781558, ,0.4538478806554968, ,0.04763168098610233
52, ,PASS, ,0.031206069999999978, ,0.003361107834959522, ,0.036650561396298034, ,0.00010658714412670193, ,1.5, ,0.5296490359649666, ,0.4524805616211914, ,0.04679496336809453
53, ,PASS, ,0.031325859999999976, ,0.003348094204313944, ,0.036602946222322, ,0.00010663245389209403, ,1.5, ,0.5275405141256753, ,0.45205199893879716, ,0.0446929654496847
54, ,PASS, ,0.031272139999999976, ,0.0033539041455803555, ,0.036959577465766, ,0.00010658888330377686, ,1.5, ,0.533649340960393, ,0.45233770739372664, ,0.05152956062121181
55, ,PASS, ,0.031217169999999968, ,0.003341537405315891, ,0.03678490951409155, ,0.00010606590495926891, ,1.5, ,0.5350697747350579, ,0.45325605599885715, ,0.04961123242382808
56, ,PASS, ,0.03098288999999997, ,0.0033605154304483993, ,0.03675367255811106, ,0.00010584748745392634, ,1.5833333333333333, ,0.5336125538112502, ,0.4522560764066039, ,0.052203016264974186
57, ,PASS, ,0.03115459999999996, ,0.003335283857611087, ,0.03672968264423175, ,0.00010566146782317381, ,1.5833333333333333, ,0.5303902220589191, ,0.4525826003550948, ,0.04461133446256199
58, ,PASS, ,0.03111244999999999, ,0.0033388094978787563, ,0.036597034371951595, ,0.00010569694934658324, ,1.5833333333333333, ,0.5300604684847867, ,0.452378522887288, ,0.05169282259545724
59, ,PASS, ,0.03079162999999997, ,0.003319363084482476, ,0.036775574284810514, ,0.00010387299094299222, ,1.5833333333333333, ,0.5334044318149029, ,0.4527662700761209, ,0.04883573804616232
60, ,PASS, ,0.03144981999999996, ,0.003333027704457367, ,0.03665415420828146, ,0.0001065212738485238, ,1.5, ,0.5291816280932743, ,0.45290912430358565, ,0.05285606416195588
61, ,PASS, ,0.031239239999999974, ,0.003345548804126648, ,0.03663900447052101, ,0.00010628510450066176, ,1.5, ,0.5295391950859883, ,0.4517866982306484, ,0.05077447399032673
62, ,PASS, ,0.03163754999999997, ,0.0032866955876274784, ,0.036916925610497746, ,0.0001055926644007244, ,1.5, ,0.5225721043575685, ,0.4536029876941287, ,0.04697863308912063
63, ,PASS, ,0.031200279999999986, ,0.0033431881351633818, ,0.036660989458990635, ,0.00010607078389361553, ,1.5, ,0.5301934019500377, ,0.45329687149241854, ,0.04687659435521724
64, ,PASS, ,0.031231919999999976, ,0.003335698960255022, ,0.03683203214852758, ,0.00010593687706799341, ,1.5, ,0.5314220085952492, ,0.4526234158486562, ,0.052284647252096896
65, ,PASS, ,0.031389629999999974, ,0.0033580103939831276, ,0.03652980595967429, ,0.00010717563235386891, ,1.5, ,0.5263123121898312, ,0.45270504683577883, ,0.04550927532091182
66, ,PASS, ,0.03134991999999997, ,0.0033629522722949555, ,0.03674455899226546, ,0.00010722065538363398, ,1.5, ,0.5289776346316132, ,0.453582579947348, ,0.047754127466786395
67, ,PASS, ,0.031213299999999975, ,0.0033365650534931696, ,0.03675093026632109, ,0.00010586122722240742, ,1.5, ,0.5261804697114641, ,0.4515622130160609, ,0.04985612538519622
68, ,PASS, ,0.03132971999999997, ,0.0033079513382225463, ,0.036589584689496135, ,0.00010539868615274452, ,1.5, ,0.5230328265229804, ,0.45246015387441074, ,0.04638680843248097
69, ,PASS, ,0.03137694999999997, ,0.0033331070892033588, ,0.03670070679659599, ,0.00010633013655294282, ,1.5, ,0.5224381325774288, ,0.45115405808044734, ,0.04718271055692741
70, ,PASS, ,0.031211919999999976, ,0.0033738197324921335, ,0.036704287902899944, ,0.00010715684030323336, ,1.5, ,0.5342565750202747, ,0.45203159119201647, ,0.05073365849676537
71, ,PASS, ,0.03145756999999996, ,0.0033465399439850086, ,0.03672284714148691, ,0.00010702452605280036, ,1.5, ,0.5269134207885476, ,0.45197036795167445, ,0.050284688067590455
72, ,PASS, ,0.031906439999999966, ,0.003388120605764205, ,0.036682731955266216, ,0.00010990687886949842, ,1.5, ,0.5253731781500139, ,0.4521744454194812, ,0.04638680843248097
73, ,PASS, ,0.031446489999999966, ,0.0033603983809238425, ,0.036442690112446684, ,0.00010749908674794696, ,1.5, ,0.5251621662166032, ,0.4519295524581131, ,0.051468337380869776
74, ,PASS, ,0.031616749999999985, ,0.003361097367518223, ,0.03686258618415951, ,0.00010802984681800807, ,1.5, ,0.5255410937613745, ,0.4518479214709904, ,0.04489704291749148
75, ,PASS, ,0.031687049999999974, ,0.003384013157278982, ,0.0366076272610763, ,0.00010906827447456583, ,1.5, ,0.5240365904141389, ,0.4513785432950348, ,0.04912144650109181
76, ,PASS, ,0.031792359999999964, ,0.003390325058926971, ,0.03657523796432726, ,0.0001096390295943248, ,1.5, ,0.5246246752886282, ,0.4516642517499643, ,0.048121466908838596
77, ,PASS, ,0.03321571999999999, ,0.003567869971708769, ,0.036422097491071614, ,0.00012055176680155245, ,1.5, ,0.532298300541268, ,0.4517866982306484, ,0.05161119160833452
78, ,PASS, ,0.05046310999999998, ,0.0058959935863682105, ,0.03600476901022428, ,0.0003016731246181829, ,1.9166666666666667, ,0.6009701417647867, ,0.4577253525438256, ,0.060957939633885024
79, ,PASS, ,0.03196147999999998, ,0.0032935233440506266, ,0.03642019281177935, ,0.00010734165587181178, ,1.5, ,0.5074086140299366, ,0.45115405808044734, ,0.04418277178016775
80, ,PASS, ,0.03101619999999997, ,0.003216848101232078, ,0.0366143184702353, ,0.00010176168089018368, ,1.5, ,0.5029914506927952, ,0.4498887777800453, ,0.04073386257423318
81, ,PASS, ,0.03127772999999997, ,0.00322272236766931, ,0.036499097485561516, ,0.00010283645066254513, ,1.4166666666666667, ,0.4993911964484528, ,0.4501132629946328, ,0.04342768514928267
82, ,PASS, ,0.031243929999999972, ,0.0032187665920941533, ,0.036616922772800556, ,0.0001025215202979951, ,1.5, ,0.49747614111033, ,0.4496847003122385, ,0.04055019285320708
83, ,PASS, ,0.031022749999999977, ,0.0031960613467908114, ,0.03657143514969082, ,0.00010108884729729783, ,1.4166666666666667, ,0.5046413412845699, ,0.4514397665353768, ,0.04785616620068978
84, ,PASS, ,0.030954509999999977, ,0.003192600850693044, ,0.03679430191322626, ,0.00010077472452227396, ,1.5, ,0.49728404603522847, ,0.449337768616967, ,0.043733801350992835
85, ,PASS, ,0.031217169999999978, ,0.003188346984681598, ,0.03673877823881145, ,0.00010156832478463084, ,1.5, ,0.5015515241801024, ,0.4502357094753168, ,0.042060366114977245
86, ,PASS, ,0.03108727999999997, ,0.0031798298015406944, ,0.036658567926777005, ,0.00010084100112025473, ,1.5, ,0.5025996465459298, ,0.4508887573722985, ,0.04591743025652538
87, ,PASS, ,0.030977949999999952, ,0.0031577188616848414, ,0.03662034458357993, ,9.975434080471252e-05, ,1.4166666666666667, ,0.4969559983261251, ,0.4502765249688782, ,0.04261137527805555
88, ,PASS, ,0.030823909999999972, ,0.0031751734485387494, ,0.036588932493418505, ,9.976759311436655e-05, ,1.5, ,0.4997488209549295, ,0.4502357094753168, ,0.04291749147976572
89, ,PASS, ,0.03094494999999997, ,0.0031454913464748855, ,0.03679198033468705, ,9.922732408876661e-05, ,1.4166666666666667, ,0.49693584915162164, ,0.4509499806126406, ,0.043264423175037245
90, ,PASS, ,0.030729379999999962, ,0.003170512971553195, ,0.03672959990571621, ,9.934820232359623e-05, ,1.4166666666666667, ,0.5019306259580102, ,0.4501132629946328, ,0.0455296830676925
91, ,PASS, ,0.03099170999999999, ,0.003160842150189419, ,0.03670752413338503, ,9.991664223817636e-05, ,1.4166666666666667, ,0.49350705632795666, ,0.44862349747964325, ,0.03816248647986776
92, ,PASS, ,0.030843779999999963, ,0.003153148193763618, ,0.036694841709148794, ,9.924225300766087e-05, ,1.4166666666666667, ,0.49937615097921645, ,0.4505826411705884, ,0.04355013162996674
93, ,PASS, ,0.03068259999999997, ,0.0031523272231574815, ,0.036409333294626645, ,9.86325414469717e-05, ,1.4166666666666667, ,0.49488215133654434, ,0.4499908165139487, ,0.04422358727372911
94, ,PASS, ,0.030934149999999976, ,0.0031462939345834767, ,0.036620309386543134, ,9.925746490578699e-05, ,1.4166666666666667, ,0.4948830118775196, ,0.44984796228648394, ,0.041162425256627416
95, ,PASS, ,0.030657219999999975, ,0.003153468213735492, ,0.03664438248035754, ,9.856054173660259e-05, ,1.4166666666666667, ,0.49730254917476185, ,0.4498887777800453, ,0.044121548539825715
96, ,PASS, ,0.030790729999999985, ,0.0031540822868531197, ,0.03663744230485092, ,9.89756974985035e-05, ,1.4166666666666667, ,0.4956932112878169, ,0.45031734046243954, ,0.04793779718781249
97, ,PASS, ,0.03096260999999998, ,0.0031416224551841262, ,0.03664335098549009, ,9.917717365363345e-05, ,1.4166666666666667, ,0.496343523219671, ,0.45070508765127243, ,0.04359094712352809
98, ,PASS, ,0.030554939999999996, ,0.0031342604786621427, ,0.03633568390971613, ,9.763525746426473e-05, ,1.4166666666666667, ,0.49522654328591353, ,0.4496030693251158, ,0.04012163017081284
99, ,PASS, ,0.03070084999999997, ,0.003162653875655966, ,0.0367282627515765, ,9.898662019869503e-05, ,1.4166666666666667, ,0.49660642091028484, ,0.44958266157833515, ,0.04410114079304504
100, ,PASS, ,0.030770189999999992, ,0.003175843760176912, ,0.03654258397440869, ,9.958131104286549e-05, ,1.4166666666666667, ,0.49908168783711804, ,0.44954184608477377, ,0.04767249647966368
101, ,PASS, ,0.03076771999999997, ,0.0031733883922274043, ,0.03669309916144569, ,9.955038577473019e-05, ,1.5, ,0.5073621329332106, ,0.45115405808044734, ,0.04528479010632436
102, ,PASS, ,0.030323189999999983, ,0.0031169020129384185, ,0.036410735002755046, ,9.634324682247634e-05, ,1.4166666666666667, ,0.5013805076627982, ,0.4501336707414134, ,0.04340727740250199
103, ,PASS, ,0.030595199999999982, ,0.0031235542584951903, ,0.036566645489887965, ,9.738464080000491e-05, ,1.4166666666666667, ,0.5031614628224212, ,0.45152139752249953, ,0.0474684190118569
104, ,PASS, ,0.03068680999999998, ,0.0031765577365297005, ,0.03648189672904635, ,9.9402520499637e-05, ,1.5, ,0.5078749013897547, ,0.4493173608701863, ,0.048223505642741984
105, ,PASS, ,0.03104953999999997, ,0.003211553711442599, ,0.03659071573253607, ,0.00010161371344508014, ,1.5, ,0.5051083111133511, ,0.451113242586886, ,0.04646843941960368
106, ,PASS, ,0.031088199999999958, ,0.0032170286537776473, ,0.03664997742454236, ,0.00010187590702620711, ,1.5, ,0.5027487761336391, ,0.45033774820922023, ,0.04306034570723046
107, ,PASS, ,0.030752049999999965, ,0.0031217349924010512, ,0.036647993378706556, ,9.786036223873898e-05, ,1.4166666666666667, ,0.4964712802851812, ,0.449398991857309, ,0.04234607456990674
108, ,PASS, ,0.030556319999999988, ,0.003144993296289422, ,0.0365761638248199, ,9.796151218321262e-05, ,1.4166666666666667, ,0.49598200189669267, ,0.4496030693251158, ,0.046631701393849104
109, ,PASS, ,0.030682179999999986, ,0.0031384334033289565, ,0.036420667669027164, ,9.817977228651654e-05, ,1.5, ,0.49824403557523755, ,0.45021530172853613, ,0.04289708373298504
110, ,PASS, ,0.030888869999999968, ,0.003088015327782598, ,0.03650942128527989, ,9.71760555742447e-05, ,1.4166666666666667, ,0.4871433211946434, ,0.4498071467929226, ,0.039999183690128774
111, ,PASS, ,0.03056056999999999, ,0.0031276812823681937, ,0.03658894412542601, ,9.74604086212582e-05, ,1.4166666666666667, ,0.49901999294839794, ,0.44946021509765105, ,0.04095834778882063
112, ,PASS, ,0.030612269999999983, ,0.003125843118357354, ,0.036655651086916596, ,9.759414219861169e-05, ,1.4166666666666667, ,0.5008676379483383, ,0.44997040876716804, ,0.0446929654496847
113, ,PASS, ,0.030684859999999987, ,0.0031713429182762052, ,0.03644905032162609, ,9.919720600817239e-05, ,1.5, ,0.5034564277418201, ,0.45086834962551786, ,0.040795085814575215
114, ,PASS, ,0.030836769999999982, ,0.003226468203696871, ,0.036692831672006695, ,0.00010128905210351745, ,1.5, ,0.5141698349145273, ,0.45113365033366665, ,0.04355013162996674
115, ,PASS, ,0.030255209999999994, ,0.0030995642802207008, ,0.036610402917083326, ,9.560459226404094e-05, ,1.4166666666666667, ,0.5000981498465517, ,0.4504397869431236, ,0.044937858411052835
116, ,PASS, ,0.030461069999999996, ,0.0031023355288936874, ,0.03673993267688415, ,9.628344370205603e-05, ,1.4166666666666667, ,0.4942877215000996, ,0.4497867390461419, ,0.04508071263851758
117, ,PASS, ,0.030046849999999986, ,0.0030719879603048304, ,0.03652424584396237, ,9.40906916016898e-05, ,1.4166666666666667, ,0.4982221910136359, ,0.4502561172220975, ,0.0419175118875125
118, ,PASS, ,0.03021149999999998, ,0.00309322184431867, ,0.03665355864921124, ,9.528720994670233e-05, ,1.4166666666666667, ,0.4989961128151838, ,0.45029693271565885, ,0.04097875553560131
119, ,PASS, ,0.030224759999999986, ,0.0030733663182207823, ,0.03653291361462011, ,9.464571473799553e-05, ,1.4166666666666667, ,0.4938393253160064, ,0.4496234770718965, ,0.041223648496969446
120, ,PASS, ,0.029868859999999994, ,0.0030578003440734805, ,0.036723482523009734, ,9.305444298278276e-05, ,1.4166666666666667, ,0.49681705296384193, ,0.45005203975429076, ,0.04457051896900063
121, ,PASS, ,0.03023399999999999, ,0.003094822010512723, ,0.03672745478541254, ,9.537453227901812e-05, ,1.4166666666666667, ,0.49799402701926315, ,0.45021530172853613, ,0.042080773861757924
122, ,PASS, ,0.029887309999999983, ,0.0030072546948069273, ,0.03652127563253811, ,9.155162500517487e-05, ,1.4166666666666667, ,0.4939065410137825, ,0.45121528132078936, ,0.04185628864717047
123, ,PASS, ,0.030058239999999983, ,0.0030621827943073596, ,0.036592623305646825, ,9.389514228958454e-05, ,1.4166666666666667, ,0.49866997776400446, ,0.45078671863839515, ,0.04463174220934266
124, ,PASS, ,0.02930671999999998, ,0.0029831689906193175, ,0.03666607925858656, ,8.910172797460897e-05, ,1.4166666666666667, ,0.49371329382882717, ,0.4507254953980531, ,0.04065223158711047
125, ,PASS, ,0.029677280000000007, ,0.0030513150450793827, ,0.03685340998959205, ,9.229976757162062e-05, ,1.4166666666666667, ,0.49789192966964424, ,0.4501540784881941, ,0.048305136629864694
126, ,PASS, ,0.02996513, ,0.0030764616078843227, ,0.036816284448480646, ,9.391826056996876e-05, ,1.4166666666666667, ,0.4969772683724193, ,0.4477051488745128, ,0.045305197853105036
127, ,PASS, ,0.02980859999999999, ,0.003059452447843018, ,0.03679733015081325, ,9.292824527598938e-05, ,1.5, ,0.49948857488028375, ,0.4505214179302463, ,0.04146854145833759
128, ,PASS, ,0.029620379999999988, ,0.0030330616773922765, ,0.037145869829799394, ,9.15758058479807e-05, ,1.4166666666666667, ,0.4991508460711812, ,0.4509091651190792, ,0.04799902042815453
129, ,PASS, ,0.02960252999999999, ,0.003021365742286714, ,0.036890538439623685, ,9.116666864745284e-05, ,1.4166666666666667, ,0.49173674109979126, ,0.4505826411705884, ,0.04250933654415216
130, ,PASS, ,0.029690859999999993, ,0.003033168433086663, ,0.03692333709679394, ,9.184788529878005e-05, ,1.4166666666666667, ,0.4954019098635146, ,0.4502561172220975, ,0.04114201750984674
131, ,PASS, ,0.02970149999999999, ,0.0030124722530199444, ,0.036994355546009265, ,9.120774309687914e-05, ,1.4166666666666667, ,0.49429253856569816, ,0.4505214179302463, ,0.042835860492643006
132, ,PASS, ,0.030110150000000002, ,0.0030476158990251573, ,0.037009436196608236, ,9.363599818818629e-05, ,1.4166666666666667, ,0.4978668496587761, ,0.45066427215771104, ,0.04387665557845758
133, ,PASS, ,0.03006584999999997, ,0.00303227770759259, ,0.037019650148364315, ,9.29378495299909e-05, ,1.4166666666666667, ,0.49058510780631703, ,0.44882757494745007, ,0.0431215689475725
134, ,PASS, ,0.030222949999999995, ,0.0030088954670968687, ,0.03693231863696659, ,9.266994842826427e-05, ,1.4166666666666667, ,0.48646889192761106, ,0.45076631089161445, ,0.03938695128670843
135, ,PASS, ,0.029891119999999997, ,0.003042169984224433, ,0.03669415106650885, ,9.26810324305858e-05, ,1.4166666666666667, ,0.4936177040828326, ,0.45123568906757006, ,0.0421011816085386
136, ,PASS, ,0.029758359999999994, ,0.00304694436049839, ,0.03691929821962817, ,9.24438730541552e-05, ,1.4166666666666667, ,0.4970278073950592, ,0.45078671863839515, ,0.04146854145833759
137, ,PASS, ,0.029784589999999986, ,0.0030399683835490876, ,0.03701336858329422, ,9.226039932471015e-05, ,1.4166666666666667, ,0.4980147568090529, ,0.45037856370278156, ,0.04187669639395114
138, ,PASS, ,0.030072919999999993, ,0.003064846235731748, ,0.03678781583763597, ,9.396218830814915e-05, ,1.5, ,0.49883424301024515, ,0.4506438644109304, ,0.040876716801697924
139, ,PASS, ,0.03003221999999998, ,0.003062739591497818, ,0.03690471562376278, ,9.376275783065328e-05, ,1.4166666666666667, ,0.493815900792256, ,0.4505826411705884, ,0.04640721617926165
140, ,PASS, ,0.030700019999999977, ,0.0030920643521392672, ,0.03685561495316422, ,9.682306759675604e-05, ,1.4166666666666667, ,0.4860429410312667, ,0.4501132629946328, ,0.04183588090038979
141, ,PASS, ,0.05048701999999998, ,0.005440472621602475, ,0.03592734147670455, ,0.00027965856760333875, ,1.5833333333333333, ,0.5353140834520976, ,0.4533172792391992, ,0.04842758311054876
142, ,PASS, ,0.03215461, ,0.0031618307606677814, ,0.03673505798983694, ,0.00010385483195613224, ,1.3333333333333333, ,0.47032300844208186, ,0.44819493479724903, ,0.038407379441235893
143, ,PASS, ,0.02939982999999999, ,0.002897889986612036, ,0.036954686938021675, ,8.692584985226733e-05, ,1.3333333333333333, ,0.4725424627827826, ,0.4481133038101263, ,0.04177465766004775
144, ,PASS, ,0.028953959999999994, ,0.00288824927287265, ,0.037167193456868225, ,8.529519427696821e-05, ,1.3333333333333333, ,0.4749553245925211, ,0.44784800310197753, ,0.039999183690128774
145, ,PASS, ,0.02877408, ,0.0028605011371089103, ,0.03686436386032938, ,8.40017204244033e-05, ,1.4166666666666667, ,0.47792802038528476, ,0.44946021509765105, ,0.03555029489194098
146, ,PASS, ,0.029046949999999978, ,0.0028888637622162907, ,0.03699163835860493, ,8.554106951064624e-05, ,1.4166666666666667, ,0.4751270903962754, ,0.4476439256341707, ,0.038774718883288095
147, ,PASS, ,0.029119879999999987, ,0.0028900221281238253, ,0.03692299979775923, ,8.579071157890233e-05, ,1.4166666666666667, ,0.47976659671237115, ,0.44956225383155446, ,0.042876675986204364
148, ,PASS, ,0.028458800000000003, ,0.002850525090398597, ,0.03696312159057979, ,8.273551069698503e-05, ,1.4166666666666667, ,0.47883953975951105, ,0.44819493479724903, ,0.03983592171588335
149, ,PASS, ,0.02838972999999998, ,0.0028479961858791855, ,0.03692511480990184, ,8.25128557436767e-05, ,1.4166666666666667, ,0.49103350506073956, ,0.45033774820922023, ,0.0438562478316769
150, ,PASS, ,0.028170260000000013, ,0.0028349228262502836, ,0.03721024561233444, ,8.145182723421342e-05, ,1.4166666666666667, ,0.4778922977377036, ,0.44868472071998533, ,0.04103997877594335
151, ,PASS, ,0.028436689999999987, ,0.0028193433014025242, ,0.036967309521438334, ,8.176533726050965e-05, ,1.4166666666666667, ,0.47672091571936276, ,0.44901124466847614, ,0.04014203791759352
152, ,PASS, ,0.028195279999999986, ,0.0028117290764592432, ,0.03703346561764046, ,8.088922124161367e-05, ,1.4166666666666667, ,0.4755854346740111, ,0.4497867390461419, ,0.04308075345401114
153, ,PASS, ,0.028076909999999976, ,0.0027902166345859063, ,0.036965774915205814, ,7.990015534530952e-05, ,1.4166666666666667, ,0.47549837015245566, ,0.449398991857309, ,0.042448113303810125
154, ,PASS, ,0.028043200000000008, ,0.0027956296241054114, ,0.03687128839125733, ,8.003866238379341e-05, ,1.4166666666666667, ,0.4803368622592164, ,0.44786841084875817, ,0.041652211179363685
155, ,PASS, ,0.028023529999999998, ,0.00276806193183045, ,0.03689056751454052, ,7.912811520044966e-05, ,1.3333333333333333, ,0.472725388612771, ,0.4493173608701863, ,0.039999183690128774
156, ,PASS, ,0.028100690000000005, ,0.002783454674576013, ,0.036944071540580804, ,7.986832664255139e-05, ,1.4166666666666667, ,0.4808379417218449, ,0.450480602436685, ,0.04169302667292504
157, ,PASS, ,0.02850608999999998, ,0.002813105961184115, ,0.03701802007530459, ,8.181952535643995e-05, ,1.4166666666666667, ,0.4758580760129412, ,0.4488071672006694, ,0.03577478010652844
158, ,PASS, ,0.02803029999999998, ,0.0027911597677433317, ,0.036967509641844046, ,7.985890042076401e-05, ,1.4166666666666667, ,0.4768262751267788, ,0.44866431297320464, ,0.03765229281035081
159, ,PASS, ,0.028119799999999986, ,0.0027932870655429736, ,0.03694046405012143, ,8.006986847843127e-05, ,1.4166666666666667, ,0.4778807278371454, ,0.4467255770290402, ,0.04234607456990674
160, ,PASS, ,0.02797464999999999, ,0.0028035756928417224, ,0.036835338142486886, ,8.002713178055951e-05, ,1.4166666666666667, ,0.47662478462140606, ,0.44837860451827516, ,0.04103997877594335
161, ,PASS, ,0.02826125999999999, ,0.0027732630014266077, ,0.03686406542172609, ,7.993664244815139e-05, ,1.3333333333333333, ,0.4766836881735821, ,0.45066427215771104, ,0.040693047080671826
162, ,PASS, ,0.028009389999999995, ,0.002817730704536387, ,0.03704051203812168, ,8.051626903684208e-05, ,1.4166666666666667, ,0.4821731522282573, ,0.44903165241525683, ,0.04387665557845758
163, ,PASS, ,0.027890979999999992, ,0.002744500885810814, ,0.03694694259627355, ,7.809478462484772e-05, ,1.3333333333333333, ,0.4707746757682217, ,0.4493173608701863, ,0.0405297851064264
164, ,PASS, ,0.028028290000000004, ,0.0027897862485807296, ,0.036930769159200835, ,7.981058110697392e-05, ,1.4166666666666667, ,0.4794262980342807, ,0.4480316728230036, ,0.044448072488316566
165, ,PASS, ,0.027760729999999987, ,0.0027450059014544493, ,0.03712888132119753, ,7.778879855551225e-05, ,1.4166666666666667, ,0.4776618722363768, ,0.44913369114916024, ,0.03887675761719148
166, ,PASS, ,0.027754229999999998, ,0.002779926128952196, ,0.03710453639191037, ,7.864551119764832e-05, ,1.4166666666666667, ,0.4787564973696651, ,0.4489092059345728, ,0.03883594212363013
167, ,PASS, ,0.027437280000000012, ,0.0027482345191595318, ,0.037009585364788475, ,7.687796029712229e-05, ,1.4166666666666667, ,0.4795043027433641, ,0.4497051080590192, ,0.04457051896900063
168, ,PASS, ,0.028269229999999982, ,0.002894442783128273, ,0.03712890228893288, ,8.33786943221912e-05, ,1.5, ,0.5005500347938733, ,0.4509703883594212, ,0.047815350707128425
169, ,PASS, ,0.027649130000000004, ,0.0027478349075747473, ,0.03697950385277851, ,7.744243582948849e-05, ,1.4166666666666667, ,0.4789637447376239, ,0.4499908165139487, ,0.039182873818901655
170, ,PASS, ,0.027536339999999996, ,0.00274586782955149, ,0.03705997477378013, ,7.713820951405834e-05, ,1.4166666666666667, ,0.4801553210224794, ,0.4496030693251158, ,0.03899920409787555
171, ,PASS, ,0.027560600000000008, ,0.002772193486003699, ,0.03705348123915839, ,7.798198853628371e-05, ,1.4166666666666667, ,0.4899647973736065, ,0.45005203975429076, ,0.04544805208056978
172, ,PASS, ,0.02745101, ,0.0027146936108906825, ,0.037193155328462686, ,7.600502652576882e-05, ,1.3333333333333333, ,0.47069091190014667, ,0.4476847411277321, ,0.035468663904818266
173, ,PASS, ,0.027175640000000015, ,0.002713025993085167, ,0.03692084953429522, ,7.528868635156853e-05, ,1.4166666666666667, ,0.47955576061716, ,0.44862349747964325, ,0.043284830921817924
174, ,PASS, ,0.027107410000000005, ,0.0027150961597048654, ,0.03722953249545928, ,7.506277843977101e-05, ,1.4166666666666667, ,0.47912687993778286, ,0.44868472071998533, ,0.03983592171588335
175, ,PASS, ,0.02718340999999999, ,0.0027069714005355334, ,0.03728431353625436, ,7.506633067418029e-05, ,1.4166666666666667, ,0.4770896074229456, ,0.4483173812779331, ,0.04057060059998775
176, ,PASS, ,0.027201430000000013, ,0.0026984585456420705, ,0.03706125281667721, ,7.482727394152194e-05, ,1.3333333333333333, ,0.4741528380927026, ,0.44958266157833515, ,0.04128487173731148
177, ,PASS, ,0.027252280000000004, ,0.002745814762048563, ,0.03710862367768005, ,7.634498077364497e-05, ,1.4166666666666667, ,0.4948436598784664, ,0.4515418052692802, ,0.04550927532091182
178, ,PASS, ,0.02706340000000002, ,0.0027086935006836034, ,0.036969758804106044, ,7.4741075620853e-05, ,1.4166666666666667, ,0.47902231831869896, ,0.4483377890247138, ,0.04638680843248097
179, ,PASS, ,0.026832400000000017, ,0.002683565826421008, ,0.036969344881533035, ,7.343286040859781e-05, ,1.4166666666666667, ,0.48427442440922497, ,0.4500928552478521, ,0.04434603375441318
180, ,PASS, ,0.026614840000000015, ,0.002669571388103981, ,0.036998244784392155, ,7.250349529033486e-05, ,1.4166666666666667, ,0.4798100391954528, ,0.44864390522642394, ,0.04610109997755148
181, ,PASS, ,0.02669275000000002, ,0.00265844387622489, ,0.036959195676822924, ,7.237790880704274e-05, ,1.3333333333333333, ,0.473872042511621, ,0.44817452705046834, ,0.040795085814575215
182, ,PASS, ,0.026782340000000012, ,0.002675961111487669, ,0.03724649774555622, ,7.308489802964382e-05, ,1.4166666666666667, ,0.476528509089389, ,0.4488683904410114, ,0.04234607456990674
183, ,PASS, ,0.026583350000000006, ,0.0026553079576789322, ,0.03713496947001082, ,7.195181905185592e-05, ,1.3333333333333333, ,0.4761612873177969, ,0.4486030897328626, ,0.0450603048917369
184, ,PASS, ,0.026673880000000018, ,0.002635123743283223, ,0.03708999258566152, ,7.16967389480145e-05, ,1.3333333333333333, ,0.4704664563078657, ,0.4484398277586172, ,0.03922368931246301
185, ,PASS, ,0.026525280000000023, ,0.0026113857216734735, ,0.03677189454643783, ,7.066547632130685e-05, ,1.3333333333333333, ,0.4711389973684712, ,0.4488071672006694, ,0.03946858227383115
186, ,PASS, ,0.026320740000000023, ,0.0026175703283927826, ,0.036817026044162364, ,7.034180930645434e-05, ,1.4166666666666667, ,0.4817552275731492, ,0.44872553621354666, ,0.0417338421664864
187, ,PASS, ,0.02631796000000002, ,0.002609379556278649, ,0.03691523226117835, ,7.009140597277533e-05, ,1.4166666666666667, ,0.47808008074944963, ,0.44919491438950226, ,0.0427542295055203
188, ,PASS, ,0.026380650000000016, ,0.0026004196937964353, ,0.037018868593906254, ,6.991705302110083e-05, ,1.3333333333333333, ,0.46838374868621996, ,0.44874594396032735, ,0.03522377094345013
189, ,PASS, ,0.026259280000000013, ,0.0025929826946521416, ,0.0369038778171874, ,6.941529549999227e-05, ,1.3333333333333333, ,0.4762772786881551, ,0.44937858411052833, ,0.04457051896900063
190, ,PASS, ,0.02621534, ,0.0025987629353782685, ,0.03696149664537459, ,6.943637735658639e-05, ,1.3333333333333333, ,0.47434972024041167, ,0.45125609681435075, ,0.04185628864717047
191, ,PASS, ,0.02595001000000001, ,0.0025673054079689006, ,0.03695963846492929, ,6.796660234700365e-05, ,1.3333333333333333, ,0.4736673540723173, ,0.44986837003326463, ,0.04379502459133487
192, ,PASS, ,0.02612993000000001, ,0.002568056388361521, ,0.03713113687006388, ,6.84495033130911e-05, ,1.3333333333333333, ,0.4695439470798453, ,0.448072488316565, ,0.03740739984898268
193, ,PASS, ,0.026106439999999998, ,0.002604979559610125, ,0.03734564253015245, ,6.941170563942365e-05, ,1.3333333333333333, ,0.4733668341162018, ,0.4476643333809514, ,0.04346850064284402
194, ,PASS, ,0.025903549999999997, ,0.0025987179905705084, ,0.03731487399032673, ,6.865259823780049e-05, ,1.4166666666666667, ,0.4800401682324638, ,0.4488071672006694, ,0.03934613579314708
195, ,PASS, ,0.026664690000000008, ,0.0025917949970551955, ,0.03703656024509704, ,7.042207023936354e-05, ,1.3333333333333333, ,0.4637769445085152, ,0.4484194200118365, ,0.04073386257423318
196, ,PASS, ,0.026279650000000005, ,0.0025963821650451394, ,0.037167460060406936, ,6.961780839260163e-05, ,1.3333333333333333, ,0.469911655578589, ,0.4476439256341707, ,0.04001959143690945
197, ,PASS, ,0.026324440000000005, ,0.002606929978933052, ,0.03713539006183548, ,6.997972958763437e-05, ,1.4166666666666667, ,0.47732032859612145, ,0.4512969123079121, ,0.042448113303810125
198, ,PASS, ,0.026197310000000005, ,0.0025966021142877307, ,0.03706668512234445, ,6.937028899129186e-05, ,1.4166666666666667, ,0.47276241595668206, ,0.4480112650762229, ,0.03942776678026979
199, ,PASS, ,0.026105200000000002, ,0.0025866428201905315, ,0.03696444634680925, ,6.887198549573958e-05, ,1.3333333333333333, ,0.47546352236987366, ,0.44946021509765105, ,0.040060406930470804
200, ,PASS, ,0.02597884000000001, ,0.002577746253111171, ,0.03690826890838963, ,6.83200164813259e-05, ,1.4166666666666667, ,0.47457878078289895, ,0.4489908369216955, ,0.04075427032101386
201, ,PASS, ,0.02635492000000002, ,0.002594743887460918, ,0.036910507938817574, ,6.97577952080588e-05, ,1.3333333333333333, ,0.46845880754350394, ,0.4484398277586172, ,0.03904001959143691
202, ,PASS, ,0.0259413, ,0.0025988317870898224, ,0.037084456154772356, ,6.875047395189549e-05, ,1.4166666666666667, ,0.48050348312623287, ,0.44868472071998533, ,0.04555009081447317
203, ,PASS, ,0.02636812, ,0.0025790138180334403, ,0.037197712718311876, ,6.938429871066372e-05, ,1.3333333333333333, ,0.47158141671329773, ,0.44819493479724903, ,0.041223648496969446
204, ,PASS, ,0.03176148999999998, ,0.0032818172451705213, ,0.03684739436440072, ,0.00010617140665013077, ,1.5, ,0.5076717455007621, ,0.45133772780147347, ,0.047386788024734186
205, ,PASS, ,0.04862486999999997, ,0.005570345436773466, ,0.036460934750515296, ,0.000274430856774316, ,1.9166666666666667, ,0.5945030651241753, ,0.4593375645394992, ,0.05285606416195588
206, ,PASS, ,0.025453929999999993, ,0.0025215281472470816, ,0.0370060018113916, ,6.543516292631412e-05, ,1.3333333333333333, ,0.4664259257274177, ,0.4479704495826616, ,0.04595824575008673
207, ,PASS, ,0.024390830000000006, ,0.0023910189333991726, ,0.036995109844492974, ,5.944645248026681e-05, ,1.3333333333333333, ,0.4603154198054015, ,0.44778677986163545, ,0.04316238444113386
208, ,PASS, ,0.024298590000000026, ,0.0023908451413365197, ,0.03713824051141813, ,5.924685168652766e-05, ,1.25, ,0.4557812098562464, ,0.44662353829513685, ,0.04014203791759352
209, ,PASS, ,0.02427308000000001, ,0.00237938216769378, ,0.037249580787739024, ,5.890642079746124e-05, ,1.3333333333333333, ,0.4606801465718438, ,0.4461133446256199, ,0.04428481051407114
210, ,PASS, ,0.02421866, ,0.0023885723198260656, ,0.037349282854227464, ,5.9056562479875555e-05, ,1.3333333333333333, ,0.4756587079169995, ,0.4496030693251158, ,0.037162506887614535
211, ,PASS, ,0.02419321000000002, ,0.0023755911323949247, ,0.03726600665394584, ,5.864798594160285e-05, ,1.25, ,0.4580057311636422, ,0.4446848023509724, ,0.039550213260953856
212, ,PASS, ,0.024294630000000005, ,0.002387914814788694, ,0.03714993787085978, ,5.916935575032038e-05, ,1.3333333333333333, ,0.46135170056000147, ,0.44662353829513685, ,0.04379502459133487
213, ,PASS, ,0.02432790000000001, ,0.0023998562401222924, ,0.03723714276096406, ,5.954887550862694e-05, ,1.3333333333333333, ,0.4677262298819496, ,0.446929654496847, ,0.04189710414073182
214, ,PASS, ,0.024144540000000006, ,0.0023785650492009172, ,0.036874699959184506, ,5.855142235808929e-05, ,1.3333333333333333, ,0.46404934814535875, ,0.4481541193036877, ,0.040795085814575215
215, ,PASS, ,0.02406609000000003, ,0.0023627805268803207, ,0.03708681011979348, ,5.8005277030599745e-05, ,1.3333333333333333, ,0.46540994599538815, ,0.446358237586988, ,0.04201955062141589
216, ,PASS, ,0.02434809000000001, ,0.0024038883605455347, ,0.03720926394604192, ,5.972243420473384e-05, ,1.3333333333333333, ,0.45919138377901636, ,0.44319503683598294, ,0.041182833003408095
217, ,PASS, ,0.024479600000000008, ,0.002374166087597904, ,0.03709290395685803, ,5.929773657888431e-05, ,1.3333333333333333, ,0.4617529537223589, ,0.44786841084875817, ,0.038693087896165386
218, ,PASS, ,0.02458965, ,0.002397041723370442, ,0.03710133315585396, ,6.0159077789148927e-05, ,1.3333333333333333, ,0.4615036348702104, ,0.44701128548396973, ,0.04177465766004775
219, ,PASS, ,0.024434220000000006, ,0.002379551740099775, ,0.037093187927389235, ,5.9269163743381204e-05, ,1.25, ,0.45917912413815626, ,0.447501071406706, ,0.03887675761719148
220, ,PASS, ,0.024594200000000004, ,0.002411326295631671, ,0.03703462723454624, ,6.047602033695965e-05, ,1.3333333333333333, ,0.4698995220179402, ,0.4507254953980531, ,0.04557049856125385
221, ,PASS, ,0.024674889999999998, ,0.0023947124675887735, ,0.037134222144650106, ,6.028086231429579e-05, ,1.3333333333333333, ,0.4592957521138004, ,0.44576641293034835, ,0.04175424991326707
222, ,PASS, ,0.0246905, ,0.0024132801552277138, ,0.0371038100389788, ,6.0758519533987794e-05, ,1.3333333333333333, ,0.4582443741983603, ,0.44503173404624397, ,0.038591049162262
223, ,PASS, ,0.024603110000000008, ,0.0024001657765790906, ,0.037212296948225546, ,6.024899709598278e-05, ,1.3333333333333333, ,0.46028230413522264, ,0.44574600518356766, ,0.04259096753127487
224, ,PASS, ,0.02481414, ,0.002435151503108675, ,0.03711306543601151, ,6.164261033337058e-05, ,1.3333333333333333, ,0.46359944325793223, ,0.4468276157629436, ,0.04591743025652538
225, ,PASS, ,0.024801949999999996, ,0.002441590831589496, ,0.037031736316401706, ,6.175959573536668e-05, ,1.3333333333333333, ,0.45910759964497005, ,0.4447460255913145, ,0.042488928797371484
226, ,PASS, ,0.02497357, ,0.0024127199988053525, ,0.03702418230097345, ,6.141062219454248e-05, ,1.3333333333333333, ,0.4591912432321754, ,0.44911328340237955, ,0.03685639068590437
227, ,PASS, ,0.024759120000000006, ,0.0024113008417248056, ,0.037127235135405404, ,6.089974693359152e-05, ,1.3333333333333333, ,0.4554463413840788, ,0.4467459847758209, ,0.04471337319646538
228, ,PASS, ,0.024647690000000003, ,0.0024057187267147308, ,0.037164724303381566, ,6.044913653794959e-05, ,1.3333333333333333, ,0.4602706653265083, ,0.4472969939388992, ,0.04265219077161691
229, ,PASS, ,0.024769870000000003, ,0.002438166876786775, ,0.0373138836482929, ,6.15283825139436e-05, ,1.3333333333333333, ,0.46231135555629793, ,0.4468480235097243, ,0.03850941817513928
230, ,PASS, ,0.024654249999999985, ,0.0024218965146297366, ,0.03702573611375278, ,6.0872318661035624e-05, ,1.3333333333333333, ,0.460853939737117, ,0.44505214179302466, ,0.042448113303810125
231, ,PASS, ,0.02460080000000001, ,0.002386845883615041, ,0.03710870134078897, ,5.98539972814505e-05, ,1.25, ,0.4599070813013725, ,0.4471949552049958, ,0.040386930878961655
232, ,PASS, ,0.02512044999999999, ,0.0024697640236519473, ,0.03726247719209812, ,6.323114034328732e-05, ,1.3333333333333333, ,0.4643887405989913, ,0.4476235178873901, ,0.03330544274606641
233, ,PASS, ,0.02567626000000001, ,0.0025140262075191945, ,0.037258949957960044, ,6.577946780118247e-05, ,1.3333333333333333, ,0.4657514767144936, ,0.44699087773718904, ,0.04322360768147589
234, ,PASS, ,0.02485120999999999, ,0.002396564222240359, ,0.037107030746923536, ,6.0706501599585e-05, ,1.3333333333333333, ,0.45217471129041165, ,0.44697046999040835, ,0.037162506887614535
235, ,PASS, ,0.02505116, ,0.002419648032766127, ,0.03718962998897982, ,6.17593471036386e-05, ,1.3333333333333333, ,0.45505237652189606, ,0.4466643537886982, ,0.04281545274586233
236, ,PASS, ,0.02547013999999998, ,0.002430487826236162, ,0.037112204183996245, ,6.306686001801973e-05, ,1.3333333333333333, ,0.4494177378387389, ,0.4474806636599253, ,0.03567274137262505
237, ,PASS, ,0.02532406000000001, ,0.0024552180337996743, ,0.037016701792412406, ,6.335944719831899e-05, ,1.3333333333333333, ,0.45306135382033014, ,0.446358237586988, ,0.04265219077161691
238, ,PASS, ,0.02534138, ,0.002418137408981036, ,0.03710120103140752, ,6.248195914703198e-05, ,1.3333333333333333, ,0.44779276244109617, ,0.44786841084875817, ,0.03704006040693047
239, ,PASS, ,0.02526924, ,0.0024522706332276334, ,0.03713976091161405, ,6.315343288650728e-05, ,1.3333333333333333, ,0.4524432519499833, ,0.44456235587028836, ,0.03899920409787555
240, ,PASS, ,0.025657250000000006, ,0.002480441370963828, ,0.03704783332278933, ,6.490454934802184e-05, ,1.3333333333333333, ,0.45531911080336934, ,0.44621538335952327, ,0.04322360768147589
241, ,PASS, ,0.02588883000000001, ,0.002520047722819681, ,0.03692437514111957, ,6.648835494344235e-05, ,1.3333333333333333, ,0.4603617781711003, ,0.4472765861921185, ,0.04585620701618334
242, ,PASS, ,0.025573289999999995, ,0.0024796115066870288, ,0.03700602331666701, ,6.464395531192429e-05, ,1.3333333333333333, ,0.4530668251654009, ,0.4455827432093223, ,0.04018285341115487
243, ,PASS, ,0.025818370000000004, ,0.0024981950458455647, ,0.037183382557702906, ,6.575114061639864e-05, ,1.3333333333333333, ,0.4527494252422135, ,0.4480316728230036, ,0.04152976469867962
244, ,PASS, ,0.02584067999999999, ,0.002485102895727094, ,0.03704728748739822, ,6.545899446935281e-05, ,1.3333333333333333, ,0.44409252379400926, ,0.44327666782310565, ,0.03887675761719148
245, ,PASS, ,0.025903250000000003, ,0.0024652284410172976, ,0.036945716291708335, ,6.508783098917403e-05, ,1.25, ,0.4469988117729198, ,0.4456235587028836, ,0.038346156200893856
246, ,PASS, ,0.025974009999999978, ,0.00250441003634452, ,0.03711695759229403, ,6.633648466849267e-05, ,1.25, ,0.4480134592480034, ,0.4448888798187792, ,0.04463174220934266
247, ,PASS, ,0.026115089999999997, ,0.0024865578750318026, ,0.03702420530336116, ,6.622546189108794e-05, ,1.25, ,0.452550308028679, ,0.43060345707230463, ,0.03644823575029081
248, ,PASS, ,0.02622408, ,0.002485695844156588, ,0.037023499168792474, ,6.647106316603141e-05, ,1.25, ,0.44710547009305557, ,0.44660313054835615, ,0.042366482316687416
249, ,PASS, ,0.02584246, ,0.002499786188347736, ,0.03699468646762311, ,6.586320959510707e-05, ,1.25, ,0.44789356444290357, ,0.44529703475439275, ,0.04073386257423318
250, ,PASS, ,0.025919120000000004, ,0.002470402484220492, ,0.036971367656578435, ,6.529779329083457e-05, ,1.25, ,0.44419012101049515, ,0.4455419277157609, ,0.03887675761719148
251, ,PASS, ,0.026031600000000005, ,0.002492641146977168, ,0.03692286901532622, ,6.61111861152286e-05, ,1.25, ,0.42319943237659996, ,0.46874553580539174, ,0.04350931613640538
252, ,PASS, ,0.025353710000000012, ,0.0024165846133394992, ,0.037202858755331525, ,6.24781079779304e-05, ,1.25, ,0.4459734462378194, ,0.44697046999040835, ,0.0407134548274525
253, ,PASS, ,0.025617650000000002, ,0.0024412179191020023, ,0.03698310221260791, ,6.378220300824608e-05, ,1.25, ,0.4478814675849777, ,0.43158302891777717, ,0.03810126323952572
254, ,PASS, ,0.026185799999999995, ,0.002464608864730594, ,0.03716038082855452, ,6.57888258763175e-05, ,1.25, ,0.4589333631324496, ,0.4229505520295504, ,0.03577478010652844
255, ,PASS, ,0.026546530000000023, ,0.0024805054464070186, ,0.03694038030285097, ,6.711417546185865e-05, ,1.1666666666666667, ,0.44436412284027643, ,0.4360115099691843, ,0.040448154119303685
