Channel, ,Pass/Fail, ,Amplitude, ,Sorting Function Response, ,Mean, ,Variance, ,NPeaksRatio, ,PosIntegralRatio, ,ToT50, ,ToT99
24, ,PASS, ,0.04716858, ,0.007288949304470188, ,0.03684223640558356, ,0.0003471310468990516, ,1.75, ,0.7223522377111169, ,0.5329483071774045, ,0.12036489051243852
25, ,PASS, ,0.09301245899999999, ,0.01270056881936706, ,0.035971470036635984, ,0.0011891046041309034, ,1.75, ,0.6621020485768551, ,0.510295708250852, ,0.05781514662966062
26, ,PASS, ,0.04544156, ,0.007493991790067263, ,0.03700392306034571, ,0.00034447044523409665, ,1.9166666666666667, ,0.7572780041522743, ,0.5403155037652293, ,0.15758862064039508
27, ,PASS, ,0.052255291, ,0.007600523911394547, ,0.0367348872937287, ,0.0004009183412241104, ,1.75, ,0.6936095241017641, ,0.5291932817697598, ,0.07687598212281382
28, ,PASS, ,0.09746313000000002, ,0.012789077486036174, ,0.03590328792421379, ,0.0012542912238517072, ,1.75, ,0.6477631334549689, ,0.5111936491092018, ,0.04067263933389115
29, ,PASS, ,0.05110172299999998, ,0.007836438792698418, ,0.03709182846962307, ,0.0004052357251629648, ,1.75, ,0.7245777553286518, ,0.5361931389155323, ,0.07161078345339891
30, ,PASS, ,0.05504703799999999, ,0.007809076404455761, ,0.036809456822513825, ,0.0004342750743675139, ,1.75, ,0.6849040523578962, ,0.5281320789371645, ,0.0619987347196996
31, ,PASS, ,0.10473171999999999, ,0.013657821882132994, ,0.03591430422458929, ,0.0014408070651280697, ,1.75, ,0.6467637180499837, ,0.5090100202036694, ,0.04008081467725148
32, ,PASS, ,0.05895229199999996, ,0.008752567915199103, ,0.03722126960802841, ,0.0005215209199997032, ,1.75, ,0.7092115528828563, ,0.5376420889369604, ,0.05367237403318299
33, ,PASS, ,0.051005045999999984, ,0.007562602734306443, ,0.03665324750964266, ,0.0003895848056020462, ,1.75, ,0.7019629677788487, ,0.5283361564049713, ,0.09010020203669312
34, ,PASS, ,0.10189479000000001, ,0.013575046881816348, ,0.03603707828287994, ,0.0013923729006271627, ,1.75, ,0.6544984084293263, ,0.5122752596885778, ,0.04359094712352809
35, ,PASS, ,0.056760244, ,0.00877891566322338, ,0.037240316829227973, ,0.000503822275748045, ,1.75, ,0.7268498214048621, ,0.535580906512112, ,0.08393706250892839
36, ,PASS, ,0.054867491000000004, ,0.00784674111480145, ,0.036750368983694215, ,0.000434818237331711, ,1.75, ,0.6875098201939535, ,0.5263770127140263, ,0.07654945817432297
37, ,PASS, ,0.10419147000000002, ,0.013857477452021604, ,0.03613120884519295, ,0.001453415521737715, ,1.75, ,0.6536443774147896, ,0.5124589294096039, ,0.04379502459133487
38, ,PASS, ,0.06012051899999997, ,0.009049874373451795, ,0.03718633729172874, ,0.0005496444539375009, ,1.75, ,0.7140122431950029, ,0.5341727719842452, ,0.06854962143629721
39, ,PASS, ,0.04778745899999999, ,0.007290178644442441, ,0.036857720832431995, ,0.0003520200317017392, ,1.75, ,0.7165450692923269, ,0.5336625783147283, ,0.11183445235811514
40, ,PASS, ,0.095781807, ,0.013342655800147764, ,0.03637274691093651, ,0.0012880507716769075, ,1.75, ,0.6750353546491078, ,0.5164588477786167, ,0.06350890798146977
41, ,PASS, ,0.051228716999999986, ,0.008344976706267255, ,0.036935010342462396, ,0.0004326324481444589, ,1.8333333333333333, ,0.7514416622297284, ,0.5400910185506418, ,0.1486092120568968
42, ,PASS, ,0.049417443, ,0.0074763992294705475, ,0.03659094233382992, ,0.0003732307141869196, ,1.75, ,0.7140385073814809, ,0.5315809881430992, ,0.10799779596334769
43, ,PASS, ,0.09670788999999999, ,0.013613575321095885, ,0.036169472688116565, ,0.0013252563891836093, ,1.75, ,0.6766716823671831, ,0.515683353400951, ,0.06879451439766536
44, ,PASS, ,0.05316257500000001, ,0.008576151333486326, ,0.03702426820432236, ,0.0004613706866694815, ,1.8333333333333333, ,0.7429697463753768, ,0.5358257994734801, ,0.1267729230015714
45, ,PASS, ,0.050715974999999976, ,0.007681927166825328, ,0.03674415852288729, ,0.0003934621547697873, ,1.75, ,0.7110852717730266, ,0.5316422113834411, ,0.10812024244403176
46, ,PASS, ,0.09848516, ,0.014049816512498493, ,0.036334225170221016, ,0.001393316788529454, ,1.75, ,0.6824885169106585, ,0.5171323034223791, ,0.07289647150058162
47, ,PASS, ,0.05432907300000005, ,0.008697246588338616, ,0.0369968961659558, ,0.0004777705072625243, ,1.75, ,0.7398680826957563, ,0.5349890818554723, ,0.13007897798004123
48, ,PASS, ,0.04751743600000001, ,0.007448847257614519, ,0.03650850027652497, ,0.00035784139189575073, ,1.75, ,0.7304296587953771, ,0.532478929001449, ,0.1368339421644456
49, ,PASS, ,0.09430794200000002, ,0.013787436574804801, ,0.03638115609417154, ,0.0013104901459680472, ,1.75, ,0.6941183676855489, ,0.5175812738515541, ,0.09432460562029346
50, ,PASS, ,0.050713868999999974, ,0.00841690568465621, ,0.037115591053815226, ,0.000431857771261931, ,1.8333333333333333, ,0.7585509261977756, ,0.5389685924777046, ,0.17534336033958492
51, ,PASS, ,0.05124848699999999, ,0.007782669554721045, ,0.03662511446643946, ,0.00040267675787886555, ,1.75, ,0.7149682798344399, ,0.5320707740658354, ,0.10877329034101345
52, ,PASS, ,0.09624199000000001, ,0.01404467926650634, ,0.036321168874149504, ,0.0013621085467556508, ,1.75, ,0.6926440364534451, ,0.5174180118773086, ,0.0883655435603355
53, ,PASS, ,0.05358698900000002, ,0.008681082324263812, ,0.036955760010836516, ,0.0004702555305077308, ,1.8333333333333333, ,0.7463123038124788, ,0.5373359727352504, ,0.15085406420277137
54, ,PASS, ,0.04525907, ,0.007257929435934439, ,0.03674505043346054, ,0.0003318879302404682, ,1.8333333333333333, ,0.7441705924789223, ,0.5379073896451093, ,0.13540539988979816
55, ,PASS, ,0.08815418200000007, ,0.013674958920348914, ,0.03680658312307504, ,0.0012146151099375836, ,1.75, ,0.7210909192556537, ,0.5242546070488358, ,0.13550743862370157
56, ,PASS, ,0.045826549999999994, ,0.007775479695342896, ,0.03708028212240567, ,0.00036092140561103895, ,1.9166666666666667, ,0.772674538186577, ,0.5433562580355503, ,0.1693434827860656
57, ,PASS, ,0.04632445, ,0.007417904668598605, ,0.036779954150119386, ,0.00034711169913219126, ,1.75, ,0.7417879763393627, ,0.5366829248382686, ,0.14162976265790495
58, ,PASS, ,0.08769927800000005, ,0.01358391615325628, ,0.03664808292179752, ,0.001200631076809024, ,1.75, ,0.7199686636334186, ,0.52227505561111, ,0.13316054774392358
59, ,PASS, ,0.04667528, ,0.007862799442935527, ,0.03712464353013204, ,0.0003713371044592466, ,1.9166666666666667, ,0.7683217983029439, ,0.5419889390012449, ,0.1658129425930083
60, ,PASS, ,0.049823927999999976, ,0.00793706092003187, ,0.03671882141609355, ,0.0003996603330697732, ,1.75, ,0.7368424882309852, ,0.5333768698597988, ,0.12920144486847207
61, ,PASS, ,0.09259790199999995, ,0.01458069830412866, ,0.03720783720124079, ,0.0013605671298310576, ,1.75, ,0.7285328073119017, ,0.5265810901818331, ,0.14705822330156526
62, ,PASS, ,0.05052762299999999, ,0.008480882888412778, ,0.03699418772110773, ,0.0004334802675869352, ,1.8333333333333333, ,0.7648133535259639, ,0.5392951164261954, ,0.168302687700251
198, ,PASS, ,0.19806868000000005, ,0.03583282033651068, ,0.046635434816636394, ,0.007413930421121238, ,1.8333333333333333, ,0.9082305535027128, ,0.5861104875410705, ,0.1255688659415114
199, ,PASS, ,0.085908258, ,0.01413489452571709, ,0.042109474016142526, ,0.0012692376831865283, ,2.0, ,0.9017304243381797, ,0.5837023734209505, ,0.0907736576804555
200, ,PASS, ,0.08348211799999997, ,0.012012722546543972, ,0.041880342289379806, ,0.001052098992260097, ,2.0, ,0.882021950106628, ,0.5861308952878512, ,0.0779167772086284
201, ,PASS, ,0.074316183, ,0.011310436903409141, ,0.041215389529968775, ,0.0008796798307093671, ,2.0, ,0.8860573329094046, ,0.5849472459745719, ,0.0763453807065162
202, ,PASS, ,0.08217393399999998, ,0.012014723314931058, ,0.04179407501388135, ,0.0010297576008267248, ,2.0, ,0.881675165052183, ,0.586845166425175, ,0.06622313830329993
203, ,PASS, ,0.07189517899999996, ,0.010665444158812048, ,0.04089542059768168, ,0.0008107897196378172, ,2.0, ,0.8814303822707045, ,0.5824370931205486, ,0.06157017203730536
204, ,PASS, ,0.08912384000000004, ,0.01259938318550212, ,0.042220058932056485, ,0.001183252347322826, ,2.0, ,0.882156210851876, ,0.5852737699230628, ,0.07036591089977756
205, ,PASS, ,0.09032278000000002, ,0.013006394916643352, ,0.042287561594967445, ,0.0012243371731013783, ,2.0, ,0.8828696445902855, ,0.5881716699659191, ,0.0691210383461562
206, ,PASS, ,0.09466640999999999, ,0.013390269001492285, ,0.04271085474462154, ,0.0013179447029206016, ,2.0, ,0.881962769549108, ,0.5897022509744699, ,0.06640680802432604
207, ,PASS, ,0.10705495, ,0.015794885472073413, ,0.0434278964273178, ,0.0017613615955184814, ,2.0, ,0.886511056584851, ,0.5881920777126998, ,0.07746780677945347
208, ,PASS, ,0.07622527199999998, ,0.010374635873627202, ,0.04126004771059774, ,0.0008353192976804847, ,2.0, ,0.8761498997447676, ,0.5854370318973082, ,0.06448847982694231
209, ,PASS, ,0.07476819400000001, ,0.010583476368740628, ,0.04123425022924022, ,0.0008259501021519965, ,2.0, ,0.8777161007221834, ,0.5869880206526398, ,0.06771290381828943
210, ,PASS, ,0.07172488999999999, ,0.009754847846501097, ,0.041033548699373486, ,0.0007320888626364992, ,2.0, ,0.8721255627665809, ,0.5877839227770861, ,0.056855982530968754
211, ,PASS, ,0.07106080199999999, ,0.009913216925322356, ,0.04110359336323748, ,0.0007363649038046996, ,2.0, ,0.8763168358273594, ,0.5872533213607886, ,0.06540682843207281
212, ,PASS, ,0.08969566, ,0.01227316944258775, ,0.042175607350017345, ,0.0011588092223662116, ,2.0, ,0.8794892012955341, ,0.5860696720475093, ,0.06942715454786637
213, ,PASS, ,0.10151029999999998, ,0.014266154755685557, ,0.04329922413285443, ,0.0015062791431402918, ,2.0, ,0.8843447567138966, ,0.5901716291504255, ,0.07620252647905144
214, ,PASS, ,0.09970870000000001, ,0.013585226778151964, ,0.04315966974167058, ,0.001406384311456332, ,2.0, ,0.8819475764889195, ,0.5922124038284933, ,0.07754943776657619
215, ,PASS, ,0.12105882, ,0.01753728445834163, ,0.04447528519193485, ,0.0021948544196220246, ,2.0, ,0.8878262843609566, ,0.5927634129915716, ,0.07863104834595212
216, ,PASS, ,0.10191039, ,0.013936007969864573, ,0.04334029805710087, ,0.0014778323301640832, ,2.0, ,0.881166169661829, ,0.5909267157813106, ,0.06938633905430501
217, ,PASS, ,0.1120686, ,0.015738297636737855, ,0.0437262763854207, ,0.0018465511302184904, ,2.0, ,0.8871914786083698, ,0.5879675924981123, ,0.0781004469296545
218, ,PASS, ,0.11499591999999999, ,0.015932778423317168, ,0.04429673313050753, ,0.0018978382924607926, ,2.0, ,0.8837368154856463, ,0.5926409665108875, ,0.07769229199404094
219, ,PASS, ,0.10680947999999996, ,0.01486013789420417, ,0.043703568520254685, ,0.00164770934828795, ,2.0, ,0.8853651548613075, ,0.5914981326911696, ,0.07932491173649517
220, ,PASS, ,0.06096250040000003, ,0.008173008028034797, ,0.04033960401073448, ,0.0005225607529388513, ,2.0, ,0.8644622238392132, ,0.58609007979429, ,0.04791738944103181
221, ,PASS, ,0.07148183500000002, ,0.009916714130355945, ,0.04105458639678782, ,0.0007410560624940585, ,2.0, ,0.8738376900786888, ,0.5863757882492194, ,0.06387624742352196
222, ,PASS, ,0.06953271200000002, ,0.009374768954990603, ,0.04098491317354747, ,0.0006822645240248547, ,2.0, ,0.8631420336750008, ,0.5859268178200445, ,0.055549886737005366
223, ,PASS, ,0.07983537200000002, ,0.010851776830938782, ,0.04174612079565723, ,0.0009089620743392356, ,2.0, ,0.8779593148375432, ,0.5876410685496214, ,0.07005979469806739
224, ,PASS, ,0.12282423999999997, ,0.01696447565182124, ,0.0446314287971674, ,0.0021736306939749528, ,2.0, ,0.8832580622146375, ,0.5902328523907675, ,0.07773310748760229
225, ,PASS, ,0.10354752, ,0.013987836442154074, ,0.043347090331205484, ,0.0015114627269508358, ,2.0, ,0.8805383943238414, ,0.5895185812534438, ,0.07185567641476705
226, ,PASS, ,0.09930823999999999, ,0.012545958854271977, ,0.042996949255980486, ,0.0013121780166763719, ,2.0, ,0.8791628146937855, ,0.5895593967470052, ,0.06910063059937552
227, ,PASS, ,0.14738455999999994, ,0.021479505175475058, ,0.046374224062774215, ,0.0032727790255138666, ,2.0, ,0.8878974552151896, ,0.5918858798800024, ,0.07856982510561009
228, ,PASS, ,0.11650195999999999, ,0.015725912923406516, ,0.044028172650068365, ,0.0019303919425188994, ,2.0, ,0.8774407732002313, ,0.5859676333136058, ,0.06446807208016163
229, ,PASS, ,0.10476060999999996, ,0.014108130247511317, ,0.043414409969461845, ,0.0015432591351729743, ,2.0, ,0.8791209074986034, ,0.5889879798371462, ,0.06032529948368401
230, ,PASS, ,0.07916232300000002, ,0.010089042483727353, ,0.04162275043084834, ,0.0008402936544209875, ,2.0, ,0.8677252044672014, ,0.5874369910818147, ,0.053590743046060284
231, ,PASS, ,0.13365454999999998, ,0.019118194329034884, ,0.045079409262668096, ,0.0026812744718539153, ,2.0, ,0.8862126766717564, ,0.5862329340217547, ,0.07516173139323687
232, ,PASS, ,0.10038039, ,0.012452066896011917, ,0.043069486097520454, ,0.001311352087253877, ,2.0, ,0.8795202916925374, ,0.5904369298585743, ,0.06340686924756637
233, ,PASS, ,0.11968326999999995, ,0.01484327723830963, ,0.04446014775424991, ,0.0018587105612353565, ,2.0, ,0.8868262928971925, ,0.5920695496010285, ,0.06840676720883247
234, ,PASS, ,0.14272629999999994, ,0.017511173569380433, ,0.0460225971617722, ,0.0026151371411226028, ,2.0, ,0.8909448213280411, ,0.5932736066610885, ,0.07044754188690026
235, ,PASS, ,0.2594210000000001, ,0.045781955762017004, ,0.059356188618395526, ,0.01235151231190422, ,1.9166666666666667, ,0.9082136191632314, ,0.5877022917899635, ,0.1065896614354809
